%YAML 1.1
%TAG !u! tag:unity3d.com,2011:
--- !u!21 &2100000
Material:
  serializedVersion: 6
  m_ObjectHideFlags: 0
  m_PrefabParentObject: {fileID: 0}
  m_PrefabInternal: {fileID: 0}
  m_Name: WhiteGem
  m_Shader: {fileID: 4800000, guid: 66fed5dd5b3755d4199f36edae55e880, type: 3}
  m_ShaderKeywords: 
  m_LightmapFlags: 5
  m_CustomRenderQueue: -1
  stringTagMap: {}
  m_SavedProperties:
    serializedVersion: 2
    m_TexEnvs:
    - first:
        name: _2D
      second:
        m_Texture: {fileID: 0}
        m_Scale: {x: 1, y: 1}
        m_Offset: {x: 0, y: 0}
    - first:
        name: _FogRamp
      second:
        m_Texture: {fileID: 2800000, guid: f1dbb0d042882054c900bf39c1603a5a, type: 3}
        m_Scale: {x: 1, y: 1}
        m_Offset: {x: 0, y: 0}
    - first:
        name: _MainTex
      second:
        m_Texture: {fileID: 0}
        m_Scale: {x: 1, y: 1}
        m_Offset: {x: 0, y: 0}
    - first:
        name: _RampTex
      second:
        m_Texture: {fileID: 0}
        m_Scale: {x: 1, y: 1}
        m_Offset: {x: 0, y: 0}
    - first:
        name: _ReflectTex
      second:
        m_Texture: {fileID: 8900000, guid: 25793ebbbd111a7011005aba44295342, type: 2}
        m_Scale: {x: 1, y: 1}
        m_Offset: {x: 0, y: 0}
    - first:
        name: _RefractTex
      second:
        m_Texture: {fileID: 8900000, guid: 51e3f49dbd110a7011005aba44295342, type: 2}
        m_Scale: {x: 1, y: 1}
        m_Offset: {x: 0, y: 0}
    m_Floats:
    - first:
        name: _CutoffIntensity
      second: 0.5
    - first:
        name: _Emission
      second: 0.69
    - first:
        name: _Emissive
      second: 0
    - first:
        name: _EnvironmentLight
      second: 0.79
    - first:
        name: _GameTime
      second: 0
    - first:
        name: _GradIntensity
      second: 0.3
    - first:
        name: _GradYCap
      second: 1
    - first:
        name: _HighIntensity
      second: 1.27
    - first:
        name: _IndexOfRefraction
      second: 2.14
    - first:
        name: _LightScalar
      second: 0.18
    - first:
        name: _LowIntensity
      second: 0.91
    - first:
        name: _RampIntensity
      second: 0.155
    - first:
        name: _RampLevels
      second: 0
    - first:
        name: _ReflectionStrength
      second: 1.69
    - first:
        name: _RimPower
      second: 0.18
    - first:
        name: _RimScalar
      second: 2
    - first:
        name: _WindScalar
      second: 1
    m_Colors:
    - first:
        name: _Color
      second: {r: 0, g: 1, b: 0.21379304, a: 1}
    - first:
        name: _HighColor
      second: {r: 0.8602941, g: 0.8571967, b: 0.41116995, a: 1}
    - first:
        name: _LowColor
      second: {r: 0.54217124, g: 0.6083373, b: 0.8014706, a: 1}
    - first:
        name: _MainTex_ST
      second: {r: 1, g: 1, b: 0, a: 0}
    - first:
        name: _ReflectTex_ST
      second: {r: 1, g: 1, b: 0, a: 0}
    - first:
        name: _RefractTex_ST
      second: {r: 1, g: 1, b: 0, a: 0}
--- !u!1002 &2100001
EditorExtensionImpl:
  serializedVersion: 6
