# Blender v2.78 (sub 0) OBJ File: ''
# www.blender.org
mtllib Oak_Tree_NoLeaves_m_01.mtl
o Oak_Tree_NoLeaves_m_01
v -0.022221 0.352531 0.216857
v -0.209287 0.334989 0.038366
v -0.250504 0.030724 0.060381
v -0.026101 0.033618 0.267282
v -0.211332 0.327212 -0.148144
v -0.252903 0.029730 -0.168431
v 0.260096 0.318745 0.084044
v 0.300198 0.028708 0.109587
v -0.068542 1.133882 -0.258711
v 0.158997 1.112369 -0.168699
v 0.256977 0.306986 -0.189650
v -0.026422 0.336502 -0.334545
v -0.031085 0.031630 -0.383605
v 0.296647 0.027085 -0.212740
v -0.221692 1.122007 -0.137617
v -0.066271 1.148790 0.127007
v -0.220604 1.129262 0.011464
v 0.160901 1.123097 0.046636
v -0.470193 1.976528 -0.204475
v -0.358385 2.013963 -0.274664
v -0.238335 2.046046 -0.205028
v -0.246152 2.060675 -0.062265
v -0.367172 2.027217 0.001836
v -0.474965 1.983015 -0.071103
v -0.777969 2.785779 -0.032487
v -0.869953 2.755766 -0.084420
v -0.590690 2.631009 -0.168006
v -0.660058 2.790591 -0.068887
v -0.869797 2.751221 -0.197362
v -0.748017 2.763051 -0.238901
v -0.901259 4.032599 -0.523667
v -0.994418 4.124299 -0.455111
v -1.090938 4.019773 -0.381924
v -1.081498 4.100787 -0.561130
v -0.697217 2.934258 -0.174495
v -0.918369 4.009740 -0.599380
v -0.993850 4.010733 -0.635500
v -0.176437 3.027109 0.075380
v -0.197003 3.123553 0.032446
v -0.161571 3.111561 -0.051510
v -0.114467 3.018566 -0.035692
v 0.335417 4.004792 0.549426
v 0.437485 4.035403 0.480719
v 0.496331 3.905152 0.431454
v 0.434426 3.944103 0.576988
v 0.433423 4.667480 1.334283
v 0.402557 4.691549 1.304546
v 0.533932 4.110272 0.624643
v 0.467701 4.712232 1.314320
v 0.429284 4.719245 1.282094
v 1.101151 3.995847 0.480653
v 1.084149 4.071747 0.490313
v 0.599610 5.285187 1.671212
v 0.613092 5.299338 1.660362
v 0.632470 5.292871 1.672575
v 0.615308 5.273826 1.685936
v -0.678248 4.561703 -1.445240
v -0.659835 4.590842 -1.411229
v -0.753385 4.553273 -1.407564
v -0.687404 4.629393 -1.398193
v -1.039733 4.278061 -0.602322
v -1.386237 4.660458 -0.211872
v -1.335018 4.704719 -0.234798
v -0.726223 4.639261 -1.428926
v -1.319150 4.680694 -0.142522
v -1.376919 4.645199 -0.128611
v -1.373649 5.325353 -0.170191
v -1.335348 5.335841 -0.192976
v -1.325031 5.341144 -0.131827
v -1.366364 5.334768 -0.116599
v -1.476189 6.303146 0.070594
v -1.471102 6.296435 0.096552
v -1.487431 6.286664 0.100017
v -1.490758 6.291117 0.076634
v -0.471125 5.261407 -1.887596
v -0.462781 5.269841 -1.873253
v -0.501315 5.232199 -1.857132
v -0.474852 5.279935 -1.865238
v 1.067811 4.065098 0.410250
v 1.110075 4.025984 0.416239
v 1.503104 4.425591 0.207365
v 1.522594 4.408954 0.195111
v 1.502356 4.420382 0.238031
v 1.517943 4.398922 0.222359
v -0.560364 4.940490 -1.709360
v -0.908255 4.293172 -0.985732
v -1.431973 5.848252 -0.043418
v -0.877536 2.751987 -0.140549
v 0.144983 0.029358 -0.332206
v 1.072715 4.074018 0.450361
v -1.355350 5.329430 -0.187050
v -0.438625 2.853933 -0.008277
v -0.675290 2.349299 -0.066374
v -0.196215 1.580338 -0.265000
v 0.504147 5.023212 1.524854
v 0.180924 1.114767 -0.060524
v 0.382379 4.359741 0.932861
v -1.243758 4.360344 -0.268591
v -0.232915 2.057299 -0.133431
v -0.816792 4.302138 -1.020216
v -0.181842 3.127082 -0.011848
v 0.470322 3.884294 0.475638
v -0.472061 2.410301 -0.060311
v -0.426102 2.003540 -0.025987
v -0.330573 1.561101 -0.031548
v 1.525152 4.429600 0.193835
v -1.340962 4.994370 -0.212902
v 0.779539 3.956820 0.532780
v -0.027429 1.599257 -0.010096
v -1.483625 6.320487 0.106216
v -0.236426 0.141542 -0.158372
v 0.354485 4.021429 0.515721
v -0.328568 1.554440 -0.172729
v -0.131517 0.333189 -0.255169
v 1.317115 4.250484 0.304064
v 0.350846 3.966707 0.573644
v -0.839093 3.444114 -0.357034
v -1.054223 4.044293 -0.371800
v -0.155691 1.129059 -0.207711
v 0.289195 0.136862 0.100599
v -0.565349 4.983018 -1.677507
v -1.346912 4.661096 -0.127215
v -0.418584 1.992882 -0.248432
v 0.340067 0.027897 -0.050571
v 0.810204 3.987975 0.456452
v -0.481907 1.975832 -0.138005
v 0.415230 4.676170 1.321439
v -1.020004 4.259789 -0.550942
v -0.704782 4.570177 -1.455246
v 0.453839 4.688489 1.326996
v -0.030181 0.147015 -0.370566
v -1.406197 5.858277 -0.057694
v -0.200178 1.593861 0.059950
v -0.158953 0.032171 0.185788
v -1.256406 4.390622 -0.363830
v 0.420592 4.389240 0.895262
v -0.899822 3.433861 -0.216430
v -0.546832 4.959066 -1.686938
v -1.104073 4.031783 -0.432954
v 0.222958 0.680644 -0.176196
v -1.361751 4.684439 -0.231687
v 0.613196 5.296793 1.688506
v -0.276728 0.030227 -0.053316
v 0.149871 0.031163 0.221758
v -0.025495 0.155897 0.253132
v -1.201520 4.452281 -0.382836
v -0.671685 2.341353 -0.189167
v -1.426723 5.851563 -0.006260
v 0.469247 4.386610 0.957379
v -0.596527 2.662892 -0.103753
v -1.321896 4.696507 -0.190467
v 0.612086 5.309882 1.675384
v 0.137698 3.556490 0.189144
v -1.326301 5.338891 -0.164373
v -1.180140 4.411050 -0.278359
v 0.412644 4.706764 1.290625
v -0.730357 2.896975 -0.215218
v -0.202190 0.709275 0.027751
v -0.128187 0.345974 0.140830
v -0.191941 3.075714 0.063446
v -0.919403 3.397463 -0.407982
v -0.644761 2.648277 -0.201404
v -0.460844 5.286694 -1.892975
v 0.630063 5.300599 1.689103
v -0.142897 3.013312 0.022160
v -0.727518 2.793170 -0.049411
v 0.225800 0.692743 0.069343
v -1.386778 4.968986 -0.188561
v -0.233752 1.124131 -0.062719
v 1.322451 4.250598 0.358396
v -1.328216 4.987617 -0.135363
v -0.302367 2.046309 -0.021352
v -0.025869 1.590699 -0.187436
v 0.792938 4.048868 0.539260
v -0.828146 2.770558 -0.051750
v 1.093186 4.032627 0.492585
v 0.121005 3.460248 0.301574
v -0.682378 2.910179 -0.121636
v -0.153838 1.140878 0.078277
v 0.526885 5.007723 1.547036
v 0.523204 5.044540 1.510143
v -0.132798 3.064680 -0.053135
v 1.108878 4.005320 0.448367
v -0.798603 4.334351 -0.966142
v -0.393933 2.805722 -0.122385
v -0.576544 2.385607 -0.003412
v 0.283609 0.309320 -0.052198
v 1.514523 4.434899 0.216037
v -0.462765 5.295465 -1.881393
v -0.830515 2.754461 -0.234729
v 1.347143 4.223739 0.299788
v -0.992009 3.405971 -0.354976
v -0.453402 2.365167 -0.192017
v 0.761958 4.040473 0.445929
v 0.472319 3.940045 0.416565
v -0.460532 2.942017 -0.075715
v 0.053773 1.137361 0.101588
v -0.954269 4.006934 -0.622529
v -0.927125 4.052792 -0.499206
v 0.512991 4.115267 0.577503
v -1.493439 6.317901 0.095952
v 0.451252 4.719082 1.296182
v -0.204054 0.701337 -0.138408
v -0.707696 4.638431 -1.411496
v -0.839421 4.379198 -0.944113
v -0.162988 0.030680 -0.298980
v 0.187828 3.474161 0.203481
v 1.088406 4.046712 0.406142
v -0.670932 4.611210 -1.402386
v -1.013678 4.071426 -0.670367
v 1.343282 4.203753 0.344747
v -1.487906 6.327289 0.081345
v -0.293327 2.031579 -0.248493
v 0.126657 0.337331 0.170513
v -0.716490 4.659204 -1.479818
v 0.122624 0.321847 -0.282587
v -0.474366 5.297760 -1.884081
v -1.398635 5.858541 -0.015497
v 0.628952 5.313688 1.675981
v 0.512585 4.061732 0.633012
v 0.285720 0.130275 -0.204579
v -0.930612 4.314110 -0.972789
v -0.035386 0.711389 -0.292573
v -0.610279 4.912112 -1.682584
v -1.068111 4.246737 -0.607556
v -0.469769 2.885556 -0.153934
v -0.984343 3.393840 -0.245555
v 0.088938 3.547722 0.265512
v -0.665472 4.573260 -1.427973
v -0.903933 4.018819 -0.561820
v -0.234146 0.145864 0.049740
v -0.880605 4.410353 -1.011180
v 0.420767 4.316479 0.969909
v -0.823396 3.426774 -0.262444
v -0.225375 0.329303 -0.054462
v 0.051373 1.123212 -0.228828
v -1.478093 6.329875 0.091609
v -0.571021 2.364627 -0.253057
v -0.031555 0.727702 0.174717
v 1.521877 4.421666 0.222691
v 1.532506 4.416368 0.200489
v -0.609059 4.931417 -1.669013
v -0.472676 5.286664 -1.897275
v -1.378601 4.968501 -0.119656
v -1.373895 5.329662 -0.141424
v -1.344846 5.339124 -0.118747
v -1.386767 4.649028 -0.168435
v 0.551426 5.036803 1.528695
v 1.559561 4.462147 0.185904
v 1.332936 4.226238 0.356256
v 1.347612 4.210274 0.321422
v 1.317384 4.254013 0.332075
v 1.332060 4.238049 0.297242
v 0.775804 4.051490 0.492404
v 0.449010 4.392625 0.923956
v 0.796516 3.965579 0.494807
v 0.786066 4.015298 0.443187
v -0.449199 5.353664 -1.925674
v -0.578997 4.985351 -1.684946
v -0.554382 4.971869 -1.680437
v -0.577350 4.946810 -1.713080
v -0.551283 4.947974 -1.698411
v -1.498954 6.412529 0.117274
v -1.431889 5.849106 -0.023729
v -1.419689 5.853095 -0.054299
v -1.412075 5.855221 -0.007134
v -1.399875 5.859211 -0.037704
v -1.387228 4.966644 -0.152219
v -1.352422 4.977717 -0.120601
v -1.330051 4.993093 -0.176022
v -1.364857 4.982020 -0.207640
v -1.255672 4.370182 -0.314853
v -0.860403 4.399659 -0.976080
v -1.185240 4.436966 -0.331955
v -1.210344 4.382324 -0.264053
v -0.899274 4.381176 -1.022331
v -1.230568 4.424825 -0.382755
v -0.816620 4.356617 -0.949559
v -0.848854 4.308286 -1.036610
v -0.802973 4.315564 -0.993197
v 0.638937 5.357544 1.711411
v 0.541559 5.021167 1.539787
v 0.513459 5.013090 1.537504
v 0.539372 5.043049 1.517860
v 0.511271 5.034973 1.515577
v 0.786253 4.001771 0.544024
v 0.397379 4.376656 0.909383
v 0.449114 4.349379 0.968323
v 0.397483 4.333409 0.953750
v 0.158294 3.459194 0.254905
v 0.099519 3.502915 0.291773
v 0.168216 3.516396 0.188082
v 0.109440 3.560117 0.224950
v -0.430178 2.840701 -0.147233
v -0.411668 2.821906 -0.060661
v -0.876848 3.421186 -0.388835
v -0.469761 2.921709 -0.119494
v -0.451251 2.902913 -0.032923
v -0.959443 3.400176 -0.388557
v -0.824489 3.437185 -0.309397
v -0.994952 3.398583 -0.299106
v -0.945100 3.413649 -0.224256
v -0.857233 3.431241 -0.234268
v -0.521002 2.401793 -0.023421
v -0.507017 2.363781 -0.231040
v -0.626421 2.352952 -0.228988
v -0.681982 2.342604 -0.127708
v -0.453055 2.388668 -0.125962
v -0.630526 2.366558 -0.027218
v -0.011497 1.595465 -0.098404
v -0.340537 1.555049 -0.102068
v -0.273093 1.577619 0.023045
v -0.108427 1.598449 0.036741
v -0.105453 1.586350 -0.238103
v -0.269826 1.566764 -0.228070
v -0.216957 0.703655 -0.054937
v 0.247403 0.683438 -0.052871
v 0.104212 0.711778 0.139444
v -0.128289 0.720521 0.112364
v -0.131327 0.707586 -0.227177
v 0.136019 0.138697 -0.310579
v 0.315611 0.131796 -0.051310
v -0.147496 0.144945 -0.279992
v 0.100532 0.696112 -0.252191
v 0.140518 0.147227 0.199393
v -0.252203 0.142804 -0.053837
v -0.143781 0.151987 0.166279
vt 0.8995 0.7741
vt 0.8957 0.7753
vt 0.8942 0.7718
vt 0.8983 0.7703
vt 0.8933 0.7763
vt 0.8910 0.7773
vt 0.8892 0.7742
vt 0.8917 0.7730
vt 0.9084 0.7719
vt 0.9033 0.7729
vt 0.9024 0.7689
vt 0.9078 0.7680
vt 0.9246 0.7863
vt 0.9208 0.7848
vt 0.9217 0.7745
vt 0.9263 0.7760
vt 0.9361 0.7752
vt 0.9323 0.7736
vt 0.9336 0.7698
vt 0.9376 0.7718
vt 0.9178 0.7709
vt 0.9135 0.7709
vt 0.9132 0.7672
vt 0.9178 0.7673
vt 0.9272 0.7723
vt 0.9220 0.7710
vt 0.9224 0.7675
vt 0.9280 0.7686
vt 0.9314 0.7888
vt 0.9284 0.7878
vt 0.9310 0.7774
vt 0.9345 0.7787
vt 0.9034 0.7881
vt 0.9004 0.7889
vt 0.8971 0.7788
vt 0.9007 0.7779
vt 0.9102 0.7861
vt 0.9064 0.7873
vt 0.9043 0.7770
vt 0.9090 0.7758
vt 0.9174 0.7848
vt 0.9139 0.7848
vt 0.9137 0.7745
vt 0.9177 0.7745
vt 0.8985 0.7896
vt 0.8965 0.7902
vt 0.8928 0.7804
vt 0.8949 0.7796
vt 0.9261 0.8101
vt 0.9283 0.8106
vt 0.9257 0.8215
vt 0.9240 0.8212
vt 0.9217 0.8087
vt 0.9240 0.8095
vt 0.9222 0.8208
vt 0.9205 0.8206
vt 0.9124 0.8086
vt 0.9147 0.8079
vt 0.9152 0.8206
vt 0.9134 0.8209
vt 0.9080 0.8099
vt 0.9101 0.8094
vt 0.9116 0.8211
vt 0.9098 0.8214
vt 0.9040 0.8107
vt 0.9058 0.8104
vt 0.9080 0.8217
vt 0.9061 0.8219
vt 0.9170 0.8078
vt 0.9142 0.7951
vt 0.9171 0.7951
vt 0.9107 0.8316
vt 0.9123 0.8313
vt 0.9130 0.8414
vt 0.9117 0.8419
vt 0.9171 0.8296
vt 0.9189 0.8289
vt 0.9190 0.8372
vt 0.9173 0.8386
vt 0.9075 0.8321
vt 0.9092 0.8320
vt 0.9103 0.8423
vt 0.9089 0.8423
vt 0.9234 0.8312
vt 0.9249 0.8317
vt 0.9241 0.8419
vt 0.9228 0.8413
vt 0.9204 0.8298
vt 0.9219 0.8307
vt 0.9215 0.8406
vt 0.9203 0.8389
vt 0.9138 0.8308
vt 0.9153 0.8303
vt 0.9155 0.8401
vt 0.9143 0.8407
vt 0.9653 0.7858
vt 0.9664 0.7859
vt 0.9658 0.8042
vt 0.9647 0.8043
vt 0.9627 0.7854
vt 0.9640 0.7858
vt 0.9637 0.8043
vt 0.9625 0.8036
vt 0.9600 0.7857
vt 0.9614 0.7851
vt 0.9614 0.8028
vt 0.9600 0.8038
vt 0.9675 0.7869
vt 0.9685 0.7879
vt 0.9680 0.8050
vt 0.9669 0.8046
vt 0.9726 0.7874
vt 0.9739 0.7873
vt 0.9726 0.8060
vt 0.9715 0.8059
vt 0.9521 0.7782
vt 0.9539 0.7781
vt 0.9533 0.7848
vt 0.9517 0.7853
vt 0.9493 0.7773
vt 0.9505 0.7784
vt 0.9500 0.7858
vt 0.9485 0.7856
vt 0.9700 0.7876
vt 0.9714 0.7874
vt 0.9704 0.8059
vt 0.9692 0.8054
vt 0.9559 0.7782
vt 0.9578 0.7783
vt 0.9572 0.7856
vt 0.9553 0.7852
vt 0.9466 0.7765
vt 0.9482 0.7763
vt 0.9470 0.7854
vt 0.9456 0.7847
vt 0.9471 0.8021
vt 0.9483 0.8023
vt 0.9467 0.8188
vt 0.9456 0.8187
vt 0.9443 0.8015
vt 0.9457 0.8020
vt 0.9445 0.8186
vt 0.9431 0.8183
vt 0.9499 0.8019
vt 0.9513 0.8014
vt 0.9494 0.8180
vt 0.9481 0.8184
vt 0.9532 0.8019
vt 0.9549 0.8024
vt 0.9527 0.8191
vt 0.9511 0.8185
vt 0.9509 0.8306
vt 0.9518 0.8304
vt 0.9543 0.8427
vt 0.9536 0.8428
vt 0.9531 0.8309
vt 0.9544 0.8314
vt 0.9559 0.8431
vt 0.9551 0.8429
vt 0.9491 0.8309
vt 0.9498 0.8308
vt 0.9530 0.8428
vt 0.9525 0.8431
vt 0.8984 0.8442
vt 0.8979 0.8428
vt 0.9062 0.8432
vt 0.9062 0.8444
vt 0.9546 0.8526
vt 0.9550 0.8523
vt 0.9570 0.8619
vt 0.9568 0.8620
vt 0.9539 0.8531
vt 0.9543 0.8528
vt 0.9566 0.8622
vt 0.9563 0.8623
vt 0.9555 0.8523
vt 0.9560 0.8522
vt 0.9577 0.8618
vt 0.9574 0.8619
vt 0.9566 0.8524
vt 0.9572 0.8526
vt 0.9585 0.8620
vt 0.9581 0.8619
vt 0.9262 0.8428
vt 0.9262 0.8424
vt 0.9266 0.8423
vt 0.9266 0.8428
vt 0.9676 0.8186
vt 0.9685 0.8188
vt 0.9690 0.8325
vt 0.9683 0.8325
vt 0.9705 0.8194
vt 0.9695 0.8190
vt 0.9706 0.8328
vt 0.9698 0.8326
vt 0.9659 0.8185
vt 0.9668 0.8184
vt 0.9677 0.8326
vt 0.9671 0.8328
vt 0.9817 0.7763
vt 0.9829 0.7759
vt 0.9824 0.7846
vt 0.9814 0.7850
vt 0.9626 0.8202
vt 0.9636 0.8205
vt 0.9651 0.8334
vt 0.9642 0.8334
vt 0.9762 0.7761
vt 0.9773 0.7764
vt 0.9770 0.7850
vt 0.9761 0.7847
vt 0.9789 0.7765
vt 0.9805 0.7766
vt 0.9803 0.7854
vt 0.9786 0.7852
vt 0.9644 0.8196
vt 0.9651 0.8187
vt 0.9665 0.8330
vt 0.9658 0.8332
vt 0.9844 0.7762
vt 0.9858 0.7764
vt 0.9849 0.7851
vt 0.9836 0.7849
vt 0.9802 0.7932
vt 0.9810 0.7930
vt 0.9796 0.8014
vt 0.9790 0.8013
vt 0.9781 0.7933
vt 0.9793 0.7933
vt 0.9784 0.8013
vt 0.9776 0.8015
vt 0.9761 0.7931
vt 0.9769 0.7933
vt 0.9767 0.8016
vt 0.9761 0.8016
vt 0.9820 0.7933
vt 0.9830 0.7937
vt 0.9811 0.8022
vt 0.9804 0.8018
vt 0.9768 0.8158
vt 0.9773 0.8158
vt 0.9763 0.8302
vt 0.9760 0.8301
vt 0.9757 0.8158
vt 0.9762 0.8158
vt 0.9756 0.8300
vt 0.9754 0.8299
vt 0.9778 0.8157
vt 0.9783 0.8156
vt 0.9769 0.8299
vt 0.9766 0.8300
vt 0.9788 0.8159
vt 0.9793 0.8161
vt 0.9775 0.8299
vt 0.9772 0.8299
vt 0.9268 0.8427
vt 0.9268 0.8424
vt 0.9271 0.8424
vt 0.9271 0.8428
vt 0.9683 0.8443
vt 0.9688 0.8443
vt 0.9685 0.8561
vt 0.9683 0.8561
vt 0.9693 0.8444
vt 0.9698 0.8444
vt 0.9689 0.8561
vt 0.9687 0.8561
vt 0.9675 0.8444
vt 0.9678 0.8443
vt 0.9680 0.8561
vt 0.9678 0.8561
vt 0.9666 0.8447
vt 0.9670 0.8446
vt 0.9676 0.8561
vt 0.9674 0.8561
vt 0.9634 0.8333
vt 0.9653 0.8447
vt 0.9275 0.8426
vt 0.9275 0.8423
vt 0.9278 0.8423
vt 0.9277 0.8426
vt 0.8990 0.8490
vt 0.8983 0.8483
vt 0.9066 0.8487
vt 0.9072 0.8493
vt 0.8989 0.8509
vt 0.8997 0.8498
vt 0.9078 0.8500
vt 0.9074 0.8510
vt 0.9476 0.8319
vt 0.9483 0.8310
vt 0.9520 0.8434
vt 0.9514 0.8438
vt 0.8986 0.8469
vt 0.8988 0.8456
vt 0.9063 0.8457
vt 0.9065 0.8472
vt 0.9158 0.8470
vt 0.9153 0.8465
vt 0.9241 0.8444
vt 0.9244 0.8447
vt 0.9152 0.8457
vt 0.9150 0.8449
vt 0.9236 0.8440
vt 0.9238 0.8442
vt 0.9159 0.8482
vt 0.9162 0.8476
vt 0.9246 0.8451
vt 0.9245 0.8454
vt 0.9150 0.8440
vt 0.9150 0.8433
vt 0.9238 0.8433
vt 0.9237 0.8436
vt 0.9252 0.8426
vt 0.9248 0.8426
vt 0.9246 0.8423
vt 0.9250 0.8423
vt 0.9257 0.8426
vt 0.9254 0.8423
vt 0.9259 0.8429
vt 0.9254 0.8429
vt 0.9250 0.8430
vt 0.9156 0.8489
vt 0.9243 0.8458
vt 0.9069 0.8520
vt 0.8900 0.8479
vt 0.8907 0.8467
vt 0.8913 0.8455
vt 0.9470 0.8328
vt 0.9509 0.8442
vt 0.9430 0.8215
vt 0.9438 0.8201
vt 0.8980 0.8520
vt 0.8892 0.8520
vt 0.8904 0.8507
vt 0.8916 0.8495
vt 0.8908 0.8487
vt 0.9274 0.8428
vt 0.9276 0.8428
vt 0.9272 0.8428
vt 0.9273 0.8426
vt 0.9273 0.8423
vt 0.9661 0.8448
vt 0.9671 0.8561
vt 0.9268 0.8431
vt 0.9271 0.8432
vt 0.9266 0.8430
vt 0.9266 0.8426
vt 0.9266 0.8423
vt 0.9753 0.8157
vt 0.9751 0.8298
vt 0.9754 0.8016
vt 0.9753 0.7930
vt 0.9751 0.7843
vt 0.9835 0.7672
vt 0.9851 0.7675
vt 0.9868 0.7678
vt 0.9622 0.8077
vt 0.9629 0.8060
vt 0.9777 0.7678
vt 0.9791 0.7678
vt 0.9806 0.7678
vt 0.9751 0.7758
vt 0.9751 0.7673
vt 0.9764 0.7675
vt 0.9616 0.8198
vt 0.9598 0.8062
vt 0.9610 0.8069
vt 0.9821 0.7675
vt 0.9716 0.8194
vt 0.9262 0.8432
vt 0.9266 0.8432
vt 0.9259 0.8431
vt 0.9259 0.8428
vt 0.9259 0.8425
vt 0.9534 0.8534
vt 0.9560 0.8625
vt 0.8905 0.8439
vt 0.8897 0.8423
vt 0.9512 0.8189
vt 0.9529 0.8197
vt 0.9429 0.8010
vt 0.9417 0.8181
vt 0.9441 0.7840
vt 0.9450 0.7766
vt 0.9459 0.7693
vt 0.9477 0.7682
vt 0.9494 0.7672
vt 0.9544 0.7714
vt 0.9564 0.7712
vt 0.9585 0.7710
vt 0.9691 0.7707
vt 0.9708 0.7698
vt 0.9725 0.7689
vt 0.9502 0.7691
vt 0.9509 0.7710
vt 0.9527 0.7712
vt 0.9738 0.7688
vt 0.9751 0.7687
vt 0.9671 0.7676
vt 0.9681 0.7692
vt 0.9586 0.7864
vt 0.9587 0.8049
vt 0.9585 0.7679
vt 0.9599 0.7676
vt 0.9614 0.7673
vt 0.9629 0.7673
vt 0.9644 0.7672
vt 0.9657 0.7674
vt 0.9188 0.8205
vt 0.9059 0.8322
vt 0.9075 0.8423
vt 0.9043 0.8222
vt 0.9170 0.8205
vt 0.9194 0.8078
vt 0.9199 0.7951
vt 0.9022 0.8111
vt 0.9002 0.8000
vt 0.9020 0.7995
vt 0.9037 0.7990
vt 0.9061 0.7983
vt 0.9085 0.7977
vt 0.9114 0.7964
vt 0.9229 0.7966
vt 0.9258 0.7982
vt 0.9283 0.7990
vt 0.9308 0.7997
vt 0.9345 0.7898
vt 0.9381 0.7799
vt 0.9399 0.7768
vt 0.9417 0.7738
vn -0.6856 0.1585 0.7105
vn -0.9032 0.1660 0.3958
vn -0.8964 0.1863 0.4021
vn -0.6796 0.1679 0.7141
vn -0.9863 0.1647 0.0082
vn -0.9108 0.1684 -0.3769
vn -0.9042 0.1895 -0.3827
vn -0.9824 0.1866 0.0087
vn 0.4342 0.1641 0.8858
vn -0.1522 0.1739 0.9729
vn -0.1464 0.1684 0.9748
vn 0.4328 0.1620 0.8868
vn 0.4210 0.0973 -0.9018
vn 0.8231 0.1164 -0.5559
vn 0.8285 0.1431 -0.5413
vn 0.4519 0.1327 -0.8821
vn -0.7016 0.1621 -0.6939
vn -0.1464 0.1786 -0.9730
vn -0.1414 0.1725 -0.9748
vn -0.6953 0.1721 -0.6978
vn 0.9844 0.1755 -0.0135
vn 0.8276 0.1810 0.5314
vn 0.8233 0.1793 0.5386
vn 0.9845 0.1753 -0.0110
vn 0.4603 0.1648 -0.8723
vn 0.8274 0.1799 -0.5320
vn 0.8241 0.1793 -0.5373
vn 0.4578 0.1630 -0.8740
vn -0.6724 0.0259 -0.7398
vn -0.1427 0.0785 -0.9866
vn -0.1456 0.1416 -0.9792
vn -0.7012 0.1033 -0.7055
vn -0.6521 0.0403 0.7570
vn -0.9007 0.0080 0.4344
vn -0.9089 0.0899 0.4073
vn -0.6838 0.1024 0.7225
vn 0.3924 0.1129 0.9128
vn -0.1470 0.0950 0.9846
vn -0.1515 0.1383 0.9787
vn 0.4247 0.1329 0.8955
vn 0.9922 0.1241 -0.0146
vn 0.8213 0.1282 0.5560
vn 0.8295 0.1449 0.5394
vn 0.9903 0.1378 -0.0154
vn -0.9999 -0.0078 0.0120
vn -0.9126 0.0003 -0.4089
vn -0.9174 0.0909 -0.3874
vn -0.9964 0.0838 0.0087
vn -0.5355 -0.2001 -0.8205
vn -0.8369 -0.2768 -0.4723
vn -0.7880 -0.3536 -0.5040
vn -0.4798 -0.2162 -0.8503
vn 0.4103 0.1383 -0.9014
vn -0.0655 -0.0375 -0.9971
vn -0.0131 0.0194 -0.9997
vn 0.4301 0.2413 -0.8699
vn 0.3631 0.2646 0.8934
vn 0.7572 0.3872 0.5261
vn 0.7498 0.4489 0.4861
vn 0.3938 0.2702 0.8786
vn -0.5613 -0.0768 0.8240
vn -0.1072 0.1058 0.9886
vn -0.0504 0.0541 0.9973
vn -0.5007 -0.1766 0.8474
vn -0.9598 -0.2806 -0.0001
vn -0.8548 -0.2056 0.4764
vn -0.8088 -0.3362 0.4825
vn -0.9159 -0.4012 -0.0100
vn 0.9168 0.3992 -0.0123
vn 0.7964 0.2552 0.5483
vn 0.9661 0.2578 -0.0144
vn -0.4625 -0.2152 0.8601
vn -0.0414 0.0189 0.9990
vn -0.0511 0.1509 0.9872
vn -0.4744 -0.0147 0.8802
vn 0.8591 0.5100 -0.0433
vn 0.7259 0.4698 -0.5023
vn 0.8045 0.0644 -0.5905
vn 0.9251 -0.0429 0.3772
vn -0.8903 -0.4553 0.0062
vn -0.7762 -0.3869 0.4978
vn -0.8279 -0.1901 0.5277
vn -0.9532 -0.3011 0.0279
vn -0.4401 -0.2139 -0.8721
vn -0.7888 -0.4046 -0.4627
vn -0.8538 -0.3281 -0.4043
vn -0.4503 -0.2653 -0.8526
vn 0.4600 0.3111 -0.8316
vn 0.0617 0.0699 -0.9956
vn 0.0905 -0.0300 -0.9954
vn 0.4486 0.1355 -0.8834
vn 0.3693 0.2377 0.8984
vn 0.7425 0.4315 0.5124
vn 0.2191 0.1691 0.9609
vn 0.3517 0.2826 0.8924
vn 0.5192 0.3461 0.7814
vn 0.8173 0.3266 0.4748
vn 0.9148 0.2222 0.3374
vn 0.7126 0.3889 0.5839
vn -0.2912 0.1920 0.9372
vn 0.2773 0.3166 0.9071
vn 0.7126 0.3507 0.6077
vn 0.2055 0.0676 0.9763
vn -0.9856 -0.1682 0.0174
vn -0.8280 -0.0107 0.5607
vn -0.7445 -0.1974 0.6378
vn -0.9560 -0.2837 -0.0747
vn 0.9819 0.1493 -0.1161
vn 0.8499 -0.0396 -0.5254
vn 0.7603 -0.4414 -0.4765
vn 0.9801 -0.1580 -0.1201
vn -0.5062 -0.3234 -0.7995
vn -0.8872 -0.2474 -0.3895
vn -0.8881 -0.2007 -0.4136
vn -0.7441 -0.3861 -0.5452
vn -0.4179 0.4268 0.8020
vn -0.0887 -0.2520 0.9637
vn 0.0451 -0.4473 0.8932
vn -0.6055 0.2107 0.7675
vn -0.0785 0.7359 -0.6725
vn -0.4172 0.8865 0.2002
vn -0.7661 0.5977 0.2365
vn -0.5502 0.7321 -0.4017
vn 0.6089 -0.1515 -0.7786
vn 0.1901 -0.2622 -0.9461
vn -0.0966 -0.5095 -0.8550
vn 0.3134 -0.5768 -0.7544
vn 0.3805 -0.7366 0.5591
vn 0.6473 -0.6554 -0.3892
vn 0.7461 -0.5453 -0.3820
vn 0.5567 -0.7322 0.3923
vn 0.3399 -0.0779 -0.9372
vn 0.1741 0.2399 -0.9551
vn -0.0313 0.4834 -0.8748
vn 0.4316 0.0350 -0.9014
vn -0.6529 0.6388 -0.4070
vn -0.8879 0.4145 0.1995
vn -0.9653 0.2498 0.0755
vn -0.6410 0.6124 -0.4627
vn 0.4344 0.1807 -0.8824
vn -0.1744 0.5655 -0.8061
vn -0.1867 0.6730 -0.7157
vn 0.1775 0.2412 -0.9541
vn -0.6442 -0.0283 0.7643
vn 0.0527 -0.5109 0.8580
vn 0.0483 -0.6703 0.7405
vn -0.6578 -0.3037 0.6893
vn 0.6526 -0.6540 0.3826
vn 0.8471 -0.3991 -0.3509
vn 0.4992 -0.5791 -0.6445
vn 0.4874 -0.8239 0.2893
vn -0.7533 -0.4503 0.4794
vn 0.0303 -0.7126 0.7010
vn -0.0249 -0.6235 0.7815
vn -0.7824 -0.3156 0.5368
vn 0.7528 -0.4577 0.4730
vn 0.9954 0.0959 -0.0085
vn 0.9890 -0.0549 -0.1371
vn 0.7880 -0.4563 0.4134
vn -0.7335 0.5328 -0.4221
vn -0.9971 0.0723 0.0215
vn -0.9885 0.0761 0.1306
vn -0.8016 0.4791 -0.3576
vn 0.2094 -0.1727 0.9625
vn 0.1695 -0.7514 0.6377
vn 0.4170 -0.7799 0.4668
vn 0.3469 -0.0758 0.9348
vn -0.7975 0.4905 -0.3514
vn -0.9580 0.1869 0.2176
vn -0.9431 0.2379 0.2323
vn -0.7304 0.6328 -0.2571
vn 0.5988 0.2876 -0.7475
vn -0.1558 0.5770 -0.8018
vn -0.1339 0.5631 -0.8155
vn 0.6105 0.4421 -0.6571
vn -0.7349 -0.1551 0.6602
vn 0.0366 -0.5015 0.8644
vn 0.0794 -0.4568 0.8860
vn -0.5810 -0.0342 0.8132
vn 0.8092 -0.4533 0.3739
vn 0.9607 -0.1287 -0.2459
vn 0.9583 -0.1093 -0.2640
vn 0.7407 -0.3084 0.5968
vn 0.1948 0.8295 0.5234
vn 0.8907 -0.4525 -0.0444
vn 0.5187 -0.7747 -0.3617
vn 0.4547 -0.7321 -0.5072
vn 0.8800 -0.4627 -0.1077
vn -0.4880 -0.6265 -0.6077
vn -0.0816 -0.8185 -0.5687
vn -0.7444 -0.3572 -0.5642
vn -0.2187 -0.6151 -0.7575
vn 0.7671 0.4281 0.4778
vn 0.9603 0.0291 0.2775
vn 0.9630 -0.0792 0.2574
vn 0.7485 0.3456 0.5659
vn -0.6112 0.2192 -0.7605
vn -0.8745 -0.1791 -0.4508
vn -0.9196 -0.0850 -0.3836
vn -0.5282 0.1453 -0.8366
vn -0.9053 0.3829 -0.1837
vn -0.5428 0.8201 0.1813
vn -0.7184 0.6625 0.2122
vn -0.9409 0.1539 -0.3018
vn 0.3823 -0.1994 0.9023
vn 0.8206 0.1984 0.5360
vn 0.8106 0.0724 0.5812
vn 0.2681 -0.1450 0.9524
vn 0.8574 0.5098 0.0705
vn 0.2712 0.7334 -0.6233
vn 0.4340 0.3322 -0.8374
vn 0.9641 0.2531 -0.0802
vn 0.0896 0.8970 0.4330
vn 0.6268 0.5923 0.5063
vn 0.3352 0.6654 0.6670
vn -0.2884 0.7882 0.5436
vn -0.9114 -0.4095 -0.0406
vn -0.5290 -0.5135 0.6757
vn -0.5739 -0.3154 0.7558
vn -0.9688 -0.2348 0.0794
vn -0.4708 0.0663 -0.8798
vn -0.9133 0.0409 -0.4052
vn -0.9047 0.0350 -0.4246
vn -0.4880 0.1049 -0.8665
vn 0.9861 0.0150 -0.1654
vn 0.4877 0.0606 -0.8709
vn 0.4638 0.1588 -0.8716
vn 0.9788 0.0912 -0.1834
vn 0.2854 -0.0129 0.9583
vn 0.8811 0.0001 0.4729
vn 0.9072 0.0173 0.4204
vn 0.3464 -0.0866 0.9341
vn -0.9922 0.0123 0.1241
vn -0.6013 -0.0059 0.7990
vn -0.5480 -0.1188 0.8280
vn -0.9892 -0.0522 0.1373
vn 0.9667 0.1918 -0.1696
vn 0.4230 0.2961 -0.8564
vn 0.4321 0.3257 -0.8410
vn 0.9327 0.3225 -0.1617
vn 0.3385 -0.1664 0.9261
vn 0.8893 0.0290 0.4564
vn 0.8785 0.0360 0.4763
vn 0.1811 -0.0467 0.9824
vn -0.5082 0.1594 -0.8463
vn -0.9150 -0.0061 -0.4034
vn -0.9133 -0.0015 -0.4073
vn -0.3180 0.3687 -0.8735
vn -0.9757 -0.1559 0.1538
vn -0.5275 -0.2528 0.8111
vn -0.5339 -0.2586 0.8050
vn -0.9733 -0.0819 0.2143
vn -0.1964 0.9445 0.2632
vn 0.8954 -0.3916 -0.2121
vn 0.4586 -0.5655 -0.6855
vn 0.4117 -0.5151 -0.7518
vn 0.8509 -0.3199 -0.4167
vn -0.3002 -0.4094 -0.8615
vn -0.8134 -0.0950 -0.5739
vn -0.9366 0.1772 -0.3024
vn -0.4632 -0.1716 -0.8695
vn 0.6859 0.2628 0.6786
vn 0.9589 -0.0865 0.2703
vn 0.9586 -0.0816 0.2727
vn 0.6368 0.3926 0.6636
vn -0.5861 0.5869 0.5586
vn 0.1438 0.5429 0.8274
vn 0.0546 0.5354 0.8428
vn -0.7075 0.6163 0.3460
vn 0.2469 0.8253 -0.5078
vn -0.0144 -0.0960 -0.9953
vn -0.0783 0.6868 -0.7226
vn -0.3675 0.5330 -0.7621
vn -0.1603 -0.2925 -0.9427
vn 0.1467 -0.9670 -0.2083
vn 0.0724 -0.6927 -0.7175
vn 0.1346 -0.6978 -0.7035
vn 0.3364 -0.8884 -0.3123
vn 0.5770 0.6472 -0.4982
vn -0.1735 0.7560 -0.6312
vn -0.1646 0.6986 -0.6963
vn 0.6289 0.4562 -0.6296
vn 0.0112 0.9828 -0.1846
vn 0.2091 0.6926 0.6904
vn 0.0581 0.6109 0.7895
vn -0.3343 0.9425 0.0043
vn -0.3141 -0.1785 -0.9325
vn -0.6613 0.4366 -0.6099
vn -0.6795 0.4754 -0.5588
vn -0.2918 0.1493 -0.9448
vn -0.6126 0.7874 0.0677
vn -0.0311 0.6281 0.7775
vn -0.0252 0.6338 0.7731
vn -0.3127 0.9059 0.2856
vn 0.5920 -0.7603 -0.2675
vn 0.1972 -0.6211 -0.7585
vn 0.1615 -0.5280 -0.8337
vn 0.7925 -0.5375 -0.2884
vn 0.5441 -0.0170 0.8388
vn 0.7448 -0.5246 0.4124
vn 0.8053 -0.4500 0.3859
vn 0.6421 0.1281 0.7558
vn 0.6927 0.6696 -0.2678
vn 0.2206 0.8653 -0.4501
vn 0.8242 0.4441 0.3514
vn -0.8956 0.4330 0.1021
vn -0.2350 0.9631 -0.1315
vn 0.7016 0.6525 0.2864
vn -0.8696 -0.1919 -0.4550
vn -0.8348 0.2453 -0.4929
vn 0.4813 -0.4104 0.7745
vn 0.6885 0.5414 -0.4825
vn 0.5333 0.1560 -0.8314
vn 0.5397 0.6414 0.5453
vn 0.7521 0.4138 -0.5129
vn 0.8696 0.4931 -0.0251
vn 0.7812 0.3096 -0.5422
vn 0.8086 0.2078 -0.5504
vn -0.8866 -0.1388 -0.4411
vn -0.9899 -0.1407 0.0141
vn -0.8765 -0.0917 0.4726
vn -0.6011 -0.0139 0.7990
vn -0.1181 0.1094 0.9870
vn 0.3687 0.1922 0.9095
vn 0.4015 0.1100 -0.9092
vn -0.1062 0.0123 -0.9943
vn -0.6118 -0.0954 -0.7853
usemtl None
s 1
f 327/1/1 231/2/2 3/3/3 134/4/4
f 326/5/5 111/6/6 6/7/7 143/8/8
f 325/9/9 145/10/10 4/11/11 144/12/12
f 324/13/13 140/14/14 11/15/15 216/16/16
f 323/17/17 131/18/18 13/19/19 206/20/20
f 322/21/21 120/22/22 8/23/23 124/24/24
f 321/25/25 221/26/26 14/27/27 89/28/28
f 320/29/29 223/30/30 12/31/31 114/32/32
f 319/33/33 158/34/34 2/35/35 159/36/36
f 318/37/37 239/38/38 1/39/39 214/40/40
f 317/41/41 167/42/42 7/43/43 187/44/44
f 316/45/45 203/46/46 5/47/47 235/48/48
f 315/49/49 113/50/50 19/51/51 123/52/52
f 314/53/53 94/54/54 20/55/55 213/56/56
f 313/57/57 109/58/58 22/59/59 172/60/60
f 312/61/61 133/62/62 23/63/63 104/64/64
f 311/65/65 105/66/66 24/67/67 126/68/68
f 310/69/69 109/58/58 18/70/70 96/71/71
f 309/72/72 186/73/73 25/74/74 175/75/75
f 308/76/76 193/77/77 27/78/78 150/79/79
f 307/80/80 93/81/81 26/82/82 88/83/83
f 306/84/84 147/85/85 29/86/86 190/87/87
f 305/88/88 238/89/89 30/90/90 162/91/91
f 304/92/92 103/93/93 28/94/94 166/95/95
f 303/96/96 234/97/97 31/98/98 199/99/99
f 302/100/100 137/101/101 32/102/102 118/103/103
f 301/104/104 227/105/105 33/106/106 139/107/107
f 300/108/108 117/109/109 36/110/110 230/111/111
f 299/112/112 192/113/113 34/114/114 210/115/115
f 298/116/116 92/117/117 38/118/118 160/119/119
f 297/120/120 196/121/121 39/122/122 101/123/123
f 296/124/124 161/125/125 37/126/126 198/127/127
f 295/128/128 185/129/129 41/130/130 165/131/131
f 294/132/132 226/133/133 40/134/134 182/135/135
f 293/136/136 228/137/137 42/138/138 112/139/139
f 292/140/140 153/141/141 43/142/142 195/143/143
f 291/144/144 177/145/145 45/146/146 116/147/147
f 290/148/148 207/149/149 44/150/150 102/151/151
f 289/152/152 233/153/153 46/154/154 127/155/155
f 288/156/156 149/157/157 49/158/158 130/159/159
f 287/160/160 97/161/161 47/162/162 156/163/163
f 286/164/164 108/165/165 51/166/166 176/167/167
f 285/168/168 95/169/169 53/170/170 152/171/171
f 284/172/172 181/173/173 54/174/174 219/175/175
f 283/176/176 180/177/177 56/178/178 142/179/179
f 282/180/180 248/181/181 55/182/182 164/183/183
f 281/184/184 142/185/179 56/186/178 164/187/183
f 280/188/185 100/189/186 57/190/187 229/191/188
f 37/126/126 210/115/115 86/192/189
f 279/193/190 86/192/189 59/194/191 129/195/192
f 278/196/193 184/197/194 58/198/195 209/199/196
f 277/200/197 135/201/198 62/202/199 141/203/200
f 276/204/201 232/205/202 64/206/203 215/207/204
f 275/208/205 155/209/206 65/210/207 122/211/208
f 274/212/209 146/213/210 63/214/211 151/215/212
f 273/216/213 205/217/214 60/218/215 204/219/216
f 272/220/217 98/221/218 66/222/219 247/223/220
f 271/224/221 168/225/222 67/226/223 91/227/224
f 270/228/225 107/229/226 68/230/227 154/231/228
f 269/232/229 171/233/230 69/234/231 246/235/232
f 268/236/233 244/237/234 70/238/235 245/239/236
f 267/240/237 132/241/238 71/242/239 237/243/240
f 266/244/241 218/245/242 72/246/243 110/247/244
f 265/248/245 87/249/246 74/250/247 212/251/248
f 264/252/249 148/253/250 73/254/251 201/255/252
f 263/256/253 110/257/244 72/258/243 237/259/240
f 262/260/254 85/261/255 75/262/256 163/263/257
f 261/264/258 224/265/259 77/266/260 243/267/261
f 260/268/262 138/269/263 76/270/264 189/271/265
f 259/272/266 121/273/267 78/274/268 217/275/269
f 59/276/191 215/207/204 224/277/259
f 258/278/270 163/279/257 75/280/256 243/281/261
f 257/282/271 194/283/272 79/284/273 208/285/274
f 256/286/275 125/287/276 80/288/277 183/289/278
f 255/290/279 136/291/280 50/292/281 202/293/282
f 254/294/283 174/295/284 52/296/285 90/297/286
f 253/298/287 115/299/288 81/300/289 106/301/290
f 252/302/291 170/303/292 83/304/293 188/305/294
f 251/306/295 191/307/296 82/308/297 241/309/298
f 250/310/299 211/311/300 84/312/301 240/313/302
f 249/314/303 188/315/294 83/316/293 240/317/302
f 241/318/298 249/314/303 240/317/302 84/319/301
f 82/320/297 106/321/290 249/314/303 241/318/298
f 106/321/290 81/322/289 188/315/294 249/314/303
f 170/303/292 250/310/299 240/313/302 83/304/293
f 52/296/285 176/167/167 250/310/299 170/303/292
f 176/167/167 51/166/166 211/311/300 250/310/299
f 211/323/300 251/306/295 241/309/298 84/324/301
f 51/325/166 183/289/278 251/306/295 211/323/300
f 183/289/278 80/288/277 191/307/296 251/306/295
f 115/299/288 252/302/291 188/305/294 81/300/289
f 79/284/273 90/297/286 252/302/291 115/299/288
f 90/297/286 52/296/285 170/303/292 252/302/291
f 191/307/296 253/298/287 106/301/290 82/308/297
f 80/288/277 208/285/274 253/298/287 191/307/296
f 208/285/274 79/284/273 115/299/288 253/298/287
f 194/283/272 254/294/283 90/297/286 79/284/273
f 43/326/142 200/327/304 254/294/283 194/283/272
f 200/327/304 48/328/305 174/295/284 254/294/283
f 149/329/157 255/290/279 202/293/282 49/330/158
f 48/331/305 200/332/304 255/290/279 149/329/157
f 200/332/304 43/142/142 136/291/280 255/290/279
f 108/333/165 256/286/275 183/289/278 51/325/166
f 45/334/146 102/335/151 256/286/275 108/333/165
f 102/335/151 44/336/150 125/287/276 256/286/275
f 125/287/276 257/282/271 208/285/274 80/288/277
f 44/336/150 195/337/143 257/282/271 125/287/276
f 195/337/143 43/326/142 194/283/272 257/282/271
f 217/338/269 258/278/270 243/281/261 77/339/260
f 78/340/268 189/341/265 258/278/270 217/338/269
f 189/341/265 76/342/264 163/279/257 258/278/270
f 224/277/259 242/343/306 77/344/260
f 224/277/259 215/207/204 242/343/306
f 215/207/204 64/206/203 242/343/306
f 242/343/306 259/272/266 217/275/269 77/344/260
f 64/206/203 204/219/216 259/272/266 242/343/306
f 204/219/216 60/218/215 121/273/267 259/272/266
f 121/273/267 260/268/262 189/271/265 78/274/268
f 60/218/215 209/199/196 260/268/262 121/273/267
f 209/199/196 58/198/195 138/269/263 260/268/262
f 85/261/255 261/264/258 243/267/261 75/262/256
f 57/190/187 129/195/192 261/264/258 85/261/255
f 129/195/192 59/194/191 224/265/259 261/264/258
f 138/269/263 262/260/254 163/263/257 76/270/264
f 58/198/195 229/191/188 262/260/254 138/269/263
f 229/191/188 57/190/187 85/261/255 262/260/254
f 212/345/248 263/256/253 237/259/240 71/346/239
f 74/347/247 201/348/252 263/256/253 212/345/248
f 201/348/252 73/349/251 110/257/244 263/256/253
f 87/249/246 264/252/249 201/255/252 74/250/247
f 67/226/223 245/239/236 264/252/249 87/249/246
f 245/239/236 70/238/235 148/253/250 264/252/249
f 132/241/238 265/248/245 212/251/248 71/242/239
f 68/230/227 91/227/224 265/248/245 132/241/238
f 91/227/224 67/226/223 87/249/246 265/248/245
f 148/350/250 266/244/241 110/247/244 73/351/251
f 70/352/235 246/235/232 266/244/241 148/350/250
f 246/235/232 69/234/231 218/245/242 266/244/241
f 218/245/242 267/240/237 237/243/240 72/246/243
f 69/234/231 154/231/228 267/240/237 218/245/242
f 154/231/228 68/230/227 132/241/238 267/240/237
f 168/225/222 268/236/233 245/239/236 67/226/223
f 62/202/199 247/223/220 268/236/233 168/225/222
f 247/223/220 66/222/219 244/237/234 268/236/233
f 244/353/234 269/232/229 246/235/232 70/352/235
f 66/354/219 122/211/208 269/232/229 244/353/234
f 122/211/208 65/210/207 171/233/230 269/232/229
f 171/233/230 270/228/225 154/231/228 69/234/231
f 65/210/207 151/215/212 270/228/225 171/233/230
f 151/215/212 63/214/211 107/229/226 270/228/225
f 107/229/226 271/224/221 91/227/224 68/230/227
f 63/214/211 141/203/200 271/224/221 107/229/226
f 141/203/200 62/202/199 168/225/222 271/224/221
f 135/201/198 272/220/217 247/223/220 62/202/199
f 34/355/114 139/356/107 272/220/217 135/201/198
f 139/356/107 33/357/106 98/221/218 272/220/217
f 232/205/202 273/216/213 204/219/216 64/206/203
f 61/358/307 128/359/308 273/216/213 232/205/202
f 128/359/308 32/102/102 205/217/214 273/216/213
f 155/209/206 274/212/209 151/215/212 65/210/207
f 32/360/102 128/361/308 274/212/209 155/209/206
f 128/361/308 61/362/307 146/213/210 274/212/209
f 98/363/218 275/208/205 122/211/208 66/354/219
f 33/364/106 118/365/103 275/208/205 98/363/218
f 118/365/103 32/360/102 155/209/206 275/208/205
f 222/366/309 276/204/201 215/207/204 59/276/191
f 34/367/114 225/368/310 276/204/201 222/366/309
f 225/368/310 61/358/307 232/205/202 276/204/201
f 146/213/210 277/200/197 141/203/200 63/214/211
f 61/362/307 225/369/310 277/200/197 146/213/210
f 225/369/310 34/355/114 135/201/198 277/200/197
f 205/217/214 278/196/193 209/199/196 60/218/215
f 32/102/102 199/99/99 278/196/193 205/217/214
f 199/99/99 31/98/98 184/197/194 278/196/193
f 100/189/186 279/193/190 129/195/192 57/190/187
f 36/110/110 198/127/127 279/193/190 100/189/186
f 198/127/127 37/126/126 86/192/189 279/193/190
f 86/192/189 222/370/309 59/194/191
f 86/192/189 210/115/115 222/370/309
f 210/115/115 34/114/114 222/370/309
f 184/197/194 280/188/185 229/191/188 58/198/195
f 31/98/98 230/111/111 280/188/185 184/197/194
f 230/111/111 36/110/110 100/189/186 280/188/185
f 219/371/175 281/184/184 164/187/183 55/372/182
f 54/373/174 152/374/171 281/184/184 219/371/175
f 152/374/171 53/375/170 142/185/179 281/184/184
f 180/177/177 282/180/180 164/183/183 56/178/178
f 46/154/154 130/159/159 282/180/180 180/177/177
f 130/159/159 49/158/158 248/181/181 282/180/180
f 95/169/169 283/176/176 142/179/179 53/170/170
f 47/162/162 127/155/155 283/176/176 95/169/169
f 127/155/155 46/154/154 180/177/177 283/176/176
f 248/376/181 284/172/172 219/175/175 55/377/182
f 49/330/158 202/293/282 284/172/172 248/376/181
f 202/293/282 50/292/281 181/173/173 284/172/172
f 181/173/173 285/168/168 152/171/171 54/174/174
f 50/292/281 156/163/163 285/168/168 181/173/173
f 156/163/163 47/162/162 95/169/169 285/168/168
f 174/295/284 286/164/164 176/167/167 52/296/285
f 48/328/305 220/378/311 286/164/164 174/295/284
f 220/378/311 45/379/146 108/165/165 286/164/164
f 136/291/280 287/160/160 156/163/163 50/292/281
f 43/142/142 112/139/139 287/160/160 136/291/280
f 112/139/139 42/138/138 97/161/161 287/160/160
f 233/153/153 288/156/156 130/159/159 46/154/154
f 45/146/146 220/380/311 288/156/156 233/153/153
f 220/380/311 48/381/305 149/157/157 288/156/156
f 97/161/161 289/152/152 127/155/155 47/162/162
f 42/138/138 116/147/147 289/152/152 97/161/161
f 116/147/147 45/146/146 233/153/153 289/152/152
f 177/145/145 290/148/148 102/151/151 45/146/146
f 38/118/118 165/131/131 290/148/148 177/145/145
f 165/131/131 41/130/130 207/149/149 290/148/148
f 228/137/137 291/144/144 116/147/147 42/138/138
f 39/122/122 160/119/119 291/144/144 228/137/137
f 160/119/119 38/118/118 177/145/145 291/144/144
f 207/382/149 292/140/140 195/143/143 44/383/150
f 41/384/130 182/135/135 292/140/140 207/382/149
f 182/135/135 40/134/134 153/141/141 292/140/140
f 153/141/141 293/136/136 112/139/139 43/142/142
f 40/134/134 101/123/123 293/136/136 153/141/141
f 101/123/123 39/122/122 228/137/137 293/136/136
f 185/385/129 294/132/132 182/135/135 41/384/130
f 27/386/78 162/387/91 294/132/132 185/385/129
f 162/387/91 30/388/90 226/133/133 294/132/132
f 92/117/117 295/128/128 165/131/131 38/118/118
f 28/389/94 150/390/79 295/128/128 92/117/117
f 150/390/79 27/391/78 185/129/129 295/128/128
f 117/109/109 296/124/124 198/127/127 36/110/110
f 35/392/312 157/393/313 296/124/124 117/109/109
f 157/393/313 30/394/90 161/125/125 296/124/124
f 226/133/133 297/120/120 101/123/123 40/134/134
f 30/388/90 157/395/313 297/120/120 226/133/133
f 157/395/313 35/396/312 196/121/121 297/120/120
f 196/121/121 298/116/116 160/119/119 39/122/122
f 35/396/312 178/397/314 298/116/116 196/121/121
f 178/397/314 28/389/94 92/117/117 298/116/116
f 161/125/125 299/112/112 210/115/115 37/126/126
f 30/394/90 190/398/87 299/112/112 161/125/125
f 190/398/87 29/399/86 192/113/113 299/112/112
f 234/97/97 300/108/108 230/111/111 31/98/98
f 28/400/94 178/401/314 300/108/108 234/97/97
f 178/401/314 35/392/312 117/109/109 300/108/108
f 192/402/113 301/104/104 139/107/107 34/403/114
f 29/404/86 88/405/83 301/104/104 192/402/113
f 88/405/83 26/406/82 227/105/105 301/104/104
f 227/105/105 302/100/100 118/103/103 33/106/106
f 26/406/82 175/407/75 302/100/100 227/105/105
f 175/407/75 25/408/74 137/101/101 302/100/100
f 137/101/101 303/96/96 199/99/99 32/102/102
f 25/408/74 166/409/95 303/96/96 137/101/101
f 166/409/95 28/400/94 234/97/97 303/96/96
f 186/73/73 304/92/92 166/95/95 25/74/74
f 23/63/63 172/60/60 304/92/92 186/73/73
f 172/60/60 22/59/59 103/93/93 304/92/92
f 193/77/77 305/88/88 162/91/91 27/78/78
f 21/410/315 213/56/56 305/88/88 193/77/77
f 213/56/56 20/55/55 238/89/89 305/88/88
f 238/89/89 306/84/84 190/87/87 30/90/90
f 20/55/55 123/52/52 306/84/84 238/89/89
f 123/52/52 19/51/51 147/85/85 306/84/84
f 147/411/85 307/80/80 88/83/83 29/412/86
f 19/413/51 126/68/68 307/80/80 147/411/85
f 126/68/68 24/67/67 93/81/81 307/80/80
f 103/93/93 308/76/76 150/79/79 28/94/94
f 22/59/59 99/414/316 308/76/76 103/93/93
f 99/414/316 21/410/315 193/77/77 308/76/76
f 93/81/81 309/72/72 175/75/75 26/82/82
f 24/67/67 104/64/64 309/72/72 93/81/81
f 104/64/64 23/63/63 186/73/73 309/72/72
f 173/415/317 310/69/69 96/71/71 10/416/318
f 21/410/315 99/414/316 310/69/69 173/415/317
f 99/414/316 22/59/59 109/58/58 310/69/69
f 113/417/50 311/65/65 126/68/68 19/413/51
f 15/418/319 169/419/320 311/65/65 113/417/50
f 169/419/320 17/420/321 105/66/66 311/65/65
f 105/66/66 312/61/61 104/64/64 24/67/67
f 17/420/321 179/421/322 312/61/61 105/66/66
f 179/421/322 16/422/323 133/62/62 312/61/61
f 133/62/62 313/57/57 172/60/60 23/63/63
f 16/422/323 197/423/324 313/57/57 133/62/62
f 197/423/324 18/70/70 109/58/58 313/57/57
f 173/415/317 314/53/53 213/56/56 21/410/315
f 10/416/318 236/424/325 314/53/53 173/415/317
f 236/424/325 9/425/326 94/54/54 314/53/53
f 94/54/54 315/49/49 123/52/52 20/55/55
f 9/425/326 119/426/327 315/49/49 94/54/54
f 119/426/327 15/427/319 113/50/50 315/49/49
f 158/34/34 316/45/45 235/48/48 2/35/35
f 17/420/321 169/419/320 316/45/45 158/34/34
f 169/419/320 15/418/319 203/46/46 316/45/45
f 140/14/14 317/41/41 187/44/44 11/15/15
f 10/416/318 96/71/71 317/41/41 140/14/14
f 96/71/71 18/70/70 167/42/42 317/41/41
f 167/42/42 318/37/37 214/40/40 7/43/43
f 18/70/70 197/423/324 318/37/37 167/42/42
f 197/423/324 16/422/323 239/38/38 318/37/37
f 239/38/38 319/33/33 159/36/36 1/39/39
f 16/422/323 179/421/322 319/33/33 239/38/38
f 179/421/322 17/420/321 158/34/34 319/33/33
f 203/428/46 320/29/29 114/32/32 5/429/47
f 15/427/319 119/426/327 320/29/29 203/428/46
f 119/426/327 9/425/326 223/30/30 320/29/29
f 131/18/18 321/25/25 89/28/28 13/19/19
f 12/31/31 216/16/16 321/25/25 131/18/18
f 216/16/16 11/15/15 221/26/26 321/25/25
f 221/26/26 322/21/21 124/24/24 14/27/27
f 11/15/15 187/44/44 322/21/21 221/26/26
f 187/44/44 7/43/43 120/22/22 322/21/21
f 111/430/6 323/17/17 206/20/20 6/431/7
f 5/429/47 114/32/32 323/17/17 111/430/6
f 114/32/32 12/31/31 131/18/18 323/17/17
f 223/30/30 324/13/13 216/16/16 12/31/31
f 9/425/326 236/424/325 324/13/13 223/30/30
f 236/424/325 10/416/318 140/14/14 324/13/13
f 120/22/22 325/9/9 144/12/12 8/23/23
f 7/43/43 214/40/40 325/9/9 120/22/22
f 214/40/40 1/39/39 145/10/10 325/9/9
f 231/2/2 326/5/5 143/8/8 3/3/3
f 2/35/35 235/48/48 326/5/5 231/2/2
f 235/48/48 5/47/47 111/6/6 326/5/5
f 145/10/10 327/1/1 134/4/4 4/11/11
f 1/39/39 159/36/36 327/1/1 145/10/10
f 159/36/36 2/35/35 231/2/2 327/1/1
