# Blender v2.78 (sub 0) OBJ File: ''
# www.blender.org
mtllib Oak_Tree_NoLeaves_l_03.mtl
o Oak_Tree_NoLeaves_l_03
v -0.249365 0.275478 -0.401482
v -0.248486 0.519316 -0.330903
v -0.000053 0.538879 -0.402215
v 0.000277 0.275500 -0.457396
v 0.488763 0.275500 -0.094319
v 0.488763 0.275500 0.078869
v 0.673388 0.022955 0.057947
v 0.673388 0.022955 -0.097686
v -0.371022 0.275265 -0.368113
v -0.559999 0.022478 -0.488021
v -0.651542 0.022478 -0.362022
v -0.471422 0.275265 -0.229924
v 0.262909 0.275500 -0.370932
v 0.240420 0.538878 -0.325519
v 0.396087 0.519334 -0.124140
v 0.431982 0.275500 -0.170896
v 0.242366 0.273192 0.418076
v 0.074217 0.273192 0.474477
v 0.154846 0.018257 0.619525
v 0.288138 0.018257 0.571365
v -0.430105 0.275500 0.131437
v -0.389147 0.538878 0.123466
v -0.396206 0.519316 -0.130596
v -0.453214 0.275478 -0.120909
v 0.431982 0.275500 0.155446
v 0.396087 0.519334 0.122122
v 0.241934 0.519159 0.331319
v 0.285891 0.275281 0.351593
v -0.303347 0.275123 0.347487
v -0.242498 0.519032 0.332464
v -0.387127 0.021767 0.438936
v -0.534616 0.022955 0.152859
v 0.557260 0.022955 0.184138
v 0.363308 0.022266 0.432226
v 0.000217 0.022955 -0.576934
v 0.326799 0.022955 -0.468440
v -0.582216 0.022885 -0.161970
v 0.000633 0.505907 0.413259
v 0.557260 0.022955 -0.223877
v -0.320983 0.022885 -0.521526
v -0.235448 0.271519 0.444418
v -0.295179 0.014855 0.662465
v -0.158332 0.014855 0.706929
v -0.077600 0.271519 0.495706
v 0.016121 0.274904 0.467268
v 0.020056 0.021077 0.601196
v 0.269005 0.928014 -0.295540
v 0.446386 0.921807 -0.107195
v -0.016581 0.960405 0.356389
v -0.303546 0.875975 0.292025
v 0.448967 0.922849 0.128871
v 0.275350 0.930577 0.319799
v -0.303280 0.874014 -0.306707
v -0.017672 0.954405 -0.349112
v -0.471101 0.866357 0.109725
v -0.470968 0.865377 -0.123303
v -0.673492 1.313682 0.118810
v -0.861593 1.231854 0.013954
v -0.859504 1.223341 -0.176300
v -0.669229 1.296032 -0.286856
v -0.308601 1.368334 -0.221622
v -0.309737 1.385240 0.094748
v -1.405089 1.860282 -0.277409
v -1.281079 1.961085 -0.366617
v -1.135071 2.051539 -0.279205
v -1.153013 2.067642 -0.084113
v -1.298253 1.973982 -0.004308
v -1.414144 1.866319 -0.096823
v -2.175561 2.729361 -0.052345
v -2.277131 2.645647 -0.122235
v -1.849053 2.615423 -0.228429
v -2.023778 2.792495 -0.099927
v -2.275431 2.640694 -0.276130
v -2.120554 2.717308 -0.328478
v -2.934278 4.246550 -0.726107
v -3.105888 4.323739 -0.628037
v -3.178631 4.137123 -0.515783
v -3.203573 4.251907 -0.770922
v -2.148094 2.965631 -0.241911
v -2.945565 4.211039 -0.828709
v -3.040822 4.174050 -0.877973
v -1.524917 3.335237 0.106623
v -1.597359 3.444721 0.048599
v -1.548405 3.444603 -0.063567
v -1.443859 3.352942 -0.040930
v -1.350531 4.819522 0.757216
v -1.228121 4.912425 0.663924
v -1.088623 4.764238 0.584774
v -1.188164 4.797751 0.792222
v -1.542673 5.724370 1.823921
v -1.594190 5.740570 1.783598
v -1.141057 5.066932 0.864781
v -1.520744 5.798687 1.797271
v -1.573137 5.788908 1.752119
v -0.367687 5.197384 0.655109
v -0.423373 5.282923 0.667839
v -1.641678 6.580935 2.284908
v -1.628199 6.613098 2.265499
v -1.592223 6.614163 2.287153
v -1.608472 6.572388 2.310680
v -2.921490 5.047843 -1.975853
v -2.911983 5.092982 -1.929363
v -3.013314 4.993011 -1.914561
v -2.965742 5.127869 -1.911191
v -3.246202 4.511152 -0.831381
v -3.868502 4.826423 -0.294858
v -3.825480 4.906023 -0.325184
v -3.018927 5.122231 -1.954579
v -3.794216 4.883778 -0.201992
v -3.849193 4.811687 -0.183291
v -4.187845 5.686098 -0.228701
v -4.145503 5.718226 -0.258565
v -4.134851 5.728846 -0.177053
v -4.182876 5.700355 -0.156789
v -4.783658 6.863900 0.091358
v -4.774329 6.858641 0.126811
v -4.790658 6.838709 0.131865
v -4.796885 6.842088 0.099910
v -2.994422 6.025634 -2.580516
v -2.988110 6.040777 -2.561050
v -3.019246 5.966521 -2.535151
v -3.008451 6.048206 -2.550402
v 0.576587 1.901083 0.017074
v 0.598908 1.910100 0.224708
v 0.328749 1.956570 -0.137812
v 0.371540 1.976566 0.395419
v 0.055191 2.038282 0.274993
v 0.042736 1.992307 -0.065718
v 0.518734 3.868687 0.301128
v 0.512877 3.791383 -0.065520
v 0.707511 3.700488 -0.095599
v 0.811188 3.605952 0.218902
v 0.640323 3.516099 0.511044
v 0.888787 5.732224 -0.889140
v 0.854582 5.496284 -0.997127
v 0.772119 4.131757 0.283602
v 1.063305 5.736984 -0.765339
v 0.875462 4.110345 1.471784
v 0.963052 4.155338 1.426561
v 0.990669 5.653359 -1.032861
v 1.121022 5.663534 -0.851296
v 1.006862 4.038174 1.437387
v 0.933633 4.014074 1.486848
v 1.369881 4.890294 2.088285
v 1.407373 4.852962 2.102961
v 1.384455 4.840610 2.131722
v 1.346997 4.873015 2.127494
v 1.568478 5.589156 2.167759
v 1.575287 5.604206 2.134682
v 1.604874 5.577912 2.169494
v 1.613900 5.590987 2.143608
v 0.820877 7.140413 -0.728622
v 0.795391 7.151005 -0.658594
v 0.774455 7.127210 -0.775774
v 0.864930 5.887369 -1.073742
v 0.710715 7.133504 -0.746222
v -0.191998 5.756022 -1.854120
v -0.220387 5.816887 -1.816180
v 0.726309 7.143386 -0.667019
v 1.014467 8.445830 -0.821583
v 1.009495 8.442520 -0.851050
v 1.039212 8.445770 -0.819779
v 1.018278 8.353149 -0.843627
v -0.243232 5.806628 -1.773825
v -0.226172 5.751353 -1.807824
v -0.807225 6.467022 -2.466478
v -0.802153 6.434502 -2.424591
v -0.812249 6.440631 -2.467928
v -0.781920 6.415270 -2.469690
v -0.441272 5.268286 0.561563
v -0.369416 5.238111 0.568515
v -0.062492 5.927639 0.288544
v -0.027663 5.915384 0.271403
v -0.060804 5.920802 0.333191
v -0.028446 5.899117 0.310942
v -4.014213 5.221190 -0.165485
v 0.410963 0.387113 0.142589
v -1.110674 1.524862 -0.232841
v 0.319540 0.020262 0.516742
v -0.461035 0.294118 -0.175895
v -0.520575 0.133577 -0.144541
v 0.859816 7.877519 -0.733676
v 0.688542 2.609149 0.214331
v -3.574069 4.541146 -0.497873
v -2.227687 2.663212 -0.327941
v -0.273729 0.386510 0.340713
v -2.969255 4.642918 -1.399046
v -1.314228 4.778657 0.790839
v -3.201124 4.143551 -0.583774
v -0.498651 1.313762 -0.280354
v 0.406735 0.538878 -0.000630
v 0.324010 0.133246 0.396910
v -0.157478 5.602797 0.410733
v 1.390587 4.872976 2.091998
v -1.844116 3.072429 -0.103901
v 0.298828 0.133614 -0.426191
v -0.013734 1.408756 -0.224921
v -2.979988 5.637650 -2.301523
v -1.354065 4.025505 0.411411
v -1.488389 3.401102 -0.066973
v -0.039632 0.385305 0.445147
v -0.266978 0.127150 0.565477
v 0.849596 7.870208 -0.786579
v 0.271554 2.890378 0.002083
v -1.475444 3.331759 0.036424
v 1.576727 5.621214 2.150414
v 0.482869 3.833022 0.055940
v 0.503874 1.344203 -0.054728
v -1.599718 2.386254 -0.083887
v 0.020276 0.132612 0.534365
v 0.124335 0.538879 -0.376645
v 0.424079 5.683924 -1.468230
v -3.009304 6.061056 -2.596309
v -2.232264 2.684883 -0.076936
v 0.236316 0.386064 0.373395
v 0.814263 7.146796 -0.690960
v -1.610800 6.643012 2.290644
v -0.963345 1.633748 0.047809
v -0.477104 0.133233 -0.433658
v -0.034351 5.933703 0.310636
v -0.206761 5.747358 -1.834726
v 0.889302 7.769264 -0.771649
v 0.870676 7.764920 -0.789732
v 0.281363 1.377389 -0.222915
v -0.753768 4.985136 0.729762
v -1.526227 5.761366 1.814758
v -1.201684 2.011364 -0.336266
v -0.645699 1.034689 0.067379
v 1.096914 5.646345 -0.903670
v -3.864233 4.810708 -0.236283
v 0.463214 0.922328 0.010838
v 0.246230 0.405170 -0.343067
v -0.406764 5.254590 0.554070
v -0.590936 6.130679 -2.147696
v -3.979523 5.271560 -0.290353
v -2.988715 4.188796 -0.861201
v -0.130921 1.227280 0.250002
v -0.823647 6.476887 -2.467971
v 1.593072 5.607422 2.169023
v 1.205177 4.422693 1.827884
v 1.001149 4.704682 -0.388809
v -0.126083 0.538501 0.380020
v -0.557762 6.097218 -2.208295
v 0.464092 1.923115 -0.076261
v -1.132761 2.070422 -0.181325
v 0.493022 0.275500 -0.007725
v -1.108995 4.725543 0.644350
v -0.815798 5.081342 0.613458
v -3.017236 5.161280 -2.029674
v 0.460894 0.294237 0.116775
v 1.520902 5.260933 2.180627
v 0.777201 3.801330 0.969568
v 0.926415 4.868947 -0.305882
v -3.102469 4.748316 -1.386116
v 1.002110 5.733892 -0.766584
v -1.363211 5.379492 1.312374
v -2.656442 3.434168 -0.558096
v 0.455405 0.022955 0.305624
v 0.813072 7.239147 -0.760353
v -4.167258 5.700008 -0.252075
v 0.409856 0.699319 -0.120593
v 0.218942 2.044673 0.365560
v -3.120309 4.596550 -1.324890
v -0.167702 0.874509 -0.349970
v 0.264678 2.938466 0.288754
v -0.287937 0.133577 -0.464739
v -1.168660 5.065947 0.802692
v -0.247775 0.387078 -0.368529
v -0.440123 5.281874 0.614824
v -0.202536 5.624512 0.491733
v -2.736854 3.397989 -0.338135
v 0.973560 6.427932 -0.835711
v 1.051337 8.488473 -0.840771
v -1.277511 4.074622 0.280571
v -0.253305 0.699319 0.315716
v -0.347126 0.132980 0.395765
v -0.051350 5.947961 0.300693
v 0.826058 6.444404 -0.867630
v -3.096232 4.248826 -0.935736
v -0.951759 1.618496 -0.328936
v -3.009909 5.540753 -2.285000
v -0.502371 1.330857 0.117163
v -0.234880 0.013666 0.711640
v 1.354524 4.884871 2.106820
v -1.773422 2.973396 -0.014451
v -3.143595 4.184037 -0.499753
v -0.167944 0.876290 0.336071
v -2.953271 5.586385 -2.344512
v -1.133876 4.797709 0.563305
v 0.916097 6.408071 -0.901398
v 1.483366 5.279376 2.177794
v 0.907805 5.491447 -1.028699
v -2.286500 2.636767 -0.198655
v 0.041978 0.386064 0.438701
v -1.626624 6.604194 2.313477
v -1.581827 3.456993 -0.011061
v 0.263676 0.293068 0.386534
v 0.500340 0.133614 -0.196340
v 0.904585 7.881377 -0.729876
v -0.786440 1.272944 0.076862
v -2.994086 6.066971 -2.590167
v -1.555310 2.339208 -0.262311
v -0.409856 0.699319 -0.120593
v -0.234133 5.818087 -1.791249
v 0.730942 3.505076 0.440598
v -0.488725 0.133614 0.143724
v 0.135691 0.275500 -0.427342
v -0.308151 1.435596 -0.066727
v -0.623342 0.022682 -0.275155
v -0.268208 0.292222 0.396698
v -0.326745 0.538878 0.231421
v -3.000911 6.077516 -2.574489
v -1.600433 6.621515 2.314487
v -0.446831 0.275500 -0.000885
v 0.455405 0.022955 -0.345362
v -1.142706 4.997856 0.878230
v -0.645021 1.029696 -0.143893
v 0.435848 0.387113 -0.105762
v -0.825876 6.465333 -2.468676
v 0.919781 4.681378 -0.526716
v 0.253305 0.699319 0.315716
v -0.577309 6.095731 -2.173310
v 1.166882 4.491005 1.810913
v -0.425412 0.387078 -0.124033
v -0.360752 5.211478 0.611689
v 0.891398 3.835740 0.869727
v 0.435848 0.387113 0.097698
v -0.303560 0.387007 -0.344687
v 0.858454 5.894695 -1.024504
v 0.362577 5.669270 -1.416047
v -4.477356 6.350773 -0.021814
v 1.617419 5.608948 2.155931
v 0.253305 0.699320 -0.315715
v 0.227098 0.017568 0.608077
v -1.592292 6.202832 2.124736
v 0.267898 0.129865 0.502260
v -3.534652 4.644363 -0.523103
v -0.394111 5.238760 0.672444
v 1.118860 4.464498 1.854674
v 0.501611 1.936997 0.326979
v 0.312594 1.392637 0.356314
v -3.034964 4.730020 -1.296583
v 0.666066 4.112776 0.300324
v -4.802018 6.902211 0.121497
v -1.458991 5.304306 1.279540
v -2.930140 4.228651 -0.777866
v -0.399894 0.871166 0.208400
v -0.152865 5.576013 0.472605
v -2.961671 4.692441 -1.325719
v -2.976038 4.259568 -0.692235
v 0.842331 6.453549 -0.772252
v 0.266451 0.386763 0.340492
v -0.099914 1.566662 0.199157
v 0.031196 2.127182 0.109814
v 0.629571 0.022955 -0.152955
v 0.357259 0.275500 0.253671
v 0.187612 2.005383 -0.118070
v -4.190750 5.690505 -0.189700
v -1.116445 1.532332 -0.047399
v 0.627354 2.014033 0.127271
v -2.945023 5.616306 -2.314244
v -1.379256 4.153861 0.260853
v -0.000000 0.699320 -0.390246
v -0.000034 0.133614 -0.524755
v 0.931905 6.456903 -0.753392
v -2.958491 5.044824 -1.989759
v 0.681583 2.607358 0.116904
v -2.648691 3.488475 -0.297918
v -1.336173 4.850247 0.711572
v -1.828198 2.210961 -0.091940
v -0.123884 0.127150 0.611971
v -2.576584 3.530830 -0.489122
v -0.158165 0.271142 0.474698
v 1.038259 8.490162 -0.826917
v 0.711731 7.137783 -0.705350
v 1.363765 4.855465 2.133233
v -4.514125 6.321945 -0.059204
v -2.114689 2.763422 -0.074165
v -0.464423 0.022955 0.300399
v 0.829579 4.029550 0.876756
v -1.695584 2.933847 -0.166398
v 1.161032 4.405430 1.858754
v -0.715421 1.684581 -0.252088
v -0.877900 1.218470 -0.080622
v -0.455004 0.022682 -0.506853
v 0.911867 5.853209 -1.101486
v -0.409856 0.699319 0.120593
v -0.571507 0.133233 -0.303725
v -0.034129 5.946139 0.268379
v 0.517616 1.349755 0.177287
v -0.426857 0.275243 -0.301829
v 0.896477 4.058794 1.483813
v -1.868353 2.650776 -0.141483
v -0.368547 0.275500 0.248054
v 0.778159 3.682966 -0.010753
v -2.995872 5.130482 -1.929697
v -3.543471 4.509165 -0.370116
v 0.370265 0.924910 -0.208892
v 0.357259 0.275500 -0.269121
v -1.633148 6.212549 2.091305
v -1.362589 1.915099 -0.037210
v -0.017130 5.931883 0.278322
v -4.804758 6.888011 0.141588
v -4.509067 6.328550 -0.009324
v 0.350824 5.748102 -1.362340
v 0.460894 0.294237 -0.130948
v 0.126284 0.538660 0.378329
v -0.403045 0.538878 0.000008
v 0.410963 0.387113 -0.150652
v -0.815753 6.455926 -2.492720
v -1.568881 3.387650 0.092336
v 0.590352 0.133614 -0.096015
v -0.813524 6.467480 -2.492015
v -2.549057 3.517821 -0.360760
v 1.100820 5.702099 -0.802470
v 0.975090 4.015477 1.463339
v -2.117696 2.945883 -0.170835
v -0.165036 0.022955 -0.556508
v 0.409856 0.699319 0.120593
v -0.337637 0.018311 0.565474
v 0.169292 0.022955 -0.546045
v 0.500340 0.133614 0.167682
v -0.462170 1.069384 -0.290968
v 0.092008 0.020261 0.602566
v 0.914414 4.143489 1.447951
v -4.134787 5.726258 -0.220854
v -2.172167 2.906898 -0.298354
v 0.688588 0.022955 -0.019869
v -1.570566 5.726122 1.806887
v 0.629571 0.022955 0.113216
v -0.399694 0.869695 -0.222529
v 0.118701 0.129865 0.554019
v 0.845052 5.540857 -0.943093
v -3.212627 4.500372 -0.764038
v -0.331341 0.538856 -0.235830
v 0.000167 0.405170 -0.423583
v -0.105361 1.536700 -0.155547
v -1.573041 6.256932 2.096613
v -0.132023 0.275500 -0.434181
v 0.763358 4.722544 -0.493832
v -3.819063 4.845682 -0.179742
v -2.935589 5.113484 -1.916686
v -1.819833 2.202589 -0.258618
v -0.004597 1.438270 0.311249
v -0.486572 0.865867 -0.006789
v -3.267342 4.460065 -0.841047
v -0.423875 0.387007 -0.179088
v 0.325600 0.538878 0.231983
v 0.499845 2.784090 -0.061732
v 0.374729 0.926713 0.231859
v 0.497404 2.777751 0.410142
v -2.909925 5.068039 -1.952205
v -1.425438 5.360486 1.229790
v 0.143483 0.937435 0.358929
v 1.034217 8.486597 -0.858592
v -0.022163 0.292222 0.476643
v 1.023655 8.488898 -0.842348
v -3.002351 5.517137 -2.302449
v 0.547477 3.603561 0.482768
v -1.436400 4.119286 0.363639
v -0.237788 5.778317 -1.786088
v -0.783107 1.258702 -0.242841
v 0.364335 5.756886 -1.428301
v 1.399828 4.843571 2.118411
v 1.494680 5.294818 2.140812
v 0.607082 3.743607 -0.104881
v -0.253305 0.699320 -0.315715
v 0.007198 0.374281 0.444705
v -0.203107 5.787126 -1.839887
v 0.739210 7.129084 -0.767716
v -4.813314 6.894048 0.107576
v -1.636991 6.625690 2.289634
v 0.000000 0.699319 0.390246
v -0.629081 0.022408 -0.436945
v -1.589145 5.764900 1.763696
v -1.720675 2.304865 -0.006442
v -4.816056 6.879848 0.127667
v 0.325599 0.538879 -0.233244
v -0.209126 5.622913 0.417700
v -4.024827 5.217983 -0.257963
v -3.488466 4.603201 -0.383416
v -0.562528 0.022955 -0.009406
v -0.721537 1.694592 -0.019000
v -1.347974 1.904903 -0.335702
v -0.233741 0.385305 0.382078
v -0.861032 6.526229 -2.531077
v -3.804462 4.903247 -0.266379
v -0.731367 5.037370 0.627143
v -0.782110 5.105261 0.738034
v -0.310220 0.294118 -0.383473
v -0.400689 0.405170 0.126380
v 0.993027 4.100171 1.427477
v 0.590352 0.133614 0.067356
v -0.570646 6.142293 -2.176019
v -1.827509 2.998038 -0.209504
v 0.139520 0.933203 -0.335693
v -3.960504 5.269316 -0.186725
v -1.220742 2.026592 -0.030521
v -0.132390 1.210021 -0.277974
v -4.158279 5.716754 -0.158479
v -1.420897 1.852468 -0.187449
v 1.601074 5.622741 2.137322
v -1.390390 5.269570 1.329751
v -4.486610 6.346772 -0.078201
v 1.534382 5.273557 2.152794
v 0.831200 4.022533 0.257500
v -1.544806 5.800145 1.771568
v -0.463567 1.079684 0.210167
v -3.849632 4.868273 -0.322921
v 0.159201 0.272973 0.448884
v -3.017080 6.075081 -2.578140
v -2.752044 3.408368 -0.486040
v -0.069881 0.018310 0.652473
v -0.123978 0.538879 -0.377283
v 0.681834 3.953114 0.922885
v -3.083200 4.580519 -1.340971
v -1.617424 6.253214 2.068582
v 0.757298 4.815213 -0.319294
v -1.922413 2.609616 -0.275288
v -1.702909 2.280433 -0.345276
v 0.760501 7.148186 -0.654752
v 0.036874 0.293068 0.467057
v -0.002405 6.012480 0.254968
v -0.177091 5.598891 0.489564
v -0.149659 5.585671 0.440249
v -0.211344 5.627447 0.456137
v -0.183912 5.614225 0.406821
v -0.805090 5.102230 0.675451
v -1.391019 5.379027 1.267429
v -0.736431 5.002324 0.678747
v -0.774197 5.060896 0.607938
v -0.586290 6.112493 -2.157059
v -0.562036 6.120468 -2.195602
v -0.566093 6.092121 -2.193953
v -0.582234 6.140841 -2.158708
v 0.353689 5.760754 -1.390226
v 0.397218 5.668337 -1.447234
v 0.824957 6.450734 -0.819231
v 0.352619 5.707411 -1.382765
v 1.071237 8.621904 -0.860132
v 0.868741 7.869755 -0.799383
v 0.914760 7.879609 -0.752947
v 0.882140 7.880062 -0.726453
v 0.850193 7.873636 -0.759521
v 0.885937 6.456951 -0.753692
v 0.398288 5.721680 -1.454695
v 0.867334 6.424856 -0.892715
v 0.951598 6.414439 -0.874441
v 0.960125 6.443881 -0.790304
v 1.616388 5.688630 2.151032
v 1.531845 5.265085 2.167517
v 1.515880 5.285715 2.143276
v 1.500785 5.268627 2.182737
v 1.484820 5.289257 2.158496
v 1.134931 4.432582 1.860775
v 1.138492 4.484683 1.831648
v 1.187483 4.407131 1.844465
v 1.191045 4.459231 1.815338
v 0.874742 3.938676 0.865298
v 0.976583 4.790716 -0.339954
v 0.715265 3.871191 0.954169
v 0.842853 3.799730 0.921805
v 0.838052 4.697034 -0.526856
v 0.972033 4.681964 -0.463064
v 0.747153 4.010137 0.897663
v 0.837906 4.855815 -0.299540
v 0.743426 4.767236 -0.405119
v -3.012952 6.169812 -2.641529
v -0.119764 1.665894 0.025443
v 0.611936 2.750890 0.336639
v 0.376971 2.836146 -0.053297
v 0.370707 2.862102 0.373393
v 0.606499 2.755828 0.013800
v 0.245105 2.928635 0.142234
v 0.429583 1.368027 0.279020
v 0.143872 1.404336 -0.230692
v 0.166041 1.428009 0.360681
v 0.404615 1.357941 -0.150530
v 0.531128 1.343496 0.060633
v -2.998643 5.634315 -2.311312
v -2.960498 5.629113 -2.305127
v -2.977636 5.585748 -2.349905
v -2.944812 5.600021 -2.329782
v -4.876999 7.011614 0.160869
v -4.514819 6.322689 -0.032551
v -4.501146 6.333783 -0.074485
v -4.492433 6.340239 -0.009787
v -4.478761 6.351332 -0.051721
v -4.024908 5.214052 -0.208805
v -3.985746 5.245305 -0.165434
v -3.964626 5.275972 -0.241457
v -4.003788 5.244720 -0.284829
v -3.563908 4.514422 -0.431898
v -3.071976 4.745997 -1.338931
v -3.506421 4.634516 -0.455357
v -3.511790 4.552203 -0.362213
v -3.112711 4.703258 -1.402376
v -3.558538 4.596735 -0.525041
v -2.994780 4.712323 -1.302550
v -3.012379 4.634600 -1.421962
v -2.957166 4.666421 -1.362410
v -1.621919 6.708972 2.347061
v -1.578028 6.229556 2.114019
v -1.614623 6.202533 2.110787
v -1.593329 6.260230 2.079831
v -1.629924 6.233207 2.076599
v -0.767325 5.043658 0.746261
v -1.449333 5.333252 1.247439
v -1.369681 5.323674 1.328288
v -1.427995 5.277900 1.308298
v -1.305771 4.040648 0.349663
v -1.402508 4.067841 0.400237
v -1.321108 4.118795 0.257999
v -1.417844 4.145988 0.308573
v -1.756408 2.959743 -0.201966
v -1.723478 2.944740 -0.083212
v -2.613271 3.484398 -0.533382
v -1.846838 3.044115 -0.163915
v -1.813908 3.029112 -0.045162
v -2.708784 3.416982 -0.533000
v -2.554038 3.530567 -0.424413
v -2.753492 3.397530 -0.410297
v -2.697015 3.441277 -0.307622
v -2.593073 3.506898 -0.321356
v -1.657555 2.352919 -0.032128
v -1.621001 2.311079 -0.316928
v -1.768660 2.238658 -0.314112
v -1.834766 2.198158 -0.175182
v -1.564071 2.369420 -0.172788
v -1.780591 2.254077 -0.037337
v -0.694019 1.695407 -0.134986
v -1.127876 1.518617 -0.140011
v -1.052540 1.580602 0.012123
v -0.835729 1.669865 0.030911
v -0.825986 1.655823 -0.307127
v -1.043032 1.568297 -0.293364
v -0.661804 1.027629 -0.037981
v -0.302885 1.085939 0.232806
v -0.301534 1.075975 -0.310563
v -0.569251 1.049048 -0.226824
v -0.570367 1.057275 0.147776
v -0.424342 0.699319 0.000000
v 0.424342 0.699319 0.000000
v -0.343300 0.699320 -0.225865
v 0.131129 0.699319 0.365457
v -0.343300 0.699319 0.225865
v 0.131129 0.699320 -0.365457
v -0.131129 0.699320 -0.365457
v 0.343300 0.699319 0.225865
v -0.131129 0.699319 0.365457
v 0.068615 0.131556 0.542092
v 0.294490 0.131556 0.458681
v 0.554379 0.133614 0.114032
v 0.554379 0.133614 -0.142690
v 0.343300 0.699320 -0.225865
v -0.391195 0.133405 -0.451809
v -0.551203 0.133405 -0.231576
v -0.048857 0.130065 0.573506
v -0.306469 0.130065 0.489803
v -0.137098 0.403059 0.415182
v -0.199298 0.126516 0.601146
v -0.149469 0.133614 -0.499847
v 0.436518 0.405170 -0.003528
v -0.365934 0.405045 -0.261998
v 0.409506 0.133614 -0.310071
v 0.138226 0.403946 0.405725
v -0.508777 0.133614 -0.005302
v 0.153615 0.133614 -0.490821
v 0.409506 0.133614 0.281412
v -0.420168 0.133614 0.275729
v -0.340227 0.405170 0.237331
v 0.333817 0.405170 0.240474
v 0.127323 0.405170 -0.396302
v -0.415879 0.405170 0.000043
v 0.195856 0.129497 0.534180
v 0.333817 0.405170 -0.247529
v -0.535864 0.133196 -0.374568
v 0.598181 0.133614 -0.014329
v -0.125323 0.405170 -0.399873
vt 0.9434 0.6651
vt 0.9434 0.6666
vt 0.9419 0.6666
vt 0.9419 0.6651
vt 0.9324 0.6632
vt 0.9315 0.6636
vt 0.9309 0.6615
vt 0.9316 0.6612
vt 0.9479 0.6614
vt 0.9484 0.6590
vt 0.9492 0.6592
vt 0.9489 0.6616
vt 0.9370 0.6657
vt 0.9374 0.6672
vt 0.9358 0.6676
vt 0.9355 0.6661
vt 0.9261 0.6673
vt 0.9254 0.6680
vt 0.9244 0.6664
vt 0.9248 0.6659
vt 0.9503 0.6666
vt 0.9497 0.6681
vt 0.9482 0.6675
vt 0.9489 0.6660
vt 0.9403 0.6652
vt 0.9404 0.6667
vt 0.9389 0.6669
vt 0.9387 0.6653
vt 0.9308 0.6682
vt 0.9316 0.6694
vt 0.9302 0.6701
vt 0.9294 0.6689
vt 0.9532 0.6679
vt 0.9525 0.6693
vt 0.9512 0.6686
vt 0.9518 0.6672
vt 0.9546 0.6649
vt 0.9538 0.6665
vt 0.9524 0.6658
vt 0.9532 0.6641
vt 0.9291 0.6653
vt 0.9301 0.6669
vt 0.9287 0.6677
vt 0.9277 0.6663
vt 0.9399 0.6618
vt 0.9401 0.6637
vt 0.9384 0.6638
vt 0.9381 0.6620
vt 0.9517 0.6634
vt 0.9510 0.6651
vt 0.9495 0.6645
vt 0.9502 0.6627
vt 0.9282 0.6698
vt 0.9273 0.6706
vt 0.9265 0.6695
vt 0.9274 0.6687
vt 0.9364 0.6624
vt 0.9367 0.6642
vt 0.9351 0.6646
vt 0.9346 0.6628
vt 0.9470 0.6654
vt 0.9474 0.6637
vt 0.9486 0.6639
vt 0.9484 0.6657
vt 0.9338 0.6666
vt 0.9324 0.6672
vt 0.9320 0.6656
vt 0.9331 0.6651
vt 0.9434 0.6617
vt 0.9434 0.6635
vt 0.9418 0.6635
vt 0.9417 0.6617
vt 0.9586 0.6667
vt 0.9602 0.6651
vt 0.9607 0.6655
vt 0.9592 0.6673
vt 0.9560 0.6695
vt 0.9570 0.6683
vt 0.9578 0.6690
vt 0.9570 0.6703
vt 0.9583 0.6699
vt 0.9572 0.6707
vt 0.9581 0.6695
vt 0.9539 0.6699
vt 0.9546 0.6686
vt 0.9550 0.6688
vt 0.9570 0.6659
vt 0.9584 0.6644
vt 0.9597 0.6646
vt 0.9579 0.6661
vt 0.9595 0.6682
vt 0.9491 0.6642
vt 0.9495 0.6621
vt 0.9450 0.6667
vt 0.9450 0.6651
vt 0.9456 0.6651
vt 0.9460 0.6614
vt 0.9463 0.6594
vt 0.9476 0.6589
vt 0.9469 0.6611
vt 0.9377 0.6691
vt 0.9390 0.6687
vt 0.9392 0.6706
vt 0.9380 0.6710
vt 0.9340 0.6628
vt 0.9333 0.6628
vt 0.9324 0.6609
vt 0.9332 0.6609
vt 0.9351 0.6661
vt 0.9310 0.6640
vt 0.9306 0.6644
vt 0.9298 0.6627
vt 0.9303 0.6621
vt 0.9314 0.6661
vt 0.9317 0.6659
vt 0.9322 0.6674
vt 0.9263 0.6698
vt 0.9264 0.6696
vt 0.9272 0.6708
vt 0.9293 0.6690
vt 0.9273 0.6665
vt 0.9268 0.6667
vt 0.9253 0.6654
vt 0.9260 0.6652
vt 0.9252 0.6683
vt 0.9251 0.6687
vt 0.9542 0.6722
vt 0.9554 0.6730
vt 0.9545 0.6744
vt 0.9533 0.6737
vt 0.9324 0.6710
vt 0.9337 0.6704
vt 0.9345 0.6722
vt 0.9333 0.6726
vt 0.9434 0.6685
vt 0.9449 0.6686
vt 0.9448 0.6705
vt 0.9434 0.6703
vt 0.9405 0.6686
vt 0.9419 0.6684
vt 0.9420 0.6702
vt 0.9406 0.6704
vt 0.9517 0.6709
vt 0.9530 0.6715
vt 0.9520 0.6730
vt 0.9507 0.6725
vt 0.9300 0.6723
vt 0.9311 0.6716
vt 0.9321 0.6731
vt 0.9309 0.6737
vt 0.9463 0.6690
vt 0.9477 0.6694
vt 0.9472 0.6712
vt 0.9460 0.6708
vt 0.9350 0.6700
vt 0.9362 0.6695
vt 0.9367 0.6714
vt 0.9356 0.6718
vt 0.9490 0.6698
vt 0.9504 0.6704
vt 0.9495 0.6721
vt 0.9484 0.6716
vt 0.9499 0.6441
vt 0.9507 0.6452
vt 0.9473 0.6456
vt 0.9468 0.6444
vt 0.9492 0.6574
vt 0.9484 0.6586
vt 0.9455 0.6583
vt 0.9461 0.6570
vt 0.9514 0.6549
vt 0.9499 0.6561
vt 0.9466 0.6557
vt 0.9485 0.6542
vt 0.9522 0.6465
vt 0.9537 0.6478
vt 0.9507 0.6489
vt 0.9490 0.6472
vt 0.9488 0.6419
vt 0.9491 0.6430
vt 0.9462 0.6432
vt 0.9460 0.6421
vt 0.9414 0.6558
vt 0.9410 0.6570
vt 0.9364 0.6557
vt 0.9367 0.6546
vt 0.9428 0.6533
vt 0.9418 0.6546
vt 0.9369 0.6536
vt 0.9371 0.6525
vt 0.9431 0.6477
vt 0.9440 0.6490
vt 0.9373 0.6492
vt 0.9371 0.6481
vt 0.9418 0.6451
vt 0.9421 0.6463
vt 0.9369 0.6470
vt 0.9368 0.6458
vt 0.9412 0.6428
vt 0.9414 0.6439
vt 0.9366 0.6446
vt 0.9365 0.6435
vt 0.9439 0.6506
vt 0.9505 0.6507
vt 0.9304 0.6462
vt 0.9306 0.6472
vt 0.9243 0.6475
vt 0.9240 0.6466
vt 0.9316 0.6503
vt 0.9320 0.6514
vt 0.9268 0.6513
vt 0.9259 0.6502
vt 0.9302 0.6442
vt 0.9302 0.6452
vt 0.9238 0.6458
vt 0.9238 0.6450
vt 0.9304 0.6541
vt 0.9301 0.6551
vt 0.9238 0.6544
vt 0.9242 0.6536
vt 0.9314 0.6523
vt 0.9308 0.6532
vt 0.9246 0.6528
vt 0.9257 0.6521
vt 0.9309 0.6482
vt 0.9312 0.6492
vt 0.9250 0.6491
vt 0.9247 0.6483
vt 0.9653 0.6704
vt 0.9661 0.6704
vt 0.9657 0.6817
vt 0.9650 0.6817
vt 0.9638 0.6701
vt 0.9646 0.6704
vt 0.9644 0.6818
vt 0.9637 0.6813
vt 0.9621 0.6703
vt 0.9630 0.6699
vt 0.9630 0.6808
vt 0.9621 0.6815
vt 0.9667 0.6710
vt 0.9674 0.6716
vt 0.9670 0.6822
vt 0.9663 0.6819
vt 0.9699 0.6714
vt 0.9707 0.6714
vt 0.9699 0.6829
vt 0.9692 0.6829
vt 0.9198 0.6470
vt 0.9208 0.6470
vt 0.9205 0.6511
vt 0.9194 0.6514
vt 0.9180 0.6465
vt 0.9187 0.6472
vt 0.9184 0.6517
vt 0.9175 0.6516
vt 0.9683 0.6715
vt 0.9692 0.6714
vt 0.9686 0.6828
vt 0.9678 0.6825
vt 0.9221 0.6470
vt 0.9233 0.6471
vt 0.9229 0.6516
vt 0.9217 0.6514
vt 0.9164 0.6460
vt 0.9173 0.6459
vt 0.9166 0.6515
vt 0.9157 0.6510
vt 0.9165 0.6618
vt 0.9173 0.6618
vt 0.9162 0.6720
vt 0.9155 0.6719
vt 0.9149 0.6614
vt 0.9158 0.6617
vt 0.9149 0.6719
vt 0.9140 0.6717
vt 0.9182 0.6616
vt 0.9192 0.6613
vt 0.9179 0.6715
vt 0.9171 0.6718
vt 0.9203 0.6616
vt 0.9214 0.6619
vt 0.9199 0.6722
vt 0.9189 0.6719
vt 0.9187 0.6793
vt 0.9194 0.6791
vt 0.9209 0.6868
vt 0.9204 0.6869
vt 0.9202 0.6795
vt 0.9209 0.6798
vt 0.9218 0.6871
vt 0.9214 0.6869
vt 0.9176 0.6795
vt 0.9181 0.6795
vt 0.9200 0.6869
vt 0.9197 0.6871
vt 0.9215 0.7124
vt 0.9212 0.7115
vt 0.9263 0.7118
vt 0.9263 0.7126
vt 0.9210 0.6929
vt 0.9212 0.6927
vt 0.9224 0.6986
vt 0.9222 0.6988
vt 0.9204 0.6933
vt 0.9208 0.6931
vt 0.9220 0.6989
vt 0.9218 0.6990
vt 0.9216 0.6927
vt 0.9219 0.6926
vt 0.9230 0.6985
vt 0.9227 0.6985
vt 0.9223 0.6928
vt 0.9227 0.6929
vt 0.9237 0.6987
vt 0.9233 0.6986
vt 0.9453 0.6748
vt 0.9453 0.6745
vt 0.9456 0.6744
vt 0.9456 0.6747
vt 0.9668 0.6905
vt 0.9674 0.6906
vt 0.9677 0.6991
vt 0.9673 0.6991
vt 0.9686 0.6911
vt 0.9680 0.6909
vt 0.9686 0.6994
vt 0.9682 0.6992
vt 0.9658 0.6905
vt 0.9663 0.6904
vt 0.9669 0.6992
vt 0.9665 0.6993
vt 0.9419 0.6800
vt 0.9426 0.6797
vt 0.9423 0.6851
vt 0.9417 0.6854
vt 0.9638 0.6915
vt 0.9644 0.6918
vt 0.9653 0.6997
vt 0.9648 0.6996
vt 0.9385 0.6799
vt 0.9392 0.6801
vt 0.9390 0.6854
vt 0.9384 0.6852
vt 0.9402 0.6802
vt 0.9411 0.6802
vt 0.9410 0.6856
vt 0.9400 0.6855
vt 0.9648 0.6912
vt 0.9653 0.6906
vt 0.9661 0.6995
vt 0.9657 0.6996
vt 0.9435 0.6799
vt 0.9444 0.6801
vt 0.9438 0.6854
vt 0.9431 0.6853
vt 0.9409 0.6904
vt 0.9414 0.6903
vt 0.9406 0.6955
vt 0.9402 0.6955
vt 0.9396 0.6905
vt 0.9404 0.6905
vt 0.9398 0.6954
vt 0.9392 0.6955
vt 0.9384 0.6904
vt 0.9389 0.6905
vt 0.9387 0.6956
vt 0.9383 0.6956
vt 0.9420 0.6905
vt 0.9426 0.6907
vt 0.9414 0.6960
vt 0.9410 0.6957
vt 0.9388 0.7043
vt 0.9391 0.7043
vt 0.9385 0.7132
vt 0.9383 0.7132
vt 0.9381 0.7043
vt 0.9384 0.7043
vt 0.9381 0.7131
vt 0.9380 0.7130
vt 0.9394 0.7043
vt 0.9397 0.7042
vt 0.9389 0.7130
vt 0.9387 0.7131
vt 0.9401 0.7044
vt 0.9403 0.7045
vt 0.9393 0.7130
vt 0.9391 0.7130
vt 0.9452 0.6770
vt 0.9452 0.6768
vt 0.9453 0.6768
vt 0.9453 0.6770
vt 0.9673 0.7064
vt 0.9676 0.7064
vt 0.9674 0.7137
vt 0.9672 0.7137
vt 0.9678 0.7065
vt 0.9681 0.7066
vt 0.9676 0.7137
vt 0.9675 0.7137
vt 0.9667 0.7065
vt 0.9670 0.7064
vt 0.9671 0.7137
vt 0.9669 0.7137
vt 0.9662 0.7067
vt 0.9664 0.7066
vt 0.9668 0.7137
vt 0.9667 0.7137
vt 0.9642 0.6996
vt 0.9654 0.7067
vt 0.9110 0.6474
vt 0.9122 0.6474
vt 0.9113 0.6523
vt 0.9101 0.6522
vt 0.8915 0.6465
vt 0.8929 0.6461
vt 0.8946 0.6510
vt 0.8928 0.6513
vt 0.9051 0.6468
vt 0.9067 0.6471
vt 0.9054 0.6523
vt 0.9034 0.6525
vt 0.8944 0.6460
vt 0.8959 0.6459
vt 0.8979 0.6515
vt 0.8963 0.6513
vt 0.9082 0.6472
vt 0.9097 0.6473
vt 0.9089 0.6522
vt 0.9072 0.6522
vt 0.8995 0.6622
vt 0.8993 0.6723
vt 0.8976 0.6724
vt 0.8978 0.6619
vt 0.8930 0.6614
vt 0.8946 0.6614
vt 0.8947 0.6717
vt 0.8932 0.6715
vt 0.9029 0.6619
vt 0.9046 0.6612
vt 0.9039 0.6702
vt 0.9025 0.6712
vt 0.8962 0.6617
vt 0.8961 0.6720
vt 0.9062 0.6615
vt 0.9079 0.6617
vt 0.9068 0.6712
vt 0.9053 0.6707
vt 0.8995 0.6479
vt 0.9011 0.6485
vt 0.9014 0.6527
vt 0.8996 0.6521
vt 0.9452 0.6777
vt 0.9453 0.6776
vt 0.9454 0.6776
vt 0.9453 0.6777
vt 0.8985 0.6863
vt 0.8997 0.6867
vt 0.8985 0.7011
vt 0.8976 0.7003
vt 0.9007 0.6873
vt 0.9017 0.6879
vt 0.9002 0.7013
vt 0.8994 0.7012
vt 0.9301 0.6819
vt 0.9313 0.6816
vt 0.9313 0.6889
vt 0.9306 0.6890
vt 0.8939 0.6857
vt 0.8950 0.6858
vt 0.8953 0.6998
vt 0.8946 0.6999
vt 0.8961 0.6858
vt 0.8972 0.6859
vt 0.8967 0.6994
vt 0.8960 0.6996
vt 0.9347 0.6820
vt 0.9358 0.6818
vt 0.9338 0.6889
vt 0.9332 0.6888
vt 0.9325 0.6820
vt 0.9337 0.6823
vt 0.9327 0.6886
vt 0.9320 0.6888
vt 0.9031 0.6872
vt 0.9044 0.6864
vt 0.9019 0.7008
vt 0.9010 0.7011
vt 0.9275 0.6821
vt 0.9289 0.6822
vt 0.9299 0.6890
vt 0.9291 0.6890
vt 0.9299 0.6954
vt 0.9304 0.6955
vt 0.9310 0.7019
vt 0.9306 0.7018
vt 0.9328 0.6952
vt 0.9331 0.6953
vt 0.9325 0.7017
vt 0.9323 0.7017
vt 0.9309 0.6954
vt 0.9314 0.6953
vt 0.9315 0.7018
vt 0.9312 0.7018
vt 0.9319 0.6952
vt 0.9324 0.6951
vt 0.9321 0.7016
vt 0.9318 0.7017
vt 0.9314 0.7065
vt 0.9316 0.7064
vt 0.9317 0.7110
vt 0.9315 0.7112
vt 0.9319 0.7063
vt 0.9322 0.7063
vt 0.9323 0.7110
vt 0.9320 0.7110
vt 0.9309 0.7066
vt 0.9311 0.7066
vt 0.9313 0.7113
vt 0.9311 0.7113
vt 0.9324 0.7064
vt 0.9326 0.7065
vt 0.9326 0.7113
vt 0.9324 0.7112
vt 0.9453 0.6759
vt 0.9453 0.6761
vt 0.9450 0.6762
vt 0.9450 0.6759
vt 0.8989 0.7107
vt 0.8995 0.7106
vt 0.8972 0.7205
vt 0.8967 0.7204
vt 0.8937 0.7098
vt 0.8943 0.7097
vt 0.8934 0.7196
vt 0.8929 0.7197
vt 0.8949 0.7100
vt 0.8954 0.7104
vt 0.8943 0.7197
vt 0.8938 0.7197
vt 0.9796 0.6448
vt 0.9798 0.6454
vt 0.9711 0.6449
vt 0.9710 0.6444
vt 0.8975 0.7107
vt 0.8982 0.7109
vt 0.8962 0.7204
vt 0.8957 0.7203
vt 0.8932 0.7292
vt 0.8935 0.7293
vt 0.8917 0.7385
vt 0.8916 0.7384
vt 0.8938 0.7294
vt 0.8941 0.7295
vt 0.8920 0.7386
vt 0.8918 0.7386
vt 0.8945 0.7296
vt 0.8948 0.7296
vt 0.8924 0.7387
vt 0.8922 0.7386
vt 0.8924 0.7197
vt 0.8917 0.7290
vt 0.8925 0.7290
vt 0.8928 0.7290
vt 0.8914 0.7384
vt 0.8912 0.7384
vt 0.9452 0.6775
vt 0.9450 0.6775
vt 0.9450 0.6773
vt 0.9452 0.6773
vt 0.9796 0.6427
vt 0.9798 0.6433
vt 0.9710 0.6432
vt 0.9711 0.6428
vt 0.8961 0.7105
vt 0.8969 0.7106
vt 0.8953 0.7201
vt 0.8948 0.7199
vt 0.9796 0.6415
vt 0.9794 0.6421
vt 0.9712 0.6424
vt 0.9711 0.6420
vt 0.9795 0.6437
vt 0.9793 0.6441
vt 0.9709 0.6438
vt 0.9710 0.6435
vt 0.9639 0.6438
vt 0.9638 0.6441
vt 0.9567 0.6443
vt 0.9568 0.6442
vt 0.9639 0.6427
vt 0.9640 0.6430
vt 0.9568 0.6436
vt 0.9568 0.6435
vt 0.9639 0.6445
vt 0.9639 0.6449
vt 0.9568 0.6448
vt 0.9568 0.6445
vt 0.9640 0.6433
vt 0.9640 0.6436
vt 0.9569 0.6440
vt 0.9568 0.6438
vt 0.9453 0.6767
vt 0.9452 0.6766
vt 0.9453 0.6765
vt 0.9456 0.6767
vt 0.9454 0.6767
vt 0.9454 0.6765
vt 0.8939 0.6403
vt 0.8958 0.6418
vt 0.9219 0.7154
vt 0.9215 0.7149
vt 0.9266 0.7152
vt 0.9270 0.7156
vt 0.9219 0.7166
vt 0.9224 0.7158
vt 0.9274 0.7160
vt 0.9271 0.7167
vt 0.9168 0.6802
vt 0.9172 0.6796
vt 0.9195 0.6873
vt 0.9191 0.6876
vt 0.9216 0.7141
vt 0.9218 0.7133
vt 0.9264 0.7134
vt 0.9265 0.7143
vt 0.9323 0.7142
vt 0.9320 0.7139
vt 0.9374 0.7125
vt 0.9375 0.7127
vt 0.9319 0.7133
vt 0.9317 0.7128
vt 0.9371 0.7123
vt 0.9373 0.7124
vt 0.9324 0.7150
vt 0.9325 0.7145
vt 0.9377 0.7130
vt 0.9376 0.7133
vt 0.9317 0.7123
vt 0.9317 0.7118
vt 0.9372 0.7118
vt 0.9372 0.7120
vt 0.9454 0.6754
vt 0.9452 0.6754
vt 0.9450 0.6752
vt 0.9453 0.6752
vt 0.9008 0.6442
vt 0.9031 0.6423
vt 0.9035 0.6465
vt 0.9055 0.6403
vt 0.9456 0.6754
vt 0.9455 0.6752
vt 0.9458 0.6756
vt 0.9455 0.6756
vt 0.9453 0.6756
vt 0.9322 0.7154
vt 0.9375 0.7135
vt 0.9268 0.7173
vt 0.9164 0.7147
vt 0.9168 0.7139
vt 0.9172 0.7132
vt 0.9164 0.6808
vt 0.9188 0.6878
vt 0.9140 0.6737
vt 0.9144 0.6728
vt 0.9214 0.7173
vt 0.9159 0.7173
vt 0.9166 0.7165
vt 0.9174 0.7157
vt 0.9169 0.7152
vt 0.8978 0.6474
vt 0.8977 0.6434
vt 0.9453 0.6763
vt 0.9452 0.6763
vt 0.9450 0.6764
vt 0.9639 0.6424
vt 0.9567 0.6433
vt 0.9710 0.6416
vt 0.9885 0.6434
vt 0.9880 0.6439
vt 0.9876 0.6444
vt 0.9798 0.6409
vt 0.9886 0.6403
vt 0.9882 0.6410
vt 0.9877 0.6417
vt 0.8965 0.7011
vt 0.8975 0.7011
vt 0.9881 0.6425
vt 0.9453 0.6775
vt 0.9453 0.6773
vt 0.9453 0.6776
vt 0.9452 0.6776
vt 0.9450 0.6776
vt 0.8922 0.7290
vt 0.8910 0.7384
vt 0.9881 0.6452
vt 0.9886 0.6460
vt 0.8959 0.7005
vt 0.8931 0.7098
vt 0.8939 0.7000
vt 0.9453 0.6757
vt 0.9450 0.6757
vt 0.9455 0.6757
vt 0.9455 0.6759
vt 0.9456 0.6761
vt 0.9305 0.7066
vt 0.9308 0.7113
vt 0.9303 0.7018
vt 0.9293 0.6953
vt 0.9283 0.6889
vt 0.9261 0.6820
vt 0.9238 0.6751
vt 0.9259 0.6752
vt 0.9279 0.6753
vt 0.9032 0.6745
vt 0.9051 0.6732
vt 0.9070 0.6720
vt 0.9313 0.6744
vt 0.9330 0.6752
vt 0.9347 0.6760
vt 0.9362 0.6754
vt 0.9377 0.6747
vt 0.8928 0.6856
vt 0.8918 0.6713
vt 0.9296 0.6748
vt 0.9010 0.6722
vt 0.9021 0.6733
vt 0.9452 0.6779
vt 0.9453 0.6779
vt 0.9450 0.6779
vt 0.9451 0.6777
vt 0.9451 0.6776
vt 0.8993 0.6438
vt 0.9090 0.6617
vt 0.9012 0.6625
vt 0.8914 0.6614
vt 0.8911 0.6515
vt 0.9080 0.6419
vt 0.9093 0.6422
vt 0.9106 0.6424
vt 0.8913 0.6413
vt 0.8926 0.6408
vt 0.9067 0.6411
vt 0.8900 0.6470
vt 0.8890 0.6424
vt 0.8902 0.6418
vt 0.9118 0.6425
vt 0.9131 0.6426
vt 0.9659 0.7067
vt 0.9665 0.7137
vt 0.9452 0.6772
vt 0.9453 0.6772
vt 0.9450 0.6771
vt 0.9450 0.6769
vt 0.9450 0.6767
vt 0.9378 0.7042
vt 0.9378 0.7129
vt 0.9379 0.6956
vt 0.9378 0.6903
vt 0.9378 0.6850
vt 0.9429 0.6744
vt 0.9439 0.6746
vt 0.9449 0.6748
vt 0.9635 0.6839
vt 0.9640 0.6829
vt 0.9394 0.6748
vt 0.9403 0.6748
vt 0.9412 0.6748
vt 0.9378 0.6797
vt 0.9378 0.6745
vt 0.9386 0.6746
vt 0.9631 0.6912
vt 0.9620 0.6829
vt 0.9628 0.6834
vt 0.9420 0.6746
vt 0.9692 0.6912
vt 0.9453 0.6751
vt 0.9456 0.6751
vt 0.9450 0.6751
vt 0.9450 0.6748
vt 0.9450 0.6746
vt 0.9202 0.6935
vt 0.9215 0.6992
vt 0.9167 0.7122
vt 0.9162 0.7113
vt 0.9190 0.6720
vt 0.9201 0.6726
vt 0.9140 0.6611
vt 0.9132 0.6715
vt 0.9148 0.6506
vt 0.9154 0.6460
vt 0.9160 0.6415
vt 0.9171 0.6409
vt 0.9181 0.6403
vt 0.9212 0.6428
vt 0.9224 0.6427
vt 0.9237 0.6426
vt 0.9677 0.6611
vt 0.9688 0.6605
vt 0.9698 0.6600
vt 0.9186 0.6414
vt 0.9190 0.6426
vt 0.9201 0.6427
vt 0.9706 0.6599
vt 0.9714 0.6598
vt 0.9665 0.6592
vt 0.9671 0.6601
vt 0.9613 0.6707
vt 0.9613 0.6821
vt 0.9612 0.6593
vt 0.9621 0.6592
vt 0.9630 0.6590
vt 0.9639 0.6589
vt 0.9648 0.6589
vt 0.9656 0.6590
vt 0.9373 0.6515
vt 0.9301 0.6432
vt 0.9238 0.6441
vt 0.9364 0.6424
vt 0.9373 0.6503
vt 0.9439 0.6521
vt 0.9504 0.6526
vt 0.9410 0.6417
vt 0.9457 0.6411
vt 0.9485 0.6407
vt 0.9513 0.6403
vt 0.9517 0.6416
vt 0.9520 0.6429
vt 0.9541 0.6448
vt 0.9554 0.6457
vt 0.9567 0.6466
vt 0.9531 0.6536
vt 0.9557 0.6547
vt 0.9544 0.6557
vt 0.9531 0.6566
vt 0.9523 0.6578
vt 0.9514 0.6589
vt 0.9531 0.6438
vt 0.9329 0.6687
vt 0.9344 0.6681
vt 0.9466 0.6671
vt 0.9288 0.6730
vt 0.9297 0.6744
vt 0.9280 0.6717
vt 0.9291 0.6709
vt 0.9550 0.6707
vt 0.9562 0.6715
vt 0.9241 0.6671
vt 0.9238 0.6677
vt 0.9267 0.6649
vt 0.9285 0.6678
vt 0.9283 0.6679
vt 0.9347 0.6646
vt 0.9343 0.6647
vt 0.9341 0.6609
vt 0.9456 0.6635
vt 0.9462 0.6634
vt 0.9450 0.6635
vt 0.9451 0.6617
vt 0.9451 0.6598
vt 0.9500 0.6601
vt 0.9508 0.6609
vt 0.9610 0.6668
vt 0.9612 0.6682
vt 0.9597 0.6690
vt 0.9557 0.6675
vt 0.9562 0.6677
vt 0.9552 0.6672
vt 0.9561 0.6657
vt 0.9570 0.6642
vt 0.9434 0.6598
vt 0.9416 0.6598
vt 0.9360 0.6605
vt 0.9379 0.6602
vt 0.9524 0.6617
vt 0.9540 0.6625
vt 0.9398 0.6600
vt 0.9282 0.6638
vt 0.9555 0.6633
vn -0.2394 0.2222 -0.9451
vn -0.2687 0.1227 -0.9554
vn 0.0041 0.1144 -0.9934
vn 0.0125 0.2076 -0.9781
vn 0.7982 0.6024 0.0010
vn 0.7782 0.5470 0.3084
vn 0.7696 0.5690 0.2896
vn 0.7880 0.6157 -0.0026
vn -0.5958 0.6790 -0.4290
vn -0.5911 0.6889 -0.4195
vn -0.7725 0.6291 -0.0861
vn -0.7974 0.6010 -0.0543
vn 0.7624 0.1873 -0.6194
vn 0.7819 0.0418 -0.6220
vn 0.9340 0.0804 -0.3481
vn 0.8128 0.2314 -0.5346
vn 0.2743 0.5482 0.7901
vn 0.0193 0.5003 0.8656
vn 0.0237 0.5215 0.8530
vn 0.2788 0.5620 0.7787
vn -0.9821 0.1767 0.0660
vn -0.9994 -0.0012 0.0342
vn -0.9574 0.1061 -0.2685
vn -0.9713 0.2375 0.0162
vn 0.3033 0.1952 -0.9327
vn 0.2977 0.0994 -0.9495
vn 0.5707 0.0686 -0.8183
vn 0.5717 0.1888 -0.7985
vn 0.7942 0.1655 0.5847
vn 0.7962 0.0383 0.6038
vn 0.5920 0.1176 0.7973
vn 0.7631 0.1995 0.6148
vn -0.8304 0.1774 0.5282
vn -0.8141 0.0373 0.5795
vn -0.9473 -0.0061 0.3204
vn -0.9390 0.1632 0.3029
vn -0.8000 0.4012 0.4462
vn -0.8195 0.3080 0.4833
vn -0.9054 0.3125 0.2874
vn -0.8741 0.3991 0.2769
vn 0.7254 0.4054 0.5563
vn 0.7656 0.2945 0.5720
vn 0.8174 0.2918 0.4967
vn 0.7886 0.3902 0.4752
vn 0.2827 0.4306 -0.8571
vn 0.2943 0.3352 -0.8950
vn 0.5464 0.3389 -0.7659
vn 0.5195 0.4327 -0.7368
vn -0.9036 0.4154 0.1045
vn -0.9441 0.3177 0.0877
vn -0.9329 0.3272 0.1508
vn -0.8876 0.4200 0.1890
vn 0.3019 0.2916 0.9077
vn 0.1589 0.2800 0.9467
vn 0.0869 0.4221 0.9024
vn 0.2869 0.4451 0.8483
vn 0.6732 0.4404 -0.5940
vn 0.7196 0.3351 -0.6083
vn 0.7130 0.3487 -0.6083
vn 0.6621 0.4506 -0.5989
vn -0.7375 0.4080 -0.5382
vn -0.6544 0.5891 -0.4740
vn -0.8262 0.5418 -0.1544
vn -0.8949 0.3741 -0.2431
vn 0.9472 0.3207 0.0000
vn 0.9124 0.2993 0.2792
vn 0.8417 0.4698 0.2660
vn 0.8643 0.5030 0.0002
vn -0.1783 0.4489 -0.8756
vn -0.2064 0.3499 -0.9138
vn 0.0203 0.3475 -0.9375
vn 0.0233 0.4396 -0.8979
vn -0.2263 0.6797 0.6977
vn -0.2220 0.6926 0.6863
vn 0.1239 0.6318 0.7652
vn 0.1373 0.6042 0.7849
vn -0.2863 0.3572 0.8891
vn -0.2560 0.5613 0.7870
vn 0.0291 0.5196 0.8539
vn -0.0578 0.3305 0.9420
vn 0.0983 0.3569 0.9289
vn 0.0844 0.2714 0.9588
vn 0.2849 0.3601 0.8883
vn -0.5961 0.1392 0.7908
vn -0.7558 0.2345 0.6113
vn -0.5364 0.3353 0.7745
vn -0.7780 0.4720 0.4147
vn -0.7917 0.4837 0.3731
vn -0.5447 0.6340 0.5489
vn -0.5657 0.6078 0.5573
vn 0.3757 0.4734 0.7967
vn -0.9178 0.3659 0.1543
vn -0.8620 0.4460 0.2407
vn -0.5288 0.1719 -0.8312
vn -0.3178 0.2718 -0.9084
vn -0.5297 0.3806 -0.7580
vn -0.1636 0.4937 -0.8541
vn -0.1408 0.5081 -0.8497
vn -0.3722 0.6342 -0.6776
vn -0.3683 0.6129 -0.6991
vn 0.7680 -0.0424 -0.6390
vn 0.5427 0.0220 -0.8396
vn 0.4603 0.0896 -0.8832
vn 0.7135 0.0038 -0.7006
vn 0.6719 0.4805 -0.5636
vn 0.7662 0.5681 -0.3004
vn 0.7551 0.5862 -0.2936
vn 0.6543 0.4986 -0.5687
vn 0.9084 0.3140 -0.2763
vn 0.6893 0.4375 0.5775
vn 0.6789 0.4031 0.6136
vn 0.6636 0.4275 0.6140
vn 0.6737 0.4549 0.5824
vn 0.7249 0.3058 0.6173
vn 0.7612 0.3311 0.5576
vn 0.8180 0.2021 0.5386
vn -0.1054 0.3049 0.9465
vn 0.5439 0.2808 0.7908
vn 0.7830 0.4061 0.4713
vn 0.5643 0.5007 0.6564
vn 0.5522 0.5212 0.6507
vn 0.7879 0.4200 0.4505
vn -0.1274 0.4443 0.8868
vn 0.1485 0.4550 0.8780
vn -0.2770 0.0876 0.9569
vn -0.0227 0.0999 0.9947
vn -0.1770 0.1277 0.9759
vn -0.2652 0.1602 0.9508
vn 0.7737 -0.0825 0.6282
vn 0.9335 -0.1238 0.3365
vn 0.9163 -0.1733 0.3610
vn 0.7201 -0.1398 0.6797
vn -0.2491 0.0616 -0.9665
vn -0.5308 -0.0257 -0.8471
vn -0.4274 -0.1342 -0.8940
vn -0.1761 0.0839 -0.9808
vn 0.2665 0.0836 -0.9602
vn 0.0093 0.1000 -0.9949
vn 0.0096 0.1915 -0.9814
vn 0.1826 0.1618 -0.9698
vn -0.7704 -0.1115 0.6277
vn -0.5380 0.0040 0.8429
vn -0.4426 0.0490 0.8954
vn -0.6779 -0.2297 0.6984
vn 0.2528 0.0553 0.9659
vn 0.5474 -0.0198 0.8366
vn 0.4522 -0.0772 0.8886
vn 0.1078 0.0162 0.9940
vn -0.7667 -0.1187 -0.6310
vn -0.9227 -0.1993 -0.3300
vn -0.7727 -0.5302 -0.3492
vn -0.6457 -0.3740 -0.6657
vn 0.9915 -0.1301 -0.0043
vn 0.9325 -0.0987 -0.3475
vn 0.9101 -0.0896 -0.4046
vn 0.9872 -0.1578 -0.0226
vn -0.9722 -0.2338 0.0112
vn -0.9175 -0.2027 0.3423
vn -0.8031 -0.4526 0.3875
vn -0.8291 -0.5590 0.0091
vn -0.5540 -0.2681 0.7882
vn -0.3307 0.0955 0.9389
vn -0.2044 0.1050 0.9732
vn -0.4610 -0.2098 0.8622
vn -0.4713 -0.4945 -0.7303
vn -0.6074 -0.6938 -0.3868
vn -0.6028 -0.6503 -0.4624
vn -0.3614 -0.4431 -0.8204
vn -0.0658 0.1318 -0.9891
vn -0.2782 -0.1925 -0.9410
vn -0.1244 -0.1768 -0.9763
vn 0.1112 0.1460 -0.9830
vn -0.2135 0.3103 0.9264
vn -0.4392 0.2205 0.8709
vn -0.2849 0.5821 0.7616
vn -0.0306 0.3621 0.9316
vn -0.6793 -0.7336 0.0192
vn -0.6767 -0.5833 0.4493
vn -0.6765 -0.5292 0.5121
vn -0.7234 -0.6902 0.0182
vn -0.3126 -0.3949 -0.8639
vn -0.6094 -0.6028 -0.5150
vn -0.5804 -0.6258 -0.5211
vn -0.3204 -0.3747 -0.8700
vn 0.2512 0.1812 -0.9508
vn -0.0205 -0.1240 -0.9921
vn -0.0047 -0.0137 -0.9999
vn 0.2903 0.3436 -0.8931
vn 0.1405 0.3573 0.9234
vn 0.4277 0.6855 0.5892
vn 0.5112 0.7010 0.4972
vn 0.2410 0.3807 0.8927
vn -0.4224 -0.2211 0.8790
vn -0.1281 0.0740 0.9890
vn -0.0597 0.0262 0.9979
vn -0.3691 -0.3260 0.8703
vn -0.7589 -0.6512 0.0001
vn -0.6864 -0.5057 0.5226
vn -0.6172 -0.6070 0.5007
vn -0.6969 -0.7171 -0.0102
vn 0.6139 0.7889 -0.0269
vn -0.0671 0.9922 -0.1047
vn -0.3525 -0.3591 0.8641
vn -0.0464 0.0032 0.9989
vn -0.1003 0.1283 0.9867
vn -0.4400 -0.1801 0.8798
vn 0.6234 0.7812 -0.0342
vn 0.5113 0.6951 -0.5053
vn 0.7446 0.3362 -0.5767
vn 0.8737 0.2941 0.3876
vn -0.6692 -0.7430 0.0073
vn -0.5874 -0.6358 0.5007
vn -0.7071 -0.4714 0.5271
vn -0.7846 -0.6194 0.0292
vn -0.3236 -0.3548 -0.8772
vn -0.5899 -0.6614 -0.4633
vn -0.6798 -0.6102 -0.4069
vn -0.3171 -0.4040 -0.8580
vn 0.3187 0.4434 -0.8378
vn 0.0440 0.0837 -0.9955
vn 0.1177 0.0198 -0.9929
vn 0.3817 0.2849 -0.8793
vn 0.2500 0.3460 0.9043
vn 0.5335 0.6594 0.5297
vn 0.1272 0.2278 0.9654
vn 0.2194 0.3856 0.8962
vn 0.3604 0.5093 0.7815
vn 0.6305 0.5981 0.4948
vn 0.7781 0.5326 0.3330
vn 0.5329 0.6165 0.5796
vn -0.3341 0.0724 0.9398
vn 0.1600 0.4000 0.9025
vn 0.5485 0.5843 0.5981
vn 0.1669 0.1422 0.9757
vn -0.8579 -0.5136 0.0171
vn -0.7664 -0.3131 0.5609
vn -0.6255 -0.4514 0.6365
vn -0.7930 -0.6048 -0.0734
vn 0.8628 0.4940 -0.1074
vn 0.8091 0.2626 -0.5258
vn 0.8657 -0.1427 -0.4798
vn 0.9706 0.2067 -0.1235
vn -0.3396 -0.4813 -0.8081
vn -0.7386 -0.5491 -0.3910
vn -0.7560 -0.5074 -0.4135
vn -0.5453 -0.6299 -0.5531
vn -0.5378 0.2366 0.8092
vn 0.0036 -0.2714 0.9625
vn 0.1976 -0.4032 0.8935
vn -0.6382 -0.0268 0.7694
vn -0.3108 0.6642 -0.6799
vn -0.6925 0.6919 0.2043
vn -0.9297 0.2798 0.2395
vn -0.7769 0.4847 -0.4019
vn 0.6260 0.0737 -0.7764
vn 0.2973 -0.1673 -0.9400
vn 0.1332 -0.4915 -0.8606
vn 0.4983 -0.4235 -0.7565
vn 0.6224 -0.5402 0.5664
vn 0.8499 -0.3601 -0.3848
vn 0.8959 -0.2401 -0.3737
vn 0.7826 -0.4825 0.3934
vn 0.3597 0.0539 -0.9315
vn 0.0899 0.2857 -0.9541
vn -0.2031 0.4397 -0.8749
vn 0.3981 0.1859 -0.8983
vn -0.8353 0.3666 -0.4099
vn -0.9776 0.0684 0.1988
vn -0.9901 -0.1137 0.0818
vn -0.8156 0.3444 -0.4649
vn 0.3396 0.3198 -0.8845
vn -0.3667 0.4679 -0.8041
vn -0.4150 0.5629 -0.7148
vn 0.0758 0.2923 -0.9533
vn -0.5814 -0.2631 0.7699
vn 0.2420 -0.4608 0.8539
vn 0.2997 -0.6026 0.7396
vn -0.4908 -0.5222 0.6974
vn 0.8411 -0.3833 0.3817
vn 0.9331 -0.0802 -0.3504
vn 0.6921 -0.3517 -0.6304
vn 0.7532 -0.5866 0.2978
vn -0.5332 -0.6878 0.4926
vn 0.2884 -0.6493 0.7037
vn 0.2076 -0.5948 0.7766
vn -0.6120 -0.5803 0.5372
vn 0.8637 -0.1581 0.4785
vn 0.8970 0.4419 -0.0027
vn 0.9443 0.2996 -0.1364
vn 0.8981 -0.1479 0.4142
vn -0.8738 0.2384 -0.4239
vn -0.9578 -0.2860 0.0276
vn -0.9501 -0.2847 0.1275
vn -0.9185 0.1593 -0.3620
vn 0.2742 -0.0869 0.9577
vn 0.4332 -0.6291 0.6454
vn 0.6678 -0.5731 0.4750
vn 0.3539 0.0494 0.9340
vn -0.9177 0.1711 -0.3585
vn -0.9603 -0.1775 0.2151
vn -0.9650 -0.1156 0.2352
vn -0.9095 0.3401 -0.2389
vn 0.4604 0.4820 -0.7455
vn -0.3479 0.4817 -0.8043
vn -0.3189 0.4825 -0.8158
vn 0.4040 0.6535 -0.6400
vn -0.6238 -0.4191 0.6597
vn 0.2157 -0.4637 0.8593
vn 0.2408 -0.3951 0.8865
vn -0.5334 -0.2239 0.8157
vn 0.9167 -0.1376 0.3751
vn 0.9450 0.2199 -0.2420
vn 0.9347 0.2460 -0.2567
vn 0.7905 -0.0069 0.6125
vn -0.1137 0.8446 0.5233
vn 0.9938 -0.0976 -0.0526
vn 0.7633 -0.5277 -0.3726
vn 0.6862 -0.5206 -0.5080
vn 0.9864 -0.1220 -0.1105
vn -0.2532 -0.7467 -0.6151
vn 0.2090 -0.7868 -0.5807
vn -0.5753 -0.5960 -0.5602
vn 0.0122 -0.6552 -0.7553
vn 0.5674 0.6692 0.4798
vn 0.8846 0.3745 0.2780
vn 0.9257 0.2730 0.2618
vn 0.5760 0.5908 0.5649
vn -0.6538 -0.0105 -0.7566
vn -0.7540 -0.4814 -0.4469
vn -0.8275 -0.4075 -0.3862
vn -0.5419 -0.0473 -0.8391
vn -0.9822 0.0379 -0.1842
vn -0.7966 0.5758 0.1839
vn -0.9022 0.3723 0.2178
vn -0.9224 -0.2121 -0.3229
vn 0.4197 -0.0429 0.9066
vn 0.6977 0.4818 0.5302
vn 0.7393 0.3643 0.5663
vn 0.2987 -0.0428 0.9534
vn 0.6205 0.7808 0.0726
vn -0.0084 0.7897 -0.6134
vn 0.2996 0.4738 -0.8281
vn 0.8091 0.5820 -0.0812
vn -0.2370 0.8700 0.4324
vn 0.3824 0.7707 0.5096
vn 0.0705 0.7429 0.6656
vn -0.5633 0.6285 0.5364
vn -0.7120 -0.7012 -0.0370
vn -0.3310 -0.6592 0.6751
vn -0.4262 -0.5018 0.7527
vn -0.8190 -0.5676 0.0845
vn -0.4589 -0.0987 -0.8830
vn -0.8678 -0.2938 -0.4009
vn -0.8587 -0.2939 -0.4197
vn -0.4847 -0.0711 -0.8718
vn 0.9114 0.3769 -0.1651
vn 0.4389 0.2468 -0.8640
vn 0.3827 0.3211 -0.8663
vn 0.8803 0.4371 -0.1845
vn 0.2740 0.0835 0.9581
vn 0.8254 0.3193 0.4656
vn 0.8425 0.3404 0.4175
vn 0.3560 0.0411 0.9336
vn -0.9270 -0.3530 0.1269
vn -0.5587 -0.2353 0.7953
vn -0.4745 -0.3100 0.8239
vn -0.9043 -0.4038 0.1384
vn 0.8350 0.5234 -0.1700
vn 0.2977 0.4283 -0.8532
vn 0.2929 0.4577 -0.8395
vn 0.7625 0.6243 -0.1699
vn 0.3766 -0.0320 0.9258
vn 0.8229 0.3477 0.4494
vn 0.8111 0.3486 0.4698
vn 0.2018 0.0105 0.9794
vn -0.5254 -0.0292 -0.8504
vn -0.8528 -0.3327 -0.4025
vn -0.8527 -0.3309 -0.4043
vn -0.4154 0.2197 -0.8827
vn -0.8560 -0.4929 0.1559
vn -0.4068 -0.4239 0.8092
vn -0.4064 -0.4347 0.8036
vn -0.8750 -0.4338 0.2150
vn -0.5190 0.8144 0.2595
vn 0.9759 -0.0493 -0.2124
vn 0.6300 -0.3702 -0.6827
vn 0.5736 -0.3342 -0.7479
vn 0.9138 -0.0053 -0.4061
vn -0.1361 -0.4922 -0.8598
vn -0.7304 -0.3823 -0.5660
vn -0.9390 -0.1701 -0.2990
vn -0.3653 -0.3393 -0.8668
vn 0.5476 0.4938 0.6755
vn 0.9270 0.2616 0.2688
vn 0.9244 0.2649 0.2746
vn 0.4607 0.5806 0.6713
vn -0.7596 0.3401 0.5544
vn -0.0582 0.5635 0.8241
vn -0.1335 0.5183 0.8447
vn -0.8787 0.3150 0.3586
vn 0.9886 -0.1391 -0.0575
vn 0.8717 -0.0521 -0.4872
vn 0.8484 -0.0532 -0.5267
vn 0.9894 -0.1153 -0.0887
vn 0.6229 0.0484 -0.7808
vn 0.3226 0.1336 -0.9371
vn 0.2264 0.0907 -0.9698
vn 0.5891 0.0171 -0.8079
vn -0.1318 0.0095 0.9912
vn 0.2942 -0.0860 0.9519
vn 0.1717 -0.0553 0.9836
vn -0.3240 0.0440 0.9450
vn 0.0066 0.2078 -0.9782
vn -0.1321 0.2855 -0.9492
vn -0.6580 0.2988 -0.6912
vn -0.1718 0.1641 -0.9714
vn 0.6441 -0.1477 0.7506
vn 0.8979 -0.1714 0.4055
vn 0.8932 -0.1436 0.4261
vn 0.6140 -0.1155 0.7808
vn -0.9674 0.2485 -0.0489
vn -0.9685 0.2373 -0.0758
vn -0.7887 0.0452 -0.6131
vn -0.7451 0.1909 -0.6390
vn 0.7423 -0.0929 -0.6636
vn 0.2793 -0.0244 -0.9599
vn 0.3589 -0.2724 -0.8927
vn 0.8339 -0.2568 -0.4885
vn -0.4795 0.0513 0.8760
vn 0.1343 -0.0857 0.9872
vn -0.0682 -0.5070 0.8593
vn -0.7891 -0.0762 0.6095
vn -0.2194 0.0676 -0.9733
vn -0.2566 -0.1697 -0.9515
vn 0.7109 -0.1436 0.6885
vn 0.9518 -0.1182 0.2829
vn 0.9810 -0.1888 -0.0453
vn 0.7550 -0.4498 0.4771
vn -0.8864 0.4620 -0.0296
vn -0.7662 0.2811 0.5779
vn -0.7599 0.1763 0.6257
vn -0.9626 0.2704 -0.0160
vn -0.0609 0.8581 -0.5099
vn -0.9843 0.1590 -0.0769
vn -0.8550 0.3964 0.3344
vn -0.7835 0.1357 0.6065
vn -0.9510 -0.1045 0.2911
vn -0.3446 0.5634 0.7509
vn 0.4335 0.4241 0.7951
vn 0.4870 0.2120 0.8473
vn -0.3443 0.2381 0.9082
vn -0.5287 0.8465 0.0627
vn -0.9241 0.2970 0.2406
vn -0.9154 0.2412 0.3222
vn -0.5597 0.8090 -0.1796
vn 0.8272 -0.3399 -0.4474
vn 0.4684 -0.4337 -0.7697
vn 0.6583 -0.1332 -0.7409
vn 0.8349 -0.0992 -0.5414
vn -0.1589 -0.4247 -0.8913
vn -0.8046 -0.1573 -0.5726
vn -0.7078 -0.6709 -0.2213
vn 0.1731 -0.6279 -0.7588
vn 0.5225 -0.8077 0.2731
vn 0.9516 -0.3066 -0.0209
vn 0.9233 -0.3796 -0.0587
vn 0.4819 -0.8069 0.3415
vn -0.8443 -0.3281 0.4237
vn -0.2755 -0.8229 0.4970
vn -0.2015 -0.7721 0.6028
vn -0.7262 -0.3735 0.5772
vn 0.8862 0.1348 0.4433
vn 0.9889 -0.1487 -0.0055
vn 0.9946 0.0255 -0.1005
vn 0.8912 0.1551 0.4263
vn 0.9530 0.2546 -0.1643
vn 0.4191 0.9038 -0.0869
vn 0.2417 0.8178 -0.5222
vn 0.8549 0.2680 -0.4442
vn 0.6917 0.2253 -0.6862
vn 0.0237 0.6520 -0.7578
vn -0.2596 0.4062 -0.8761
vn 0.4947 0.1116 -0.8619
vn 0.6013 -0.6644 0.4438
vn 0.9357 -0.3016 -0.1830
vn 0.9263 -0.2395 -0.2910
vn 0.7607 -0.4679 0.4498
vn -0.6764 0.6725 -0.3003
vn -0.8857 0.2352 0.4003
vn -0.7955 0.1902 0.5754
vn -0.8419 0.4705 -0.2643
vn -0.5376 -0.3135 0.7828
vn -0.0054 -0.6223 0.7828
vn 0.2327 -0.4318 0.8714
vn -0.2923 -0.1956 0.9361
vn -0.9354 0.2954 -0.1944
vn -0.7368 0.2113 0.6422
vn -0.7070 0.2548 0.6597
vn -0.8553 0.5172 -0.0314
vn -0.0976 -0.0127 0.9951
vn 0.4485 -0.1776 0.8760
vn 0.5382 -0.0794 0.8391
vn -0.0402 0.2282 0.9728
vn 0.2786 -0.0326 -0.9598
vn -0.4702 0.1773 -0.8646
vn -0.4999 0.1770 -0.8478
vn 0.2066 0.1766 -0.9624
vn 0.9004 -0.2696 0.3414
vn 0.8526 -0.2051 -0.4807
vn 0.8030 -0.1689 -0.5716
vn 0.9735 0.0253 0.2272
vn 0.2587 0.9642 0.0590
vn 0.9050 0.1535 0.3968
vn 0.9796 0.1944 -0.0507
vn 0.9928 0.1063 -0.0560
vn 0.9499 0.0089 0.3125
vn 0.7409 0.2022 -0.6404
vn 0.4961 0.2072 -0.8432
vn 0.0669 0.1112 -0.9915
vn 0.7201 -0.0767 -0.6896
vn -0.1417 0.2211 -0.9649
vn -0.8633 0.0210 -0.5042
vn -0.9094 0.0259 -0.4151
vn -0.3686 0.0582 -0.9278
vn 0.4541 0.5545 -0.6974
vn 0.5386 -0.2273 -0.8113
vn 0.3804 -0.4065 -0.8307
vn 0.6499 0.5863 -0.4836
vn -0.2565 -0.1304 0.9577
vn 0.4766 0.0247 0.8788
vn 0.4822 -0.0162 0.8759
vn -0.1558 -0.0209 0.9876
vn -0.9590 0.2383 0.1536
vn -0.6920 0.2382 0.6815
vn -0.6709 0.2961 0.6799
vn -0.9292 0.3657 0.0528
vn -0.0994 0.1498 0.9837
vn 0.5750 -0.0021 0.8181
vn 0.6253 -0.0145 0.7802
vn 0.0155 0.2699 0.9628
vn 0.9694 -0.1772 0.1697
vn 0.9014 -0.1715 -0.3976
vn 0.6761 -0.2181 -0.7038
vn 0.9927 -0.1202 0.0071
vn -0.2498 -0.0270 -0.9679
vn -0.8671 0.1622 -0.4709
vn -0.8296 0.1824 -0.5278
vn -0.0648 0.0392 -0.9971
vn 0.2208 0.9671 -0.1265
vn -0.6007 -0.4665 0.6492
vn -0.6174 0.2264 0.7533
vn -0.6161 0.2172 0.7571
vn -0.6794 -0.5305 0.5069
vn -0.9824 -0.1365 0.1272
vn -0.7774 -0.1785 0.6031
vn -0.7145 -0.0135 0.6996
vn -0.9815 -0.0020 0.1914
vn 0.0944 -0.9193 -0.3821
vn -0.3794 -0.8949 0.2348
vn -0.5227 -0.8375 0.1595
vn -0.2110 -0.9330 -0.2915
vn -0.2110 0.9522 0.2209
vn 0.1957 0.9145 -0.3541
vn 0.5114 0.8506 -0.1226
vn 0.1082 0.9241 0.3665
vn 0.3067 0.7954 0.5227
vn 0.7023 0.7053 0.0960
vn 0.7184 0.6816 0.1388
vn -0.2432 0.6796 0.6921
vn -0.4968 -0.7796 -0.3813
vn -0.7370 -0.6744 -0.0453
vn -0.7859 -0.6086 -0.1090
vn -0.1461 -0.5288 -0.8361
vn 0.8378 0.4695 -0.2788
vn 0.3701 -0.3863 -0.8449
vn 0.3920 -0.3848 -0.8356
vn 0.7913 0.2659 -0.5506
vn -0.8466 -0.4687 0.2522
vn -0.6324 0.2527 0.7323
vn -0.6092 0.2729 0.7446
vn -0.9262 -0.2086 0.3142
vn -0.4735 0.6662 -0.5762
vn -0.0035 0.2799 -0.9600
vn 0.0147 -0.0733 -0.9972
vn -0.3327 0.6140 -0.7157
vn -0.5481 0.3845 -0.7428
vn -0.0605 -0.3189 -0.9459
vn 0.5046 -0.8442 -0.1809
vn 0.3320 -0.6159 -0.7145
vn 0.3683 -0.6049 -0.7060
vn 0.6394 -0.7116 -0.2912
vn 0.3088 0.8100 -0.4985
vn -0.4352 0.6378 -0.6355
vn -0.3929 0.5937 -0.7023
vn 0.4312 0.6480 -0.6278
vn -0.3434 0.9208 -0.1850
vn -0.0359 0.7242 0.6886
vn -0.1705 0.5922 0.7875
vn -0.6473 0.7620 0.0170
vn -0.2428 -0.2712 -0.9314
vn -0.7776 0.1830 -0.6015
vn -0.8091 0.1975 -0.5534
vn -0.3339 0.0212 -0.9424
vn -0.8487 0.5237 0.0732
vn -0.2463 0.5729 0.7817
vn -0.2505 0.5788 0.7761
vn -0.6265 0.7262 0.2829
vn 0.8243 -0.5030 -0.2598
vn 0.4003 -0.5117 -0.7602
vn 0.3348 -0.4422 -0.8321
vn 0.9273 -0.2320 -0.2936
vn 0.5115 0.1736 0.8416
vn 0.8763 -0.2291 0.4238
vn 0.9100 -0.1319 0.3930
vn 0.5504 0.3459 0.7599
vn 0.4060 0.8715 -0.2750
vn -0.4731 0.1011 0.8752
vn -0.1065 0.8862 -0.4509
vn 0.6161 0.7060 0.3492
vn -0.4443 0.4837 -0.7541
vn 0.1159 0.5277 -0.8415
vn -0.9306 0.2948 0.2170
vn -0.3096 0.7121 -0.6301
vn 0.3633 -0.1086 -0.9253
vn 0.4913 0.3364 -0.8034
vn 0.9760 0.1504 0.1575
vn 0.4864 0.7031 0.5187
vn -0.9156 0.3170 0.2472
vn -0.5207 0.7331 0.4374
vn 0.9278 -0.0852 -0.3632
vn -0.8707 0.2037 0.4476
vn -0.9948 0.0703 0.0734
vn -0.5575 0.8189 -0.1365
vn 0.4223 0.8611 0.2833
vn -0.7346 -0.4977 -0.4612
vn -0.8699 -0.0653 -0.4889
vn 0.6004 -0.2066 0.7725
vn 0.4613 0.7513 -0.4719
vn 0.4603 0.3392 -0.8204
vn 0.2671 0.7921 0.5488
vn 0.5307 0.6554 -0.5374
vn 0.6113 0.7908 -0.0301
vn 0.5252 0.5719 -0.6302
vn 0.9340 0.0694 0.3505
vn 0.9980 0.0626 0.0006
vn -0.7883 0.1479 -0.5973
vn 0.0169 0.1985 0.9799
vn 0.2999 0.1517 0.9418
vn -0.2941 0.1738 0.9399
vn -0.1464 0.4616 0.8749
vn 0.2086 0.4925 0.8449
vn 0.7745 0.4179 0.4748
vn 0.7843 0.3048 0.5403
vn 0.5287 0.4268 0.7337
vn 0.7506 0.3681 -0.5487
vn 0.8333 0.4880 -0.2599
vn 0.6470 0.4757 -0.5958
vn -0.2416 0.3991 -0.8845
vn -0.4571 0.5440 -0.7037
vn -0.2034 0.3643 -0.9088
vn -0.1640 0.4603 -0.8725
vn -0.1469 0.4833 -0.8630
vn -0.8488 0.4524 0.2736
vn -0.8704 0.4421 0.2169
vn 0.4193 0.4823 0.7691
vn -0.7610 0.3728 0.5309
vn -0.5244 0.5230 0.6719
vn -0.8112 0.3285 0.4838
vn -0.8017 0.4206 0.4246
vn -0.8040 0.4431 0.3965
vn -0.1667 0.4642 -0.8699
vn 0.0238 0.4476 -0.8939
vn 0.6601 0.4562 -0.5968
vn 0.5150 0.4403 -0.7354
vn -0.8941 0.4326 0.1159
vn -0.8717 0.4074 0.2724
vn 0.2802 0.4399 -0.8532
vn 0.7134 0.4273 0.5555
vn -0.8000 0.4162 0.4321
usemtl None
s 1
f 679/1/1 514/2/2 3/3/3 436/4/4
f 678/5/5 493/6/6 7/7/7 428/8/8
f 677/9/9 474/10/10 11/11/11 388/12/12
f 676/13/13 478/14/14 15/15/15 409/16/16
f 675/17/17 432/18/18 19/19/19 334/20/20
f 674/21/21 408/22/22 23/23/23 324/24/24
f 673/25/25 211/26/26 14/27/27 232/28/28
f 672/29/29 448/30/30 27/31/31 352/32/32
f 671/33/33 311/34/34 22/35/35 491/36/36
f 670/37/37 394/38/38 21/39/39 306/40/40
f 669/41/41 356/42/42 28/43/43 192/44/44
f 668/45/45 307/46/46 13/47/47 196/48/48
f 667/49/49 314/50/50 24/51/51 181/52/52
f 666/53/53 294/54/54 18/55/55 510/56/56
f 665/57/57 399/58/58 16/59/59 298/60/60
f 664/61/61 391/62/62 12/63/63 447/64/64
f 663/65/65 327/66/66 6/67/67 246/68/68
f 662/69/69 439/70/70 4/71/71 364/72/72
f 661/73/73 283/74/74 43/75/75 371/76/76
f 660/77/77 373/78/78 44/79/79 201/80/80
f 45/81/81 468/82/82 456/83/83
f 30/84/84 186/85/85 485/86/86
f 659/87/87 420/88/88 42/89/89 202/90/90
f 658/91/91 456/83/83 44/79/79 371/76/76
f 24/51/51 324/24/24 180/92/92
f 657/93/93 180/92/92 12/63/63 388/12/12
f 2/94/94 268/95/95 328/96/96
f 656/97/97 385/98/98 10/99/99 219/100/100
f 655/101/101 333/102/102 47/103/103 398/104/104
f 654/105/105 412/106/106 8/107/107 355/108/108
f 15/15/15 318/109/109 409/16/16
f 653/110/110 422/111/111 33/112/112 430/113/113
f 25/114/114 250/115/115 177/116/116
f 45/117/81 522/118/117 468/119/82
f 27/31/31 215/120/118 352/32/32
f 652/121/119 336/122/120 20/123/121 179/124/122
f 651/125/123 522/118/117 45/117/81 210/126/124
f 650/127/125 473/128/126 49/129/127 287/130/128
f 649/131/129 419/132/130 51/133/131 450/134/132
f 648/135/133 467/136/134 53/137/135 264/138/136
f 647/139/137 363/140/138 54/141/139 496/142/140
f 646/143/141 275/144/142 50/145/143 347/146/144
f 645/147/145 321/148/146 52/149/147 454/150/148
f 644/151/149 303/152/150 56/153/151 431/154/152
f 643/155/153 261/156/154 48/157/155 231/158/156
f 642/159/157 387/160/158 55/161/159 445/162/160
f 641/163/161 508/164/162 57/165/163 300/166/164
f 640/167/165 317/168/166 59/169/167 462/170/168
f 639/171/169 423/172/170 60/173/171 190/174/172
f 638/175/173 237/176/174 62/177/175 282/178/176
f 637/179/177 228/180/178 58/181/179 384/182/180
f 636/183/181 178/184/182 63/185/183 484/186/184
f 635/187/185 280/188/186 64/189/187 227/190/188
f 634/191/189 483/192/190 66/193/191 498/194/192
f 633/195/193 218/196/194 67/197/195 401/198/196
f 632/199/197 359/200/198 68/201/199 501/202/200
f 631/203/201 483/192/190 62/177/175 308/204/202
f 630/205/203 476/206/204 69/207/205 214/208/206
f 629/209/207 302/210/208 71/211/209 393/212/210
f 628/213/211 370/214/212 70/215/213 293/216/214
f 627/217/215 443/218/216 73/219/217 185/220/218
f 626/221/219 520/222/220 74/223/221 519/224/222
f 625/225/223 209/226/224 72/227/225 378/228/226
f 624/229/227 414/230/228 75/231/229 350/232/230
f 623/233/231 368/234/232 76/235/233 286/236/234
f 622/237/235 271/238/236 77/239/237 189/240/238
f 621/241/239 372/242/240 80/243/241 346/244/242
f 620/245/243 512/246/244 78/247/245 279/248/246
f 619/249/247 285/250/248 82/251/249 411/252/250
f 618/253/251 195/254/252 83/255/253 296/256/254
f 617/257/255 257/258/256 81/259/257 236/260/258
f 616/261/259 381/262/260 85/263/261 205/264/262
f 615/265/263 495/266/264 84/267/265 200/268/266
f 614/269/267 460/270/268 86/271/269 369/272/270
f 613/273/271 362/274/272 87/275/273 289/276/274
f 612/277/275 199/278/276 89/279/277 188/280/278
f 611/281/279 274/282/280 88/283/281 247/284/282
f 610/285/283 503/286/284 90/287/285 429/288/286
f 609/289/287 256/290/288 93/291/289 226/292/290
f 608/293/291 345/294/292 91/295/293 475/296/294
f 607/297/295 225/298/296 95/299/297 338/300/298
f 606/301/299 400/302/300 97/303/301 472/304/302
f 605/305/303 517/306/304 98/307/305 217/308/306
f 604/309/307 335/310/308 100/311/309 295/312/310
f 603/313/311 438/314/312 99/315/313 313/316/314
f 602/317/315 295/318/310 100/319/309 313/320/314
f 601/321/316 187/322/317 101/323/318 452/324/319
f 81/259/257 279/248/246 516/325/320
f 600/326/321 516/325/320 103/327/322 366/328/323
f 599/329/324 349/330/325 102/331/326 442/332/327
f 598/333/328 184/334/329 106/335/330 509/336/331
f 597/337/332 254/338/333 108/339/334 249/340/335
f 596/341/336 481/342/337 109/343/338 441/344/339
f 595/345/340 337/346/341 107/347/342 487/348/343
f 594/349/344 342/350/345 104/351/346 396/352/347
f 593/353/348 397/354/349 110/355/350 230/356/351
f 592/357/352 480/358/353 111/359/354 260/360/355
f 591/361/356 235/362/357 112/363/358 426/364/359
f 590/365/360 497/366/361 113/367/362 500/368/363
f 589/369/364 176/370/365 114/371/366 358/372/367
f 588/373/368 504/374/369 115/375/370 344/376/371
f 587/377/372 331/378/373 116/379/374 403/380/375
f 586/381/376 377/382/377 118/383/378 471/384/379
f 585/385/380 404/386/381 117/387/382 477/388/383
f 584/389/384 403/390/375 116/391/374 344/392/371
f 583/393/385 288/394/386 119/395/387 301/396/388
f 582/397/389 458/398/390 121/399/391 213/400/392
f 581/401/393 361/402/394 120/403/395 312/404/396
f 580/405/397 198/406/398 122/407/399 511/408/400
f 103/409/322 249/340/335 458/410/390
f 579/411/401 208/412/402 123/413/403 360/414/404
f 578/415/405 224/416/406 125/417/407 244/418/408
f 577/419/409 341/420/410 126/421/411 262/422/412
f 576/423/413 197/424/414 128/425/415 357/426/416
f 575/427/417 390/428/418 124/429/419 340/430/420
f 574/431/421 207/432/422 130/433/423 204/434/424
f 573/435/425 449/436/426 131/437/427 395/438/428
f 572/439/429 451/440/430 133/441/431 459/442/432
f 571/443/433 204/434/424 130/433/423 466/444/434
f 570/445/435 183/446/436 132/447/437 305/448/438
f 124/429/419 360/414/404 183/446/436
f 569/449/439 353/450/440 127/451/441 354/452/442
f 568/453/443 301/454/388 119/455/387 213/456/392
f 567/457/444 518/458/445 134/459/446 433/460/447
f 566/461/448 253/462/449 137/463/450 255/464/451
f 565/465/452 515/466/453 138/467/454 425/468/455
f 564/469/456 320/470/457 140/471/458 229/472/459
f 563/473/460 440/474/461 135/475/462 292/476/463
f 562/477/464 326/478/465 142/479/466 416/480/467
f 561/481/468 252/482/469 143/483/470 392/484/471
f 560/485/472 241/486/473 141/487/474 415/488/475
f 559/489/476 380/490/477 139/491/478 492/492/479
f 558/493/480 323/494/481 144/495/482 194/496/483
f 557/497/484 240/498/485 145/499/486 464/500/487
f 556/501/488 339/502/489 147/503/490 284/504/491
f 555/505/492 382/506/493 146/507/494 376/508/495
f 554/509/496 291/510/497 148/511/498 206/512/499
f 553/513/500 251/514/501 150/515/502 239/516/503
f 552/517/504 465/518/505 149/519/506 502/520/507
f 551/521/508 505/522/509 151/523/510 332/524/511
f 550/525/512 502/526/507 149/527/506 206/528/499
f 549/529/513 272/530/514 152/531/515 216/532/516
f 548/533/517 290/534/518 154/535/519 259/536/520
f 547/537/521 278/538/522 156/539/523 470/540/524
f 546/541/525 212/542/526 157/543/527 469/544/528
f 545/545/529 365/546/530 153/547/531 521/548/532
f 544/549/533 182/550/534 160/551/535 457/552/536
f 543/553/537 299/554/538 162/555/539 374/556/540
f 542/557/541 222/558/542 163/559/543 273/560/544
f 152/561/515 259/536/520 222/562/542
f 541/563/545 203/564/546 161/565/547 455/566/548
f 540/567/549 374/568/540 162/569/539 273/570/544
f 539/571/550 405/572/551 164/573/552 461/574/553
f 538/575/554 351/576/555 159/577/556 375/578/557
f 537/579/558 330/580/559 165/581/560 221/582/561
f 536/583/562 463/584/563 158/585/564 304/586/565
f 535/587/566 494/588/567 166/589/568 238/590/569
f 534/591/570 322/592/571 168/593/572 410/594/573
f 533/595/574 243/596/575 169/597/576 413/598/577
f 532/599/578 234/600/579 167/601/580 319/602/581
f 168/603/572 319/604/581 486/605/582
f 169/606/576 410/607/573 413/608/577
f 54/609/139 499/610/583 197/424/414
f 531/611/584 248/612/585 170/613/586 233/614/587
f 530/615/588 488/616/589 171/617/590 325/618/591
f 529/619/592 453/620/593 94/621/594 507/622/595
f 528/623/596 489/624/597 96/625/598 269/626/599
f 527/627/600 479/628/601 172/629/602 389/630/603
f 526/631/604 270/632/605 174/633/606 277/634/607
f 525/635/608 193/636/609 173/637/610 402/638/611
f 524/639/612 348/640/613 175/641/614 220/642/615
f 523/643/616 277/644/607 174/645/606 220/646/615
f 62/647/175 237/648/174 353/450/440
f 353/450/440 444/649/617 127/451/441
f 353/450/440 237/648/174 444/649/617
f 237/648/174 49/650/127 444/649/617
f 402/651/611 523/643/616 220/646/615 175/652/614
f 173/653/610 389/654/603 523/643/616 402/651/611
f 389/654/603 172/655/602 277/644/607 523/643/616
f 270/632/605 524/639/612 220/642/615 174/633/606
f 96/625/598 338/300/298 524/639/612 270/632/605
f 338/300/298 95/299/297 348/640/613 524/639/612
f 348/656/613 525/635/608 402/638/611 175/657/614
f 95/658/297 325/618/591 525/635/608 348/656/613
f 325/618/591 171/617/590 193/636/609 525/635/608
f 479/628/601 526/631/604 277/634/607 172/629/602
f 170/613/586 269/626/599 526/631/604 479/628/601
f 269/626/599 96/625/598 270/632/605 526/631/604
f 193/636/609 527/627/600 389/630/603 173/637/610
f 171/617/590 233/614/587 527/627/600 193/636/609
f 233/614/587 170/613/586 479/628/601 527/627/600
f 248/612/585 528/623/596 269/626/599 170/613/586
f 87/659/273 267/660/618 528/623/596 248/612/585
f 267/660/618 92/661/619 489/624/597 528/623/596
f 256/662/288 529/619/592 507/622/595 93/663/289
f 92/664/619 267/665/618 529/619/592 256/662/288
f 267/665/618 87/275/273 453/620/593 529/619/592
f 225/666/296 530/615/588 325/618/591 95/658/297
f 89/667/277 247/668/282 530/615/588 225/666/296
f 247/668/282 88/669/281 488/616/589 530/615/588
f 488/616/589 531/611/584 233/614/587 171/617/590
f 88/669/281 289/670/274 531/611/584 488/616/589
f 289/670/274 87/659/273 248/612/585 531/611/584
f 197/424/414 437/671/620 128/425/415
f 197/424/414 499/610/583 437/671/620
f 499/610/583 61/672/621 437/671/620
f 413/608/577 486/605/582 166/673/568
f 413/608/577 410/607/573 486/605/582
f 410/607/573 168/603/572 486/605/582
f 486/605/582 238/674/569 166/673/568
f 486/605/582 319/604/581 238/674/569
f 319/604/581 167/675/580 238/674/569
f 322/592/571 532/599/578 319/602/581 168/593/572
f 165/581/560 461/574/553 532/599/578 322/592/571
f 461/574/553 164/573/552 234/600/579 532/599/578
f 494/588/567 533/595/574 413/598/577 166/589/568
f 158/585/564 469/544/528 533/595/574 494/588/567
f 469/544/528 157/543/527 243/596/575 533/595/574
f 243/676/575 534/591/570 410/594/573 169/677/576
f 157/678/527 221/582/561 534/591/570 243/676/575
f 221/582/561 165/581/560 322/592/571 534/591/570
f 234/600/579 535/587/566 238/590/569 167/601/580
f 164/573/552 304/586/565 535/587/566 234/600/579
f 304/586/565 158/585/564 494/588/567 535/587/566
f 405/572/551 536/583/562 304/586/565 164/573/552
f 134/679/446 329/680/622 536/583/562 405/572/551
f 329/680/622 155/681/623 463/584/563 536/583/562
f 212/682/526 537/579/558 221/582/561 157/678/527
f 140/683/458 292/684/463 537/579/558 212/682/526
f 292/684/463 135/685/462 330/580/559 537/579/558
f 278/538/522 538/575/554 375/578/557 156/539/523
f 155/686/623 329/687/622 538/575/554 278/538/522
f 329/687/622 134/459/446 351/576/555 538/575/554
f 330/580/559 539/571/550 461/574/553 165/581/560
f 135/685/462 433/688/447 539/571/550 330/580/559
f 433/688/447 134/679/446 405/572/551 539/571/550
f 455/689/548 540/567/549 273/570/544 163/690/543
f 161/691/547 457/692/536 540/567/549 455/689/548
f 457/692/536 160/693/535 374/568/540 540/567/549
f 223/694/624 541/563/545 455/566/548 163/695/543
f 154/535/519 470/540/524 541/563/545 223/694/624
f 470/540/524 156/539/523 203/564/546 541/563/545
f 222/562/542 223/694/624 163/695/543
f 222/562/542 259/536/520 223/694/624
f 259/536/520 154/535/519 223/694/624
f 299/554/538 542/557/541 273/560/544 162/555/539
f 153/547/531 216/532/516 542/557/541 299/554/538
f 216/532/516 152/531/515 222/558/542 542/557/541
f 182/550/534 543/553/537 374/556/540 160/551/535
f 159/577/556 521/548/532 543/553/537 182/550/534
f 521/548/532 153/547/531 299/554/538 543/553/537
f 203/564/546 544/549/533 457/552/536 161/565/547
f 156/539/523 375/578/557 544/549/533 203/564/546
f 375/578/557 159/577/556 182/550/534 544/549/533
f 351/576/555 545/545/529 521/548/532 159/577/556
f 134/459/446 255/464/451 545/545/529 351/576/555
f 255/464/451 137/463/450 365/546/530 545/545/529
f 463/584/563 546/541/525 469/544/528 158/585/564
f 155/681/623 386/696/625 546/541/525 463/584/563
f 386/696/625 140/697/458 212/542/526 546/541/525
f 290/534/518 547/537/521 470/540/524 154/535/519
f 140/471/458 386/698/625 547/537/521 290/534/518
f 386/698/625 155/686/623 278/538/522 547/537/521
f 272/699/514 548/533/517 259/536/520 152/561/515
f 141/700/474 229/472/459 548/533/517 272/699/514
f 229/472/459 140/471/458 290/534/518 548/533/517
f 365/546/530 549/529/513 216/532/516 153/547/531
f 137/463/450 415/488/475 549/529/513 365/546/530
f 415/488/475 141/487/474 272/530/514 549/529/513
f 239/701/503 550/525/512 206/528/499 148/702/498
f 150/703/502 332/704/511 550/525/512 239/701/503
f 332/704/511 151/705/510 502/526/507 550/525/512
f 251/514/501 551/521/508 332/524/511 150/515/502
f 146/507/494 464/500/487 551/521/508 251/514/501
f 464/500/487 145/499/486 505/522/509 551/521/508
f 505/706/509 552/517/504 502/520/507 151/707/510
f 145/708/486 194/496/483 552/517/504 505/706/509
f 194/496/483 144/495/482 465/518/505 552/517/504
f 291/510/497 553/513/500 239/516/503 148/511/498
f 147/503/490 376/508/495 553/513/500 291/510/497
f 376/508/495 146/507/494 251/514/501 553/513/500
f 465/518/505 554/509/496 206/512/499 149/519/506
f 144/495/482 284/504/491 554/509/496 465/518/505
f 284/504/491 147/503/490 291/510/497 554/509/496
f 339/502/489 555/505/492 376/508/495 147/503/490
f 138/467/454 392/484/471 555/505/492 339/502/489
f 392/484/471 143/483/470 382/506/493 555/505/492
f 323/494/481 556/501/488 284/504/491 144/495/482
f 139/491/478 425/468/455 556/501/488 323/494/481
f 425/468/455 138/467/454 339/502/489 556/501/488
f 382/506/493 557/497/484 464/500/487 146/507/494
f 143/483/470 416/480/467 557/497/484 382/506/493
f 416/480/467 142/479/466 240/498/485 557/497/484
f 240/709/485 558/493/480 194/496/483 145/708/486
f 142/710/466 492/492/479 558/493/480 240/709/485
f 492/492/479 139/491/478 323/494/481 558/493/480
f 326/711/465 559/489/476 492/492/479 142/710/466
f 132/712/437 506/713/626 559/489/476 326/711/465
f 506/713/626 136/714/627 380/490/477 559/489/476
f 253/462/449 560/485/472 415/488/475 137/463/450
f 136/715/627 506/716/626 560/485/472 253/462/449
f 506/716/626 132/717/437 241/486/473 560/485/472
f 515/466/453 561/481/468 392/484/471 138/467/454
f 129/718/628 459/719/432 561/481/468 515/466/453
f 459/719/432 133/720/431 252/482/469 561/481/468
f 252/482/469 562/477/464 416/480/467 143/483/470
f 133/720/431 305/721/438 562/477/464 252/482/469
f 305/721/438 132/722/437 326/478/465 562/477/464
f 320/470/457 563/473/460 292/476/463 140/471/458
f 131/437/427 466/444/434 563/473/460 320/470/457
f 466/444/434 130/433/423 440/474/461 563/473/460
f 241/723/473 564/469/456 229/472/459 141/700/474
f 132/724/437 395/438/428 564/469/456 241/723/473
f 395/438/428 131/437/427 320/470/457 564/469/456
f 380/490/477 565/465/452 425/468/455 139/491/478
f 136/714/627 343/725/629 565/465/452 380/490/477
f 343/725/629 129/718/628 515/466/453 565/465/452
f 518/458/445 566/461/448 255/464/451 134/459/446
f 129/726/628 343/727/629 566/461/448 518/458/445
f 343/727/629 136/715/627 253/462/449 566/461/448
f 440/474/461 567/457/444 433/460/447 135/475/462
f 130/433/423 207/432/422 567/457/444 440/474/461
f 207/432/422 129/726/628 518/458/445 567/457/444
f 511/728/400 568/453/443 213/456/392 121/729/391
f 122/730/399 312/731/396 568/453/443 511/728/400
f 312/731/396 120/732/395 301/454/388 568/453/443
f 437/671/620 569/449/439 354/452/442 128/425/415
f 61/672/621 308/733/202 569/449/439 437/671/620
f 308/733/202 62/647/175 353/450/440 569/449/439
f 183/446/436 367/734/630 132/447/437
f 183/446/436 360/414/404 367/734/630
f 360/414/404 123/413/403 367/734/630
f 451/440/430 570/445/435 305/448/438 133/441/431
f 126/421/411 340/430/420 570/445/435 451/440/430
f 340/430/420 124/429/419 183/446/436 570/445/435
f 449/436/426 571/443/433 466/444/434 131/437/427
f 125/417/407 357/426/416 571/443/433 449/436/426
f 357/426/416 128/425/415 204/434/424 571/443/433
f 265/735/631 572/439/429 459/442/432 129/726/628
f 127/451/441 262/422/412 572/439/429 265/735/631
f 262/422/412 126/421/411 451/440/430 572/439/429
f 367/736/630 573/435/425 395/438/428 132/724/437
f 123/737/403 244/418/408 573/435/425 367/736/630
f 244/418/408 125/417/407 449/436/426 573/435/425
f 354/452/442 574/431/421 204/434/424 128/425/415
f 127/451/441 265/735/631 574/431/421 354/452/442
f 265/735/631 129/726/628 207/432/422 574/431/421
f 341/420/410 575/427/417 340/430/420 126/421/411
f 52/738/147 450/739/132 575/427/417 341/420/410
f 450/739/132 51/740/131 390/428/418 575/427/417
f 224/416/406 576/423/413 357/426/416 125/417/407
f 47/741/103 496/742/140 576/423/413 224/416/406
f 496/742/140 54/609/139 197/424/414 576/423/413
f 444/649/617 577/419/409 262/422/412 127/451/441
f 49/650/127 454/743/148 577/419/409 444/649/617
f 454/743/148 52/738/147 341/420/410 577/419/409
f 208/744/402 578/415/405 244/418/408 123/737/403
f 48/745/155 398/746/104 578/415/405 208/744/402
f 398/746/104 47/741/103 224/416/406 578/415/405
f 390/428/418 579/411/401 360/414/404 124/429/419
f 51/740/131 231/747/156 579/411/401 390/428/418
f 231/747/156 48/748/155 208/412/402 579/411/401
f 458/410/390 281/749/632 121/750/391
f 458/410/390 249/340/335 281/749/632
f 249/340/335 108/339/334 281/749/632
f 281/749/632 580/405/397 511/408/400 121/750/391
f 108/339/334 396/352/347 580/405/397 281/749/632
f 396/352/347 104/351/346 198/406/398 580/405/397
f 198/406/398 581/401/393 312/404/396 122/407/399
f 104/351/346 442/332/327 581/401/393 198/406/398
f 442/332/327 102/331/326 361/402/394 581/401/393
f 288/394/386 582/397/389 213/400/392 119/395/387
f 101/323/318 366/328/323 582/397/389 288/394/386
f 366/328/323 103/327/322 458/398/390 582/397/389
f 361/402/394 583/393/385 301/396/388 120/403/395
f 102/331/326 452/324/319 583/393/385 361/402/394
f 452/324/319 101/323/318 288/394/386 583/393/385
f 471/751/379 584/389/384 344/392/371 115/752/370
f 118/753/378 477/754/383 584/389/384 471/751/379
f 477/754/383 117/755/382 403/390/375 584/389/384
f 377/382/377 585/385/380 477/388/383 118/383/378
f 111/359/354 358/372/367 585/385/380 377/382/377
f 358/372/367 114/371/366 404/386/381 585/385/380
f 504/374/369 586/381/376 471/384/379 115/375/370
f 112/363/358 260/360/355 586/381/376 504/374/369
f 260/360/355 111/359/354 377/382/377 586/381/376
f 404/756/381 587/377/372 403/380/375 117/757/382
f 114/758/366 500/368/363 587/377/372 404/756/381
f 500/368/363 113/367/362 331/378/373 587/377/372
f 331/378/373 588/373/368 344/376/371 116/379/374
f 113/367/362 426/364/359 588/373/368 331/378/373
f 426/364/359 112/363/358 504/374/369 588/373/368
f 480/358/353 589/369/364 358/372/367 111/359/354
f 106/335/330 230/356/351 589/369/364 480/358/353
f 230/356/351 110/355/350 176/370/365 589/369/364
f 176/759/365 590/365/360 500/368/363 114/758/366
f 110/760/350 441/344/339 590/365/360 176/759/365
f 441/344/339 109/343/338 497/366/361 590/365/360
f 497/366/361 591/361/356 426/364/359 113/367/362
f 109/343/338 487/348/343 591/361/356 497/366/361
f 487/348/343 107/347/342 235/362/357 591/361/356
f 235/362/357 592/357/352 260/360/355 112/363/358
f 107/347/342 509/336/331 592/357/352 235/362/357
f 509/336/331 106/335/330 480/358/353 592/357/352
f 184/334/329 593/353/348 230/356/351 106/335/330
f 78/761/245 189/762/238 593/353/348 184/334/329
f 189/762/238 77/763/237 397/354/349 593/353/348
f 254/338/333 594/349/344 396/352/347 108/339/334
f 105/764/633 434/765/634 594/349/344 254/338/333
f 434/765/634 76/235/233 342/350/345 594/349/344
f 481/342/337 595/345/340 487/348/343 109/343/338
f 76/766/233 434/767/634 595/345/340 481/342/337
f 434/767/634 105/768/633 337/346/341 595/345/340
f 397/769/349 596/341/336 441/344/339 110/760/350
f 77/770/237 286/771/234 596/341/336 397/769/349
f 286/771/234 76/766/233 481/342/337 596/341/336
f 263/772/635 597/337/332 249/340/335 103/409/322
f 78/773/245 446/774/636 597/337/332 263/772/635
f 446/774/636 105/764/633 254/338/333 597/337/332
f 337/346/341 598/333/328 509/336/331 107/347/342
f 105/768/633 446/775/636 598/333/328 337/346/341
f 446/775/636 78/761/245 184/334/329 598/333/328
f 342/350/345 599/329/324 442/332/327 104/351/346
f 76/235/233 350/232/230 599/329/324 342/350/345
f 350/232/230 75/231/229 349/330/325 599/329/324
f 187/322/317 600/326/321 366/328/323 101/323/318
f 80/243/241 236/260/258 600/326/321 187/322/317
f 236/260/258 81/259/257 516/325/320 600/326/321
f 516/325/320 263/776/635 103/327/322
f 516/325/320 279/248/246 263/776/635
f 279/248/246 78/247/245 263/776/635
f 349/330/325 601/321/316 452/324/319 102/331/326
f 75/231/229 346/244/242 601/321/316 349/330/325
f 346/244/242 80/243/241 187/322/317 601/321/316
f 217/777/306 602/317/315 313/320/314 99/778/313
f 98/779/305 472/780/302 602/317/315 217/777/306
f 472/780/302 97/781/301 295/318/310 602/317/315
f 335/310/308 603/313/311 313/316/314 100/311/309
f 90/287/285 226/292/290 603/313/311 335/310/308
f 226/292/290 93/291/289 438/314/312 603/313/311
f 400/302/300 604/309/307 295/312/310 97/303/301
f 91/295/293 429/288/286 604/309/307 400/302/300
f 429/288/286 90/287/285 335/310/308 604/309/307
f 438/782/312 605/305/303 217/308/306 99/783/313
f 93/663/289 507/622/595 605/305/303 438/782/312
f 507/622/595 94/621/594 517/306/304 605/305/303
f 517/306/304 606/301/299 472/304/302 98/307/305
f 94/621/594 475/296/294 606/301/299 517/306/304
f 475/296/294 91/295/293 400/302/300 606/301/299
f 489/624/597 607/297/295 338/300/298 96/625/598
f 92/661/619 316/784/637 607/297/295 489/624/597
f 316/784/637 89/785/277 225/298/296 607/297/295
f 453/620/593 608/293/291 475/296/294 94/621/594
f 87/275/273 369/272/270 608/293/291 453/620/593
f 369/272/270 86/271/269 345/294/292 608/293/291
f 503/286/284 609/289/287 226/292/290 90/287/285
f 89/279/277 316/786/637 609/289/287 503/286/284
f 316/786/637 92/787/619 256/290/288 609/289/287
f 345/294/292 610/285/283 429/288/286 91/295/293
f 86/271/269 188/280/278 610/285/283 345/294/292
f 188/280/278 89/279/277 503/286/284 610/285/283
f 199/278/276 611/281/279 247/284/282 89/279/277
f 82/251/249 205/264/262 611/281/279 199/278/276
f 205/264/262 85/263/261 274/282/280 611/281/279
f 460/270/268 612/277/275 188/280/278 86/271/269
f 83/255/253 411/252/250 612/277/275 460/270/268
f 411/252/250 82/251/249 199/278/276 612/277/275
f 274/788/280 613/273/271 289/276/274 88/789/281
f 85/790/261 200/268/266 613/273/271 274/788/280
f 200/268/266 84/267/265 362/274/272 613/273/271
f 362/274/272 614/269/267 369/272/270 87/275/273
f 84/267/265 296/256/254 614/269/267 362/274/272
f 296/256/254 83/255/253 460/270/268 614/269/267
f 381/791/260 615/265/263 200/268/266 85/790/261
f 71/792/209 519/793/222 615/265/263 381/791/260
f 519/793/222 74/794/221 495/266/264 615/265/263
f 285/250/248 616/261/259 205/264/262 82/251/249
f 72/795/225 393/796/210 616/261/259 285/250/248
f 393/796/210 71/797/209 381/262/260 616/261/259
f 372/242/240 617/257/255 236/260/258 80/243/241
f 79/798/638 427/799/639 617/257/255 372/242/240
f 427/799/639 74/800/221 257/258/256 617/257/255
f 495/266/264 618/253/251 296/256/254 84/267/265
f 74/794/221 427/801/639 618/253/251 495/266/264
f 427/801/639 79/802/638 195/254/252 618/253/251
f 195/254/252 619/249/247 411/252/250 83/255/253
f 79/802/638 417/803/640 619/249/247 195/254/252
f 417/803/640 72/795/225 285/250/248 619/249/247
f 257/258/256 620/245/243 279/248/246 81/259/257
f 74/800/221 185/804/218 620/245/243 257/258/256
f 185/804/218 73/805/217 512/246/244 620/245/243
f 414/230/228 621/241/239 346/244/242 75/231/229
f 72/806/225 417/807/640 621/241/239 414/230/228
f 417/807/640 79/798/638 372/242/240 621/241/239
f 512/808/244 622/237/235 189/240/238 78/809/245
f 73/810/217 293/811/214 622/237/235 512/808/244
f 293/811/214 70/812/213 271/238/236 622/237/235
f 271/238/236 623/233/231 286/236/234 77/239/237
f 70/812/213 214/813/206 623/233/231 271/238/236
f 214/813/206 69/814/205 368/234/232 623/233/231
f 368/234/232 624/229/227 350/232/230 76/235/233
f 69/814/205 378/815/226 624/229/227 368/234/232
f 378/815/226 72/806/225 414/230/228 624/229/227
f 476/206/204 625/225/223 378/228/226 69/207/205
f 67/197/195 498/194/192 625/225/223 476/206/204
f 498/194/192 66/193/191 209/226/224 625/225/223
f 302/210/208 626/221/219 519/224/222 71/211/209
f 65/816/641 227/190/188 626/221/219 302/210/208
f 227/190/188 64/189/187 520/222/220 626/221/219
f 520/222/220 627/217/215 185/220/218 74/223/221
f 64/189/187 484/186/184 627/217/215 520/222/220
f 484/186/184 63/185/183 443/218/216 627/217/215
f 443/817/216 628/213/211 293/216/214 73/818/217
f 63/819/183 501/202/200 628/213/211 443/817/216
f 501/202/200 68/201/199 370/214/212 628/213/211
f 209/226/224 629/209/207 393/212/210 72/227/225
f 66/193/191 245/820/642 629/209/207 209/226/224
f 245/820/642 65/816/641 302/210/208 629/209/207
f 370/214/212 630/205/203 214/208/206 70/215/213
f 68/201/199 401/198/196 630/205/203 370/214/212
f 401/198/196 67/197/195 476/206/204 630/205/203
f 383/821/643 631/203/201 308/204/202 61/822/621
f 65/816/641 245/820/642 631/203/201 383/821/643
f 245/820/642 66/193/191 483/192/190 631/203/201
f 178/823/182 632/199/197 501/202/200 63/819/183
f 59/824/167 384/182/180 632/199/197 178/823/182
f 384/182/180 58/181/179 359/200/198 632/199/197
f 359/200/198 633/195/193 401/198/196 68/201/199
f 58/181/179 300/166/164 633/195/193 359/200/198
f 300/166/164 57/165/163 218/196/194 633/195/193
f 218/196/194 634/191/189 498/194/192 67/197/195
f 57/165/163 282/178/176 634/191/189 218/196/194
f 282/178/176 62/177/175 483/192/190 634/191/189
f 383/821/643 635/187/185 227/190/188 65/816/641
f 61/822/621 190/174/172 635/187/185 383/821/643
f 190/174/172 60/173/171 280/188/186 635/187/185
f 280/188/186 636/183/181 484/186/184 64/189/187
f 60/173/171 462/170/168 636/183/181 280/188/186
f 462/170/168 59/169/167 178/184/182 636/183/181
f 317/825/166 637/179/177 384/182/180 59/824/167
f 56/826/151 445/827/160 637/179/177 317/825/166
f 445/827/160 55/828/159 228/180/178 637/179/177
f 508/164/162 638/175/173 282/178/176 57/165/163
f 50/829/143 287/830/128 638/175/173 508/164/162
f 287/830/128 49/831/127 237/176/174 638/175/173
f 499/832/583 639/171/169 190/174/172 61/822/621
f 54/833/139 264/834/136 639/171/169 499/832/583
f 264/834/136 53/835/135 423/172/170 639/171/169
f 423/172/170 640/167/165 462/170/168 60/173/171
f 53/835/135 431/836/152 640/167/165 423/172/170
f 431/836/152 56/837/151 317/168/166 640/167/165
f 228/180/178 641/163/161 300/166/164 58/181/179
f 55/828/159 347/838/144 641/163/161 228/180/178
f 347/838/144 50/829/143 508/164/162 641/163/161
f 303/152/150 642/159/157 445/162/160 56/153/151
f 23/23/23 408/22/22 642/159/157 303/152/150
f 408/22/22 22/35/35 387/160/158 642/159/157
f 419/132/130 643/155/153 231/158/156 51/133/131
f 26/839/644 191/840/645 643/155/153 419/132/130
f 191/840/645 15/15/15 261/156/154 643/155/153
f 467/136/134 644/151/149 431/154/152 53/137/135
f 2/94/94 435/841/646 644/151/149 467/136/134
f 435/841/646 23/23/23 303/152/150 644/151/149
f 473/842/126 645/147/145 454/150/148 49/843/127
f 38/844/647 407/845/648 645/147/145 473/842/126
f 407/845/648 27/31/31 321/148/146 645/147/145
f 387/160/158 646/143/141 347/146/144 55/161/159
f 22/35/35 311/34/34 646/143/141 387/160/158
f 311/34/34 30/84/84 275/144/142 646/143/141
f 333/102/102 647/139/137 496/142/140 47/103/103
f 14/27/27 211/26/26 647/139/137 333/102/102
f 211/26/26 3/3/3 363/140/138 647/139/137
f 363/140/138 648/135/133 264/138/136 54/141/139
f 3/3/3 514/2/2 648/135/133 363/140/138
f 514/2/2 2/94/94 467/136/134 648/135/133
f 321/148/146 649/131/129 450/134/132 52/149/147
f 27/31/31 448/30/30 649/131/129 321/148/146
f 448/30/30 26/839/644 419/132/130 649/131/129
f 275/144/142 650/127/125 287/130/128 50/145/143
f 30/84/84 242/846/649 650/127/125 275/144/142
f 242/846/649 38/847/647 473/128/126 650/127/125
f 424/848/650 651/125/123 210/126/124 46/849/651
f 19/19/19 432/18/18 651/125/123 424/848/650
f 432/18/18 18/55/55 522/118/117 651/125/123
f 192/44/44 652/121/119 179/124/122 34/850/652
f 28/43/43 297/851/653 652/121/119 192/44/44
f 297/851/653 17/852/654 336/122/120 652/121/119
f 352/32/32 297/851/653 28/43/43
f 352/32/32 215/120/118 297/851/653
f 215/120/118 17/852/654 297/851/653
f 468/119/82 294/54/54 38/844/647
f 468/119/82 522/118/117 294/54/54
f 522/118/117 18/55/55 294/54/54
f 177/116/116 327/66/66 26/839/644
f 177/116/116 250/115/115 327/66/66
f 250/115/115 6/67/67 327/66/66
f 493/6/6 653/110/110 430/113/113 7/7/7
f 6/67/67 250/115/115 653/110/110 493/6/6
f 250/115/115 25/114/114 422/111/111 653/110/110
f 409/16/16 406/853/655 16/59/59
f 409/16/16 318/109/109 406/853/655
f 318/109/109 5/854/656 406/853/655
f 298/60/60 654/105/105 355/108/108 39/855/657
f 16/59/59 406/853/655 654/105/105 298/60/60
f 406/853/655 5/854/656 412/106/106 654/105/105
f 261/156/154 655/101/101 398/104/104 48/157/155
f 15/15/15 478/14/14 655/101/101 261/156/154
f 478/14/14 14/27/27 333/102/102 655/101/101
f 490/856/658 656/97/97 219/100/100 9/857/659
f 1/858/660 266/859/661 656/97/97 490/856/658
f 266/859/661 40/860/662 385/98/98 656/97/97
f 328/96/96 490/856/658 9/857/659
f 328/96/96 268/95/95 490/856/658
f 268/95/95 1/858/660 490/856/658
f 309/861/663 657/93/93 388/12/12 11/11/11
f 37/862/664 181/52/52 657/93/93 309/861/663
f 181/52/52 24/51/51 180/92/92 657/93/93
f 180/92/92 447/64/64 12/63/63
f 180/92/92 324/24/24 447/64/64
f 324/24/24 23/23/23 447/64/64
f 513/863/665 658/91/91 371/76/76 43/75/75
f 46/864/651 210/865/124 658/91/91 513/863/665
f 210/865/124 45/81/81 456/83/83 658/91/91
f 310/866/666 659/87/87 202/90/90 41/867/667
f 29/868/668 276/869/669 659/87/87 310/866/666
f 276/869/669 31/870/670 420/88/88 659/87/87
f 485/86/86 310/866/666 41/867/667
f 485/86/86 186/85/85 310/866/666
f 186/85/85 29/868/668 310/866/666
f 456/83/83 201/80/80 44/79/79
f 456/83/83 468/82/82 201/80/80
f 468/82/82 38/847/647 201/80/80
f 242/846/649 660/77/77 201/80/80 38/847/647
f 30/84/84 485/86/86 660/77/77 242/846/649
f 485/86/86 41/867/667 373/78/78 660/77/77
f 373/78/78 661/73/73 371/76/76 44/79/79
f 41/867/667 202/90/90 661/73/73 373/78/78
f 202/90/90 42/89/89 283/74/74 661/73/73
f 418/871/671 662/69/69 364/72/72 35/872/672
f 40/860/662 266/859/661 662/69/69 418/871/671
f 266/859/661 1/858/660 439/70/70 662/69/69
f 318/109/109 663/65/65 246/68/68 5/854/656
f 15/15/15 191/840/645 663/65/65 318/109/109
f 191/840/645 26/839/644 327/66/66 663/65/65
f 435/841/646 664/61/61 447/64/64 23/23/23
f 2/94/94 328/96/96 664/61/61 435/841/646
f 328/96/96 9/857/659 391/62/62 664/61/61
f 315/873/673 665/57/57 298/60/60 39/855/657
f 36/874/674 196/48/48 665/57/57 315/873/673
f 196/48/48 13/47/47 399/58/58 665/57/57
f 215/120/118 666/53/53 510/56/56 17/852/654
f 27/31/31 407/845/648 666/53/53 215/120/118
f 407/845/648 38/844/647 294/54/54 666/53/53
f 482/875/675 667/49/49 181/52/52 37/862/664
f 32/876/676 306/40/40 667/49/49 482/875/675
f 306/40/40 21/39/39 314/50/50 667/49/49
f 421/877/677 668/45/45 196/48/48 36/874/674
f 35/872/672 364/72/72 668/45/45 421/877/677
f 364/72/72 4/71/71 307/46/46 668/45/45
f 258/878/678 669/41/41 192/44/44 34/850/652
f 33/112/112 422/111/111 669/41/41 258/878/678
f 422/111/111 25/114/114 356/42/42 669/41/41
f 379/879/679 670/37/37 306/40/40 32/876/676
f 31/870/670 276/869/669 670/37/37 379/879/679
f 276/869/669 29/868/668 394/38/38 670/37/37
f 394/38/38 671/33/33 491/36/36 21/39/39
f 29/868/668 186/85/85 671/33/33 394/38/38
f 186/85/85 30/84/84 311/34/34 671/33/33
f 356/42/42 672/29/29 352/32/32 28/43/43
f 25/114/114 177/116/116 672/29/29 356/42/42
f 177/116/116 26/839/644 448/30/30 672/29/29
f 307/46/46 673/25/25 232/28/28 13/47/47
f 4/71/71 436/4/4 673/25/25 307/46/46
f 436/4/4 3/3/3 211/26/26 673/25/25
f 314/50/50 674/21/21 324/24/24 24/51/51
f 21/39/39 491/36/36 674/21/21 314/50/50
f 491/36/36 22/35/35 408/22/22 674/21/21
f 336/122/120 675/17/17 334/20/20 20/123/121
f 17/852/654 510/56/56 675/17/17 336/122/120
f 510/56/56 18/55/55 432/18/18 675/17/17
f 399/58/58 676/13/13 409/16/16 16/59/59
f 13/47/47 232/28/28 676/13/13 399/58/58
f 232/28/28 14/27/27 478/14/14 676/13/13
f 391/62/62 677/9/9 388/12/12 12/63/63
f 9/857/659 219/100/100 677/9/9 391/62/62
f 219/100/100 10/99/99 474/10/10 677/9/9
f 412/106/106 678/5/5 428/8/8 8/107/107
f 5/854/656 246/68/68 678/5/5 412/106/106
f 246/68/68 6/67/67 493/6/6 678/5/5
f 439/70/70 679/1/1 436/4/4 4/71/71
f 1/858/660 268/95/95 679/1/1 439/70/70
f 268/95/95 2/94/94 514/2/2 679/1/1
