# Blender v2.78 (sub 0) OBJ File: ''
# www.blender.org
mtllib Oak_Tree_m_07.mtl
o Oak_Tree_m_07
v -2.163480 4.220572 -0.400683
v -2.350226 3.554922 -0.268141
v -1.687741 3.756949 0.024149
v -1.747836 4.324529 -0.145668
v -1.517802 4.447410 -0.664820
v -2.164686 4.218272 -1.063852
v -2.528535 3.683980 -0.842602
v -2.300787 3.017408 -0.535924
v -1.393004 4.239204 -0.183813
v -1.165481 3.559199 -0.039024
v -0.998969 3.783638 -0.473952
v -0.837031 2.971787 -0.390747
v -0.753940 3.102006 -0.830994
v -0.936013 3.453810 -1.295745
v -1.085190 4.121730 -0.934757
v -1.323771 4.130732 -1.238560
v -0.975702 2.677984 -0.962427
v -1.017197 2.593021 -0.377828
v -1.513391 2.466620 -0.333043
v -1.389570 2.380708 -0.982049
v -1.611960 2.572578 -1.338872
v -1.120712 2.885689 -1.545444
v -1.472085 3.336726 -1.696146
v -2.262449 3.062023 -1.311861
v -2.347361 3.680044 -1.381225
v -1.943383 2.576995 -0.511872
v -1.723161 4.093232 -1.352550
v -1.311490 2.930845 -0.049881
v -1.926644 3.004956 -0.072139
v 1.408218 5.689525 1.563073
v 1.437334 5.122085 1.944534
v 1.871846 4.906924 1.000570
v 1.719041 5.569859 1.076045
v 1.122861 5.694240 0.784690
v 0.525540 5.849314 1.553569
v 0.787437 5.459922 2.090919
v 1.029486 4.584483 2.045497
v 1.592668 5.311280 0.574962
v 1.697963 4.263449 0.334617
v 1.126952 4.486870 0.060752
v 0.229213 4.547235 0.133736
v 0.617836 5.280915 0.273257
v 0.227728 5.630524 0.875001
v 0.517298 3.587069 0.415795
v 1.275449 3.614974 0.119935
v 1.210516 3.307613 0.508764
v 1.176234 3.468415 1.232264
v 0.372386 3.508825 1.095632
v -0.221274 4.189491 0.593375
v -0.410068 4.722361 1.041349
v -0.247954 4.975958 0.665267
v -0.051059 3.988944 1.349184
v 0.772690 3.879679 -0.026981
v 0.326917 4.709592 2.026160
v 0.206722 5.469987 1.976790
v -0.184991 4.796026 1.714247
v 0.968423 3.903302 1.766829
v -0.075431 5.399402 1.437173
v 1.646258 3.702198 0.795786
v 1.585698 4.263627 1.599392
v 0.549573 7.369590 0.467123
v 1.007655 6.901741 -0.413960
v 0.736419 7.703449 -0.075139
v 0.196357 8.067737 -0.153668
v -0.401010 8.016732 -0.454703
v -0.541876 8.055373 0.068202
v 0.744495 7.788047 -0.527331
v 0.102957 7.913952 -0.812863
v -0.182175 7.810185 0.626958
v 0.132568 6.688300 0.824162
v 0.716223 7.234262 -1.173653
v 1.047313 6.377141 -0.903140
v 0.853015 5.716477 -1.208475
v 0.235481 5.927568 -1.588044
v -0.732314 6.005133 -1.506849
v -0.329415 7.024975 -1.566473
v -0.712532 7.670797 -0.949846
v 0.101561 7.657212 -1.262130
v -0.399463 4.841470 -0.870460
v 0.414576 4.805581 -1.252274
v 0.351436 4.525246 -0.679237
v 0.307183 4.970082 0.162188
v -0.554567 4.955463 -0.008246
v -1.209172 5.670401 -0.827223
v -1.423323 6.507472 -0.434951
v -1.255291 6.724737 -0.976980
v -1.020271 5.656505 0.163191
v -0.133076 5.091330 -1.508170
v -0.627590 6.827838 0.777341
v -0.784219 7.743964 0.517009
v -1.181036 6.823403 0.371686
v 0.076932 5.711164 0.693162
v -1.050192 7.531055 -0.156705
v 0.830327 5.204001 -0.459463
v 0.734330 6.148437 0.378094
v 0.096553 1.193623 -0.005292
v -0.075461 1.200734 0.031980
v -0.101125 0.439040 0.086403
v 0.156355 0.428971 0.061687
v -0.204029 0.446245 -0.151026
v -0.250780 0.048514 -0.181867
v -0.132189 0.047395 0.116866
v -0.046704 1.199811 -0.251498
v 0.114326 1.193053 -0.180491
v 0.212582 0.429953 -0.191017
v -0.010147 0.440629 -0.322481
v -0.003333 0.047652 -0.387002
v 0.188550 0.045841 0.096359
v 0.268187 0.046000 -0.215048
v -0.164191 1.196739 -0.119374
v 0.044896 2.100092 -0.056108
v -0.123062 2.108753 -0.072427
v -0.179362 1.946828 -0.193794
v -0.061084 2.095145 -0.274485
v 0.084154 2.092812 -0.188160
v 0.126884 3.086979 0.004580
v 0.033306 3.243797 0.001966
v 0.133744 3.399468 0.008008
v 0.139790 4.429211 -0.015148
v 0.091206 4.419754 -0.000506
v 0.148405 3.191063 -0.110846
v -0.147561 2.286904 -0.196255
v -0.472849 2.161134 -0.390863
v -0.472669 2.225726 -0.325391
v -0.035158 3.255229 -0.133539
v 0.037290 3.206790 -0.209055
v 0.051867 4.433283 -0.069157
v 0.395524 3.301626 0.511326
v 0.358877 3.345413 0.506619
v 0.066309 4.281319 -0.134536
v 0.130052 4.430796 -0.094133
v -0.007598 4.628580 -0.435697
v 0.011695 4.605273 -0.453029
v 0.254387 5.694119 0.059353
v 0.245299 5.792693 0.053778
v 0.095811 4.615923 -0.099531
v 0.022524 4.668664 -0.430435
v 0.273033 5.791540 0.043219
v -0.525328 2.123276 -0.336702
v -0.509537 2.169859 -0.268232
v -1.003388 2.525600 -0.549480
v -0.990760 2.558283 -0.509292
v -1.033861 2.508100 -0.517870
v -1.021106 2.531150 -0.478554
v -1.417081 3.183429 -0.759168
v -1.416509 3.195961 -0.747287
v -1.424473 3.176502 -0.747605
v -1.423161 3.186034 -0.735775
v 0.436331 3.312614 0.473441
v 0.409764 3.380131 0.486690
v 0.784413 3.668909 0.892804
v 0.749126 3.692469 0.875661
v 0.782080 3.720654 0.848177
v 0.818493 3.681791 0.863624
v 0.256558 5.805161 0.038634
v 0.040009 4.628742 -0.446162
v 0.051988 5.168184 -0.790571
v 0.039999 5.158313 -0.799373
v 0.047016 5.151267 -0.806787
v 0.057442 5.156734 -0.801238
v -0.736601 2.311433 -0.464471
v -1.395942 6.607500 -0.693349
v 0.963150 7.156617 -0.819975
v 0.180370 0.197103 0.088707
v 0.890529 4.946157 0.141509
v -0.111289 2.244449 -0.247338
v -0.275659 7.684172 -1.170689
v -0.164132 5.117002 1.608014
v -0.776413 2.284955 -0.421807
v -0.496518 4.898602 -0.283833
v -0.030969 7.263224 0.790852
v -1.420572 3.178670 -0.754487
v 0.005520 4.652047 -0.431221
v 0.045468 3.813465 -0.018674
v 0.076776 2.096346 -0.117870
v 0.759846 3.710802 0.858995
v -1.215620 3.250272 -0.021473
v -2.327303 3.015140 -0.890852
v 0.048793 4.550703 -0.252897
v -1.134158 2.692239 -0.209512
v -1.834193 2.537567 -0.910234
v 0.014073 4.911304 -0.640671
v 0.027795 4.613583 -0.451440
v 0.038221 4.464513 -0.270405
v 0.298209 4.042193 0.196810
v 1.375193 5.562189 0.639943
v -0.467812 2.198169 -0.363763
v -1.234520 2.902395 -0.640304
v -0.045497 2.666622 -0.048519
v -1.202664 6.320422 0.307795
v 0.651446 3.481235 1.141545
v 0.058119 3.784734 -0.153731
v -0.214635 6.752176 0.851837
v 1.476406 4.373031 0.174381
v 0.014022 4.493899 -0.243126
v -0.203345 4.050169 0.897701
v 1.318906 4.003552 1.719131
v 0.000285 5.140583 1.887987
v -0.907860 3.632008 -0.893649
v 0.541096 7.890481 -0.079905
v -0.209182 8.114061 -0.029897
v -0.990494 3.264331 -0.176268
v -0.980597 2.601221 -0.586717
v -0.723997 2.358083 -0.410520
v 0.335686 5.705744 1.827873
v -0.056815 4.784328 0.358656
v 0.911601 6.476544 0.005255
v -1.274637 3.922838 -0.090388
v 0.034476 4.652133 -0.437471
v 0.173407 5.064797 0.028650
v 1.505965 3.587709 0.404439
v -0.308683 7.864769 -0.900224
v -1.344989 6.099682 -0.158288
v -2.296383 3.891183 -0.316710
v -1.378181 6.064729 -0.619955
v -1.630049 4.334191 -1.059961
v 0.272549 5.788869 0.053612
v -2.154819 3.300224 -0.139432
v 0.052883 5.153161 -0.805194
v -0.593247 7.366310 -1.297654
v -0.154143 1.601620 -0.148159
v -0.864571 6.898792 -1.336492
v 0.271076 0.045920 -0.048294
v 0.116347 4.592228 -0.100744
v 0.154632 3.351654 -0.039909
v -1.030866 2.517356 -0.494904
v -0.237348 0.207173 -0.170939
v 0.761926 3.677543 0.888688
v 0.996756 5.854468 -0.714937
v -0.387308 5.478833 -1.529887
v 0.080055 3.112674 0.019319
v -0.681821 7.953410 0.313451
v 0.066073 3.913890 0.500712
v 0.663878 4.866970 -0.896200
v 0.006218 3.817161 -0.091180
v -0.257493 4.953304 -1.317704
v 0.498960 3.900560 1.625838
v 0.661818 4.566444 0.032968
v -1.224178 4.211003 -0.526577
v -0.298768 4.569550 0.581081
v -0.043025 1.628622 -0.257156
v -1.045957 4.000103 -0.750320
v 0.145877 4.427872 -0.042312
v -0.121345 8.100204 -0.350524
v 0.189830 5.695530 1.525404
v 0.064512 1.634073 -0.035002
v 0.104541 7.776663 -1.074052
v 0.763001 7.751629 -0.289625
v -1.941393 2.721068 -0.233663
v -2.335047 3.391225 -1.403158
v -1.213796 2.491280 -0.613608
v -0.825242 2.779836 -0.664100
v -1.301388 6.164266 -0.956780
v -2.026397 3.878101 -1.426367
v 0.983457 6.044685 -0.394855
v 0.030868 0.046618 0.150645
v 1.819748 5.355190 1.047429
v -1.579545 4.316802 -0.160867
v -1.209502 4.082154 -0.290137
v 0.034913 4.933972 -0.630748
v -0.029676 0.799527 -0.281237
v -0.500314 2.136561 -0.370831
v -0.133462 1.199290 -0.034877
v -0.060569 7.437750 -1.412704
v -1.984350 4.025691 -0.137327
v 0.265822 5.798672 0.038896
v 0.244356 3.221857 0.240218
v -0.324994 6.187789 0.761852
v 0.708994 4.630555 2.071292
v 0.976616 5.823053 1.569531
v 0.037907 5.555530 1.164879
v 1.834616 4.550038 0.613760
v 0.042225 4.669285 -1.150663
v -0.184913 8.002025 -0.638502
v 0.977242 6.771427 -1.029958
v 0.065744 5.477015 1.756457
v -0.175103 0.443549 -0.022724
v -0.730941 7.857091 -0.328490
v 0.087511 3.191490 -0.190869
v -0.232531 0.047954 -0.016338
v -0.220604 5.216894 1.039729
v 0.426210 3.519169 0.874752
v -0.290364 2.197547 -0.255305
v 0.091446 3.383036 0.023812
v -2.476875 3.359920 -1.096220
v -1.251874 2.885339 -0.620396
v -0.005994 3.233305 -0.179293
v 1.703473 5.487214 0.852652
v 0.094084 4.290493 -0.128962
v -0.946317 7.607197 -0.581531
v -0.212385 4.441686 1.576469
v 0.045822 4.292648 -0.113998
v 1.226962 3.405621 0.314710
v 0.121648 1.192639 -0.092008
v -1.310233 6.992216 -0.303654
v -0.344893 4.374197 1.180606
v 0.995951 3.734657 0.010666
v 0.834684 7.125448 0.092598
v -1.255747 2.468015 -0.970171
v 0.542264 4.167127 0.024157
v -1.922058 3.149545 -1.594320
v 0.381489 3.368461 0.496650
v 1.082141 3.689127 1.548730
v 0.687270 6.800561 0.444095
v -1.185887 5.586099 -0.410029
v -0.581792 7.879812 -0.665735
v 0.116626 5.158591 0.421495
v 0.456248 5.508915 2.054739
v 1.692028 5.049393 1.529620
v 0.807210 3.671109 0.881138
v 0.453568 5.836911 0.600227
v 1.088960 5.649265 1.890789
v -1.187713 4.163319 -1.072478
v -1.904609 4.300247 -0.231866
v -0.022243 3.248762 -0.079071
v -2.458284 3.319724 -0.713008
v -0.856186 6.229276 0.569360
v 1.425093 3.407585 0.639868
v 0.464962 7.703417 -0.997837
v 0.349896 7.038183 0.709410
v -1.955561 4.192649 -1.213110
v -0.255692 4.942194 0.052932
v -0.990365 7.312622 0.488074
v 0.210138 5.189886 -0.007179
v 0.071365 4.425263 -0.018866
v 0.082821 4.584273 -0.769256
v -1.341282 3.775083 -1.506075
v -0.257420 2.107220 -0.330357
v 0.253224 0.197701 -0.206558
v -0.266876 6.009929 -1.641356
v 0.833298 6.433032 -1.254324
v 0.208313 0.428260 -0.059172
v 0.130222 6.188271 0.793464
v 0.427946 3.348628 0.477435
v 0.105272 2.621667 -0.174880
v 0.110749 4.919329 -1.420056
v -0.522874 7.829187 0.602905
v -0.004939 0.203925 -0.367028
v -1.045135 6.381878 -1.298432
v -1.004369 2.547577 -0.489632
v 0.874487 3.404474 0.809271
v 0.635583 5.699240 0.788486
v 0.045340 5.164088 -0.793791
v -1.258708 2.870206 -0.644307
v -2.499928 3.685216 -1.161411
v 0.029748 0.433526 0.098445
v -0.993692 2.544210 -0.532695
v 0.035603 2.093452 -0.237494
v 0.248869 5.799537 0.045391
v 0.381606 5.482299 0.544685
v 0.823486 5.821006 1.157188
v 0.026857 4.896723 -0.651374
v 0.202173 5.361455 0.487103
v -0.381380 4.843280 0.861656
v -0.148587 2.253027 -0.133854
v 0.575897 3.644758 1.385033
v -1.271121 2.570276 -1.256436
v -1.962816 3.508435 -1.577693
v -1.218374 2.528734 -0.329186
v 0.541962 5.115499 2.125483
v -1.506081 4.043139 -0.034825
v 0.923667 7.436049 -0.526448
v -1.058600 3.676978 -0.203330
v -1.889096 4.417221 -0.524745
v 0.357839 7.546350 -1.264184
v 0.004794 2.645539 -0.244254
v -0.123143 0.444476 -0.255229
v 1.473325 3.786377 1.441156
v -2.063739 3.665697 -0.095118
v -0.026761 6.551472 -1.624847
v 0.370557 4.668626 -0.323082
v -0.733587 7.381786 0.691454
v 0.280851 3.230687 0.176574
v 0.614665 5.826111 -1.418220
v 1.149090 5.329670 0.372341
v 0.614554 3.559217 0.695116
v -0.122820 0.202957 0.110721
v -0.474741 8.044454 -0.199099
v -0.023306 2.105803 -0.041644
v 0.961980 3.372773 0.449393
v 0.039664 1.196237 -0.231149
v -0.784477 7.886532 -0.006147
v 0.893314 5.543211 0.489714
v -0.856233 5.170812 -0.369941
v -1.020189 2.513989 -0.537967
v 0.127495 4.525882 0.001432
v -0.297984 5.052158 1.230454
v -1.031352 2.931546 -0.183457
v 0.107000 4.319397 1.761287
v -1.756331 2.503156 -0.395849
v 0.372301 3.321264 0.511603
v -0.001162 4.613497 -0.445190
v 1.714264 3.967824 0.520186
v -1.231238 7.148804 -0.589894
v -1.329171 6.648348 -0.012825
v 0.673545 5.740060 1.876393
v 0.075584 4.495529 -0.261310
v -1.384382 3.658568 0.029361
v 0.377182 7.811196 0.232570
v -1.052569 2.795377 -1.331417
v 1.679684 3.984367 1.203517
v 0.573884 3.528254 0.720899
v 0.075344 4.590727 -0.086391
v -0.026793 5.349853 0.772653
v 1.709777 5.369414 1.351503
v -1.316355 2.737787 -1.516159
v -2.364486 3.275071 -0.385332
v -0.709322 5.148695 0.039844
v -1.130009 3.824485 -1.330975
v 0.653398 3.747934 0.093823
v -2.177432 4.265810 -0.746493
v 1.498912 3.535886 1.059440
v 0.913875 4.126323 -0.025578
v -0.155112 0.048083 -0.318478
v -0.646239 5.362991 -1.276331
v -0.816305 3.247965 -1.021488
v 1.280720 5.765715 1.202564
v -1.868421 4.384756 -0.885762
v -0.940164 7.675910 0.245045
v 0.768705 7.585455 -0.817215
v 1.148616 5.316685 2.067410
v 1.825425 5.123255 0.743221
v -2.150992 2.983689 -0.270192
v 0.418758 3.301430 0.492388
v -0.974635 6.811492 0.603907
v 0.367461 4.591547 -0.947998
v 0.979250 6.077212 -1.031699
v -0.363344 8.040004 0.336760
v 1.251791 3.999602 0.030732
v 0.370670 5.778495 1.190362
v 0.149921 3.079835 -0.047315
v 0.055958 5.163015 -0.794815
v 0.161088 0.789756 -0.183766
v -0.892847 5.285851 -0.860446
v -2.306067 3.968094 -1.236961
v -1.625949 3.771658 -1.554065
v -1.424268 3.180298 -0.740411
v -0.522379 2.141828 -0.296831
v -0.081864 2.721628 -0.163607
v 0.014710 1.196942 0.029045
v -0.169993 1.973248 -0.129134
v 0.127318 0.789043 0.027995
v 0.252037 3.325069 0.230013
v -1.021446 5.790516 -1.177994
v 0.926587 3.506450 0.172225
v 0.181991 5.225843 -0.014138
v 0.599601 4.241432 1.902438
v 0.655381 5.010334 -0.074006
v 0.889577 5.016478 2.124832
v 0.159514 5.189193 0.011385
v 0.129923 3.787257 -0.115771
v -0.428010 5.647249 0.524948
v 0.231231 3.641625 1.166138
v 0.672914 7.580546 0.136913
v -1.237777 4.293511 -0.796928
v -1.568293 2.906862 -1.630398
v 1.622778 5.618340 1.248826
v -1.460311 2.430023 -1.101829
v -0.328239 2.053418 -0.261222
v 0.095737 3.738309 0.855719
v -1.622386 2.974415 -0.011718
v -2.405747 3.991773 -0.621103
v 0.236557 7.135549 -1.470250
v 1.553392 4.730646 1.780861
v -0.884123 3.026135 -1.198942
v 0.014381 7.998422 0.272984
v -0.771097 3.037210 -0.630941
v 0.670922 5.212554 -1.235899
v -2.132623 2.780608 -0.516098
v 1.237514 4.866552 2.045629
v -1.673408 4.437310 -0.337422
v -0.118039 1.198854 -0.195685
v -0.582208 6.525651 -1.587059
v -1.493309 3.317502 0.040261
v -0.912622 2.731839 -0.400515
v -1.012158 3.108196 -1.479501
v 0.468376 7.882766 -0.680485
v 0.113821 0.435027 -0.277755
v -1.240984 2.881395 -0.664639
v -2.110732 2.748038 -0.936009
v 0.042264 5.154234 -0.804170
v -0.084317 0.798373 0.061400
v 0.454851 6.427879 0.671138
v 0.252339 5.789593 0.061277
v -0.133296 1.966158 -0.247352
v -0.323007 4.743357 1.389828
v 1.371204 4.922061 0.281103
v -1.432582 2.663298 -0.115766
v -0.408344 7.384269 0.778750
v 0.005088 4.739995 1.889291
v 0.374525 4.932079 0.164301
v 0.091649 1.629804 -0.185267
v 0.622891 5.464410 0.320936
v 1.505803 5.659754 0.955404
v -1.401618 4.348241 -0.992179
v -0.373503 4.436647 0.821127
v -1.930814 2.796503 -1.380737
v 1.814978 4.252456 0.882621
v -1.429945 2.399796 -0.755023
v 0.166695 8.041953 -0.509750
v -0.874176 3.350117 -0.389106
v 0.647807 3.508195 0.703103
v -0.341078 5.234360 0.304066
v 1.045806 6.571839 -0.731111
v 1.021554 4.226202 1.927874
v -0.489877 2.203437 -0.289764
v -1.738488 4.131467 -0.054612
v 0.191734 5.065460 0.022034
v -1.167020 7.194736 0.143862
v 0.187458 3.277374 0.247991
v 0.836932 5.665211 -0.009366
v -1.822598 3.351125 0.010221
v 0.608035 3.495648 0.733628
v 1.518915 3.897864 0.205780
v -1.144437 3.416882 -1.570304
v 0.045074 4.910320 -0.645789
v 0.156135 0.046826 -0.338227
v -1.420040 3.192293 -0.740430
v -0.013732 4.739766 -0.335290
v -0.762713 2.318490 -0.368845
v 0.013268 5.419708 -1.582785
v -0.043615 4.337657 0.346664
v -1.496346 4.128585 -1.302218
v -1.416344 3.190665 -0.754506
v 0.805130 3.704368 0.851444
v 0.117492 3.843462 -0.030745
v -0.309042 2.118142 -0.172482
v 0.071474 2.628701 -0.052617
v -1.024534 7.252442 -0.961932
v -1.721707 2.690493 -0.117256
v 1.230787 3.342959 0.807376
v 1.692436 4.795473 0.437327
v 0.874826 5.369738 -0.901483
v 1.325380 4.419585 1.887069
v 0.239313 5.145875 2.055333
v 0.580043 4.703787 -0.550586
v 0.881000 7.411400 -0.186812
v -1.620899 2.429345 -0.805820
v -1.237020 3.046779 -1.658438
v 0.490227 6.579484 -1.451267
v 0.197427 7.625424 0.585274
v 0.497628 7.981412 -0.373956
v 1.772748 4.553729 1.319549
v -0.798048 2.923327 -0.912258
v 1.450387 5.428936 1.784544
v -1.421170 4.377959 -0.367368
v -0.825858 3.373218 -0.684407
v -2.478721 3.632302 -0.515239
v -0.086931 1.635530 -0.014022
v -0.181344 0.804853 -0.129716
v -1.002710 3.867716 -1.084877
v 0.380264 5.281488 -1.478811
v -2.401434 3.999005 -0.963583
v 0.018394 4.902091 -0.646845
v 0.042065 4.924069 -0.637446
v 0.037183 4.901494 -0.649947
v 0.023276 4.924665 -0.634344
v 0.059606 4.475536 -0.267750
v 0.066014 4.527773 -0.257140
v 0.168170 5.210069 -0.002891
v 0.197370 5.210423 -0.013610
v 0.635446 3.536013 0.696123
v 0.631495 3.497487 0.719464
v 0.590645 3.548170 0.706909
v 0.586694 3.509644 0.730249
v 0.215202 3.309171 0.242248
v 0.271804 3.280876 0.198965
v 0.130851 3.817337 -0.071931
v 0.267149 3.218323 0.205150
v -1.257151 2.876275 -0.630217
v -1.242492 2.895783 -0.627791
v -1.250551 2.873884 -0.657031
v -1.235892 2.893392 -0.654605
v -0.741960 2.342539 -0.384013
v -0.773728 2.298219 -0.390853
v -0.757902 2.293941 -0.448808
v -0.726135 2.338262 -0.441968
v -0.323387 2.078716 -0.208793
v -0.300432 2.166067 -0.205207
v -0.073761 2.700052 -0.101849
v -0.292101 2.072097 -0.304475
v 0.211649 5.181526 0.009403
v 0.028704 4.526785 -0.246119
v 0.168489 5.180568 0.025137
v 0.022296 4.474549 -0.256730
v 0.030849 0.199790 0.128427
v 0.097267 3.781021 -0.142137
v 0.026584 3.801559 -0.127923
v 0.210547 3.246618 0.248433
v 0.019724 3.815101 -0.051220
v 0.060989 2.629029 -0.219705
v -0.045355 2.687623 -0.213084
v -0.269146 2.159447 -0.300889
v 0.099267 2.622700 -0.110463
v 0.082794 3.831061 -0.016889
v 0.092311 1.631536 -0.107560
v -0.133608 1.617184 -0.074609
v 0.013039 2.644753 -0.038777
v 0.031200 1.630659 -0.234147
v -0.108635 1.613254 -0.212898
v -0.150912 0.802343 -0.024955
v 0.164229 0.788448 -0.074697
v -0.009207 1.637017 -0.010390
v -0.119833 0.802999 -0.219839
v 0.139335 0.200682 -0.311246
v 0.244735 0.196801 -0.052034
v -0.139692 0.206069 -0.290987
v 0.074935 0.794412 -0.250582
v -0.206740 0.205518 -0.019254
v 0.024648 0.793350 0.064748
vt 0.7103 0.5570
vt 0.7152 0.5559
vt 0.7146 0.5630
vt 0.7106 0.5666
vt 0.7052 0.5670
vt 0.7105 0.5618
vt 0.7050 0.5622
vt 0.7071 0.5545
vt 0.7126 0.5520
vt 0.7201 0.5547
vt 0.7175 0.5509
vt 0.7241 0.5505
vt 0.7071 0.5738
vt 0.7130 0.5714
vt 0.7125 0.5778
vt 0.6640 0.5373
vt 0.6688 0.5444
vt 0.6646 0.5455
vt 0.6605 0.5451
vt 0.6566 0.5388
vt 0.6492 0.5403
vt 0.6532 0.5466
vt 0.6445 0.5432
vt 0.7040 0.5832
vt 0.7019 0.5753
vt 0.7055 0.5785
vt 0.7034 0.5706
vt 0.7089 0.5702
vt 0.6892 0.5757
vt 0.6895 0.5699
vt 0.6945 0.5715
vt 0.6669 0.5615
vt 0.6702 0.5565
vt 0.6711 0.5608
vt 0.6759 0.5653
vt 0.6671 0.5658
vt 0.6635 0.5674
vt 0.6629 0.5622
vt 0.6590 0.5629
vt 0.6595 0.5681
vt 0.6555 0.5630
vt 0.6620 0.5572
vt 0.6660 0.5576
vt 0.6581 0.5579
vt 0.7281 0.5463
vt 0.7214 0.5466
vt 0.7236 0.5394
vt 0.7191 0.5324
vt 0.7169 0.5397
vt 0.7139 0.5344
vt 0.6793 0.5819
vt 0.6697 0.5775
vt 0.6822 0.5755
vt 0.6850 0.5692
vt 0.6725 0.5712
vt 0.6761 0.5696
vt 0.6893 0.5551
vt 0.6946 0.5612
vt 0.6895 0.5596
vt 0.6342 0.5549
vt 0.6370 0.5505
vt 0.6431 0.5590
vt 0.6389 0.5699
vt 0.6520 0.5630
vt 0.6560 0.5681
vt 0.6526 0.5727
vt 0.6870 0.5541
vt 0.6803 0.5527
vt 0.6827 0.5463
vt 0.7352 0.5778
vt 0.7322 0.5698
vt 0.7390 0.5732
vt 0.7189 0.5690
vt 0.7195 0.5619
vt 0.7241 0.5654
vt 0.7247 0.5583
vt 0.7110 0.5825
vt 0.6712 0.5379
vt 0.6966 0.5795
vt 0.7340 0.5520
vt 0.7287 0.5540
vt 0.6757 0.5877
vt 0.6662 0.5821
vt 0.6990 0.5458
vt 0.6967 0.5536
vt 0.7087 0.5364
vt 0.7118 0.5417
vt 0.7063 0.5443
vt 0.6459 0.5546
vt 0.6546 0.5579
vt 0.6437 0.5850
vt 0.6479 0.5740
vt 0.6485 0.5837
vt 0.6860 0.5616
vt 0.6812 0.5571
vt 0.7266 0.5798
vt 0.7271 0.5734
vt 0.7428 0.5686
vt 0.7361 0.5652
vt 0.7413 0.5632
vt 0.7114 0.5573
vt 0.7157 0.5560
vt 0.7148 0.5645
vt 0.7109 0.5663
vt 0.7052 0.5670
vt 0.7111 0.5618
vt 0.7054 0.5625
vt 0.7082 0.5538
vt 0.7131 0.5522
vt 0.7201 0.5547
vt 0.7175 0.5509
vt 0.7240 0.5505
vt 0.7069 0.5743
vt 0.7126 0.5730
vt 0.7131 0.5804
vt 0.6643 0.5324
vt 0.6715 0.5355
vt 0.6640 0.5379
vt 0.6638 0.5434
vt 0.6604 0.5481
vt 0.6564 0.5432
vt 0.7032 0.5710
vt 0.7089 0.5703
vt 0.6892 0.5757
vt 0.6892 0.5662
vt 0.6943 0.5717
vt 0.6669 0.5612
vt 0.6702 0.5563
vt 0.6711 0.5606
vt 0.6758 0.5653
vt 0.6671 0.5656
vt 0.6590 0.5629
vt 0.6557 0.5652
vt 0.6552 0.5615
vt 0.6635 0.5672
vt 0.6629 0.5620
vt 0.6595 0.5681
vt 0.6620 0.5570
vt 0.6660 0.5574
vt 0.6652 0.5537
vt 0.6611 0.5532
vt 0.6645 0.5486
vt 0.6581 0.5579
vt 0.6557 0.5879
vt 0.6501 0.5875
vt 0.6535 0.5828
vt 0.7279 0.5464
vt 0.7214 0.5467
vt 0.7235 0.5394
vt 0.7191 0.5324
vt 0.7169 0.5397
vt 0.7148 0.5345
vt 0.6785 0.5821
vt 0.6693 0.5776
vt 0.6816 0.5757
vt 0.6847 0.5693
vt 0.6724 0.5712
vt 0.6760 0.5697
vt 0.6579 0.5805
vt 0.6993 0.5374
vt 0.7021 0.5439
vt 0.6943 0.5470
vt 0.6347 0.5533
vt 0.6418 0.5481
vt 0.6431 0.5567
vt 0.6524 0.5675
vt 0.6562 0.5703
vt 0.6518 0.5726
vt 0.6879 0.5567
vt 0.6808 0.5540
vt 0.6833 0.5477
vt 0.7192 0.5866
vt 0.7188 0.5791
vt 0.7285 0.5824
vt 0.7377 0.5782
vt 0.7335 0.5700
vt 0.7402 0.5734
vt 0.7183 0.5716
vt 0.7192 0.5632
vt 0.7238 0.5667
vt 0.7247 0.5583
vt 0.6712 0.5410
vt 0.6687 0.5474
vt 0.6566 0.5376
vt 0.6981 0.5750
vt 0.6694 0.5525
vt 0.7339 0.5521
vt 0.7286 0.5541
vt 0.6752 0.5878
vt 0.6671 0.5850
vt 0.6389 0.5745
vt 0.6450 0.5762
vt 0.6417 0.5807
vt 0.7105 0.5366
vt 0.7127 0.5418
vt 0.7077 0.5435
vt 0.6893 0.5567
vt 0.6971 0.5536
vt 0.6944 0.5623
vt 0.6368 0.5639
vt 0.6452 0.5673
vt 0.6514 0.5601
vt 0.6502 0.5515
vt 0.6543 0.5565
vt 0.6457 0.5710
vt 0.6863 0.5630
vt 0.6817 0.5584
vt 0.7428 0.5686
vt 0.7361 0.5652
vt 0.7413 0.5632
vt 0.7280 0.5749
vt 0.7049 0.5370
vt 0.5943 0.5547
vt 0.5938 0.5617
vt 0.5915 0.5586
vt 0.5851 0.5571
vt 0.5805 0.5567
vt 0.5827 0.5528
vt 0.5850 0.5664
vt 0.5809 0.5649
vt 0.5850 0.5617
vt 0.5809 0.5603
vt 0.5870 0.5520
vt 0.5897 0.5559
vt 0.5917 0.5509
vt 0.5982 0.5505
vt 0.5812 0.5743
vt 0.5862 0.5754
vt 0.5872 0.5804
vt 0.5872 0.5716
vt 0.5385 0.5324
vt 0.5457 0.5355
vt 0.5382 0.5379
vt 0.5380 0.5434
vt 0.5346 0.5481
vt 0.5306 0.5430
vt 0.5789 0.5689
vt 0.5831 0.5703
vt 0.5634 0.5757
vt 0.5634 0.5663
vt 0.5682 0.5721
vt 0.5411 0.5611
vt 0.5445 0.5562
vt 0.5454 0.5606
vt 0.5499 0.5652
vt 0.5412 0.5656
vt 0.5332 0.5629
vt 0.5300 0.5652
vt 0.5294 0.5615
vt 0.5376 0.5671
vt 0.5372 0.5620
vt 0.5337 0.5681
vt 0.5362 0.5569
vt 0.5403 0.5574
vt 0.5395 0.5537
vt 0.5354 0.5532
vt 0.5387 0.5486
vt 0.5323 0.5579
vt 0.5299 0.5879
vt 0.5244 0.5875
vt 0.5276 0.5828
vt 0.6021 0.5464
vt 0.5956 0.5467
vt 0.5978 0.5394
vt 0.5934 0.5324
vt 0.5912 0.5397
vt 0.5890 0.5345
vt 0.5524 0.5821
vt 0.5433 0.5776
vt 0.5555 0.5757
vt 0.5587 0.5693
vt 0.5465 0.5712
vt 0.5501 0.5697
vt 0.5321 0.5805
vt 0.5733 0.5377
vt 0.5746 0.5470
vt 0.5684 0.5473
vt 0.5090 0.5530
vt 0.5161 0.5479
vt 0.5173 0.5566
vt 0.5267 0.5675
vt 0.5304 0.5703
vt 0.5260 0.5726
vt 0.5621 0.5567
vt 0.5549 0.5540
vt 0.5575 0.5476
vt 0.5933 0.5866
vt 0.5922 0.5816
vt 0.6026 0.5824
vt 0.6120 0.5782
vt 0.6078 0.5700
vt 0.6145 0.5734
vt 0.5932 0.5688
vt 0.5984 0.5653
vt 0.5990 0.5583
vt 0.5887 0.5624
vt 0.5910 0.5656
vt 0.5868 0.5644
vt 0.5454 0.5410
vt 0.5429 0.5474
vt 0.5308 0.5375
vt 0.5723 0.5750
vt 0.5771 0.5714
vt 0.5730 0.5686
vt 0.5683 0.5627
vt 0.5748 0.5660
vt 0.5437 0.5525
vt 0.6081 0.5521
vt 0.6029 0.5541
vt 0.5493 0.5878
vt 0.5411 0.5850
vt 0.5129 0.5741
vt 0.5192 0.5760
vt 0.5159 0.5806
vt 0.5847 0.5366
vt 0.5868 0.5418
vt 0.5825 0.5425
vt 0.5768 0.5431
vt 0.5635 0.5569
vt 0.5697 0.5567
vt 0.5701 0.5602
vt 0.5109 0.5635
vt 0.5192 0.5671
vt 0.5255 0.5601
vt 0.5243 0.5514
vt 0.5284 0.5565
vt 0.5198 0.5708
vt 0.5604 0.5630
vt 0.5559 0.5584
vt 0.6016 0.5774
vt 0.6026 0.5735
vt 0.6170 0.5686
vt 0.6103 0.5652
vt 0.6155 0.5632
vt 0.5790 0.5372
vt 0.5869 0.5597
vt 0.9229 0.6579
vt 0.9196 0.6586
vt 0.9181 0.6479
vt 0.9219 0.6471
vt 0.9128 0.6450
vt 0.9087 0.6464
vt 0.9065 0.6424
vt 0.9111 0.6408
vt 0.9362 0.6585
vt 0.9330 0.6577
vt 0.9335 0.6466
vt 0.9372 0.6475
vt 0.9462 0.6459
vt 0.9424 0.6442
vt 0.9438 0.6398
vt 0.9480 0.6418
vt 0.9297 0.6421
vt 0.9254 0.6421
vt 0.9250 0.6377
vt 0.9298 0.6377
vt 0.9382 0.6431
vt 0.9340 0.6422
vt 0.9346 0.6377
vt 0.9392 0.6388
vt 0.9426 0.6604
vt 0.9394 0.6594
vt 0.9409 0.6485
vt 0.9444 0.6500
vt 0.9238 0.6803
vt 0.9262 0.6801
vt 0.9258 0.6919
vt 0.9238 0.6919
vt 0.9295 0.6575
vt 0.9261 0.6573
vt 0.9257 0.6464
vt 0.9296 0.6465
vt 0.9164 0.6595
vt 0.9132 0.6604
vt 0.9110 0.6503
vt 0.9146 0.6491
vt 0.9384 0.6812
vt 0.9409 0.6813
vt 0.9382 0.6909
vt 0.9360 0.6915
vt 0.9335 0.6808
vt 0.9359 0.6811
vt 0.9339 0.6921
vt 0.9319 0.6920
vt 0.9237 0.7064
vt 0.9255 0.7061
vt 0.9251 0.7202
vt 0.9236 0.7210
vt 0.9189 0.6804
vt 0.9214 0.6805
vt 0.9217 0.6919
vt 0.9196 0.6910
vt 0.9287 0.6802
vt 0.9266 0.6683
vt 0.9295 0.6686
vt 0.9581 0.6551
vt 0.9592 0.6556
vt 0.9599 0.6690
vt 0.9592 0.6690
vt 0.9273 0.7061
vt 0.9291 0.7061
vt 0.9284 0.7203
vt 0.9268 0.7203
vt 0.9559 0.7325
vt 0.9566 0.7343
vt 0.9500 0.7338
vt 0.9500 0.7322
vt 0.9344 0.7080
vt 0.9360 0.7093
vt 0.9347 0.7225
vt 0.9331 0.7219
vt 0.9309 0.7064
vt 0.9327 0.7067
vt 0.9316 0.7212
vt 0.9300 0.7207
vt 0.9558 0.6549
vt 0.9570 0.6546
vt 0.9584 0.6691
vt 0.9577 0.6693
vt 0.9759 0.6479
vt 0.9770 0.6482
vt 0.9754 0.6554
vt 0.9746 0.6553
vt 0.9648 0.6545
vt 0.9658 0.6549
vt 0.9645 0.6694
vt 0.9637 0.6694
vt 0.9625 0.6538
vt 0.9637 0.6541
vt 0.9629 0.6695
vt 0.9621 0.6694
vt 0.9211 0.6428
vt 0.9169 0.6435
vt 0.9157 0.6392
vt 0.9204 0.6385
vt 0.9637 0.6694
vt 0.9645 0.6694
vt 0.9645 0.6694
vt 0.9637 0.6694
vt 0.9592 0.6880
vt 0.9597 0.6878
vt 0.9610 0.7065
vt 0.9607 0.7066
vt 0.9637 0.6704
vt 0.9629 0.6715
vt 0.9629 0.6715
vt 0.9637 0.6704
vt 0.9610 0.6878
vt 0.9615 0.6880
vt 0.9617 0.7066
vt 0.9614 0.7066
vt 0.9558 0.7359
vt 0.9550 0.7375
vt 0.9492 0.7363
vt 0.9496 0.7350
vt 0.9201 0.7076
vt 0.9218 0.7068
vt 0.9220 0.7217
vt 0.9203 0.7217
vt 0.9558 0.7288
vt 0.9552 0.7306
vt 0.9501 0.7306
vt 0.9500 0.7291
vt 0.9557 0.7253
vt 0.9563 0.7270
vt 0.9499 0.7275
vt 0.9496 0.7262
vt 0.9401 0.7318
vt 0.9400 0.7330
vt 0.9300 0.7322
vt 0.9302 0.7314
vt 0.9396 0.7340
vt 0.9393 0.7350
vt 0.9294 0.7337
vt 0.9297 0.7329
vt 0.9397 0.7272
vt 0.9400 0.7282
vt 0.9301 0.7289
vt 0.9298 0.7282
vt 0.9401 0.7294
vt 0.9403 0.7305
vt 0.9304 0.7305
vt 0.9303 0.7297
vt 0.9184 0.7308
vt 0.9183 0.7314
vt 0.9066 0.7306
vt 0.9065 0.7304
vt 0.9181 0.7319
vt 0.9180 0.7323
vt 0.9065 0.7310
vt 0.9065 0.7308
vt 0.9184 0.7298
vt 0.9184 0.7303
vt 0.9065 0.7301
vt 0.9065 0.7299
vt 0.9182 0.7289
vt 0.9183 0.7293
vt 0.9066 0.7297
vt 0.9066 0.7295
vt 0.9685 0.6471
vt 0.9693 0.6464
vt 0.9698 0.6551
vt 0.9690 0.6551
vt 0.9603 0.6545
vt 0.9614 0.6535
vt 0.9614 0.6693
vt 0.9606 0.6691
vt 0.9708 0.6474
vt 0.9722 0.6485
vt 0.9719 0.6560
vt 0.9708 0.6556
vt 0.9735 0.6481
vt 0.9748 0.6477
vt 0.9738 0.6553
vt 0.9728 0.6557
vt 0.9739 0.6650
vt 0.9747 0.6651
vt 0.9741 0.6748
vt 0.9733 0.6746
vt 0.9722 0.6652
vt 0.9732 0.6648
vt 0.9725 0.6744
vt 0.9717 0.6747
vt 0.9685 0.6647
vt 0.9693 0.6648
vt 0.9689 0.6745
vt 0.9681 0.6744
vt 0.9704 0.6652
vt 0.9713 0.6655
vt 0.9708 0.6751
vt 0.9699 0.6748
vt 0.9621 0.6885
vt 0.9621 0.6704
vt 0.9629 0.6715
vt 0.9627 0.6891
vt 0.9632 0.6885
vt 0.9638 0.6880
vt 0.9630 0.7066
vt 0.9627 0.7067
vt 0.9621 0.6704
vt 0.9614 0.6693
vt 0.9614 0.6693
vt 0.9621 0.6704
vt 0.9621 0.6694
vt 0.9629 0.6695
vt 0.9629 0.6695
vt 0.9621 0.6694
vt 0.9637 0.6704
vt 0.9629 0.6715
vt 0.9629 0.6715
vt 0.9637 0.6704
vt 0.9621 0.6694
vt 0.9629 0.6695
vt 0.9629 0.6695
vt 0.9621 0.6694
vt 0.9621 0.6704
vt 0.9614 0.6693
vt 0.9614 0.6693
vt 0.9621 0.6704
vt 0.9637 0.6694
vt 0.9645 0.6694
vt 0.9645 0.6694
vt 0.9637 0.6694
vt 0.9624 0.7067
vt 0.9637 0.6704
vt 0.9621 0.7067
vt 0.9677 0.6647
vt 0.9673 0.6743
vt 0.9681 0.6551
vt 0.9726 0.6410
vt 0.9742 0.6405
vt 0.9757 0.6400
vt 0.9689 0.6377
vt 0.9707 0.6393
vt 0.9585 0.6421
vt 0.9599 0.6399
vt 0.9614 0.6377
vt 0.9677 0.6478
vt 0.9673 0.6404
vt 0.9681 0.6391
vt 0.9180 0.7284
vt 0.9066 0.7293
vt 0.9295 0.7275
vt 0.9394 0.7262
vt 0.9493 0.7248
vt 0.9552 0.7236
vt 0.9610 0.7225
vt 0.9619 0.7245
vt 0.9628 0.7265
vt 0.9615 0.7285
vt 0.9603 0.7306
vt 0.9183 0.7085
vt 0.9187 0.7217
vt 0.9179 0.6952
vt 0.9198 0.6935
vt 0.9631 0.7349
vt 0.9620 0.7368
vt 0.9609 0.7387
vt 0.9605 0.6877
vt 0.9586 0.6881
vt 0.9603 0.7067
vt 0.9570 0.6695
vt 0.9629 0.6382
vt 0.9645 0.6387
vt 0.9658 0.6395
vt 0.9672 0.6404
vt 0.9772 0.6405
vt 0.9786 0.6410
vt 0.9546 0.6551
vt 0.9522 0.6407
vt 0.9539 0.6405
vt 0.9555 0.6402
vt 0.9299 0.6919
vt 0.9356 0.6941
vt 0.9374 0.6961
vt 0.9617 0.7327
vt 0.9279 0.6919
vt 0.9570 0.6411
vt 0.9311 0.6804
vt 0.9324 0.6688
vt 0.9165 0.6803
vt 0.9176 0.6902
vt 0.9154 0.6704
vt 0.9182 0.6698
vt 0.9210 0.6692
vt 0.9352 0.6695
vt 0.9379 0.6702
vt 0.9408 0.6709
vt 0.9436 0.6717
vt 0.9238 0.6687
vt 0.9457 0.6616
vt 0.9478 0.6514
vt 0.9500 0.6476
vt 0.9522 0.6438
vt 0.5802 0.5485
vt 0.6036 0.5618
vt 0.6089 0.5598
vt 0.6141 0.5578
vt 0.5922 0.5726
vt 0.5912 0.5765
vt 0.5487 0.5558
vt 0.5478 0.5514
vt 0.5496 0.5601
vt 0.5541 0.5647
vt 0.5254 0.5778
vt 0.5261 0.5638
vt 0.5272 0.5477
vt 0.5313 0.5528
vt 0.5232 0.5427
vt 0.5763 0.5599
vt 0.5767 0.5635
vt 0.5759 0.5564
vt 0.5781 0.5525
vt 0.5846 0.5477
vt 0.5890 0.5470
vt 0.5221 0.5824
vt 0.5188 0.5870
vt 0.5342 0.5732
vt 0.5380 0.5907
vt 0.5462 0.5936
vt 0.5378 0.5717
vt 0.5414 0.5701
vt 0.5504 0.5450
vt 0.5529 0.5386
vt 0.5891 0.5676
vt 0.5298 0.5755
vt 0.7049 0.5504
vt 0.7293 0.5618
vt 0.7346 0.5598
vt 0.7399 0.5578
vt 0.6745 0.5558
vt 0.6736 0.5514
vt 0.6754 0.5601
vt 0.6801 0.5647
vt 0.6512 0.5778
vt 0.6519 0.5638
vt 0.6530 0.5479
vt 0.6571 0.5528
vt 0.6489 0.5429
vt 0.7021 0.5591
vt 0.6994 0.5678
vt 0.7099 0.5487
vt 0.7148 0.5470
vt 0.6479 0.5824
vt 0.6445 0.5870
vt 0.6600 0.5732
vt 0.6639 0.5907
vt 0.6720 0.5936
vt 0.6636 0.5717
vt 0.6672 0.5701
vt 0.6761 0.5451
vt 0.6787 0.5387
vt 0.7146 0.5689
vt 0.6556 0.5755
vt 0.7293 0.5618
vt 0.7346 0.5598
vt 0.7399 0.5578
vt 0.7185 0.5755
vt 0.7180 0.5819
vt 0.6745 0.5558
vt 0.6736 0.5514
vt 0.6754 0.5601
vt 0.6802 0.5646
vt 0.6532 0.5824
vt 0.6484 0.5495
vt 0.6571 0.5528
vt 0.6397 0.5462
vt 0.7019 0.5597
vt 0.6998 0.5673
vt 0.7040 0.5521
vt 0.7094 0.5495
vt 0.7148 0.5470
vt 0.6566 0.5778
vt 0.6600 0.5732
vt 0.6626 0.5880
vt 0.6720 0.5936
vt 0.6636 0.5717
vt 0.6672 0.5701
vt 0.6694 0.5525
vt 0.6652 0.5537
vt 0.6611 0.5532
vt 0.6761 0.5450
vt 0.6785 0.5385
vt 0.7148 0.5678
vt 0.6948 0.5657
vt 0.6897 0.5641
vn -0.6482 0.6422 0.4092
vn -0.7222 0.3114 0.6176
vn -0.4840 0.2965 0.8233
vn -0.2019 0.6593 0.7243
vn -0.0279 0.9560 0.2922
vn -0.4798 0.6624 0.5754
vn -0.3271 0.9408 0.0889
vn -0.6014 0.7987 -0.0230
vn -0.8650 0.4627 0.1940
vn -0.7519 0.0174 0.6591
vn -0.9477 0.0509 0.3151
vn -0.8550 -0.2834 0.4343
vn 0.5261 0.5798 0.6221
vn 0.1977 0.3253 0.9247
vn 0.5593 0.3485 0.7522
vn 0.9000 0.3754 0.2217
vn 0.9170 0.1955 0.3477
vn 0.9612 0.2653 0.0751
vn 0.9512 0.3045 -0.0498
vn 0.8959 0.4290 0.1153
vn 0.8245 0.5535 -0.1178
vn 0.8800 0.3871 -0.2752
vn 0.6203 0.6555 -0.4308
vn 0.7563 0.6276 0.1845
vn 0.7826 0.4848 0.3905
vn 0.5063 0.8223 0.2599
vn 0.2115 0.6773 0.7046
vn 0.6416 0.7671 0.0025
vn 0.6988 -0.6709 -0.2480
vn 0.8875 -0.4605 0.0174
vn 0.6077 -0.7942 -0.0030
vn 0.3848 -0.9210 0.0616
vn 0.5224 -0.8374 -0.1609
vn 0.3932 -0.7953 -0.4614
vn 0.7154 -0.5534 -0.4266
vn 0.5881 -0.4377 -0.6801
vn 0.2118 -0.6659 -0.7153
vn 0.3221 -0.1534 -0.9342
vn 0.8979 -0.2047 -0.3897
vn 0.9163 -0.3160 -0.2463
vn 0.7973 -0.0689 -0.5996
vn -0.8495 -0.4793 0.2205
vn -0.9511 -0.2880 0.1113
vn -0.8488 -0.5259 -0.0536
vn -0.7176 -0.4930 -0.4919
vn -0.9408 -0.2726 -0.2012
vn -0.6943 -0.1420 -0.7055
vn -0.5790 -0.8027 0.1430
vn -0.4827 -0.8576 -0.1774
vn -0.3546 -0.8842 0.3040
vn -0.0196 -0.9125 0.4087
vn -0.2977 -0.9535 -0.0468
vn 0.0893 -0.9932 0.0748
vn -0.0509 0.6374 -0.7688
vn 0.0012 0.8785 -0.4777
vn 0.1501 0.6742 -0.7232
vn -0.0156 0.4151 -0.9097
vn -0.2727 0.4577 -0.8463
vn 0.0428 0.1160 -0.9923
vn -0.1522 -0.4075 -0.9004
vn -0.3800 -0.2218 -0.8980
vn 0.2539 -0.2459 0.9354
vn 0.5984 -0.2186 0.7708
vn 0.3812 -0.0930 0.9198
vn -0.0652 -0.2254 0.9721
vn 0.1109 -0.5447 0.8313
vn -0.1494 0.1213 0.9813
vn -0.4507 0.1198 0.8846
vn -0.2521 -0.0469 0.9666
vn -0.5765 -0.1478 0.8036
vn 0.8085 0.2994 0.5066
vn -0.7646 -0.6125 0.2007
vn -0.7165 -0.4148 0.5609
vn -0.6851 -0.7107 -0.1598
vn -0.2206 0.7397 -0.6358
vn -0.6154 0.2292 -0.7542
vn -0.9298 0.1582 -0.3325
vn -0.6022 0.5479 -0.5807
vn 0.3163 0.4525 -0.8338
vn 0.5520 0.2370 -0.7994
vn -0.2933 0.1587 -0.9428
vn 0.4451 -0.4703 0.7620
vn 0.0507 -0.0723 0.9961
vn -0.2483 -0.5570 0.7925
vn 0.5394 0.7692 0.3427
vn 0.6981 0.4139 0.5843
vn 0.8805 0.2908 0.3743
vn 0.7503 0.6608 0.0186
vn 0.3756 0.8914 -0.2535
vn 0.6596 0.7227 0.2067
vn 0.2567 0.9641 -0.0675
vn 0.1674 0.9674 0.1902
vn 0.3172 0.6996 0.6402
vn 0.6703 0.1128 0.7334
vn 0.3435 0.2655 0.9008
vn 0.3892 -0.1138 0.9141
vn 0.5613 0.4478 -0.6960
vn 0.8969 0.2368 -0.3735
vn 0.6951 0.2147 -0.6861
vn 0.3978 0.3164 -0.8612
vn 0.2373 0.2069 -0.9492
vn -0.0742 0.1792 -0.9810
vn 0.1176 0.3329 -0.9356
vn 0.3331 0.7337 -0.5923
vn 0.6961 0.5899 -0.4092
vn -0.1194 0.5390 -0.8338
vn -0.3321 0.7165 -0.6134
vn 0.0276 0.7519 -0.6587
vn -0.4953 -0.7812 -0.3801
vn -0.1901 -0.7477 -0.6362
vn -0.2734 -0.9403 -0.2025
vn -0.2184 -0.9738 0.0627
vn -0.3952 -0.9107 -0.1202
vn -0.7967 -0.4152 -0.4392
vn -0.9636 -0.2107 -0.1644
vn -0.8459 0.0023 -0.5334
vn -0.6587 -0.7451 -0.1048
vn -0.6423 -0.5938 -0.4846
vn -0.8107 -0.5848 -0.0296
vn -0.5537 -0.3614 -0.7502
vn -0.4570 -0.5199 -0.7217
vn -0.2004 -0.2352 -0.9511
vn -0.3324 -0.0781 -0.9399
vn 0.0550 0.0602 -0.9967
vn -0.6419 -0.1920 -0.7424
vn -0.2866 -0.2529 0.9241
vn -0.3944 0.0351 0.9183
vn -0.5550 -0.1909 0.8097
vn 0.1766 -0.2426 0.9539
vn 0.0865 -0.0359 0.9956
vn -0.0665 -0.2530 0.9652
vn -0.1176 0.0021 0.9931
vn 0.0125 -0.6081 0.7937
vn -0.3078 -0.6457 0.6988
vn 0.1024 -0.7433 0.6611
vn 0.1462 -0.8824 0.4472
vn -0.2482 -0.7683 0.5900
vn -0.1670 -0.9332 0.3181
vn -0.4473 -0.4773 0.7564
vn -0.8247 0.5450 0.1513
vn -0.5997 0.7927 0.1093
vn -0.6893 0.7182 -0.0950
vn -0.4582 0.8113 -0.3630
vn -0.6632 0.6274 -0.4081
vn -0.9961 0.0576 0.0665
vn -0.9257 -0.3192 0.2028
vn -0.9488 0.0455 0.3124
vn 0.8917 -0.4523 0.0150
vn 0.7530 -0.5341 -0.3843
vn 0.9222 -0.2840 -0.2623
vn 0.8019 -0.0396 -0.5962
vn 0.9580 -0.0100 -0.2867
vn 0.8988 -0.3260 0.2932
vn 0.6514 -0.6981 0.2972
vn 0.9950 0.0262 0.0961
vn 0.9029 0.0910 0.4201
vn 0.9389 -0.1098 0.3261
vn 0.7683 -0.1051 0.6314
vn 0.4987 0.1369 -0.8559
vn 0.3510 -0.0342 -0.9357
vn 0.2493 0.5018 -0.8283
vn 0.0417 -0.3594 -0.9322
vn 0.1396 -0.3871 0.9114
vn 0.4895 -0.2706 0.8290
vn -0.2022 -0.4584 0.8655
vn -0.8816 0.3076 0.3580
vn -0.7680 0.5251 0.3668
vn -0.5447 0.4245 0.7233
vn -0.1842 0.4354 0.8812
vn -0.3987 0.7906 0.4648
vn -0.3280 0.9303 -0.1640
vn -0.1200 0.9021 -0.4145
vn -0.8372 0.5363 -0.1075
vn -0.7826 0.4023 -0.4751
vn -0.5127 0.5083 -0.6919
vn -0.6271 0.2166 -0.7482
vn -0.9248 0.3508 0.1470
vn 0.6241 -0.7786 -0.0656
vn 0.6201 -0.5547 0.5548
vn 0.9787 -0.1980 0.0540
vn 0.6820 0.3266 0.6544
vn 0.9026 0.1536 0.4022
vn 0.7504 0.4314 0.5007
vn 0.2715 0.9530 0.1348
vn -0.0325 0.9861 -0.1630
vn -0.0082 0.9971 0.0750
vn 0.7110 0.6761 -0.1935
vn 0.3758 0.8328 -0.4066
vn 0.4427 0.8950 -0.0556
vn 0.1619 0.9491 -0.2701
vn 0.3071 0.8523 0.4235
vn 0.5181 0.6910 0.5040
vn 0.4335 0.4915 0.7553
vn 0.4856 0.1546 0.8604
vn 0.6472 0.3322 -0.6861
vn 0.8797 0.1494 -0.4515
vn 0.6885 0.0588 -0.7229
vn 0.9283 0.2611 -0.2647
vn 0.4361 0.1100 -0.8931
vn 0.2633 -0.0205 -0.9645
vn -0.0933 -0.0575 -0.9940
vn 0.1249 0.0883 -0.9882
vn 0.4425 0.7230 -0.5305
vn 0.7206 0.5428 -0.4315
vn -0.1638 0.2800 -0.9459
vn -0.4380 0.4858 -0.7564
vn -0.0219 0.4709 -0.8819
vn -0.5609 -0.8097 -0.1728
vn -0.2072 -0.8652 -0.4566
vn -0.3110 -0.9501 0.0260
vn -0.2424 -0.9203 0.3072
vn -0.4482 -0.8869 0.1121
vn -0.8393 -0.4548 -0.2979
vn -0.9724 -0.2158 -0.0885
vn -0.8793 -0.1197 -0.4610
vn -0.7208 -0.6891 0.0746
vn -0.7070 -0.6357 -0.3098
vn -0.8529 -0.5110 0.1065
vn -0.6202 -0.4877 -0.6144
vn -0.5108 -0.6440 -0.5695
vn -0.2309 -0.4322 -0.8717
vn -0.3817 -0.2803 -0.8807
vn 0.0540 -0.1677 -0.9844
vn -0.7020 -0.3317 -0.6302
vn -0.3178 -0.0333 0.9476
vn -0.4473 0.2079 0.8699
vn -0.6067 -0.0108 0.7949
vn 0.2491 0.0130 0.9684
vn 0.1784 0.2170 0.9597
vn -0.0551 -0.0124 0.9984
vn -0.1095 0.2173 0.9700
vn 0.0355 -0.3824 0.9233
vn -0.3404 -0.4391 0.8315
vn 0.1381 -0.5369 0.8323
vn 0.1937 -0.7238 0.6623
vn -0.2719 -0.5788 0.7688
vn -0.1718 -0.8135 0.5556
vn -0.4934 -0.2671 0.8278
vn -0.8493 0.5278 -0.0108
vn -0.6146 0.7703 -0.1699
vn -0.7452 0.6316 -0.2140
vn -0.5393 0.6777 -0.4998
vn -0.7442 0.4496 -0.4939
vn -0.9978 0.0430 0.0506
vn -0.9404 -0.2338 0.2470
vn -0.9626 0.0829 0.2579
vn 0.9354 -0.3352 0.1125
vn 0.8179 -0.5283 -0.2281
vn 0.9352 -0.2963 -0.1938
vn 0.8085 -0.1593 -0.5665
vn 0.9240 -0.0904 -0.3716
vn 0.9267 -0.1916 0.3233
vn 0.7224 -0.5396 0.4323
vn 0.9864 0.0896 0.1381
vn 0.9453 -0.0085 0.3261
vn 0.7913 0.0732 0.6070
vn 0.7735 0.5148 0.3697
vn 0.9316 0.2540 0.2599
vn 0.7992 0.5867 0.1306
vn 0.5306 -0.0586 -0.8456
vn 0.3969 -0.2317 -0.8881
vn 0.2999 0.2485 -0.9210
vn 0.4015 0.5426 -0.7379
vn 0.1152 0.7044 -0.7004
vn -0.2098 0.7163 -0.6655
vn 0.1243 0.8487 -0.5140
vn 0.0509 -0.5538 -0.8311
vn 0.1784 -0.1431 0.9735
vn 0.5624 -0.0356 0.8261
vn -0.2198 -0.2263 0.9489
vn -0.9192 0.3162 0.2349
vn -0.8357 0.5105 0.2023
vn -0.6224 0.5122 0.5919
vn -0.2204 0.6040 0.7659
vn -0.5147 0.8072 0.2890
vn -0.6797 0.7307 -0.0635
vn -0.4463 0.8414 -0.3047
vn -0.1839 0.8579 -0.4798
vn -0.8870 0.4204 -0.1911
vn -0.8354 0.2262 -0.5009
vn -0.5908 0.2807 -0.7564
vn -0.6884 0.0200 -0.7250
vn -0.9498 0.3072 0.0588
vn 0.7143 -0.6887 0.1239
vn 0.9867 -0.1625 -0.0066
vn 0.9795 -0.1002 0.1748
vn 0.6817 -0.3592 0.6374
vn 0.5350 0.7753 0.3356
vn 0.1554 0.0925 0.9835
vn -0.4518 0.0798 0.8885
vn -0.4939 0.1098 0.8626
vn 0.1061 0.1111 0.9881
vn -0.9174 0.1214 0.3790
vn -0.9610 0.1475 -0.2340
vn -0.9572 0.1425 -0.2517
vn -0.9235 0.1160 0.3658
vn 0.4594 0.0998 -0.8826
vn 0.8879 0.1223 -0.4434
vn 0.9057 0.1618 -0.3919
vn 0.5027 0.1476 -0.8518
vn -0.6382 0.1548 -0.7541
vn -0.0688 0.1761 -0.9820
vn -0.0598 0.1697 -0.9837
vn -0.6290 0.1526 -0.7623
vn 0.9612 0.1436 0.2356
vn 0.6411 0.1355 0.7554
vn 0.6392 0.1189 0.7598
vn 0.9621 0.1299 0.2396
vn 0.5216 0.1684 -0.8364
vn 0.9139 0.1693 -0.3691
vn 0.9160 0.1564 -0.3695
vn 0.5269 0.1611 -0.8345
vn -0.7035 0.0614 -0.7080
vn -0.1516 0.0868 -0.9846
vn -0.0943 0.1468 -0.9847
vn -0.6611 0.1182 -0.7409
vn 0.1095 0.0867 0.9902
vn 0.6878 0.0805 0.7214
vn 0.6302 0.0136 0.7763
vn 0.0045 0.0333 0.9994
vn 0.9799 0.1183 0.1608
vn 0.7002 0.1174 0.7042
vn 0.6617 0.1389 0.7368
vn 0.9672 0.1430 0.2099
vn -0.8903 0.0568 0.4518
vn -0.9859 0.0602 -0.1561
vn -0.9716 0.1140 -0.2073
vn -0.9091 0.0957 0.4055
vn -0.6666 -0.0599 -0.7430
vn -0.9850 -0.0365 -0.1686
vn -0.8530 -0.4894 -0.1813
vn -0.3628 -0.3352 -0.8695
vn 0.4719 -0.0035 -0.8817
vn -0.0944 -0.0335 -0.9950
vn 0.1861 -0.0119 -0.9825
vn 0.5296 -0.0050 -0.8482
vn -0.0418 -0.0570 0.9975
vn 0.6135 -0.1013 0.7832
vn 0.3518 -0.6180 0.7031
vn -0.3550 -0.3133 0.8808
vn -0.8891 0.0132 0.4576
vn -0.4745 0.0669 0.8777
vn -0.4556 0.0509 0.8888
vn -0.7935 -0.2080 0.5719
vn 0.9821 0.0546 0.1805
vn 0.7220 0.1052 0.6839
vn 0.9871 0.0905 0.1323
vn 0.1340 0.0212 0.9907
vn 0.7565 0.0016 0.6540
vn 0.7685 -0.0664 0.6364
vn 0.2983 -0.0735 0.9516
vn 0.9688 -0.0835 0.2332
vn 0.9337 -0.0348 -0.3564
vn 0.8833 -0.0279 -0.4679
vn 0.9540 -0.2909 0.0730
vn 0.2051 0.5866 -0.7835
vn 0.2186 -0.0676 -0.9735
vn 0.2289 -0.1207 -0.9659
vn 0.4256 0.6278 -0.6517
vn -0.6130 0.1183 -0.7812
vn -0.9600 0.1251 -0.2504
vn -0.9786 0.0909 -0.1845
vn -0.6815 0.0998 -0.7250
vn 0.5721 0.0090 -0.8202
vn 0.0004 0.0655 -0.9979
vn -0.0891 0.0826 -0.9926
vn 0.5763 0.0351 -0.8165
vn -0.8783 0.0457 0.4760
vn -0.5373 0.0331 0.8428
vn -0.3599 0.0012 0.9330
vn -0.8114 0.0536 0.5820
vn -0.6027 -0.5501 0.5781
vn -0.0972 -0.8995 0.4259
vn -0.1190 -0.8274 0.5489
vn -0.5773 -0.4659 0.6706
vn -0.7704 0.0786 -0.6327
vn -0.9967 0.0722 -0.0380
vn -0.9642 0.0687 0.2560
vn -0.9185 -0.0892 -0.3852
vn 0.5134 0.0418 -0.8571
vn -0.1686 0.0743 -0.9829
vn -0.2532 -0.2502 -0.9345
vn 0.5667 -0.1439 -0.8113
vn 0.0772 0.1138 0.9905
vn -0.5189 0.1219 0.8461
vn -0.5327 0.1102 0.8391
vn 0.0680 0.1007 0.9926
vn -0.9050 -0.3747 -0.2016
vn -0.9886 0.0288 0.1478
vn -0.9978 0.0484 0.0452
vn -0.8217 -0.4134 -0.3923
vn -0.6473 0.0415 0.7611
vn -0.1248 -0.0301 0.9917
vn 0.3538 -0.0818 0.9317
vn -0.7497 0.0629 0.6588
vn -0.8509 0.4441 0.2807
vn 0.0279 0.9908 0.1324
vn 0.1455 0.6981 0.7011
vn -0.7331 0.4822 0.4796
vn 0.9845 -0.1042 0.1408
vn 0.8524 -0.0318 -0.5219
vn 0.7794 -0.0287 -0.6259
vn 0.9946 -0.0987 -0.0323
vn -0.0571 -0.6958 -0.7160
vn -0.4257 -0.9023 -0.0684
vn -0.4279 -0.9013 -0.0672
vn -0.1347 -0.7453 -0.6530
vn -0.9284 0.0989 0.3581
vn -0.6028 0.0292 0.7973
vn -0.7710 0.0246 0.6363
vn -0.9127 0.0588 0.4043
vn -0.3735 0.6405 0.6709
vn -0.1547 0.9815 -0.1128
vn 0.3082 0.9509 0.0295
vn -0.0318 0.7081 0.7054
vn -0.5483 -0.5706 0.6113
vn -0.4900 0.0384 0.8709
vn -0.3982 0.0074 0.9173
vn -0.5236 -0.6462 0.5552
vn 0.5578 0.5573 -0.6150
vn 0.2189 -0.1041 -0.9702
vn 0.2065 -0.1467 -0.9674
vn 0.6919 0.4341 -0.5770
vn -0.2696 -0.6785 -0.6833
vn -0.5772 -0.8112 -0.0941
vn -0.7312 -0.6706 -0.1249
vn -0.3934 -0.5968 -0.6994
vn -0.6242 -0.5723 0.5318
vn -0.3552 0.0356 0.9341
vn -0.3877 0.0656 0.9195
vn -0.7479 -0.4459 0.4917
vn 0.1377 0.6485 0.7487
vn 0.5079 0.8563 0.0937
vn 0.6838 0.7147 0.1469
vn 0.2439 0.5779 0.7788
vn 0.7942 0.3425 -0.5020
vn 0.2505 -0.1418 -0.9577
vn 0.4811 0.0083 -0.8766
vn 0.8272 0.3560 -0.4347
vn -0.4774 -0.5164 -0.7110
vn -0.8279 -0.5376 -0.1598
vn -0.8384 -0.5148 -0.1794
vn -0.4699 -0.4963 -0.7300
vn 0.3579 0.5281 0.7701
vn 0.7936 0.5839 0.1710
vn 0.8170 0.5581 0.1447
vn 0.4490 0.5396 0.7122
vn -0.8334 -0.3279 0.4449
vn -0.3747 0.1357 0.9171
vn -0.1624 0.2733 0.9481
vn -0.8420 -0.3014 0.4475
vn 0.5360 -0.8417 0.0648
vn 0.9154 -0.1560 -0.3711
vn 0.8433 -0.4188 -0.3368
vn 0.4069 -0.8944 0.1859
vn 0.9975 0.0198 0.0683
vn 0.8877 0.0268 -0.4596
vn 0.9401 -0.0428 -0.3383
vn 0.9974 -0.0551 0.0457
vn 0.8098 0.4069 -0.4228
vn 0.2685 0.9552 -0.1246
vn 0.0443 0.8633 -0.5027
vn 0.6508 0.3773 -0.6589
vn -0.5646 0.7519 0.3404
vn -0.8333 0.0677 0.5487
vn -0.8151 0.1881 0.5479
vn -0.5823 0.8106 0.0624
vn -0.5315 -0.2652 0.8045
vn -0.0246 -0.7034 0.7104
vn 0.0937 -0.7255 0.6818
vn -0.4922 -0.2624 0.8300
vn -0.6309 0.7729 -0.0673
vn -0.7898 0.3397 0.5108
vn -0.7883 0.3636 0.4963
vn -0.6191 0.7738 -0.1339
vn 0.4984 -0.8173 0.2892
vn 0.8135 -0.4179 -0.4044
vn 0.8062 -0.4054 -0.4310
vn 0.5517 -0.7928 0.2591
vn 0.5478 0.2534 -0.7973
vn -0.0470 0.7436 -0.6670
vn 0.0823 0.6371 -0.7664
vn 0.5534 0.1962 -0.8095
vn 0.3266 0.0676 -0.9427
vn 0.6787 0.2183 -0.7012
vn -0.3002 0.4621 -0.8344
vn -0.3427 0.1428 -0.9285
vn -0.8576 0.1753 -0.4836
vn -0.9692 0.1247 0.2125
vn -0.9887 0.1366 0.0612
vn -0.8026 0.1573 -0.5754
vn 0.9241 0.3510 -0.1508
vn 0.9332 -0.1011 -0.3448
vn 0.9478 -0.1524 -0.2801
vn 0.9206 0.3158 0.2296
vn 0.6597 -0.4729 -0.5841
vn -0.2095 -0.6996 -0.6831
vn -0.1798 -0.6886 -0.7025
vn 0.5645 -0.5425 -0.6221
vn -0.7145 0.4407 0.5434
vn 0.1696 0.5654 0.8072
vn 0.1846 0.5452 0.8177
vn -0.7032 0.4378 0.5602
vn 0.5582 -0.4713 -0.6829
vn -0.1600 -0.5308 -0.8322
vn -0.1400 -0.5076 -0.8501
vn 0.5855 -0.4516 -0.6732
vn 0.9156 0.2026 0.3474
vn 0.9655 -0.1644 -0.2021
vn 0.9779 -0.1450 -0.1504
vn 0.9128 0.1865 0.3633
vn -0.7944 -0.2893 -0.5341
vn -0.9930 0.1144 0.0294
vn -0.9852 0.1526 0.0779
vn -0.8008 -0.2602 -0.5395
vn -0.3336 0.1278 -0.9340
vn -0.9467 0.3087 -0.0920
vn 0.2351 0.0596 -0.9701
vn 0.7071 0.5010 0.4990
vn -0.3515 0.3681 0.8608
vn 0.9668 0.1918 -0.1687
vn -0.7892 0.3225 0.5226
vn -0.8240 0.4956 -0.2747
vn 0.7053 -0.1021 0.7016
vn 0.9305 -0.0079 -0.3662
vn -0.2639 0.3343 -0.9048
vn 0.9674 -0.0038 0.2532
vn 0.9010 0.0263 -0.4330
vn 0.8772 0.0741 -0.4743
vn -0.9924 0.0318 -0.1190
vn -0.8758 0.0479 0.4802
vn -0.4222 0.0798 0.9030
vn 0.4319 0.0422 -0.9009
vn -0.1906 0.0266 -0.9813
vn -0.7290 0.0162 -0.6843
vn 0.1838 0.0941 0.9785
vn -0.3623 0.9318 0.0192
vn 0.8242 -0.0848 0.5599
vn 0.5191 -0.2343 0.8220
vn 0.9990 0.0447 0.0041
vn 0.9795 -0.0178 -0.2006
vn 0.3307 -0.8878 -0.3201
vn 0.4582 -0.6148 -0.6419
vn 0.1728 -0.9819 0.0774
vn 0.1733 -0.8848 0.4326
vn -0.8649 0.0956 0.4928
vn -0.9645 0.1427 -0.2222
vn -0.3334 0.0890 -0.9386
vn -0.4951 -0.1569 -0.8545
vn -0.0992 0.9230 -0.3719
vn 0.1209 0.8866 -0.4464
vn -0.3156 0.9157 -0.2488
vn -0.3652 0.9176 -0.1573
vn -0.0491 0.9161 0.3980
vn 0.1609 0.5951 0.7873
vn -0.7849 0.2590 0.5629
vn -0.6988 -0.4597 0.5480
vn -0.6039 -0.6186 0.5027
vn -0.4555 -0.7620 0.4602
vn 0.7385 -0.3177 -0.5947
vn 0.9443 0.3262 -0.0440
vn -0.8117 -0.1786 0.5562
vn -0.1682 0.9788 0.1170
vn 0.7846 -0.2604 0.5626
vn 0.4519 -0.4617 0.7633
vn 0.2717 -0.8095 -0.5205
vn 0.3977 -0.4812 -0.7812
vn 0.1289 -0.9774 -0.1675
vn 0.1275 -0.9741 0.1869
vn -0.8286 -0.0019 0.5599
vn -0.9461 0.2470 -0.2097
vn -0.2842 0.3307 -0.8999
vn -0.4390 0.0477 -0.8972
vn 0.0206 0.9844 -0.1750
vn 0.1226 0.9172 -0.3792
vn 0.0036 0.8194 0.5732
vn 0.0691 0.3742 0.9248
vn -0.7277 0.1733 0.6637
vn -0.6523 -0.6253 0.4284
vn -0.5503 -0.7662 0.3317
vn -0.4194 -0.8704 0.2580
vn 0.6937 -0.2118 -0.6884
vn 0.9564 0.2850 0.0635
vn -0.7784 -0.3268 0.5360
vn -0.4194 -0.2692 0.8670
vn -0.5761 -0.5850 0.5708
vn 0.2031 0.1233 0.9714
vn 0.5519 0.1317 0.8235
vn 0.8031 -0.4280 0.4145
vn 0.8888 -0.1248 0.4410
vn 0.5746 -0.7340 0.3620
vn 0.2915 -0.8588 0.4212
vn 0.6497 0.4481 -0.6140
vn 0.8745 0.2199 -0.4323
vn 0.3970 0.6508 -0.6471
vn -0.2122 0.9428 -0.2569
vn 0.2269 0.9726 -0.0505
vn -0.4951 0.7833 -0.3759
vn -0.8319 0.5343 -0.1500
vn -0.9942 0.1034 0.0300
vn -0.5059 -0.6431 -0.5749
vn -0.2301 -0.8068 -0.5442
vn -0.0505 -0.9316 -0.3600
vn 0.1050 -0.9778 -0.1815
vn 0.9883 -0.0405 0.1472
vn 0.9957 0.0230 -0.0896
vn 0.9613 0.1348 -0.2404
vn 0.7345 0.0259 0.6782
vn -0.1922 0.3284 0.9248
vn 0.3013 0.8788 -0.3700
usemtl None
s 1
f 1/1/1 214/2/2 265/3/3
f 4/4/4 471/5/5 314/6/6
f 1/1/1 364/7/7 411/8/8
f 1/1/1 462/9/9 214/2/2
f 2/10/10 548/11/11 407/12/12
f 1/1/1 411/8/8 462/9/9
f 9/13/13 361/14/14 208/15/15
f 11/16/16 501/17/17 547/18/18
f 11/16/16 199/19/19 242/20/20
f 15/21/21 551/22/22 313/23/23
f 11/24/16 239/25/24 259/26/25
f 9/13/13 546/27/26 258/28/27
f 15/29/21 313/30/23 455/31/28
f 17/32/29 252/33/30 203/34/31
f 17/32/29 251/35/32 299/36/33
f 17/32/29 357/37/34 400/38/35
f 22/39/36 406/40/37 539/41/38
f 17/32/29 465/42/39 544/43/40
f 22/39/36 539/41/38 476/44/41
f 8/45/42 316/46/43 178/47/44
f 24/48/45 285/49/46 250/50/47
f 26/51/48 181/52/49 390/53/50
f 19/54/51 538/55/52 499/56/53
f 27/57/54 216/58/55 523/59/56
f 27/60/54 523/61/56 436/62/57
f 27/60/54 436/62/57 254/63/58
f 23/64/59 456/65/60 301/66/61
f 28/67/62 388/68/63 177/69/64
f 28/70/62 461/71/65 488/72/66
f 3/73/67 369/74/68 512/75/69
f 2/10/10 407/12/12 218/76/70
f 1/1/1 265/3/3 314/6/6
f 11/24/16 259/26/25 363/77/71
f 9/13/13 258/28/27 361/14/14
f 11/16/16 363/78/71 501/17/17
f 11/16/16 547/18/18 199/19/19
f 11/24/16 242/79/20 239/25/24
f 17/32/29 544/43/40 252/33/30
f 17/32/29 203/34/31 251/35/32
f 17/32/29 299/36/33 357/37/34
f 17/32/29 400/38/35 465/42/39
f 8/45/42 469/80/72 423/81/73
f 26/51/48 469/82/72 480/83/74
f 26/51/48 480/83/74 181/52/49
f 27/57/54 254/84/58 321/85/75
f 25/86/76 345/87/77 435/88/78
f 27/57/54 321/85/75 216/58/55
f 23/64/59 327/89/79 515/90/80
f 25/91/76 358/92/81 250/93/47
f 28/67/62 488/94/66 180/95/82
f 28/67/62 180/95/82 388/68/63
f 28/70/62 177/96/64 474/97/83
f 19/98/51 530/99/84 390/100/50
f 28/70/62 474/97/83 461/71/65
f 30/101/85 545/102/86 405/103/87
f 33/104/88 494/105/89 457/106/90
f 30/101/85 417/107/91 270/108/92
f 30/101/85 312/109/93 545/102/86
f 31/110/94 421/111/95 470/112/96
f 30/101/85 270/108/92 312/109/93
f 38/113/97 422/114/98 532/115/99
f 38/116/97 532/117/99 487/118/100
f 40/119/101 238/120/102 165/121/103
f 38/113/97 186/122/104 288/123/105
f 42/124/106 350/125/107 383/126/108
f 44/127/109 445/128/110 380/129/111
f 44/127/109 341/130/112 282/131/113
f 49/132/114 496/133/115 240/134/116
f 44/127/109 460/135/117 233/136/118
f 49/132/114 196/137/119 496/133/115
f 44/127/109 185/138/120 410/139/121
f 53/140/122 300/141/123 413/142/124
f 49/132/114 240/134/116 522/143/125
f 54/144/126 535/145/127 490/146/128
f 37/147/129 449/148/130 269/149/131
f 54/150/126 360/151/132 535/152/127
f 57/153/133 237/154/134 303/155/135
f 47/156/136 356/157/137 191/158/138
f 54/144/126 490/146/128 389/159/139
f 58/160/140 245/161/141 271/162/142
f 43/163/143 350/164/107 404/165/144
f 50/166/145 296/167/146 486/168/147
f 59/169/148 211/170/149 393/171/150
f 39/172/151 272/173/152 393/174/150
f 59/175/148 401/176/153 412/177/154
f 32/178/155 309/179/156 543/180/157
f 31/110/94 470/112/96 464/181/158
f 30/101/85 405/103/87 457/106/90
f 38/113/97 288/123/105 422/114/98
f 40/119/101 194/182/159 429/183/160
f 38/116/97 487/118/100 375/184/161
f 38/113/97 375/185/161 186/122/104
f 44/127/109 410/139/121 445/128/110
f 53/140/122 413/142/124 297/186/162
f 44/127/109 380/129/111 341/130/112
f 44/127/109 282/131/113 460/135/117
f 44/127/109 233/136/118 185/138/120
f 37/147/129 505/187/163 534/188/164
f 57/153/133 505/189/163 447/190/165
f 57/153/133 447/190/165 237/154/134
f 58/191/140 168/192/166 276/193/167
f 55/194/168 308/195/169 205/196/170
f 43/197/143 430/198/171 342/199/172
f 58/191/140 271/200/142 281/201/173
f 51/202/174 307/203/175 206/204/176
f 58/191/140 281/201/173 387/205/177
f 58/191/140 387/205/177 168/192/166
f 59/169/148 412/206/154 318/207/178
f 59/169/148 318/207/178 211/170/149
f 47/208/136 368/209/179 303/210/135
f 59/175/148 498/211/180 401/176/153
f 58/160/140 276/212/167 245/161/141
f 61/213/181 298/214/182 454/215/183
f 64/216/184 244/217/185 201/218/186
f 67/219/187 477/220/188 542/221/189
f 64/216/184 500/222/190 244/217/185
f 64/216/184 466/223/191 399/224/192
f 61/213/181 541/225/193 320/226/194
f 64/216/184 201/218/186 466/223/191
f 71/227/195 275/228/196 331/229/197
f 71/227/195 163/230/198 275/228/196
f 71/231/195 331/232/197 540/233/199
f 74/234/200 330/235/201 370/236/202
f 71/227/195 319/237/203 420/238/204
f 76/239/205 220/240/206 264/241/207
f 79/242/208 273/243/209 326/244/210
f 79/242/208 519/245/211 170/246/212
f 84/247/213 215/248/214 253/249/215
f 79/242/208 384/250/216 434/251/217
f 84/247/213 305/252/218 215/248/214
f 79/242/208 415/253/219 236/254/220
f 88/255/221 230/256/222 521/257/223
f 84/247/213 253/249/215 444/258/224
f 89/259/225 372/260/226 425/261/227
f 70/262/228 171/263/229 193/264/230
f 89/265/225 489/266/231 372/267/226
f 92/268/232 452/269/233 353/270/234
f 82/271/235 503/272/236 322/273/237
f 89/259/225 425/261/227 317/274/238
f 93/275/239 278/276/240 290/277/241
f 77/278/242 220/279/206 529/280/243
f 85/281/244 213/282/245 395/283/246
f 94/284/247 234/285/248 533/286/249
f 73/287/250 427/288/251 533/289/249
f 94/290/247 511/291/252 448/292/253
f 62/293/254 298/214/182 207/294/255
f 61/213/181 320/226/194 304/295/256
f 63/296/257 537/297/258 248/298/259
f 71/227/195 420/238/204 163/230/198
f 74/234/200 374/299/260 552/300/261
f 71/231/195 540/233/199 463/301/262
f 71/227/195 463/302/262 365/303/263
f 71/227/195 365/303/263 319/237/203
f 78/304/264 167/305/265 247/306/266
f 79/242/208 236/254/220 273/243/209
f 88/255/221 521/257/223 336/307/267
f 79/242/208 326/244/210 519/245/211
f 79/242/208 170/246/212 384/250/216
f 79/242/208 434/251/217 415/253/219
f 70/262/228 333/308/268 483/309/269
f 92/268/232 333/310/268 268/311/270
f 92/268/232 268/311/270 452/269/233
f 93/312/239 509/313/271 419/314/272
f 90/315/273 337/316/274 232/317/275
f 93/275/239 382/318/276 278/276/240
f 77/319/242 306/320/277 212/321/278
f 93/312/239 290/322/241 394/323/279
f 86/324/280 222/325/281 339/326/282
f 93/312/239 394/323/279 295/327/283
f 93/312/239 295/327/283 509/313/271
f 94/284/247 448/328/253 536/329/284
f 94/284/247 536/329/284 234/285/248
f 94/290/247 229/330/285 255/331/286
f 82/332/235 493/333/287 353/334/234
f 94/290/247 255/331/286 511/291/252
f 93/275/239 419/335/272 382/318/276
f 64/216/184 200/336/288 542/221/189
f 64/216/184 399/224/192 200/336/288
f 610/337/289 482/338/290 98/339/291 346/340/292
f 609/341/293 227/342/294 101/343/295 280/344/296
f 608/345/297 433/346/298 105/347/299 478/348/300
f 607/349/301 338/350/302 107/351/303 414/352/304
f 606/353/305 164/354/306 108/355/307 223/356/308
f 605/357/309 329/358/310 109/359/311 517/360/312
f 604/361/313 261/362/314 106/363/315 367/364/316
f 603/365/317 246/366/318 111/367/319 379/368/320
f 602/369/321 442/370/322 99/371/323 332/372/324
f 601/373/325 550/374/326 100/375/327 277/376/328
f 600/377/329 221/378/330 113/379/331 485/380/332
f 599/381/333 241/382/334 114/383/335 348/384/336
f 598/385/337 528/386/338 116/387/339 231/388/340
f 597/389/341 549/390/342 112/391/343 441/392/344
f 596/393/345 246/366/318 96/394/346 294/395/347
f 595/396/348 526/397/349 119/398/350 386/399/351
f 594/400/352 335/401/353 121/402/354 431/403/355
f 593/404/356 328/405/357 123/406/358 187/407/359
f 592/408/360 439/409/361 125/410/362 287/411/363
f 591/412/364 366/413/365 126/414/366 279/415/367
f 590/416/368 174/417/369 120/418/370 325/419/371
f 589/420/372 267/421/373 128/422/374 391/423/375
f 588/424/376 235/425/377 127/426/378 292/427/379
f 587/428/380 192/429/381 130/430/382 289/431/383
f 586/432/384 377/433/385 102/434/386 256/435/387
f 585/436/388 195/437/389 132/438/390 392/439/391
f 584/440/392 210/441/393 134/442/394 484/443/395
f 120/418/370 386/399/351 210/441/393
f 583/444/396 179/445/397 137/446/398 173/447/399
f 582/448/400 324/449/401 138/450/402 217/451/403
f 581/452/404 459/453/405 139/454/406 262/455/407
f 580/456/408 189/457/409 117/458/410 315/459/411
f 579/460/412 283/461/413 124/462/414 506/463/415
f 578/464/416 527/465/417 140/466/418 438/467/419
f 577/468/420 161/469/421 141/470/422 347/471/423
f 576/472/424 169/473/425 143/474/426 385/475/427
f 575/476/428 520/477/429 144/478/430 226/479/431
f 574/480/432 204/481/433 142/482/434 340/483/435
f 573/484/436 479/485/437 145/486/438 524/487/439
f 572/488/440 344/489/441 147/490/442 172/491/443
f 571/492/444 188/493/445 146/494/446 518/495/447
f 570/496/448 286/497/449 148/498/450 437/499/451
f 569/500/452 373/501/453 149/502/454 424/503/455
f 568/504/456 451/505/457 131/506/458 243/507/459
f 567/508/460 443/509/461 150/510/462 334/511/463
f 566/512/464 510/513/465 129/514/466 302/515/467
f 565/516/468 513/517/469 151/518/470 228/519/471
f 564/520/472 402/521/473 152/522/474 176/523/475
f 563/524/476 502/525/477 154/526/478 310/527/479
f 562/528/480 376/529/481 153/530/482 525/531/483
f 561/532/484 224/533/485 136/534/486 446/535/487
f 560/536/488 450/537/489 135/538/490 349/539/491
f 559/540/492 397/541/493 156/542/494 209/543/495
f 558/544/496 184/545/497 133/546/498 183/547/499
f 557/548/500 260/549/501 157/550/502 343/551/503
f 556/552/504 352/553/505 159/554/506 219/555/507
f 555/556/508 516/557/509 160/558/510 432/559/511
f 554/560/512 182/561/513 158/562/514 481/563/515
f 352/553/505 554/560/512 481/563/515 159/554/506
f 133/546/498 392/439/391 554/560/512 352/553/505
f 392/439/391 132/438/390 182/561/513 554/560/512
f 260/549/501 555/556/508 432/559/511 157/550/502
f 137/446/398 209/543/495 555/556/508 260/549/501
f 209/543/495 156/542/494 516/557/509 555/556/508
f 516/557/509 556/552/504 219/555/507 160/558/510
f 156/542/494 183/547/499 556/552/504 516/557/509
f 183/547/499 133/546/498 352/553/505 556/552/504
f 182/561/513 557/548/500 343/551/503 158/562/514
f 132/438/390 173/447/399 557/548/500 182/561/513
f 173/447/399 137/446/398 260/549/501 557/548/500
f 397/541/493 558/544/496 183/547/499 156/542/494
f 131/506/458 289/431/383 558/544/496 397/541/493
f 289/431/383 130/430/382 184/545/497 558/544/496
f 179/445/397 559/540/492 209/543/495 137/446/398
f 136/534/486 224/533/485 559/540/492 179/445/397
f 224/533/485 131/506/458 397/541/493 559/540/492
f 446/535/487 560/536/488 349/539/491 155/564/516
f 136/534/486 403/565/517 560/536/488 446/535/487
f 403/565/517 127/426/378 450/537/489 560/536/488
f 266/566/518 561/532/484 446/535/487 155/564/516
f 138/450/402 324/449/401 561/532/484 266/566/518
f 324/449/401 131/506/458 224/533/485 561/532/484
f 502/525/477 562/528/480 525/531/483 154/526/478
f 149/502/454 334/511/463 562/528/480 502/525/477
f 334/511/463 150/510/462 376/529/481 562/528/480
f 513/567/469 563/524/476 310/527/479 151/568/470
f 128/569/374 424/503/455 563/524/476 513/567/469
f 424/503/455 149/502/454 502/525/477 563/524/476
f 376/529/481 564/520/472 176/523/475 153/530/482
f 150/510/462 302/515/467 564/520/472 376/529/481
f 302/515/467 129/514/466 402/521/473 564/520/472
f 402/521/473 565/516/468 228/519/471 152/522/474
f 129/514/466 391/423/375 565/516/468 402/521/473
f 391/423/375 128/422/374 513/517/469 565/516/468
f 443/509/461 566/512/464 302/515/467 150/510/462
f 118/570/519 284/571/520 566/512/464 443/509/461
f 284/571/520 117/572/410 510/513/465 566/512/464
f 373/501/453 567/508/460 334/511/463 149/502/454
f 121/573/354 225/574/521 567/508/460 373/501/453
f 225/574/521 118/570/519 443/509/461 567/508/460
f 526/397/349 568/504/456 243/507/459 119/398/350
f 118/575/519 225/576/521 568/504/456 526/397/349
f 225/576/521 121/577/354 451/505/457 568/504/456
f 267/578/373 569/500/452 424/503/455 128/569/374
f 116/579/339 431/580/355 569/500/452 267/578/373
f 431/580/355 121/573/354 373/501/453 569/500/452
f 344/581/441 570/496/448 437/499/451 147/582/442
f 143/583/426 226/479/431 570/496/448 344/581/441
f 226/479/431 144/478/430 286/497/449 570/496/448
f 286/497/449 571/492/444 518/495/447 148/498/450
f 144/478/430 340/483/435 571/492/444 286/497/449
f 340/483/435 142/482/434 188/493/445 571/492/444
f 479/485/437 572/488/440 172/491/443 145/486/438
f 141/470/422 385/475/427 572/488/440 479/485/437
f 385/475/427 143/474/426 344/489/441 572/488/440
f 188/493/445 573/484/436 524/487/439 146/494/446
f 142/482/434 347/471/423 573/484/436 188/493/445
f 347/471/423 141/470/422 479/485/437 573/484/436
f 520/477/429 574/480/432 340/483/435 144/478/430
f 140/466/418 506/463/415 574/480/432 520/477/429
f 506/463/415 124/462/414 204/481/433 574/480/432
f 169/584/425 575/476/428 226/479/431 143/583/426
f 139/585/406 438/467/419 575/476/428 169/584/425
f 438/467/419 140/466/418 520/477/429 575/476/428
f 161/469/421 576/472/424 385/475/427 141/470/422
f 123/406/358 262/455/407 576/472/424 161/469/421
f 262/455/407 139/454/406 169/473/425 576/472/424
f 204/481/433 577/468/420 347/471/423 142/482/434
f 124/462/414 187/407/359 577/468/420 204/481/433
f 187/407/359 123/406/358 161/469/421 577/468/420
f 459/586/405 578/464/416 438/467/419 139/585/406
f 113/587/331 441/588/344 578/464/416 459/586/405
f 441/588/344 112/589/343 527/465/417 578/464/416
f 527/465/417 579/460/412 506/463/415 140/466/418
f 112/589/343 355/590/522 579/460/412 527/465/417
f 355/590/522 122/591/523 283/461/413 579/460/412
f 439/592/361 580/456/408 315/459/411 125/593/362
f 122/594/523 355/595/522 580/456/408 439/592/361
f 355/595/522 112/391/343 189/457/409 580/456/408
f 328/405/357 581/452/404 262/455/407 123/406/358
f 114/596/335 485/597/332 581/452/404 328/405/357
f 485/597/332 113/598/331 459/453/405 581/452/404
f 508/599/524 582/448/400 217/451/403 134/442/394
f 119/398/350 243/507/459 582/448/400 508/599/524
f 243/507/459 131/506/458 324/449/401 582/448/400
f 195/437/389 583/444/396 173/447/399 132/438/390
f 127/426/378 403/565/517 583/444/396 195/437/389
f 403/565/517 136/534/486 179/445/397 583/444/396
f 210/441/393 508/599/524 134/442/394
f 210/441/393 386/399/351 508/599/524
f 386/399/351 119/398/350 508/599/524
f 450/600/489 584/440/392 484/443/395 135/601/490
f 127/602/378 325/419/371 584/440/392 450/600/489
f 325/419/371 120/418/370 210/441/393 584/440/392
f 184/545/497 585/436/388 392/439/391 133/546/498
f 130/430/382 292/427/379 585/436/388 184/545/497
f 292/427/379 127/426/378 195/437/389 585/436/388
f 164/354/306 586/432/384 256/435/387 108/355/307
f 99/371/323 346/340/292 586/432/384 164/354/306
f 346/340/292 98/339/291 377/433/385 586/432/384
f 451/505/457 587/428/380 289/431/383 131/506/458
f 121/577/354 279/603/367 587/428/380 451/505/457
f 279/603/367 126/604/366 192/429/381 587/428/380
f 192/429/381 588/424/376 292/427/379 130/430/382
f 126/604/366 287/605/363 588/424/376 192/429/381
f 287/605/363 125/606/362 235/425/377 588/424/376
f 510/513/465 589/420/372 391/423/375 129/514/466
f 117/572/410 231/607/340 589/420/372 510/513/465
f 231/607/340 116/608/339 267/421/373 589/420/372
f 235/609/377 590/416/368 325/419/371 127/602/378
f 125/610/362 315/611/411 590/416/368 235/609/377
f 315/611/411 117/612/410 174/417/369 590/416/368
f 335/401/353 591/412/364 279/415/367 121/402/354
f 115/613/525 348/384/336 591/412/364 335/401/353
f 348/384/336 114/383/335 366/413/365 591/412/364
f 366/413/365 592/408/360 287/411/363 126/414/366
f 114/383/335 166/614/526 592/408/360 366/413/365
f 166/614/526 122/615/523 439/409/361 592/408/360
f 283/461/413 593/404/356 187/407/359 124/462/414
f 122/591/523 166/616/526 593/404/356 283/461/413
f 166/616/526 114/596/335 328/405/357 593/404/356
f 528/386/338 594/400/352 431/403/355 116/387/339
f 111/367/319 175/617/527 594/400/352 528/386/338
f 175/617/527 115/613/525 335/401/353 594/400/352
f 174/417/369 595/396/348 386/399/351 120/418/370
f 117/612/410 284/618/520 595/396/348 174/417/369
f 284/618/520 118/575/519 526/397/349 595/396/348
f 492/619/528 596/393/345 294/395/347 104/620/529
f 115/613/525 175/617/527 596/393/345 492/619/528
f 175/617/527 111/367/319 246/366/318 596/393/345
f 221/621/330 597/389/341 441/392/344 113/622/331
f 110/623/530 263/624/531 597/389/341 221/621/330
f 263/624/531 97/625/532 549/390/342 597/389/341
f 189/457/409 598/385/337 231/388/340 117/458/410
f 112/391/343 379/368/320 598/385/337 189/457/409
f 379/368/320 111/367/319 528/386/338 598/385/337
f 492/619/528 599/381/333 348/384/336 115/613/525
f 104/620/529 381/626/533 599/381/333 492/619/528
f 381/626/533 103/627/534 241/382/334 599/381/333
f 241/382/334 600/377/329 485/380/332 114/383/335
f 103/627/534 472/628/535 600/377/329 241/382/334
f 472/628/535 110/629/530 221/378/330 600/377/329
f 482/338/290 601/373/325 277/376/328 98/339/291
f 97/625/532 263/624/531 601/373/325 482/338/290
f 263/624/531 110/623/530 550/374/326 601/373/325
f 433/346/298 602/369/321 332/372/324 105/347/299
f 104/620/529 294/395/347 602/369/321 433/346/298
f 294/395/347 96/394/346 442/370/322 602/369/321
f 549/390/342 603/365/317 379/368/320 112/391/343
f 97/625/532 440/630/536 603/365/317 549/390/342
f 440/630/536 96/394/346 246/366/318 603/365/317
f 550/631/326 604/361/313 367/364/316 100/632/327
f 110/629/530 472/628/535 604/361/313 550/631/326
f 472/628/535 103/627/534 261/362/314 604/361/313
f 338/350/302 605/357/309 517/360/312 107/351/303
f 106/363/315 478/348/300 605/357/309 338/350/302
f 478/348/300 105/347/299 329/358/310 605/357/309
f 329/358/310 606/353/305 223/356/308 109/359/311
f 105/347/299 332/372/324 606/353/305 329/358/310
f 332/372/324 99/371/323 164/354/306 606/353/305
f 227/633/294 607/349/301 414/352/304 101/634/295
f 100/632/327 367/364/316 607/349/301 227/633/294
f 367/364/316 106/363/315 338/350/302 607/349/301
f 261/362/314 608/345/297 478/348/300 106/363/315
f 103/627/534 381/626/533 608/345/297 261/362/314
f 381/626/533 104/620/529 433/346/298 608/345/297
f 377/433/385 609/341/293 280/344/296 102/434/386
f 98/339/291 277/376/328 609/341/293 377/433/385
f 277/376/328 100/375/327 227/342/294 609/341/293
f 442/370/322 610/337/289 346/340/292 99/371/323
f 96/394/346 440/630/536 610/337/289 442/370/322
f 440/630/536 97/625/532 482/338/290 610/337/289
f 200/336/288 454/215/183 63/296/257
f 200/336/288 399/224/192 454/215/183
f 399/224/192 61/213/181 454/215/183
f 542/221/189 248/298/259 67/219/187
f 542/221/189 200/336/288 248/298/259
f 200/336/288 63/296/257 248/298/259
f 382/318/276 232/317/275 66/635/537
f 382/318/276 419/335/272 232/317/275
f 419/335/272 90/315/273 232/317/275
f 511/291/252 207/294/255 95/636/538
f 511/291/252 255/331/286 207/294/255
f 255/331/286 62/293/254 207/294/255
f 353/334/234 311/637/539 92/638/232
f 353/334/234 493/333/287 311/637/539
f 493/333/287 95/636/538 311/637/539
f 255/331/286 504/639/540 62/293/254
f 255/331/286 229/330/285 504/639/540
f 229/330/285 72/640/541 504/639/540
f 234/285/248 426/641/542 80/642/543
f 234/285/248 536/329/284 426/641/542
f 536/329/284 81/643/544 426/641/542
f 536/329/284 371/644/545 81/643/544
f 536/329/284 448/328/253 371/644/545
f 448/328/253 82/271/235 371/644/545
f 509/313/271 395/283/246 91/645/546
f 509/313/271 295/327/283 395/283/246
f 295/327/283 85/281/244 395/283/246
f 295/327/283 162/646/547 85/281/244
f 295/327/283 394/323/279 162/646/547
f 394/323/279 86/324/280 162/646/547
f 339/326/282 473/647/548 75/648/549
f 339/326/282 222/325/281 473/647/548
f 222/325/281 76/649/205 473/647/548
f 394/323/279 529/280/243 86/324/280
f 394/323/279 290/322/241 529/280/243
f 290/322/241 77/278/242 529/280/243
f 212/321/278 274/650/550 68/651/551
f 212/321/278 306/320/277 274/650/550
f 306/320/277 65/652/552 274/650/550
f 278/276/240 378/653/553 65/652/552
f 278/276/240 382/318/276 378/653/553
f 382/318/276 66/635/537 378/653/553
f 232/317/275 428/654/554 66/635/537
f 232/317/275 337/316/274 428/654/554
f 337/316/274 69/655/555 428/654/554
f 419/314/272 323/656/556 90/657/273
f 419/314/272 509/313/271 323/656/556
f 509/313/271 91/645/546 323/656/556
f 452/269/233 317/274/238 87/658/557
f 452/269/233 268/311/270 317/274/238
f 268/311/270 89/259/225 317/274/238
f 268/311/270 193/659/230 89/259/225
f 268/311/270 333/310/268 193/659/230
f 333/310/268 70/660/228 193/659/230
f 483/309/269 311/637/539 95/636/538
f 483/309/269 333/308/268 311/637/539
f 333/308/268 92/638/232 311/637/539
f 415/253/219 444/258/224 75/648/549
f 415/253/219 434/251/217 444/258/224
f 434/251/217 84/247/213 444/258/224
f 384/250/216 408/661/558 87/658/557
f 384/250/216 170/246/212 408/661/558
f 170/246/212 83/662/559 408/661/558
f 519/245/211 371/644/545 82/271/235
f 519/245/211 326/244/210 371/644/545
f 326/244/210 81/643/544 371/644/545
f 336/307/267 552/300/261 80/642/543
f 336/307/267 521/257/223 552/300/261
f 521/257/223 74/234/200 552/300/261
f 273/243/209 336/307/267 80/642/543
f 273/243/209 236/254/220 336/307/267
f 236/254/220 88/255/221 336/307/267
f 247/306/266 212/321/278 68/651/551
f 247/306/266 167/305/265 212/321/278
f 167/305/265 77/319/242 212/321/278
f 319/237/203 247/306/266 68/651/551
f 319/237/203 365/303/263 247/306/266
f 365/303/263 78/304/264 247/306/266
f 365/303/263 264/241/207 78/304/264
f 365/303/263 463/302/262 264/241/207
f 463/302/262 76/239/205 264/241/207
f 463/301/262 370/236/202 76/649/205
f 463/301/262 540/233/199 370/236/202
f 540/233/199 74/234/200 370/236/202
f 552/300/261 468/663/560 80/642/543
f 552/300/261 374/299/260 468/663/560
f 374/299/260 73/664/250 468/663/560
f 163/230/198 362/665/561 62/293/254
f 163/230/198 420/238/204 362/665/561
f 420/238/204 67/219/187 362/665/561
f 248/298/259 362/665/561 67/219/187
f 248/298/259 537/297/258 362/665/561
f 537/297/258 62/293/254 362/665/561
f 304/295/256 483/309/269 95/636/538
f 304/295/256 320/226/194 483/309/269
f 320/226/194 70/262/228 483/309/269
f 207/294/255 304/295/256 95/636/538
f 207/294/255 298/214/182 304/295/256
f 298/214/182 61/213/181 304/295/256
f 448/292/253 493/333/287 82/332/235
f 448/292/253 511/291/252 493/333/287
f 511/291/252 95/636/538 493/333/287
f 533/289/249 229/330/285 94/290/247
f 533/289/249 427/288/251 229/330/285
f 427/288/251 72/640/541 229/330/285
f 533/286/249 468/663/560 73/664/250
f 533/286/249 234/285/248 468/663/560
f 234/285/248 80/642/543 468/663/560
f 395/283/246 190/666/562 91/645/546
f 395/283/246 213/282/245 190/666/562
f 213/282/245 87/658/557 190/666/562
f 529/280/243 222/325/281 86/324/280
f 529/280/243 220/279/206 222/325/281
f 220/279/206 76/649/205 222/325/281
f 290/277/241 306/320/277 77/319/242
f 290/277/241 278/276/240 306/320/277
f 278/276/240 65/652/552 306/320/277
f 317/274/238 190/666/562 87/658/557
f 317/274/238 425/261/227 190/666/562
f 425/261/227 91/645/546 190/666/562
f 322/273/237 408/661/558 83/662/559
f 322/273/237 503/272/236 408/661/558
f 503/272/236 87/658/557 408/661/558
f 353/270/234 503/272/236 82/271/235
f 353/270/234 452/269/233 503/272/236
f 452/269/233 87/658/557 503/272/236
f 372/267/226 337/316/274 90/315/273
f 372/267/226 489/266/231 337/316/274
f 489/266/231 69/655/555 337/316/274
f 193/264/230 489/266/231 89/265/225
f 193/264/230 171/263/229 489/266/231
f 171/263/229 69/655/555 489/266/231
f 425/261/227 323/656/556 91/645/546
f 425/261/227 372/260/226 323/656/556
f 372/260/226 90/657/273 323/656/556
f 444/258/224 339/326/282 75/648/549
f 444/258/224 253/249/215 339/326/282
f 253/249/215 86/324/280 339/326/282
f 521/257/223 330/235/201 74/234/200
f 521/257/223 230/256/222 330/235/201
f 230/256/222 75/648/549 330/235/201
f 236/254/220 230/256/222 88/255/221
f 236/254/220 415/253/219 230/256/222
f 415/253/219 75/648/549 230/256/222
f 215/248/214 213/282/245 85/281/244
f 215/248/214 305/252/218 213/282/245
f 305/252/218 87/658/557 213/282/245
f 434/251/217 305/252/218 84/247/213
f 434/251/217 384/250/216 305/252/218
f 384/250/216 87/658/557 305/252/218
f 253/249/215 162/646/547 86/324/280
f 253/249/215 215/248/214 162/646/547
f 215/248/214 85/281/244 162/646/547
f 170/246/212 322/273/237 83/662/559
f 170/246/212 519/245/211 322/273/237
f 519/245/211 82/271/235 322/273/237
f 326/244/210 426/641/542 81/643/544
f 326/244/210 273/243/209 426/641/542
f 273/243/209 80/642/543 426/641/542
f 264/241/207 167/305/265 78/304/264
f 264/241/207 220/240/206 167/305/265
f 220/240/206 77/319/242 167/305/265
f 420/238/204 477/220/188 67/219/187
f 420/238/204 319/237/203 477/220/188
f 319/237/203 68/651/551 477/220/188
f 370/236/202 473/647/548 76/649/205
f 370/236/202 330/235/201 473/647/548
f 330/235/201 75/648/549 473/647/548
f 540/233/199 374/299/260 74/234/200
f 540/233/199 331/232/197 374/299/260
f 331/232/197 73/664/250 374/299/260
f 275/228/196 504/639/540 72/640/541
f 275/228/196 163/230/198 504/639/540
f 163/230/198 62/293/254 504/639/540
f 331/229/197 427/288/251 73/287/250
f 331/229/197 275/228/196 427/288/251
f 275/228/196 72/640/541 427/288/251
f 466/223/191 428/654/554 69/655/555
f 466/223/191 201/218/186 428/654/554
f 201/218/186 66/635/537 428/654/554
f 320/226/194 171/263/229 70/262/228
f 320/226/194 541/225/193 171/263/229
f 541/225/193 69/655/555 171/263/229
f 399/224/192 541/225/193 61/213/181
f 399/224/192 466/223/191 541/225/193
f 466/223/191 69/655/555 541/225/193
f 244/217/185 274/650/550 65/652/552
f 244/217/185 500/222/190 274/650/550
f 500/222/190 68/651/551 274/650/550
f 542/221/189 500/222/190 64/216/184
f 542/221/189 477/220/188 500/222/190
f 477/220/188 68/651/551 500/222/190
f 201/218/186 378/653/553 66/635/537
f 201/218/186 244/217/185 378/653/553
f 244/217/185 65/652/552 378/653/553
f 454/215/183 537/297/258 63/296/257
f 454/215/183 298/214/182 537/297/258
f 298/214/182 62/293/254 537/297/258
f 245/161/141 205/196/170 35/667/563
f 245/161/141 276/212/167 205/196/170
f 276/212/167 55/194/168 205/196/170
f 401/176/153 543/180/157 60/668/564
f 401/176/153 498/211/180 543/180/157
f 498/211/180 32/178/155 543/180/157
f 303/210/135 197/669/565 57/670/133
f 303/210/135 368/209/179 197/669/565
f 368/209/179 60/668/564 197/669/565
f 211/170/149 293/671/566 45/672/567
f 211/170/149 318/207/178 293/671/566
f 318/207/178 46/673/568 293/671/566
f 318/207/178 531/674/569 46/673/568
f 318/207/178 412/206/154 531/674/569
f 412/206/154 47/156/136 531/674/569
f 168/192/166 486/168/147 56/675/570
f 168/192/166 387/205/177 486/168/147
f 387/205/177 50/166/145 486/168/147
f 387/205/177 354/676/571 50/166/145
f 387/205/177 281/201/173 354/676/571
f 281/201/173 51/202/174 354/676/571
f 206/204/176 491/677/572 41/678/573
f 206/204/176 307/203/175 491/677/572
f 307/203/175 42/679/106 491/677/572
f 281/201/173 404/165/144 51/202/174
f 281/201/173 271/200/142 404/165/144
f 271/200/142 43/163/143 404/165/144
f 342/199/172 351/680/574 34/681/575
f 342/199/172 430/198/171 351/680/574
f 430/198/171 35/667/563 351/680/574
f 205/196/170 396/682/576 35/667/563
f 205/196/170 308/195/169 396/682/576
f 308/195/169 36/683/577 396/682/576
f 276/193/167 198/684/578 55/685/168
f 276/193/167 168/192/166 198/684/578
f 168/192/166 56/675/570 198/684/578
f 237/154/134 389/159/139 52/686/579
f 237/154/134 447/190/165 389/159/139
f 447/190/165 54/144/126 389/159/139
f 447/190/165 269/687/131 54/144/126
f 447/190/165 505/189/163 269/687/131
f 505/189/163 37/688/129 269/687/131
f 534/188/164 197/669/565 60/668/564
f 534/188/164 505/187/163 197/669/565
f 505/187/163 57/670/133 197/669/565
f 185/138/120 522/143/125 41/678/573
f 185/138/120 233/136/118 522/143/125
f 233/136/118 49/132/114 522/143/125
f 460/135/117 453/689/580 52/686/579
f 460/135/117 282/131/113 453/689/580
f 282/131/113 48/690/581 453/689/580
f 341/130/112 531/674/569 47/156/136
f 341/130/112 380/129/111 531/674/569
f 380/129/111 46/673/568 531/674/569
f 297/186/162 429/183/160 45/672/567
f 297/186/162 413/142/124 429/183/160
f 413/142/124 40/119/101 429/183/160
f 445/128/110 297/186/162 45/672/567
f 445/128/110 410/139/121 297/186/162
f 410/139/121 53/140/122 297/186/162
f 186/122/104 383/126/108 34/681/575
f 186/122/104 375/185/161 383/126/108
f 375/185/161 42/124/106 383/126/108
f 375/184/161 165/121/103 42/679/106
f 375/184/161 487/118/100 165/121/103
f 487/118/100 40/119/101 165/121/103
f 429/183/160 514/691/582 45/672/567
f 429/183/160 194/182/159 514/691/582
f 194/182/159 39/692/151 514/691/582
f 422/114/98 257/693/583 32/178/155
f 422/114/98 288/123/105 257/693/583
f 288/123/105 33/104/88 257/693/583
f 457/106/90 257/693/583 33/104/88
f 457/106/90 405/103/87 257/693/583
f 405/103/87 32/178/155 257/693/583
f 464/181/158 534/188/164 60/668/564
f 464/181/158 470/112/96 534/188/164
f 470/112/96 37/147/129 534/188/164
f 543/180/157 464/181/158 60/668/564
f 543/180/157 309/179/156 464/181/158
f 309/179/156 31/110/94 464/181/158
f 412/177/154 368/209/179 47/208/136
f 412/177/154 401/176/153 368/209/179
f 401/176/153 60/668/564 368/209/179
f 393/174/150 498/211/180 59/175/148
f 393/174/150 272/173/152 498/211/180
f 272/173/152 32/178/155 498/211/180
f 393/171/150 514/691/582 39/692/151
f 393/171/150 211/170/149 514/691/582
f 211/170/149 45/672/567 514/691/582
f 486/168/147 291/694/584 56/675/570
f 486/168/147 296/167/146 291/694/584
f 296/167/146 52/686/579 291/694/584
f 404/165/144 307/203/175 51/202/174
f 404/165/144 350/164/107 307/203/175
f 350/164/107 42/679/106 307/203/175
f 271/162/142 430/198/171 43/197/143
f 271/162/142 245/161/141 430/198/171
f 245/161/141 35/667/563 430/198/171
f 389/159/139 291/694/584 52/686/579
f 389/159/139 490/146/128 291/694/584
f 490/146/128 56/675/570 291/694/584
f 191/158/138 453/689/580 48/690/581
f 191/158/138 356/157/137 453/689/580
f 356/157/137 52/686/579 453/689/580
f 303/155/135 356/157/137 47/156/136
f 303/155/135 237/154/134 356/157/137
f 237/154/134 52/686/579 356/157/137
f 535/152/127 308/195/169 55/194/168
f 535/152/127 360/151/132 308/195/169
f 360/151/132 36/683/577 308/195/169
f 269/149/131 360/151/132 54/150/126
f 269/149/131 449/148/130 360/151/132
f 449/148/130 36/683/577 360/151/132
f 490/146/128 198/684/578 56/675/570
f 490/146/128 535/145/127 198/684/578
f 535/145/127 55/685/168 198/684/578
f 522/143/125 206/204/176 41/678/573
f 522/143/125 240/134/116 206/204/176
f 240/134/116 51/202/174 206/204/176
f 413/142/124 238/120/102 40/119/101
f 413/142/124 300/141/123 238/120/102
f 300/141/123 41/678/573 238/120/102
f 410/139/121 300/141/123 53/140/122
f 410/139/121 185/138/120 300/141/123
f 185/138/120 41/678/573 300/141/123
f 496/133/115 296/167/146 50/166/145
f 496/133/115 196/137/119 296/167/146
f 196/137/119 52/686/579 296/167/146
f 233/136/118 196/137/119 49/132/114
f 233/136/118 460/135/117 196/137/119
f 460/135/117 52/686/579 196/137/119
f 240/134/116 354/676/571 51/202/174
f 240/134/116 496/133/115 354/676/571
f 496/133/115 50/166/145 354/676/571
f 282/131/113 191/158/138 48/690/581
f 282/131/113 341/130/112 191/158/138
f 341/130/112 47/156/136 191/158/138
f 380/129/111 293/671/566 46/673/568
f 380/129/111 445/128/110 293/671/566
f 445/128/110 45/672/567 293/671/566
f 383/126/108 342/199/172 34/681/575
f 383/126/108 350/125/107 342/199/172
f 350/125/107 43/197/143 342/199/172
f 288/123/105 494/105/89 33/104/88
f 288/123/105 186/122/104 494/105/89
f 186/122/104 34/681/575 494/105/89
f 165/121/103 491/677/572 42/679/106
f 165/121/103 238/120/102 491/677/572
f 238/120/102 41/678/573 491/677/572
f 487/118/100 194/182/159 40/119/101
f 487/118/100 532/117/99 194/182/159
f 532/117/99 39/692/151 194/182/159
f 532/115/99 272/173/152 39/172/151
f 532/115/99 422/114/98 272/173/152
f 422/114/98 32/178/155 272/173/152
f 312/109/93 396/682/576 36/683/577
f 312/109/93 270/108/92 396/682/576
f 270/108/92 35/667/563 396/682/576
f 470/112/96 449/148/130 37/147/129
f 470/112/96 421/111/95 449/148/130
f 421/111/95 36/683/577 449/148/130
f 545/102/86 421/111/95 31/110/94
f 545/102/86 312/109/93 421/111/95
f 312/109/93 36/683/577 421/111/95
f 270/108/92 351/680/574 35/667/563
f 270/108/92 417/107/91 351/680/574
f 417/107/91 34/681/575 351/680/574
f 457/106/90 417/107/91 30/101/85
f 457/106/90 494/105/89 417/107/91
f 494/105/89 34/681/575 417/107/91
f 405/103/87 309/179/156 32/178/155
f 405/103/87 545/102/86 309/179/156
f 545/102/86 31/110/94 309/179/156
f 461/71/65 512/75/69 29/695/585
f 461/71/65 474/97/83 512/75/69
f 474/97/83 3/73/67 512/75/69
f 390/100/50 249/696/586 26/697/48
f 390/100/50 530/99/84 249/696/586
f 530/99/84 29/695/585 249/696/586
f 474/97/83 398/698/587 3/73/67
f 474/97/83 177/96/64 398/698/587
f 177/96/64 10/699/588 398/698/587
f 388/68/63 475/700/589 12/701/590
f 388/68/63 180/95/82 475/700/589
f 180/95/82 18/702/591 475/700/589
f 180/95/82 359/703/592 18/702/591
f 180/95/82 488/94/66 359/703/592
f 488/94/66 19/54/51 359/703/592
f 250/93/47 301/66/61 24/704/45
f 250/93/47 358/92/81 301/66/61
f 358/92/81 23/64/59 301/66/61
f 515/90/80 409/705/593 14/706/594
f 515/90/80 327/89/79 409/705/593
f 327/89/79 16/707/595 409/705/593
f 216/58/55 418/708/596 5/709/597
f 216/58/55 321/85/75 418/708/596
f 321/85/75 6/710/598 418/708/596
f 435/88/78 553/711/599 6/710/598
f 435/88/78 345/87/77 553/711/599
f 345/87/77 7/712/600 553/711/599
f 321/85/75 435/88/78 6/710/598
f 321/85/75 254/84/58 435/88/78
f 254/84/58 25/86/76 435/88/78
f 181/52/49 497/713/601 21/714/602
f 181/52/49 480/83/74 497/713/601
f 480/83/74 24/704/45 497/713/601
f 480/83/74 178/715/44 24/704/45
f 480/83/74 469/82/72 178/715/44
f 469/82/72 8/716/42 178/715/44
f 423/81/73 249/696/586 29/695/585
f 423/81/73 469/80/72 249/696/586
f 469/80/72 26/697/48 249/696/586
f 465/42/39 476/44/41 14/706/594
f 465/42/39 400/38/35 476/44/41
f 400/38/35 22/39/36 476/44/41
f 357/37/34 458/717/603 21/714/602
f 357/37/34 299/36/33 458/717/603
f 299/36/33 20/718/604 458/717/603
f 251/35/32 359/703/592 19/54/51
f 251/35/32 203/34/31 359/703/592
f 203/34/31 18/702/591 359/703/592
f 252/33/30 467/719/605 12/701/590
f 252/33/30 544/43/40 467/719/605
f 544/43/40 13/720/606 467/719/605
f 239/25/24 455/31/28 5/709/597
f 239/25/24 242/79/20 455/31/28
f 242/79/20 15/29/21 455/31/28
f 199/19/19 416/721/607 14/706/594
f 199/19/19 547/18/18 416/721/607
f 547/18/18 13/720/606 416/721/607
f 501/17/17 202/722/608 12/701/590
f 501/17/17 363/78/71 202/722/608
f 363/78/71 10/723/588 202/722/608
f 361/14/14 507/724/609 3/73/67
f 361/14/14 258/28/27 507/724/609
f 258/28/27 4/4/4 507/724/609
f 363/77/71 208/15/15 10/699/588
f 363/77/71 259/26/25 208/15/15
f 259/26/25 9/13/13 208/15/15
f 314/6/6 507/724/609 4/4/4
f 314/6/6 265/3/3 507/724/609
f 265/3/3 3/73/67 507/724/609
f 218/76/70 423/81/73 29/695/585
f 218/76/70 407/12/12 423/81/73
f 407/12/12 8/45/42 423/81/73
f 512/75/69 218/76/70 29/695/585
f 512/75/69 369/74/68 218/76/70
f 369/74/68 2/10/10 218/76/70
f 488/72/66 530/99/84 19/98/51
f 488/72/66 461/71/65 530/99/84
f 461/71/65 29/695/585 530/99/84
f 177/69/64 202/722/608 10/723/588
f 177/69/64 388/68/63 202/722/608
f 388/68/63 12/701/590 202/722/608
f 301/66/61 497/713/601 24/704/45
f 301/66/61 456/65/60 497/713/601
f 456/65/60 21/714/602 497/713/601
f 254/63/58 358/92/81 25/91/76
f 254/63/58 436/62/57 358/92/81
f 436/62/57 23/64/59 358/92/81
f 436/62/57 327/89/79 23/64/59
f 436/62/57 523/61/56 327/89/79
f 523/61/56 16/707/595 327/89/79
f 523/59/56 495/725/610 16/726/595
f 523/59/56 216/58/55 495/725/610
f 216/58/55 5/709/597 495/725/610
f 499/56/53 458/717/603 20/718/604
f 499/56/53 538/55/52 458/717/603
f 538/55/52 21/714/602 458/717/603
f 390/53/50 538/55/52 19/54/51
f 390/53/50 181/52/49 538/55/52
f 181/52/49 21/714/602 538/55/52
f 250/50/47 345/87/77 25/86/76
f 250/50/47 285/49/46 345/87/77
f 285/49/46 7/712/600 345/87/77
f 178/47/44 285/49/46 24/48/45
f 178/47/44 316/46/43 285/49/46
f 316/46/43 7/712/600 285/49/46
f 476/44/41 515/90/80 14/706/594
f 476/44/41 539/41/38 515/90/80
f 539/41/38 23/64/59 515/90/80
f 544/43/40 416/721/607 13/720/606
f 544/43/40 465/42/39 416/721/607
f 465/42/39 14/706/594 416/721/607
f 539/41/38 456/65/60 23/64/59
f 539/41/38 406/40/37 456/65/60
f 406/40/37 21/714/602 456/65/60
f 400/38/35 406/40/37 22/39/36
f 400/38/35 357/37/34 406/40/37
f 357/37/34 21/714/602 406/40/37
f 299/36/33 499/56/53 20/718/604
f 299/36/33 251/35/32 499/56/53
f 251/35/32 19/54/51 499/56/53
f 203/34/31 475/700/589 18/702/591
f 203/34/31 252/33/30 475/700/589
f 252/33/30 12/701/590 475/700/589
f 455/31/28 495/725/610 5/709/597
f 455/31/28 313/30/23 495/725/610
f 313/30/23 16/726/595 495/725/610
f 258/28/27 471/5/5 4/4/4
f 258/28/27 546/27/26 471/5/5
f 546/27/26 5/709/597 471/5/5
f 259/26/25 546/27/26 9/13/13
f 259/26/25 239/25/24 546/27/26
f 239/25/24 5/709/597 546/27/26
f 313/23/23 409/705/593 16/707/595
f 313/23/23 551/22/22 409/705/593
f 551/22/22 14/706/594 409/705/593
f 242/20/20 551/22/22 15/21/21
f 242/20/20 199/19/19 551/22/22
f 199/19/19 14/706/594 551/22/22
f 547/18/18 467/719/605 13/720/606
f 547/18/18 501/17/17 467/719/605
f 501/17/17 12/701/590 467/719/605
f 208/15/15 398/698/587 10/699/588
f 208/15/15 361/14/14 398/698/587
f 361/14/14 3/73/67 398/698/587
f 462/9/9 553/711/599 7/712/600
f 462/9/9 411/8/8 553/711/599
f 411/8/8 6/710/598 553/711/599
f 407/12/12 316/46/43 8/45/42
f 407/12/12 548/11/11 316/46/43
f 548/11/11 7/712/600 316/46/43
f 214/2/2 548/11/11 2/10/10
f 214/2/2 462/9/9 548/11/11
f 462/9/9 7/712/600 548/11/11
f 411/8/8 418/708/596 6/710/598
f 411/8/8 364/7/7 418/708/596
f 364/7/7 5/709/597 418/708/596
f 314/6/6 364/7/7 1/1/1
f 314/6/6 471/5/5 364/7/7
f 471/5/5 5/709/597 364/7/7
f 265/3/3 369/74/68 3/73/67
f 265/3/3 214/2/2 369/74/68
f 214/2/2 2/10/10 369/74/68
