# Blender v2.78 (sub 0) OBJ File: ''
# www.blender.org
mtllib Oak_Tree_NoLeaves_m_02.mtl
o Oak_Tree_NoLeaves_m_02
v 0.096900 1.193399 -0.005071
v -0.075469 1.200527 0.032476
v -0.101436 0.438337 0.086960
v 0.156804 0.428199 0.062219
v -0.204597 0.445594 -0.151186
v -0.252118 0.047474 -0.182265
v -0.132947 0.046379 0.117994
v -0.046958 1.199633 -0.251686
v 0.114521 1.192847 -0.180693
v 0.213244 0.429189 -0.191217
v -0.010114 0.439939 -0.323109
v -0.003399 0.046631 -0.388422
v 0.189423 0.044858 0.097408
v 0.269488 0.045014 -0.215574
v -0.164565 1.196728 -0.119147
v 0.044813 2.099764 -0.055959
v -0.122885 2.108331 -0.072000
v -0.178994 1.947804 -0.193761
v -0.060464 2.094668 -0.274823
v 0.084324 2.092426 -0.188330
v 0.126703 3.088699 0.003788
v 0.032753 3.243672 0.001472
v 0.133309 3.397908 0.007258
v 0.139646 4.428178 -0.015247
v 0.090906 4.418873 -0.000489
v 0.148344 3.190484 -0.111990
v -0.147419 2.285537 -0.196207
v -0.472524 2.160516 -0.391064
v -0.472094 2.225377 -0.325254
v -0.035408 3.255119 -0.133673
v 0.037316 3.206738 -0.209466
v 0.051635 4.432436 -0.068624
v 0.395110 3.300842 0.511667
v 0.358473 3.344788 0.506904
v 0.066466 4.282962 -0.133782
v 0.130081 4.430085 -0.093761
v -0.007978 4.627684 -0.435640
v 0.011441 4.604295 -0.452970
v 0.255090 5.700071 0.059736
v 0.245796 5.796665 0.054069
v 0.095575 4.613195 -0.099272
v 0.022348 4.668007 -0.430205
v 0.273503 5.795484 0.043513
v 0.257025 5.808904 0.038938
v -0.525136 2.122580 -0.336669
v -0.509337 2.169276 -0.267955
v -1.003523 2.524742 -0.549475
v -0.990772 2.557586 -0.509080
v -1.034162 2.507222 -0.517715
v -1.021307 2.530318 -0.478207
v -1.418212 3.185387 -0.759818
v -1.417712 3.197922 -0.747994
v -1.425551 3.178463 -0.748272
v -1.424282 3.187997 -0.736490
v 0.436161 3.311851 0.473794
v 0.409551 3.379611 0.486914
v 0.811084 3.751251 0.922359
v 0.775843 3.772576 0.904753
v 0.807652 3.801308 0.876784
v 0.844757 3.763060 0.893310
v 0.975387 4.438331 1.087371
v 0.964964 4.435496 1.097646
v 0.961715 4.447761 1.079623
v 0.952670 4.439297 1.090708
v 0.039871 4.627843 -0.446130
v 0.052115 5.169729 -0.791550
v 0.040133 5.159927 -0.800424
v 0.047141 5.152918 -0.807835
v 0.057550 5.158330 -0.802266
v -1.434491 3.204301 -0.761571
v 0.271248 0.044936 -0.048269
v 0.045110 5.175060 -0.816110
v 0.961531 4.465663 1.090742
v 0.418406 3.300779 0.492735
v 0.091994 1.629789 -0.185433
v -1.258763 2.870149 -0.644315
v -1.240958 2.881369 -0.664740
v 0.154093 3.349375 -0.041103
v -0.001410 4.612634 -0.445114
v 0.038190 4.464392 -0.270499
v -0.005955 3.233175 -0.179395
v -0.022188 3.248661 -0.079100
v 0.079689 3.114601 0.018333
v 0.259882 5.839146 0.062714
v 0.130106 3.787120 -0.115871
v 0.280982 3.230469 0.176280
v 0.117615 3.843685 -0.030587
v 0.034251 4.651281 -0.437358
v -0.238088 0.207189 -0.171121
v 0.149537 3.081673 -0.048408
v 0.905156 4.153689 0.997680
v -0.723881 2.358287 -0.410491
v 0.094265 4.292365 -0.128086
v 0.931347 4.131422 1.011202
v -0.045671 2.666555 -0.048267
v -0.155213 0.047052 -0.318657
v -0.776536 2.284827 -0.421830
v 0.071651 2.628643 -0.052364
v 0.035481 2.093033 -0.237616
v 0.787522 3.790054 0.888623
v -0.489516 2.202850 -0.289708
v -0.309009 2.118093 -0.172083
v 0.145584 4.427046 -0.042439
v 0.210203 5.189816 -0.007238
v 0.029771 0.432799 0.098467
v 0.046068 4.294432 -0.113094
v 0.071103 4.424426 -0.018934
v 0.371998 3.320608 0.511859
v 0.113899 0.434306 -0.277719
v -1.020373 2.513182 -0.537794
v 0.058075 3.784658 -0.153946
v 0.034939 4.934083 -0.630689
v -0.169318 1.974694 -0.128989
v 0.127697 0.789021 0.028375
v 0.972397 4.465321 1.089141
v 0.647972 3.508096 0.703049
v 0.252135 3.325416 0.230121
v 0.013890 4.493821 -0.243030
v -0.762770 2.318469 -0.368630
v -0.110759 2.242383 -0.247226
v -1.437470 3.205629 -0.750273
v -0.133360 1.199169 -0.034705
v 0.053675 5.174156 -0.816898
v 0.187165 3.277368 0.248022
v 0.004759 2.645391 -0.244575
v -0.087111 1.635627 -0.013693
v 0.014790 1.196732 0.029066
v 0.381242 3.367766 0.496905
v -1.434267 3.215353 -0.750359
v 0.275969 5.838498 0.056594
v -0.082122 2.721949 -0.163678
v 0.573714 3.528246 0.720925
v 0.427650 3.347937 0.477780
v -1.004509 2.546751 -0.489444
v 0.056171 5.181957 -0.808358
v 0.045137 4.910291 -0.645813
v -0.736539 2.311379 -0.464691
v -0.148142 2.250950 -0.133627
v 0.090782 3.380877 0.022787
v 0.180861 0.197089 0.089290
v -1.234466 2.902485 -0.640294
v 0.075078 4.587523 -0.085951
v 0.244420 3.221734 0.240372
v 0.045402 3.813354 -0.018497
v -1.431288 3.214025 -0.761657
v 0.173595 5.067163 0.028866
v -0.023597 2.105398 -0.041840
v -1.251898 2.885331 -0.620296
v -0.500029 2.136025 -0.370764
v -0.029759 0.799537 -0.281768
v 0.026846 4.896665 -0.651409
v 0.885917 4.135243 1.017802
v 0.030868 0.045619 0.150790
v 0.006022 3.817263 -0.091199
v -0.232700 0.046927 -0.016319
v 0.270612 5.846071 0.044638
v 0.127016 4.522752 0.001192
v 0.121572 1.192439 -0.092018
v -1.031044 2.516550 -0.494723
v -0.181875 0.804878 -0.129800
v 0.253930 0.197689 -0.206845
v 0.116170 4.589034 -0.100344
v 0.013995 4.911280 -0.640672
v 0.181982 5.226023 -0.014206
v 0.909886 4.124281 1.030699
v -0.154524 1.601464 -0.148210
v -0.118083 1.198747 -0.195446
v -0.123066 0.443783 -0.255227
v 0.829759 3.784493 0.881777
v 0.076556 2.095991 -0.117972
v 0.039510 1.196049 -0.231019
v 0.047606 5.182860 -0.807570
v 0.156244 0.045822 -0.338403
v -0.004994 0.203932 -0.367788
v -0.175060 0.442852 -0.022731
v 0.614572 3.559415 0.695042
v 0.832146 3.754043 0.909980
v 0.005284 4.651197 -0.431117
v 0.048810 4.550973 -0.252912
v -0.132522 1.967583 -0.247221
v 0.075731 4.495458 -0.261297
v -0.123223 0.202960 0.111369
v 0.963198 4.460107 1.099554
v 0.087607 3.191334 -0.190984
v 0.789909 3.759604 0.916826
v -0.328476 2.053164 -0.261275
v -0.290428 2.197949 -0.255331
v -0.084561 0.798379 0.061879
v -0.522077 2.141290 -0.296796
v 0.105562 2.621618 -0.174993
v 0.161567 0.789736 -0.184010
v -0.043075 1.628699 -0.257544
v 0.064777 1.634071 -0.034725
v 0.027557 4.612718 -0.451355
v 0.608022 3.495556 0.733729
v -0.993838 2.543383 -0.532515
v -0.467468 2.197584 -0.363675
v -0.257152 2.107121 -0.330676
v 0.192128 5.067838 0.022177
v 0.974063 4.459765 1.097953
v 0.256915 5.846823 0.049899
v 0.159413 5.189122 0.011388
v 0.208357 0.427517 -0.059124
v 0.054858 5.233356 -0.847381
v 0.018394 4.902091 -0.646845
v 0.042065 4.924069 -0.637446
v 0.037183 4.901494 -0.649947
v 0.023276 4.924665 -0.634344
v 0.059606 4.475536 -0.267750
v 0.066014 4.527772 -0.257140
v 0.168170 5.210068 -0.002891
v 0.197370 5.210424 -0.013610
v 0.980138 4.530191 1.110879
v 0.892945 4.146183 1.006376
v 0.895799 4.128440 1.026297
v 0.920354 4.143877 1.002394
v 0.923208 4.126135 1.022315
v 0.635446 3.536014 0.696123
v 0.631495 3.497487 0.719464
v 0.590645 3.548170 0.706909
v 0.586694 3.509643 0.730249
v 0.215202 3.309170 0.242248
v 0.271804 3.280876 0.198965
v 0.130851 3.817337 -0.071931
v 0.267149 3.218323 0.205150
v -1.473197 3.276983 -0.779429
v -1.257151 2.876275 -0.630217
v -1.242492 2.895783 -0.627791
v -1.250551 2.873884 -0.657031
v -1.235892 2.893393 -0.654605
v -0.741960 2.342539 -0.384013
v -0.773728 2.298219 -0.390853
v -0.757902 2.293941 -0.448808
v -0.726135 2.338262 -0.441968
v -0.323387 2.078716 -0.208793
v -0.300432 2.166067 -0.205207
v -0.073761 2.700052 -0.101849
v -0.292101 2.072097 -0.304475
v 0.282257 5.976326 0.063576
v 0.211649 5.181526 0.009403
v 0.028704 4.526785 -0.246119
v 0.168489 5.180568 0.025137
v 0.022296 4.474549 -0.256730
v 0.030849 0.199790 0.128427
v 0.097267 3.781021 -0.142137
v 0.026584 3.801559 -0.127923
v 0.210547 3.246617 0.248433
v 0.019724 3.815101 -0.051220
v 0.060989 2.629030 -0.219705
v -0.045355 2.687623 -0.213084
v -0.269146 2.159447 -0.300889
v 0.099267 2.622700 -0.110463
v 0.082794 3.831061 -0.016889
v 0.092311 1.631536 -0.107560
v -0.133608 1.617184 -0.074609
v 0.013039 2.644752 -0.038777
v 0.031200 1.630659 -0.234147
v -0.108635 1.613254 -0.212898
v -0.150912 0.802343 -0.024955
v 0.164229 0.788448 -0.074697
v -0.009207 1.637017 -0.010390
v -0.119833 0.802999 -0.219839
v 0.139335 0.200682 -0.311246
v 0.244734 0.196801 -0.052034
v -0.139692 0.206069 -0.290987
v 0.074935 0.794412 -0.250582
v -0.206740 0.205518 -0.019254
v 0.024648 0.793350 0.064748
vt 0.9229 0.6579
vt 0.9196 0.6586
vt 0.9181 0.6479
vt 0.9219 0.6471
vt 0.9128 0.6450
vt 0.9087 0.6464
vt 0.9065 0.6424
vt 0.9111 0.6408
vt 0.9362 0.6585
vt 0.9330 0.6577
vt 0.9335 0.6466
vt 0.9372 0.6475
vt 0.9462 0.6459
vt 0.9424 0.6442
vt 0.9438 0.6398
vt 0.9480 0.6418
vt 0.9297 0.6421
vt 0.9254 0.6421
vt 0.9250 0.6377
vt 0.9298 0.6377
vt 0.9382 0.6431
vt 0.9340 0.6422
vt 0.9346 0.6377
vt 0.9392 0.6388
vt 0.9426 0.6604
vt 0.9394 0.6594
vt 0.9409 0.6485
vt 0.9444 0.6500
vt 0.9238 0.6803
vt 0.9262 0.6801
vt 0.9258 0.6919
vt 0.9238 0.6919
vt 0.9295 0.6575
vt 0.9261 0.6573
vt 0.9257 0.6464
vt 0.9296 0.6465
vt 0.9164 0.6595
vt 0.9132 0.6604
vt 0.9110 0.6503
vt 0.9146 0.6491
vt 0.9384 0.6812
vt 0.9409 0.6813
vt 0.9382 0.6909
vt 0.9360 0.6915
vt 0.9335 0.6808
vt 0.9359 0.6811
vt 0.9339 0.6921
vt 0.9319 0.6920
vt 0.9237 0.7064
vt 0.9255 0.7061
vt 0.9251 0.7202
vt 0.9236 0.7210
vt 0.9189 0.6804
vt 0.9214 0.6805
vt 0.9217 0.6919
vt 0.9196 0.6910
vt 0.9287 0.6802
vt 0.9266 0.6683
vt 0.9295 0.6686
vt 0.9581 0.6551
vt 0.9592 0.6556
vt 0.9599 0.6690
vt 0.9592 0.6690
vt 0.9273 0.7061
vt 0.9291 0.7061
vt 0.9284 0.7203
vt 0.9268 0.7203
vt 0.9559 0.7325
vt 0.9566 0.7343
vt 0.9500 0.7338
vt 0.9500 0.7322
vt 0.9344 0.7080
vt 0.9360 0.7093
vt 0.9347 0.7225
vt 0.9331 0.7219
vt 0.9309 0.7064
vt 0.9327 0.7067
vt 0.9316 0.7212
vt 0.9300 0.7207
vt 0.9558 0.6549
vt 0.9570 0.6546
vt 0.9584 0.6691
vt 0.9577 0.6693
vt 0.9759 0.6479
vt 0.9770 0.6482
vt 0.9754 0.6554
vt 0.9746 0.6553
vt 0.9648 0.6545
vt 0.9658 0.6549
vt 0.9645 0.6694
vt 0.9637 0.6694
vt 0.9625 0.6538
vt 0.9637 0.6541
vt 0.9629 0.6695
vt 0.9621 0.6694
vt 0.9211 0.6428
vt 0.9169 0.6435
vt 0.9157 0.6392
vt 0.9204 0.6385
vt 0.9637 0.6694
vt 0.9645 0.6694
vt 0.9645 0.6694
vt 0.9637 0.6694
vt 0.9592 0.6880
vt 0.9597 0.6878
vt 0.9610 0.7065
vt 0.9607 0.7066
vt 0.9637 0.6704
vt 0.9629 0.6715
vt 0.9629 0.6715
vt 0.9637 0.6704
vt 0.9610 0.6878
vt 0.9615 0.6880
vt 0.9617 0.7066
vt 0.9614 0.7066
vt 0.9677 0.6959
vt 0.9677 0.6962
vt 0.9674 0.6962
vt 0.9674 0.6959
vt 0.9558 0.7359
vt 0.9550 0.7375
vt 0.9492 0.7363
vt 0.9496 0.7350
vt 0.9201 0.7076
vt 0.9218 0.7068
vt 0.9220 0.7217
vt 0.9203 0.7217
vt 0.9558 0.7288
vt 0.9552 0.7306
vt 0.9501 0.7306
vt 0.9500 0.7291
vt 0.9557 0.7253
vt 0.9563 0.7270
vt 0.9499 0.7275
vt 0.9496 0.7262
vt 0.9401 0.7318
vt 0.9400 0.7330
vt 0.9300 0.7322
vt 0.9302 0.7314
vt 0.9396 0.7340
vt 0.9393 0.7350
vt 0.9294 0.7337
vt 0.9297 0.7329
vt 0.9397 0.7272
vt 0.9400 0.7282
vt 0.9301 0.7289
vt 0.9298 0.7282
vt 0.9401 0.7294
vt 0.9403 0.7305
vt 0.9304 0.7305
vt 0.9303 0.7297
vt 0.9184 0.7308
vt 0.9183 0.7314
vt 0.9066 0.7306
vt 0.9065 0.7304
vt 0.9181 0.7319
vt 0.9180 0.7323
vt 0.9065 0.7310
vt 0.9065 0.7308
vt 0.9184 0.7298
vt 0.9184 0.7303
vt 0.9065 0.7301
vt 0.9065 0.7299
vt 0.9182 0.7289
vt 0.9183 0.7293
vt 0.9066 0.7297
vt 0.9066 0.7295
vt 0.9675 0.6969
vt 0.9677 0.6969
vt 0.9677 0.6971
vt 0.9675 0.6971
vt 0.9685 0.6471
vt 0.9693 0.6464
vt 0.9698 0.6551
vt 0.9690 0.6551
vt 0.9603 0.6545
vt 0.9614 0.6535
vt 0.9614 0.6693
vt 0.9606 0.6691
vt 0.9708 0.6474
vt 0.9722 0.6485
vt 0.9719 0.6560
vt 0.9708 0.6556
vt 0.9735 0.6481
vt 0.9748 0.6477
vt 0.9738 0.6553
vt 0.9728 0.6557
vt 0.9739 0.6650
vt 0.9747 0.6651
vt 0.9741 0.6748
vt 0.9733 0.6746
vt 0.9722 0.6652
vt 0.9732 0.6648
vt 0.9725 0.6744
vt 0.9717 0.6747
vt 0.9685 0.6647
vt 0.9693 0.6648
vt 0.9689 0.6745
vt 0.9681 0.6744
vt 0.9704 0.6652
vt 0.9713 0.6655
vt 0.9708 0.6751
vt 0.9699 0.6748
vt 0.9681 0.6848
vt 0.9686 0.6849
vt 0.9682 0.6953
vt 0.9680 0.6953
vt 0.9692 0.6851
vt 0.9697 0.6853
vt 0.9687 0.6954
vt 0.9685 0.6953
vt 0.9712 0.6850
vt 0.9718 0.6851
vt 0.9694 0.6954
vt 0.9692 0.6953
vt 0.9703 0.6851
vt 0.9707 0.6848
vt 0.9690 0.6953
vt 0.9689 0.6953
vt 0.9675 0.6965
vt 0.9675 0.6967
vt 0.9673 0.6967
vt 0.9673 0.6965
vt 0.9621 0.6885
vt 0.9621 0.6704
vt 0.9629 0.6715
vt 0.9627 0.6891
vt 0.9632 0.6885
vt 0.9638 0.6880
vt 0.9630 0.7066
vt 0.9627 0.7067
vt 0.9621 0.6704
vt 0.9614 0.6693
vt 0.9614 0.6693
vt 0.9621 0.6704
vt 0.9621 0.6694
vt 0.9629 0.6695
vt 0.9629 0.6695
vt 0.9621 0.6694
vt 0.9637 0.6704
vt 0.9629 0.6715
vt 0.9629 0.6715
vt 0.9637 0.6704
vt 0.9621 0.6694
vt 0.9629 0.6695
vt 0.9629 0.6695
vt 0.9621 0.6694
vt 0.9621 0.6704
vt 0.9614 0.6693
vt 0.9614 0.6693
vt 0.9621 0.6704
vt 0.9637 0.6694
vt 0.9645 0.6694
vt 0.9645 0.6694
vt 0.9637 0.6694
vt 0.9629 0.6699
vt 0.9624 0.7067
vt 0.9637 0.6704
vt 0.9621 0.7067
vt 0.9675 0.6963
vt 0.9673 0.6963
vt 0.9677 0.6963
vt 0.9677 0.6965
vt 0.9677 0.6967
vt 0.9676 0.6848
vt 0.9678 0.6953
vt 0.9673 0.6743
vt 0.9677 0.6647
vt 0.9681 0.6551
vt 0.9726 0.6410
vt 0.9742 0.6405
vt 0.9757 0.6400
vt 0.9689 0.6377
vt 0.9707 0.6393
vt 0.9585 0.6421
vt 0.9599 0.6399
vt 0.9614 0.6377
vt 0.9677 0.6478
vt 0.9673 0.6404
vt 0.9681 0.6391
vt 0.9673 0.6969
vt 0.9673 0.6971
vt 0.9673 0.6967
vt 0.9675 0.6967
vt 0.9677 0.6967
vt 0.9180 0.7284
vt 0.9066 0.7293
vt 0.9295 0.7275
vt 0.9394 0.7262
vt 0.9493 0.7248
vt 0.9552 0.7236
vt 0.9610 0.7225
vt 0.9619 0.7245
vt 0.9628 0.7265
vt 0.9615 0.7285
vt 0.9603 0.7306
vt 0.9183 0.7085
vt 0.9187 0.7217
vt 0.9179 0.6952
vt 0.9198 0.6935
vt 0.9631 0.7349
vt 0.9620 0.7368
vt 0.9609 0.7387
vt 0.9676 0.6955
vt 0.9673 0.6956
vt 0.9680 0.6955
vt 0.9680 0.6959
vt 0.9680 0.6962
vt 0.9605 0.6877
vt 0.9586 0.6881
vt 0.9603 0.7067
vt 0.9570 0.6695
vt 0.9629 0.6382
vt 0.9645 0.6387
vt 0.9658 0.6395
vt 0.9672 0.6404
vt 0.9772 0.6405
vt 0.9786 0.6410
vt 0.9546 0.6551
vt 0.9522 0.6407
vt 0.9539 0.6405
vt 0.9555 0.6402
vt 0.9299 0.6919
vt 0.9356 0.6941
vt 0.9374 0.6961
vt 0.9617 0.7327
vt 0.9279 0.6919
vt 0.9570 0.6411
vt 0.9311 0.6804
vt 0.9324 0.6688
vt 0.9165 0.6803
vt 0.9176 0.6902
vt 0.9154 0.6704
vt 0.9182 0.6698
vt 0.9210 0.6692
vt 0.9352 0.6695
vt 0.9379 0.6702
vt 0.9408 0.6709
vt 0.9436 0.6717
vt 0.9238 0.6687
vt 0.9457 0.6616
vt 0.9478 0.6514
vt 0.9500 0.6476
vt 0.9522 0.6438
vn 0.1556 0.0924 0.9835
vn -0.4517 0.0800 0.8886
vn -0.4939 0.1103 0.8625
vn 0.1060 0.1112 0.9881
vn -0.9173 0.1224 0.3789
vn -0.9608 0.1490 -0.2340
vn -0.9569 0.1444 -0.2518
vn -0.9233 0.1174 0.3658
vn 0.4593 0.0999 -0.8826
vn 0.8878 0.1227 -0.4436
vn 0.9057 0.1623 -0.3917
vn 0.5028 0.1478 -0.8517
vn -0.6381 0.1558 -0.7540
vn -0.0688 0.1777 -0.9817
vn -0.0597 0.1717 -0.9833
vn -0.6289 0.1539 -0.7621
vn 0.9610 0.1445 0.2356
vn 0.6409 0.1369 0.7553
vn 0.6390 0.1209 0.7597
vn 0.9619 0.1314 0.2397
vn 0.5216 0.1693 -0.8362
vn 0.9136 0.1707 -0.3689
vn 0.9157 0.1584 -0.3694
vn 0.5268 0.1625 -0.8343
vn -0.7036 0.0615 -0.7079
vn -0.1517 0.0872 -0.9846
vn -0.0941 0.1474 -0.9846
vn -0.6610 0.1184 -0.7409
vn 0.1099 0.0869 0.9901
vn 0.6879 0.0809 0.7213
vn 0.6296 0.0138 0.7768
vn 0.0044 0.0334 0.9994
vn 0.9799 0.1184 0.1607
vn 0.7003 0.1177 0.7041
vn 0.6616 0.1394 0.7368
vn 0.9672 0.1430 0.2100
vn -0.8903 0.0568 0.4519
vn -0.9859 0.0604 -0.1560
vn -0.9715 0.1146 -0.2074
vn -0.9091 0.0959 0.4055
vn -0.6673 -0.0592 -0.7425
vn -0.9851 -0.0354 -0.1685
vn -0.8523 -0.4907 -0.1810
vn -0.3622 -0.3365 -0.8692
vn 0.4718 -0.0037 -0.8817
vn -0.0955 -0.0335 -0.9949
vn 0.1863 -0.0122 -0.9824
vn 0.5299 -0.0050 -0.8481
vn -0.0405 -0.0562 0.9976
vn 0.6135 -0.1000 0.7833
vn 0.3501 -0.6204 0.7018
vn -0.3544 -0.3141 0.8808
vn -0.8893 0.0139 0.4572
vn -0.4746 0.0671 0.8777
vn -0.4548 0.0507 0.8892
vn -0.7927 -0.2093 0.5725
vn 0.9821 0.0547 0.1805
vn 0.7223 0.1054 0.6835
vn 0.9871 0.0905 0.1318
vn 0.1347 0.0202 0.9907
vn 0.7560 0.0009 0.6546
vn 0.7687 -0.0661 0.6362
vn 0.2988 -0.0738 0.9515
vn 0.9686 -0.0831 0.2342
vn 0.9339 -0.0350 -0.3559
vn 0.8829 -0.0286 -0.4687
vn 0.9535 -0.2924 0.0729
vn 0.2062 0.5884 -0.7819
vn 0.2180 -0.0681 -0.9736
vn 0.2281 -0.1225 -0.9659
vn 0.4253 0.6277 -0.6520
vn -0.6136 0.1176 -0.7808
vn -0.9601 0.1244 -0.2504
vn -0.9786 0.0910 -0.1846
vn -0.6817 0.0997 -0.7248
vn 0.5721 0.0089 -0.8201
vn -0.0007 0.0654 -0.9979
vn -0.0893 0.0827 -0.9926
vn 0.5760 0.0351 -0.8167
vn -0.8780 0.0455 0.4765
vn -0.5352 0.0328 0.8441
vn -0.3594 0.0013 0.9332
vn -0.8114 0.0535 0.5821
vn -0.6030 -0.5526 0.5753
vn -0.0999 -0.9009 0.4225
vn -0.1199 -0.8272 0.5489
vn -0.5778 -0.4656 0.6704
vn -0.7698 0.0792 -0.6334
vn -0.9966 0.0724 -0.0394
vn -0.9641 0.0681 0.2566
vn -0.9184 -0.0896 -0.3853
vn 0.5126 0.0425 -0.8576
vn -0.1686 0.0753 -0.9828
vn -0.2533 -0.2516 -0.9341
vn 0.5677 -0.1448 -0.8104
vn 0.0771 0.1147 0.9904
vn -0.5189 0.1233 0.8459
vn -0.5327 0.1122 0.8388
vn 0.0679 0.1022 0.9924
vn -0.9041 -0.3776 -0.2001
vn -0.9886 0.0283 0.1476
vn -0.9980 0.0465 0.0432
vn -0.8212 -0.4142 -0.3924
vn -0.6504 0.0428 0.7584
vn -0.1280 -0.0298 0.9913
vn 0.3542 -0.0781 0.9319
vn -0.4180 0.0837 0.9046
vn -0.8495 0.4455 0.2825
vn 0.0317 0.9897 0.1399
vn 0.1455 0.6986 0.7006
vn -0.7340 0.4815 0.4789
vn 0.9853 -0.1034 0.1357
vn 0.8571 -0.0322 -0.5141
vn 0.8448 -0.0376 -0.5337
vn 0.9227 -0.0402 0.3835
vn 0.1383 0.9810 0.1358
vn 0.3908 0.1211 -0.9125
vn -0.3445 0.1347 -0.9291
vn -0.8783 0.2392 -0.4139
vn -0.0554 -0.6984 -0.7136
vn -0.4220 -0.9041 -0.0670
vn -0.4278 -0.9014 -0.0672
vn -0.1348 -0.7459 -0.6523
vn -0.9285 0.0984 0.3580
vn -0.6020 0.0293 0.7979
vn -0.7708 0.0243 0.6366
vn -0.9124 0.0588 0.4051
vn -0.3714 0.6421 0.6706
vn -0.1512 0.9822 -0.1112
vn 0.3069 0.9513 0.0291
vn -0.0325 0.7079 0.7056
vn -0.5459 -0.5731 0.6112
vn -0.4903 0.0381 0.8707
vn -0.3990 0.0059 0.9170
vn -0.5234 -0.6467 0.5548
vn 0.5574 0.5575 -0.6152
vn 0.2183 -0.1043 -0.9703
vn 0.2049 -0.1479 -0.9675
vn 0.6916 0.4341 -0.5773
vn -0.2698 -0.6790 -0.6828
vn -0.5768 -0.8114 -0.0939
vn -0.7312 -0.6706 -0.1246
vn -0.3936 -0.5972 -0.6989
vn -0.6238 -0.5730 0.5316
vn -0.3551 0.0352 0.9342
vn -0.3885 0.0646 0.9192
vn -0.7478 -0.4463 0.4916
vn 0.1376 0.6484 0.7488
vn 0.5073 0.8567 0.0937
vn 0.6833 0.7151 0.1472
vn 0.2437 0.5779 0.7789
vn 0.7960 0.3449 -0.4975
vn 0.2442 -0.1441 -0.9590
vn 0.2643 -0.1331 -0.9552
vn 0.7181 0.3613 -0.5948
vn -0.4790 -0.5160 -0.7102
vn -0.8287 -0.5364 -0.1598
vn -0.8446 -0.5084 -0.1677
vn -0.4584 -0.3995 -0.7939
vn 0.3646 0.5303 0.7654
vn 0.7920 0.5852 0.1739
vn 0.8032 0.5694 0.1752
vn 0.2449 0.5756 0.7802
vn -0.8346 -0.3282 0.4425
vn -0.3779 0.1350 0.9159
vn -0.3603 0.1584 0.9193
vn -0.8656 -0.2129 0.4532
vn -0.5934 0.7449 -0.3049
vn 0.5313 -0.8448 0.0644
vn 0.9155 -0.1576 -0.3701
vn 0.8427 -0.4219 -0.3343
vn 0.4057 -0.8947 0.1869
vn 0.9974 0.0191 0.0695
vn 0.8879 0.0272 -0.4593
vn 0.9405 -0.0434 -0.3371
vn 0.9975 -0.0550 0.0447
vn 0.8092 0.4077 -0.4230
vn 0.2655 0.9559 -0.1256
vn 0.0439 0.8634 -0.5026
vn 0.6516 0.3763 -0.6587
vn -0.5651 0.7524 0.3384
vn -0.8335 0.0677 0.5484
vn -0.8150 0.1873 0.5483
vn -0.5826 0.8104 0.0625
vn -0.5216 -0.2631 0.8116
vn -0.0036 -0.6763 0.7366
vn 0.1028 -0.4863 0.8677
vn -0.4930 -0.1741 0.8524
vn -0.6543 0.7472 -0.1169
vn -0.8003 0.3193 0.5075
vn -0.8556 0.2581 0.4488
vn -0.7670 0.5578 -0.3173
vn 0.5221 -0.7845 0.3346
vn 0.8386 -0.4128 -0.3555
vn 0.9317 -0.3017 -0.2021
vn 0.6458 -0.5601 0.5189
vn 0.5478 0.2420 -0.8008
vn -0.0608 0.6984 -0.7131
vn -0.0953 0.4602 -0.8827
vn 0.5560 0.1588 -0.8159
vn 0.7025 -0.3110 0.6401
vn 0.9797 -0.1376 -0.1456
vn 0.9845 -0.0938 -0.1484
vn 0.8009 -0.1360 0.5832
vn 0.5425 0.1388 -0.8285
vn -0.1614 0.3220 -0.9329
vn -0.1763 0.3079 -0.9349
vn 0.5936 0.2361 -0.7694
vn -0.5038 -0.1001 0.8580
vn 0.1210 -0.2695 0.9554
vn 0.1220 -0.2209 0.9676
vn -0.5222 0.0205 0.8526
vn -0.8048 0.3454 -0.4827
vn -0.9362 0.1710 0.3072
vn -0.9497 0.1516 0.2741
vn -0.7913 0.4156 -0.4485
vn 0.1633 0.9422 0.2924
vn 0.3125 0.0695 -0.9474
vn 0.6817 0.2173 -0.6986
vn -0.3000 0.4649 -0.8330
vn -0.3434 0.1442 -0.9281
vn -0.8491 0.1753 -0.4982
vn -0.9672 0.1247 0.2212
vn -0.9752 0.1321 0.1776
vn 0.9241 0.3521 -0.1485
vn 0.9332 -0.1013 -0.3447
vn 0.9469 -0.1537 -0.2824
vn 0.9215 0.3147 0.2277
vn 0.6600 -0.4751 -0.5819
vn -0.2084 -0.7036 -0.6793
vn -0.1800 -0.6894 -0.7017
vn 0.5644 -0.5428 -0.6219
vn -0.7125 0.4420 0.5450
vn 0.1711 0.5675 0.8054
vn 0.1817 0.5594 0.8088
vn -0.5934 0.5806 0.5574
vn 0.5661 -0.4680 -0.6787
vn -0.1635 -0.5291 -0.8327
vn -0.1500 -0.4982 -0.8540
vn 0.5655 -0.3633 -0.7404
vn 0.9153 0.2031 0.3478
vn 0.9623 -0.1695 -0.2129
vn 0.9629 -0.1701 -0.2095
vn 0.8360 0.3797 0.3962
vn -0.7978 -0.2854 -0.5311
vn -0.9941 0.1076 0.0160
vn -0.9920 0.1249 0.0157
vn -0.7874 -0.1560 -0.5964
vn 0.0528 0.8183 -0.5724
vn -0.9471 0.3079 -0.0906
vn 0.7063 0.5016 0.4996
vn -0.3531 0.3679 0.8602
vn 0.9669 0.1918 -0.1683
vn -0.7876 0.3236 0.5244
vn -0.8231 0.4972 -0.2743
vn 0.7086 -0.1024 0.6982
vn 0.9306 -0.0078 -0.3659
vn -0.2621 0.3350 -0.9050
vn 0.9673 -0.0037 0.2537
vn 0.9010 0.0264 -0.4330
vn 0.8769 0.0743 -0.4749
vn -0.9925 0.0320 -0.1182
vn -0.8756 0.0479 0.4806
vn -0.4216 0.0800 0.9033
vn 0.4315 0.0423 -0.9011
vn -0.1912 0.0268 -0.9812
vn -0.7292 0.0162 -0.6841
vn 0.1842 0.0941 0.9784
usemtl None
s 1
f 268/1/1 188/2/2 3/3/3 105/4/4
f 267/5/5 89/6/6 6/7/7 155/8/8
f 266/9/9 191/10/10 10/11/11 109/12/12
f 265/13/13 174/14/14 12/15/15 96/16/16
f 264/17/17 140/18/18 13/19/19 71/20/20
f 263/21/21 161/22/22 14/23/23 173/24/24
f 262/25/25 150/26/26 11/27/27 168/28/28
f 261/29/29 193/30/30 16/31/31 147/32/32
f 260/33/33 114/34/34 4/35/35 203/36/36
f 259/37/37 160/38/38 5/39/39 175/40/40
f 258/41/41 166/42/42 18/43/43 180/44/44
f 257/45/45 192/46/46 19/47/47 99/48/48
f 256/49/49 98/50/50 21/51/51 83/52/52
f 255/53/53 126/54/54 17/55/55 113/56/56
f 254/57/57 193/30/30 1/58/58 158/59/59
f 253/60/60 87/61/61 24/62/62 157/63/63
f 252/64/64 190/65/65 26/66/66 90/67/67
f 251/68/68 198/69/69 28/70/70 197/71/71
f 250/72/72 131/73/73 30/74/74 81/75/75
f 249/76/76 125/77/77 31/78/78 184/79/79
f 248/80/80 144/81/81 25/82/82 107/83/83
f 247/84/84 143/85/85 33/86/86 108/87/87
f 246/88/88 154/89/89 32/90/90 106/91/91
f 245/92/92 111/93/93 35/94/94 93/95/95
f 244/96/96 182/97/97 7/98/98 153/99/99
f 243/100/100 118/101/101 37/102/102 79/103/103
f 242/104/104 146/105/105 39/106/106 84/107/107
f 25/82/82 157/63/63 146/105/105
f 241/108/108 179/109/109 42/110/110 178/111/111
f 240/112/112 104/113/113 43/114/114 130/115/115
f 239/116/116 156/117/117 44/118/118 201/119/119
f 238/120/120 186/121/121 45/122/122 149/123/123
f 237/124/124 95/125/125 22/126/126 82/127/127
f 236/128/128 187/129/129 29/130/130 101/131/131
f 235/132/132 102/133/133 46/134/134 189/135/135
f 234/136/136 137/137/137 47/138/138 196/139/139
f 233/140/140 97/141/141 49/142/142 110/143/143
f 232/144/144 119/145/145 50/146/146 159/147/147
f 231/148/148 92/149/149 48/150/150 134/151/151
f 230/152/152 77/153/153 51/154/154 145/155/155
f 229/156/156 76/157/157 53/158/158 70/159/159
f 228/160/160 141/161/161 52/162/162 129/163/163
f 227/164/164 148/165/165 54/166/166 121/167/167
f 226/168/168 145/169/155 51/170/154 70/171/159
f 225/172/169 86/173/170 55/174/171 74/175/172
f 224/176/173 85/177/174 36/178/175 103/179/176
f 223/180/177 117/181/178 56/182/179 133/183/180
f 222/184/181 124/185/182 34/186/183 128/187/184
f 221/188/185 195/189/186 57/190/187 185/191/188
f 220/192/189 132/193/190 58/194/191 100/195/192
f 219/196/193 116/197/194 60/198/195 177/199/196
f 218/200/197 176/201/198 59/202/199 169/203/200
f 217/204/201 94/205/202 61/206/203 200/207/204
f 216/208/205 91/209/206 63/210/207 115/211/208
f 215/212/209 165/213/210 62/214/211 183/215/212
f 214/216/213 152/217/214 64/218/215 73/219/216
f 213/220/217 115/221/208 63/222/207 73/223/216
f 212/224/218 162/225/219 41/226/220 164/227/221
f 211/228/222 202/229/223 40/230/224 201/231/119
f 210/232/225 181/233/226 65/234/227 88/235/228
f 209/236/229 80/237/230 38/238/231 194/239/232
f 208/240/233 112/241/234 66/242/235 172/243/236
f 207/244/237 151/245/238 68/246/239 123/247/240
f 206/248/241 136/249/242 69/250/243 135/251/244
f 205/252/245 163/253/246 67/254/247 72/255/248
f 204/256/249 172/243/236 66/242/235 135/251/244
f 123/247/240 204/256/249 135/251/244 69/250/243
f 68/246/239 72/255/248 204/256/249 123/247/240
f 72/255/248 67/254/247 172/243/236 204/256/249
f 151/245/238 205/252/245 72/255/248 68/246/239
f 38/238/231 79/103/103 205/252/245 151/245/238
f 79/103/103 37/102/102 163/253/246 205/252/245
f 112/241/234 206/248/241 135/251/244 66/242/235
f 42/110/110 88/235/228 206/248/241 112/241/234
f 88/235/228 65/234/227 136/249/242 206/248/241
f 136/249/242 207/244/237 123/247/240 69/250/243
f 65/234/227 194/239/232 207/244/237 136/249/242
f 194/239/232 38/238/231 151/245/238 207/244/237
f 163/253/246 208/240/233 172/243/236 67/254/247
f 37/102/102 178/111/111 208/240/233 163/253/246
f 178/111/111 42/110/110 112/241/234 208/240/233
f 181/233/226 209/236/229 194/239/232 65/234/227
f 36/178/175 93/95/95 209/236/229 181/233/226
f 93/95/95 35/94/94 80/237/230 209/236/229
f 179/109/109 210/232/225 88/235/228 42/110/110
f 41/226/220 162/225/219 210/232/225 179/109/109
f 162/225/219 36/178/175 181/233/226 210/232/225
f 164/227/221 211/228/222 201/231/119 44/257/118
f 41/226/220 142/258/250 211/228/222 164/227/221
f 142/258/250 32/90/90 202/229/223 211/228/222
f 156/259/117 212/224/218 164/227/221 44/257/118
f 43/114/114 104/113/113 212/224/218 156/259/117
f 104/113/113 36/178/175 162/225/219 212/224/218
f 183/260/212 213/220/217 73/223/216 64/261/215
f 62/262/211 200/263/204 213/220/217 183/260/212
f 200/263/204 61/264/203 115/221/208 213/220/217
f 91/209/206 214/216/213 73/219/216 63/210/207
f 59/202/199 100/195/192 214/216/213 91/209/206
f 100/195/192 58/194/191 152/217/214 214/216/213
f 152/217/214 215/212/209 183/215/212 64/218/215
f 58/194/191 185/191/188 215/212/209 152/217/214
f 185/191/188 57/190/187 165/213/210 215/212/209
f 94/205/202 216/208/205 115/211/208 61/206/203
f 60/198/195 169/203/200 216/208/205 94/205/202
f 169/203/200 59/202/199 91/209/206 216/208/205
f 165/265/210 217/204/201 200/207/204 62/266/211
f 57/267/187 177/199/196 217/204/201 165/265/210
f 177/199/196 60/198/195 94/205/202 217/204/201
f 116/197/194 218/200/197 169/203/200 60/198/195
f 55/174/171 133/183/180 218/200/197 116/197/194
f 133/183/180 56/182/179 176/201/198 218/200/197
f 195/268/186 219/196/193 177/199/196 57/267/187
f 33/269/86 74/175/172 219/196/193 195/268/186
f 74/175/172 55/174/171 116/197/194 219/196/193
f 176/201/198 220/192/189 100/195/192 59/202/199
f 56/182/179 128/187/184 220/192/189 176/201/198
f 128/187/184 34/186/183 132/193/190 220/192/189
f 132/193/190 221/188/185 185/191/188 58/194/191
f 34/186/183 108/87/87 221/188/185 132/193/190
f 108/87/87 33/86/86 195/189/186 221/188/185
f 117/181/178 222/184/181 128/187/184 56/182/179
f 23/270/251 139/271/252 222/184/181 117/181/178
f 139/271/252 22/272/126 124/185/182 222/184/181
f 86/173/170 223/180/177 133/183/180 55/174/171
f 26/273/66 78/274/253 223/180/177 86/173/170
f 78/274/253 23/270/251 117/181/178 223/180/177
f 87/61/61 224/176/173 103/179/176 24/62/62
f 23/275/251 78/276/253 224/176/173 87/61/61
f 78/276/253 26/277/66 85/177/174 224/176/173
f 143/278/85 225/172/169 74/175/172 33/269/86
f 21/279/51 90/280/67 225/172/169 143/278/85
f 90/280/67 26/273/66 86/173/170 225/172/169
f 121/281/167 226/168/168 70/171/159 53/282/158
f 54/283/166 129/284/163 226/168/168 121/281/167
f 129/284/163 52/285/162 145/169/155 226/168/168
f 76/286/157 227/164/164 121/167/167 53/287/158
f 49/288/142 159/147/147 227/164/164 76/286/157
f 159/147/147 50/146/146 148/165/165 227/164/164
f 148/165/165 228/160/160 129/163/163 54/166/166
f 50/146/146 134/151/151 228/160/160 148/165/165
f 134/151/151 48/150/150 141/161/161 228/160/160
f 77/153/153 229/156/156 70/159/159 51/154/154
f 47/138/138 110/143/143 229/156/156 77/153/153
f 110/143/143 49/142/142 76/157/157 229/156/156
f 141/161/161 230/152/152 145/155/155 52/162/162
f 48/150/150 196/139/139 230/152/152 141/161/161
f 196/139/139 47/138/138 77/153/153 230/152/152
f 119/145/145 231/148/148 134/151/151 50/146/146
f 46/134/134 101/131/131 231/148/148 119/145/145
f 101/131/131 29/130/130 92/149/149 231/148/148
f 97/289/141 232/144/144 159/147/147 49/288/142
f 45/290/122 189/135/135 232/144/144 97/289/141
f 189/135/135 46/134/134 119/145/145 232/144/144
f 137/137/137 233/140/140 110/143/143 47/138/138
f 28/70/70 149/123/123 233/140/140 137/137/137
f 149/123/123 45/122/122 97/141/141 233/140/140
f 92/149/149 234/136/136 196/139/139 48/150/150
f 29/130/130 197/71/71 234/136/136 92/149/149
f 197/71/71 28/70/70 137/137/137 234/136/136
f 186/291/121 235/132/132 189/135/135 45/290/122
f 18/292/43 113/293/56 235/132/132 186/291/121
f 113/293/56 17/294/55 102/133/133 235/132/132
f 102/133/133 236/128/128 101/131/131 46/134/134
f 17/294/55 138/295/254 236/128/128 102/133/133
f 138/295/254 27/296/255 187/129/129 236/128/128
f 131/297/73 237/124/124 82/127/127 30/298/74
f 27/299/255 138/300/254 237/124/124 131/297/73
f 138/300/254 17/55/55 95/125/125 237/124/124
f 198/69/69 238/120/120 149/123/123 28/70/70
f 19/301/47 180/302/44 238/120/120 198/69/69
f 180/302/44 18/303/43 186/121/121 238/120/120
f 84/304/107 239/116/116 201/119/119 40/305/224
f 39/306/106 130/307/115 239/116/116 84/304/107
f 130/307/115 43/308/114 156/117/117 239/116/116
f 199/309/256 240/112/112 130/115/115 39/106/106
f 24/62/62 103/179/176 240/112/112 199/309/256
f 103/179/176 36/178/175 104/113/113 240/112/112
f 118/101/101 241/108/108 178/111/111 37/102/102
f 32/90/90 142/258/250 241/108/108 118/101/101
f 142/258/250 41/226/220 179/109/109 241/108/108
f 146/105/105 199/309/256 39/106/106
f 146/105/105 157/63/63 199/309/256
f 157/63/63 24/62/62 199/309/256
f 202/310/223 242/104/104 84/107/107 40/311/224
f 32/312/90 107/83/83 242/104/104 202/310/223
f 107/83/83 25/82/82 146/105/105 242/104/104
f 80/237/230 243/100/100 79/103/103 38/238/231
f 35/94/94 106/91/91 243/100/100 80/237/230
f 106/91/91 32/90/90 118/101/101 243/100/100
f 140/18/18 244/96/96 153/99/99 13/19/19
f 4/35/35 105/4/4 244/96/96 140/18/18
f 105/4/4 3/3/3 182/97/97 244/96/96
f 85/177/174 245/92/92 93/95/95 36/178/175
f 26/277/66 184/313/79 245/92/92 85/177/174
f 184/313/79 31/314/78 111/93/93 245/92/92
f 111/93/93 246/88/88 106/91/91 35/94/94
f 31/314/78 81/315/75 246/88/88 111/93/93
f 81/315/75 30/316/74 154/89/89 246/88/88
f 124/185/182 247/84/84 108/87/87 34/186/183
f 22/272/126 83/317/52 247/84/84 124/185/182
f 83/317/52 21/318/51 143/85/85 247/84/84
f 154/319/89 248/80/80 107/83/83 32/312/90
f 30/320/74 82/321/127 248/80/80 154/319/89
f 82/321/127 22/322/126 144/81/81 248/80/80
f 190/65/65 249/76/76 184/79/79 26/66/66
f 20/323/257 99/48/48 249/76/76 190/65/65
f 99/48/48 19/47/47 125/77/77 249/76/76
f 125/77/77 250/72/72 81/75/75 31/78/78
f 19/47/47 120/324/258 250/72/72 125/77/77
f 120/324/258 27/325/255 131/73/73 250/72/72
f 187/129/129 251/68/68 197/71/71 29/130/130
f 27/296/255 120/326/258 251/68/68 187/129/129
f 120/326/258 19/301/47 198/69/69 251/68/68
f 98/50/50 252/64/64 90/67/67 21/51/51
f 16/31/31 170/327/259 252/64/64 98/50/50
f 170/327/259 20/323/257 190/65/65 252/64/64
f 144/81/81 253/60/60 157/63/63 25/82/82
f 22/322/126 139/328/252 253/60/60 144/81/81
f 139/328/252 23/275/251 87/61/61 253/60/60
f 75/329/260 254/57/57 158/59/59 9/330/261
f 20/323/257 170/327/259 254/57/57 75/329/260
f 170/327/259 16/31/31 193/30/30 254/57/57
f 166/331/42 255/53/53 113/56/56 18/332/43
f 15/333/262 122/334/263 255/53/53 166/331/42
f 122/334/263 2/335/264 126/54/54 255/53/53
f 95/125/125 256/49/49 83/52/52 22/126/126
f 17/55/55 147/32/32 256/49/49 95/125/125
f 147/32/32 16/31/31 98/50/50 256/49/49
f 75/329/260 257/45/45 99/48/48 20/323/257
f 9/330/261 171/336/265 257/45/45 75/329/260
f 171/336/265 8/337/266 192/46/46 257/45/45
f 192/46/46 258/41/41 180/44/44 19/47/47
f 8/337/266 167/338/267 258/41/41 192/46/46
f 167/338/267 15/339/262 166/42/42 258/41/41
f 188/2/2 259/37/37 175/40/40 3/3/3
f 2/335/264 122/334/263 259/37/37 188/2/2
f 122/334/263 15/333/262 160/38/38 259/37/37
f 191/10/10 260/33/33 203/36/36 10/11/11
f 9/330/261 158/59/59 260/33/33 191/10/10
f 158/59/59 1/58/58 114/34/34 260/33/33
f 126/54/54 261/29/29 147/32/32 17/55/55
f 2/335/264 127/340/268 261/29/29 126/54/54
f 127/340/268 1/58/58 193/30/30 261/29/29
f 160/341/38 262/25/25 168/28/28 5/342/39
f 15/339/262 167/338/267 262/25/25 160/341/38
f 167/338/267 8/337/266 150/26/26 262/25/25
f 174/14/14 263/21/21 173/24/24 12/15/15
f 11/27/27 109/12/12 263/21/21 174/14/14
f 109/12/12 10/11/11 161/22/22 263/21/21
f 161/22/22 264/17/17 71/20/20 14/23/23
f 10/11/11 203/36/36 264/17/17 161/22/22
f 203/36/36 4/35/35 140/18/18 264/17/17
f 89/343/6 265/13/13 96/16/16 6/344/7
f 5/342/39 168/28/28 265/13/13 89/343/6
f 168/28/28 11/27/27 174/14/14 265/13/13
f 150/26/26 266/9/9 109/12/12 11/27/27
f 8/337/266 171/336/265 266/9/9 150/26/26
f 171/336/265 9/330/261 191/10/10 266/9/9
f 182/97/97 267/5/5 155/8/8 7/98/98
f 3/3/3 175/40/40 267/5/5 182/97/97
f 175/40/40 5/39/39 89/6/6 267/5/5
f 114/34/34 268/1/1 105/4/4 4/35/35
f 1/58/58 127/340/268 268/1/1 114/34/34
f 127/340/268 2/335/264 188/2/2 268/1/1
