# Blender v2.78 (sub 0) OBJ File: ''
# www.blender.org
mtllib Oak_Tree_NoLeaves_crk_m_01.mtl
o Oak_Tree_NoLeaves_crk_m_01
v 0.937254 0.145515 0.750199
v 0.871494 0.096874 0.792386
v 1.188096 0.169417 1.821781
v 1.306650 0.216553 1.821669
v 0.967970 0.070812 0.696616
v 1.376503 0.156409 1.699991
v 0.881971 0.009571 0.746935
v 1.275950 0.088680 1.810552
v 1.062306 -0.001497 2.831082
v 1.041419 0.042460 2.825761
v 1.358671 0.138027 1.986633
v 1.100886 0.034055 2.859273
v 1.073527 0.070696 2.837838
v 1.942084 0.045815 1.911378
v 1.923696 0.090857 1.971972
v 1.127155 0.110018 3.540763
v 1.143218 0.124049 3.547362
v 1.158203 0.106656 3.553415
v 1.137918 0.088499 3.543972
v 1.930822 0.148714 1.915109
v 1.969210 0.109972 1.896294
v 2.406546 0.430584 2.143608
v 2.428570 0.424474 2.126956
v 2.397086 0.404953 2.158514
v 2.416313 0.399030 2.135163
v -0.022059 0.353355 0.216121
v -0.209034 0.336045 0.038444
v -0.249761 0.031449 0.060428
v -0.025676 0.034412 0.265950
v -0.211075 0.328306 -0.148241
v -0.252152 0.030432 -0.168518
v 0.259475 0.319866 0.083808
v 0.299048 0.029386 0.109061
v -0.068841 1.133908 -0.258524
v 0.157822 1.112735 -0.168529
v 0.256368 0.308192 -0.189441
v -0.026255 0.337391 -0.333760
v -0.030647 0.032377 -0.382192
v 0.295519 0.027725 -0.212271
v -0.221880 1.122107 -0.137789
v -0.066604 1.148797 0.126539
v -0.220810 1.129348 0.011274
v 0.159701 1.123413 0.046111
v -0.470312 1.976326 -0.204054
v -0.358712 2.013551 -0.274229
v -0.238529 2.045141 -0.204749
v -0.246384 2.059959 -0.062088
v -0.367414 2.026805 0.001855
v -0.475051 1.982809 -0.071006
v -0.777522 2.787147 -0.033550
v -0.869315 2.757036 -0.085299
v -0.589244 2.630898 -0.167728
v -0.659259 2.791700 -0.069629
v -0.869214 2.752629 -0.198100
v -0.746753 2.764453 -0.239006
v -0.900423 4.030937 -0.524729
v -0.994250 4.123682 -0.455622
v -1.091077 4.018486 -0.380814
v -1.080983 4.100181 -0.561293
v -0.696861 2.936604 -0.174843
v -0.917501 4.008383 -0.600271
v -0.992797 4.009121 -0.636351
v -0.238072 2.945849 0.026288
v -0.255642 3.036946 -0.015264
v -0.227059 3.019260 -0.095820
v -0.182978 2.931101 -0.078813
v -0.678444 4.562499 -1.444331
v -0.660064 4.591474 -1.410343
v -0.753893 4.553137 -1.405342
v -0.687622 4.629876 -1.397268
v -1.039824 4.279394 -0.603026
v -1.385396 4.660742 -0.212450
v -1.334399 4.704763 -0.235222
v -0.726228 4.639772 -1.428168
v -1.318602 4.680877 -0.143409
v -1.376080 4.645521 -0.129550
v -1.373932 5.326315 -0.169541
v -1.335837 5.336871 -0.192136
v -1.325576 5.342014 -0.131310
v -1.366681 5.335543 -0.116168
v -1.475759 6.300238 0.069845
v -1.470692 6.293658 0.095782
v -1.487017 6.283973 0.099288
v -1.490351 6.288326 0.075922
v -0.471693 5.259395 -1.886397
v -0.463368 5.267872 -1.872082
v -0.502279 5.229331 -1.855443
v -0.475409 5.278015 -1.864114
v -1.180334 4.411034 -0.278575
v -0.128273 0.346966 0.140814
v -1.487592 6.325151 0.080798
v -0.195503 2.942387 -0.022875
v -0.642826 2.647771 -0.201269
v -0.025233 0.155828 0.252359
v -0.665600 4.573904 -1.427070
v -0.234998 2.997684 0.012322
v -0.472225 2.410136 -0.060469
v 0.149811 0.031899 0.221617
v 1.126229 0.106083 2.339027
v -0.594723 2.662259 -0.103638
v -0.330312 1.561159 -0.031635
v -0.156184 1.129148 -0.207930
v 2.415392 0.427916 2.158382
v 1.670284 0.121835 1.837587
v -0.609431 4.930136 -1.668404
v -0.029912 0.146958 -0.369738
v -0.236024 0.141568 -0.158466
v -0.827702 2.771871 -0.052563
v -0.727096 2.794526 -0.050284
v -0.675080 2.349358 -0.066496
v -1.326726 5.339849 -0.163741
v -0.570974 2.364558 -0.252803
v -0.027786 1.599231 -0.010324
v 1.339248 0.116379 1.706501
v -1.426671 5.851570 -0.006360
v -0.418909 1.992519 -0.248214
v -1.477777 6.327743 0.091040
v -1.321190 4.696711 -0.191165
v 1.135340 0.101854 3.563257
v -1.361047 4.684648 -0.232385
v -0.482230 1.975536 -0.137751
v 1.143767 0.115975 1.175758
v 0.222420 0.680744 -0.175936
v 0.288523 0.136891 0.100307
v -0.546898 4.959075 -1.686965
v -0.839220 3.443950 -0.356947
v 0.053159 1.137556 0.101440
v 2.201150 0.289385 2.036238
v 1.052091 0.050272 1.213315
v -1.406236 5.858253 -0.057565
v -0.187175 2.984312 -0.087326
v 1.619318 0.052953 1.855307
v -0.201865 0.709306 0.027761
v -1.104306 4.030163 -0.431569
v 2.214298 0.224006 2.030226
v -0.232908 2.056582 -0.133197
v 1.630518 0.104094 1.931770
v 1.958846 0.073532 1.899997
v 1.090523 0.055466 2.850412
v 1.358310 0.195063 1.713172
v 1.215836 0.200648 1.817284
v -0.565363 4.982970 -1.677564
v -1.398716 5.858526 -0.015573
v -1.243640 4.360519 -0.268820
v 0.180232 1.115038 -0.060691
v 1.195506 0.123878 1.810390
v -0.473122 5.285165 -1.896419
v -0.823588 3.426855 -0.262547
v 0.126610 0.338344 0.170501
v 1.055055 0.060246 2.830568
v -0.919389 3.397609 -0.407770
v 1.154065 0.118360 3.571326
v 1.100504 0.190217 1.220785
v -1.201590 4.452046 -0.382555
v -0.839411 4.379187 -0.944318
v -0.729730 2.899991 -0.215646
v 1.099126 0.090853 3.245183
v -1.386049 4.649241 -0.169150
v -0.426385 2.003194 -0.025725
v -0.233749 0.145881 0.049811
v -1.256260 4.390697 -0.363665
v -0.877106 2.753291 -0.141350
v 1.931330 0.062111 1.945336
v -0.816892 4.302246 -1.020157
v -0.681888 2.913034 -0.122181
v -0.196121 1.580297 -0.264649
v 0.892631 0.121276 0.741201
v -0.984186 3.393975 -0.245732
v 0.144926 0.030051 -0.332069
v -0.131603 0.334211 -0.255152
v -0.225477 0.330335 -0.054461
v 1.352358 0.180324 1.958138
v -1.431905 5.848283 -0.043369
v -1.346192 4.661304 -0.127930
v -0.704874 4.570807 -1.454362
v -0.576535 2.385591 -0.003653
v -0.226669 3.039609 -0.052129
v 2.431854 0.438391 2.142556
v 1.173542 0.143961 2.345487
v -1.341034 4.994296 -0.212670
v -0.031340 0.727575 0.174180
v 1.091950 0.039557 3.240377
v 2.230863 0.268753 2.018514
v 1.138087 0.120100 3.565001
v -0.798726 4.334370 -0.966200
v -0.200075 1.593797 0.059620
v 1.335912 0.105411 1.951250
v -1.012326 4.070688 -0.672576
v -0.453695 2.365288 -0.191868
v 0.339912 0.028556 -0.050576
v 2.436921 0.423329 2.137869
v -1.374287 5.330522 -0.140836
v -1.378505 4.968542 -0.119840
v 0.225250 0.692796 0.069057
v 0.285062 0.130329 -0.204319
v 0.913556 0.034120 0.687007
v -0.394230 2.806003 -0.122183
v 2.420459 0.412854 2.153696
v -1.483316 6.318437 0.105653
v 0.122576 0.322897 -0.282574
v -0.716195 4.660879 -1.479783
v -0.908800 4.292562 -0.984201
v -0.460531 2.941691 -0.075720
v 1.924061 0.124147 1.947380
v 1.076634 0.070673 3.234497
v -0.707828 4.639025 -1.410606
v 0.050781 1.123410 -0.229007
v 0.862467 0.048295 0.739683
v -1.345257 5.339974 -0.118144
v -0.671493 2.341424 -0.189048
v -0.035167 0.711285 -0.291992
v 1.627689 0.173754 1.862714
v 1.152096 0.042888 2.335781
v -0.880597 4.410133 -1.011048
v 1.951576 0.135568 1.902041
v -1.068076 4.248454 -0.608599
v -0.026227 1.590702 -0.187225
v 1.202238 0.086120 2.390158
v -1.355756 5.330399 -0.186433
v -0.154353 1.140968 0.078161
v 1.151317 0.100114 3.569582
v -0.671093 4.611793 -1.401426
v -0.830102 2.755803 -0.235543
v 0.283586 0.310400 -0.052196
v -0.610612 4.911067 -1.681816
v 1.084014 0.012611 2.846409
v 0.943719 0.107100 0.688525
v -0.474803 5.296351 -1.883215
v -0.463194 5.294007 -1.880533
v -0.203725 0.701384 -0.138438
v -0.902942 4.017254 -0.562804
v -0.162890 0.031405 -0.298860
v 2.190743 0.248578 2.070543
v -0.560407 4.940566 -1.709320
v -1.054481 4.042685 -0.370398
v 1.032118 0.139574 1.252221
v -0.461277 5.285201 -1.892086
v -1.328359 4.987592 -0.135505
v -1.020035 4.261530 -0.552075
v -0.293469 2.030958 -0.248340
v -0.234246 1.124188 -0.062892
v -0.276572 0.030941 -0.053319
v -1.386660 4.969044 -0.188466
v -0.930920 4.313434 -0.971487
v -0.438546 2.854026 -0.008700
v -0.991846 3.405899 -0.354853
v 1.120705 0.066089 3.255706
v 1.048546 0.017391 2.826565
v -1.493131 6.315845 0.095411
v -0.302503 2.045801 -0.021044
v -0.158857 0.032931 0.185664
v -0.469551 2.885508 -0.153708
v -0.926134 4.051046 -0.500225
v -0.899836 3.433735 -0.216571
v -0.953264 4.005371 -0.623520
v -0.328311 1.554510 -0.172645
v -0.166532 3.014125 -0.027301
v -0.449199 5.353665 -1.925674
v -0.578997 4.985351 -1.684946
v -0.554383 4.971868 -1.680437
v -0.577350 4.946810 -1.713080
v -0.551283 4.947974 -1.698411
v -1.498954 6.412529 0.117274
v -1.431889 5.849105 -0.023729
v -1.419689 5.853095 -0.054299
v -1.412075 5.855221 -0.007134
v -1.399875 5.859211 -0.037704
v -1.387228 4.966644 -0.152219
v -1.352422 4.977717 -0.120601
v -1.330051 4.993093 -0.176022
v -1.364857 4.982019 -0.207640
v -1.255672 4.370182 -0.314853
v -0.860403 4.399659 -0.976080
v -1.185240 4.436966 -0.331955
v -1.210344 4.382324 -0.264053
v -0.899274 4.381176 -1.022331
v -1.230568 4.424825 -0.382755
v -0.816620 4.356617 -0.949559
v -0.848854 4.308286 -1.036610
v -0.802973 4.315563 -0.993197
v -0.430178 2.840701 -0.147233
v -0.411668 2.821905 -0.060661
v -0.876848 3.421186 -0.388835
v -0.469761 2.921709 -0.119494
v -0.451251 2.902913 -0.032923
v -0.959444 3.400176 -0.388557
v -0.824489 3.437185 -0.309397
v -0.994951 3.398583 -0.299106
v -0.945100 3.413649 -0.224256
v -0.857233 3.431242 -0.234268
v -0.521002 2.401793 -0.023421
v -0.507017 2.363781 -0.231040
v -0.626421 2.352952 -0.228988
v -0.681982 2.342604 -0.127708
v -0.453055 2.388668 -0.125962
v -0.630526 2.366558 -0.027218
v -0.011497 1.595465 -0.098404
v -0.340537 1.555049 -0.102068
v -0.273093 1.577619 0.023045
v -0.108427 1.598449 0.036741
v -0.105453 1.586350 -0.238103
v -0.269826 1.566764 -0.228070
v -0.216957 0.703655 -0.054937
v 0.247403 0.683438 -0.052871
v 0.104212 0.711778 0.139444
v -0.128289 0.720521 0.112364
v -0.131327 0.707586 -0.227177
v 0.136019 0.138697 -0.310579
v 0.315611 0.131796 -0.051310
v -0.147496 0.144945 -0.279992
v 0.100532 0.696112 -0.252191
v 0.140518 0.147227 0.199393
v -0.252203 0.142804 -0.053837
v -0.143781 0.151987 0.166279
v 0.868357 0.068712 0.616814
v 2.468240 0.458208 2.169322
v 2.201212 0.232142 2.052617
v 2.225164 0.244187 2.021555
v 2.193363 0.271174 2.056206
v 2.217314 0.283219 2.025144
v 1.627580 0.143923 1.902169
v 1.192617 0.118975 2.370773
v 1.646324 0.082395 1.841519
v 1.651322 0.154515 1.845941
v 1.153938 0.118511 3.630031
v 1.108117 0.050112 3.248837
v 1.081806 0.052849 3.236175
v 1.112401 0.080737 3.251706
v 1.086090 0.083473 3.239044
v 1.622582 0.071803 1.897748
v 1.147239 0.130893 2.340247
v 1.179813 0.058633 2.364979
v 1.134435 0.070551 2.334453
v 1.100996 0.075190 1.190465
v 1.034340 0.089279 1.236115
v 1.129899 0.158740 1.194925
v 1.063243 0.172829 1.240575
vt 0.9484 0.8477
vt 0.9478 0.8489
vt 0.9333 0.8444
vt 0.9337 0.8433
vt 0.9497 0.8454
vt 0.9489 0.8465
vt 0.9340 0.8422
vt 0.9345 0.8410
vt 0.9481 0.8504
vt 0.9484 0.8519
vt 0.9336 0.8473
vt 0.9334 0.8458
vt 0.9478 0.8535
vt 0.9473 0.8552
vt 0.9320 0.8502
vt 0.9328 0.8487
vt 0.9205 0.8462
vt 0.9205 0.8473
vt 0.9074 0.8473
vt 0.9075 0.8467
vt 0.9197 0.8485
vt 0.9190 0.8497
vt 0.9067 0.8488
vt 0.9071 0.8480
vt 0.9205 0.8444
vt 0.9204 0.8452
vt 0.9076 0.8460
vt 0.9074 0.8455
vt 0.9478 0.8296
vt 0.9474 0.8282
vt 0.9555 0.8287
vt 0.9556 0.8299
vt 0.8973 0.8457
vt 0.8974 0.8461
vt 0.8873 0.8462
vt 0.8872 0.8460
vt 0.8969 0.8448
vt 0.8971 0.8453
vt 0.8871 0.8457
vt 0.8870 0.8454
vt 0.8974 0.8466
vt 0.8974 0.8471
vt 0.8873 0.8470
vt 0.8873 0.8466
vt 0.8971 0.8477
vt 0.8968 0.8483
vt 0.8869 0.8477
vt 0.8871 0.8474
vt 0.9507 0.7923
vt 0.9504 0.7923
vt 0.9503 0.7920
vt 0.9507 0.7920
vt 0.9484 0.8344
vt 0.9477 0.8337
vt 0.9559 0.8341
vt 0.9565 0.8347
vt 0.9483 0.8363
vt 0.9491 0.8352
vt 0.9571 0.8354
vt 0.9567 0.8364
vt 0.9197 0.8427
vt 0.9205 0.8435
vt 0.9071 0.8449
vt 0.9068 0.8442
vt 0.9480 0.8324
vt 0.9482 0.8311
vt 0.9556 0.8312
vt 0.9557 0.8327
vt 0.9649 0.8325
vt 0.9646 0.8320
vt 0.9732 0.8298
vt 0.9734 0.8302
vt 0.9643 0.8311
vt 0.9642 0.8303
vt 0.9727 0.8294
vt 0.9729 0.8296
vt 0.9650 0.8336
vt 0.9653 0.8330
vt 0.9736 0.8306
vt 0.9734 0.8309
vt 0.9642 0.8295
vt 0.9642 0.8287
vt 0.9729 0.8287
vt 0.9728 0.8291
vt 0.9509 0.7916
vt 0.9505 0.7916
vt 0.9503 0.7913
vt 0.9507 0.7913
vt 0.8210 0.6918
vt 0.8137 0.6914
vt 0.8137 0.6824
vt 0.8210 0.6840
vt 0.8970 0.7724
vt 0.8932 0.7735
vt 0.8918 0.7700
vt 0.8959 0.7686
vt 0.8909 0.7745
vt 0.8887 0.7755
vt 0.8869 0.7724
vt 0.8893 0.7712
vt 0.9058 0.7702
vt 0.9008 0.7712
vt 0.8999 0.7672
vt 0.9053 0.7664
vt 0.9218 0.7844
vt 0.9180 0.7829
vt 0.9189 0.7727
vt 0.9236 0.7741
vt 0.9332 0.7734
vt 0.9295 0.7718
vt 0.9307 0.7681
vt 0.9347 0.7701
vt 0.9151 0.7692
vt 0.9108 0.7692
vt 0.9106 0.7655
vt 0.9152 0.7657
vt 0.9244 0.7705
vt 0.9193 0.7693
vt 0.9197 0.7658
vt 0.9252 0.7670
vt 0.9286 0.7868
vt 0.9256 0.7858
vt 0.9282 0.7755
vt 0.9317 0.7768
vt 0.9009 0.7862
vt 0.8979 0.7870
vt 0.8946 0.7770
vt 0.8982 0.7761
vt 0.9076 0.7842
vt 0.9038 0.7854
vt 0.9018 0.7752
vt 0.9064 0.7740
vt 0.9147 0.7829
vt 0.9114 0.7829
vt 0.9111 0.7728
vt 0.9150 0.7728
vt 0.8960 0.7876
vt 0.8941 0.7882
vt 0.8904 0.7786
vt 0.8925 0.7778
vt 0.9233 0.8078
vt 0.9254 0.8083
vt 0.9229 0.8191
vt 0.9211 0.8188
vt 0.9189 0.8065
vt 0.9212 0.8073
vt 0.9194 0.8185
vt 0.9178 0.8183
vt 0.9097 0.8064
vt 0.9121 0.8056
vt 0.9125 0.8183
vt 0.9108 0.8185
vt 0.9054 0.8077
vt 0.9074 0.8072
vt 0.9090 0.8188
vt 0.9072 0.8190
vt 0.9015 0.8085
vt 0.9033 0.8081
vt 0.9054 0.8193
vt 0.9036 0.8196
vt 0.9143 0.8056
vt 0.9116 0.7930
vt 0.9144 0.7930
vt 0.9081 0.8291
vt 0.9097 0.8288
vt 0.9104 0.8388
vt 0.9090 0.8392
vt 0.9144 0.8271
vt 0.9161 0.8263
vt 0.9162 0.8346
vt 0.9145 0.8361
vt 0.9049 0.8296
vt 0.9065 0.8295
vt 0.9077 0.8397
vt 0.9063 0.8397
vt 0.9206 0.8288
vt 0.9221 0.8292
vt 0.9213 0.8393
vt 0.9201 0.8387
vt 0.9176 0.8273
vt 0.9191 0.8283
vt 0.9188 0.8381
vt 0.9175 0.8363
vt 0.9112 0.8284
vt 0.9126 0.8280
vt 0.9128 0.8376
vt 0.9116 0.8382
vt 0.9783 0.7907
vt 0.9794 0.7908
vt 0.9788 0.8088
vt 0.9778 0.8088
vt 0.9758 0.7903
vt 0.9771 0.7906
vt 0.9768 0.8089
vt 0.9757 0.8081
vt 0.9732 0.7905
vt 0.9745 0.7899
vt 0.9745 0.8074
vt 0.9732 0.8084
vt 0.9805 0.7917
vt 0.9815 0.7926
vt 0.9810 0.8096
vt 0.9799 0.8092
vt 0.9856 0.7922
vt 0.9868 0.7922
vt 0.9855 0.8106
vt 0.9844 0.8105
vt 0.9579 0.7763
vt 0.9597 0.7761
vt 0.9598 0.7829
vt 0.9582 0.7832
vt 0.9550 0.7756
vt 0.9562 0.7764
vt 0.9566 0.7836
vt 0.9553 0.7838
vt 0.9830 0.7924
vt 0.9844 0.7922
vt 0.9834 0.8104
vt 0.9822 0.8100
vt 0.9617 0.7762
vt 0.9638 0.7763
vt 0.9635 0.7841
vt 0.9617 0.7835
vt 0.9521 0.7754
vt 0.9538 0.7748
vt 0.9539 0.7841
vt 0.9523 0.7839
vt 0.9807 0.8230
vt 0.9815 0.8232
vt 0.9820 0.8367
vt 0.9814 0.8368
vt 0.9835 0.8238
vt 0.9825 0.8234
vt 0.9836 0.8371
vt 0.9828 0.8369
vt 0.9790 0.8230
vt 0.9798 0.8228
vt 0.9808 0.8368
vt 0.9801 0.8370
vt 0.9453 0.7745
vt 0.9465 0.7741
vt 0.9460 0.7827
vt 0.9449 0.7831
vt 0.9757 0.8245
vt 0.9768 0.8249
vt 0.9782 0.8376
vt 0.9773 0.8375
vt 0.9398 0.7743
vt 0.9409 0.7746
vt 0.9406 0.7831
vt 0.9397 0.7828
vt 0.9425 0.7747
vt 0.9440 0.7748
vt 0.9439 0.7835
vt 0.9423 0.7833
vt 0.9775 0.8240
vt 0.9782 0.8231
vt 0.9795 0.8373
vt 0.9789 0.8375
vt 0.9479 0.7744
vt 0.9493 0.7746
vt 0.9484 0.7832
vt 0.9472 0.7830
vt 0.9438 0.7912
vt 0.9446 0.7910
vt 0.9432 0.7993
vt 0.9426 0.7993
vt 0.9417 0.7913
vt 0.9429 0.7914
vt 0.9419 0.7992
vt 0.9411 0.7994
vt 0.9397 0.7911
vt 0.9404 0.7913
vt 0.9403 0.7995
vt 0.9396 0.7995
vt 0.9455 0.7913
vt 0.9465 0.7917
vt 0.9446 0.8001
vt 0.9439 0.7997
vt 0.9403 0.8135
vt 0.9409 0.8135
vt 0.9399 0.8278
vt 0.9395 0.8277
vt 0.9393 0.8135
vt 0.9397 0.8135
vt 0.9392 0.8276
vt 0.9390 0.8275
vt 0.9414 0.8134
vt 0.9419 0.8134
vt 0.9405 0.8274
vt 0.9402 0.8276
vt 0.9424 0.8135
vt 0.9428 0.8138
vt 0.9411 0.8274
vt 0.9408 0.8274
vt 0.9505 0.7931
vt 0.9505 0.7928
vt 0.9508 0.7928
vt 0.9508 0.7932
vt 0.9813 0.8484
vt 0.9818 0.8484
vt 0.9815 0.8601
vt 0.9813 0.8601
vt 0.9822 0.8485
vt 0.9827 0.8486
vt 0.9819 0.8601
vt 0.9817 0.8601
vt 0.9805 0.8486
vt 0.9809 0.8484
vt 0.9810 0.8601
vt 0.9808 0.8601
vt 0.9796 0.8488
vt 0.9800 0.8487
vt 0.9806 0.8601
vt 0.9804 0.8601
vt 0.9765 0.8375
vt 0.9783 0.8488
vt 0.9506 0.7938
vt 0.9506 0.7936
vt 0.9509 0.7936
vt 0.9509 0.7938
vt 0.8232 0.6749
vt 0.8153 0.6750
vt 0.8137 0.6677
vt 0.8228 0.6677
vt 0.8310 0.6749
vt 0.8319 0.6677
vt 0.8300 0.6821
vt 0.8235 0.6822
vt 0.8170 0.6822
vt 0.9505 0.7940
vt 0.9508 0.7940
vt 0.9503 0.7940
vt 0.9503 0.7938
vt 0.9504 0.7936
vt 0.9792 0.8489
vt 0.9802 0.8601
vt 0.9505 0.7934
vt 0.9508 0.7935
vt 0.9503 0.7933
vt 0.9503 0.7930
vt 0.9503 0.7927
vt 0.9389 0.8134
vt 0.9387 0.8273
vt 0.9390 0.7995
vt 0.9389 0.7910
vt 0.9388 0.7824
vt 0.9470 0.7655
vt 0.9486 0.7658
vt 0.9502 0.7661
vt 0.9753 0.8123
vt 0.9761 0.8106
vt 0.9413 0.7661
vt 0.9427 0.7661
vt 0.9442 0.7661
vt 0.9388 0.7740
vt 0.9387 0.7657
vt 0.9400 0.7659
vt 0.9747 0.8241
vt 0.9729 0.8107
vt 0.9741 0.8115
vt 0.9456 0.7658
vt 0.9845 0.8239
vt 0.9505 0.7759
vt 0.9507 0.7837
vt 0.9503 0.7682
vt 0.9519 0.7668
vt 0.9536 0.7655
vt 0.9595 0.7693
vt 0.9618 0.7689
vt 0.9640 0.7685
vt 0.9821 0.7757
vt 0.9838 0.7748
vt 0.9855 0.7739
vt 0.9547 0.7674
vt 0.9558 0.7693
vt 0.9577 0.7693
vt 0.9868 0.7738
vt 0.9880 0.7737
vt 0.9801 0.7727
vt 0.9811 0.7742
vt 0.9718 0.7911
vt 0.9719 0.8094
vt 0.9717 0.7729
vt 0.9731 0.7727
vt 0.9745 0.7724
vt 0.9760 0.7724
vt 0.9774 0.7723
vt 0.9787 0.7725
vt 0.9161 0.8181
vt 0.9033 0.8298
vt 0.9049 0.8397
vt 0.9017 0.8198
vt 0.9143 0.8182
vt 0.9166 0.8056
vt 0.9171 0.7931
vt 0.8997 0.8089
vt 0.8977 0.7979
vt 0.8995 0.7975
vt 0.9012 0.7970
vt 0.9036 0.7963
vt 0.9059 0.7956
vt 0.9087 0.7943
vt 0.9201 0.7946
vt 0.9230 0.7961
vt 0.9255 0.7968
vt 0.9280 0.7976
vt 0.9316 0.7879
vt 0.9352 0.7781
vt 0.9369 0.7751
vt 0.9387 0.7720
vt 0.8282 0.6921
vt 0.8282 0.6857
vt 0.8282 0.6986
vt 0.8210 0.6996
vt 0.8137 0.7005
vt 0.9513 0.7916
vt 0.9511 0.7913
vt 0.9515 0.7919
vt 0.9511 0.7919
vt 0.9507 0.7920
vt 0.9647 0.8343
vt 0.9733 0.8312
vt 0.9562 0.8374
vt 0.9395 0.8333
vt 0.9402 0.8321
vt 0.9408 0.8309
vt 0.9189 0.8419
vt 0.9066 0.8436
vt 0.9313 0.8402
vt 0.9326 0.8412
vt 0.9475 0.8374
vt 0.9387 0.8374
vt 0.9399 0.8362
vt 0.9411 0.8349
vt 0.9403 0.8341
vt 0.9510 0.7923
vt 0.9511 0.7920
vt 0.9510 0.7926
vt 0.9507 0.7926
vt 0.9505 0.7926
vt 0.8967 0.8443
vt 0.8869 0.8451
vt 0.9400 0.8293
vt 0.9392 0.8278
vt 0.9324 0.8490
vt 0.9312 0.8506
vt 0.9631 0.8564
vt 0.9628 0.8583
vt 0.9625 0.8602
vt 0.9624 0.8533
vt 0.9628 0.8548
vt 0.9505 0.8442
vt 0.9350 0.8398
vt 0.9660 0.8487
vt 0.9649 0.8497
vt 0.9637 0.8508
vt 0.9631 0.8520
vn -0.5162 0.8505 0.1008
vn -0.9137 0.3174 0.2539
vn -0.9457 0.3185 0.0646
vn -0.4781 0.8756 0.0688
vn 0.6829 0.6560 -0.3214
vn 0.0503 0.9939 -0.0979
vn 0.0292 0.9987 0.0415
vn 0.4437 0.8161 -0.3702
vn -0.8397 -0.4479 0.3071
vn -0.2098 -0.9683 0.1355
vn -0.1658 -0.9850 -0.0483
vn -0.8270 -0.5573 0.0736
vn 0.5212 -0.8416 -0.1417
vn 0.9162 -0.1818 -0.3571
vn 0.6632 -0.0124 -0.7484
vn 0.3809 -0.8504 -0.3630
vn -0.8601 -0.4758 -0.1838
vn -0.1738 -0.9789 -0.1077
vn -0.2493 -0.9684 -0.0015
vn -0.9043 -0.4236 -0.0525
vn 0.5829 -0.8089 0.0770
vn 0.9563 -0.1549 0.2479
vn 0.9865 -0.1552 0.0520
vn 0.6339 -0.7720 0.0471
vn -0.5789 0.8153 0.0165
vn -0.9615 0.2519 -0.1097
vn -0.9841 0.1729 -0.0393
vn -0.6633 0.7483 0.0024
vn -0.0726 -0.8644 0.4976
vn -0.0223 -0.9885 -0.1498
vn 0.2621 -0.9364 -0.2332
vn 0.0648 -0.8120 0.5801
vn -0.6610 0.7502 0.0158
vn -0.9795 0.1724 0.1041
vn -0.9693 0.1910 0.1550
vn -0.6224 0.7590 0.1912
vn 0.7897 0.5993 -0.1312
vn 0.0833 0.9934 -0.0790
vn 0.1079 0.9895 -0.0963
vn 0.7763 0.6292 0.0387
vn -0.8934 -0.4219 0.1545
vn -0.2149 -0.9644 0.1540
vn -0.1799 -0.9612 0.2091
vn -0.7896 -0.4914 0.3674
vn 0.6658 -0.7456 0.0291
vn 0.9902 -0.1167 -0.0763
vn 0.9930 -0.0904 -0.0757
vn 0.5395 -0.8008 0.2603
vn 0.0416 0.1056 0.9935
vn 0.2712 0.6747 -0.6865
vn 0.1324 0.9888 0.0683
vn -0.1334 0.9835 -0.1224
vn 0.1138 0.5416 -0.8329
vn 0.1982 -0.5057 -0.8397
vn 0.2744 0.0642 -0.9595
vn 0.3261 0.0388 -0.9445
vn 0.4076 -0.4196 -0.8110
vn 0.6986 0.6527 0.2930
vn 0.0173 0.9873 0.1581
vn 0.0469 0.9959 0.0768
vn 0.7859 0.6137 0.0753
vn 0.0678 0.7642 0.6414
vn 0.0091 -0.1092 0.9940
vn -0.1682 -0.1987 0.9655
vn -0.3171 0.6747 0.6665
vn -0.0351 0.6399 -0.7677
vn -0.4567 0.8754 -0.1586
vn -0.4903 0.8653 -0.1039
vn -0.0126 0.8514 -0.5244
vn -0.6015 0.5921 0.5363
vn -0.2485 -0.1610 0.9551
vn -0.2437 -0.1547 0.9574
vn -0.3814 0.4429 0.8114
vn 0.6394 -0.4243 -0.6412
vn 0.4026 0.1139 -0.9083
vn 0.3895 0.2341 -0.8908
vn 0.8364 -0.3103 -0.4518
vn 0.2800 -0.7476 0.6023
vn 0.5911 -0.8065 -0.0130
vn 0.6580 -0.7520 0.0387
vn 0.3974 -0.6161 0.6801
vn 0.7438 0.4739 0.4714
vn -0.4468 0.0472 -0.8934
vn 0.2354 -0.8291 -0.5071
vn -0.2962 -0.9551 -0.0015
vn -0.9619 -0.2734 0.0013
vn -0.6842 0.1574 0.7121
vn -0.9030 0.1648 0.3967
vn -0.8962 0.1853 0.4031
vn -0.6782 0.1667 0.7157
vn -0.9865 0.1636 0.0082
vn -0.9107 0.1671 -0.3778
vn -0.9040 0.1885 -0.3837
vn -0.9826 0.1858 0.0087
vn 0.4340 0.1630 0.8861
vn -0.1514 0.1721 0.9734
vn -0.1454 0.1662 0.9753
vn 0.4327 0.1605 0.8871
vn 0.4212 0.0975 -0.9017
vn 0.8228 0.1169 -0.5561
vn 0.8283 0.1424 -0.5419
vn 0.4515 0.1325 -0.8824
vn -0.7001 0.1610 -0.6956
vn -0.1456 0.1766 -0.9734
vn -0.1404 0.1700 -0.9754
vn -0.6939 0.1709 -0.6995
vn 0.9846 0.1741 -0.0133
vn 0.8275 0.1792 0.5321
vn 0.8232 0.1770 0.5394
vn 0.9848 0.1734 -0.0109
vn 0.4600 0.1636 -0.8727
vn 0.8274 0.1780 -0.5327
vn 0.8240 0.1770 -0.5382
vn 0.4575 0.1613 -0.8744
vn -0.6711 0.0256 -0.7409
vn -0.1417 0.0781 -0.9868
vn -0.1449 0.1409 -0.9794
vn -0.6998 0.1030 -0.7069
vn -0.6510 0.0402 0.7580
vn -0.9003 0.0076 0.4352
vn -0.9085 0.0893 0.4082
vn -0.6824 0.1021 0.7238
vn 0.3928 0.1134 0.9126
vn -0.1460 0.0949 0.9847
vn -0.1508 0.1377 0.9789
vn 0.4244 0.1327 0.8957
vn 0.9921 0.1249 -0.0145
vn 0.8210 0.1288 0.5562
vn 0.8292 0.1442 0.5400
vn 0.9904 0.1374 -0.0152
vn -0.9999 -0.0082 0.0120
vn -0.9122 -0.0002 -0.4098
vn -0.9171 0.0902 -0.3883
vn -0.9965 0.0833 0.0087
vn -0.5352 -0.1995 -0.8208
vn -0.8367 -0.2765 -0.4727
vn -0.7883 -0.3537 -0.5035
vn -0.4799 -0.2162 -0.8503
vn 0.4106 0.1387 -0.9012
vn -0.0652 -0.0371 -0.9972
vn -0.0136 0.0189 -0.9997
vn 0.4301 0.2410 -0.8700
vn 0.3636 0.2644 0.8932
vn 0.7575 0.3866 0.5261
vn 0.7498 0.4486 0.4863
vn 0.3938 0.2703 0.8785
vn -0.5609 -0.0768 0.8243
vn -0.1066 0.1055 0.9887
vn -0.0508 0.0538 0.9973
vn -0.5008 -0.1766 0.8474
vn -0.9599 -0.2805 -0.0001
vn -0.8546 -0.2056 0.4768
vn -0.8087 -0.3362 0.4826
vn -0.9160 -0.4012 -0.0100
vn 0.9169 0.3989 -0.0123
vn 0.7962 0.2554 0.5485
vn 0.9661 0.2580 -0.0142
vn -0.4631 -0.2135 0.8602
vn -0.0419 0.0200 0.9989
vn -0.0505 0.1518 0.9871
vn -0.4746 -0.0140 0.8801
vn 0.8604 0.5079 -0.0413
vn 0.7272 0.4679 -0.5022
vn 0.8066 0.0613 -0.5879
vn 0.9245 -0.0417 0.3789
vn -0.8910 -0.4539 0.0063
vn -0.7770 -0.3852 0.4979
vn -0.8281 -0.1896 0.5276
vn -0.9534 -0.3005 0.0282
vn -0.4394 -0.2138 -0.8725
vn -0.7892 -0.4040 -0.4626
vn -0.8536 -0.3278 -0.4048
vn -0.4484 -0.2650 -0.8536
vn 0.4605 0.3093 -0.8320
vn 0.0631 0.0692 -0.9956
vn 0.0956 -0.0288 -0.9950
vn 0.4504 0.1344 -0.8826
vn 0.3683 0.2376 0.8988
vn 0.7419 0.4295 0.5150
vn 0.2154 0.1687 0.9618
vn 0.3501 0.2824 0.8931
vn 0.5191 0.3463 0.7814
vn 0.8147 0.3279 0.4783
vn 0.9152 0.2216 0.3365
vn 0.7136 0.3882 0.5831
vn -0.2902 0.1911 0.9377
vn 0.2803 0.3166 0.9062
vn 0.7142 0.3505 0.6058
vn 0.2061 0.0687 0.9761
vn -0.9854 -0.1691 0.0173
vn -0.8279 -0.0122 0.5607
vn -0.7447 -0.1975 0.6376
vn -0.9561 -0.2832 -0.0746
vn 0.9820 0.1500 -0.1146
vn 0.8498 -0.0405 -0.5255
vn 0.7598 -0.4417 -0.4771
vn 0.9802 -0.1572 -0.1208
vn -0.5030 -0.3243 -0.8011
vn -0.8870 -0.2476 -0.3898
vn -0.8879 -0.2013 -0.4136
vn -0.7427 -0.3872 -0.5463
vn -0.3381 0.4639 0.8188
vn -0.0853 -0.2058 0.9749
vn 0.2183 -0.2610 0.9403
vn 0.1353 0.4355 0.8900
vn -0.0255 0.7524 -0.6582
vn -0.2999 0.9341 0.1939
vn -0.2030 0.8987 0.3888
vn 0.1644 0.9726 -0.1646
vn 0.6093 -0.1522 -0.7782
vn 0.1952 -0.2623 -0.9450
vn -0.0882 -0.5089 -0.8563
vn 0.3135 -0.5762 -0.7548
vn 0.3437 -0.7511 0.5636
vn 0.6027 -0.6911 -0.3989
vn 0.7542 -0.5555 -0.3502
vn 0.7234 -0.5029 0.4730
vn 0.3169 -0.1004 -0.9431
vn 0.1750 0.2448 -0.9536
vn 0.1831 0.5830 -0.7915
vn 0.7405 0.1283 -0.6597
vn 0.8912 -0.4513 -0.0459
vn 0.5197 -0.7730 -0.3638
vn 0.4547 -0.7320 -0.5074
vn 0.8795 -0.4634 -0.1082
vn -0.4909 -0.6229 -0.6091
vn -0.0824 -0.8168 -0.5709
vn -0.7455 -0.3561 -0.5634
vn -0.2197 -0.6152 -0.7571
vn 0.7675 0.4270 0.4782
vn 0.9602 0.0299 0.2776
vn 0.9629 -0.0786 0.2583
vn 0.7487 0.3456 0.5657
vn -0.6118 0.2200 -0.7598
vn -0.8748 -0.1793 -0.4501
vn -0.9194 -0.0849 -0.3841
vn -0.5274 0.1461 -0.8370
vn -0.9051 0.3835 -0.1838
vn -0.5420 0.8205 0.1818
vn -0.7168 0.6639 0.2131
vn -0.9401 0.1490 -0.3067
vn 0.3814 -0.1976 0.9031
vn 0.8212 0.1989 0.5349
vn 0.8125 0.0731 0.5784
vn 0.2673 -0.1453 0.9526
vn 0.8576 0.5093 0.0709
vn 0.2718 0.7348 -0.6215
vn 0.4369 0.3328 -0.8357
vn 0.9640 0.2534 -0.0803
vn 0.0897 0.8970 0.4329
vn 0.6281 0.5904 0.5069
vn 0.3345 0.6660 0.6668
vn -0.2909 0.7883 0.5422
vn -0.9122 -0.4077 -0.0400
vn -0.5319 -0.5104 0.6756
vn -0.5745 -0.3156 0.7552
vn -0.9686 -0.2353 0.0803
vn -0.4695 0.0674 -0.8803
vn -0.9137 0.0399 -0.4044
vn -0.9052 0.0345 -0.4237
vn -0.4862 0.1053 -0.8675
vn 0.9861 0.0171 -0.1654
vn 0.4897 0.0630 -0.8696
vn 0.4654 0.1597 -0.8706
vn 0.9787 0.0917 -0.1836
vn 0.2856 -0.0142 0.9583
vn 0.8819 0.0007 0.4715
vn 0.9074 0.0172 0.4199
vn 0.3466 -0.0871 0.9340
vn -0.9921 0.0103 0.1246
vn -0.6022 -0.0085 0.7983
vn -0.5491 -0.1190 0.8272
vn -0.9891 -0.0525 0.1374
vn 0.9667 0.1915 -0.1696
vn 0.4245 0.2957 -0.8558
vn 0.4330 0.3251 -0.8408
vn 0.9332 0.3200 -0.1633
vn 0.3388 -0.1660 0.9261
vn 0.8899 0.0293 0.4551
vn 0.8792 0.0359 0.4751
vn 0.1833 -0.0499 0.9818
vn -0.5070 0.1596 -0.8471
vn -0.9151 -0.0060 -0.4033
vn -0.9135 -0.0021 -0.4067
vn -0.3161 0.3656 -0.8754
vn -0.9757 -0.1556 0.1542
vn -0.5282 -0.2523 0.8108
vn -0.5341 -0.2591 0.8048
vn -0.9731 -0.0840 0.2144
vn -0.1959 0.9448 0.2625
vn 0.8951 -0.3922 -0.2121
vn 0.4581 -0.5665 -0.6850
vn 0.4125 -0.5155 -0.7510
vn 0.8510 -0.3223 -0.4147
vn -0.3009 -0.4097 -0.8612
vn -0.8145 -0.0951 -0.5723
vn -0.9368 0.1771 -0.3017
vn -0.4631 -0.1745 -0.8689
vn 0.6863 0.2633 0.6780
vn 0.9590 -0.0866 0.2700
vn 0.9585 -0.0820 0.2731
vn 0.6370 0.3896 0.6652
vn -0.5865 0.5873 0.5577
vn 0.1444 0.5437 0.8268
vn 0.0557 0.5347 0.8432
vn -0.7077 0.6146 0.3485
vn 0.2474 0.8249 -0.5082
vn 0.8538 0.4432 0.2733
vn -0.8972 0.4309 0.0967
vn -0.2337 0.9633 -0.1324
vn 0.7019 0.6523 0.2859
vn -0.8685 -0.1939 -0.4562
vn -0.8350 0.2459 -0.4922
vn 0.6906 0.5405 -0.4805
vn 0.5368 0.1551 -0.8293
vn 0.5386 0.6419 0.5459
vn 0.7522 0.4134 -0.5131
vn 0.8698 0.4928 -0.0251
vn 0.7813 0.3094 -0.5421
vn 0.8084 0.2078 -0.5508
vn -0.8863 -0.1389 -0.4417
vn -0.9899 -0.1408 0.0141
vn -0.8764 -0.0917 0.4728
vn -0.6004 -0.0138 0.7996
vn -0.1178 0.1092 0.9870
vn 0.3695 0.1924 0.9091
vn 0.4022 0.1101 -0.9089
vn -0.1059 0.0120 -0.9943
vn -0.6109 -0.0954 -0.7859
vn -0.6168 0.7747 -0.1392
vn -0.9208 0.3293 0.2088
vn 0.0948 0.9679 -0.2327
vn 0.4737 0.5891 -0.6547
vn 0.8392 -0.2541 -0.4807
vn 0.3436 0.8373 0.4254
vn 0.6921 -0.1564 0.7047
vn 0.2386 -0.9385 0.2496
usemtl None
s 1
f 337/1/1 236/2/2 3/3/3 141/4/4
f 336/5/5 153/6/6 4/7/7 140/8/8
f 335/9/9 129/10/10 8/11/11 146/12/12
f 334/13/13 122/14/14 6/15/15 114/16/16
f 333/17/17 213/18/18 9/19/19 248/20/20
f 332/21/21 218/22/22 12/23/23 226/24/24
f 331/25/25 99/26/26 10/27/27 150/28/28
f 330/29/29 132/30/30 14/31/31 163/32/32
f 329/33/33 205/34/34 16/35/35 184/36/36
f 328/37/37 157/38/38 17/39/39 152/40/40
f 327/41/41 182/42/42 19/43/43 119/44/44
f 326/45/45 247/46/46 18/47/47 221/48/48
f 325/49/49 119/50/44 19/51/43 221/52/48
f 324/53/50 212/54/51 20/55/52 215/56/53
f 323/57/54 104/58/55 21/59/56 138/60/57
f 322/61/58 179/62/59 13/63/60 139/64/61
f 321/65/62 137/66/63 15/67/64 204/68/65
f 320/69/66 128/70/67 22/71/68 178/72/69
f 319/73/70 233/74/71 24/75/72 103/76/73
f 318/77/74 183/78/75 23/79/76 191/80/77
f 317/81/78 135/82/79 25/83/80 198/84/81
f 316/85/82 103/86/73 24/87/72 198/88/81
f 315/89/83 196/90/84 7/91/85 208/92/86
f 314/93/87 160/94/88 28/95/89 251/96/90
f 313/97/91 107/98/92 31/99/93 242/100/94
f 312/101/95 94/102/96 29/103/97 98/104/98
f 311/105/99 123/106/100 36/107/101 200/108/102
f 310/109/103 106/110/104 38/111/105 232/112/106
f 309/113/107 124/114/108 33/115/109 190/116/110
f 308/117/111 195/118/112 39/119/113 169/120/114
f 307/121/115 211/122/116 37/123/117 170/124/118
f 306/125/119 133/126/120 27/127/121 90/128/122
f 305/129/123 181/130/124 26/131/125 149/132/126
f 304/133/127 194/134/128 32/135/129 224/136/130
f 303/137/131 230/138/132 30/139/133 171/140/134
f 302/141/135 256/142/136 44/143/137 116/144/138
f 301/145/139 166/146/140 45/147/141 240/148/142
f 300/149/143 113/150/144 47/151/145 250/152/146
f 299/153/147 186/154/148 48/155/149 159/156/150
f 298/157/151 101/158/152 49/159/153 121/160/154
f 297/161/155 113/150/144 43/162/156 145/163/157
f 296/164/158 176/165/159 50/166/160 108/167/161
f 295/168/162 189/169/163 52/170/164 100/171/165
f 294/172/166 110/173/167 51/174/168 162/175/169
f 293/176/170 210/177/171 54/178/172 223/179/173
f 292/180/174 112/181/175 55/182/176 93/183/177
f 291/184/178 97/185/179 53/186/180 109/187/181
f 290/188/182 148/189/183 56/190/184 253/191/185
f 289/192/186 254/193/187 57/194/188 235/195/189
f 288/196/190 168/197/191 58/198/192 134/199/193
f 287/200/194 126/201/195 61/202/196 231/203/197
f 286/204/198 246/205/199 59/206/200 188/207/201
f 285/208/202 245/209/203 63/210/204 96/211/205
f 284/212/206 203/213/207 64/214/208 177/215/209
f 283/216/210 151/217/211 62/218/212 255/219/213
f 282/220/214 197/221/215 66/222/216 92/223/217
f 281/224/218 252/225/219 65/226/220 131/227/221
f 280/228/222 164/229/223 67/230/224 95/231/225
f 62/218/212 188/207/201 202/232/226
f 279/233/227 202/232/226 69/234/228 175/235/229
f 278/236/230 185/237/231 68/238/232 222/239/233
f 277/240/234 161/241/235 72/242/236 120/243/237
f 276/244/238 214/245/239 74/246/240 201/247/241
f 275/248/242 89/249/243 75/250/244 174/251/245
f 274/252/246 154/253/247 73/254/248 118/255/249
f 273/256/250 155/257/251 70/258/252 206/259/253
f 272/260/254 144/261/255 76/262/256 158/263/257
f 271/264/258 243/265/259 77/266/260 219/267/261
f 270/268/262 180/269/263 78/270/264 111/271/265
f 269/272/266 238/273/267 79/274/268 209/275/269
f 268/276/270 193/277/271 80/278/272 192/279/273
f 267/280/274 130/281/275 81/282/276 117/283/277
f 266/284/278 143/285/279 82/286/280 199/287/281
f 265/288/282 173/289/283 84/290/284 91/291/285
f 264/292/286 115/293/287 83/294/288 249/295/289
f 263/296/290 199/297/281 82/298/280 117/299/277
f 262/300/291 234/301/292 85/302/293 237/303/294
f 261/304/295 225/305/296 87/306/297 147/307/298
f 260/308/299 125/309/300 86/310/301 229/311/302
f 259/312/303 142/313/304 88/314/305 228/315/306
f 69/316/228 201/247/241 225/317/296
f 258/318/307 237/319/294 85/320/293 147/321/298
f 257/322/308 96/323/205 63/324/204 92/325/217
f 131/326/221 257/322/308 92/325/217 66/327/216
f 65/328/220 177/329/209 257/322/308 131/326/221
f 177/329/209 64/330/208 96/323/205 257/322/308
f 228/331/306 258/318/307 147/321/298 87/332/297
f 88/333/305 229/334/302 258/318/307 228/331/306
f 229/334/302 86/335/301 237/319/294 258/318/307
f 225/317/296 105/336/309 87/337/297
f 225/317/296 201/247/241 105/336/309
f 201/247/241 74/246/240 105/336/309
f 105/336/309 259/312/303 228/315/306 87/337/297
f 74/246/240 206/259/253 259/312/303 105/336/309
f 206/259/253 70/258/252 142/313/304 259/312/303
f 142/313/304 260/308/299 229/311/302 88/314/305
f 70/258/252 222/239/233 260/308/299 142/313/304
f 222/239/233 68/238/232 125/309/300 260/308/299
f 234/301/292 261/304/295 147/307/298 85/302/293
f 67/230/224 175/235/229 261/304/295 234/301/292
f 175/235/229 69/234/228 225/305/296 261/304/295
f 125/309/300 262/300/291 237/303/294 86/310/301
f 68/238/232 95/231/225 262/300/291 125/309/300
f 95/231/225 67/230/224 234/301/292 262/300/291
f 91/338/285 263/296/290 117/299/277 81/339/276
f 84/340/284 249/341/289 263/296/290 91/338/285
f 249/341/289 83/342/288 199/297/281 263/296/290
f 173/289/283 264/292/286 249/295/289 84/290/284
f 77/266/260 192/279/273 264/292/286 173/289/283
f 192/279/273 80/278/272 115/293/287 264/292/286
f 130/281/275 265/288/282 91/291/285 81/282/276
f 78/270/264 219/267/261 265/288/282 130/281/275
f 219/267/261 77/266/260 173/289/283 265/288/282
f 115/343/287 266/284/278 199/287/281 83/344/288
f 80/345/272 209/275/269 266/284/278 115/343/287
f 209/275/269 79/274/268 143/285/279 266/284/278
f 143/285/279 267/280/274 117/283/277 82/286/280
f 79/274/268 111/271/265 267/280/274 143/285/279
f 111/271/265 78/270/264 130/281/275 267/280/274
f 243/265/259 268/276/270 192/279/273 77/266/260
f 72/242/236 158/263/257 268/276/270 243/265/259
f 158/263/257 76/262/256 193/277/271 268/276/270
f 193/346/271 269/272/266 209/275/269 80/345/272
f 76/347/256 174/251/245 269/272/266 193/346/271
f 174/251/245 75/250/244 238/273/267 269/272/266
f 238/273/267 270/268/262 111/271/265 79/274/268
f 75/250/244 118/255/249 270/268/262 238/273/267
f 118/255/249 73/254/248 180/269/263 270/268/262
f 180/269/263 271/264/258 219/267/261 78/270/264
f 73/254/248 120/243/237 271/264/258 180/269/263
f 120/243/237 72/242/236 243/265/259 271/264/258
f 161/241/235 272/260/254 158/263/257 72/242/236
f 59/348/200 134/349/193 272/260/254 161/241/235
f 134/349/193 58/350/192 144/261/255 272/260/254
f 214/245/239 273/256/250 206/259/253 74/246/240
f 71/351/310 239/352/311 273/256/250 214/245/239
f 239/352/311 57/194/188 155/257/251 273/256/250
f 89/249/243 274/252/246 118/255/249 75/250/244
f 57/353/188 239/354/311 274/252/246 89/249/243
f 239/354/311 71/355/310 154/253/247 274/252/246
f 144/356/255 275/248/242 174/251/245 76/347/256
f 58/357/192 235/358/189 275/248/242 144/356/255
f 235/358/189 57/353/188 89/249/243 275/248/242
f 244/359/312 276/244/238 201/247/241 69/316/228
f 59/360/200 216/361/313 276/244/238 244/359/312
f 216/361/313 71/351/310 214/245/239 276/244/238
f 154/253/247 277/240/234 120/243/237 73/254/248
f 71/355/310 216/362/313 277/240/234 154/253/247
f 216/362/313 59/348/200 161/241/235 277/240/234
f 155/257/251 278/236/230 222/239/233 70/258/252
f 57/194/188 253/191/185 278/236/230 155/257/251
f 253/191/185 56/190/184 185/237/231 278/236/230
f 164/229/223 279/233/227 175/235/229 67/230/224
f 61/202/196 255/219/213 279/233/227 164/229/223
f 255/219/213 62/218/212 202/232/226 279/233/227
f 202/232/226 244/363/312 69/234/228
f 202/232/226 188/207/201 244/363/312
f 188/207/201 59/206/200 244/363/312
f 185/237/231 280/228/222 95/231/225 68/238/232
f 56/190/184 231/203/197 280/228/222 185/237/231
f 231/203/197 61/202/196 164/229/223 280/228/222
f 197/364/215 281/224/218 131/227/221 66/365/216
f 52/366/164 93/367/177 281/224/218 197/364/215
f 93/367/177 55/368/176 252/225/219 281/224/218
f 245/209/203 282/220/214 92/223/217 63/210/204
f 53/369/180 100/370/165 282/220/214 245/209/203
f 100/370/165 52/371/164 197/221/215 282/220/214
f 126/201/195 283/216/210 255/219/213 61/202/196
f 60/372/314 156/373/315 283/216/210 126/201/195
f 156/373/315 55/374/176 151/217/211 283/216/210
f 252/225/219 284/212/206 177/215/209 65/226/220
f 55/368/176 156/375/315 284/212/206 252/225/219
f 156/375/315 60/376/314 203/213/207 284/212/206
f 203/213/207 285/208/202 96/211/205 64/214/208
f 60/376/314 165/377/316 285/208/202 203/213/207
f 165/377/316 53/369/180 245/209/203 285/208/202
f 151/217/211 286/204/198 188/207/201 62/218/212
f 55/374/176 223/378/173 286/204/198 151/217/211
f 223/378/173 54/379/172 246/205/199 286/204/198
f 148/189/183 287/200/194 231/203/197 56/190/184
f 53/380/180 165/381/316 287/200/194 148/189/183
f 165/381/316 60/372/314 126/201/195 287/200/194
f 246/382/199 288/196/190 134/199/193 59/383/200
f 54/384/172 162/385/169 288/196/190 246/382/199
f 162/385/169 51/386/168 168/197/191 288/196/190
f 168/197/191 289/192/186 235/195/189 58/198/192
f 51/386/168 108/387/161 289/192/186 168/197/191
f 108/387/161 50/388/160 254/193/187 289/192/186
f 254/193/187 290/188/182 253/191/185 57/194/188
f 50/388/160 109/389/181 290/188/182 254/193/187
f 109/389/181 53/380/180 148/189/183 290/188/182
f 176/165/159 291/184/178 109/187/181 50/166/160
f 48/155/149 250/152/146 291/184/178 176/165/159
f 250/152/146 47/151/145 97/185/179 291/184/178
f 189/169/163 292/180/174 93/183/177 52/170/164
f 46/390/317 240/148/142 292/180/174 189/169/163
f 240/148/142 45/147/141 112/181/175 292/180/174
f 112/181/175 293/176/170 223/179/173 55/182/176
f 45/147/141 116/144/138 293/176/170 112/181/175
f 116/144/138 44/143/137 210/177/171 293/176/170
f 210/391/171 294/172/166 162/175/169 54/392/172
f 44/393/137 121/160/154 294/172/166 210/391/171
f 121/160/154 49/159/153 110/173/167 294/172/166
f 97/185/179 295/168/162 100/171/165 53/186/180
f 47/151/145 136/394/318 295/168/162 97/185/179
f 136/394/318 46/390/317 189/169/163 295/168/162
f 110/173/167 296/164/158 108/167/161 51/174/168
f 49/159/153 159/156/150 296/164/158 110/173/167
f 159/156/150 48/155/149 176/165/159 296/164/158
f 217/395/319 297/161/155 145/163/157 35/396/320
f 46/390/317 136/394/318 297/161/155 217/395/319
f 136/394/318 47/151/145 113/150/144 297/161/155
f 256/397/136 298/157/151 121/160/154 44/393/137
f 40/398/321 241/399/322 298/157/151 256/397/136
f 241/399/322 42/400/323 101/158/152 298/157/151
f 101/158/152 299/153/147 159/156/150 49/159/153
f 42/400/323 220/401/324 299/153/147 101/158/152
f 220/401/324 41/402/325 186/154/148 299/153/147
f 186/154/148 300/149/143 250/152/146 48/155/149
f 41/402/325 127/403/326 300/149/143 186/154/148
f 127/403/326 43/162/156 113/150/144 300/149/143
f 217/395/319 301/145/139 240/148/142 46/390/317
f 35/396/320 207/404/327 301/145/139 217/395/319
f 207/404/327 34/405/328 166/146/140 301/145/139
f 166/146/140 302/141/135 116/144/138 45/147/141
f 34/405/328 102/406/329 302/141/135 166/146/140
f 102/406/329 40/407/321 256/142/136 302/141/135
f 133/126/120 303/137/131 171/140/134 27/127/121
f 42/400/323 241/399/322 303/137/131 133/126/120
f 241/399/322 40/398/321 230/138/132 303/137/131
f 123/106/100 304/133/127 224/136/130 36/107/101
f 35/396/320 145/163/157 304/133/127 123/106/100
f 145/163/157 43/162/156 194/134/128 304/133/127
f 194/134/128 305/129/123 149/132/126 32/135/129
f 43/162/156 127/403/326 305/129/123 194/134/128
f 127/403/326 41/402/325 181/130/124 305/129/123
f 181/130/124 306/125/119 90/128/122 26/131/125
f 41/402/325 220/401/324 306/125/119 181/130/124
f 220/401/324 42/400/323 133/126/120 306/125/119
f 230/408/132 307/121/115 170/124/118 30/409/133
f 40/407/321 102/406/329 307/121/115 230/408/132
f 102/406/329 34/405/328 211/122/116 307/121/115
f 106/110/104 308/117/111 169/120/114 38/111/105
f 37/123/117 200/108/102 308/117/111 106/110/104
f 200/108/102 36/107/101 195/118/112 308/117/111
f 195/118/112 309/113/107 190/116/110 39/119/113
f 36/107/101 224/136/130 309/113/107 195/118/112
f 224/136/130 32/135/129 124/114/108 309/113/107
f 107/410/92 310/109/103 232/112/106 31/411/93
f 30/409/133 170/124/118 310/109/103 107/410/92
f 170/124/118 37/123/117 106/110/104 310/109/103
f 211/122/116 311/105/99 200/108/102 37/123/117
f 34/405/328 207/404/327 311/105/99 211/122/116
f 207/404/327 35/396/320 123/106/100 311/105/99
f 124/114/108 312/101/95 98/104/98 33/115/109
f 32/135/129 149/132/126 312/101/95 124/114/108
f 149/132/126 26/131/125 94/102/96 312/101/95
f 160/94/88 313/97/91 242/100/94 28/95/89
f 27/127/121 171/140/134 313/97/91 160/94/88
f 171/140/134 30/139/133 107/98/92 313/97/91
f 94/102/96 314/93/87 251/96/90 29/103/97
f 26/131/125 90/128/122 314/93/87 94/102/96
f 90/128/122 27/127/121 160/94/88 314/93/87
f 167/412/330 315/89/83 208/92/86 2/413/331
f 1/414/332 227/415/333 315/89/83 167/412/330
f 227/415/333 5/416/334 196/90/84 315/89/83
f 191/417/77 316/85/82 198/88/81 25/418/80
f 23/419/76 178/420/69 316/85/82 191/417/77
f 178/420/69 22/421/68 103/86/73 316/85/82
f 233/74/71 317/81/78 198/84/81 24/75/72
f 15/67/64 163/32/32 317/81/78 233/74/71
f 163/32/32 14/31/31 135/82/79 317/81/78
f 135/422/79 318/77/74 191/80/77 25/423/80
f 14/424/31 138/60/57 318/77/74 135/422/79
f 138/60/57 21/59/56 183/78/75 318/77/74
f 128/70/67 319/73/70 103/76/73 22/71/68
f 20/55/52 204/68/65 319/73/70 128/70/67
f 204/68/65 15/67/64 233/74/71 319/73/70
f 183/78/75 320/69/66 178/72/69 23/79/76
f 21/59/56 215/56/53 320/69/66 183/78/75
f 215/56/53 20/55/52 128/70/67 320/69/66
f 212/54/51 321/65/62 204/68/65 20/55/52
f 4/425/7 172/426/335 321/65/62 212/54/51
f 172/426/335 11/427/336 137/66/63 321/65/62
f 218/428/22 322/61/58 139/64/61 12/429/23
f 11/430/336 172/431/335 322/61/58 218/428/22
f 172/431/335 4/7/7 179/62/59 322/61/58
f 132/432/30 323/57/54 138/60/57 14/424/31
f 8/433/11 114/434/16 323/57/54 132/432/30
f 114/434/16 6/435/15 104/58/55 323/57/54
f 104/58/55 324/53/50 215/56/53 21/59/56
f 6/435/15 140/436/8 324/53/50 104/58/55
f 140/436/8 4/425/7 212/54/51 324/53/50
f 152/437/40 325/49/49 221/52/48 18/438/47
f 17/439/39 184/440/36 325/49/49 152/437/40
f 184/440/36 16/441/35 119/50/44 325/49/49
f 182/42/42 326/45/45 221/48/48 19/43/43
f 9/19/19 226/24/24 326/45/45 182/42/42
f 226/24/24 12/23/23 247/46/46 326/45/45
f 205/34/34 327/41/41 119/44/44 16/35/35
f 10/27/27 248/20/20 327/41/41 205/34/34
f 248/20/20 9/19/19 182/42/42 327/41/41
f 247/442/46 328/37/37 152/40/40 18/443/47
f 12/429/23 139/64/61 328/37/37 247/442/46
f 139/64/61 13/63/60 157/38/38 328/37/37
f 157/38/38 329/33/33 184/36/36 17/39/39
f 13/63/60 150/28/28 329/33/33 157/38/38
f 150/28/28 10/27/27 205/34/34 329/33/33
f 137/66/63 330/29/29 163/32/32 15/67/64
f 11/427/336 187/444/337 330/29/29 137/66/63
f 187/444/337 8/445/11 132/30/30 330/29/29
f 179/62/59 331/25/25 150/28/28 13/63/60
f 4/7/7 141/4/4 331/25/25 179/62/59
f 141/4/4 3/3/3 99/26/26 331/25/25
f 213/18/18 332/21/21 226/24/24 9/19/19
f 8/11/11 187/446/337 332/21/21 213/18/18
f 187/446/337 11/447/336 218/22/22 332/21/21
f 99/26/26 333/17/17 248/20/20 10/27/27
f 3/3/3 146/12/12 333/17/17 99/26/26
f 146/12/12 8/11/11 213/18/18 333/17/17
f 129/10/10 334/13/13 114/16/16 8/11/11
f 7/448/85 196/449/84 334/13/13 129/10/10
f 196/449/84 5/450/334 122/14/14 334/13/13
f 236/2/2 335/9/9 146/12/12 3/3/3
f 2/451/331 208/452/86 335/9/9 236/2/2
f 208/452/86 7/448/85 129/10/10 335/9/9
f 122/453/14 336/5/5 140/8/8 6/454/15
f 5/455/334 227/456/333 336/5/5 122/453/14
f 227/456/333 1/457/332 153/6/6 336/5/5
f 153/6/6 337/1/1 141/4/4 4/7/7
f 1/457/332 167/458/330 337/1/1 153/6/6
f 167/458/330 2/451/331 236/2/2 337/1/1
