# Blender v2.78 (sub 0) OBJ File: ''
# www.blender.org
mtllib Oak_Tree_crk_m_01.mtl
o Oak_Tree_crk_m_01
v 1.151476 0.230208 4.555461
v 1.685142 0.139386 4.842286
v 2.118076 0.671590 4.842468
v 1.923671 1.236712 4.462772
v 1.207535 0.972837 4.382172
v 0.997111 0.715594 3.830423
v 1.036706 0.054096 3.718635
v 1.686238 -0.190321 4.278897
v 2.402107 0.108588 4.577014
v 1.376886 1.385056 3.786247
v 2.300874 1.550236 3.783959
v 2.241813 1.499123 2.920760
v 2.350576 0.978983 2.165379
v 1.300468 1.138363 2.996414
v 1.324181 0.516224 2.656756
v 3.238396 1.191979 2.584125
v 3.043148 1.458638 3.289929
v 3.508525 1.121748 3.390924
v 3.729866 0.609028 2.779923
v 3.210773 0.943683 4.223280
v 3.785356 0.207940 3.186562
v 3.173848 0.332045 2.065444
v 2.735176 -0.182856 2.118821
v 2.422286 0.235589 1.913730
v 3.353692 -0.116825 2.782143
v 3.314716 0.129683 3.918622
v 3.020054 0.550277 4.584317
v 2.664744 -0.166982 3.764515
v 2.516061 -0.236389 2.983501
v 1.824991 -0.199756 2.792866
v -0.324903 5.690081 -2.453996
v -1.049933 6.192348 -2.575112
v -0.929315 7.025361 -2.247600
v -0.085633 6.838523 -1.624344
v 0.179426 6.115390 -1.963081
v -0.182610 4.838024 -1.953074
v -0.829320 4.856487 -2.114614
v 0.309820 5.431200 -1.517288
v -1.346327 5.460454 -2.362753
v 0.386336 6.069822 -1.258549
v -0.125133 6.872265 -0.714118
v -0.049152 6.196330 -0.170849
v -0.690931 5.499235 0.436372
v 0.096099 5.191831 -0.556422
v -1.755224 6.391980 0.345722
v -0.797793 6.957493 -0.047461
v -1.526182 7.188967 -0.290163
v -1.969564 6.858675 -0.471231
v -1.622419 7.360615 -1.246713
v -2.360623 6.412179 -0.672221
v -1.779908 5.378050 0.374100
v -1.750848 4.812752 -0.149715
v -1.131476 4.850896 0.218063
v -2.323339 5.596797 -0.516188
v -0.871347 6.369366 0.439982
v -2.171276 6.398050 -1.759440
v -1.773671 7.160838 -1.841449
v -2.224122 5.593677 -1.668818
v -1.996501 5.076145 -1.219076
v -1.520195 4.598166 -1.334913
v -0.560644 4.394327 -1.050988
v -0.901451 7.389929 -1.051740
v 0.936325 0.145646 0.747250
v 0.870255 0.096758 0.789779
v 1.189071 0.170019 1.822163
v 1.306677 0.217389 1.821679
v 0.967258 0.070486 0.693125
v 1.376530 0.156823 1.702065
v 0.880576 0.008777 0.744007
v 1.275759 0.088816 1.810461
v 1.061599 -0.002149 2.831554
v 1.040649 0.041985 2.826120
v 1.358270 0.138417 1.985152
v 1.100372 0.033609 2.859736
v 1.072816 0.070298 2.838332
v 1.942414 0.044481 1.910889
v 1.923726 0.089906 1.971967
v 1.127409 0.110292 3.542699
v 1.143499 0.124340 3.549291
v 1.158541 0.106920 3.555351
v 1.138181 0.088703 3.545892
v 1.930947 0.148013 1.914585
v 1.969541 0.109109 1.895905
v 2.407827 0.431544 2.144350
v 2.429928 0.425520 2.127556
v 2.398312 0.405867 2.159122
v 2.417627 0.400122 2.135820
v -0.022221 0.352531 0.216857
v -0.209287 0.334989 0.038366
v -0.250504 0.030724 0.060381
v -0.026101 0.033618 0.267282
v -0.211332 0.327212 -0.148144
v -0.252903 0.029730 -0.168431
v 0.260096 0.318745 0.084044
v 0.300198 0.028708 0.109587
v -0.068542 1.133882 -0.258711
v 0.158997 1.112369 -0.168699
v 0.256977 0.306986 -0.189650
v -0.026422 0.336502 -0.334545
v -0.031085 0.031630 -0.383605
v 0.296647 0.027085 -0.212740
v -0.221692 1.122007 -0.137617
v -0.066271 1.148790 0.127007
v -0.220604 1.129262 0.011464
v 0.160901 1.123097 0.046636
v -0.470193 1.976529 -0.204475
v -0.358385 2.013963 -0.274664
v -0.238335 2.046046 -0.205028
v -0.246152 2.060675 -0.062265
v -0.367172 2.027217 0.001836
v -0.474965 1.983015 -0.071103
v -0.777968 2.785779 -0.032487
v -0.869953 2.755766 -0.084420
v -0.590690 2.631009 -0.168006
v -0.660058 2.790592 -0.068887
v -0.869797 2.751221 -0.197362
v -0.748017 2.763051 -0.238901
v -0.901259 4.032599 -0.523667
v -0.994417 4.124299 -0.455111
v -1.090938 4.019773 -0.381924
v -1.081498 4.100787 -0.561130
v -0.697217 2.934258 -0.174495
v -0.918369 4.009740 -0.599380
v -0.993850 4.010733 -0.635500
v -0.236964 2.946091 0.026990
v -0.254561 3.037865 -0.014710
v -0.225429 3.020465 -0.095745
v -0.181313 2.931581 -0.078890
v -0.678248 4.561702 -1.445240
v -0.659835 4.590842 -1.411229
v -0.753385 4.553273 -1.407564
v -0.687404 4.629393 -1.398193
v -1.039733 4.278061 -0.602322
v -1.386237 4.660457 -0.211872
v -1.335018 4.704719 -0.234798
v -0.726223 4.639261 -1.428926
v -1.319150 4.680694 -0.142522
v -1.376919 4.645199 -0.128611
v -1.373649 5.325353 -0.170191
v -1.335348 5.335841 -0.192976
v -1.325031 5.341144 -0.131827
v -1.366364 5.334768 -0.116599
v -1.476189 6.303146 0.070594
v -1.471102 6.296435 0.096552
v -1.487431 6.286664 0.100017
v -1.490758 6.291117 0.076634
v -0.471125 5.261407 -1.887596
v -0.462781 5.269841 -1.873253
v -0.501315 5.232199 -1.857132
v -0.474852 5.279935 -1.865238
v -1.789236 5.923888 -2.182152
v -0.796314 5.559414 -2.543330
v -0.844222 7.232116 -0.505447
v 1.196741 0.124366 1.810670
v 0.232809 6.109355 -0.711145
v 1.356639 -0.086470 3.300328
v -0.204054 0.701337 -0.138408
v -2.240781 5.890834 -1.710630
v 0.283609 0.309320 -0.052198
v 1.051918 0.049917 1.213316
v -0.984343 3.393840 -0.245555
v -0.202190 0.709275 0.027751
v -0.293327 2.031579 -0.248493
v -1.483625 6.320487 0.106216
v -0.383490 6.634897 -0.063017
v -0.030181 0.147015 -0.370566
v -0.194463 2.942657 -0.022641
v 1.531601 0.118400 2.673244
v 3.596394 0.167704 3.518456
v 2.893274 0.104875 4.270348
v -0.704782 4.570177 -1.455246
v -0.954269 4.006934 -0.622529
v 0.352132 6.078225 -1.647766
v 2.321099 -0.214528 2.354845
v -0.155691 1.129059 -0.207711
v -2.389424 6.046645 -0.576402
v -1.774960 7.032238 -0.360023
v -0.007205 4.849336 -1.276898
v 3.509372 0.464166 2.380558
v 1.231467 1.188127 4.124248
v -0.777819 5.994236 0.467920
v -0.565349 4.983018 -1.677507
v -1.780251 5.816278 0.394197
v 3.438925 1.061084 3.733936
v 0.891818 0.121281 0.739117
v 3.003614 -0.057543 3.821342
v 2.770615 1.389987 2.679526
v -0.798603 4.334351 -0.966142
v -0.839421 4.379198 -0.944113
v 3.323467 1.285717 3.378879
v 1.747496 1.489819 3.341958
v 3.386712 -0.052966 3.352063
v 2.437923 0.424130 2.138341
v 1.451452 0.158950 4.761276
v 2.432844 0.439143 2.143059
v -0.462765 5.295465 -1.881393
v -1.386767 4.649028 -0.168435
v 1.351717 0.180867 1.956156
v -0.236426 0.141542 -0.158372
v 1.135534 0.102034 3.564703
v -0.469769 2.885556 -0.153934
v 1.335187 0.105857 1.949249
v 1.931546 0.061112 1.945004
v -0.232915 2.057299 -0.133431
v -1.478093 6.329875 0.091609
v -0.716490 4.659204 -1.479818
v 0.144983 0.029358 -0.332206
v -0.830515 2.754461 -0.234729
v -0.671685 2.341353 -0.189167
v 2.758148 0.346753 4.594346
v -1.844392 7.109023 -0.788148
v -1.884005 5.564701 -2.015755
v 0.168914 6.503844 -0.978225
v -0.276029 6.545580 -2.192608
v -0.031555 0.727702 0.174717
v -0.899004 7.317707 -1.685614
v -1.927074 6.927089 -1.822578
v 1.115601 0.254847 3.189852
v 1.627558 0.174027 1.862588
v 0.126657 0.337331 0.170513
v 1.031933 0.139669 1.252375
v 0.943104 0.107027 0.686110
v 2.692859 1.526407 3.068229
v 2.416332 0.428618 2.158889
v 1.076553 0.070701 3.234462
v -2.142494 5.966866 0.001789
v -1.023782 6.553207 -2.476660
v 3.141453 1.386663 2.940699
v -0.482176 7.165559 -0.852478
v 2.030914 -0.077236 4.503216
v 1.543535 0.461043 4.764513
v 1.338865 0.116796 1.708618
v -0.225375 0.329303 -0.054462
v -1.386778 4.968986 -0.188561
v -1.167118 5.874236 -2.530129
v 1.702556 -0.241326 3.540076
v -0.682378 2.910179 -0.121636
v 3.245153 0.784709 2.268490
v 0.270559 5.262670 -1.065267
v 1.154297 0.118568 3.572776
v 1.047884 0.016899 2.827024
v 1.893138 0.377968 2.207194
v -1.406197 5.858277 -0.057694
v 2.214310 0.223848 2.030150
v -1.252062 7.460205 -1.193773
v -0.302367 2.046309 -0.021352
v -1.328216 4.987617 -0.135363
v -1.487906 6.327289 0.081345
v -1.321896 4.696507 -0.190467
v -0.422537 6.958302 -0.381199
v 2.520697 -0.064657 4.205473
v 0.106903 5.677642 -0.363887
v 2.102545 0.002381 2.252977
v -0.234177 2.998119 0.012793
v -1.286237 6.759056 0.243787
v -0.719658 4.522328 -1.641850
v 1.112513 1.087223 3.816379
v -1.431973 5.848252 -0.043418
v -0.899822 3.433861 -0.216430
v -1.256406 4.390622 -0.363830
v 1.725858 1.345231 2.918359
v 3.135793 1.282241 3.783244
v 3.028718 -0.171911 3.289467
v 2.598930 -0.011155 1.969476
v 1.100547 0.190489 1.220819
v -0.715126 6.020295 -2.601389
v -0.330573 1.561101 -0.031548
v 1.091917 0.039425 3.240353
v 1.290971 -0.114888 4.011605
v 1.173582 0.144172 2.345375
v -0.903933 4.018819 -0.561820
v 1.630578 0.104052 1.932123
v 1.951768 0.134643 1.901669
v -0.158953 0.032171 0.185788
v -0.027429 1.599257 -0.010096
v 1.089834 0.054973 2.850848
v -0.847267 4.579124 -0.328513
v -0.474366 5.297760 -1.884081
v -0.675290 2.349299 -0.066374
v -0.816792 4.302138 -1.020216
v -0.418584 1.992882 -0.248432
v 0.053773 1.137361 0.101588
v 1.924212 0.123220 1.947027
v -2.198197 5.265713 -0.846544
v 0.122624 0.321847 -0.282587
v -1.344846 5.339124 -0.118747
v -0.596527 2.662892 -0.103753
v -0.453402 2.365167 -0.192017
v -0.839093 3.444114 -0.357034
v -1.551225 7.347426 -0.746263
v -0.279618 5.795837 0.158240
v -1.068111 4.246737 -0.607556
v 0.060779 6.497527 -1.847774
v 3.627862 0.206467 2.657637
v -0.908255 4.293172 -0.985732
v -1.451663 4.962528 -1.887089
v -1.554614 6.305170 -2.289971
v -2.110173 5.350339 -1.489992
v 2.701142 1.516581 3.537362
v 2.928242 -0.218303 2.832294
v 3.048102 -0.171474 2.370943
v -0.609059 4.931417 -1.669013
v 1.619149 0.052685 1.855148
v 3.624317 0.926920 3.154453
v -0.531287 6.367042 -2.466396
v 2.289903 0.383333 4.792907
v 3.170708 0.377958 4.335227
v -1.596286 6.775286 -2.139903
v 1.834853 1.520409 3.777786
v 1.167475 0.616167 4.492124
v -0.034941 5.965375 -2.213462
v -0.919403 3.397463 -0.407982
v 2.201104 0.289520 2.036189
v 1.851764 0.351064 4.875201
v 2.205507 -0.194074 4.042856
v -1.180140 4.411050 -0.278359
v -0.025869 1.590699 -0.187436
v -0.234146 0.145864 0.049740
v 1.357951 0.195490 1.715313
v -0.162988 0.030680 -0.298980
v 1.202416 0.086090 2.390406
v 2.831805 0.678271 2.030745
v -2.335133 5.597730 -1.188267
v 1.217065 0.201191 1.817583
v -0.460532 2.942017 -0.075715
v -0.153838 1.140878 0.078277
v -1.426723 5.851563 -0.006260
v -1.326301 5.338891 -0.164373
v -1.054223 4.044293 -0.371800
v -0.877536 2.751987 -0.140549
v -0.472061 2.410301 -0.060311
v 0.043907 5.076143 -1.761117
v 2.508099 1.137348 4.459961
v -1.201520 4.452281 -0.382836
v -1.013678 4.071426 -0.670367
v -2.084684 5.168066 -0.252266
v -0.185939 2.984944 -0.087327
v -1.950130 6.676009 -0.084214
v -2.015826 6.933705 -1.466278
v -0.258606 5.308460 0.014706
v -1.243758 4.360344 -0.268591
v -1.726918 5.201663 -1.815008
v -1.840880 5.093379 0.181586
v 2.802405 0.281352 1.890907
v -1.773519 4.832697 -1.263561
v -0.290146 4.603293 -1.601995
v -1.292814 5.433367 0.490098
v 1.641363 -0.026242 4.675529
v -1.225611 6.384856 0.476104
v 0.149871 0.031163 0.221758
v -0.505334 4.919892 -0.133085
v 2.168659 -0.261905 2.909566
v 0.994308 0.451254 4.222621
v 1.099124 0.090950 3.245180
v 1.760040 1.096329 2.550984
v 1.047559 0.855430 4.159008
v -0.276728 0.030227 -0.053316
v -0.194509 5.201738 -2.197542
v -1.340962 4.994370 -0.212902
v 2.675978 0.622546 4.736729
v 2.108955 -0.245043 3.592496
v 1.151543 0.100289 3.571027
v -0.181498 4.747227 -0.762898
v -0.128187 0.345974 0.140830
v -1.378601 4.968501 -0.119656
v 0.340067 0.027897 -0.050571
v -0.992009 3.405971 -0.354976
v 0.285720 0.130275 -0.204579
v -0.131517 0.333189 -0.255169
v -0.460844 5.286694 -1.892975
v -1.398635 5.858541 -0.015497
v -0.644761 2.648277 -0.201404
v -1.355350 5.329430 -0.187050
v -0.880605 4.410353 -1.011180
v 0.051373 1.123212 -0.228828
v -1.210903 4.504261 -0.504962
v -0.083800 6.880964 -1.175819
v -0.828146 2.770558 -0.051750
v -0.035386 0.711389 -0.292573
v -1.104073 4.031783 -0.432954
v -1.637783 6.864268 0.070474
v -1.042436 5.133195 -2.292888
v -0.470997 4.816629 -2.049204
v -0.930612 4.314110 -0.972789
v -0.196215 1.580338 -0.265000
v -2.182058 6.353130 -0.156176
v -1.452980 4.781812 0.095701
v -1.116466 4.423469 -1.163081
v 3.325864 0.069341 2.340642
v 3.612290 0.514166 3.649108
v 1.983232 0.127161 4.764147
v 2.586084 -0.217934 3.397291
v 1.038586 0.110590 4.185842
v 0.861480 0.047954 0.737608
v 1.796387 0.769830 2.314016
v 2.296735 1.287817 2.511281
v -0.393933 2.805722 -0.122385
v -0.610279 4.912112 -1.682584
v -0.587485 5.224626 -2.370900
v 3.448576 1.172921 2.990299
v 1.533237 1.133891 4.451419
v -0.730357 2.896975 -0.215218
v -0.200178 1.593861 0.059950
v 1.126067 0.106142 2.339046
v -1.237253 7.356748 -0.633197
v 2.392061 0.584988 1.973528
v -0.576544 2.385607 -0.003412
v 0.342810 5.640303 -0.925467
v -0.823396 3.426774 -0.262444
v -0.233752 1.124131 -0.062719
v 1.144081 0.115964 1.175570
v 2.722269 1.329945 4.057671
v -0.472676 5.286664 -1.897275
v 1.959102 0.072535 1.899646
v -1.623195 4.620335 -0.743062
v 0.222958 0.680644 -0.176196
v 0.209784 6.471089 -1.471701
v 0.312946 5.790625 -1.783513
v 2.673015 0.862485 4.665626
v 3.383659 0.497326 4.107351
v -1.361751 4.684439 -0.231687
v -2.347932 6.410717 -1.146075
v -2.079793 5.490454 0.054741
v 0.424955 5.730795 -1.383510
v -0.727518 2.793170 -0.049411
v -2.402273 5.972583 -1.140293
v -0.037110 6.567700 -0.452374
v -0.571021 2.364627 -0.253057
v 1.599840 1.357259 4.159930
v -0.437052 6.978981 -1.943690
v -0.025495 0.155897 0.253132
v 1.670523 0.121873 1.837519
v -2.071512 6.877105 -0.999834
v 1.089501 0.953710 3.384947
v 1.054371 0.059725 2.831022
v -0.481568 6.293172 0.216163
v 1.295406 1.277927 3.389482
v 3.610807 0.764077 3.482738
v 1.313695 -0.024809 4.496998
v -1.505325 7.151788 -2.008106
v -0.848090 6.640938 0.255078
v -0.889355 5.127284 0.351347
v 2.828976 1.106678 2.309589
v -0.546832 4.959066 -1.686938
v 2.240818 1.579270 3.363959
v 2.050344 0.990979 4.679710
v 2.421412 0.413606 2.154171
v 2.230969 0.268809 2.018460
v 3.548027 0.891215 2.622090
v 0.092919 5.546394 -2.022359
v -0.438625 2.853933 -0.008277
v 0.289195 0.136862 0.100599
v -1.273357 7.363930 -1.761967
v -0.481907 1.975832 -0.138005
v 0.180924 1.114767 -0.060524
v 1.138288 0.120312 3.566451
v 1.152040 0.042647 2.335627
v 0.912766 0.033700 0.684600
v -1.373895 5.329662 -0.141424
v -0.426102 2.003540 -0.025987
v -0.707696 4.638431 -1.411496
v -1.949548 4.926082 -0.657305
v -1.493439 6.317901 0.095952
v 0.225800 0.692743 0.069343
v -0.927125 4.052792 -0.499206
v 2.640885 -0.242321 2.506875
v -1.346912 4.661096 -0.127215
v -0.670932 4.611210 -1.402386
v -1.693782 7.256210 -1.672162
v 3.115106 0.704518 4.506328
v -0.225653 3.040406 -0.051893
v 2.190670 0.248543 2.070722
v -1.247705 5.914448 0.527083
v -0.665472 4.573260 -1.427973
v -1.213390 7.103875 -0.136869
v -2.143169 6.678684 -0.536741
v -0.482564 7.166153 -1.407285
v -1.167652 4.689576 -1.769268
v -1.479859 5.084695 0.388248
v 2.121806 1.405408 4.157927
v 3.663930 0.047135 2.983838
v 1.060033 0.615396 3.258299
v 2.987298 0.014460 2.028649
v 3.776549 0.377149 3.016022
v -1.020004 4.259789 -0.550942
v 1.083347 0.012147 2.846848
v 1.278167 0.859089 2.812713
v -0.560364 4.940490 -1.709360
v -0.328568 1.554440 -0.172729
v 1.120821 0.066096 3.255766
v 0.966291 0.353619 3.774709
v 1.584196 0.832418 4.655437
v -0.166532 3.014125 -0.027301
v -0.449199 5.353664 -1.925674
v -0.578997 4.985351 -1.684946
v -0.554382 4.971869 -1.680437
v -0.577350 4.946810 -1.713080
v -0.551283 4.947974 -1.698411
v -1.498954 6.412529 0.117274
v -1.431889 5.849106 -0.023729
v -1.419689 5.853095 -0.054299
v -1.412075 5.855221 -0.007134
v -1.399875 5.859211 -0.037704
v -1.387228 4.966644 -0.152219
v -1.352422 4.977717 -0.120601
v -1.330051 4.993093 -0.176022
v -1.364857 4.982020 -0.207640
v -1.255672 4.370182 -0.314853
v -0.860403 4.399659 -0.976080
v -1.185240 4.436966 -0.331955
v -1.210344 4.382324 -0.264053
v -0.899274 4.381176 -1.022331
v -1.230568 4.424825 -0.382755
v -0.816620 4.356617 -0.949559
v -0.848854 4.308286 -1.036610
v -0.802973 4.315564 -0.993197
v -0.430178 2.840701 -0.147233
v -0.411668 2.821906 -0.060661
v -0.876848 3.421186 -0.388835
v -0.469761 2.921709 -0.119494
v -0.451251 2.902913 -0.032923
v -0.959443 3.400176 -0.388557
v -0.824489 3.437185 -0.309397
v -0.994952 3.398583 -0.299106
v -0.945100 3.413649 -0.224256
v -0.857233 3.431241 -0.234268
v -0.521002 2.401793 -0.023421
v -0.507017 2.363781 -0.231040
v -0.626421 2.352952 -0.228988
v -0.681982 2.342604 -0.127708
v -0.453055 2.388668 -0.125962
v -0.630526 2.366558 -0.027218
v -0.011497 1.595465 -0.098404
v -0.340537 1.555049 -0.102068
v -0.273093 1.577619 0.023045
v -0.108427 1.598449 0.036741
v -0.105453 1.586350 -0.238103
v -0.269826 1.566764 -0.228070
v -0.216957 0.703655 -0.054937
v 0.247403 0.683438 -0.052871
v 0.104212 0.711778 0.139444
v -0.128289 0.720521 0.112364
v -0.131327 0.707586 -0.227177
v 0.136019 0.138697 -0.310579
v 0.315611 0.131796 -0.051310
v -0.147496 0.144945 -0.279992
v 0.100532 0.696112 -0.252191
v 0.140518 0.147227 0.199393
v -0.252203 0.142804 -0.053837
v -0.143781 0.151987 0.166279
v 0.868357 0.068712 0.616814
v 2.468241 0.458208 2.169322
v 2.201212 0.232142 2.052617
v 2.225164 0.244187 2.021555
v 2.193363 0.271174 2.056206
v 2.217314 0.283219 2.025144
v 1.627581 0.143923 1.902169
v 1.192617 0.118975 2.370773
v 1.646324 0.082395 1.841519
v 1.651322 0.154515 1.845941
v 1.153938 0.118511 3.630031
v 1.108117 0.050112 3.248837
v 1.081806 0.052849 3.236175
v 1.112401 0.080737 3.251706
v 1.086090 0.083473 3.239044
v 1.622582 0.071803 1.897748
v 1.147239 0.130893 2.340247
v 1.179813 0.058633 2.364979
v 1.134435 0.070551 2.334453
v 1.100996 0.075190 1.190465
v 1.034340 0.089279 1.236115
v 1.129899 0.158740 1.194925
v 1.063244 0.172829 1.240575
vt 0.7123 0.5575
vt 0.7162 0.5561
vt 0.7201 0.5598
vt 0.7280 0.5621
vt 0.7240 0.5660
vt 0.7194 0.5642
vt 0.7108 0.5664
vt 0.7067 0.5649
vt 0.7115 0.5619
vt 0.7074 0.5605
vt 0.7071 0.5567
vt 0.7135 0.5523
vt 0.7201 0.5547
vt 0.7175 0.5509
vt 0.7236 0.5509
vt 0.7069 0.5745
vt 0.7135 0.5723
vt 0.7127 0.5793
vt 0.6643 0.5324
vt 0.6714 0.5354
vt 0.6640 0.5381
vt 0.6638 0.5438
vt 0.6604 0.5483
vt 0.6565 0.5421
vt 0.6492 0.5403
vt 0.6532 0.5466
vt 0.6421 0.5472
vt 0.7047 0.5690
vt 0.7089 0.5705
vt 0.6658 0.5559
vt 0.6697 0.5537
vt 0.6706 0.5580
vt 0.6665 0.5605
vt 0.6671 0.5651
vt 0.6770 0.5658
vt 0.6672 0.5676
vt 0.6590 0.5629
vt 0.6557 0.5652
vt 0.6560 0.5616
vt 0.6636 0.5691
vt 0.6630 0.5640
vt 0.6595 0.5681
vt 0.6615 0.5544
vt 0.6648 0.5498
vt 0.6581 0.5579
vt 0.6697 0.5795
vt 0.6783 0.5730
vt 0.6773 0.5804
vt 0.6709 0.5865
vt 0.7271 0.5471
vt 0.7210 0.5470
vt 0.7231 0.5397
vt 0.7191 0.5324
vt 0.7169 0.5397
vt 0.7148 0.5345
vt 0.6648 0.5763
vt 0.6684 0.5748
vt 0.6557 0.5879
vt 0.6535 0.5829
vt 0.6579 0.5805
vt 0.6993 0.5374
vt 0.7070 0.5422
vt 0.7006 0.5466
vt 0.6942 0.5466
vt 0.6524 0.5675
vt 0.6562 0.5703
vt 0.6518 0.5727
vt 0.6869 0.5664
vt 0.6803 0.5589
vt 0.6827 0.5524
vt 0.7240 0.5584
vt 0.6711 0.5411
vt 0.6687 0.5476
vt 0.6568 0.5364
vt 0.7006 0.5732
vt 0.6944 0.5718
vt 0.6918 0.5638
vt 0.6984 0.5676
vt 0.6712 0.5626
vt 0.6624 0.5594
vt 0.7335 0.5525
vt 0.7276 0.5546
vt 0.6627 0.5837
vt 0.7049 0.5370
vt 0.6892 0.5558
vt 0.6956 0.5558
vt 0.6959 0.5597
vt 0.6389 0.5745
vt 0.6369 0.5642
vt 0.6459 0.5674
vt 0.6530 0.5602
vt 0.6439 0.5571
vt 0.6551 0.5565
vt 0.6457 0.5710
vt 0.6450 0.5762
vt 0.6812 0.5633
vt 0.7419 0.5705
vt 0.7301 0.5774
vt 0.7310 0.5703
vt 0.7350 0.5663
vt 0.7409 0.5641
vt 0.5873 0.5574
vt 0.5915 0.5559
vt 0.5955 0.5597
vt 0.6037 0.5619
vt 0.5990 0.5669
vt 0.5947 0.5644
vt 0.5821 0.5569
vt 0.5840 0.5535
vt 0.5857 0.5669
vt 0.5806 0.5668
vt 0.5865 0.5622
vt 0.5814 0.5620
vt 0.5886 0.5522
vt 0.5821 0.5746
vt 0.5882 0.5732
vt 0.5881 0.5806
vt 0.5395 0.5324
vt 0.5466 0.5353
vt 0.5393 0.5375
vt 0.5390 0.5427
vt 0.5357 0.5477
vt 0.5303 0.5423
vt 0.5788 0.5706
vt 0.5839 0.5707
vt 0.5421 0.5607
vt 0.5454 0.5561
vt 0.5464 0.5604
vt 0.5492 0.5673
vt 0.5553 0.5681
vt 0.5461 0.5701
vt 0.5343 0.5629
vt 0.5310 0.5652
vt 0.5313 0.5616
vt 0.5387 0.5669
vt 0.5382 0.5618
vt 0.5347 0.5681
vt 0.5372 0.5567
vt 0.5413 0.5572
vt 0.5405 0.5537
vt 0.5364 0.5532
vt 0.5397 0.5482
vt 0.5333 0.5579
vt 0.5462 0.5853
vt 0.5538 0.5771
vt 0.5531 0.5833
vt 0.6053 0.5446
vt 0.6045 0.5533
vt 0.6005 0.5495
vt 0.5976 0.5458
vt 0.5998 0.5385
vt 0.5944 0.5324
vt 0.5922 0.5397
vt 0.5900 0.5345
vt 0.5407 0.5792
vt 0.5446 0.5791
vt 0.5309 0.5879
vt 0.5281 0.5837
vt 0.5331 0.5805
vt 0.5762 0.5354
vt 0.5831 0.5412
vt 0.5785 0.5425
vt 0.5651 0.5536
vt 0.5703 0.5601
vt 0.5648 0.5630
vt 0.5094 0.5567
vt 0.5156 0.5493
vt 0.5188 0.5584
vt 0.5186 0.5621
vt 0.5124 0.5667
vt 0.5277 0.5675
vt 0.5315 0.5703
vt 0.5265 0.5735
vt 0.5631 0.5567
vt 0.5559 0.5540
vt 0.5584 0.5475
vt 0.6133 0.5784
vt 0.6085 0.5702
vt 0.6156 0.5735
vt 0.5464 0.5405
vt 0.5439 0.5470
vt 0.5306 0.5372
vt 0.5733 0.5735
vt 0.5446 0.5525
vt 0.5506 0.5601
vt 0.5560 0.5645
vt 0.5499 0.5637
vt 0.5426 0.5667
vt 0.6102 0.5512
vt 0.5386 0.5866
vt 0.5706 0.5445
vt 0.5730 0.5516
vt 0.5810 0.5360
vt 0.5710 0.5550
vt 0.5283 0.5602
vt 0.5250 0.5510
vt 0.5303 0.5565
vt 0.5155 0.5766
vt 0.5216 0.5720
vt 0.5203 0.5781
vt 0.5623 0.5628
vt 0.5568 0.5584
vt 0.6036 0.5825
vt 0.6038 0.5751
vt 0.6180 0.5686
vt 0.6108 0.5653
vt 0.6165 0.5632
vt 0.5457 0.5640
vt 0.9484 0.8477
vt 0.9478 0.8489
vt 0.9333 0.8444
vt 0.9337 0.8433
vt 0.9497 0.8454
vt 0.9489 0.8465
vt 0.9340 0.8422
vt 0.9345 0.8410
vt 0.9481 0.8504
vt 0.9484 0.8519
vt 0.9336 0.8473
vt 0.9334 0.8458
vt 0.9478 0.8535
vt 0.9473 0.8552
vt 0.9320 0.8502
vt 0.9328 0.8487
vt 0.9205 0.8462
vt 0.9205 0.8473
vt 0.9074 0.8473
vt 0.9075 0.8467
vt 0.9197 0.8485
vt 0.9190 0.8497
vt 0.9067 0.8488
vt 0.9071 0.8480
vt 0.9205 0.8444
vt 0.9204 0.8452
vt 0.9076 0.8460
vt 0.9074 0.8455
vt 0.9478 0.8296
vt 0.9474 0.8282
vt 0.9555 0.8287
vt 0.9556 0.8299
vt 0.8973 0.8457
vt 0.8974 0.8461
vt 0.8873 0.8462
vt 0.8872 0.8460
vt 0.8969 0.8448
vt 0.8971 0.8453
vt 0.8871 0.8457
vt 0.8870 0.8454
vt 0.8974 0.8466
vt 0.8974 0.8471
vt 0.8873 0.8470
vt 0.8873 0.8466
vt 0.8971 0.8477
vt 0.8968 0.8483
vt 0.8869 0.8477
vt 0.8871 0.8474
vt 0.9507 0.7923
vt 0.9504 0.7923
vt 0.9503 0.7920
vt 0.9507 0.7920
vt 0.9484 0.8344
vt 0.9477 0.8337
vt 0.9559 0.8341
vt 0.9565 0.8347
vt 0.9483 0.8363
vt 0.9491 0.8352
vt 0.9571 0.8354
vt 0.9567 0.8364
vt 0.9197 0.8427
vt 0.9205 0.8435
vt 0.9071 0.8449
vt 0.9068 0.8442
vt 0.9480 0.8324
vt 0.9482 0.8311
vt 0.9556 0.8312
vt 0.9557 0.8327
vt 0.9649 0.8325
vt 0.9646 0.8320
vt 0.9732 0.8298
vt 0.9734 0.8302
vt 0.9643 0.8311
vt 0.9642 0.8303
vt 0.9727 0.8294
vt 0.9729 0.8296
vt 0.9650 0.8336
vt 0.9653 0.8330
vt 0.9736 0.8306
vt 0.9734 0.8309
vt 0.9642 0.8295
vt 0.9642 0.8287
vt 0.9729 0.8287
vt 0.9728 0.8291
vt 0.9509 0.7916
vt 0.9505 0.7916
vt 0.9503 0.7913
vt 0.9507 0.7913
vt 0.8210 0.6918
vt 0.8137 0.6914
vt 0.8137 0.6824
vt 0.8210 0.6840
vt 0.8970 0.7724
vt 0.8932 0.7735
vt 0.8918 0.7700
vt 0.8959 0.7686
vt 0.8909 0.7745
vt 0.8887 0.7755
vt 0.8869 0.7724
vt 0.8893 0.7712
vt 0.9058 0.7702
vt 0.9008 0.7712
vt 0.8999 0.7672
vt 0.9053 0.7664
vt 0.9218 0.7844
vt 0.9180 0.7829
vt 0.9189 0.7727
vt 0.9236 0.7741
vt 0.9332 0.7734
vt 0.9295 0.7718
vt 0.9307 0.7681
vt 0.9347 0.7701
vt 0.9151 0.7692
vt 0.9108 0.7692
vt 0.9106 0.7655
vt 0.9152 0.7657
vt 0.9244 0.7705
vt 0.9193 0.7693
vt 0.9197 0.7658
vt 0.9252 0.7670
vt 0.9286 0.7868
vt 0.9256 0.7858
vt 0.9282 0.7755
vt 0.9317 0.7768
vt 0.9009 0.7862
vt 0.8979 0.7870
vt 0.8946 0.7770
vt 0.8982 0.7761
vt 0.9076 0.7842
vt 0.9038 0.7854
vt 0.9018 0.7752
vt 0.9064 0.7740
vt 0.9147 0.7829
vt 0.9114 0.7829
vt 0.9111 0.7728
vt 0.9150 0.7728
vt 0.8960 0.7876
vt 0.8941 0.7882
vt 0.8904 0.7786
vt 0.8925 0.7778
vt 0.9233 0.8078
vt 0.9254 0.8083
vt 0.9229 0.8191
vt 0.9211 0.8188
vt 0.9189 0.8065
vt 0.9212 0.8073
vt 0.9194 0.8185
vt 0.9178 0.8183
vt 0.9097 0.8064
vt 0.9121 0.8056
vt 0.9125 0.8183
vt 0.9108 0.8185
vt 0.9054 0.8077
vt 0.9074 0.8072
vt 0.9090 0.8188
vt 0.9072 0.8190
vt 0.9015 0.8085
vt 0.9033 0.8081
vt 0.9054 0.8193
vt 0.9036 0.8196
vt 0.9143 0.8056
vt 0.9116 0.7930
vt 0.9144 0.7930
vt 0.9081 0.8291
vt 0.9097 0.8288
vt 0.9104 0.8388
vt 0.9090 0.8392
vt 0.9144 0.8271
vt 0.9161 0.8263
vt 0.9162 0.8346
vt 0.9145 0.8361
vt 0.9049 0.8296
vt 0.9065 0.8295
vt 0.9077 0.8397
vt 0.9063 0.8397
vt 0.9206 0.8288
vt 0.9221 0.8292
vt 0.9213 0.8393
vt 0.9201 0.8387
vt 0.9176 0.8273
vt 0.9191 0.8283
vt 0.9188 0.8381
vt 0.9175 0.8363
vt 0.9112 0.8284
vt 0.9126 0.8280
vt 0.9128 0.8376
vt 0.9116 0.8382
vt 0.9783 0.7907
vt 0.9794 0.7908
vt 0.9788 0.8088
vt 0.9778 0.8088
vt 0.9758 0.7903
vt 0.9771 0.7906
vt 0.9768 0.8089
vt 0.9757 0.8081
vt 0.9732 0.7905
vt 0.9745 0.7899
vt 0.9745 0.8074
vt 0.9732 0.8084
vt 0.9805 0.7917
vt 0.9815 0.7926
vt 0.9810 0.8096
vt 0.9799 0.8092
vt 0.9856 0.7922
vt 0.9868 0.7922
vt 0.9855 0.8106
vt 0.9844 0.8105
vt 0.9579 0.7763
vt 0.9597 0.7761
vt 0.9598 0.7829
vt 0.9582 0.7832
vt 0.9550 0.7756
vt 0.9562 0.7764
vt 0.9566 0.7836
vt 0.9553 0.7838
vt 0.9830 0.7924
vt 0.9844 0.7922
vt 0.9834 0.8104
vt 0.9822 0.8100
vt 0.9617 0.7762
vt 0.9638 0.7763
vt 0.9635 0.7841
vt 0.9617 0.7835
vt 0.9521 0.7754
vt 0.9538 0.7748
vt 0.9539 0.7841
vt 0.9523 0.7839
vt 0.9807 0.8230
vt 0.9815 0.8232
vt 0.9820 0.8367
vt 0.9814 0.8368
vt 0.9835 0.8238
vt 0.9825 0.8234
vt 0.9836 0.8371
vt 0.9828 0.8369
vt 0.9790 0.8230
vt 0.9798 0.8228
vt 0.9808 0.8368
vt 0.9801 0.8370
vt 0.9453 0.7745
vt 0.9465 0.7741
vt 0.9460 0.7827
vt 0.9449 0.7831
vt 0.9757 0.8245
vt 0.9768 0.8249
vt 0.9782 0.8376
vt 0.9773 0.8375
vt 0.9398 0.7743
vt 0.9409 0.7746
vt 0.9406 0.7831
vt 0.9397 0.7828
vt 0.9425 0.7747
vt 0.9440 0.7748
vt 0.9439 0.7835
vt 0.9423 0.7833
vt 0.9775 0.8240
vt 0.9782 0.8231
vt 0.9795 0.8373
vt 0.9789 0.8375
vt 0.9479 0.7744
vt 0.9493 0.7746
vt 0.9484 0.7832
vt 0.9472 0.7830
vt 0.9438 0.7912
vt 0.9446 0.7910
vt 0.9432 0.7993
vt 0.9426 0.7993
vt 0.9417 0.7913
vt 0.9429 0.7914
vt 0.9419 0.7992
vt 0.9411 0.7994
vt 0.9397 0.7911
vt 0.9404 0.7913
vt 0.9403 0.7995
vt 0.9396 0.7995
vt 0.9455 0.7913
vt 0.9465 0.7917
vt 0.9446 0.8001
vt 0.9439 0.7997
vt 0.9403 0.8135
vt 0.9409 0.8135
vt 0.9399 0.8278
vt 0.9395 0.8277
vt 0.9393 0.8135
vt 0.9397 0.8135
vt 0.9392 0.8276
vt 0.9390 0.8275
vt 0.9414 0.8134
vt 0.9419 0.8134
vt 0.9405 0.8274
vt 0.9402 0.8276
vt 0.9424 0.8135
vt 0.9428 0.8138
vt 0.9411 0.8274
vt 0.9408 0.8274
vt 0.9505 0.7931
vt 0.9505 0.7928
vt 0.9508 0.7928
vt 0.9508 0.7932
vt 0.9813 0.8484
vt 0.9818 0.8484
vt 0.9815 0.8601
vt 0.9813 0.8601
vt 0.9822 0.8485
vt 0.9827 0.8486
vt 0.9819 0.8601
vt 0.9817 0.8601
vt 0.9805 0.8486
vt 0.9809 0.8484
vt 0.9810 0.8601
vt 0.9808 0.8601
vt 0.9796 0.8488
vt 0.9800 0.8487
vt 0.9806 0.8601
vt 0.9804 0.8601
vt 0.9765 0.8375
vt 0.9783 0.8488
vt 0.9506 0.7938
vt 0.9506 0.7936
vt 0.9509 0.7936
vt 0.9509 0.7938
vt 0.8232 0.6749
vt 0.8153 0.6750
vt 0.8137 0.6677
vt 0.8228 0.6677
vt 0.8310 0.6749
vt 0.8319 0.6677
vt 0.8300 0.6821
vt 0.8235 0.6822
vt 0.8170 0.6822
vt 0.9505 0.7940
vt 0.9508 0.7940
vt 0.9503 0.7940
vt 0.9503 0.7938
vt 0.9504 0.7936
vt 0.9792 0.8489
vt 0.9802 0.8601
vt 0.9505 0.7934
vt 0.9508 0.7935
vt 0.9503 0.7933
vt 0.9503 0.7930
vt 0.9503 0.7927
vt 0.9389 0.8134
vt 0.9387 0.8273
vt 0.9390 0.7995
vt 0.9389 0.7910
vt 0.9388 0.7824
vt 0.9470 0.7655
vt 0.9486 0.7658
vt 0.9502 0.7661
vt 0.9753 0.8123
vt 0.9761 0.8106
vt 0.9413 0.7661
vt 0.9427 0.7661
vt 0.9442 0.7661
vt 0.9388 0.7740
vt 0.9387 0.7657
vt 0.9400 0.7659
vt 0.9747 0.8241
vt 0.9729 0.8107
vt 0.9741 0.8115
vt 0.9456 0.7658
vt 0.9845 0.8239
vt 0.9505 0.7759
vt 0.9507 0.7837
vt 0.9503 0.7682
vt 0.9519 0.7668
vt 0.9536 0.7655
vt 0.9595 0.7693
vt 0.9618 0.7689
vt 0.9640 0.7685
vt 0.9821 0.7757
vt 0.9838 0.7748
vt 0.9855 0.7739
vt 0.9547 0.7674
vt 0.9558 0.7693
vt 0.9577 0.7693
vt 0.9868 0.7738
vt 0.9880 0.7737
vt 0.9801 0.7727
vt 0.9811 0.7742
vt 0.9718 0.7911
vt 0.9719 0.8094
vt 0.9717 0.7729
vt 0.9731 0.7727
vt 0.9745 0.7724
vt 0.9760 0.7724
vt 0.9774 0.7723
vt 0.9787 0.7725
vt 0.9161 0.8181
vt 0.9033 0.8298
vt 0.9049 0.8397
vt 0.9017 0.8198
vt 0.9143 0.8182
vt 0.9166 0.8056
vt 0.9171 0.7931
vt 0.8997 0.8089
vt 0.8977 0.7979
vt 0.8995 0.7975
vt 0.9012 0.7970
vt 0.9036 0.7963
vt 0.9059 0.7956
vt 0.9087 0.7943
vt 0.9201 0.7946
vt 0.9230 0.7961
vt 0.9255 0.7968
vt 0.9280 0.7976
vt 0.9316 0.7879
vt 0.9352 0.7781
vt 0.9369 0.7751
vt 0.9387 0.7720
vt 0.8282 0.6921
vt 0.8282 0.6857
vt 0.8282 0.6986
vt 0.8210 0.6996
vt 0.8137 0.7005
vt 0.9513 0.7916
vt 0.9511 0.7913
vt 0.9515 0.7919
vt 0.9511 0.7919
vt 0.9507 0.7920
vt 0.9647 0.8343
vt 0.9733 0.8312
vt 0.9562 0.8374
vt 0.9395 0.8333
vt 0.9402 0.8321
vt 0.9408 0.8309
vt 0.9189 0.8419
vt 0.9066 0.8436
vt 0.9313 0.8402
vt 0.9326 0.8412
vt 0.9475 0.8374
vt 0.9387 0.8374
vt 0.9399 0.8362
vt 0.9411 0.8349
vt 0.9403 0.8341
vt 0.9510 0.7923
vt 0.9511 0.7920
vt 0.9510 0.7926
vt 0.9507 0.7926
vt 0.9505 0.7926
vt 0.8967 0.8443
vt 0.8869 0.8451
vt 0.9400 0.8293
vt 0.9392 0.8278
vt 0.9324 0.8490
vt 0.9312 0.8506
vt 0.9631 0.8564
vt 0.9628 0.8583
vt 0.9625 0.8602
vt 0.9624 0.8533
vt 0.9628 0.8548
vt 0.9505 0.8442
vt 0.9350 0.8398
vt 0.9660 0.8487
vt 0.9649 0.8497
vt 0.9637 0.8508
vt 0.9631 0.8520
vt 0.5431 0.5728
vt 0.6094 0.5598
vt 0.6151 0.5578
vt 0.5943 0.5718
vt 0.5941 0.5792
vt 0.5940 0.5866
vt 0.5497 0.5558
vt 0.5488 0.5514
vt 0.5614 0.5689
vt 0.5252 0.5795
vt 0.5280 0.5638
vt 0.5270 0.5473
vt 0.5323 0.5528
vt 0.5217 0.5419
vt 0.5762 0.5615
vt 0.5755 0.5666
vt 0.5769 0.5564
vt 0.5789 0.5530
vt 0.5808 0.5496
vt 0.5878 0.5418
vt 0.5900 0.5470
vt 0.5857 0.5366
vt 0.5352 0.5732
vt 0.5928 0.5507
vt 0.5957 0.5543
vt 0.5523 0.5709
vt 0.5391 0.5730
vt 0.5701 0.5695
vt 0.5646 0.5724
vt 0.5512 0.5448
vt 0.5537 0.5383
vt 0.5900 0.5694
vt 0.5302 0.5763
vt 0.5854 0.5483
vt 0.5997 0.5581
vt 0.5608 0.5750
vt 0.5601 0.5812
vt 0.7340 0.5599
vt 0.7399 0.5578
vt 0.7201 0.5700
vt 0.7192 0.5771
vt 0.7184 0.5842
vt 0.6745 0.5558
vt 0.6736 0.5514
vt 0.6754 0.5601
vt 0.6512 0.5779
vt 0.6527 0.5638
vt 0.6460 0.5534
vt 0.6571 0.5528
vt 0.6349 0.5540
vt 0.7023 0.5597
vt 0.7025 0.5635
vt 0.7020 0.5558
vt 0.7127 0.5418
vt 0.7148 0.5470
vt 0.7105 0.5366
vt 0.6600 0.5732
vt 0.6639 0.5907
vt 0.6720 0.5936
vt 0.6770 0.5683
vt 0.6672 0.5701
vt 0.6636 0.5717
vt 0.6761 0.5449
vt 0.6785 0.5384
vt 0.7154 0.5682
vt 0.6556 0.5755
vt 0.7084 0.5514
vt 0.6784 0.5874
vt 0.6849 0.5812
vt 0.6859 0.5738
vn -0.7518 -0.1849 0.6330
vn -0.4555 -0.2716 0.8478
vn -0.3832 0.2091 0.8997
vn 0.0298 0.2356 0.9714
vn -0.0248 0.5591 0.8287
vn -0.3287 0.3917 0.8594
vn -0.6490 0.4645 0.6026
vn -0.9181 0.3058 0.2519
vn -0.7047 0.2183 0.6751
vn -0.9630 0.0290 0.2681
vn -0.8523 -0.4817 0.2036
vn -0.4854 -0.7623 0.4281
vn -0.1121 -0.3753 0.9201
vn -0.1007 -0.8076 0.5810
vn 0.2273 -0.5707 0.7891
vn -0.5147 0.8541 0.0741
vn -0.2633 0.8757 0.4047
vn -0.1693 0.9732 0.1554
vn -0.3027 0.9392 -0.1620
vn -0.1199 0.9348 -0.3343
vn -0.1437 0.7993 -0.5834
vn -0.3686 0.8314 -0.4159
vn -0.6913 0.5903 -0.4168
vn -0.4463 0.6126 -0.6524
vn -0.7861 0.2841 -0.5490
vn -0.8683 0.4957 0.0163
vn -0.6505 0.6891 0.3193
vn 0.4729 0.7167 -0.5126
vn 0.4169 0.8837 -0.2127
vn 0.7144 0.6833 -0.1511
vn 0.7658 0.4641 -0.4451
vn 0.9495 0.1814 -0.2560
vn 0.9340 0.2475 0.2578
vn 0.9967 0.0145 -0.0797
vn 0.5733 0.0009 -0.8193
vn 0.4354 -0.4923 -0.7537
vn 0.1881 0.0042 -0.9821
vn 0.8242 -0.3834 -0.4169
vn 0.7671 0.0228 -0.6411
vn 0.6764 -0.5211 -0.5205
vn 0.1850 0.6713 -0.7177
vn 0.1325 0.8811 -0.4540
vn 0.2204 0.4104 -0.8849
vn 0.5976 -0.6603 0.4548
vn 0.8552 -0.0938 0.5097
vn 0.6485 -0.4453 0.6174
vn 0.4008 -0.7490 0.5276
vn 0.3218 -0.6814 0.6573
vn 0.1849 -0.8642 0.4679
vn 0.2711 -0.8831 0.3828
vn 0.1970 -0.9598 0.1999
vn 0.1359 -0.9690 0.2065
vn 0.0996 -0.9921 0.0758
vn 0.4398 -0.8733 0.2093
vn 0.7510 -0.5301 0.3938
vn 0.2200 -0.9677 0.1231
vn -0.3831 -0.8736 -0.3000
vn -0.1907 -0.9815 -0.0148
vn -0.5487 -0.8010 -0.2394
vn -0.6432 -0.5371 -0.5457
vn 0.0782 -0.8536 -0.5150
vn 0.3767 -0.8839 -0.2770
vn 0.0541 -0.9957 -0.0747
vn 0.6682 0.5143 0.5376
vn 0.4631 0.8102 0.3592
vn 0.3090 0.8366 0.4523
vn -0.0318 -0.0246 0.9992
vn -0.0354 0.9980 -0.0524
vn 0.1323 0.9780 -0.1611
vn -0.6528 0.7360 -0.1793
vn -0.9231 0.3356 -0.1881
vn 0.9240 0.3815 0.0267
vn 0.5050 0.4157 -0.7564
vn 0.3821 -0.5139 0.7681
vn 0.2585 -0.2863 0.9226
vn 0.3264 -0.8931 0.3096
vn -0.0455 -0.9982 -0.0378
vn -0.7757 -0.0866 -0.6252
vn -0.8642 -0.3487 -0.3627
vn -0.9588 0.0519 -0.2791
vn -0.5001 -0.5667 -0.6548
vn -0.3079 -0.1556 -0.9386
vn -0.5646 -0.1452 -0.8125
vn -0.2151 0.2803 -0.9355
vn -0.2474 -0.8910 -0.3807
vn 0.7928 0.4780 0.3781
vn 0.2407 0.7424 0.6252
vn 0.3105 0.4983 0.8095
vn 0.6688 0.2288 0.7074
vn 0.4761 -0.1207 -0.8711
vn 0.1523 0.0490 -0.9871
vn 0.3878 0.3211 -0.8640
vn 0.1105 0.6538 -0.7486
vn 0.5177 0.7148 -0.4702
vn 0.5804 0.4492 -0.6792
vn 0.5600 -0.3894 -0.7313
vn 0.1669 -0.4703 -0.8666
vn 0.7835 0.2138 -0.5834
vn 0.8851 -0.1060 -0.4531
vn 0.6712 0.0883 -0.7360
vn 0.7737 -0.2265 -0.5917
vn -0.0018 -0.2871 -0.9579
vn 0.9689 0.2320 0.0854
vn 0.8631 0.4910 -0.1183
vn 0.8764 0.4534 0.1623
vn 0.9196 0.1964 0.3404
vn 0.7922 0.2210 0.5689
vn 0.6866 -0.0026 0.7271
vn 0.8648 -0.0716 0.4970
vn 0.9935 -0.0988 -0.0573
vn 0.9330 0.2321 -0.2750
vn -0.4888 0.3085 0.8161
vn -0.0382 0.6248 0.7798
vn -0.3885 0.6577 0.6454
vn -0.7329 0.6255 0.2676
vn -0.7020 0.6973 0.1448
vn -0.7850 0.5685 0.2460
vn -0.5135 -0.1842 0.8381
vn -0.6382 -0.5181 0.5694
vn -0.1938 -0.4698 0.8612
vn -0.8380 0.0337 0.5446
vn -0.5039 0.0177 0.8636
vn -0.8405 -0.1792 0.5114
vn -0.0632 0.0219 0.9978
vn -0.0448 0.3222 0.9456
vn 0.2924 0.3358 0.8954
vn 0.3399 0.0776 0.9373
vn 0.5848 0.2926 0.7565
vn -0.0448 -0.1657 0.9852
vn -0.8336 0.2115 -0.5102
vn -0.8195 0.5578 -0.1313
vn -0.7579 0.4190 -0.5001
vn -0.4850 0.3095 -0.8179
vn -0.5214 0.1629 -0.8376
vn -0.6105 -0.0296 -0.7915
vn -0.8721 -0.0323 -0.4883
vn -0.8209 -0.3570 -0.4458
vn -0.6343 -0.3760 -0.6755
vn -0.7289 -0.5952 -0.3383
vn -0.9926 -0.0188 -0.1197
vn -0.9458 0.2987 -0.1277
vn -0.9382 -0.3204 -0.1312
vn -0.5106 -0.8084 -0.2929
vn -0.5259 -0.6127 -0.5899
vn -0.3072 -0.7929 -0.5262
vn 0.2989 -0.9521 0.0652
vn 0.7642 -0.6446 -0.0189
vn 0.6409 -0.7099 0.2921
vn 0.2440 -0.8681 0.4323
vn -0.1579 -0.9571 0.2429
vn -0.1931 -0.9740 -0.1182
vn -0.5642 -0.7744 0.2863
vn -0.8382 -0.4899 0.2396
vn -0.7459 -0.6658 0.0194
vn 0.3009 0.9512 0.0690
vn 0.2958 0.8838 0.3625
vn 0.5051 0.8501 0.1491
vn 0.3049 0.9102 -0.2804
vn -0.0200 0.9997 -0.0135
vn 0.7901 0.4421 0.4246
vn 0.6022 0.4997 0.6226
vn 0.9590 -0.0949 0.2671
vn 0.3172 0.5618 0.7641
vn -0.2969 0.8355 0.4624
vn -0.3874 0.8981 0.2083
vn -0.6409 0.6894 0.3376
vn -0.8389 0.2866 0.4627
vn 0.0083 -0.9144 -0.4048
vn -0.7074 -0.6503 -0.2770
vn 0.4917 -0.8322 -0.2563
vn 0.1387 -0.7242 0.6755
vn 0.5131 -0.6593 0.5496
vn 0.3034 -0.4851 0.8201
vn -0.5235 -0.8508 0.0447
vn 0.0377 0.9508 0.3075
vn 0.5112 0.8517 -0.1151
vn -0.4910 0.8705 -0.0327
vn -0.0565 0.9291 -0.3654
vn -0.5165 0.8295 -0.2124
vn -0.7045 0.5273 0.4750
vn -0.5168 0.8501 0.1011
vn -0.9134 0.3173 0.2549
vn -0.9454 0.3196 0.0641
vn -0.4788 0.8752 0.0688
vn 0.6831 0.6562 -0.3207
vn 0.0510 0.9938 -0.0984
vn 0.0292 0.9987 0.0412
vn 0.4443 0.8154 -0.3711
vn -0.8406 -0.4454 0.3083
vn -0.2114 -0.9678 0.1368
vn -0.1688 -0.9844 -0.0488
vn -0.8290 -0.5545 0.0735
vn 0.5216 -0.8414 -0.1410
vn 0.9168 -0.1808 -0.3560
vn 0.6600 -0.0099 -0.7512
vn 0.3803 -0.8496 -0.3655
vn -0.8611 -0.4733 -0.1855
vn -0.1750 -0.9785 -0.1088
vn -0.2505 -0.9681 -0.0009
vn -0.9048 -0.4225 -0.0521
vn 0.5838 -0.8083 0.0762
vn 0.9566 -0.1535 0.2477
vn 0.9866 -0.1546 0.0516
vn 0.6345 -0.7715 0.0469
vn -0.5795 0.8148 0.0162
vn -0.9613 0.2524 -0.1110
vn -0.9842 0.1728 -0.0393
vn -0.6635 0.7482 0.0025
vn -0.0756 -0.8636 0.4985
vn -0.0237 -0.9880 -0.1525
vn 0.2622 -0.9359 -0.2351
vn 0.0646 -0.8117 0.5805
vn -0.6612 0.7500 0.0158
vn -0.9793 0.1733 0.1048
vn -0.9690 0.1920 0.1556
vn -0.6233 0.7573 0.1951
vn 0.7890 0.6000 -0.1323
vn 0.0829 0.9934 -0.0798
vn 0.1078 0.9896 -0.0950
vn 0.7752 0.6302 0.0440
vn -0.8938 -0.4206 0.1555
vn -0.2147 -0.9643 0.1548
vn -0.1796 -0.9610 0.2102
vn -0.7895 -0.4895 0.3703
vn 0.6661 -0.7453 0.0287
vn 0.9903 -0.1158 -0.0772
vn 0.9932 -0.0895 -0.0738
vn 0.5375 -0.8006 0.2649
vn 0.0409 0.1053 0.9936
vn 0.2706 0.6718 -0.6895
vn 0.1350 0.9886 0.0670
vn -0.1315 0.9831 -0.1272
vn 0.1148 0.5395 -0.8341
vn 0.1955 -0.5007 -0.8433
vn 0.2714 0.0656 -0.9602
vn 0.3269 0.0382 -0.9443
vn 0.4074 -0.4161 -0.8130
vn 0.6985 0.6528 0.2931
vn 0.0180 0.9871 0.1593
vn 0.0449 0.9960 0.0768
vn 0.7849 0.6150 0.0750
vn 0.0683 0.7639 0.6417
vn 0.0061 -0.1083 0.9941
vn -0.1673 -0.1999 0.9654
vn -0.3170 0.6763 0.6650
vn -0.0350 0.6394 -0.7681
vn -0.4570 0.8749 -0.1603
vn -0.4889 0.8663 -0.1023
vn -0.0085 0.8539 -0.5203
vn -0.6026 0.5921 0.5350
vn -0.2492 -0.1603 0.9551
vn -0.2423 -0.1547 0.9578
vn -0.3770 0.4416 0.8142
vn 0.6401 -0.4235 -0.6411
vn 0.4030 0.1139 -0.9081
vn 0.3908 0.2368 -0.8895
vn 0.8392 -0.3097 -0.4470
vn 0.2813 -0.7474 0.6019
vn 0.5931 -0.8050 -0.0138
vn 0.6590 -0.7512 0.0379
vn 0.3996 -0.6151 0.6797
vn 0.7436 0.4724 0.4732
vn -0.4500 0.0516 -0.8915
vn 0.2283 -0.8260 -0.5154
vn -0.3001 -0.9539 -0.0077
vn -0.9635 -0.2676 -0.0025
vn -0.6856 0.1585 0.7105
vn -0.9032 0.1660 0.3958
vn -0.8964 0.1863 0.4021
vn -0.6796 0.1679 0.7141
vn -0.9863 0.1647 0.0082
vn -0.9108 0.1684 -0.3769
vn -0.9042 0.1895 -0.3827
vn -0.9824 0.1866 0.0087
vn 0.4342 0.1641 0.8858
vn -0.1522 0.1739 0.9729
vn -0.1464 0.1684 0.9748
vn 0.4328 0.1620 0.8868
vn 0.4210 0.0973 -0.9018
vn 0.8231 0.1164 -0.5559
vn 0.8285 0.1431 -0.5413
vn 0.4519 0.1327 -0.8821
vn -0.7016 0.1621 -0.6939
vn -0.1464 0.1786 -0.9730
vn -0.1414 0.1725 -0.9748
vn -0.6953 0.1721 -0.6978
vn 0.9844 0.1755 -0.0135
vn 0.8276 0.1810 0.5314
vn 0.8233 0.1793 0.5386
vn 0.9845 0.1753 -0.0110
vn 0.4603 0.1648 -0.8723
vn 0.8274 0.1799 -0.5320
vn 0.8241 0.1793 -0.5373
vn 0.4578 0.1630 -0.8740
vn -0.6724 0.0259 -0.7398
vn -0.1427 0.0785 -0.9866
vn -0.1456 0.1416 -0.9792
vn -0.7012 0.1033 -0.7055
vn -0.6521 0.0403 0.7570
vn -0.9007 0.0080 0.4344
vn -0.9089 0.0899 0.4073
vn -0.6838 0.1024 0.7225
vn 0.3924 0.1129 0.9128
vn -0.1470 0.0950 0.9846
vn -0.1515 0.1383 0.9787
vn 0.4247 0.1329 0.8955
vn 0.9922 0.1241 -0.0146
vn 0.8213 0.1282 0.5560
vn 0.8295 0.1449 0.5394
vn 0.9903 0.1378 -0.0154
vn -0.9999 -0.0078 0.0120
vn -0.9126 0.0003 -0.4089
vn -0.9174 0.0909 -0.3874
vn -0.9964 0.0838 0.0087
vn -0.5355 -0.2001 -0.8205
vn -0.8369 -0.2768 -0.4723
vn -0.7880 -0.3536 -0.5040
vn -0.4798 -0.2162 -0.8503
vn 0.4103 0.1383 -0.9014
vn -0.0655 -0.0375 -0.9971
vn -0.0131 0.0194 -0.9997
vn 0.4301 0.2413 -0.8699
vn 0.3631 0.2646 0.8934
vn 0.7572 0.3872 0.5261
vn 0.7498 0.4489 0.4861
vn 0.3938 0.2702 0.8786
vn -0.5613 -0.0768 0.8240
vn -0.1072 0.1058 0.9886
vn -0.0504 0.0541 0.9973
vn -0.5007 -0.1766 0.8474
vn -0.9598 -0.2806 -0.0001
vn -0.8548 -0.2056 0.4764
vn -0.8088 -0.3362 0.4825
vn -0.9159 -0.4012 -0.0100
vn 0.9168 0.3992 -0.0123
vn 0.7964 0.2552 0.5483
vn 0.9661 0.2578 -0.0144
vn -0.4625 -0.2152 0.8601
vn -0.0414 0.0189 0.9990
vn -0.0511 0.1509 0.9872
vn -0.4744 -0.0147 0.8802
vn 0.8591 0.5100 -0.0433
vn 0.7259 0.4698 -0.5023
vn 0.8045 0.0644 -0.5905
vn 0.9251 -0.0429 0.3772
vn -0.8903 -0.4553 0.0062
vn -0.7762 -0.3869 0.4978
vn -0.8279 -0.1901 0.5277
vn -0.9532 -0.3011 0.0279
vn -0.4401 -0.2139 -0.8721
vn -0.7888 -0.4046 -0.4627
vn -0.8538 -0.3281 -0.4043
vn -0.4503 -0.2653 -0.8526
vn 0.4600 0.3111 -0.8316
vn 0.0617 0.0699 -0.9956
vn 0.0905 -0.0300 -0.9954
vn 0.4486 0.1355 -0.8834
vn 0.3693 0.2377 0.8984
vn 0.7425 0.4315 0.5124
vn 0.2191 0.1691 0.9609
vn 0.3517 0.2826 0.8924
vn 0.5192 0.3461 0.7814
vn 0.8173 0.3266 0.4748
vn 0.9148 0.2222 0.3374
vn 0.7126 0.3889 0.5839
vn -0.2912 0.1920 0.9372
vn 0.2773 0.3166 0.9071
vn 0.7126 0.3507 0.6077
vn 0.2055 0.0676 0.9763
vn -0.9856 -0.1682 0.0174
vn -0.8280 -0.0107 0.5607
vn -0.7445 -0.1974 0.6378
vn -0.9560 -0.2837 -0.0747
vn 0.9819 0.1493 -0.1161
vn 0.8499 -0.0396 -0.5254
vn 0.7603 -0.4414 -0.4765
vn 0.9801 -0.1580 -0.1201
vn -0.5062 -0.3234 -0.7995
vn -0.8872 -0.2474 -0.3895
vn -0.8881 -0.2007 -0.4136
vn -0.7441 -0.3861 -0.5452
vn -0.3398 0.4653 0.8173
vn -0.0845 -0.2062 0.9749
vn 0.2216 -0.2595 0.9400
vn 0.1391 0.4364 0.8890
vn -0.0311 0.7530 -0.6573
vn -0.3056 0.9323 0.1936
vn -0.1972 0.8992 0.3907
vn 0.1700 0.9723 -0.1602
vn 0.6089 -0.1515 -0.7786
vn 0.1901 -0.2622 -0.9461
vn -0.0966 -0.5095 -0.8550
vn 0.3134 -0.5768 -0.7544
vn 0.3431 -0.7528 0.5618
vn 0.5999 -0.6931 -0.3996
vn 0.7583 -0.5507 -0.3488
vn 0.7252 -0.4990 0.4744
vn 0.3146 -0.1000 -0.9439
vn 0.1725 0.2460 -0.9538
vn 0.1889 0.5869 -0.7873
vn 0.7443 0.1319 -0.6547
vn 0.8907 -0.4525 -0.0444
vn 0.5187 -0.7747 -0.3617
vn 0.4547 -0.7321 -0.5072
vn 0.8800 -0.4626 -0.1077
vn -0.4880 -0.6265 -0.6077
vn -0.0816 -0.8185 -0.5687
vn -0.7444 -0.3572 -0.5642
vn -0.2187 -0.6151 -0.7575
vn 0.7671 0.4281 0.4778
vn 0.9603 0.0291 0.2775
vn 0.9630 -0.0792 0.2574
vn 0.7485 0.3456 0.5659
vn -0.6112 0.2192 -0.7605
vn -0.8745 -0.1791 -0.4508
vn -0.9196 -0.0850 -0.3836
vn -0.5282 0.1453 -0.8366
vn -0.9053 0.3829 -0.1837
vn -0.5428 0.8201 0.1813
vn -0.7184 0.6625 0.2122
vn -0.9409 0.1539 -0.3018
vn 0.3823 -0.1994 0.9023
vn 0.8206 0.1984 0.5360
vn 0.8106 0.0724 0.5812
vn 0.2681 -0.1450 0.9524
vn 0.8574 0.5098 0.0705
vn 0.2712 0.7334 -0.6233
vn 0.4340 0.3322 -0.8374
vn 0.9641 0.2531 -0.0802
vn 0.0896 0.8970 0.4330
vn 0.6268 0.5923 0.5063
vn 0.3352 0.6654 0.6670
vn -0.2884 0.7882 0.5436
vn -0.9114 -0.4095 -0.0406
vn -0.5290 -0.5135 0.6757
vn -0.5739 -0.3154 0.7558
vn -0.9688 -0.2348 0.0794
vn -0.4708 0.0663 -0.8798
vn -0.9133 0.0409 -0.4052
vn -0.9047 0.0350 -0.4246
vn -0.4880 0.1049 -0.8665
vn 0.9861 0.0150 -0.1654
vn 0.4877 0.0606 -0.8709
vn 0.4638 0.1588 -0.8716
vn 0.9788 0.0912 -0.1834
vn 0.2854 -0.0129 0.9583
vn 0.8811 0.0001 0.4729
vn 0.9072 0.0173 0.4204
vn 0.3464 -0.0866 0.9341
vn -0.9922 0.0123 0.1241
vn -0.6013 -0.0059 0.7990
vn -0.5480 -0.1188 0.8280
vn -0.9892 -0.0522 0.1373
vn 0.9667 0.1918 -0.1696
vn 0.4230 0.2961 -0.8564
vn 0.4321 0.3257 -0.8410
vn 0.9327 0.3225 -0.1617
vn 0.3385 -0.1664 0.9261
vn 0.8893 0.0290 0.4564
vn 0.8785 0.0360 0.4763
vn 0.1811 -0.0467 0.9824
vn -0.5082 0.1594 -0.8463
vn -0.9150 -0.0061 -0.4034
vn -0.9133 -0.0015 -0.4073
vn -0.3180 0.3687 -0.8735
vn -0.9757 -0.1559 0.1538
vn -0.5275 -0.2528 0.8111
vn -0.5339 -0.2586 0.8050
vn -0.9733 -0.0819 0.2143
vn -0.1964 0.9445 0.2632
vn 0.8954 -0.3916 -0.2121
vn 0.4586 -0.5655 -0.6855
vn 0.4117 -0.5151 -0.7518
vn 0.8509 -0.3199 -0.4167
vn -0.3002 -0.4094 -0.8615
vn -0.8134 -0.0950 -0.5739
vn -0.9366 0.1772 -0.3024
vn -0.4632 -0.1716 -0.8695
vn 0.6859 0.2628 0.6786
vn 0.9589 -0.0865 0.2703
vn 0.9586 -0.0816 0.2727
vn 0.6368 0.3926 0.6636
vn -0.5861 0.5869 0.5586
vn 0.1438 0.5429 0.8274
vn 0.0546 0.5354 0.8428
vn -0.7075 0.6163 0.3460
vn 0.2469 0.8253 -0.5078
vn 0.8534 0.4417 0.2768
vn -0.8956 0.4330 0.1021
vn -0.2350 0.9631 -0.1315
vn 0.7016 0.6525 0.2864
vn -0.8696 -0.1919 -0.4550
vn -0.8348 0.2453 -0.4929
vn 0.6885 0.5414 -0.4825
vn 0.5333 0.1560 -0.8314
vn 0.5397 0.6414 0.5453
vn 0.7521 0.4138 -0.5129
vn 0.8696 0.4931 -0.0251
vn 0.7812 0.3096 -0.5422
vn 0.8086 0.2078 -0.5504
vn -0.8866 -0.1388 -0.4411
vn -0.9899 -0.1407 0.0141
vn -0.8765 -0.0917 0.4726
vn -0.6011 -0.0139 0.7990
vn -0.1181 0.1094 0.9870
vn 0.3687 0.1922 0.9095
vn 0.4015 0.1100 -0.9092
vn -0.1062 0.0123 -0.9943
vn -0.6118 -0.0954 -0.7853
vn -0.6185 0.7729 -0.1418
vn -0.9212 0.3297 0.2065
vn 0.0935 0.9674 -0.2356
vn 0.4665 0.5910 -0.6581
vn 0.8351 -0.2537 -0.4882
vn 0.3443 0.8368 0.4257
vn 0.6913 -0.1559 0.7055
vn 0.2376 -0.9388 0.2494
vn -0.9332 0.3299 0.1422
vn -0.3175 0.6351 -0.7042
vn -0.6313 0.6403 -0.4376
vn 0.6933 0.6775 -0.2456
vn 0.7132 0.7009 0.0071
vn 0.7096 0.6608 0.2445
vn 0.0476 0.8158 0.5763
vn 0.3193 0.7260 0.6090
vn -0.7546 -0.6082 -0.2462
vn -0.2379 -0.8221 0.5173
vn 0.6694 -0.3822 0.6371
vn 0.3916 -0.1992 0.8983
vn 0.8070 -0.4339 0.4007
vn 0.8183 -0.4665 -0.3358
vn 0.8968 -0.3754 -0.2341
vn 0.5685 -0.6347 -0.5235
vn 0.1814 -0.7134 -0.6769
vn -0.1059 -0.7065 -0.6997
vn -0.6198 -0.5746 -0.5345
vn -0.4328 -0.3687 -0.8227
vn -0.9514 -0.2408 0.1919
vn -0.3336 -0.0963 -0.9378
vn -0.2209 0.1358 -0.9658
vn -0.7961 0.6041 0.0358
vn -0.9794 0.0092 0.2019
vn 0.8983 -0.4292 0.0943
vn 0.5431 0.7171 0.4369
vn 0.7505 0.4805 -0.4537
vn -0.8617 -0.5062 -0.0344
vn -0.2470 -0.5561 -0.7936
vn -0.1327 0.3574 -0.9245
vn 0.3210 -0.0062 0.9471
vn 0.5447 -0.2048 0.8132
vn -0.0548 0.7669 0.6395
vn 0.0502 0.8952 0.4428
vn 0.0857 0.9659 0.2443
vn 0.5785 0.8065 0.1221
vn 0.3660 0.9288 0.0579
vn 0.8155 0.5584 0.1520
vn 0.0588 -0.9978 0.0305
vn -0.1361 -0.5306 -0.8366
vn -0.5207 0.2973 -0.8003
vn -0.1565 0.5703 -0.8064
vn -0.9952 -0.0734 -0.0643
vn -0.9839 0.1778 -0.0196
vn -0.8153 -0.5695 -0.1047
vn 0.0351 -0.9973 0.0646
vn -0.0897 -0.9697 0.2273
vn 0.4591 -0.8775 -0.1391
vn 0.9215 0.0489 0.3853
vn 0.9394 -0.3162 0.1324
vn 0.7299 -0.6753 -0.1061
vn 0.2283 0.9594 0.1655
vn -0.3289 0.6531 0.6821
vn 0.1536 -0.9881 0.0115
vn -0.4385 -0.8956 0.0747
usemtl None
s 1
f 1/1/1 194/2/2 231/3/3
f 3/4/4 446/5/5 492/6/6
f 5/7/7 356/8/8 310/9/9
f 1/1/1 353/10/10 393/11/11
f 1/1/1 439/12/12 194/2/2
f 2/13/13 348/14/14 391/15/15
f 1/1/1 393/11/11 439/12/12
f 10/16/16 429/17/17 309/18/18
f 10/19/16 309/20/18 191/21/19
f 12/22/20 396/23/21 261/24/22
f 14/25/23 355/26/24 487/27/25
f 10/16/16 257/28/26 180/29/27
f 16/30/28 228/31/29 400/32/30
f 16/30/28 400/32/30 449/33/31
f 19/34/32 438/35/33 484/36/34
f 22/37/35 483/38/36 344/39/37
f 19/34/32 294/40/38 179/41/39
f 22/37/35 389/42/40 483/38/36
f 16/30/28 443/43/41 187/44/42
f 22/37/35 344/39/37 322/45/43
f 26/46/44 420/47/45 307/48/46
f 26/46/44 307/48/46 170/49/47
f 9/50/48 230/51/49 251/52/50
f 28/53/51 315/54/52 392/55/53
f 26/46/44 192/56/54 169/57/55
f 28/58/51 392/59/53 263/60/56
f 30/61/57 236/62/58 156/63/59
f 30/61/57 156/63/59 168/64/60
f 23/65/61 301/66/62 466/67/63
f 20/68/64 262/69/65 412/70/66
f 2/13/13 391/15/15 314/71/67
f 1/1/1 231/3/3 310/9/9
f 10/16/16 180/29/27 429/17/17
f 12/22/20 445/72/68 223/73/69
f 10/19/16 191/21/19 437/74/70
f 10/16/16 437/75/70 257/28/26
f 14/76/23 487/77/25 434/78/71
f 16/30/28 187/44/42 228/31/29
f 19/34/32 304/79/72 438/35/33
f 16/30/28 449/33/31 238/80/73
f 19/34/32 484/36/34 294/40/38
f 16/30/28 238/80/73 443/43/41
f 26/46/44 169/57/55 420/47/45
f 9/50/48 210/81/74 306/82/75
f 26/46/44 170/49/47 186/83/76
f 26/46/44 186/83/76 192/56/54
f 30/61/57 352/84/77 236/62/58
f 15/85/78 218/86/79 482/87/80
f 30/88/57 168/89/60 253/90/81
f 24/91/82 242/92/83 406/93/84
f 30/88/57 253/90/81 174/94/85
f 30/88/57 174/94/85 352/95/77
f 20/68/64 184/96/86 262/69/65
f 20/97/64 412/98/66 333/99/87
f 20/97/64 333/99/87 419/100/88
f 20/97/64 419/100/88 470/101/89
f 31/102/90 266/103/91 305/104/92
f 33/105/93 430/106/94 214/107/95
f 31/102/90 358/108/96 399/109/97
f 35/110/98 418/111/99 311/112/100
f 31/102/90 450/113/101 358/108/96
f 31/102/90 152/114/102 266/103/91
f 31/102/90 399/109/97 152/114/102
f 40/115/103 417/116/104 213/117/105
f 40/118/103 213/119/105 155/120/106
f 42/121/107 291/122/108 252/123/109
f 40/115/103 424/124/110 173/125/111
f 45/126/112 255/127/113 381/128/114
f 48/129/115 211/130/116 476/131/117
f 51/132/118 343/133/119 479/134/120
f 45/126/112 226/135/121 183/136/122
f 51/132/118 423/137/123 343/133/119
f 45/126/112 473/138/124 349/139/125
f 55/140/126 181/141/127 436/142/128
f 51/132/118 479/134/120 347/143/129
f 56/144/130 339/145/131 217/146/132
f 56/147/130 308/148/133 297/149/134
f 56/147/130 151/150/135 158/151/136
f 58/152/137 212/153/138 298/154/139
f 56/144/130 426/155/140 422/156/141
f 58/157/137 298/158/139 323/159/142
f 60/160/143 296/161/144 478/162/145
f 61/163/146 178/164/147 363/165/148
f 61/166/146 363/167/148 277/168/149
f 61/166/146 376/169/150 388/170/151
f 52/171/152 336/172/153 462/173/154
f 62/174/155 153/175/156 229/176/157
f 62/177/155 216/178/158 245/179/159
f 31/102/90 305/104/92 311/112/100
f 40/115/103 173/125/111 417/116/104
f 42/121/107 427/180/160 165/181/161
f 40/118/103 155/120/106 408/182/162
f 40/115/103 408/183/162 424/124/110
f 45/126/112 349/139/125 255/127/113
f 55/140/126 436/142/128 441/184/163
f 47/185/164 290/186/165 177/187/166
f 45/126/112 386/188/167 226/135/121
f 45/126/112 183/136/122 473/138/124
f 56/144/130 422/156/141 339/145/131
f 56/147/130 217/189/132 308/148/133
f 56/147/130 297/149/134 151/150/135
f 56/144/130 158/190/136 426/155/140
f 61/163/146 388/191/151 256/192/168
f 60/160/143 345/193/169 296/161/144
f 61/163/146 256/192/168 346/194/170
f 61/163/146 346/194/170 178/164/147
f 53/195/171 351/196/172 442/197/173
f 61/166/146 277/168/149 376/169/150
f 60/198/143 415/199/174 345/200/169
f 62/174/155 245/201/159 405/202/175
f 62/174/155 405/202/175 153/175/156
f 62/177/155 229/203/157 477/204/176
f 62/177/155 477/204/176 216/178/158
f 49/205/177 453/206/178 469/207/179
f 45/126/112 338/208/180 386/188/167
f 45/126/112 381/128/114 338/208/180
f 573/209/181 221/210/182 65/211/183 324/212/184
f 572/213/185 265/214/186 66/215/187 319/216/188
f 571/217/189 160/218/190 70/219/191 154/220/192
f 570/221/193 411/222/194 68/223/195 232/224/196
f 569/225/197 457/226/198 71/227/199 241/228/200
f 568/229/201 321/230/202 74/231/203 486/232/204
f 567/233/205 404/234/206 72/235/207 435/236/208
f 566/237/209 303/238/210 76/239/211 203/240/212
f 565/241/213 225/242/214 78/243/215 456/244/216
f 564/245/217 354/246/218 79/247/219 240/248/220
f 563/249/221 268/250/222 81/251/223 200/252/224
f 562/253/225 490/254/226 80/255/227 362/256/228
f 561/257/229 200/258/224 81/259/223 362/260/228
f 560/261/230 219/262/231 82/263/232 273/264/233
f 559/265/234 432/266/235 83/267/236 414/268/237
f 558/269/238 270/270/239 75/271/240 276/272/241
f 557/273/242 272/274/243 77/275/244 283/276/245
f 556/277/246 313/278/247 84/279/248 195/280/249
f 555/281/250 472/282/251 86/283/252 224/284/253
f 554/285/254 448/286/255 85/287/256 193/288/257
f 553/289/258 244/290/259 87/291/260 447/292/261
f 552/293/262 224/294/253 86/295/252 447/296/261
f 551/297/263 458/298/264 69/299/265 394/300/266
f 550/301/267 318/302/268 90/303/269 274/304/270
f 549/305/271 199/306/272 93/307/273 357/308/274
f 548/309/275 431/310/276 91/311/277 350/312/278
f 547/313/279 416/314/280 98/315/281 285/316/282
f 546/317/283 166/318/284 100/319/285 320/320/286
f 545/321/287 452/322/288 95/323/289 366/324/290
f 544/325/291 368/326/292 101/327/293 207/328/294
f 543/329/295 379/330/296 99/331/297 369/332/298
f 542/333/299 162/334/300 89/335/301 364/336/302
f 541/337/303 215/338/304 88/339/305 220/340/306
f 540/341/307 464/342/308 94/343/309 159/344/310
f 539/345/311 157/346/312 92/347/313 233/348/314
f 538/349/315 489/350/316 106/351/317 281/352/318
f 537/353/319 385/354/320 107/355/321 163/356/322
f 536/357/323 275/358/324 109/359/325 246/360/326
f 535/361/327 403/362/328 110/363/329 460/364/330
f 534/365/331 267/366/332 111/367/333 454/368/334
f 533/369/335 275/358/324 105/370/336 455/371/337
f 532/372/338 407/373/339 112/374/340 378/375/341
f 531/376/342 288/377/343 114/378/344 287/379/345
f 530/380/346 279/381/347 113/382/348 330/383/349
f 529/384/350 209/385/351 116/386/352 208/387/353
f 528/388/354 428/389/355 117/390/356 372/391/357
f 527/392/358 331/393/359 115/394/360 425/395/361
f 526/396/362 409/397/363 118/398/364 465/399/365
f 525/400/366 259/401/367 119/402/368 329/403/369
f 524/404/370 161/405/371 120/406/372 380/407/373
f 523/408/374 289/409/375 123/410/376 271/411/377
f 522/412/378 367/413/379 121/414/380 335/415/381
f 521/416/382 451/417/383 125/418/384 254/419/385
f 520/420/386 325/421/387 126/422/388 471/423/389
f 519/424/390 312/425/391 124/426/392 172/427/393
f 518/428/394 397/429/395 128/430/396 167/431/397
f 517/432/398 201/433/399 127/434/400 337/435/401
f 516/436/402 280/437/403 129/438/404 474/439/405
f 124/426/392 335/415/381 295/440/406
f 515/441/407 295/440/406 131/442/408 171/443/409
f 514/444/410 188/445/411 130/446/412 468/447/413
f 513/448/414 260/449/415 134/450/416 421/451/417
f 512/452/418 374/453/419 136/454/420 206/455/421
f 511/456/422 316/457/423 137/458/424 467/459/425
f 510/460/426 334/461/427 135/462/428 249/463/429
f 509/464/430 189/465/431 132/466/432 461/467/433
f 508/468/434 341/469/435 138/470/436 197/471/437
f 507/472/438 234/473/439 139/474/440 373/475/441
f 506/476/442 359/477/443 140/478/444 328/479/445
f 505/480/446 247/481/447 141/482/448 286/483/449
f 504/484/450 365/485/451 142/486/452 459/487/453
f 503/488/454 243/489/455 143/490/456 205/491/457
f 502/492/458 371/493/459 144/494/460 164/495/461
f 501/496/462 258/497/463 146/498/464 248/499/465
f 500/500/466 327/501/467 145/502/468 463/503/469
f 499/504/470 164/505/461 144/506/460 205/507/457
f 498/508/471 488/509/472 147/510/473 370/511/474
f 497/512/475 398/513/476 149/514/477 413/515/478
f 496/516/479 444/517/480 148/518/481 196/519/482
f 495/520/483 182/521/484 150/522/485 278/523/486
f 131/524/408 206/455/421 398/525/476
f 494/526/487 370/527/474 147/528/473 413/529/478
f 493/530/488 254/531/385 125/532/384 167/533/397
f 337/534/401 493/530/488 167/533/397 128/535/396
f 127/536/400 471/537/389 493/530/488 337/534/401
f 471/537/389 126/538/388 254/531/385 493/530/488
f 278/539/486 494/526/487 413/529/478 149/540/477
f 150/541/485 196/542/482 494/526/487 278/539/486
f 196/542/482 148/543/481 370/527/474 494/526/487
f 398/525/476 302/544/489 149/545/477
f 398/525/476 206/455/421 302/544/489
f 206/455/421 136/454/420 302/544/489
f 302/544/489 495/520/483 278/523/486 149/545/477
f 136/454/420 461/467/433 495/520/483 302/544/489
f 461/467/433 132/466/432 182/521/484 495/520/483
f 182/521/484 496/516/479 196/519/482 150/522/485
f 132/466/432 468/447/413 496/516/479 182/521/484
f 468/447/413 130/446/412 444/517/480 496/516/479
f 488/509/472 497/512/475 413/515/478 147/510/473
f 129/438/404 171/443/409 497/512/475 488/509/472
f 171/443/409 131/442/408 398/513/476 497/512/475
f 444/517/480 498/508/471 370/511/474 148/518/481
f 130/446/412 474/439/405 498/508/471 444/517/480
f 474/439/405 129/438/404 488/509/472 498/508/471
f 248/546/465 499/504/470 205/507/457 143/547/456
f 146/548/464 463/549/469 499/504/470 248/546/465
f 463/549/469 145/550/468 164/505/461 499/504/470
f 258/497/463 500/500/466 463/503/469 146/498/464
f 139/474/440 459/487/453 500/500/466 258/497/463
f 459/487/453 142/486/452 327/501/467 500/500/466
f 243/489/455 501/496/462 248/499/465 143/490/456
f 140/478/444 373/475/441 501/496/462 243/489/455
f 373/475/441 139/474/440 258/497/463 501/496/462
f 327/551/467 502/492/458 164/495/461 145/552/468
f 142/553/452 286/483/449 502/492/458 327/551/467
f 286/483/449 141/482/448 371/493/459 502/492/458
f 371/493/459 503/488/454 205/491/457 144/494/460
f 141/482/448 328/479/445 503/488/454 371/493/459
f 328/479/445 140/478/444 243/489/455 503/488/454
f 234/473/439 504/484/450 459/487/453 139/474/440
f 134/450/416 197/471/437 504/484/450 234/473/439
f 197/471/437 138/470/436 365/485/451 504/484/450
f 365/554/451 505/480/446 286/483/449 142/553/452
f 138/555/436 467/459/425 505/480/446 365/554/451
f 467/459/425 137/458/424 247/481/447 505/480/446
f 247/481/447 506/476/442 328/479/445 141/482/448
f 137/458/424 249/463/429 506/476/442 247/481/447
f 249/463/429 135/462/428 359/477/443 506/476/442
f 359/477/443 507/472/438 373/475/441 140/478/444
f 135/462/428 421/451/417 507/472/438 359/477/443
f 421/451/417 134/450/416 234/473/439 507/472/438
f 260/449/415 508/468/434 197/471/437 134/450/416
f 121/556/380 380/557/373 508/468/434 260/449/415
f 380/557/373 120/558/372 341/469/435 508/468/434
f 374/453/419 509/464/430 461/467/433 136/454/420
f 133/559/490 485/560/491 509/464/430 374/453/419
f 485/560/491 119/402/368 189/465/431 509/464/430
f 316/457/423 510/460/426 249/463/429 137/458/424
f 119/561/368 485/562/491 510/460/426 316/457/423
f 485/562/491 133/563/490 334/461/427 510/460/426
f 341/564/435 511/456/422 467/459/425 138/555/436
f 120/565/372 329/566/369 511/456/422 341/564/435
f 329/566/369 119/561/368 316/457/423 511/456/422
f 384/567/492 512/452/418 206/455/421 131/524/408
f 121/568/380 292/569/493 512/452/418 384/567/492
f 292/569/493 133/559/490 374/453/419 512/452/418
f 334/461/427 513/448/414 421/451/417 135/462/428
f 133/563/490 292/570/493 513/448/414 334/461/427
f 292/570/493 121/556/380 260/449/415 513/448/414
f 189/465/431 514/444/410 468/447/413 132/466/432
f 119/402/368 465/399/365 514/444/410 189/465/431
f 465/399/365 118/398/364 188/445/411 514/444/410
f 280/437/403 515/441/407 171/443/409 129/438/404
f 123/410/376 172/427/393 515/441/407 280/437/403
f 172/427/393 124/426/392 295/440/406 515/441/407
f 295/440/406 384/571/492 131/442/408
f 295/440/406 335/415/381 384/571/492
f 335/415/381 121/414/380 384/571/492
f 188/445/411 516/436/402 474/439/405 130/446/412
f 118/398/364 271/411/377 516/436/402 188/445/411
f 271/411/377 123/410/376 280/437/403 516/436/402
f 397/572/395 517/432/398 337/435/401 128/573/396
f 114/574/344 372/575/357 517/432/398 397/572/395
f 372/575/357 117/576/356 201/433/399 517/432/398
f 451/417/383 518/428/394 167/431/397 125/418/384
f 115/577/360 287/578/345 518/428/394 451/417/383
f 287/578/345 114/579/344 397/429/395 518/428/394
f 289/409/375 519/424/390 172/427/393 123/410/376
f 122/580/494 402/581/495 519/424/390 289/409/375
f 402/581/495 117/582/356 312/425/391 519/424/390
f 201/433/399 520/420/386 471/423/389 127/434/400
f 117/576/356 402/583/495 520/420/386 201/433/399
f 402/583/495 122/584/494 325/421/387 520/420/386
f 325/421/387 521/416/382 254/419/385 126/422/388
f 122/584/494 237/585/496 521/416/382 325/421/387
f 237/585/496 115/577/360 451/417/383 521/416/382
f 312/425/391 522/412/378 335/415/381 124/426/392
f 117/582/356 208/586/353 522/412/378 312/425/391
f 208/586/353 116/587/352 367/413/379 522/412/378
f 409/397/363 523/408/374 271/411/377 118/398/364
f 115/588/360 237/589/496 523/408/374 409/397/363
f 237/589/496 122/580/494 289/409/375 523/408/374
f 367/590/379 524/404/370 380/407/373 121/591/380
f 116/592/352 330/593/349 524/404/370 367/590/379
f 330/593/349 113/594/348 161/405/371 524/404/370
f 161/405/371 525/400/366 329/403/369 120/406/372
f 113/594/348 378/595/341 525/400/366 161/405/371
f 378/595/341 112/596/340 259/401/367 525/400/366
f 259/401/367 526/396/362 465/399/365 119/402/368
f 112/596/340 425/597/361 526/396/362 259/401/367
f 425/597/361 115/588/360 409/397/363 526/396/362
f 407/373/339 527/392/358 425/395/361 112/374/340
f 110/363/329 246/360/326 527/392/358 407/373/339
f 246/360/326 109/359/325 331/393/359 527/392/358
f 288/377/343 528/388/354 372/391/357 114/378/344
f 108/598/497 163/356/322 528/388/354 288/377/343
f 163/356/322 107/355/321 428/389/355 528/388/354
f 428/389/355 529/384/350 208/387/353 117/390/356
f 107/355/321 281/352/318 529/384/350 428/389/355
f 281/352/318 106/351/317 209/385/351 529/384/350
f 209/599/351 530/380/346 330/383/349 116/600/352
f 106/601/317 454/368/334 530/380/346 209/599/351
f 454/368/334 111/367/333 279/381/347 530/380/346
f 331/393/359 531/376/342 287/379/345 115/394/360
f 109/359/325 204/602/498 531/376/342 331/393/359
f 204/602/498 108/598/497 288/377/343 531/376/342
f 279/381/347 532/372/338 378/375/341 113/382/348
f 111/367/333 460/364/330 532/372/338 279/381/347
f 460/364/330 110/363/329 407/373/339 532/372/338
f 317/603/499 533/369/335 455/371/337 97/604/500
f 108/598/497 204/602/498 533/369/335 317/603/499
f 204/602/498 109/359/325 275/358/324 533/369/335
f 489/605/316 534/365/331 454/368/334 106/601/317
f 102/606/501 410/607/502 534/365/331 489/605/316
f 410/607/502 104/608/503 267/366/332 534/365/331
f 267/366/332 535/361/327 460/364/330 111/367/333
f 104/608/503 326/609/504 535/361/327 267/366/332
f 326/609/504 103/610/505 403/362/328 535/361/327
f 403/362/328 536/357/323 246/360/326 110/363/329
f 103/610/505 282/611/506 536/357/323 403/362/328
f 282/611/506 105/370/336 275/358/324 536/357/323
f 317/603/499 537/353/319 163/356/322 108/598/497
f 97/604/500 375/612/507 537/353/319 317/603/499
f 375/612/507 96/613/508 385/354/320 537/353/319
f 385/354/320 538/349/315 281/352/318 107/355/321
f 96/613/508 175/614/509 538/349/315 385/354/320
f 175/614/509 102/615/501 489/350/316 538/349/315
f 162/334/300 539/345/311 233/348/314 89/335/301
f 104/608/503 410/607/502 539/345/311 162/334/300
f 410/607/502 102/606/501 157/346/312 539/345/311
f 416/314/280 540/341/307 159/344/310 98/315/281
f 97/604/500 455/371/337 540/341/307 416/314/280
f 455/371/337 105/370/336 464/342/308 540/341/307
f 464/342/308 541/337/303 220/340/306 94/343/309
f 105/370/336 282/611/506 541/337/303 464/342/308
f 282/611/506 103/610/505 215/338/304 541/337/303
f 215/338/304 542/333/299 364/336/302 88/339/305
f 103/610/505 326/609/504 542/333/299 215/338/304
f 326/609/504 104/608/503 162/334/300 542/333/299
f 157/616/312 543/329/295 369/332/298 92/617/313
f 102/615/501 175/614/509 543/329/295 157/616/312
f 175/614/509 96/613/508 379/330/296 543/329/295
f 166/318/284 544/325/291 207/328/294 100/319/285
f 99/331/297 285/316/282 544/325/291 166/318/284
f 285/316/282 98/315/281 368/326/292 544/325/291
f 368/326/292 545/321/287 366/324/290 101/327/293
f 98/315/281 159/344/310 545/321/287 368/326/292
f 159/344/310 94/343/309 452/322/288 545/321/287
f 199/618/272 546/317/283 320/320/286 93/619/273
f 92/617/313 369/332/298 546/317/283 199/618/272
f 369/332/298 99/331/297 166/318/284 546/317/283
f 379/330/296 547/313/279 285/316/282 99/331/297
f 96/613/508 375/612/507 547/313/279 379/330/296
f 375/612/507 97/604/500 416/314/280 547/313/279
f 452/322/288 548/309/275 350/312/278 95/323/289
f 94/343/309 220/340/306 548/309/275 452/322/288
f 220/340/306 88/339/305 431/310/276 548/309/275
f 318/302/268 549/305/271 357/308/274 90/303/269
f 89/335/301 233/348/314 549/305/271 318/302/268
f 233/348/314 92/347/313 199/306/272 549/305/271
f 431/310/276 550/301/267 274/304/270 91/311/277
f 88/339/305 364/336/302 550/301/267 431/310/276
f 364/336/302 89/335/301 318/302/268 550/301/267
f 185/620/510 551/297/263 394/300/266 64/621/511
f 63/622/512 222/623/513 551/297/263 185/620/510
f 222/623/513 67/624/514 458/298/264 551/297/263
f 193/625/257 552/293/262 447/296/261 87/626/260
f 85/627/256 195/628/249 552/293/262 193/625/257
f 195/628/249 84/629/248 224/294/253 552/293/262
f 472/282/251 553/289/258 447/292/261 86/283/252
f 77/275/244 203/240/212 553/289/258 472/282/251
f 203/240/212 76/239/211 244/290/259 553/289/258
f 244/630/259 554/285/254 193/288/257 87/631/260
f 76/632/211 414/268/237 554/285/254 244/630/259
f 414/268/237 83/267/236 448/286/255 554/285/254
f 313/278/247 555/281/250 224/284/253 84/279/248
f 82/263/232 283/276/245 555/281/250 313/278/247
f 283/276/245 77/275/244 472/282/251 555/281/250
f 448/286/255 556/277/246 195/280/249 85/287/256
f 83/267/236 273/264/233 556/277/246 448/286/255
f 273/264/233 82/263/232 313/278/247 556/277/246
f 219/262/231 557/273/242 283/276/245 82/263/232
f 66/633/187 198/634/515 557/273/242 219/262/231
f 198/634/515 73/635/516 272/274/243 557/273/242
f 321/636/202 558/269/238 276/272/241 74/637/203
f 73/638/516 198/639/515 558/269/238 321/636/202
f 198/639/515 66/215/187 270/270/239 558/269/238
f 303/640/210 559/265/234 414/268/237 76/632/211
f 70/641/191 232/642/196 559/265/234 303/640/210
f 232/642/196 68/643/195 432/266/235 559/265/234
f 432/266/235 560/261/230 273/264/233 83/267/236
f 68/643/195 319/644/188 560/261/230 432/266/235
f 319/644/188 66/633/187 219/262/231 560/261/230
f 240/645/220 561/257/229 362/260/228 80/646/227
f 79/647/219 456/648/216 561/257/229 240/645/220
f 456/648/216 78/649/215 200/258/224 561/257/229
f 268/250/222 562/253/225 362/256/228 81/251/223
f 71/227/199 486/232/204 562/253/225 268/250/222
f 486/232/204 74/231/203 490/254/226 562/253/225
f 225/242/214 563/249/221 200/252/224 78/243/215
f 72/235/207 241/228/200 563/249/221 225/242/214
f 241/228/200 71/227/199 268/250/222 563/249/221
f 490/650/226 564/245/217 240/248/220 80/651/227
f 74/637/203 276/272/241 564/245/217 490/650/226
f 276/272/241 75/271/240 354/246/218 564/245/217
f 354/246/218 565/241/213 456/244/216 79/247/219
f 75/271/240 435/236/208 565/241/213 354/246/218
f 435/236/208 72/235/207 225/242/214 565/241/213
f 272/274/243 566/237/209 203/240/212 77/275/244
f 73/635/516 202/652/517 566/237/209 272/274/243
f 202/652/517 70/653/191 303/238/210 566/237/209
f 270/270/239 567/233/205 435/236/208 75/271/240
f 66/215/187 324/212/184 567/233/205 270/270/239
f 324/212/184 65/211/183 404/234/206 567/233/205
f 457/226/198 568/229/201 486/232/204 71/227/199
f 70/219/191 202/654/517 568/229/201 457/226/198
f 202/654/517 73/655/516 321/230/202 568/229/201
f 404/234/206 569/225/197 241/228/200 72/235/207
f 65/211/183 154/220/192 569/225/197 404/234/206
f 154/220/192 70/219/191 457/226/198 569/225/197
f 160/218/190 570/221/193 232/224/196 70/219/191
f 69/656/265 458/657/264 570/221/193 160/218/190
f 458/657/264 67/658/514 411/222/194 570/221/193
f 221/210/182 571/217/189 154/220/192 65/211/183
f 64/659/511 394/660/266 571/217/189 221/210/182
f 394/660/266 69/656/265 160/218/190 571/217/189
f 411/661/194 572/213/185 319/216/188 68/662/195
f 67/663/514 222/664/513 572/213/185 411/661/194
f 222/664/513 63/665/512 265/214/186 572/213/185
f 265/214/186 573/209/181 324/212/184 66/215/187
f 63/665/512 185/666/510 573/209/181 265/214/186
f 185/666/510 64/659/511 221/210/182 573/209/181
f 338/208/180 177/187/166 48/129/115
f 338/208/180 381/128/114 177/187/166
f 381/128/114 47/185/164 177/187/166
f 386/188/167 476/131/117 50/667/518
f 386/188/167 338/208/180 476/131/117
f 338/208/180 48/129/115 476/131/117
f 469/207/179 440/668/519 57/669/520
f 469/207/179 453/206/178 440/668/519
f 453/206/178 33/105/93 440/668/519
f 216/178/158 430/106/94 33/105/93
f 216/178/158 477/204/176 430/106/94
f 477/204/176 34/670/521 430/106/94
f 477/204/176 377/671/522 34/670/521
f 477/204/176 229/203/157 377/671/522
f 229/203/157 41/672/523 377/671/522
f 153/175/156 475/673/524 46/674/525
f 153/175/156 405/202/175 475/673/524
f 405/202/175 47/185/164 475/673/524
f 405/202/175 290/186/165 47/185/164
f 405/202/175 245/201/159 290/186/165
f 245/201/159 49/675/177 290/186/165
f 345/200/169 462/173/154 59/676/526
f 345/200/169 415/199/174 462/173/154
f 415/199/174 52/171/152 462/173/154
f 376/169/150 387/677/527 52/171/152
f 376/169/150 277/168/149 387/677/527
f 277/168/149 53/195/171 387/677/527
f 442/197/173 340/678/528 43/679/529
f 442/197/173 351/196/172 340/678/528
f 351/196/172 44/680/530 340/678/528
f 178/164/147 332/681/531 38/682/532
f 178/164/147 346/194/170 332/681/531
f 346/194/170 36/683/533 332/681/531
f 346/194/170 383/684/534 36/683/533
f 346/194/170 256/192/168 383/684/534
f 256/192/168 37/685/535 383/684/534
f 296/161/144 342/686/536 39/687/537
f 296/161/144 345/193/169 342/686/536
f 345/193/169 59/688/526 342/686/536
f 256/192/168 478/162/145 37/685/535
f 256/192/168 388/191/151 478/162/145
f 388/191/151 60/160/143 478/162/145
f 426/155/140 323/159/142 54/689/538
f 426/155/140 158/190/136 323/159/142
f 158/190/136 58/157/137 323/159/142
f 151/150/135 235/690/539 39/687/537
f 151/150/135 297/149/134 235/690/539
f 297/149/134 32/691/540 235/690/539
f 308/148/133 440/668/519 33/105/93
f 308/148/133 217/189/132 440/668/519
f 217/189/132 57/669/520 440/668/519
f 339/145/131 433/692/541 49/675/177
f 339/145/131 422/156/141 433/692/541
f 422/156/141 50/667/518 433/692/541
f 473/138/124 347/143/129 43/679/529
f 473/138/124 183/136/122 347/143/129
f 183/136/122 51/132/118 347/143/129
f 226/135/121 176/693/542 54/689/538
f 226/135/121 386/188/167 176/693/542
f 386/188/167 50/667/518 176/693/542
f 177/187/166 211/130/116 48/129/115
f 177/187/166 290/186/165 211/130/116
f 290/186/165 49/675/177 211/130/116
f 441/184/163 165/181/161 46/674/525
f 441/184/163 436/142/128 165/181/161
f 436/142/128 42/121/107 165/181/161
f 255/127/113 441/184/163 46/674/525
f 255/127/113 349/139/125 441/184/163
f 349/139/125 55/140/126 441/184/163
f 424/124/110 239/694/543 38/682/532
f 424/124/110 408/183/162 239/694/543
f 408/183/162 44/695/530 239/694/543
f 408/182/162 252/123/109 44/680/530
f 408/182/162 155/120/106 252/123/109
f 155/120/106 42/121/107 252/123/109
f 165/181/161 250/696/544 46/674/525
f 165/181/161 427/180/160 250/696/544
f 427/180/160 41/697/523 250/696/544
f 417/116/104 293/698/545 34/670/521
f 417/116/104 173/125/111 293/698/545
f 173/125/111 35/110/98 293/698/545
f 311/112/100 214/107/95 35/110/98
f 311/112/100 305/104/92 214/107/95
f 305/104/92 33/105/93 214/107/95
f 245/179/159 453/206/178 49/205/177
f 245/179/159 216/178/158 453/206/178
f 216/178/158 33/105/93 453/206/178
f 229/176/157 250/696/544 41/697/523
f 229/176/157 153/175/156 250/696/544
f 153/175/156 46/674/525 250/696/544
f 462/173/154 284/699/546 59/676/526
f 462/173/154 336/172/153 284/699/546
f 336/172/153 54/689/538 284/699/546
f 388/170/151 415/199/174 60/198/143
f 388/170/151 376/169/150 415/199/174
f 376/169/150 52/171/152 415/199/174
f 277/168/149 351/196/172 53/195/171
f 277/168/149 363/167/148 351/196/172
f 363/167/148 44/680/530 351/196/172
f 363/165/148 239/694/543 44/695/530
f 363/165/148 178/164/147 239/694/543
f 178/164/147 38/682/532 239/694/543
f 478/162/145 382/700/547 37/685/535
f 478/162/145 296/161/144 382/700/547
f 296/161/144 39/687/537 382/700/547
f 323/159/142 284/699/546 54/689/538
f 323/159/142 298/158/139 284/699/546
f 298/158/139 59/676/526 284/699/546
f 422/156/141 176/693/542 50/667/518
f 422/156/141 426/155/140 176/693/542
f 426/155/140 54/689/538 176/693/542
f 298/154/139 342/686/536 59/688/526
f 298/154/139 212/153/138 342/686/536
f 212/153/138 39/687/537 342/686/536
f 158/151/136 212/153/138 58/152/137
f 158/151/136 151/150/135 212/153/138
f 151/150/135 39/687/537 212/153/138
f 297/149/134 227/701/548 32/691/540
f 297/149/134 308/148/133 227/701/548
f 308/148/133 33/105/93 227/701/548
f 217/146/132 469/702/179 57/703/520
f 217/146/132 339/145/131 469/702/179
f 339/145/131 49/675/177 469/702/179
f 347/143/129 442/197/173 43/679/529
f 347/143/129 479/134/120 442/197/173
f 479/134/120 53/195/171 442/197/173
f 436/142/128 291/122/108 42/121/107
f 436/142/128 181/141/127 291/122/108
f 181/141/127 43/679/529 291/122/108
f 349/139/125 181/141/127 55/140/126
f 349/139/125 473/138/124 181/141/127
f 473/138/124 43/679/529 181/141/127
f 343/133/119 336/172/153 52/171/152
f 343/133/119 423/137/123 336/172/153
f 423/137/123 54/689/538 336/172/153
f 183/136/122 423/137/123 51/132/118
f 183/136/122 226/135/121 423/137/123
f 226/135/121 54/689/538 423/137/123
f 479/134/120 387/677/527 53/195/171
f 479/134/120 343/133/119 387/677/527
f 343/133/119 52/171/152 387/677/527
f 476/131/117 433/692/541 50/667/518
f 476/131/117 211/130/116 433/692/541
f 211/130/116 49/675/177 433/692/541
f 381/128/114 475/673/524 47/185/164
f 381/128/114 255/127/113 475/673/524
f 255/127/113 46/674/525 475/673/524
f 173/125/111 418/111/99 35/110/98
f 173/125/111 424/124/110 418/111/99
f 424/124/110 38/682/532 418/111/99
f 252/123/109 340/678/528 44/680/530
f 252/123/109 291/122/108 340/678/528
f 291/122/108 43/679/529 340/678/528
f 155/120/106 427/180/160 42/121/107
f 155/120/106 213/119/105 427/180/160
f 213/119/105 41/697/523 427/180/160
f 213/117/105 377/671/522 41/672/523
f 213/117/105 417/116/104 377/671/522
f 417/116/104 34/670/521 377/671/522
f 152/114/102 382/700/547 39/687/537
f 152/114/102 399/109/97 382/700/547
f 399/109/97 37/685/535 382/700/547
f 266/103/91 235/690/539 32/691/540
f 266/103/91 152/114/102 235/690/539
f 152/114/102 39/687/537 235/690/539
f 358/108/96 332/681/531 36/683/533
f 358/108/96 450/113/101 332/681/531
f 450/113/101 38/682/532 332/681/531
f 311/112/100 450/113/101 31/102/90
f 311/112/100 418/111/99 450/113/101
f 418/111/99 38/682/532 450/113/101
f 399/109/97 383/684/534 37/685/535
f 399/109/97 358/108/96 383/684/534
f 358/108/96 36/683/533 383/684/534
f 214/107/95 293/698/545 35/110/98
f 214/107/95 430/106/94 293/698/545
f 430/106/94 34/670/521 293/698/545
f 305/104/92 227/701/548 33/105/93
f 305/104/92 266/103/91 227/701/548
f 266/103/91 32/691/540 227/701/548
f 470/101/89 360/704/549 27/705/550
f 470/101/89 419/100/88 360/704/549
f 419/100/88 3/4/4 360/704/549
f 419/100/88 446/5/5 3/4/4
f 419/100/88 333/99/87 446/5/5
f 333/99/87 4/706/551 446/5/5
f 333/99/87 480/707/552 4/706/551
f 333/99/87 412/98/66 480/707/552
f 412/98/66 11/708/553 480/707/552
f 262/69/65 190/709/554 17/710/555
f 262/69/65 184/96/86 190/709/554
f 184/96/86 18/711/556 190/709/554
f 352/95/77 466/67/63 29/712/557
f 352/95/77 174/94/85 466/67/63
f 174/94/85 23/65/61 466/67/63
f 174/94/85 264/713/558 23/65/61
f 174/94/85 253/90/81 264/713/558
f 253/90/81 24/91/82 264/713/558
f 406/93/84 395/714/559 13/715/560
f 406/93/84 242/92/83 395/714/559
f 242/92/83 15/716/78 395/714/559
f 253/90/81 242/92/83 24/91/82
f 253/90/81 168/89/60 242/92/83
f 168/89/60 15/716/78 242/92/83
f 482/87/80 491/717/561 6/718/562
f 482/87/80 218/86/79 491/717/561
f 218/86/79 7/719/563 491/717/561
f 236/62/58 361/720/564 8/721/565
f 236/62/58 352/84/77 361/720/564
f 352/84/77 29/722/557 361/720/564
f 192/56/54 263/60/56 25/723/566
f 192/56/54 186/83/76 263/60/56
f 186/83/76 28/58/51 263/60/56
f 186/83/76 251/724/50 28/58/51
f 186/83/76 170/49/47 251/724/50
f 170/49/47 9/725/48 251/724/50
f 306/82/75 360/704/549 3/4/4
f 306/82/75 210/81/74 360/704/549
f 210/81/74 27/705/550 360/704/549
f 420/47/45 390/726/567 20/68/64
f 420/47/45 169/57/55 390/726/567
f 169/57/55 21/727/568 390/726/567
f 443/43/41 322/45/43 13/715/560
f 443/43/41 238/80/73 322/45/43
f 238/80/73 22/37/35 322/45/43
f 294/40/38 481/728/569 25/723/566
f 294/40/38 484/36/34 481/728/569
f 484/36/34 21/727/568 481/728/569
f 238/80/73 179/41/39 22/37/35
f 238/80/73 449/33/31 179/41/39
f 449/33/31 19/34/32 179/41/39
f 438/35/33 184/96/86 20/68/64
f 438/35/33 304/79/72 184/96/86
f 304/79/72 18/711/556 184/96/86
f 228/31/29 223/73/69 17/710/555
f 228/31/29 187/44/42 223/73/69
f 187/44/42 12/22/20 223/73/69
f 434/78/71 482/87/80 6/718/562
f 434/78/71 487/77/25 482/87/80
f 487/77/25 15/85/78 482/87/80
f 257/28/26 434/78/71 6/718/562
f 257/28/26 437/75/70 434/78/71
f 437/75/70 14/76/23 434/78/71
f 437/74/70 261/24/22 14/25/23
f 437/74/70 191/21/19 261/24/22
f 191/21/19 12/22/20 261/24/22
f 223/73/69 299/729/570 17/710/555
f 223/73/69 445/72/68 299/729/570
f 445/72/68 11/730/553 299/729/570
f 429/17/17 401/731/571 4/706/551
f 429/17/17 180/29/27 401/731/571
f 180/29/27 5/7/7 401/731/571
f 310/9/9 492/6/6 5/7/7
f 310/9/9 231/3/3 492/6/6
f 231/3/3 3/4/4 492/6/6
f 314/71/67 306/82/75 3/4/4
f 314/71/67 391/15/15 306/82/75
f 391/15/15 9/50/48 306/82/75
f 412/70/66 299/729/570 11/730/553
f 412/70/66 262/69/65 299/729/570
f 262/69/65 17/710/555 299/729/570
f 466/67/63 300/732/572 29/712/557
f 466/67/63 301/66/62 300/732/572
f 301/66/62 25/723/566 300/732/572
f 168/64/60 218/86/79 15/85/78
f 168/64/60 156/63/59 218/86/79
f 156/63/59 7/719/563 218/86/79
f 156/63/59 269/733/573 7/719/563
f 156/63/59 236/62/58 269/733/573
f 236/62/58 8/721/565 269/733/573
f 263/60/56 300/732/572 25/723/566
f 263/60/56 392/59/53 300/732/572
f 392/59/53 29/712/557 300/732/572
f 169/57/55 481/728/569 21/727/568
f 169/57/55 192/56/54 481/728/569
f 192/56/54 25/723/566 481/728/569
f 392/55/53 361/720/564 29/722/557
f 392/55/53 315/54/52 361/720/564
f 315/54/52 8/721/565 361/720/564
f 251/52/50 315/54/52 28/53/51
f 251/52/50 230/51/49 315/54/52
f 230/51/49 8/721/565 315/54/52
f 170/49/47 210/734/74 9/725/48
f 170/49/47 307/48/46 210/734/74
f 307/48/46 27/735/550 210/734/74
f 307/48/46 470/736/89 27/735/550
f 307/48/46 420/47/45 470/736/89
f 420/47/45 20/68/64 470/736/89
f 322/45/43 406/93/84 13/715/560
f 322/45/43 344/39/37 406/93/84
f 344/39/37 24/91/82 406/93/84
f 187/44/42 396/23/21 12/22/20
f 187/44/42 443/43/41 396/23/21
f 443/43/41 13/715/560 396/23/21
f 483/38/36 301/66/62 23/65/61
f 483/38/36 389/42/40 301/66/62
f 389/42/40 25/723/566 301/66/62
f 179/41/39 389/42/40 22/37/35
f 179/41/39 294/40/38 389/42/40
f 294/40/38 25/723/566 389/42/40
f 344/39/37 264/713/558 24/91/82
f 344/39/37 483/38/36 264/713/558
f 483/38/36 23/65/61 264/713/558
f 484/36/34 390/726/567 21/727/568
f 484/36/34 438/35/33 390/726/567
f 438/35/33 20/68/64 390/726/567
f 449/33/31 304/79/72 19/34/32
f 449/33/31 400/32/30 304/79/72
f 400/32/30 18/711/556 304/79/72
f 400/32/30 190/709/554 18/711/556
f 400/32/30 228/31/29 190/709/554
f 228/31/29 17/710/555 190/709/554
f 180/29/27 356/8/8 5/7/7
f 180/29/27 257/28/26 356/8/8
f 257/28/26 6/718/562 356/8/8
f 487/27/25 395/714/559 15/716/78
f 487/27/25 355/26/24 395/714/559
f 355/26/24 13/715/560 395/714/559
f 261/24/22 355/26/24 14/25/23
f 261/24/22 396/23/21 355/26/24
f 396/23/21 13/715/560 355/26/24
f 191/21/19 445/72/68 12/22/20
f 191/21/19 309/20/18 445/72/68
f 309/20/18 11/730/553 445/72/68
f 309/18/18 480/707/552 11/708/553
f 309/18/18 429/17/17 480/707/552
f 429/17/17 4/706/551 480/707/552
f 439/12/12 269/733/573 8/721/565
f 439/12/12 393/11/11 269/733/573
f 393/11/11 7/719/563 269/733/573
f 391/15/15 230/51/49 9/50/48
f 391/15/15 348/14/14 230/51/49
f 348/14/14 8/721/565 230/51/49
f 194/2/2 348/14/14 2/13/13
f 194/2/2 439/12/12 348/14/14
f 439/12/12 8/721/565 348/14/14
f 393/11/11 491/717/561 7/719/563
f 393/11/11 353/10/10 491/717/561
f 353/10/10 6/718/562 491/717/561
f 310/9/9 353/10/10 1/1/1
f 310/9/9 356/8/8 353/10/10
f 356/8/8 6/718/562 353/10/10
f 492/6/6 401/731/571 5/7/7
f 492/6/6 446/5/5 401/731/571
f 446/5/5 4/706/551 401/731/571
f 231/3/3 314/71/67 3/4/4
f 231/3/3 194/2/2 314/71/67
f 194/2/2 2/13/13 314/71/67
