# Blender v2.78 (sub 0) OBJ File: ''
# www.blender.org
mtllib Oak_Tree_crk_m_03.mtl
o Oak_Tree_crk_m_03
v -2.772695 1.328769 6.219272
v -2.159197 1.048874 6.389716
v -1.673067 1.573802 6.212711
v -1.999829 2.105975 5.658568
v -2.689477 1.993799 5.812409
v -3.354198 1.045249 5.541152
v -3.014347 0.563713 5.774096
v -3.165197 1.751094 5.184569
v -2.461601 0.514844 6.124325
v -2.724733 2.088133 5.048983
v -1.851565 2.003304 4.860127
v -2.228914 1.744103 4.205688
v -2.307463 0.856552 3.794068
v -3.006329 1.359966 4.352936
v -1.364944 0.621228 4.281200
v -1.442036 1.532692 4.453178
v -0.997104 1.194924 4.831839
v -0.996906 0.748776 5.010230
v -1.049405 1.237391 5.599267
v -1.246196 0.329039 5.160975
v -1.973278 0.106430 4.062986
v -2.409841 -0.114033 4.365055
v -2.573667 0.247843 3.886578
v -1.773801 -0.030451 4.899856
v -1.714177 1.168902 3.999790
v -1.499494 0.491544 5.929211
v -1.212989 1.077895 6.039605
v -1.933443 0.045107 5.757832
v -2.308206 -0.050799 5.255719
v -2.791524 0.009118 5.184323
v -3.211033 0.520742 4.717347
v -1.290625 1.725227 5.340913
v -5.703180 0.414228 5.203974
v -4.702108 0.466266 5.480811
v -4.565188 1.407984 5.556391
v -5.451767 1.923421 5.323130
v -6.142634 1.240784 5.191405
v -6.175823 0.253188 4.286866
v -5.482136 -0.014921 4.330490
v -6.574219 1.090972 4.370659
v -4.761973 0.047661 4.840966
v -6.339973 1.759634 4.568966
v -5.270164 2.459296 4.490266
v -5.606262 2.457286 3.551622
v -4.999422 1.905797 2.582646
v -6.181367 1.434128 3.330990
v -3.672097 2.078814 3.130217
v -4.468447 2.637081 3.850042
v -3.671522 2.388400 4.140378
v -3.215616 1.901323 4.073870
v -3.721138 1.919156 4.977097
v -3.116492 1.336493 3.936074
v -4.019662 1.339892 2.501816
v -4.335888 0.657299 2.591237
v -4.846219 1.116042 2.371307
v -3.559659 0.851513 3.306235
v -4.531915 2.482906 3.085413
v -3.627983 0.743421 4.818930
v -3.765254 1.392728 5.300961
v -3.896091 0.284822 4.269719
v -4.248400 0.338668 3.616903
v -4.860874 -0.089801 3.414291
v -5.774312 0.338052 3.164070
v -4.378400 2.329571 4.937972
v -0.021735 0.355003 0.214649
v -0.208529 0.338156 0.038600
v -0.248276 0.032901 0.060522
v -0.024825 0.036000 0.263286
v -0.210562 0.330493 -0.148434
v -0.250651 0.031837 -0.168692
v 0.258232 0.322110 0.083336
v 0.296748 0.030743 0.108008
v -0.069439 1.133960 -0.258152
v 0.155474 1.113467 -0.168190
v 0.255149 0.310604 -0.189021
v -0.025921 0.339169 -0.332191
v -0.029772 0.033871 -0.379366
v 0.293264 0.029005 -0.211332
v -0.222255 1.122307 -0.138135
v -0.067269 1.148810 0.125602
v -0.221221 1.129520 0.010892
v 0.157299 1.124046 0.045060
v -0.414606 1.924864 -0.195025
v -0.312521 1.930310 -0.273425
v -0.194049 1.967175 -0.204176
v -0.227407 1.994049 -0.077443
v -0.321692 1.942326 0.000880
v -0.428278 1.898798 -0.072514
v -1.946956 0.116965 1.327197
v -1.869569 0.111643 1.428164
v -2.515170 0.025170 1.828713
v -2.588093 0.023389 1.747512
v -1.822842 0.224220 1.456916
v -1.859576 0.334402 1.430370
v -2.331281 0.213544 1.731026
v -2.438060 0.113086 1.870548
v -1.953247 0.233919 1.286256
v -2.625990 0.121225 1.706652
v -1.946697 0.337685 1.336201
v -2.550723 0.215944 1.755702
v -3.435888 0.527551 2.658195
v -3.534282 0.431073 2.721357
v -3.525640 0.305285 2.616291
v -3.625731 0.479383 2.630383
v -2.582541 0.201652 1.943956
v -3.464249 0.582817 2.607528
v -3.535039 0.578682 2.564150
v -2.138525 0.238412 2.324055
v -2.219534 0.275826 2.381107
v -2.216000 0.363026 2.357560
v -2.125819 0.361636 2.306000
v -2.087023 0.211461 3.514863
v -2.046625 0.310173 3.562726
v -1.951871 0.341998 3.455779
v -1.968279 0.216171 3.517309
v -2.073705 0.065110 4.378759
v -2.118340 0.083592 4.376053
v -1.960366 0.251907 3.719287
v -2.073817 0.102656 4.424407
v -2.116995 0.118553 4.403045
v -1.520084 0.595744 3.811753
v -1.568202 0.587768 3.870520
v -2.170856 0.014299 5.074246
v -2.169701 0.031420 5.088444
v -2.147747 0.026200 5.095444
v -2.148782 0.004771 5.076494
v -3.874551 1.488790 2.899455
v -3.863401 1.470886 2.942617
v -3.912558 1.415095 2.871704
v -3.900036 1.450356 2.967514
v -3.706511 0.555199 2.787473
v -3.994794 0.092966 3.034960
v -3.988087 0.138383 3.087032
v -3.945874 1.460553 2.949426
v -3.931085 0.065915 3.100561
v -3.949092 0.024910 3.050143
v -4.436620 0.102200 3.526677
v -4.424283 0.057697 3.485130
v -4.933851 0.126322 3.802979
v -4.928901 0.164767 3.825894
v -4.404042 0.035923 3.565723
v -4.919519 0.117540 3.863702
v -4.400331 -0.003852 3.520456
v -4.930432 0.084438 3.837128
v -5.788853 -0.025462 4.298450
v -5.777184 -0.046360 4.311209
v -5.775952 -0.058260 4.296157
v -5.784572 -0.039028 4.284810
v -4.236582 2.045684 3.422913
v -4.229614 2.038079 3.438370
v -4.232711 1.999509 3.393469
v -4.241453 2.026596 3.444569
v -1.605500 0.647996 3.832627
v -1.550896 0.658704 3.818985
v -1.529612 1.066292 4.247402
v -1.510139 1.084011 4.237792
v -1.516547 1.038649 4.253331
v -1.498549 1.057011 4.236272
v -0.210109 1.997226 -0.145402
v -4.228296 0.175775 4.570858
v -4.067774 1.806921 3.207086
v -1.830204 0.288812 1.443166
v -6.577398 1.435935 4.470956
v -2.927079 0.268676 5.495445
v -4.076410 1.817981 3.178522
v -3.664330 0.519097 2.798132
v 0.144812 0.031438 -0.331794
v -3.442433 0.721314 4.041272
v -0.327797 1.554653 -0.172477
v -0.235220 0.141619 -0.158654
v -2.092215 0.200524 3.992911
v -2.137952 0.254282 2.932974
v -2.392406 0.219800 1.711163
v -4.036127 2.169234 5.028656
v -5.954386 1.846598 5.019060
v -5.394780 0.070573 4.083367
v -1.546087 0.878276 4.057275
v -1.813184 0.468093 3.693182
v -2.121984 0.102677 4.388296
v -3.288442 1.054726 4.313477
v -6.406077 1.650427 3.978307
v -2.209496 0.266980 1.484673
v -4.894862 2.608869 4.187666
v -4.656463 0.232460 2.944520
v -2.031112 0.125834 3.956938
v -1.319390 1.658332 4.868828
v -1.983157 0.477119 6.130233
v -2.172657 0.020782 5.103194
v -5.385444 0.037817 4.108359
v -2.094625 0.147340 3.964143
v -4.013960 2.469311 3.456854
v -2.761398 2.104688 5.457082
v -1.466227 0.142048 5.034109
v -5.652013 0.042425 3.722872
v -1.096110 0.569677 5.062167
v 0.283540 0.312561 -0.052194
v -5.016612 2.522580 3.239622
v -1.801794 1.690494 4.292024
v -1.765574 0.184534 5.833671
v -0.201215 0.709367 0.027782
v -0.972912 0.954452 4.912066
v -2.519649 1.950780 4.591996
v -4.494720 2.583429 3.397252
v -0.203068 0.701478 -0.138496
v -0.157171 1.129326 -0.208367
v -2.404455 1.195784 6.393603
v -0.261794 1.976024 -0.242843
v 0.126516 0.340370 0.170477
v -3.178928 0.475438 5.277624
v -1.937256 1.433995 4.035626
v -1.504377 1.085865 4.250858
v -3.723911 0.958072 2.841024
v -0.029375 0.146844 -0.368084
v -4.922954 0.145022 3.847130
v -3.068233 0.174626 2.181220
v -1.581048 1.331000 4.173796
v -2.132158 0.344149 2.935594
v -1.884891 0.344913 1.373672
v -4.224655 0.471355 3.057186
v -1.745793 0.475964 3.672384
v -5.815884 -0.038303 4.307325
v -4.933398 0.101512 3.817721
v -2.179927 0.245588 2.353959
v -4.614745 0.044378 3.650978
v -5.308301 0.746607 2.659630
v -4.257974 2.046188 3.454740
v -4.633276 0.145090 3.648171
v -2.046211 0.346398 2.892592
v 0.178848 1.115581 -0.061023
v -2.342258 -0.135270 4.802866
v -2.096080 0.070691 4.373821
v -3.950360 0.031783 3.088011
v -0.195933 1.580214 -0.263948
v -2.902574 0.353851 4.211760
v -2.160719 0.026979 5.113937
v -4.004868 2.526434 3.981807
v -5.226679 0.866827 5.500981
v -3.313108 1.984633 3.650916
v -4.894972 2.136204 5.213628
v -3.677821 2.231608 4.596020
v -4.029897 1.018690 5.323406
v -0.971098 1.267552 5.206982
v 0.339602 0.029874 -0.050585
v -0.131777 0.336257 -0.255117
v -0.431953 1.921476 -0.131100
v -1.177610 1.339233 4.636368
v -2.485970 0.064173 1.850744
v -4.834280 -0.081228 4.115983
v -2.272712 1.525558 6.316763
v -2.215681 0.054001 1.489898
v -0.384775 1.944964 -0.036139
v -1.420251 1.722453 5.822021
v -0.034727 0.711075 -0.290830
v -4.394225 2.548778 4.398954
v -2.328212 0.158805 1.775768
v -1.862395 0.812884 6.242215
v -0.024709 0.155690 0.250814
v 0.287180 0.136950 0.099723
v -1.537067 0.207897 4.539982
v -0.199868 1.593669 0.058959
v -1.995141 0.283631 3.700506
v -2.226132 0.321375 2.375960
v -2.611044 0.172809 1.713094
v -5.804532 -0.058657 4.318913
v -4.406103 0.067480 3.539162
v -3.457240 0.496118 2.672466
v -1.551238 1.898342 5.088776
v -5.040148 2.644055 3.697694
v -3.538589 1.345578 4.893438
v -1.126942 1.528361 5.514897
v -2.129371 0.235794 5.955324
v -4.629021 0.100032 3.613589
v -6.056678 2.128623 4.042262
v -2.149988 0.013268 5.107780
v -6.048043 0.316126 4.717958
v -3.270543 1.111928 3.628166
v -1.522992 0.833986 4.077161
v -5.626130 1.715101 2.861000
v -3.159885 1.681777 4.003809
v -3.760876 0.412355 4.475902
v -4.427310 1.636111 2.460697
v -4.082627 1.001158 2.481298
v -3.154331 1.592670 4.757339
v -3.745081 0.947047 2.725099
v -2.670127 1.611092 4.257665
v -4.091142 1.792559 3.222500
v -4.537126 0.117545 3.500225
v -6.334849 0.728331 3.727324
v -1.633779 1.814527 4.643265
v -4.179357 2.357845 3.042157
v -1.328232 1.102728 4.309393
v -4.495428 0.119417 4.196342
v -2.103568 0.422275 3.867691
v -2.123807 0.298075 2.308400
v -2.136607 0.049790 1.582546
v -3.288101 1.194008 4.897949
v -0.235235 1.124303 -0.063239
v -4.246761 2.049119 3.458472
v -2.364945 0.226418 2.076306
v 0.221343 0.680945 -0.175416
v -1.565458 0.943391 4.056841
v -2.069444 0.082279 4.402836
v -4.244709 2.059124 3.447973
v -1.725834 0.392729 3.659335
v -0.232954 0.145915 0.049954
v -3.498201 0.586071 2.581877
v -4.924780 0.096443 3.854408
v -1.507485 1.062183 4.258285
v -3.968897 1.514435 2.956057
v -2.406427 0.163588 5.698074
v -4.610422 0.083598 3.689845
v -1.487591 0.850591 4.042605
v -3.902584 1.485979 2.891770
v -1.944445 0.289740 3.442146
v -3.621889 2.318250 3.648084
v -5.824207 2.171121 4.552759
v -5.952911 0.884829 5.231166
v -3.879226 1.459938 2.958093
v -5.182462 -0.035374 4.621778
v -2.259825 0.283585 1.975299
v -2.540291 0.160844 1.948720
v -4.616494 0.829957 5.532907
v -3.386045 1.935890 4.466460
v -3.257679 1.629953 3.488418
v -3.698891 1.187145 5.164286
v -4.088598 1.765180 3.139936
v -4.222856 0.564206 5.258615
v -0.982208 0.957951 5.256736
v -1.283781 0.893039 6.015586
v -0.350733 2.038021 -0.146038
v -1.113907 0.945576 4.535197
v -2.270637 2.092374 4.942898
v -2.714738 1.730358 6.027009
v -2.781090 0.554481 5.996701
v 0.283745 0.130439 -0.203799
v -1.947198 1.256934 6.357061
v -1.103330 0.654640 4.693322
v 0.149693 0.033371 0.221333
v -0.276261 0.032369 -0.053326
v -1.544823 1.027997 6.189498
v -1.888595 0.114915 1.365807
v -3.714475 0.544152 2.748130
v 0.049598 1.123806 -0.229366
v -3.985235 2.420743 4.540146
v -4.255416 2.057321 3.441461
v -2.612396 0.067918 1.722381
v -0.128445 0.348950 0.140780
v -6.493381 1.238634 3.852794
v -6.002507 1.973325 3.441097
v -3.559676 0.343930 2.603244
v -2.672352 0.218222 5.673927
v -4.385354 0.009750 3.535232
v -2.095348 0.114265 4.417312
v -1.841532 -0.020161 5.415527
v -3.970421 0.092296 3.106740
v -0.026944 1.590706 -0.186803
v -6.278932 0.746207 4.843747
v -1.190763 0.813432 5.762327
v -3.864228 1.481067 2.920021
v -5.492630 2.502474 4.056315
v -6.452394 1.164322 4.857150
v -4.004039 0.106393 3.071933
v -3.768344 0.928258 2.737531
v -3.739654 1.152449 2.792392
v -5.066655 1.728877 5.490124
v -5.395960 0.045171 4.066180
v -3.985538 1.412769 5.403710
v -3.329174 1.563416 4.489002
v -2.088544 -0.124922 4.573247
v -3.767148 0.217777 2.944952
v -2.154030 -0.062964 4.170665
v -0.162694 0.032854 -0.298619
v -4.963024 1.488320 2.432123
v -2.547564 -0.037272 5.210258
v -3.289515 1.349080 5.379513
v -3.143098 1.204571 5.858773
v -2.681039 1.105621 3.980147
v -4.099945 1.794761 5.361146
v -2.147477 0.042186 4.771150
v -1.833858 0.162603 1.439885
v -1.334625 1.245050 6.118920
v -0.155383 1.141148 0.077928
v 0.051931 1.137946 0.101143
v -0.225679 0.332400 -0.054460
v -2.483012 0.539727 3.806398
v -2.603518 0.218322 1.886953
v -3.900246 0.553056 3.395474
v -3.782180 1.576078 5.238759
v -1.519476 1.089738 4.256661
v -3.925211 1.453542 2.962513
v -1.260442 1.487379 5.930639
v -5.808334 -0.054689 4.305611
v -1.942755 0.295999 1.302714
v -5.390954 0.015922 4.088645
v -4.931571 0.150091 3.810444
v -4.745952 0.244858 5.265446
v -2.068442 -0.101894 5.054960
v -1.161711 1.164045 5.920589
v -2.093507 0.251195 3.525798
v -5.605652 0.109395 4.820753
v -4.300840 2.030814 2.712675
v -5.417546 2.204549 3.010506
v -4.395633 1.245655 2.333621
v -5.812469 1.577986 5.316096
v -3.785690 0.174171 2.879441
v -4.070330 0.307255 3.996753
v -5.192514 -0.104974 3.879259
v -2.267484 0.130713 3.895889
v -0.030911 0.727321 0.173108
v -2.301474 0.827852 6.322992
v -2.117229 0.006216 5.550653
v -2.937345 0.906734 6.071264
v -0.329790 1.561274 -0.031810
v -4.092876 1.756242 3.160438
v -0.028501 1.599181 -0.010780
v -1.828009 0.688734 3.932778
v -2.337125 1.337481 3.946348
v -3.443995 0.558187 2.633290
v -2.345567 2.079232 5.779593
v -2.089273 0.151251 1.628052
v -0.367301 1.939942 -0.242934
v -2.146373 0.065909 4.792345
v -2.552414 0.015856 1.788411
v -1.278876 0.368457 4.737580
v -4.176101 0.298815 4.940441
v -3.118841 0.267000 2.151659
v 0.122481 0.324998 -0.282548
v -1.592675 0.616782 3.855181
v -6.351497 1.488213 4.941738
v -1.947885 0.229312 3.673807
v -3.013619 0.193179 2.259478
v -0.158664 0.034450 0.185417
v -4.396412 0.021868 3.491343
v -2.161926 0.007071 5.097039
v -3.698258 0.502408 3.868310
v -1.522584 1.066056 4.264087
v -3.022151 0.345166 2.247044
v -1.089803 1.473150 5.062873
v -1.585868 0.121190 5.443830
v -2.252243 0.161471 1.444184
v -1.332918 0.363189 5.501576
v -1.993304 0.348166 3.470304
v -1.540332 0.585253 3.842848
v -2.055391 0.229353 2.885381
v -6.368739 0.595360 4.305905
v -3.841399 0.302055 2.936111
v -2.047335 0.192837 3.497423
v -2.659268 -0.079267 4.750654
v -3.007833 1.980367 5.097284
v -3.907001 0.769000 2.853887
v -2.378183 2.154822 5.392590
v -5.122842 0.435188 5.448811
v -3.865499 1.672790 2.737370
v -3.693138 1.026305 2.760715
v -2.278579 0.169914 2.034384
v -3.411051 2.151327 4.091189
v -1.843035 0.013668 4.393707
v -4.744094 2.272288 2.842749
v -2.922332 1.821370 4.684962
v -6.096073 0.272741 3.818657
v -1.117200 0.726599 5.426350
v -3.043695 1.621742 5.737133
v -5.536932 1.220351 2.744224
v -3.596852 0.610418 2.596637
v -1.942758 0.170554 1.296885
v -2.046078 1.934433 4.530365
v -2.963225 1.941553 5.540769
v -1.836034 1.921704 5.950145
v -1.829873 0.244135 1.337508
v -2.115255 0.057983 4.804047
v -3.077772 0.346520 2.157967
v -0.279218 1.981258 -0.032014
v -1.710303 0.321781 4.137169
v -2.098431 0.269469 1.554978
v -6.051586 0.888888 3.191990
v -1.966590 1.048488 3.883074
v -3.844663 0.253534 2.868193
v -3.349196 0.848506 5.191929
v -2.845006 0.742695 4.060734
v -5.381220 2.208057 4.948384
v -1.510824 0.893255 4.045881
v -3.795305 0.999434 2.827462
v -2.170012 0.373861 2.330402
v -3.983978 0.045880 3.053203
v -3.506053 0.315454 2.655159
v -5.812081 -0.042271 4.320627
v -1.582009 0.659853 3.824095
v -2.032605 0.166757 4.031129
v -5.259554 0.139722 5.140142
v -5.004362 0.440226 2.712436
v -4.417161 0.079598 3.495273
v -3.158219 0.954137 4.475170
v -3.676832 0.991381 2.813155
v -2.967964 0.268651 2.270804
v -2.825973 0.095034 4.441610
v 0.224152 0.692903 0.068484
v -5.862973 0.098888 4.306082
v -5.458279 1.284397 5.457902
v -1.529667 0.628324 3.811761
v -4.575722 0.872686 2.394835
v -1.921232 2.085470 5.266994
v -4.455131 1.948314 5.349751
v -5.246619 0.048576 3.200062
v -2.502309 0.021014 4.065624
v -2.652864 0.921346 6.283963
v -3.495806 1.448694 3.116474
v -3.001497 0.163870 4.932063
v -2.369900 0.284145 2.000011
v -3.214722 0.805188 5.666619
v -2.241754 1.842167 6.093774
v -2.115996 0.027861 4.775397
v -4.826180 2.442279 4.729629
v -1.761477 0.402886 3.743011
v -1.618468 1.945189 5.562372
v -4.356072 0.034720 3.487522
v -4.011501 0.034720 3.115364
v -0.382438 2.028096 -0.091572
v -0.319028 2.047945 -0.200503
v -1.829733 0.180442 1.333847
v -1.830013 0.307828 1.341170
v -1.512785 1.119369 4.298793
v -1.502919 0.837836 4.060734
v -1.495589 0.873540 4.041890
v -1.538158 0.854514 4.069571
v -1.530828 0.890218 4.050727
v -1.792607 0.435607 3.723446
v -2.062363 0.188460 4.017292
v -1.730537 0.434229 3.660510
v -1.783158 0.479629 3.680900
v -4.284920 2.103752 3.501962
v -4.105538 1.792706 3.216435
v -4.077831 1.799034 3.216946
v -4.093998 1.813970 3.175273
v -4.069261 1.813669 3.192127
v -5.895910 -0.067088 4.359507
v -5.393800 0.028124 4.075522
v -5.396104 0.061047 4.072344
v -5.387465 0.023695 4.100932
v -5.389770 0.056617 4.097753
v -4.621886 0.067889 3.628522
v -4.610682 0.057989 3.674460
v -4.621846 0.118659 3.672769
v -4.633049 0.128559 3.626831
v -3.816293 0.209135 2.866985
v -3.762086 0.977645 2.839036
v -3.803157 0.264633 2.947364
v -3.769598 0.187595 2.913226
v -3.798838 0.997608 2.791681
v -3.849853 0.286174 2.901124
v -3.696181 0.970717 2.830008
v -3.726627 1.026301 2.746724
v -3.679574 1.010959 2.786642
v -2.167477 0.010581 5.170980
v -2.112420 0.041782 4.790539
v -2.131831 0.032266 4.770721
v -2.130720 0.064703 4.800748
v -2.150131 0.055187 4.780931
v -1.739986 0.390207 3.703057
v -2.099725 0.176762 3.976939
v -2.025554 0.143465 3.995621
v -2.062916 0.131768 3.955269
v -2.042172 0.286714 2.884347
v -2.097438 0.231222 2.908674
v -2.088418 0.355868 2.914596
v -2.143683 0.300377 2.938923
v -2.314156 0.292642 1.980723
v -2.259143 0.223828 2.001429
v -3.050615 0.353028 2.201699
v -2.377481 0.258203 2.041571
v -2.322469 0.189389 2.062277
v -3.103228 0.311303 2.149214
v -2.990324 0.310224 2.263671
v -3.097951 0.216131 2.162595
v -3.040739 0.176044 2.221200
v -2.985724 0.228412 2.269792
v -2.109157 0.094741 1.613260
v -2.152282 0.278695 1.518140
v -2.238041 0.219010 1.459303
v -2.239426 0.103045 1.460765
v -2.086301 0.215202 1.596802
v -2.176524 0.042270 1.536060
v -0.011497 1.595465 -0.098404
v -0.340537 1.555049 -0.102068
v -0.273093 1.577619 0.023045
v -0.108427 1.598449 0.036741
v -0.105453 1.586350 -0.238103
v -0.269826 1.566764 -0.228070
v -0.216957 0.703655 -0.054937
v 0.247403 0.683438 -0.052871
v 0.104211 0.711778 0.139444
v -0.128289 0.720521 0.112364
v -0.131327 0.707586 -0.227177
v 0.136019 0.138697 -0.310579
v 0.315611 0.131796 -0.051310
v -0.147496 0.144945 -0.279992
v 0.100532 0.696112 -0.252191
v 0.140518 0.147227 0.199393
v -0.252203 0.142804 -0.053837
v -0.143781 0.151987 0.166279
vt 0.7120 0.5574
vt 0.7162 0.5559
vt 0.7203 0.5597
vt 0.7285 0.5619
vt 0.7237 0.5669
vt 0.7194 0.5644
vt 0.7068 0.5569
vt 0.7088 0.5535
vt 0.7104 0.5669
vt 0.7053 0.5668
vt 0.7112 0.5622
vt 0.7061 0.5620
vt 0.7134 0.5522
vt 0.7068 0.5746
vt 0.7129 0.5732
vt 0.7128 0.5806
vt 0.6643 0.5324
vt 0.6714 0.5353
vt 0.6640 0.5375
vt 0.6637 0.5427
vt 0.6604 0.5477
vt 0.6550 0.5423
vt 0.7035 0.5706
vt 0.7086 0.5707
vt 0.6669 0.5607
vt 0.6702 0.5561
vt 0.6711 0.5604
vt 0.6739 0.5673
vt 0.6801 0.5681
vt 0.6709 0.5701
vt 0.6590 0.5629
vt 0.6557 0.5652
vt 0.6560 0.5616
vt 0.6635 0.5669
vt 0.6629 0.5618
vt 0.6595 0.5681
vt 0.6620 0.5567
vt 0.6660 0.5572
vt 0.6652 0.5537
vt 0.6611 0.5532
vt 0.6644 0.5482
vt 0.6581 0.5579
vt 0.6710 0.5853
vt 0.6786 0.5771
vt 0.6780 0.5833
vt 0.7301 0.5446
vt 0.7293 0.5533
vt 0.7253 0.5495
vt 0.7225 0.5458
vt 0.7246 0.5385
vt 0.7191 0.5324
vt 0.7169 0.5397
vt 0.7148 0.5345
vt 0.6655 0.5792
vt 0.6695 0.5791
vt 0.6557 0.5879
vt 0.6529 0.5837
vt 0.6579 0.5805
vt 0.7010 0.5354
vt 0.7079 0.5412
vt 0.7033 0.5425
vt 0.6899 0.5536
vt 0.6951 0.5601
vt 0.6896 0.5630
vt 0.6342 0.5567
vt 0.6403 0.5493
vt 0.6436 0.5584
vt 0.6433 0.5621
vt 0.6372 0.5667
vt 0.6524 0.5675
vt 0.6562 0.5703
vt 0.6512 0.5735
vt 0.6879 0.5567
vt 0.6808 0.5540
vt 0.6831 0.5475
vt 0.7380 0.5784
vt 0.7333 0.5702
vt 0.7404 0.5735
vt 0.6710 0.5405
vt 0.6687 0.5470
vt 0.6553 0.5372
vt 0.6981 0.5735
vt 0.6694 0.5525
vt 0.6754 0.5601
vt 0.6808 0.5645
vt 0.6747 0.5637
vt 0.6674 0.5667
vt 0.7350 0.5512
vt 0.6633 0.5866
vt 0.6954 0.5445
vt 0.6977 0.5516
vt 0.7057 0.5360
vt 0.6957 0.5550
vt 0.6531 0.5602
vt 0.6497 0.5510
vt 0.6551 0.5565
vt 0.6403 0.5766
vt 0.6464 0.5720
vt 0.6451 0.5781
vt 0.6870 0.5628
vt 0.6817 0.5584
vt 0.7284 0.5825
vt 0.7285 0.5751
vt 0.7428 0.5686
vt 0.7357 0.5653
vt 0.7413 0.5632
vt 0.6704 0.5640
vt 0.5862 0.5574
vt 0.5904 0.5559
vt 0.5944 0.5597
vt 0.6027 0.5619
vt 0.5980 0.5669
vt 0.5937 0.5644
vt 0.5811 0.5569
vt 0.5830 0.5535
vt 0.5847 0.5669
vt 0.5796 0.5668
vt 0.5854 0.5622
vt 0.5804 0.5620
vt 0.5876 0.5522
vt 0.5811 0.5746
vt 0.5872 0.5732
vt 0.5870 0.5806
vt 0.5385 0.5324
vt 0.5456 0.5353
vt 0.5382 0.5375
vt 0.5380 0.5427
vt 0.5346 0.5477
vt 0.5293 0.5423
vt 0.5778 0.5706
vt 0.5829 0.5707
vt 0.5411 0.5607
vt 0.5445 0.5561
vt 0.5454 0.5604
vt 0.5482 0.5673
vt 0.5543 0.5681
vt 0.5452 0.5701
vt 0.5332 0.5629
vt 0.5300 0.5652
vt 0.5303 0.5616
vt 0.5376 0.5669
vt 0.5372 0.5618
vt 0.5337 0.5681
vt 0.5362 0.5567
vt 0.5403 0.5572
vt 0.5395 0.5537
vt 0.5354 0.5532
vt 0.5387 0.5482
vt 0.5323 0.5579
vt 0.5452 0.5853
vt 0.5528 0.5771
vt 0.5522 0.5833
vt 0.6043 0.5446
vt 0.6035 0.5533
vt 0.5995 0.5495
vt 0.5967 0.5458
vt 0.5989 0.5385
vt 0.5934 0.5324
vt 0.5912 0.5397
vt 0.5890 0.5345
vt 0.5397 0.5792
vt 0.5437 0.5791
vt 0.5299 0.5879
vt 0.5271 0.5837
vt 0.5321 0.5805
vt 0.5752 0.5354
vt 0.5821 0.5412
vt 0.5775 0.5425
vt 0.5641 0.5536
vt 0.5693 0.5601
vt 0.5639 0.5630
vt 0.5084 0.5567
vt 0.5145 0.5493
vt 0.5179 0.5584
vt 0.5175 0.5621
vt 0.5115 0.5667
vt 0.5267 0.5675
vt 0.5304 0.5703
vt 0.5254 0.5735
vt 0.5621 0.5567
vt 0.5549 0.5540
vt 0.5574 0.5475
vt 0.6123 0.5784
vt 0.6075 0.5702
vt 0.6147 0.5735
vt 0.5453 0.5405
vt 0.5429 0.5470
vt 0.5296 0.5372
vt 0.5724 0.5735
vt 0.5437 0.5525
vt 0.5496 0.5601
vt 0.5550 0.5645
vt 0.5489 0.5637
vt 0.5416 0.5667
vt 0.6092 0.5512
vt 0.5375 0.5866
vt 0.5697 0.5445
vt 0.5720 0.5516
vt 0.5799 0.5360
vt 0.5700 0.5550
vt 0.5273 0.5602
vt 0.5240 0.5510
vt 0.5293 0.5565
vt 0.5145 0.5766
vt 0.5206 0.5720
vt 0.5194 0.5781
vt 0.5612 0.5628
vt 0.5559 0.5584
vt 0.6026 0.5825
vt 0.6028 0.5751
vt 0.6170 0.5686
vt 0.6098 0.5653
vt 0.6155 0.5632
vt 0.5447 0.5640
vt 0.9013 0.6470
vt 0.8973 0.6481
vt 0.8960 0.6444
vt 0.9003 0.6431
vt 0.8949 0.6490
vt 0.8924 0.6499
vt 0.8907 0.6466
vt 0.8934 0.6455
vt 0.9105 0.6451
vt 0.9053 0.6459
vt 0.9045 0.6418
vt 0.9101 0.6411
vt 0.9265 0.6604
vt 0.9226 0.6588
vt 0.9239 0.6483
vt 0.9286 0.6500
vt 0.9386 0.6496
vt 0.9348 0.6478
vt 0.9363 0.6440
vt 0.9403 0.6461
vt 0.9201 0.6445
vt 0.9157 0.6443
vt 0.9156 0.6405
vt 0.9203 0.6409
vt 0.9296 0.6463
vt 0.9245 0.6447
vt 0.9250 0.6412
vt 0.9306 0.6426
vt 0.9333 0.6632
vt 0.9303 0.6621
vt 0.9333 0.6516
vt 0.9369 0.6531
vt 0.9048 0.6615
vt 0.9016 0.6623
vt 0.8986 0.6517
vt 0.9023 0.6509
vt 0.9118 0.6597
vt 0.9079 0.6608
vt 0.9061 0.6501
vt 0.9109 0.6490
vt 0.9192 0.6587
vt 0.9158 0.6586
vt 0.9158 0.6480
vt 0.9198 0.6481
vt 0.8996 0.6628
vt 0.8975 0.6635
vt 0.8941 0.6532
vt 0.8964 0.6524
vt 0.9273 0.6848
vt 0.9295 0.6854
vt 0.9267 0.6965
vt 0.9248 0.6963
vt 0.9228 0.6834
vt 0.9251 0.6843
vt 0.9230 0.6961
vt 0.9212 0.6959
vt 0.9132 0.6829
vt 0.9157 0.6823
vt 0.9156 0.6955
vt 0.9137 0.6955
vt 0.9086 0.6839
vt 0.9108 0.6835
vt 0.9119 0.6955
vt 0.9101 0.6956
vt 0.9046 0.6847
vt 0.9065 0.6843
vt 0.9082 0.6958
vt 0.9064 0.6962
vt 0.9180 0.6824
vt 0.9157 0.6691
vt 0.9186 0.6692
vt 0.9016 0.7028
vt 0.9020 0.7045
vt 0.8916 0.7048
vt 0.8911 0.7034
vt 0.9039 0.7095
vt 0.9047 0.7113
vt 0.8958 0.7111
vt 0.8943 0.7093
vt 0.9013 0.6994
vt 0.9013 0.7011
vt 0.8907 0.7019
vt 0.8908 0.7004
vt 0.9018 0.7160
vt 0.9012 0.7175
vt 0.8907 0.7162
vt 0.8914 0.7149
vt 0.9036 0.7128
vt 0.9025 0.7144
vt 0.8921 0.7136
vt 0.8939 0.7124
vt 0.9025 0.7060
vt 0.9030 0.7076
vt 0.8928 0.7075
vt 0.8922 0.7061
vt 0.9513 0.6596
vt 0.9525 0.6597
vt 0.9518 0.6785
vt 0.9507 0.6786
vt 0.9487 0.6592
vt 0.9500 0.6596
vt 0.9497 0.6786
vt 0.9485 0.6778
vt 0.9459 0.6595
vt 0.9473 0.6588
vt 0.9473 0.6770
vt 0.9460 0.6781
vt 0.9535 0.6607
vt 0.9547 0.6617
vt 0.9541 0.6793
vt 0.9530 0.6789
vt 0.9589 0.6612
vt 0.9600 0.6612
vt 0.9588 0.6804
vt 0.9577 0.6803
vt 0.9738 0.6501
vt 0.9755 0.6497
vt 0.9757 0.6567
vt 0.9741 0.6574
vt 0.9708 0.6496
vt 0.9721 0.6505
vt 0.9724 0.6581
vt 0.9708 0.6581
vt 0.9562 0.6614
vt 0.9577 0.6612
vt 0.9566 0.6802
vt 0.9554 0.6797
vt 0.9776 0.6496
vt 0.9797 0.6495
vt 0.9798 0.6571
vt 0.9778 0.6569
vt 0.9679 0.6489
vt 0.9695 0.6486
vt 0.9693 0.6581
vt 0.9677 0.6575
vt 0.9713 0.6752
vt 0.9726 0.6751
vt 0.9729 0.6921
vt 0.9718 0.6923
vt 0.9684 0.6749
vt 0.9699 0.6752
vt 0.9706 0.6924
vt 0.9692 0.6923
vt 0.9741 0.6745
vt 0.9756 0.6740
vt 0.9755 0.6913
vt 0.9742 0.6917
vt 0.9775 0.6743
vt 0.9794 0.6746
vt 0.9790 0.6921
vt 0.9772 0.6917
vt 0.9739 0.7021
vt 0.9749 0.7019
vt 0.9743 0.7125
vt 0.9736 0.7125
vt 0.9756 0.7030
vt 0.9763 0.7041
vt 0.9756 0.7136
vt 0.9750 0.7131
vt 0.9721 0.7025
vt 0.9729 0.7023
vt 0.9730 0.7124
vt 0.9725 0.7128
vt 0.9176 0.7357
vt 0.9181 0.7372
vt 0.9096 0.7367
vt 0.9096 0.7354
vt 0.9727 0.7221
vt 0.9730 0.7219
vt 0.9731 0.7314
vt 0.9729 0.7315
vt 0.9719 0.7226
vt 0.9724 0.7224
vt 0.9727 0.7317
vt 0.9724 0.7318
vt 0.9735 0.7219
vt 0.9741 0.7219
vt 0.9738 0.7314
vt 0.9735 0.7314
vt 0.9745 0.7224
vt 0.9750 0.7227
vt 0.9744 0.7319
vt 0.9741 0.7316
vt 0.9437 0.6984
vt 0.9437 0.6980
vt 0.9440 0.6979
vt 0.9440 0.6983
vt 0.9537 0.6933
vt 0.9546 0.6934
vt 0.9551 0.7075
vt 0.9545 0.7076
vt 0.9567 0.6940
vt 0.9556 0.6937
vt 0.9567 0.7079
vt 0.9559 0.7077
vt 0.9520 0.6932
vt 0.9528 0.6931
vt 0.9538 0.7077
vt 0.9532 0.7079
vt 0.9187 0.7065
vt 0.9175 0.7066
vt 0.9178 0.6975
vt 0.9189 0.6976
vt 0.9486 0.6949
vt 0.9496 0.6953
vt 0.9511 0.7085
vt 0.9503 0.7085
vt 0.9247 0.7059
vt 0.9235 0.7060
vt 0.9229 0.6970
vt 0.9240 0.6968
vt 0.9218 0.7062
vt 0.9200 0.7064
vt 0.9200 0.6977
vt 0.9215 0.6974
vt 0.9504 0.6943
vt 0.9511 0.6934
vt 0.9525 0.7081
vt 0.9518 0.7083
vt 0.9160 0.7062
vt 0.9145 0.7059
vt 0.9154 0.6966
vt 0.9166 0.6970
vt 0.9290 0.7242
vt 0.9295 0.7249
vt 0.9215 0.7248
vt 0.9215 0.7241
vt 0.9287 0.7223
vt 0.9287 0.7235
vt 0.9214 0.7234
vt 0.9211 0.7225
vt 0.9290 0.7203
vt 0.9288 0.7211
vt 0.9209 0.7216
vt 0.9208 0.7210
vt 0.9294 0.7260
vt 0.9293 0.7270
vt 0.9208 0.7264
vt 0.9211 0.7256
vt 0.9059 0.7232
vt 0.9060 0.7238
vt 0.8907 0.7242
vt 0.8907 0.7238
vt 0.9059 0.7220
vt 0.9058 0.7225
vt 0.8908 0.7234
vt 0.8909 0.7231
vt 0.9062 0.7243
vt 0.9063 0.7247
vt 0.8911 0.7247
vt 0.8909 0.7244
vt 0.9061 0.7253
vt 0.9060 0.7259
vt 0.8912 0.7254
vt 0.8911 0.7250
vt 0.9438 0.6991
vt 0.9441 0.6991
vt 0.9441 0.6993
vt 0.9437 0.6993
vt 0.9544 0.7197
vt 0.9548 0.7197
vt 0.9546 0.7319
vt 0.9543 0.7319
vt 0.9554 0.7198
vt 0.9559 0.7199
vt 0.9550 0.7318
vt 0.9548 0.7319
vt 0.9535 0.7199
vt 0.9540 0.7198
vt 0.9541 0.7319
vt 0.9539 0.7319
vt 0.9526 0.7201
vt 0.9531 0.7200
vt 0.9537 0.7318
vt 0.9534 0.7319
vt 0.9494 0.7084
vt 0.9513 0.7201
vt 0.9435 0.6997
vt 0.9438 0.6998
vt 0.9437 0.7000
vt 0.9435 0.6999
vt 0.9169 0.7307
vt 0.9176 0.7315
vt 0.9091 0.7311
vt 0.9085 0.7304
vt 0.9171 0.7288
vt 0.9162 0.7300
vt 0.9079 0.7297
vt 0.9084 0.7286
vt 0.9704 0.7035
vt 0.9713 0.7027
vt 0.9720 0.7131
vt 0.9714 0.7134
vt 0.9174 0.7329
vt 0.9172 0.7342
vt 0.9095 0.7341
vt 0.9093 0.7326
vt 0.8997 0.7328
vt 0.9002 0.7333
vt 0.8912 0.7355
vt 0.8909 0.7351
vt 0.9004 0.7341
vt 0.9006 0.7350
vt 0.8917 0.7359
vt 0.8915 0.7357
vt 0.8996 0.7315
vt 0.8993 0.7322
vt 0.8907 0.7347
vt 0.8908 0.7344
vt 0.9006 0.7358
vt 0.9006 0.7367
vt 0.8915 0.7367
vt 0.8916 0.7363
vt 0.9437 0.6972
vt 0.9437 0.6968
vt 0.9440 0.6966
vt 0.9440 0.6970
vt 0.8342 0.7073
vt 0.8377 0.7133
vt 0.8308 0.7173
vt 0.8239 0.7133
vt 0.8273 0.6953
vt 0.8307 0.7013
vt 0.8169 0.7093
vt 0.8169 0.7013
vt 0.8068 0.6957
vt 0.8008 0.6853
vt 0.8088 0.6853
vt 0.8127 0.6923
vt 0.7948 0.7026
vt 0.7888 0.6923
vt 0.7928 0.6853
vt 0.8008 0.6991
vt 0.8088 0.6736
vt 0.8147 0.6736
vt 0.8139 0.6780
vt 0.8075 0.6780
vt 0.8311 0.6632
vt 0.8267 0.6646
vt 0.8267 0.6582
vt 0.8311 0.6574
vt 0.8354 0.6619
vt 0.8355 0.6565
vt 0.8354 0.6674
vt 0.8310 0.6691
vt 0.8267 0.6709
vt 0.8030 0.6736
vt 0.8012 0.6779
vt 0.8047 0.6692
vt 0.8102 0.6692
vt 0.8156 0.6692
vt 0.8008 0.7130
vt 0.8088 0.7130
vt 0.7928 0.7130
vt 0.7888 0.7061
vt 0.7848 0.6992
vt 0.8127 0.7061
vt 0.8167 0.6992
vt 0.8239 0.6893
vt 0.8169 0.6933
vt 0.8308 0.6853
vt 0.8377 0.6893
vt 0.8446 0.6933
vt 0.8446 0.7013
vt 0.8446 0.7093
vt 0.9437 0.6976
vt 0.9440 0.6974
vt 0.9434 0.6979
vt 0.9434 0.6975
vt 0.9433 0.6970
vt 0.9000 0.7308
vt 0.8910 0.7340
vt 0.9089 0.7276
vt 0.9262 0.7319
vt 0.9255 0.7332
vt 0.9249 0.7344
vt 0.9694 0.7042
vt 0.9708 0.7137
vt 0.9681 0.6947
vt 0.9693 0.6935
vt 0.9180 0.7276
vt 0.9270 0.7276
vt 0.9258 0.7289
vt 0.9246 0.7302
vt 0.9254 0.7311
vt 0.9433 0.6996
vt 0.9433 0.6999
vt 0.9433 0.6994
vt 0.9435 0.6995
vt 0.9438 0.6995
vt 0.9521 0.7202
vt 0.9532 0.7319
vt 0.9434 0.6991
vt 0.9433 0.6993
vt 0.9435 0.6988
vt 0.9438 0.6988
vt 0.9442 0.6988
vt 0.9059 0.7215
vt 0.8911 0.7228
vt 0.9208 0.7203
vt 0.9374 0.7251
vt 0.9376 0.7263
vt 0.9378 0.7276
vt 0.9293 0.7196
vt 0.9378 0.7188
vt 0.9373 0.7197
vt 0.9367 0.7206
vt 0.9363 0.7221
vt 0.9359 0.7235
vt 0.9366 0.7243
vt 0.9171 0.7157
vt 0.9154 0.7154
vt 0.9136 0.7151
vt 0.9482 0.6821
vt 0.9489 0.6804
vt 0.9241 0.7150
vt 0.9220 0.7150
vt 0.9200 0.7151
vt 0.9260 0.7059
vt 0.9250 0.6966
vt 0.9270 0.7151
vt 0.9255 0.7150
vt 0.9475 0.6945
vt 0.9456 0.6805
vt 0.9469 0.6813
vt 0.9186 0.7154
vt 0.9578 0.6941
vt 0.9437 0.6987
vt 0.9440 0.6987
vt 0.9433 0.6987
vt 0.9433 0.6984
vt 0.9433 0.6981
vt 0.9714 0.7228
vt 0.9721 0.7319
vt 0.9258 0.7360
vt 0.9266 0.7376
vt 0.9762 0.6930
vt 0.9770 0.6947
vt 0.9669 0.6745
vt 0.9677 0.6921
vt 0.9662 0.6569
vt 0.9663 0.6493
vt 0.9663 0.6416
vt 0.9680 0.6403
vt 0.9697 0.6391
vt 0.9753 0.6428
vt 0.9774 0.6423
vt 0.9795 0.6419
vt 0.9552 0.6441
vt 0.9570 0.6431
vt 0.9587 0.6422
vt 0.9707 0.6410
vt 0.9717 0.6429
vt 0.9735 0.6428
vt 0.9600 0.6421
vt 0.9613 0.6420
vt 0.9531 0.6409
vt 0.9542 0.6425
vt 0.9445 0.6602
vt 0.9446 0.6792
vt 0.9444 0.6412
vt 0.9459 0.6409
vt 0.9473 0.6406
vt 0.9489 0.6406
vt 0.9504 0.6405
vt 0.9518 0.6407
vt 0.9124 0.7041
vt 0.9128 0.7059
vt 0.9132 0.7077
vt 0.9136 0.7115
vt 0.9132 0.7133
vt 0.9129 0.7152
vt 0.9123 0.7170
vt 0.9117 0.7188
vt 0.9014 0.6977
vt 0.8909 0.6988
vt 0.9119 0.6966
vt 0.9118 0.6984
vt 0.9118 0.7003
vt 0.9134 0.7096
vt 0.9121 0.7022
vt 0.9204 0.6825
vt 0.9214 0.6693
vt 0.9194 0.6957
vt 0.9175 0.6956
vt 0.9027 0.6851
vt 0.9045 0.6965
vt 0.9009 0.6737
vt 0.9028 0.6732
vt 0.9047 0.6728
vt 0.9072 0.6722
vt 0.9097 0.6715
vt 0.9127 0.6703
vt 0.9244 0.6709
vt 0.9273 0.6725
vt 0.9298 0.6733
vt 0.9323 0.6742
vt 0.9364 0.6644
vt 0.9405 0.6545
vt 0.9424 0.6514
vt 0.9443 0.6483
vt 0.5421 0.5728
vt 0.6084 0.5598
vt 0.6141 0.5578
vt 0.5933 0.5718
vt 0.5932 0.5792
vt 0.5930 0.5866
vt 0.5487 0.5558
vt 0.5478 0.5514
vt 0.5604 0.5689
vt 0.5242 0.5795
vt 0.5270 0.5638
vt 0.5260 0.5473
vt 0.5313 0.5528
vt 0.5207 0.5419
vt 0.5752 0.5615
vt 0.5745 0.5666
vt 0.5759 0.5564
vt 0.5778 0.5530
vt 0.5798 0.5496
vt 0.5868 0.5418
vt 0.5890 0.5470
vt 0.5847 0.5366
vt 0.5342 0.5732
vt 0.5918 0.5507
vt 0.5947 0.5543
vt 0.5512 0.5709
vt 0.5382 0.5730
vt 0.5691 0.5695
vt 0.5636 0.5724
vt 0.5502 0.5448
vt 0.5527 0.5383
vt 0.5890 0.5694
vt 0.5292 0.5763
vt 0.5844 0.5483
vt 0.5987 0.5581
vt 0.5597 0.5750
vt 0.5591 0.5812
vt 0.6679 0.5728
vt 0.7342 0.5598
vt 0.7399 0.5578
vt 0.7190 0.5718
vt 0.7189 0.5792
vt 0.7188 0.5866
vt 0.6745 0.5558
vt 0.6736 0.5514
vt 0.6862 0.5689
vt 0.6500 0.5795
vt 0.6528 0.5638
vt 0.6517 0.5473
vt 0.6571 0.5528
vt 0.6464 0.5419
vt 0.7010 0.5615
vt 0.7003 0.5666
vt 0.7016 0.5564
vt 0.7036 0.5530
vt 0.7056 0.5496
vt 0.7127 0.5418
vt 0.7148 0.5470
vt 0.7105 0.5366
vt 0.6600 0.5732
vt 0.7176 0.5507
vt 0.7204 0.5543
vt 0.6770 0.5709
vt 0.6640 0.5730
vt 0.6948 0.5695
vt 0.6893 0.5724
vt 0.6760 0.5448
vt 0.6784 0.5383
vt 0.7147 0.5694
vt 0.6550 0.5763
vt 0.7102 0.5483
vt 0.7244 0.5581
vt 0.6855 0.5750
vt 0.6849 0.5812
vn -0.5454 0.2327 0.8052
vn -0.1847 0.0687 0.9804
vn -0.0843 0.4232 0.9021
vn 0.3632 0.4346 0.8241
vn 0.2996 0.7812 0.5477
vn -0.0486 0.6775 0.7339
vn -0.8104 0.1435 0.5680
vn -0.6734 -0.2110 0.7085
vn -0.3912 0.7458 0.5392
vn -0.7068 0.6282 0.3251
vn -0.4767 0.5189 0.7096
vn -0.7825 0.4092 0.4694
vn -0.4071 -0.2451 0.8799
vn -0.2461 0.9408 -0.2330
vn -0.0110 0.9997 0.0203
vn 0.0408 0.9712 -0.2348
vn -0.2051 0.8568 -0.4732
vn -0.0291 0.7131 -0.7005
vn -0.1333 0.4276 -0.8941
vn -0.4172 0.5851 -0.6954
vn -0.6369 0.7564 -0.1489
vn -0.3436 0.9270 0.1501
vn 0.7156 -0.3116 -0.6251
vn 0.7202 0.1999 -0.6643
vn 0.8499 0.0034 -0.5269
vn 0.9429 -0.3331 0.0081
vn 0.9646 -0.1755 0.1970
vn 0.8724 -0.4857 0.0539
vn 0.4941 -0.5830 -0.6450
vn 0.1964 -0.8894 -0.4128
vn 0.1101 -0.5328 -0.8390
vn 0.6383 -0.6982 -0.3242
vn 0.6027 -0.4619 -0.6506
vn 0.5261 -0.7993 -0.2905
vn 0.4312 -0.1353 -0.8920
vn 0.5901 0.0234 -0.8070
vn 0.4555 0.2620 -0.8508
vn 0.2457 0.1738 -0.9536
vn 0.2481 0.4853 -0.8384
vn 0.3105 -0.2000 -0.9293
vn 0.5525 -0.5310 0.6424
vn 0.8637 -0.3559 0.3570
vn 0.6568 -0.3590 0.6632
vn 0.3794 -0.1836 0.9068
vn 0.2860 -0.3238 0.9019
vn 0.1624 -0.5085 0.8456
vn 0.4166 -0.6953 0.5856
vn 0.1147 -0.8687 0.4818
vn -0.1028 -0.7222 0.6840
vn -0.1545 -0.9345 0.3208
vn 0.5492 -0.7984 0.2468
vn 0.7204 -0.6117 0.3270
vn 0.2795 -0.9407 0.1922
vn -0.4671 -0.8523 0.2354
vn -0.3462 -0.7807 0.5203
vn -0.6265 -0.6761 0.3879
vn -0.9142 -0.3290 -0.2368
vn -0.9679 0.1303 -0.2149
vn -0.8844 0.0223 -0.4661
vn -0.7789 -0.3590 -0.5143
vn -0.6564 -0.7011 -0.2784
vn -0.7440 -0.6681 -0.0053
vn -0.1981 -0.9588 -0.2038
vn 0.2081 -0.9742 -0.0873
vn -0.0691 -0.9956 0.0636
vn 0.6712 0.7411 0.0145
vn 0.6692 0.6895 -0.2770
vn 0.5269 0.8400 -0.1296
vn 0.5940 0.7092 0.3797
vn 0.8285 0.5303 0.1799
vn 0.1640 0.8818 -0.4422
vn 0.3825 0.6796 -0.6260
vn -0.5396 0.6856 -0.4886
vn 0.5697 0.4123 -0.7110
vn 0.9171 0.2551 -0.3063
vn 0.9705 0.2376 0.0404
vn 0.9825 -0.0767 -0.1700
vn 0.7348 -0.6262 -0.2607
vn -0.8412 -0.5086 0.1836
vn -0.1698 -0.9426 0.2875
vn -0.9864 -0.1642 -0.0097
vn -0.4525 -0.3870 -0.8034
vn -0.7034 -0.0025 -0.7108
vn -0.2505 -0.0580 -0.9664
vn -0.3951 -0.9180 -0.0348
vn 0.8070 0.5696 -0.1561
vn 0.5030 0.8524 0.1425
vn 0.9533 0.0806 0.2911
vn 0.7331 0.4543 0.5061
vn 0.9086 0.0337 0.4164
vn 0.8642 -0.3792 -0.3307
vn -0.4612 -0.5169 0.7212
vn -0.1645 -0.4379 0.8839
vn -0.2087 -0.1017 0.9727
vn 0.1149 0.0901 0.9893
vn -0.0911 0.3165 0.9442
vn -0.2571 0.0218 0.9661
vn -0.6268 -0.6773 0.3852
vn -0.3512 -0.8729 0.3388
vn -0.5850 -0.0147 0.8109
vn -0.8602 -0.1346 0.4918
vn -0.5120 -0.2412 0.8244
vn -0.7714 -0.4187 0.4791
vn -0.1586 -0.8310 0.5331
vn -0.7348 0.6399 0.2249
vn -0.5409 0.6456 0.5392
vn -0.5091 0.8045 0.3058
vn -0.6919 0.7219 -0.0099
vn -0.5033 0.8258 -0.2545
vn -0.4500 0.6274 -0.6355
vn -0.7376 0.5142 -0.4378
vn -0.9565 0.2701 0.1103
vn -0.7473 0.3504 0.5645
vn 0.6348 0.5265 -0.5655
vn 0.3741 0.8888 -0.2647
vn 0.5840 0.7830 -0.2141
vn 0.9144 0.3800 0.1397
vn 0.8293 0.3730 0.4162
vn 0.9827 0.1679 0.0782
vn 0.5448 0.1517 -0.8247
vn 0.5088 -0.3129 -0.8020
vn 0.1597 0.0580 -0.9855
vn 0.8221 0.0047 -0.5693
vn 0.5976 0.3153 -0.7372
vn 0.7813 -0.1665 -0.6016
vn 0.2602 0.5457 -0.7966
vn 0.3344 0.7527 -0.5671
vn 0.0955 0.8546 -0.5104
vn -0.0497 0.6894 -0.7226
vn -0.1810 0.8820 -0.4351
vn 0.1637 0.3967 -0.9032
vn 0.7609 -0.4545 0.4631
vn 0.8745 0.0027 0.4851
vn 0.7396 -0.2122 0.6388
vn 0.4718 -0.2821 0.8354
vn 0.5008 -0.4784 0.7214
vn 0.4771 -0.7661 0.4307
vn 0.6668 -0.7186 0.1976
vn 0.4532 -0.8894 -0.0605
vn 0.3530 -0.9314 0.0894
vn 0.3254 -0.9175 -0.2289
vn 0.8040 -0.5942 -0.0223
vn 0.9109 -0.3186 0.2621
vn 0.5772 -0.7897 -0.2080
vn 0.2005 -0.9468 -0.2517
vn 0.2777 -0.9588 0.0589
vn -0.1348 -0.9903 -0.0339
vn -0.5671 -0.5800 -0.5848
vn -0.8728 -0.3404 -0.3498
vn -0.7375 -0.1722 -0.6531
vn -0.4420 -0.3024 -0.8445
vn -0.1574 -0.6094 -0.7771
vn -0.2316 -0.8459 -0.4805
vn 0.3300 -0.6575 -0.6774
vn 0.6224 -0.6172 -0.4813
vn 0.5140 -0.7959 -0.3198
vn 0.1223 0.8382 0.5315
vn 0.1189 0.9604 0.2521
vn -0.0717 0.9071 0.4149
vn 0.1177 0.5471 0.8288
vn 0.3707 0.6951 0.6159
vn -0.3898 0.9109 0.1355
vn -0.1384 0.9872 -0.0790
vn -0.8664 0.4498 -0.2168
vn 0.1314 0.9626 -0.2369
vn 0.5281 0.8421 0.1091
vn 0.5994 0.6889 0.4077
vn 0.7410 0.6636 0.1028
vn 0.8977 0.1186 -0.4244
vn -0.3836 -0.9053 -0.1822
vn 0.5778 -0.8050 -0.1343
vn -0.6809 -0.6903 -0.2446
vn -0.2597 -0.1074 -0.9597
vn -0.5728 -0.0110 -0.8196
vn -0.2897 0.1887 -0.9383
vn 0.2734 -0.8011 -0.5325
vn 0.3151 0.8912 0.3264
vn -0.0569 0.7333 0.6775
vn 0.6947 0.4153 0.5873
vn 0.3464 0.4083 0.8446
vn 0.6972 0.2733 0.6628
vn 0.8362 0.4800 -0.2654
vn -0.6814 0.1554 0.7152
vn -0.9026 0.1624 0.3986
vn -0.8957 0.1833 0.4052
vn -0.6755 0.1644 0.7188
vn -0.9868 0.1615 0.0083
vn -0.9103 0.1647 -0.3797
vn -0.9035 0.1865 -0.3858
vn -0.9829 0.1841 0.0087
vn 0.4335 0.1607 0.8867
vn -0.1499 0.1687 0.9742
vn -0.1435 0.1616 0.9764
vn 0.4326 0.1573 0.8877
vn 0.4215 0.0979 -0.9015
vn 0.8223 0.1178 -0.5567
vn 0.8277 0.1410 -0.5432
vn 0.4507 0.1319 -0.8829
vn -0.6972 0.1587 -0.6991
vn -0.1441 0.1727 -0.9744
vn -0.1383 0.1648 -0.9766
vn -0.6909 0.1683 -0.7031
vn 0.9851 0.1713 -0.0131
vn 0.8274 0.1755 0.5334
vn 0.8231 0.1724 0.5411
vn 0.9855 0.1696 -0.0106
vn 0.4592 0.1611 -0.8736
vn 0.8273 0.1743 -0.5340
vn 0.8238 0.1723 -0.5400
vn 0.4570 0.1579 -0.8754
vn -0.6686 0.0249 -0.7432
vn -0.1398 0.0772 -0.9872
vn -0.1436 0.1395 -0.9798
vn -0.6969 0.1024 -0.7098
vn -0.6487 0.0401 0.7600
vn -0.8996 0.0070 0.4367
vn -0.9079 0.0881 0.4099
vn -0.6797 0.1016 0.7264
vn 0.3935 0.1145 0.9122
vn -0.1442 0.0948 0.9850
vn -0.1495 0.1365 0.9793
vn 0.4239 0.1322 0.8960
vn 0.9919 0.1266 -0.0143
vn 0.8205 0.1301 0.5567
vn 0.8286 0.1429 0.5412
vn 0.9905 0.1368 -0.0150
vn -0.9999 -0.0090 0.0121
vn -0.9115 -0.0012 -0.4114
vn -0.9165 0.0889 -0.3901
vn -0.9966 0.0824 0.0087
vn -0.5657 -0.1830 -0.8040
vn -0.8482 -0.2371 -0.4736
vn -0.8720 0.1404 -0.4689
vn -0.5767 0.2337 -0.7828
vn 0.4084 0.1328 -0.9031
vn -0.0761 -0.0348 -0.9965
vn -0.1088 0.1606 -0.9810
vn 0.2974 0.5036 -0.8111
vn 0.3793 0.2912 0.8783
vn 0.7490 0.4001 0.5281
vn 0.5372 0.7205 0.4385
vn 0.1963 0.6420 0.7412
vn -0.5703 -0.0501 0.8199
vn -0.1067 0.1305 0.9857
vn -0.1525 0.3194 0.9353
vn -0.6154 0.3105 0.7245
vn -0.9691 -0.2446 -0.0324
vn -0.8663 -0.1737 0.4683
vn -0.9046 -0.0041 0.4262
vn -0.9887 0.1450 -0.0385
vn 0.9146 0.4041 0.0147
vn 0.7959 0.2557 0.5488
vn 0.9660 0.2582 -0.0139
vn 0.0895 -0.9905 -0.1043
vn 0.3365 -0.8871 0.3161
vn 0.2325 -0.8691 0.4366
vn -0.0467 -0.9956 0.0813
vn 0.4052 0.4666 0.7862
vn 0.1324 0.8267 0.5468
vn 0.3895 0.9002 0.1950
vn 0.8698 0.1002 0.4831
vn -0.4245 -0.4454 -0.7883
vn -0.1958 -0.8371 -0.5108
vn -0.3526 -0.8743 -0.3335
vn -0.5686 -0.5100 -0.6454
vn -0.5171 0.5073 -0.6894
vn -0.5240 -0.0119 -0.8517
vn -0.6310 -0.0858 -0.7710
vn -0.5088 0.5080 -0.6950
vn -0.1032 0.9757 0.1931
vn -0.3413 0.9010 -0.2679
vn -0.2586 0.9156 -0.3078
vn -0.0328 0.9994 0.0105
vn 0.5058 -0.5567 0.6590
vn 0.5551 -0.0555 0.8300
vn 0.4155 -0.7248 0.5496
vn 0.4377 -0.5866 0.6814
vn 0.4965 -0.3991 0.7709
vn 0.6239 -0.0045 0.7815
vn 0.7105 0.1663 0.6838
vn 0.5560 -0.1267 0.8215
vn 0.0121 -0.9367 0.3498
vn 0.3763 -0.6205 0.6881
vn 0.5841 -0.1478 0.7981
vn 0.4698 -0.7466 0.4711
vn -0.6645 -0.5013 -0.5542
vn -0.4315 -0.8848 -0.1757
vn -0.2443 -0.9315 -0.2696
vn -0.6163 -0.4197 -0.6664
vn 0.6390 0.5802 0.5051
vn 0.4910 0.8584 0.1485
vn 0.6482 0.7314 -0.2117
vn 0.7953 0.5559 0.2418
vn -0.4983 0.4319 -0.7518
vn -0.6929 -0.1067 -0.7131
vn -0.7261 -0.0822 -0.6826
vn -0.5611 0.0869 -0.8231
vn -0.2562 -0.8581 0.4451
vn 0.4058 -0.9115 0.0674
vn 0.5863 -0.8077 -0.0626
vn -0.3026 -0.9371 0.1739
vn -0.6766 0.6385 0.3669
vn -0.7112 -0.2762 0.6464
vn -0.8211 -0.5094 0.2576
vn -0.9536 0.1666 0.2506
vn 0.2750 0.9526 -0.1302
vn -0.0388 0.8933 -0.4477
vn -0.0934 0.6622 -0.7435
vn 0.2759 0.7480 -0.6036
vn 0.8826 -0.3868 -0.2674
vn 0.7103 0.5814 -0.3968
vn 0.7306 0.6276 -0.2689
vn 0.9554 -0.1557 -0.2510
vn -0.0225 0.9731 -0.2291
vn -0.3248 0.9449 -0.0409
vn -0.5907 0.8002 0.1037
vn -0.0016 0.9962 -0.0873
vn -0.9842 0.1234 0.1267
vn -0.8227 -0.5648 0.0638
vn -0.8148 -0.5786 -0.0363
vn -0.9809 0.1841 0.0622
vn -0.0411 0.9987 0.0308
vn -0.6758 0.7273 0.1202
vn -0.6814 0.7176 0.1443
vn -0.2411 0.9675 -0.0761
vn -0.2279 -0.9736 -0.0089
vn 0.5877 -0.8020 -0.1069
vn 0.5448 -0.8161 -0.1926
vn -0.1436 -0.9858 -0.0873
vn 0.9827 -0.1077 -0.1508
vn 0.7402 0.6648 -0.1011
vn 0.4721 0.7378 -0.4825
vn 0.9180 -0.1465 -0.3685
vn -0.2446 -0.9571 -0.1551
vn 0.4544 -0.8867 -0.0848
vn 0.4826 -0.8741 -0.0549
vn -0.3558 -0.9234 -0.1439
vn 0.9703 -0.2096 0.1209
vn 0.8294 0.5111 0.2255
vn 0.8184 0.5505 0.1648
vn 0.9878 -0.1240 0.0939
vn -0.9876 0.1567 -0.0122
vn -0.8166 -0.5658 -0.1143
vn -0.8230 -0.5540 -0.1256
vn -0.9952 0.0861 -0.0472
vn 0.5570 -0.7845 0.2727
vn 0.7309 -0.6094 -0.3072
vn 0.8994 -0.2956 -0.3220
vn 0.6418 -0.6592 0.3918
vn -0.9913 0.1184 -0.0574
vn -0.8336 -0.5404 -0.1148
vn -0.8455 -0.5253 -0.0960
vn -0.9885 0.1008 0.1129
vn 0.2168 0.9663 0.1391
vn -0.5662 0.8220 0.0611
vn -0.5653 0.8212 0.0772
vn 0.1492 0.9330 0.3275
vn -0.3807 -0.9174 -0.1162
vn 0.4765 -0.8789 -0.0226
vn 0.4887 -0.8724 0.0094
vn -0.2828 -0.9580 0.0466
vn 0.9879 -0.1178 0.1009
vn 0.8070 0.5695 0.1565
vn 0.7925 0.5809 0.1856
vn 0.9026 -0.3311 0.2751
vn -0.1507 -0.1978 0.9686
vn 0.9077 0.4191 -0.0187
vn 0.6770 0.4876 -0.5513
vn 0.5555 0.5819 -0.5940
vn 0.8842 0.4636 -0.0577
vn -0.2773 0.2332 -0.9321
vn 0.1585 0.3763 -0.9128
vn -0.5911 0.0979 -0.8007
vn -0.1163 0.4900 -0.8639
vn 0.5401 -0.0081 0.8416
vn 0.8236 0.2170 0.5241
vn 0.8764 0.2222 0.4272
vn 0.5976 -0.1012 0.7954
vn -0.8718 0.3843 -0.3037
vn -0.7420 -0.0247 -0.6699
vn -0.8081 -0.0752 -0.5842
vn -0.9595 0.2730 0.0688
vn -0.9664 -0.2283 -0.1182
vn -0.7845 -0.3292 0.5256
vn -0.8253 -0.4562 0.3329
vn -0.9107 -0.1557 -0.3827
vn 0.7338 -0.6116 0.2956
vn 0.6994 -0.0565 0.7125
vn 0.5983 -0.1630 0.7846
vn 0.3310 -0.8322 0.4448
vn 0.3834 0.3691 0.8466
vn -0.4405 0.6970 0.5658
vn -0.4533 0.6759 0.5811
vn -0.0038 0.2617 0.9651
vn -0.2489 -0.2401 0.9383
vn 0.3587 -0.0819 0.9299
vn 0.1432 -0.3528 0.9247
vn -0.4513 -0.5281 0.7194
vn -0.4841 -0.4246 -0.7651
vn 0.1266 -0.8828 -0.4524
vn 0.1141 -0.9264 -0.3588
vn -0.6129 -0.6123 -0.4995
vn -0.3651 0.5644 -0.7404
vn -0.5256 -0.0418 -0.8497
vn -0.5133 -0.0586 -0.8562
vn -0.4453 0.5414 -0.7132
vn 0.4722 0.6138 0.6326
vn 0.1114 0.9932 -0.0333
vn -0.0505 0.9984 0.0234
vn 0.3478 0.6356 0.6893
vn 0.2734 -0.6990 0.6608
vn 0.5133 0.0305 0.8577
vn 0.4696 0.0675 0.8803
vn 0.3758 -0.6601 0.6504
vn -0.4925 -0.5734 -0.6547
vn -0.1963 -0.9796 -0.0420
vn -0.0309 -0.9959 -0.0853
vn -0.3939 -0.5961 -0.6997
vn 0.2586 0.6280 0.7340
vn -0.1840 0.9809 0.0630
vn -0.2039 0.9749 0.0891
vn 0.1353 0.6229 0.7705
vn 0.4388 -0.6650 0.6044
vn 0.4556 0.0315 0.8896
vn 0.4485 0.0094 0.8937
vn 0.2805 -0.7733 0.5685
vn -0.4995 0.5185 -0.6941
vn -0.4804 -0.0836 -0.8731
vn -0.4827 -0.0804 -0.8721
vn -0.5892 0.6573 -0.4699
vn -0.2963 -0.6155 -0.7303
vn 0.0921 -0.9859 -0.1394
vn 0.0964 -0.9840 -0.1496
vn -0.3445 -0.6591 -0.6685
vn -0.8773 -0.2202 0.4265
vn 0.8222 0.5687 -0.0249
vn 0.4087 0.7543 -0.5139
vn 0.3247 0.7967 -0.5097
vn 0.6830 0.7285 -0.0529
vn -0.3236 0.5646 -0.7593
vn -0.7830 0.0990 -0.6141
vn -0.9238 -0.1642 -0.3460
vn -0.5716 0.5190 -0.6356
vn 0.6324 -0.2366 0.7376
vn 0.8821 0.2113 0.4210
vn 0.8808 0.2074 0.4257
vn 0.5280 -0.2400 0.8146
vn -0.5649 -0.7023 0.4331
vn 0.1194 -0.5940 0.7956
vn 0.0646 -0.6530 0.7546
vn -0.7427 -0.5801 0.3345
vn -0.4231 0.6502 0.6310
vn -0.3012 0.8558 -0.4205
vn -0.6452 0.7183 0.2603
vn -0.8407 0.5388 0.0533
vn -0.3126 0.7165 -0.6236
vn 0.5676 0.1299 -0.8130
vn 0.1739 0.5906 -0.7880
vn 0.2180 0.6041 -0.7665
vn 0.6245 0.3301 -0.7079
vn 0.2917 0.9215 0.2565
vn -0.5567 0.8155 0.1581
vn -0.5344 0.8389 0.1032
vn 0.2776 0.9455 0.1700
vn -0.5566 0.2951 0.7766
vn 0.0436 -0.4530 0.8904
vn -0.0001 -0.5968 0.8024
vn -0.7495 -0.0674 0.6585
vn -0.4819 0.6465 -0.5914
vn -0.9583 0.2645 -0.1078
vn -0.9740 0.2130 -0.0773
vn -0.6413 0.6942 -0.3269
vn -0.8613 -0.2658 0.4330
vn -0.0749 -0.6271 0.7753
vn -0.0804 -0.6225 0.7785
vn -0.6274 -0.3056 0.7162
vn 0.7627 0.4314 -0.4819
vn 0.2084 0.6896 -0.6935
vn 0.1096 0.7432 -0.6600
vn 0.7890 0.5695 -0.2306
vn 0.7258 -0.4794 0.4934
vn 0.9975 -0.0698 0.0083
vn 0.9960 -0.0067 0.0891
vn 0.6955 -0.3482 0.6285
vn 0.0844 0.6390 0.7646
vn 0.7362 0.4558 -0.5003
vn 0.2290 0.9622 -0.1476
vn 0.3818 0.8396 0.3864
vn 0.7732 0.4406 0.4561
vn 0.7651 -0.3197 -0.5589
vn 0.8142 0.0278 -0.5799
vn 0.8615 0.0075 0.5077
vn 0.8334 -0.4512 0.3191
vn -0.1000 0.9092 -0.4041
vn 0.6640 0.7475 -0.0200
vn 0.7125 0.4908 -0.5014
vn -0.5173 0.8051 0.2903
vn -0.3462 0.9370 -0.0471
vn -0.6466 -0.5029 0.5736
vn 0.8998 0.0373 -0.4346
vn 0.6864 0.5981 0.4136
vn 0.6252 -0.0120 0.7804
vn 0.7016 -0.5729 0.4237
vn -0.0181 -0.5611 -0.8276
vn 0.0045 -0.9807 -0.1957
vn -0.3241 -0.0590 -0.9442
vn 0.1925 0.7129 -0.6743
vn 0.2718 0.9577 -0.0951
vn 0.4227 -0.8287 -0.3668
vn 0.5502 -0.8168 0.1736
vn 0.0214 -0.7580 -0.6519
vn 0.0157 -0.3600 -0.9328
vn -0.1066 0.0568 -0.9927
vn -0.0830 0.4587 -0.8847
vn -0.1816 0.8763 -0.4462
vn -0.1817 0.8239 0.5369
vn 0.6933 0.1456 0.7058
vn -0.8891 -0.4577 0.0084
vn -0.7334 0.1098 0.6708
vn 0.3002 0.1543 0.9413
vn -0.7280 -0.0322 -0.6848
vn -0.9500 0.0579 -0.3068
vn 0.7276 -0.6709 0.1431
vn 0.0831 0.8036 0.5894
vn 0.0449 0.9954 0.0849
vn 0.2703 -0.1549 0.9502
vn 0.7871 0.3075 -0.5347
vn 0.8079 0.2078 -0.5515
vn -0.8857 -0.1391 -0.4429
vn -0.9899 -0.1409 0.0141
vn -0.8761 -0.0919 0.4733
vn -0.5990 -0.0136 0.8006
vn -0.1172 0.1087 0.9871
vn 0.3711 0.1929 0.9083
vn 0.4035 0.1105 -0.9083
vn -0.1051 0.0116 -0.9944
vn -0.6093 -0.0953 -0.7872
vn 0.9870 -0.1605 0.0002
vn 0.3806 -0.0069 0.9247
vn 0.7043 -0.0127 0.7098
vn -0.3001 0.5788 0.7582
vn -0.3040 0.8260 0.4747
vn -0.2703 0.9069 0.3232
vn 0.3047 0.9522 0.0211
vn 0.1298 0.9915 0.0003
vn 0.4946 -0.8520 -0.1719
vn 0.0201 -0.3989 -0.9168
vn -0.5988 0.2764 -0.7517
vn -0.2272 0.4672 -0.8545
vn -0.7961 0.1663 -0.5819
vn -0.8896 -0.4526 0.0608
vn -0.9773 -0.2078 0.0403
vn -0.6986 -0.7123 0.0672
vn -0.3954 -0.9151 0.0793
vn -0.2475 -0.9647 0.0903
vn 0.4201 -0.9067 -0.0372
vn 0.2040 -0.9416 0.2680
vn 0.7506 -0.5343 -0.3888
vn 0.1944 -0.7913 0.5797
vn 0.1943 -0.4491 0.8721
vn 0.8967 0.0700 0.4372
vn 0.8805 -0.3649 -0.3024
vn -0.9406 0.0301 -0.3381
vn -0.0797 0.9785 0.1900
vn -0.4373 0.2757 0.8560
vn 0.4982 -0.8206 -0.2800
vn -0.0663 -0.9769 0.2034
vn 0.1869 -0.1399 0.9724
vn 0.7527 -0.6500 0.1045
vn 0.5571 0.1205 0.8217
vn 0.7616 -0.1590 0.6282
vn 0.2185 0.9482 0.2308
vn 0.2830 0.9568 -0.0660
vn 0.3178 0.9156 -0.2462
vn 0.7616 0.4430 -0.4730
vn 0.6338 0.5603 -0.5333
vn -0.1061 -0.9564 0.2720
vn -0.3628 -0.7831 -0.5051
vn -0.4939 0.2569 -0.8307
vn -0.0316 0.1146 -0.9929
vn -0.7199 0.3253 -0.6131
vn -0.9483 0.2904 0.1278
vn -0.8975 0.4402 0.0267
vn -0.9606 -0.0000 0.2779
vn -0.8327 -0.3314 0.4436
vn -0.6840 -0.5184 0.5132
vn -0.2408 -0.8357 0.4936
vn -0.2345 -0.5967 0.7675
vn 0.4209 -0.9064 -0.0373
vn -0.0525 -0.3735 0.9261
vn 0.1023 -0.1590 0.9820
vn 0.8900 -0.3619 0.2772
vn 0.5823 -0.8128 -0.0160
vn -0.8470 0.3962 -0.3544
vn 0.4946 0.7810 -0.3813
vn -0.0560 0.9025 0.4271
vn 0.1039 -0.9876 0.1173
vn -0.4848 -0.5619 0.6702
vn 0.2321 0.0737 0.9699
usemtl None
s 1
f 1/1/1 206/2/2 249/3/3
f 3/4/4 468/5/5 510/6/6
f 1/1/1 376/7/7 412/8/8
f 5/9/9 467/10/10 333/11/11
f 1/1/1 462/12/12 376/7/7
f 1/1/1 505/13/13 206/2/2
f 1/1/1 412/8/8 505/13/13
f 10/14/14 451/15/15 332/16/16
f 10/17/14 332/18/16 202/19/17
f 12/20/18 417/21/19 285/22/20
f 10/14/14 449/23/21 192/24/22
f 15/25/23 291/26/24 331/27/25
f 18/28/26 328/29/27 195/30/28
f 21/31/29 371/32/30 408/33/31
f 15/25/23 259/34/32 473/35/33
f 21/31/29 457/36/34 371/32/30
f 15/25/23 416/37/35 301/38/36
f 25/39/37 476/40/38 210/41/39
f 21/31/29 408/33/31 293/42/40
f 26/43/41 358/44/42 329/45/43
f 26/46/41 340/47/44 256/48/45
f 26/46/41 187/49/46 199/50/47
f 28/51/48 271/52/49 411/53/50
f 26/43/41 439/54/51 441/55/52
f 28/56/48 411/57/50 354/58/53
f 30/59/54 351/60/55 164/61/56
f 31/62/57 296/63/58 492/64/59
f 31/65/57 492/66/59 234/67/60
f 31/65/57 495/68/61 507/69/62
f 22/70/63 369/71/64 230/72/65
f 32/73/66 186/74/67 267/75/68
f 32/76/66 252/77/69 270/78/70
f 1/1/1 249/3/3 333/11/11
f 10/14/14 192/24/22 451/15/15
f 12/20/18 466/79/71 198/80/72
f 10/17/14 202/19/17 459/81/73
f 10/14/14 459/82/73 449/23/21
f 15/25/23 301/38/36 291/26/24
f 25/39/37 210/41/39 216/83/74
f 17/84/75 242/85/76 201/86/77
f 15/25/23 424/87/78 259/34/32
f 15/25/23 473/35/33 416/37/35
f 26/43/41 441/55/52 358/44/42
f 26/46/41 329/88/43 340/47/44
f 26/46/41 256/48/45 187/49/46
f 26/43/41 199/89/47 439/54/51
f 31/62/57 507/90/62 209/91/79
f 30/59/54 374/92/80 351/60/55
f 31/62/57 209/91/79 478/93/81
f 31/62/57 478/93/81 296/63/58
f 23/94/82 479/95/83 385/96/84
f 31/65/57 234/67/60 495/68/61
f 30/97/54 448/98/85 374/99/80
f 32/73/66 270/100/70 438/101/86
f 32/73/66 438/101/86 186/74/67
f 32/76/66 267/102/68 514/103/87
f 32/76/66 514/103/87 252/77/69
f 19/104/88 391/105/89 398/106/90
f 15/25/23 337/107/91 424/87/78
f 15/25/23 331/27/25 337/107/91
f 33/108/92 452/109/93 237/110/94
f 35/111/95 365/112/96 498/113/97
f 33/108/92 275/114/98 400/115/99
f 37/116/100 361/117/101 317/118/102
f 33/108/92 357/119/103 275/114/98
f 33/108/92 489/120/104 452/109/93
f 33/108/92 400/115/99 489/120/104
f 42/121/105 175/122/106 316/123/107
f 42/124/105 316/125/107 273/126/108
f 44/127/109 402/128/110 349/129/111
f 42/121/105 163/130/112 429/131/113
f 47/132/114 191/133/115 315/134/116
f 50/135/117 323/136/118 279/137/119
f 53/138/120 282/139/121 403/140/122
f 47/132/114 506/141/123 453/142/124
f 53/138/120 364/143/125 282/139/121
f 47/132/114 401/144/126 290/145/127
f 57/146/128 458/147/129 197/148/130
f 53/138/120 403/140/122 281/149/131
f 58/150/132 269/151/133 325/152/134
f 58/153/132 241/154/135 327/155/136
f 58/153/132 425/156/137 280/157/138
f 60/158/139 160/159/140 406/160/141
f 58/150/132 168/161/142 180/162/143
f 60/163/139 406/164/141 435/165/144
f 62/166/145 248/167/146 407/168/147
f 63/169/148 288/170/149 475/171/150
f 63/172/148 475/173/150 225/174/151
f 63/172/148 490/175/152 503/176/153
f 54/177/154 450/178/155 219/179/156
f 64/180/157 254/181/158 512/182/159
f 64/183/157 502/184/160 174/185/161
f 33/108/92 237/110/94 317/118/102
f 42/121/105 429/131/113 175/122/106
f 44/127/109 360/186/162 268/187/163
f 42/124/105 273/126/108 181/188/164
f 42/121/105 181/189/164 163/130/112
f 47/132/114 290/145/127 191/133/115
f 57/146/128 197/148/130 203/190/165
f 49/191/166 240/192/167 456/193/168
f 47/132/114 324/194/169 506/141/123
f 47/132/114 453/142/124 401/144/126
f 58/150/132 180/162/143 269/151/133
f 58/153/132 325/195/134 241/154/135
f 58/153/132 327/155/136 425/156/137
f 58/150/132 280/196/138 168/161/142
f 63/169/148 503/197/153 194/198/170
f 62/166/145 287/199/171 248/167/146
f 63/169/148 194/198/170 460/200/172
f 63/169/148 460/200/172 288/170/149
f 55/201/173 463/202/174 373/203/175
f 63/172/148 225/174/151 490/175/152
f 62/204/145 184/205/176 287/206/171
f 64/180/157 174/207/161 344/208/177
f 64/180/157 344/208/177 254/181/158
f 64/183/157 512/209/159 239/210/178
f 64/183/157 239/210/178 502/184/160
f 51/211/179 378/212/180 388/213/181
f 47/132/114 238/214/182 324/194/169
f 47/132/114 315/134/116 238/214/182
f 599/215/183 305/216/184 67/217/185 432/218/186
f 598/219/187 170/220/188 70/221/189 339/222/190
f 597/223/191 257/224/192 68/225/193 338/226/194
f 596/227/195 300/228/196 75/229/197 427/230/198
f 595/231/199 213/232/200 77/233/201 372/234/202
f 594/235/203 258/236/204 72/237/205 243/238/206
f 593/239/207 335/240/208 78/241/209 167/242/210
f 592/243/211 253/244/212 76/245/213 244/246/214
f 591/247/215 200/248/216 66/249/217 347/250/218
f 590/251/219 409/252/220 65/253/221 208/254/222
f 589/255/223 496/256/224 71/257/225 196/258/226
f 588/259/227 204/260/228 69/261/229 384/262/230
f 587/263/231 169/264/232 83/265/233 421/266/234
f 586/267/235 233/268/236 84/269/237 207/270/238
f 585/271/239 415/272/240 86/273/241 472/274/242
f 584/275/243 260/276/244 87/277/245 251/278/246
f 583/279/247 413/280/248 88/281/249 245/282/250
f 582/283/251 415/272/240 82/284/252 229/285/253
f 581/286/254 295/287/255 91/288/256 423/289/257
f 580/290/258 474/291/259 95/292/260 255/293/261
f 579/294/262 250/295/263 92/296/264 346/297/265
f 578/298/266 440/299/267 98/300/268 263/301/269
f 577/302/270 182/303/271 100/304/272 173/305/273
f 576/306/274 420/307/275 96/308/276 247/309/277
f 575/310/278 494/311/279 101/312/280 266/313/281
f 574/314/282 431/315/283 102/316/284 485/317/285
f 573/318/286 215/319/287 103/320/288 350/321/289
f 572/322/290 437/323/291 106/324/292 418/325/293
f 571/326/294 426/327/295 104/328/296 464/329/297
f 570/330/298 455/331/299 108/332/300 223/333/301
f 569/334/302 299/335/303 109/336/304 262/337/305
f 568/338/306 471/339/307 107/340/308 306/341/309
f 567/342/310 320/343/311 111/344/312 294/345/313
f 566/346/314 508/347/315 110/348/316 483/349/317
f 565/350/318 172/351/319 112/352/320 399/353/321
f 564/354/322 217/355/323 113/356/324 442/357/325
f 563/358/326 444/359/327 115/360/328 447/361/329
f 562/362/330 228/363/331 114/364/332 314/365/333
f 561/366/334 185/367/335 116/368/336 231/369/337
f 560/370/338 488/371/339 119/372/340 302/373/341
f 559/374/342 190/375/343 117/376/344 179/377/345
f 558/378/346 304/379/347 121/380/348 443/381/349
f 557/382/350 379/383/351 123/384/352 188/385/353
f 556/386/354 422/387/355 124/388/356 235/389/357
f 555/390/358 511/391/359 126/392/360 434/393/361
f 554/394/362 470/395/363 125/396/364 274/397/365
f 553/398/366 434/399/361 126/400/360 274/401/365
f 552/402/367 454/403/368 127/404/369 359/405/370
f 107/340/308 464/329/297 284/406/371
f 551/407/372 284/406/371 129/408/373 313/409/374
f 550/410/375 493/411/376 128/412/377 318/413/378
f 549/414/379 477/415/380 132/416/381 362/417/382
f 548/418/383 482/419/384 134/420/385 309/421/386
f 547/422/387 370/423/388 135/424/389 232/425/390
f 546/426/391 446/427/392 133/428/393 355/429/394
f 545/430/395 212/431/396 130/432/397 390/433/398
f 544/434/399 405/435/400 136/436/401 484/437/402
f 543/438/403 272/439/404 139/440/405 395/441/406
f 542/442/407 227/443/408 140/444/409 214/445/410
f 541/446/411 311/447/412 142/448/413 307/449/414
f 540/450/415 224/451/416 144/452/417 222/453/418
f 539/454/419 176/455/420 145/456/421 486/457/422
f 538/458/423 189/459/424 146/460/425 264/461/426
f 537/462/427 366/463/428 148/464/429 221/465/430
f 536/466/431 394/467/432 147/468/433 392/469/434
f 535/470/435 264/471/426 146/472/425 486/473/422
f 534/474/436 165/475/437 149/476/438 303/477/439
f 533/478/440 326/479/441 151/480/442 345/481/443
f 532/482/444 161/483/445 150/484/446 298/485/447
f 531/486/448 286/487/449 152/488/450 226/489/451
f 129/490/373 309/421/386 326/491/441
f 530/492/452 303/493/439 149/494/438 345/495/443
f 529/496/453 178/497/454 153/498/455 487/499/456
f 528/500/457 220/501/458 154/502/459 499/503/460
f 527/504/461 171/505/462 120/506/463 353/507/464
f 526/508/465 513/509/466 122/510/467 428/511/468
f 525/512/469 177/513/470 155/514/471 389/515/472
f 524/516/473 277/517/474 157/518/475 436/519/476
f 523/520/477 481/521/478 156/522/479 211/523/480
f 522/524/481 312/525/482 158/526/483 308/527/484
f 521/528/485 436/529/476 157/530/475 308/531/484
f 520/532/486 218/533/487 94/534/488 162/535/489
f 519/536/490 469/537/491 93/538/492 380/539/493
f 518/540/494 159/541/495 85/542/496 207/543/238
f 517/544/497 472/545/242 86/546/241 330/547/498
f 516/548/499 232/549/390 135/550/389 355/551/394
f 515/552/500 265/553/501 141/554/502 352/555/503
f 433/556/504 515/552/500 352/555/503 143/557/505
f 138/558/506 491/559/507 515/552/500 433/556/504
f 491/559/507 137/560/508 265/553/501 515/552/500
f 362/561/382 516/548/499 355/551/394 133/562/393
f 132/563/381 484/564/402 516/548/499 362/561/382
f 484/564/402 136/565/401 232/549/390 516/548/499
f 245/566/250 517/544/497 330/547/498 83/567/233
f 88/568/249 251/569/246 517/544/497 245/566/250
f 251/569/246 87/570/245 472/545/242 517/544/497
f 421/571/234 518/540/494 207/543/238 84/572/237
f 83/567/233 330/547/498 518/540/494 421/571/234
f 330/547/498 86/546/241 159/541/495 518/540/494
f 341/573/509 519/536/490 380/539/493 90/574/510
f 89/575/511 465/576/512 519/536/490 341/573/509
f 465/576/512 97/577/513 469/537/491 519/536/490
f 469/537/491 520/532/486 162/535/489 93/538/492
f 97/577/513 393/578/514 520/532/486 469/537/491
f 393/578/514 99/579/515 218/533/487 520/532/486
f 211/580/480 521/528/485 308/531/484 158/581/483
f 156/582/479 389/583/472 521/528/485 211/580/480
f 389/583/472 155/584/471 436/529/476 521/528/485
f 277/517/474 522/524/481 308/527/484 157/518/475
f 122/510/467 443/381/349 522/524/481 277/517/474
f 443/381/349 121/380/348 312/525/482 522/524/481
f 312/585/482 523/520/477 211/523/480 158/586/483
f 121/587/348 499/503/460 523/520/477 312/585/482
f 499/503/460 154/502/459 481/521/478 523/520/477
f 177/513/470 524/516/473 436/519/476 155/514/471
f 153/498/455 428/511/468 524/516/473 177/513/470
f 428/511/468 122/510/467 277/517/474 524/516/473
f 481/521/478 525/512/469 389/515/472 156/522/479
f 154/502/459 487/499/456 525/512/469 481/521/478
f 487/499/456 153/498/455 177/513/470 525/512/469
f 178/497/454 526/508/465 428/511/468 153/498/455
f 113/588/324 261/589/516 526/508/465 178/497/454
f 261/589/516 118/590/517 513/509/466 526/508/465
f 488/591/339 527/504/461 353/507/464 119/592/340
f 118/593/517 261/594/516 527/504/461 488/591/339
f 261/594/516 113/356/324 171/505/462 527/504/461
f 304/595/347 528/500/457 499/503/460 121/587/348
f 115/596/328 314/597/333 528/500/457 304/595/347
f 314/597/333 114/598/332 220/501/458 528/500/457
f 220/501/458 529/496/453 487/499/456 154/502/459
f 114/598/332 442/599/325 529/496/453 220/501/458
f 442/599/325 113/588/324 178/497/454 529/496/453
f 226/600/451 530/492/452 345/495/443 151/601/442
f 152/602/450 298/603/447 530/492/452 226/600/451
f 298/603/447 150/604/446 303/493/439 530/492/452
f 326/491/441 414/605/518 151/606/442
f 326/491/441 309/421/386 414/605/518
f 309/421/386 134/420/385 414/605/518
f 414/605/518 531/486/448 226/489/451 151/606/442
f 134/420/385 390/433/398 531/486/448 414/605/518
f 390/433/398 130/432/397 286/487/449 531/486/448
f 286/487/449 532/482/444 298/485/447 152/488/450
f 130/432/397 318/413/378 532/482/444 286/487/449
f 318/413/378 128/412/377 161/483/445 532/482/444
f 165/475/437 533/478/440 345/481/443 149/476/438
f 127/404/369 313/409/374 533/478/440 165/475/437
f 313/409/374 129/408/373 326/479/441 533/478/440
f 161/483/445 534/474/436 303/477/439 150/484/446
f 128/412/377 359/405/370 534/474/436 161/483/445
f 359/405/370 127/404/369 165/475/437 534/474/436
f 221/607/430 535/470/435 486/473/422 145/608/421
f 148/609/429 392/610/434 535/470/435 221/607/430
f 392/610/434 147/611/433 264/471/426 535/470/435
f 366/463/428 536/466/431 392/469/434 148/464/429
f 139/440/405 222/453/418 536/466/431 366/463/428
f 222/453/418 144/452/417 394/467/432 536/466/431
f 176/455/420 537/462/427 221/465/430 145/456/421
f 140/444/409 395/441/406 537/462/427 176/455/420
f 395/441/406 139/440/405 366/463/428 537/462/427
f 394/612/432 538/458/423 264/461/426 147/613/433
f 144/614/417 307/449/414 538/458/423 394/612/432
f 307/449/414 142/448/413 189/459/424 538/458/423
f 189/459/424 539/454/419 486/457/422 146/460/425
f 142/448/413 214/445/410 539/454/419 189/459/424
f 214/445/410 140/444/409 176/455/420 539/454/419
f 272/439/404 540/450/415 222/453/418 139/440/405
f 138/615/506 433/616/504 540/450/415 272/439/404
f 433/616/504 143/617/505 224/451/416 540/450/415
f 224/618/416 541/446/411 307/449/414 144/614/417
f 143/619/505 352/620/503 541/446/411 224/618/416
f 352/620/503 141/621/502 311/447/412 541/446/411
f 311/447/412 542/442/407 214/445/410 142/448/413
f 141/621/502 265/622/501 542/442/407 311/447/412
f 265/622/501 137/623/508 227/443/408 542/442/407
f 227/443/408 543/438/403 395/441/406 140/444/409
f 137/623/508 491/624/507 543/438/403 227/443/408
f 491/624/507 138/615/506 272/439/404 543/438/403
f 477/415/380 544/434/399 484/437/402 132/416/381
f 104/625/296 350/626/289 544/434/399 477/415/380
f 350/626/289 103/627/288 405/435/400 544/434/399
f 482/419/384 545/430/395 390/433/398 134/420/385
f 131/628/519 166/629/520 545/430/395 482/419/384
f 166/629/520 102/316/284 212/431/396 545/430/395
f 370/423/388 546/426/391 355/429/394 135/424/389
f 102/630/284 166/631/520 546/426/391 370/423/388
f 166/631/520 131/632/519 446/427/392 546/426/391
f 405/633/400 547/422/387 232/425/390 136/634/401
f 103/635/288 485/636/285 547/422/387 405/633/400
f 485/636/285 102/630/284 370/423/388 547/422/387
f 363/637/521 548/418/383 309/421/386 129/490/373
f 104/638/296 342/639/522 548/418/383 363/637/521
f 342/639/522 131/628/519 482/419/384 548/418/383
f 446/427/392 549/414/379 362/417/382 133/428/393
f 131/632/519 342/640/522 549/414/379 446/427/392
f 342/640/522 104/625/296 477/415/380 549/414/379
f 212/431/396 550/410/375 318/413/378 130/432/397
f 102/316/284 266/313/281 550/410/375 212/431/396
f 266/313/281 101/312/280 493/411/376 550/410/375
f 454/403/368 551/407/372 313/409/374 127/404/369
f 106/324/292 306/341/309 551/407/372 454/403/368
f 306/341/309 107/340/308 284/406/371 551/407/372
f 284/406/371 363/641/521 129/408/373
f 284/406/371 464/329/297 363/641/521
f 464/329/297 104/328/296 363/641/521
f 493/411/376 552/402/367 359/405/370 128/412/377
f 101/312/280 418/325/293 552/402/367 493/411/376
f 418/325/293 106/324/292 454/403/368 552/402/367
f 235/642/357 553/398/366 274/401/365 125/643/364
f 124/644/356 188/645/353 553/398/366 235/642/357
f 188/645/353 123/646/352 434/399/361 553/398/366
f 511/391/359 554/394/362 274/397/365 126/392/360
f 116/368/336 302/373/341 554/394/362 511/391/359
f 302/373/341 119/372/340 470/395/363 554/394/362
f 379/383/351 555/390/358 434/393/361 123/384/352
f 117/376/344 231/369/337 555/390/358 379/383/351
f 231/369/337 116/368/336 511/391/359 555/390/358
f 470/647/363 556/386/354 235/389/357 125/648/364
f 119/592/340 353/507/464 556/386/354 470/647/363
f 353/507/464 120/506/463 422/387/355 556/386/354
f 422/387/355 557/382/350 188/385/353 124/388/356
f 120/506/463 179/377/345 557/382/350 422/387/355
f 179/377/345 117/376/344 379/383/351 557/382/350
f 513/509/466 558/378/346 443/381/349 122/510/467
f 118/590/517 430/649/523 558/378/346 513/509/466
f 430/649/523 115/650/328 304/379/347 558/378/346
f 171/505/462 559/374/342 179/377/345 120/506/463
f 113/356/324 399/353/321 559/374/342 171/505/462
f 399/353/321 112/352/320 190/375/343 559/374/342
f 185/367/335 560/370/338 302/373/341 116/368/336
f 115/360/328 430/651/523 560/370/338 185/367/335
f 430/651/523 118/652/517 488/371/339 560/370/338
f 190/375/343 561/366/334 231/369/337 117/376/344
f 112/352/320 447/361/329 561/366/334 190/375/343
f 447/361/329 115/360/328 185/367/335 561/366/334
f 444/359/327 562/362/330 314/365/333 115/360/328
f 108/332/300 294/345/313 562/362/330 444/359/327
f 294/345/313 111/344/312 228/363/331 562/362/330
f 172/351/319 563/358/326 447/361/329 112/352/320
f 109/336/304 223/333/301 563/358/326 172/351/319
f 223/333/301 108/332/300 444/359/327 563/358/326
f 228/653/331 564/354/322 442/357/325 114/654/332
f 111/655/312 483/349/317 564/354/322 228/653/331
f 483/349/317 110/348/316 217/355/323 564/354/322
f 217/355/323 565/350/318 399/353/321 113/356/324
f 110/348/316 262/337/305 565/350/318 217/355/323
f 262/337/305 109/336/304 172/351/319 565/350/318
f 320/656/311 566/346/314 483/349/317 111/655/312
f 95/657/260 173/658/273 566/346/314 320/656/311
f 173/658/273 100/659/272 508/347/315 566/346/314
f 455/331/299 567/342/310 294/345/313 108/332/300
f 96/660/276 255/661/261 567/342/310 455/331/299
f 255/661/261 95/662/260 320/343/311 567/342/310
f 437/323/291 568/338/306 306/341/309 106/324/292
f 105/663/524 386/664/525 568/338/306 437/323/291
f 386/664/525 100/665/272 471/339/307 568/338/306
f 508/347/315 569/334/302 262/337/305 110/348/316
f 100/659/272 386/666/525 569/334/302 508/347/315
f 386/666/525 105/667/524 299/335/303 569/334/302
f 299/335/303 570/330/298 223/333/301 109/336/304
f 105/667/524 321/668/526 570/330/298 299/335/303
f 321/668/526 96/660/276 455/331/299 570/330/298
f 471/339/307 571/326/294 464/329/297 107/340/308
f 100/665/272 263/669/269 571/326/294 471/339/307
f 263/669/269 98/670/268 426/327/295 571/326/294
f 494/311/279 572/322/290 418/325/293 101/312/280
f 96/671/276 321/672/526 572/322/290 494/311/279
f 321/672/526 105/663/524 437/323/291 572/322/290
f 426/673/295 573/318/286 350/321/289 104/674/296
f 98/675/268 346/676/265 573/318/286 426/673/295
f 346/676/265 92/677/264 215/319/287 573/318/286
f 215/319/287 574/314/282 485/317/285 103/320/288
f 92/677/264 423/678/257 574/314/282 215/319/287
f 423/678/257 91/679/256 431/315/283 574/314/282
f 431/315/283 575/310/278 266/313/281 102/316/284
f 91/679/256 247/680/277 575/310/278 431/315/283
f 247/680/277 96/671/276 494/311/279 575/310/278
f 295/287/255 576/306/274 247/309/277 91/288/256
f 90/681/510 380/682/493 576/306/274 295/287/255
f 380/682/493 93/683/492 420/307/275 576/306/274
f 474/291/259 577/302/270 173/305/273 95/292/260
f 94/684/488 218/685/487 577/302/270 474/291/259
f 218/685/487 99/686/515 182/303/271 577/302/270
f 182/303/271 578/298/266 263/301/269 100/304/272
f 99/686/515 393/687/514 578/298/266 182/303/271
f 393/687/514 97/688/513 440/299/267 578/298/266
f 440/689/267 579/294/262 346/297/265 98/690/268
f 97/691/513 465/692/512 579/294/262 440/689/267
f 465/692/512 89/693/511 250/295/263 579/294/262
f 420/307/275 580/290/258 255/293/261 96/308/276
f 93/683/492 162/694/489 580/290/258 420/307/275
f 162/694/489 94/684/488 474/291/259 580/290/258
f 250/295/263 581/286/254 423/289/257 92/296/264
f 89/693/511 341/695/509 581/286/254 250/295/263
f 341/695/509 90/681/510 295/287/255 581/286/254
f 356/696/527 582/283/251 229/285/253 74/697/528
f 85/698/496 159/699/495 582/283/251 356/696/527
f 159/699/495 86/273/241 415/272/240 582/283/251
f 169/700/232 583/279/247 245/282/250 83/701/233
f 79/702/529 297/703/530 583/279/247 169/700/232
f 297/703/530 81/704/531 413/280/248 583/279/247
f 413/280/248 584/275/243 251/278/246 88/281/249
f 81/704/531 382/705/532 584/275/243 413/280/248
f 382/705/532 80/706/533 260/276/244 584/275/243
f 260/276/244 585/271/239 472/274/242 87/277/245
f 80/706/533 383/707/534 585/271/239 260/276/244
f 383/707/534 82/284/252 415/272/240 585/271/239
f 356/696/527 586/267/235 207/270/238 85/698/496
f 74/697/528 343/708/535 586/267/235 356/696/527
f 343/708/535 73/709/536 233/268/236 586/267/235
f 233/268/236 587/263/231 421/266/234 84/269/237
f 73/709/536 205/710/537 587/263/231 233/268/236
f 205/710/537 79/711/529 169/264/232 587/263/231
f 200/248/216 588/259/227 384/262/230 66/249/217
f 81/704/531 297/703/530 588/259/227 200/248/216
f 297/703/530 79/702/529 204/260/228 588/259/227
f 300/228/196 589/255/223 196/258/226 75/229/197
f 74/697/528 229/285/253 589/255/223 300/228/196
f 229/285/253 82/284/252 496/256/224 589/255/223
f 496/256/224 590/251/219 208/254/222 71/257/225
f 82/284/252 383/707/534 590/251/219 496/256/224
f 383/707/534 80/706/533 409/252/220 590/251/219
f 409/252/220 591/247/215 347/250/218 65/253/221
f 80/706/533 382/705/532 591/247/215 409/252/220
f 382/705/532 81/704/531 200/248/216 591/247/215
f 204/712/228 592/243/211 244/246/214 69/713/229
f 79/711/529 205/710/537 592/243/211 204/712/228
f 205/710/537 73/709/536 253/244/212 592/243/211
f 213/232/200 593/239/207 167/242/210 77/233/201
f 76/245/213 427/230/198 593/239/207 213/232/200
f 427/230/198 75/229/197 335/240/208 593/239/207
f 335/240/208 594/235/203 243/238/206 78/241/209
f 75/229/197 196/258/226 594/235/203 335/240/208
f 196/258/226 71/257/225 258/236/204 594/235/203
f 170/714/188 595/231/199 372/234/202 70/715/189
f 69/713/229 244/246/214 595/231/199 170/714/188
f 244/246/214 76/245/213 213/232/200 595/231/199
f 253/244/212 596/227/195 427/230/198 76/245/213
f 73/709/536 343/708/535 596/227/195 253/244/212
f 343/708/535 74/697/528 300/228/196 596/227/195
f 258/236/204 597/223/191 338/226/194 72/237/205
f 71/257/225 208/254/222 597/223/191 258/236/204
f 208/254/222 65/253/221 257/224/192 597/223/191
f 305/216/184 598/219/187 339/222/190 67/217/185
f 66/249/217 384/262/230 598/219/187 305/216/184
f 384/262/230 69/261/229 170/220/188 598/219/187
f 257/224/192 599/215/183 432/218/186 68/225/193
f 65/253/221 347/250/218 599/215/183 257/224/192
f 347/250/218 66/249/217 305/216/184 599/215/183
f 238/214/182 456/193/168 50/135/117
f 238/214/182 315/134/116 456/193/168
f 315/134/116 49/191/166 456/193/168
f 324/194/169 279/137/119 52/716/538
f 324/194/169 238/214/182 279/137/119
f 238/214/182 50/135/117 279/137/119
f 388/213/181 367/717/539 59/718/540
f 388/213/181 378/212/180 367/717/539
f 378/212/180 35/111/95 367/717/539
f 502/184/160 365/112/96 35/111/95
f 502/184/160 239/210/178 365/112/96
f 239/210/178 36/719/541 365/112/96
f 239/210/178 480/720/542 36/719/541
f 239/210/178 512/209/159 480/720/542
f 512/209/159 43/721/543 480/720/542
f 254/181/158 236/722/544 48/723/545
f 254/181/158 344/208/177 236/722/544
f 344/208/177 49/191/166 236/722/544
f 344/208/177 240/192/167 49/191/166
f 344/208/177 174/207/161 240/192/167
f 174/207/161 51/724/179 240/192/167
f 287/206/171 219/179/156 61/725/546
f 287/206/171 184/205/176 219/179/156
f 184/205/176 54/177/154 219/179/156
f 490/175/152 500/726/547 54/177/154
f 490/175/152 225/174/151 500/726/547
f 225/174/151 55/201/173 500/726/547
f 373/203/175 278/727/548 45/728/549
f 373/203/175 463/202/174 278/727/548
f 463/202/174 46/729/550 278/727/548
f 288/170/149 445/730/551 40/731/552
f 288/170/149 460/200/172 445/730/551
f 460/200/172 38/732/553 445/730/551
f 460/200/172 497/733/554 38/732/553
f 460/200/172 194/198/170 497/733/554
f 194/198/170 39/734/555 497/733/554
f 248/167/146 292/735/556 41/736/557
f 248/167/146 287/199/171 292/735/556
f 287/199/171 61/737/546 292/735/556
f 194/198/170 407/168/147 39/734/555
f 194/198/170 503/197/153 407/168/147
f 503/197/153 62/166/145 407/168/147
f 168/161/142 435/165/144 56/738/558
f 168/161/142 280/196/138 435/165/144
f 280/196/138 60/163/139 435/165/144
f 425/156/137 396/739/559 41/736/557
f 425/156/137 327/155/136 396/739/559
f 327/155/136 34/740/560 396/739/559
f 241/154/135 367/717/539 35/111/95
f 241/154/135 325/195/134 367/717/539
f 325/195/134 59/718/540 367/717/539
f 269/151/133 368/741/561 51/724/179
f 269/151/133 180/162/143 368/741/561
f 180/162/143 52/716/538 368/741/561
f 401/144/126 281/149/131 45/728/549
f 401/144/126 453/142/124 281/149/131
f 453/142/124 53/138/120 281/149/131
f 506/141/123 276/742/562 56/738/558
f 506/141/123 324/194/169 276/742/562
f 324/194/169 52/716/538 276/742/562
f 456/193/168 323/136/118 50/135/117
f 456/193/168 240/192/167 323/136/118
f 240/192/167 51/724/179 323/136/118
f 203/190/165 268/187/163 48/723/545
f 203/190/165 197/148/130 268/187/163
f 197/148/130 44/127/109 268/187/163
f 191/133/115 203/190/165 48/723/545
f 191/133/115 290/145/127 203/190/165
f 290/145/127 57/146/128 203/190/165
f 163/130/112 348/743/563 40/731/552
f 163/130/112 181/189/164 348/743/563
f 181/189/164 46/744/550 348/743/563
f 181/188/164 349/129/111 46/729/550
f 181/188/164 273/126/108 349/129/111
f 273/126/108 44/127/109 349/129/111
f 268/187/163 183/745/564 48/723/545
f 268/187/163 360/186/162 183/745/564
f 360/186/162 43/746/543 183/745/564
f 175/122/106 404/747/565 36/719/541
f 175/122/106 429/131/113 404/747/565
f 429/131/113 37/116/100 404/747/565
f 317/118/102 498/113/97 37/116/100
f 317/118/102 237/110/94 498/113/97
f 237/110/94 35/111/95 498/113/97
f 174/185/161 378/212/180 51/211/179
f 174/185/161 502/184/160 378/212/180
f 502/184/160 35/111/95 378/212/180
f 512/182/159 183/745/564 43/746/543
f 512/182/159 254/181/158 183/745/564
f 254/181/158 48/723/545 183/745/564
f 219/179/156 387/748/566 61/725/546
f 219/179/156 450/178/155 387/748/566
f 450/178/155 56/738/558 387/748/566
f 503/176/153 184/205/176 62/204/145
f 503/176/153 490/175/152 184/205/176
f 490/175/152 54/177/154 184/205/176
f 225/174/151 463/202/174 55/201/173
f 225/174/151 475/173/150 463/202/174
f 475/173/150 46/729/550 463/202/174
f 475/171/150 348/743/563 46/744/550
f 475/171/150 288/170/149 348/743/563
f 288/170/149 40/731/552 348/743/563
f 407/168/147 319/749/567 39/734/555
f 407/168/147 248/167/146 319/749/567
f 248/167/146 41/736/557 319/749/567
f 435/165/144 387/748/566 56/738/558
f 435/165/144 406/164/141 387/748/566
f 406/164/141 61/725/546 387/748/566
f 180/162/143 276/742/562 52/716/538
f 180/162/143 168/161/142 276/742/562
f 168/161/142 56/738/558 276/742/562
f 406/160/141 292/735/556 61/737/546
f 406/160/141 160/159/140 292/735/556
f 160/159/140 41/736/557 292/735/556
f 280/157/138 160/159/140 60/158/139
f 280/157/138 425/156/137 160/159/140
f 425/156/137 41/736/557 160/159/140
f 327/155/136 322/750/568 34/740/560
f 327/155/136 241/154/135 322/750/568
f 241/154/135 35/111/95 322/750/568
f 325/152/134 388/751/181 59/752/540
f 325/152/134 269/151/133 388/751/181
f 269/151/133 51/724/179 388/751/181
f 281/149/131 373/203/175 45/728/549
f 281/149/131 403/140/122 373/203/175
f 403/140/122 55/201/173 373/203/175
f 197/148/130 402/128/110 44/127/109
f 197/148/130 458/147/129 402/128/110
f 458/147/129 45/728/549 402/128/110
f 290/145/127 458/147/129 57/146/128
f 290/145/127 401/144/126 458/147/129
f 401/144/126 45/728/549 458/147/129
f 282/139/121 450/178/155 54/177/154
f 282/139/121 364/143/125 450/178/155
f 364/143/125 56/738/558 450/178/155
f 453/142/124 364/143/125 53/138/120
f 453/142/124 506/141/123 364/143/125
f 506/141/123 56/738/558 364/143/125
f 403/140/122 500/726/547 55/201/173
f 403/140/122 282/139/121 500/726/547
f 282/139/121 54/177/154 500/726/547
f 279/137/119 368/741/561 52/716/538
f 279/137/119 323/136/118 368/741/561
f 323/136/118 51/724/179 368/741/561
f 315/134/116 236/722/544 49/191/166
f 315/134/116 191/133/115 236/722/544
f 191/133/115 48/723/545 236/722/544
f 429/131/113 361/117/101 37/116/100
f 429/131/113 163/130/112 361/117/101
f 163/130/112 40/731/552 361/117/101
f 349/129/111 278/727/548 46/729/550
f 349/129/111 402/128/110 278/727/548
f 402/128/110 45/728/549 278/727/548
f 273/126/108 360/186/162 44/127/109
f 273/126/108 316/125/107 360/186/162
f 316/125/107 43/746/543 360/186/162
f 316/123/107 480/720/542 43/721/543
f 316/123/107 175/122/106 480/720/542
f 175/122/106 36/719/541 480/720/542
f 489/120/104 319/749/567 41/736/557
f 489/120/104 400/115/99 319/749/567
f 400/115/99 39/734/555 319/749/567
f 452/109/93 396/739/559 34/740/560
f 452/109/93 489/120/104 396/739/559
f 489/120/104 41/736/557 396/739/559
f 275/114/98 445/730/551 38/732/553
f 275/114/98 357/119/103 445/730/551
f 357/119/103 40/731/552 445/730/551
f 317/118/102 357/119/103 33/108/92
f 317/118/102 361/117/101 357/119/103
f 361/117/101 40/731/552 357/119/103
f 400/115/99 497/733/554 39/734/555
f 400/115/99 275/114/98 497/733/554
f 275/114/98 38/732/553 497/733/554
f 498/113/97 404/747/565 37/116/100
f 498/113/97 365/112/96 404/747/565
f 365/112/96 36/719/541 404/747/565
f 237/110/94 322/750/568 35/111/95
f 237/110/94 452/109/93 322/750/568
f 452/109/93 34/740/560 322/750/568
f 337/107/91 201/86/77 18/28/26
f 337/107/91 331/27/25 201/86/77
f 331/27/25 17/84/75 201/86/77
f 424/87/78 195/30/28 20/753/569
f 424/87/78 337/107/91 195/30/28
f 337/107/91 18/28/26 195/30/28
f 398/106/90 381/754/570 27/755/571
f 398/106/90 391/105/89 381/754/570
f 391/105/89 3/4/4 381/754/570
f 252/77/69 468/5/5 3/4/4
f 252/77/69 514/103/87 468/5/5
f 514/103/87 4/756/572 468/5/5
f 514/103/87 501/757/573 4/756/572
f 514/103/87 267/102/68 501/757/573
f 267/102/68 11/758/574 501/757/573
f 186/74/67 246/759/575 16/760/576
f 186/74/67 438/101/86 246/759/575
f 438/101/86 17/84/75 246/759/575
f 438/101/86 242/85/76 17/84/75
f 438/101/86 270/100/70 242/85/76
f 270/100/70 19/761/88 242/85/76
f 374/99/80 230/72/65 29/762/577
f 374/99/80 448/98/85 230/72/65
f 448/98/85 22/70/63 230/72/65
f 495/68/61 504/763/578 22/70/63
f 495/68/61 234/67/60 504/763/578
f 234/67/60 23/94/82 504/763/578
f 385/96/84 377/764/579 13/765/580
f 385/96/84 479/95/83 377/764/579
f 479/95/83 14/766/581 377/764/579
f 296/63/58 375/767/582 8/768/583
f 296/63/58 478/93/81 375/767/582
f 478/93/81 6/769/584 375/767/582
f 478/93/81 509/770/585 6/769/584
f 478/93/81 209/91/79 509/770/585
f 209/91/79 7/771/586 509/770/585
f 351/60/55 310/772/587 9/773/588
f 351/60/55 374/92/80 310/772/587
f 374/92/80 29/774/577 310/772/587
f 209/91/79 164/61/56 7/771/586
f 209/91/79 507/90/62 164/61/56
f 507/90/62 30/59/54 164/61/56
f 439/54/51 354/58/53 24/775/589
f 439/54/51 199/89/47 354/58/53
f 199/89/47 28/56/48 354/58/53
f 187/49/46 410/776/590 9/773/588
f 187/49/46 256/48/45 410/776/590
f 256/48/45 2/777/591 410/776/590
f 340/47/44 381/754/570 3/4/4
f 340/47/44 329/88/43 381/754/570
f 329/88/43 27/755/571 381/754/570
f 358/44/42 461/778/592 19/761/88
f 358/44/42 441/55/52 461/778/592
f 441/55/52 20/753/569 461/778/592
f 416/37/35 293/42/40 13/765/580
f 416/37/35 473/35/33 293/42/40
f 473/35/33 21/31/29 293/42/40
f 259/34/32 193/779/593 24/775/589
f 259/34/32 424/87/78 193/779/593
f 424/87/78 20/753/569 193/779/593
f 201/86/77 328/29/27 18/28/26
f 201/86/77 242/85/76 328/29/27
f 242/85/76 19/761/88 328/29/27
f 216/83/74 198/80/72 16/760/576
f 216/83/74 210/41/39 198/80/72
f 210/41/39 12/20/18 198/80/72
f 291/26/24 216/83/74 16/760/576
f 291/26/24 301/38/36 216/83/74
f 301/38/36 25/39/37 216/83/74
f 449/23/21 283/780/594 8/768/583
f 449/23/21 459/82/73 283/780/594
f 459/82/73 14/781/581 283/780/594
f 459/81/73 285/22/20 14/766/581
f 459/81/73 202/19/17 285/22/20
f 202/19/17 12/20/18 285/22/20
f 198/80/72 289/782/595 16/760/576
f 198/80/72 466/79/71 289/782/595
f 466/79/71 11/783/574 289/782/595
f 451/15/15 419/784/596 4/756/572
f 451/15/15 192/24/22 419/784/596
f 192/24/22 5/9/9 419/784/596
f 333/11/11 510/6/6 5/9/9
f 333/11/11 249/3/3 510/6/6
f 249/3/3 3/4/4 510/6/6
f 270/78/70 391/105/89 19/104/88
f 270/78/70 252/77/69 391/105/89
f 252/77/69 3/4/4 391/105/89
f 267/75/68 289/782/595 11/783/574
f 267/75/68 186/74/67 289/782/595
f 186/74/67 16/760/576 289/782/595
f 230/72/65 397/785/597 29/762/577
f 230/72/65 369/71/64 397/785/597
f 369/71/64 24/775/589 397/785/597
f 507/69/62 448/98/85 30/97/54
f 507/69/62 495/68/61 448/98/85
f 495/68/61 22/70/63 448/98/85
f 234/67/60 479/95/83 23/94/82
f 234/67/60 492/66/59 479/95/83
f 492/66/59 14/766/581 479/95/83
f 492/64/59 283/780/594 14/781/581
f 492/64/59 296/63/58 283/780/594
f 296/63/58 8/768/583 283/780/594
f 164/61/56 334/786/598 7/771/586
f 164/61/56 351/60/55 334/786/598
f 351/60/55 9/773/588 334/786/598
f 354/58/53 397/785/597 24/775/589
f 354/58/53 411/57/50 397/785/597
f 411/57/50 29/762/577 397/785/597
f 441/55/52 193/779/593 20/753/569
f 441/55/52 439/54/51 193/779/593
f 439/54/51 24/775/589 193/779/593
f 411/53/50 310/772/587 29/774/577
f 411/53/50 271/52/49 310/772/587
f 271/52/49 9/773/588 310/772/587
f 199/50/47 271/52/49 28/51/48
f 199/50/47 187/49/46 271/52/49
f 187/49/46 9/773/588 271/52/49
f 256/48/45 336/787/599 2/777/591
f 256/48/45 340/47/44 336/787/599
f 340/47/44 3/4/4 336/787/599
f 329/45/43 398/788/90 27/789/571
f 329/45/43 358/44/42 398/788/90
f 358/44/42 19/761/88 398/788/90
f 293/42/40 385/96/84 13/765/580
f 293/42/40 408/33/31 385/96/84
f 408/33/31 23/94/82 385/96/84
f 210/41/39 417/21/19 12/20/18
f 210/41/39 476/40/38 417/21/19
f 476/40/38 13/765/580 417/21/19
f 301/38/36 476/40/38 25/39/37
f 301/38/36 416/37/35 476/40/38
f 416/37/35 13/765/580 476/40/38
f 371/32/30 369/71/64 22/70/63
f 371/32/30 457/36/34 369/71/64
f 457/36/34 24/775/589 369/71/64
f 473/35/33 457/36/34 21/31/29
f 473/35/33 259/34/32 457/36/34
f 259/34/32 24/775/589 457/36/34
f 408/33/31 504/763/578 23/94/82
f 408/33/31 371/32/30 504/763/578
f 371/32/30 22/70/63 504/763/578
f 195/30/28 461/778/592 20/753/569
f 195/30/28 328/29/27 461/778/592
f 328/29/27 19/761/88 461/778/592
f 331/27/25 246/759/575 17/84/75
f 331/27/25 291/26/24 246/759/575
f 291/26/24 16/760/576 246/759/575
f 192/24/22 467/10/10 5/9/9
f 192/24/22 449/23/21 467/10/10
f 449/23/21 8/768/583 467/10/10
f 285/22/20 377/764/579 14/766/581
f 285/22/20 417/21/19 377/764/579
f 417/21/19 13/765/580 377/764/579
f 202/19/17 466/79/71 12/20/18
f 202/19/17 332/18/16 466/79/71
f 332/18/16 11/783/574 466/79/71
f 332/16/16 501/757/573 11/758/574
f 332/16/16 451/15/15 501/757/573
f 451/15/15 4/756/572 501/757/573
f 505/13/13 334/786/598 9/773/588
f 505/13/13 412/8/8 334/786/598
f 412/8/8 7/771/586 334/786/598
f 206/2/2 410/776/590 2/777/591
f 206/2/2 505/13/13 410/776/590
f 505/13/13 9/773/588 410/776/590
f 376/7/7 375/767/582 6/769/584
f 376/7/7 462/12/12 375/767/582
f 462/12/12 8/768/583 375/767/582
f 333/11/11 462/12/12 1/1/1
f 333/11/11 467/10/10 462/12/12
f 467/10/10 8/768/583 462/12/12
f 412/8/8 509/770/585 7/771/586
f 412/8/8 376/7/7 509/770/585
f 376/7/7 6/769/584 509/770/585
f 510/6/6 419/784/596 5/9/9
f 510/6/6 468/5/5 419/784/596
f 468/5/5 4/756/572 419/784/596
f 249/3/3 336/787/599 3/4/4
f 249/3/3 206/2/2 336/787/599
f 206/2/2 2/777/591 336/787/599
