# Blender v2.78 (sub 0) OBJ File: ''
# www.blender.org
mtllib Oak_Tree_NoLeaves_m_03.mtl
o Oak_Tree_NoLeaves_m_03
v 0.112115 1.190616 0.011701
v -0.089306 1.198983 0.058487
v -0.104622 0.432498 0.093600
v 0.162345 0.421678 0.068018
v -0.211269 0.440245 -0.152599
v -0.263267 0.038811 -0.185577
v -0.139261 0.037916 0.127396
v -0.060454 1.198387 -0.275035
v 0.129946 1.190249 -0.194426
v 0.220693 0.422739 -0.193991
v -0.010213 0.434215 -0.330340
v -0.003946 0.038121 -0.400256
v 0.196699 0.036673 0.106147
v 0.280328 0.036800 -0.219960
v -0.196113 1.197529 -0.118078
v -0.054324 2.096943 -0.053354
v -0.226659 2.109509 -0.066010
v -0.281357 1.962724 -0.192411
v -0.160232 2.095356 -0.278473
v -0.012569 2.089128 -0.190860
v 0.014288 3.106148 -0.002811
v -0.084336 3.244708 -0.000203
v 0.015020 3.388022 0.005259
v -0.019904 4.419574 0.037146
v -0.071739 4.411527 0.046389
v 0.035860 3.187734 -0.118663
v -0.256836 2.281580 -0.194558
v -0.621608 2.255106 -0.382775
v -0.618198 2.327182 -0.308709
v -0.148708 3.254198 -0.131472
v -0.073156 3.209632 -0.208671
v -0.099005 4.424361 -0.000545
v 0.234127 3.338654 0.514728
v 0.197260 3.384067 0.509322
v -0.061545 4.430268 -0.039796
v -0.011728 4.421139 -0.016983
v 0.075951 5.829761 0.078657
v 0.088143 5.832339 0.064874
v 0.085886 5.749668 0.089484
v 0.104685 5.828344 0.072313
v -0.679243 2.213620 -0.322073
v -0.662281 2.264850 -0.245970
v -1.211106 2.720665 -0.551804
v -1.196129 2.757861 -0.505979
v -1.245939 2.701434 -0.515888
v -1.231046 2.726968 -0.471179
v -1.474667 3.528196 -0.786581
v -1.474773 3.541842 -0.774226
v -1.482161 3.520683 -0.774170
v -1.481181 3.531070 -0.761785
v 0.277509 3.349916 0.476689
v 0.250193 3.420047 0.488569
v 0.553397 3.828672 0.929613
v 0.512583 3.851829 0.908825
v 0.548568 3.885663 0.876187
v 0.592084 3.841685 0.896121
v 0.708543 4.543446 1.091370
v 0.696934 4.540538 1.102909
v 0.693066 4.553573 1.082372
v 0.683174 4.544270 1.095107
v 0.402698 3.629116 0.693110
v 0.272680 0.036736 -0.048066
v 0.053583 1.629145 -0.193951
v -0.461208 2.099222 -0.253442
v 0.035239 3.333508 -0.046780
v 0.086197 5.868022 0.073830
v 0.015135 5.191782 0.020249
v -0.116580 3.233752 -0.176469
v 0.396229 3.560215 0.735889
v -1.229884 2.708560 -0.537581
v -0.133189 3.247813 -0.075855
v -0.034270 3.133776 0.010111
v 0.104121 5.863172 0.083496
v 0.001101 3.787636 -0.086179
v -1.367856 3.151082 -0.678170
v -0.968664 2.431386 -0.413196
v -0.015740 3.845537 0.000827
v 0.638888 4.211347 1.033302
v 0.258083 3.339733 0.495712
v 0.046367 5.186321 0.033837
v -0.244254 0.207322 -0.172642
v 0.035429 3.100112 -0.057509
v -0.034994 4.426698 -0.031845
v -0.154915 2.665999 -0.046172
v -0.156051 0.038466 -0.320151
v 0.122889 3.350583 0.231026
v -1.387968 3.138602 -0.655098
v -0.909223 2.514316 -0.400397
v -0.034664 2.628160 -0.050248
v -0.064989 2.089505 -0.240187
v 0.152009 3.250930 0.173830
v 0.703953 4.566726 1.091467
v -0.011889 4.420166 0.010496
v 0.030567 0.426704 0.100329
v -0.083186 4.428120 -0.022721
v -0.088814 4.417448 0.024801
v 0.211774 3.359556 0.514129
v 0.115323 0.428266 -0.278970
v 0.576529 3.832388 0.914791
v -1.484090 3.545968 -0.787069
v -0.071183 3.804450 -0.126004
v -0.268399 1.993656 -0.125422
v 0.142594 0.788302 0.040380
v 0.611267 4.223528 1.018405
v -0.008071 5.185624 0.045035
v -1.380205 3.155555 -0.627997
v -0.216979 2.232359 -0.245297
v 0.529803 3.838181 0.922151
v -0.438898 2.167894 -0.157468
v -0.155596 1.198779 -0.021460
v 0.054654 3.299596 0.248277
v -0.103319 2.644161 -0.247254
v -0.146206 1.636545 0.001986
v 0.015340 1.194576 0.049932
v -0.192055 2.724621 -0.164268
v 0.573513 3.865744 0.883222
v -1.484241 3.558001 -0.775225
v 0.087846 5.863928 0.087077
v -0.923478 2.460947 -0.461614
v -0.255209 2.240868 -0.130288
v -0.029495 3.366007 0.018199
v 0.184955 0.196974 0.094147
v 0.114883 3.242992 0.241663
v -0.090601 3.812430 0.009247
v 0.267770 3.386786 0.480525
v -1.212226 2.744905 -0.484844
v 0.005828 5.086885 0.070149
v -0.125661 2.101992 -0.041797
v -0.032748 0.799758 -0.299087
v 0.439471 3.573310 0.702325
v 0.030869 0.037294 0.151997
v -0.127858 3.819774 -0.067028
v 0.221462 3.406608 0.498942
v -0.234101 0.038363 -0.016161
v 0.358630 3.594611 0.721422
v -1.360539 3.175104 -0.650558
v -1.200674 2.741237 -0.531771
v -0.651492 2.229451 -0.358558
v -0.038158 4.496670 0.048664
v -0.953089 2.468951 -0.353171
v 0.136349 1.189772 -0.090528
v -1.487298 3.547426 -0.774996
v -0.198674 0.805618 -0.130991
v 0.259814 0.197589 -0.209241
v -0.223972 1.600685 -0.149120
v -0.140184 1.198505 -0.206243
v -0.123585 0.438061 -0.256250
v 0.691650 4.567011 1.093284
v 0.693632 4.560985 1.103426
v -0.023646 2.092950 -0.118696
v 0.040278 1.194133 -0.249052
v 0.157157 0.037461 -0.339870
v -0.005452 0.203985 -0.374126
v -0.175967 0.437096 -0.021830
v -0.675067 2.235111 -0.279116
v -0.230539 1.986340 -0.246220
v 0.633363 4.245121 0.995072
v 0.526787 3.871536 0.890582
v -0.126576 0.202989 0.116766
v -0.022405 3.191694 -0.187689
v 0.705935 4.560700 1.101610
v -0.419061 2.253950 -0.246664
v -0.090307 0.798538 0.078811
v -1.241436 2.712226 -0.490654
v 0.000192 2.621215 -0.175935
v 0.178167 0.789056 -0.193173
v -0.099676 1.629482 -0.273670
v 0.024827 1.633511 -0.023585
v -1.481033 3.556543 -0.787297
v 0.100436 5.867183 0.070652
v -0.615598 2.295269 -0.350647
v -0.383480 2.156118 -0.327519
v 0.663716 4.219184 1.010783
v -0.639173 2.300928 -0.271206
v 0.026931 5.087657 0.065930
v 0.210594 0.421247 -0.058592
v 0.708883 4.619051 1.110967
v 0.619956 4.235876 1.005493
v 0.623168 4.216239 1.027720
v 0.650450 4.233350 1.001061
v 0.653662 4.213714 1.023288
v 0.424638 3.603151 0.695199
v 0.420877 3.563092 0.720071
v 0.377637 3.615535 0.706303
v 0.373876 3.575476 0.731174
v 0.085135 3.331449 0.242248
v 0.141737 3.303154 0.198965
v -0.001629 3.817337 -0.041451
v 0.137083 3.240602 0.205150
v -1.502076 3.616596 -0.802015
v -1.385705 3.145774 -0.639690
v -1.369758 3.166997 -0.637051
v -1.378525 3.143174 -0.668860
v -1.362578 3.164396 -0.666221
v -0.929942 2.495334 -0.371849
v -0.964501 2.447119 -0.379291
v -0.947285 2.442466 -0.442339
v -0.912726 2.490681 -0.434898
v -0.454024 2.127740 -0.198810
v -0.429520 2.217699 -0.194870
v -0.181549 2.700051 -0.101849
v -0.421804 2.120894 -0.297677
v 0.106860 5.976326 0.084781
v 0.045058 5.181526 0.051119
v 0.031968 5.189645 0.024759
v 0.000042 5.180568 0.060286
v 0.001502 5.189289 0.031034
v 0.030849 0.199790 0.128427
v -0.032164 3.792894 -0.111768
v -0.103800 3.813433 -0.100990
v 0.080480 3.268896 0.248433
v -0.114298 3.815101 -0.026299
v -0.046799 2.629030 -0.219705
v -0.153142 2.687623 -0.213084
v -0.397300 2.210852 -0.293737
v -0.008520 2.622700 -0.110463
v -0.052391 3.831061 0.011371
v 0.051765 1.630955 -0.106645
v -0.196534 1.617542 -0.067742
v -0.094749 2.644752 -0.038777
v -0.017111 1.630456 -0.245258
v -0.170778 1.613632 -0.220331
v -0.159945 0.802702 -0.018087
v 0.177577 0.787868 -0.073782
v -0.058786 1.636783 0.001637
v -0.128083 0.803377 -0.227272
v 0.139335 0.200682 -0.311246
v 0.244734 0.196801 -0.052034
v -0.139692 0.206069 -0.290987
v 0.080517 0.794209 -0.261693
v -0.206740 0.205518 -0.019254
v 0.028964 0.793117 0.076775
vt 0.9222 0.7875
vt 0.9190 0.7880
vt 0.9176 0.7779
vt 0.9212 0.7772
vt 0.9126 0.7751
vt 0.9087 0.7764
vt 0.9066 0.7726
vt 0.9110 0.7711
vt 0.9348 0.7880
vt 0.9317 0.7873
vt 0.9322 0.7767
vt 0.9358 0.7776
vt 0.9443 0.7760
vt 0.9407 0.7743
vt 0.9421 0.7701
vt 0.9460 0.7721
vt 0.9287 0.7724
vt 0.9245 0.7723
vt 0.9242 0.7681
vt 0.9288 0.7681
vt 0.9367 0.7734
vt 0.9327 0.7724
vt 0.9333 0.7681
vt 0.9377 0.7691
vt 0.9409 0.7898
vt 0.9379 0.7888
vt 0.9393 0.7785
vt 0.9426 0.7799
vt 0.9230 0.8088
vt 0.9253 0.8086
vt 0.9249 0.8198
vt 0.9230 0.8198
vt 0.9285 0.7871
vt 0.9253 0.7869
vt 0.9249 0.7765
vt 0.9286 0.7766
vt 0.9160 0.7889
vt 0.9130 0.7897
vt 0.9109 0.7802
vt 0.9143 0.7790
vt 0.9369 0.8096
vt 0.9392 0.8096
vt 0.9367 0.8188
vt 0.9347 0.8194
vt 0.9323 0.8092
vt 0.9346 0.8095
vt 0.9326 0.8200
vt 0.9307 0.8199
vt 0.9229 0.8336
vt 0.9246 0.8333
vt 0.9243 0.8468
vt 0.9228 0.8475
vt 0.9184 0.8089
vt 0.9208 0.8090
vt 0.9211 0.8198
vt 0.9191 0.8190
vt 0.9276 0.8087
vt 0.9257 0.7974
vt 0.9284 0.7976
vt 0.9557 0.7847
vt 0.9568 0.7851
vt 0.9574 0.7980
vt 0.9567 0.7980
vt 0.9263 0.8333
vt 0.9281 0.8333
vt 0.9274 0.8468
vt 0.9259 0.8468
vt 0.9536 0.8584
vt 0.9542 0.8601
vt 0.9480 0.8596
vt 0.9481 0.8581
vt 0.9331 0.8351
vt 0.9347 0.8364
vt 0.9334 0.8489
vt 0.9319 0.8483
vt 0.9298 0.8336
vt 0.9316 0.8338
vt 0.9305 0.8476
vt 0.9289 0.8472
vt 0.9535 0.7846
vt 0.9546 0.7844
vt 0.9560 0.7981
vt 0.9553 0.7983
vt 0.9726 0.7779
vt 0.9736 0.7782
vt 0.9721 0.7851
vt 0.9714 0.7850
vt 0.9620 0.7842
vt 0.9631 0.7846
vt 0.9617 0.7983
vt 0.9610 0.7984
vt 0.9599 0.7835
vt 0.9610 0.7838
vt 0.9603 0.7985
vt 0.9596 0.7984
vt 0.9205 0.7730
vt 0.9165 0.7737
vt 0.9153 0.7696
vt 0.9197 0.7688
vt 0.9605 0.8161
vt 0.9610 0.8161
vt 0.9603 0.8338
vt 0.9600 0.8339
vt 0.9567 0.8160
vt 0.9572 0.8159
vt 0.9584 0.8337
vt 0.9581 0.8338
vt 0.9595 0.8161
vt 0.9600 0.8162
vt 0.9597 0.8339
vt 0.9594 0.8339
vt 0.9584 0.8160
vt 0.9590 0.8161
vt 0.9591 0.8338
vt 0.9588 0.8338
vt 0.9648 0.8236
vt 0.9648 0.8239
vt 0.9645 0.8239
vt 0.9645 0.8236
vt 0.9535 0.8617
vt 0.9527 0.8633
vt 0.9472 0.8621
vt 0.9476 0.8608
vt 0.9195 0.8347
vt 0.9212 0.8340
vt 0.9213 0.8481
vt 0.9197 0.8482
vt 0.9535 0.8549
vt 0.9530 0.8566
vt 0.9481 0.8566
vt 0.9480 0.8551
vt 0.9534 0.8516
vt 0.9540 0.8532
vt 0.9479 0.8536
vt 0.9476 0.8523
vt 0.9386 0.8577
vt 0.9384 0.8589
vt 0.9289 0.8582
vt 0.9291 0.8574
vt 0.9381 0.8599
vt 0.9377 0.8608
vt 0.9283 0.8596
vt 0.9286 0.8589
vt 0.9382 0.8533
vt 0.9385 0.8543
vt 0.9291 0.8550
vt 0.9287 0.8543
vt 0.9386 0.8555
vt 0.9387 0.8566
vt 0.9293 0.8566
vt 0.9292 0.8558
vt 0.9179 0.8569
vt 0.9178 0.8574
vt 0.9066 0.8566
vt 0.9066 0.8564
vt 0.9176 0.8578
vt 0.9175 0.8583
vt 0.9066 0.8570
vt 0.9066 0.8568
vt 0.9179 0.8559
vt 0.9180 0.8564
vt 0.9066 0.8562
vt 0.9067 0.8560
vt 0.9177 0.8550
vt 0.9179 0.8554
vt 0.9067 0.8558
vt 0.9067 0.8556
vt 0.9646 0.8246
vt 0.9648 0.8246
vt 0.9648 0.8248
vt 0.9646 0.8248
vt 0.9656 0.7771
vt 0.9663 0.7764
vt 0.9668 0.7847
vt 0.9660 0.7847
vt 0.9578 0.7842
vt 0.9588 0.7832
vt 0.9588 0.7983
vt 0.9581 0.7982
vt 0.9678 0.7774
vt 0.9692 0.7785
vt 0.9688 0.7856
vt 0.9678 0.7851
vt 0.9703 0.7781
vt 0.9715 0.7776
vt 0.9706 0.7849
vt 0.9697 0.7853
vt 0.9707 0.7941
vt 0.9715 0.7943
vt 0.9709 0.8035
vt 0.9701 0.8033
vt 0.9692 0.7944
vt 0.9700 0.7940
vt 0.9694 0.8031
vt 0.9686 0.8034
vt 0.9656 0.7939
vt 0.9664 0.7939
vt 0.9660 0.8032
vt 0.9652 0.8031
vt 0.9674 0.7943
vt 0.9683 0.7947
vt 0.9678 0.8038
vt 0.9669 0.8035
vt 0.9651 0.8131
vt 0.9657 0.8131
vt 0.9653 0.8230
vt 0.9651 0.8230
vt 0.9662 0.8133
vt 0.9668 0.8134
vt 0.9657 0.8231
vt 0.9655 0.8231
vt 0.9682 0.8132
vt 0.9686 0.8133
vt 0.9664 0.8232
vt 0.9663 0.8231
vt 0.9672 0.8133
vt 0.9677 0.8131
vt 0.9661 0.8230
vt 0.9659 0.8231
vt 0.9646 0.8241
vt 0.9646 0.8243
vt 0.9644 0.8243
vt 0.9645 0.8241
vt 0.9647 0.8239
vt 0.9645 0.8239
vt 0.9648 0.8240
vt 0.9648 0.8241
vt 0.9648 0.8243
vt 0.9647 0.8130
vt 0.9649 0.8230
vt 0.9644 0.8030
vt 0.9648 0.7939
vt 0.9652 0.7848
vt 0.9695 0.7714
vt 0.9710 0.7709
vt 0.9724 0.7704
vt 0.9659 0.7681
vt 0.9677 0.7697
vt 0.9561 0.7723
vt 0.9575 0.7702
vt 0.9588 0.7681
vt 0.9648 0.7778
vt 0.9644 0.7707
vt 0.9651 0.7694
vt 0.9644 0.8246
vt 0.9644 0.8247
vt 0.9644 0.8244
vt 0.9646 0.8244
vt 0.9648 0.8244
vt 0.9175 0.8546
vt 0.9066 0.8554
vt 0.9284 0.8537
vt 0.9378 0.8524
vt 0.9473 0.8511
vt 0.9528 0.8500
vt 0.9584 0.8489
vt 0.9592 0.8508
vt 0.9601 0.8527
vt 0.9589 0.8547
vt 0.9578 0.8566
vt 0.9178 0.8356
vt 0.9181 0.8482
vt 0.9174 0.8229
vt 0.9193 0.8213
vt 0.9604 0.8607
vt 0.9593 0.8626
vt 0.9583 0.8644
vt 0.9647 0.8232
vt 0.9644 0.8233
vt 0.9651 0.8232
vt 0.9651 0.8235
vt 0.9651 0.8239
vt 0.9579 0.8159
vt 0.9561 0.8162
vt 0.9577 0.8339
vt 0.9546 0.7985
vt 0.9603 0.7686
vt 0.9617 0.7691
vt 0.9631 0.7700
vt 0.9644 0.7708
vt 0.9738 0.7709
vt 0.9752 0.7713
vt 0.9524 0.7848
vt 0.9501 0.7711
vt 0.9517 0.7709
vt 0.9532 0.7706
vt 0.9288 0.8198
vt 0.9343 0.8219
vt 0.9360 0.8238
vt 0.9591 0.8586
vt 0.9268 0.8198
vt 0.9546 0.7715
vt 0.9300 0.8088
vt 0.9312 0.7978
vt 0.9161 0.8088
vt 0.9171 0.8182
vt 0.9151 0.7993
vt 0.9178 0.7988
vt 0.9204 0.7982
vt 0.9339 0.7984
vt 0.9365 0.7991
vt 0.9391 0.7998
vt 0.9418 0.8005
vt 0.9231 0.7978
vt 0.9438 0.7908
vt 0.9458 0.7812
vt 0.9479 0.7776
vt 0.9500 0.7740
vn 0.1633 0.0684 0.9842
vn -0.4445 0.0507 0.8943
vn -0.4935 0.0957 0.8645
vn 0.1077 0.0937 0.9898
vn -0.9170 0.1265 0.3783
vn -0.9594 0.1579 -0.2336
vn -0.9543 0.1597 -0.2527
vn -0.9218 0.1277 0.3660
vn 0.4536 0.0795 -0.8876
vn 0.8865 0.1043 -0.4508
vn 0.9074 0.1467 -0.3938
vn 0.5014 0.1308 -0.8552
vn -0.6374 0.1603 -0.7536
vn -0.0688 0.1863 -0.9801
vn -0.0587 0.1869 -0.9806
vn -0.6285 0.1641 -0.7603
vn 0.9607 0.1471 0.2354
vn 0.6399 0.1442 0.7548
vn 0.6374 0.1371 0.7583
vn 0.9603 0.1422 0.2400
vn 0.5212 0.1729 -0.8357
vn 0.9124 0.1784 -0.3683
vn 0.9132 0.1743 -0.3683
vn 0.5259 0.1730 -0.8328
vn -0.7093 0.0317 -0.7042
vn -0.1573 0.0617 -0.9856
vn -0.0959 0.1337 -0.9864
vn -0.6640 0.1035 -0.7405
vn 0.1265 0.1229 0.9843
vn 0.6874 0.1783 0.7040
vn 0.6214 0.0671 0.7806
vn 0.0121 0.0495 0.9987
vn 0.9830 0.1012 0.1533
vn 0.7081 0.0971 0.6994
vn 0.6637 0.1231 0.7378
vn 0.9701 0.1246 0.2082
vn -0.8883 0.0248 0.4587
vn -0.9884 0.0272 -0.1495
vn -0.9733 0.1016 -0.2060
vn -0.9097 0.0808 0.4074
vn -0.6672 -0.1097 -0.7368
vn -0.9804 -0.1212 -0.1553
vn -0.8405 -0.5099 -0.1831
vn -0.4020 -0.3349 -0.8522
vn 0.4603 0.0637 -0.8855
vn -0.1134 -0.0225 -0.9933
vn 0.1417 -0.0139 -0.9898
vn 0.5182 0.0371 -0.8545
vn -0.0221 -0.0494 0.9985
vn 0.6150 -0.0815 0.7843
vn 0.3778 -0.6068 0.6993
vn -0.3309 -0.3345 0.8824
vn -0.8741 -0.0593 0.4822
vn -0.4551 0.0435 0.8894
vn -0.4182 0.0212 0.9081
vn -0.7650 -0.2725 0.5836
vn 0.9702 0.1773 0.1650
vn 0.7322 0.1477 0.6649
vn 0.9819 0.1482 0.1182
vn 0.1122 -0.0243 0.9934
vn 0.7051 -0.0062 0.7091
vn 0.6865 -0.0602 0.7246
vn 0.1763 -0.0523 0.9829
vn 0.9684 -0.0673 0.2403
vn 0.9352 -0.0228 -0.3534
vn 0.8875 -0.0119 -0.4606
vn 0.9572 -0.2741 0.0930
vn 0.2958 0.6165 -0.7297
vn 0.1654 -0.0394 -0.9854
vn 0.1930 -0.0862 -0.9774
vn 0.4837 0.6120 -0.6257
vn -0.6148 0.1145 -0.7803
vn -0.9599 0.1195 -0.2537
vn -0.9757 0.0755 -0.2055
vn -0.6693 0.1035 -0.7357
vn 0.5678 0.0178 -0.8230
vn -0.0090 0.0700 -0.9975
vn -0.0696 0.1055 -0.9920
vn 0.5804 0.0629 -0.8119
vn -0.8967 -0.0045 0.4426
vn -0.5294 -0.0230 0.8481
vn -0.4238 -0.0212 0.9055
vn -0.8548 0.0334 0.5179
vn -0.6073 -0.5785 0.5445
vn -0.0757 -0.9000 0.4292
vn -0.0942 -0.8155 0.5710
vn -0.5966 -0.4827 0.6412
vn -0.7014 0.1099 -0.7043
vn -0.9864 0.0597 -0.1530
vn -0.9913 0.0934 -0.0927
vn -0.7254 0.1207 -0.6776
vn 0.5217 0.1106 -0.8459
vn -0.1223 0.1365 -0.9831
vn -0.1844 0.1166 -0.9759
vn 0.4410 0.0713 -0.8947
vn 0.0769 0.1175 0.9901
vn -0.5186 0.1313 0.8448
vn -0.5327 0.1280 0.8366
vn 0.0676 0.1129 0.9913
vn -0.7385 0.1312 -0.6614
vn -0.9917 0.1268 -0.0207
vn -0.9905 0.1357 0.0230
vn -0.8037 0.2340 -0.5471
vn -0.7290 0.0624 0.6817
vn -0.2905 0.0013 0.9569
vn 0.2166 -0.0395 0.9755
vn -0.5377 0.1314 0.8328
vn 0.4100 0.0255 -0.9117
vn -0.2050 0.0951 -0.9741
vn -0.2085 0.0978 -0.9731
vn 0.5112 0.1054 -0.8530
vn 0.9472 -0.0926 0.3071
vn 0.8957 -0.0454 -0.4423
vn 0.9078 -0.0496 -0.4164
vn 0.8571 -0.0029 0.5152
vn 0.1118 0.9896 0.0900
vn -0.1574 -0.6469 -0.7461
vn -0.5031 -0.8587 -0.0976
vn -0.5134 -0.8532 -0.0920
vn -0.2203 -0.6915 -0.6880
vn -0.9279 0.0930 0.3611
vn -0.5815 0.0264 0.8131
vn -0.7794 -0.0126 0.6264
vn -0.9170 0.0297 0.3977
vn -0.1523 0.6753 0.7217
vn 0.1230 0.9922 -0.0186
vn 0.4259 0.9015 0.0766
vn 0.0908 0.6710 0.7358
vn -0.5534 -0.5732 0.6043
vn -0.4117 0.0325 0.9108
vn -0.3543 0.0074 0.9351
vn -0.5663 -0.6177 0.5456
vn 0.5912 0.5347 -0.6038
vn 0.2023 -0.0946 -0.9747
vn 0.1663 -0.1679 -0.9717
vn 0.7704 0.3484 -0.5340
vn -0.3173 -0.6445 -0.6957
vn -0.6264 -0.7720 -0.1076
vn -0.8128 -0.5635 -0.1478
vn -0.4664 -0.5248 -0.7121
vn -0.6538 -0.5492 0.5205
vn -0.3446 0.0301 0.9383
vn -0.4362 0.0844 0.8959
vn -0.8175 -0.3541 0.4543
vn 0.1888 0.6148 0.7658
vn 0.5656 0.8163 0.1176
vn 0.7759 0.5980 0.2009
vn 0.3019 0.5219 0.7978
vn 0.9056 0.1873 -0.3806
vn 0.2587 -0.1779 -0.9494
vn 0.3064 -0.1693 -0.9367
vn 0.8142 0.2005 -0.5448
vn -0.5772 -0.3876 -0.7188
vn -0.9189 -0.3334 -0.2107
vn -0.9291 -0.2953 -0.2225
vn -0.5039 -0.2635 -0.8226
vn 0.4733 0.4302 0.7687
vn 0.8927 0.3850 0.2343
vn 0.8997 0.3661 0.2379
vn 0.2306 0.5035 0.8327
vn -0.9235 -0.1521 0.3521
vn -0.4092 0.2047 0.8892
vn -0.3721 0.2319 0.8988
vn -0.9457 -0.0468 0.3217
vn -0.4518 0.8226 -0.3453
vn 0.5631 -0.8183 0.1151
vn 0.9411 -0.1437 -0.3059
vn 0.8936 -0.3939 -0.2152
vn 0.4585 -0.8484 0.2646
vn 0.9885 0.0383 0.1466
vn 0.8976 0.0809 -0.4334
vn 0.8919 0.0187 -0.4518
vn 0.9805 -0.0403 0.1925
vn 0.8189 0.4117 -0.3998
vn 0.2328 0.9538 -0.1899
vn 0.0441 0.8214 -0.5686
vn 0.6942 0.3746 -0.6147
vn -0.6032 0.7644 0.2278
vn -0.8679 0.0569 0.4935
vn -0.8722 0.1595 0.4625
vn -0.6238 0.7777 -0.0779
vn -0.5530 -0.2995 0.7775
vn 0.0047 -0.6505 0.7595
vn 0.0968 -0.4615 0.8819
vn -0.5154 -0.1973 0.8339
vn -0.6954 0.6737 -0.2500
vn -0.8794 0.2624 0.3972
vn -0.8953 0.2037 0.3961
vn -0.7841 0.4972 -0.3714
vn 0.5587 -0.7172 0.4165
vn 0.9016 -0.3472 -0.2581
vn 0.9578 -0.2504 -0.1410
vn 0.6509 -0.5088 0.5634
vn 0.5876 0.2694 -0.7630
vn -0.0675 0.6571 -0.7508
vn -0.1113 0.4482 -0.8870
vn 0.5741 0.1865 -0.7973
vn 0.6973 -0.2918 0.6546
vn 0.9839 -0.1196 -0.1331
vn 0.9865 -0.0835 -0.1411
vn 0.7957 -0.0942 0.5983
vn 0.5459 0.1428 -0.8256
vn -0.1725 0.3198 -0.9316
vn -0.1795 0.3217 -0.9297
vn 0.5992 0.2784 -0.7506
vn -0.5060 -0.1008 0.8566
vn 0.1175 -0.2557 0.9596
vn 0.1241 -0.2124 0.9693
vn -0.5103 0.0551 0.8582
vn -0.8115 0.3299 -0.4824
vn -0.9425 0.1593 0.2939
vn -0.9467 0.1594 0.2801
vn -0.7862 0.4541 -0.4191
vn 0.1590 0.9436 0.2904
vn 0.7106 0.5167 0.4776
vn -0.3760 0.3543 0.8562
vn 0.9642 0.2080 -0.1647
vn -0.6905 0.3772 0.6173
vn -0.7350 0.6250 -0.2630
vn 0.6257 -0.0776 0.7762
vn 0.9254 0.0629 -0.3737
vn -0.1931 0.3557 -0.9144
vn 0.9660 0.0665 0.2498
vn 0.8857 0.1424 -0.4419
vn 0.8686 0.1268 -0.4790
vn -0.9941 -0.0324 -0.1036
vn -0.8682 -0.0078 0.4961
vn -0.3980 0.0582 0.9155
vn 0.4244 0.0686 -0.9029
vn -0.1908 0.0163 -0.9815
vn -0.7328 -0.0320 -0.6797
vn 0.1996 0.1054 0.9742
usemtl None
s 1
f 232/1/1 163/2/2 3/3/3 94/4/4
f 231/5/5 81/6/6 6/7/7 134/8/8
f 230/9/9 166/10/10 10/11/11 98/12/12
f 229/13/13 153/14/14 12/15/15 85/16/16
f 228/17/17 122/18/18 13/19/19 62/20/20
f 227/21/21 144/22/22 14/23/23 152/24/24
f 226/25/25 129/26/26 11/27/27 147/28/28
f 225/29/29 168/30/30 16/31/31 128/32/32
f 224/33/33 103/34/34 4/35/35 176/36/36
f 223/37/37 143/38/38 5/39/39 154/40/40
f 222/41/41 145/42/42 18/43/43 156/44/44
f 221/45/45 167/46/46 19/47/47 90/48/48
f 220/49/49 89/50/50 21/51/51 72/52/52
f 219/53/53 113/54/54 17/55/55 102/56/56
f 218/57/57 168/30/30 1/58/58 141/59/59
f 217/60/60 77/61/61 24/62/62 139/63/63
f 216/64/64 165/65/65 26/66/66 82/67/67
f 215/68/68 172/69/69 28/70/70 171/71/71
f 214/72/72 115/73/73 30/74/74 68/75/75
f 213/76/76 112/77/77 31/78/78 160/79/79
f 212/80/80 124/81/81 25/82/82 96/83/83
f 211/84/84 123/85/85 33/86/86 97/87/87
f 210/88/88 132/89/89 32/90/90 95/91/91
f 209/92/92 101/93/93 35/94/94 83/95/95
f 208/96/96 159/97/97 7/98/98 131/99/99
f 207/100/100 105/101/101 37/102/102 66/103/103
f 206/104/104 127/105/105 39/106/106 118/107/107
f 25/82/82 139/63/63 127/105/105
f 205/108/108 67/109/109 38/110/110 170/111/111
f 204/112/112 80/113/113 40/114/114 73/115/115
f 203/116/116 170/117/111 38/118/110 66/119/103
f 202/120/117 64/121/118 41/122/119 138/123/120
f 201/124/121 84/125/122 22/126/123 71/127/124
f 200/128/125 162/129/126 29/130/127 174/131/128
f 199/132/129 109/133/130 42/134/131 155/135/132
f 198/136/133 119/137/134 43/138/135 137/139/136
f 197/140/137 76/141/138 45/142/139 70/143/140
f 196/144/141 140/145/142 46/146/143 164/147/144
f 195/148/145 88/149/146 44/150/147 126/151/148
f 194/152/149 75/153/150 47/154/151 169/155/152
f 193/156/153 87/157/154 49/158/155 100/159/156
f 192/160/157 136/161/158 48/162/159 117/163/160
f 191/164/161 106/165/162 50/166/163 142/167/164
f 190/168/165 169/169/152 47/170/151 100/171/156
f 189/172/166 91/173/167 51/174/168 79/175/169
f 188/176/170 74/177/171 36/178/172 93/179/173
f 187/180/174 86/181/175 52/182/176 125/183/177
f 186/184/178 111/185/179 34/186/180 133/187/181
f 185/188/182 69/189/183 53/190/184 108/191/185
f 184/192/186 135/193/187 54/194/188 158/195/189
f 183/196/190 130/197/191 56/198/192 99/199/193
f 182/200/194 61/201/195 55/202/196 116/203/197
f 181/204/198 173/205/199 57/206/200 161/207/201
f 180/208/202 157/209/203 59/210/204 92/211/205
f 179/212/206 78/213/207 58/214/208 149/215/209
f 178/216/210 104/217/211 60/218/212 148/219/213
f 177/220/214 92/221/205 59/222/204 148/223/213
f 149/224/209 177/220/214 148/223/213 60/225/212
f 58/226/208 161/227/201 177/220/214 149/224/209
f 161/227/201 57/228/200 92/221/205 177/220/214
f 157/209/203 178/216/210 148/219/213 59/210/204
f 55/202/196 158/195/189 178/216/210 157/209/203
f 158/195/189 54/194/188 104/217/211 178/216/210
f 104/217/211 179/212/206 149/215/209 60/218/212
f 54/194/188 108/191/185 179/212/206 104/217/211
f 108/191/185 53/190/184 78/213/207 179/212/206
f 173/205/199 180/208/202 92/211/205 57/206/200
f 56/198/192 116/203/197 180/208/202 173/205/199
f 116/203/197 55/202/196 157/209/203 180/208/202
f 78/229/207 181/204/198 161/207/201 58/230/208
f 53/231/184 99/199/193 181/204/198 78/229/207
f 99/199/193 56/198/192 173/205/199 181/204/198
f 130/197/191 182/200/194 116/203/197 56/198/192
f 51/174/168 125/183/177 182/200/194 130/197/191
f 125/183/177 52/182/176 61/201/195 182/200/194
f 69/232/183 183/196/190 99/199/193 53/231/184
f 33/233/86 79/175/169 183/196/190 69/232/183
f 79/175/169 51/174/168 130/197/191 183/196/190
f 61/201/195 184/192/186 158/195/189 55/202/196
f 52/182/176 133/187/181 184/192/186 61/201/195
f 133/187/181 34/186/180 135/193/187 184/192/186
f 135/193/187 185/188/182 108/191/185 54/194/188
f 34/186/180 97/87/87 185/188/182 135/193/187
f 97/87/87 33/86/86 69/189/183 185/188/182
f 86/181/175 186/184/178 133/187/181 52/182/176
f 23/234/215 121/235/216 186/184/178 86/181/175
f 121/235/216 22/236/123 111/185/179 186/184/178
f 91/173/167 187/180/174 125/183/177 51/174/168
f 26/237/66 65/238/217 187/180/174 91/173/167
f 65/238/217 23/234/215 86/181/175 187/180/174
f 77/61/61 188/176/170 93/179/173 24/62/62
f 23/239/215 65/240/217 188/176/170 77/61/61
f 65/240/217 26/241/66 74/177/171 188/176/170
f 123/242/85 189/172/166 79/175/169 33/233/86
f 21/243/51 82/244/67 189/172/166 123/242/85
f 82/244/67 26/237/66 91/173/167 189/172/166
f 142/245/164 190/168/165 100/171/156 49/246/155
f 50/247/163 117/248/160 190/168/165 142/245/164
f 117/248/160 48/249/159 169/169/152 190/168/165
f 87/250/154 191/164/161 142/167/164 49/251/155
f 45/252/139 164/147/144 191/164/161 87/250/154
f 164/147/144 46/146/143 106/165/162 191/164/161
f 106/165/162 192/160/157 117/163/160 50/166/163
f 46/146/143 126/151/148 192/160/157 106/165/162
f 126/151/148 44/150/147 136/161/158 192/160/157
f 75/153/150 193/156/153 100/159/156 47/154/151
f 43/138/135 70/143/140 193/156/153 75/153/150
f 70/143/140 45/142/139 87/157/154 193/156/153
f 136/161/158 194/152/149 169/155/152 48/162/159
f 44/150/147 137/139/136 194/152/149 136/161/158
f 137/139/136 43/138/135 75/153/150 194/152/149
f 140/145/142 195/148/145 126/151/148 46/146/143
f 42/134/131 174/131/128 195/148/145 140/145/142
f 174/131/128 29/130/127 88/149/146 195/148/145
f 76/253/138 196/144/141 164/147/144 45/252/139
f 41/254/119 155/135/132 196/144/141 76/253/138
f 155/135/132 42/134/131 140/145/142 196/144/141
f 119/137/134 197/140/137 70/143/140 43/138/135
f 28/70/70 138/123/120 197/140/137 119/137/134
f 138/123/120 41/122/119 76/141/138 197/140/137
f 88/149/146 198/136/133 137/139/136 44/150/147
f 29/130/127 171/71/71 198/136/133 88/149/146
f 171/71/71 28/70/70 119/137/134 198/136/133
f 64/255/118 199/132/129 155/135/132 41/254/119
f 18/256/43 102/257/56 199/132/129 64/255/118
f 102/257/56 17/258/55 109/133/130 199/132/129
f 109/133/130 200/128/125 174/131/128 42/134/131
f 17/258/55 120/259/218 200/128/125 109/133/130
f 120/259/218 27/260/219 162/129/126 200/128/125
f 115/261/73 201/124/121 71/127/124 30/262/74
f 27/263/219 120/264/218 201/124/121 115/261/73
f 120/264/218 17/55/55 84/125/122 201/124/121
f 172/69/69 202/120/117 138/123/120 28/70/70
f 19/265/47 156/266/44 202/120/117 172/69/69
f 156/266/44 18/267/43 64/121/118 202/120/117
f 118/268/107 203/116/116 66/119/103 37/269/102
f 39/270/106 73/271/115 203/116/116 118/268/107
f 73/271/115 40/272/114 170/117/111 203/116/116
f 175/273/220 204/112/112 73/115/115 39/106/106
f 24/62/62 93/179/173 204/112/112 175/273/220
f 93/179/173 36/178/172 80/113/113 204/112/112
f 80/113/113 205/108/108 170/111/111 40/114/114
f 36/178/172 83/95/95 205/108/108 80/113/113
f 83/95/95 35/94/94 67/109/109 205/108/108
f 127/105/105 175/273/220 39/106/106
f 127/105/105 139/63/63 175/273/220
f 139/63/63 24/62/62 175/273/220
f 105/274/101 206/104/104 118/107/107 37/275/102
f 32/276/90 96/83/83 206/104/104 105/274/101
f 96/83/83 25/82/82 127/105/105 206/104/104
f 67/109/109 207/100/100 66/103/103 38/110/110
f 35/94/94 95/91/91 207/100/100 67/109/109
f 95/91/91 32/90/90 105/101/101 207/100/100
f 122/18/18 208/96/96 131/99/99 13/19/19
f 4/35/35 94/4/4 208/96/96 122/18/18
f 94/4/4 3/3/3 159/97/97 208/96/96
f 74/177/171 209/92/92 83/95/95 36/178/172
f 26/241/66 160/277/79 209/92/92 74/177/171
f 160/277/79 31/278/78 101/93/93 209/92/92
f 101/93/93 210/88/88 95/91/91 35/94/94
f 31/278/78 68/279/75 210/88/88 101/93/93
f 68/279/75 30/280/74 132/89/89 210/88/88
f 111/185/179 211/84/84 97/87/87 34/186/180
f 22/236/123 72/281/52 211/84/84 111/185/179
f 72/281/52 21/282/51 123/85/85 211/84/84
f 132/283/89 212/80/80 96/83/83 32/276/90
f 30/284/74 71/285/124 212/80/80 132/283/89
f 71/285/124 22/286/123 124/81/81 212/80/80
f 165/65/65 213/76/76 160/79/79 26/66/66
f 20/287/221 90/48/48 213/76/76 165/65/65
f 90/48/48 19/47/47 112/77/77 213/76/76
f 112/77/77 214/72/72 68/75/75 31/78/78
f 19/47/47 107/288/222 214/72/72 112/77/77
f 107/288/222 27/289/219 115/73/73 214/72/72
f 162/129/126 215/68/68 171/71/71 29/130/127
f 27/260/219 107/290/222 215/68/68 162/129/126
f 107/290/222 19/265/47 172/69/69 215/68/68
f 89/50/50 216/64/64 82/67/67 21/51/51
f 16/31/31 150/291/223 216/64/64 89/50/50
f 150/291/223 20/287/221 165/65/65 216/64/64
f 124/81/81 217/60/60 139/63/63 25/82/82
f 22/286/123 121/292/216 217/60/60 124/81/81
f 121/292/216 23/239/215 77/61/61 217/60/60
f 63/293/224 218/57/57 141/59/59 9/294/225
f 20/287/221 150/291/223 218/57/57 63/293/224
f 150/291/223 16/31/31 168/30/30 218/57/57
f 145/295/42 219/53/53 102/56/56 18/296/43
f 15/297/226 110/298/227 219/53/53 145/295/42
f 110/298/227 2/299/228 113/54/54 219/53/53
f 84/125/122 220/49/49 72/52/52 22/126/123
f 17/55/55 128/32/32 220/49/49 84/125/122
f 128/32/32 16/31/31 89/50/50 220/49/49
f 63/293/224 221/45/45 90/48/48 20/287/221
f 9/294/225 151/300/229 221/45/45 63/293/224
f 151/300/229 8/301/230 167/46/46 221/45/45
f 167/46/46 222/41/41 156/44/44 19/47/47
f 8/301/230 146/302/231 222/41/41 167/46/46
f 146/302/231 15/303/226 145/42/42 222/41/41
f 163/2/2 223/37/37 154/40/40 3/3/3
f 2/299/228 110/298/227 223/37/37 163/2/2
f 110/298/227 15/297/226 143/38/38 223/37/37
f 166/10/10 224/33/33 176/36/36 10/11/11
f 9/294/225 141/59/59 224/33/33 166/10/10
f 141/59/59 1/58/58 103/34/34 224/33/33
f 113/54/54 225/29/29 128/32/32 17/55/55
f 2/299/228 114/304/232 225/29/29 113/54/54
f 114/304/232 1/58/58 168/30/30 225/29/29
f 143/305/38 226/25/25 147/28/28 5/306/39
f 15/303/226 146/302/231 226/25/25 143/305/38
f 146/302/231 8/301/230 129/26/26 226/25/25
f 153/14/14 227/21/21 152/24/24 12/15/15
f 11/27/27 98/12/12 227/21/21 153/14/14
f 98/12/12 10/11/11 144/22/22 227/21/21
f 144/22/22 228/17/17 62/20/20 14/23/23
f 10/11/11 176/36/36 228/17/17 144/22/22
f 176/36/36 4/35/35 122/18/18 228/17/17
f 81/307/6 229/13/13 85/16/16 6/308/7
f 5/306/39 147/28/28 229/13/13 81/307/6
f 147/28/28 11/27/27 153/14/14 229/13/13
f 129/26/26 230/9/9 98/12/12 11/27/27
f 8/301/230 151/300/229 230/9/9 129/26/26
f 151/300/229 9/294/225 166/10/10 230/9/9
f 159/97/97 231/5/5 134/8/8 7/98/98
f 3/3/3 154/40/40 231/5/5 159/97/97
f 154/40/40 5/39/39 81/6/6 231/5/5
f 103/34/34 232/1/1 94/4/4 4/35/35
f 1/58/58 114/304/232 232/1/1 103/34/34
f 114/304/232 2/299/228 163/2/2 232/1/1
