%YAML 1.1
%TAG !u! tag:unity3d.com,2011:
--- !u!114 &11400000
MonoBehaviour:
  m_ObjectHideFlags: 0
  m_PrefabParentObject: {fileID: 0}
  m_PrefabInternal: {fileID: 0}
  m_GameObject: {fileID: 0}
  m_Enabled: 1
  m_EditorHideFlags: 0
  m_Script: {fileID: 11500000, guid: 34a7c8ca992f915438a96c2077353778, type: 3}
  m_Name: EnemyMushroomAttackTree
  m_EditorClassIdentifier: 
  brickName: Assets/BehaviorTree/SpringQuarter/Enemy/EnemyMushroomAttackTree.asset
  xml: "\uFEFF<?xml version=\"1.0\" encoding=\"utf-8\"?>\r\n<BehaviorBricks xmlns:ref=\"urn:padaone\"
    version=\"1.0\">\r\n  <BehaviorTree id=\"0\" />\r\n  <runtimeInfo>\r\n    <BehaviorTree
    id=\"0\" guid=\"add4ef025ef4dee4dbeeb5de245798de\" nextId=\"15\">\r\n      <root>\r\n
    \       <SelectorNode id=\"1\" />\r\n      </root>\r\n      <inputParams />\r\n
    \     <outputParams />\r\n      <localParams />\r\n    </BehaviorTree>\r\n    <SelectorNode
    id=\"1\">\r\n      <children>\r\n        <elem>\r\n          <DecoratorGuard id=\"11\"
    />\r\n        </elem>\r\n        <elem>\r\n          <DecoratorGuard id=\"8\"
    />\r\n        </elem>\r\n        <elem>\r\n          <ActionNode id=\"6\" />\r\n
    \       </elem>\r\n      </children>\r\n      <inputParams />\r\n      <outputParams
    />\r\n      <localParams />\r\n    </SelectorNode>\r\n    <DecoratorGuard id=\"11\">\r\n
    \     <guard>\r\n        <ConditionEvalNode id=\"12\" />\r\n      </guard>\r\n
    \     <child>\r\n        <SequenceNode id=\"10\" />\r\n      </child>\r\n      <inputParams
    />\r\n      <outputParams />\r\n      <localParams />\r\n    </DecoratorGuard>\r\n
    \   <DecoratorGuard id=\"8\">\r\n      <guard>\r\n        <ConditionEvalNode id=\"9\"
    />\r\n      </guard>\r\n      <child>\r\n        <ActionNode id=\"7\" />\r\n      </child>\r\n
    \     <inputParams />\r\n      <outputParams />\r\n      <localParams />\r\n    </DecoratorGuard>\r\n
    \   <ActionNode id=\"6\" action=\"Custom/Other/SwitchTreeSearch\">\r\n      <inputParams
    />\r\n      <outputParams />\r\n      <localParams />\r\n    </ActionNode>\r\n
    \   <ConditionEvalNode id=\"12\" policy=\"WAIT_UNTIL_FALSE_AND_FAIL\" name=\"Custom/DistanceAndLOS/AllyInAttackRangeAndVisible\">\r\n
    \     <inputParams />\r\n      <outputParams />\r\n      <localParams />\r\n    </ConditionEvalNode>\r\n
    \   <SequenceNode id=\"10\">\r\n      <children>\r\n        <elem>\r\n          <ActionNode
    id=\"13\" />\r\n        </elem>\r\n        <elem>\r\n          <ActionNode id=\"14\"
    />\r\n        </elem>\r\n      </children>\r\n      <inputParams />\r\n      <outputParams
    />\r\n      <localParams />\r\n    </SequenceNode>\r\n    <ConditionEvalNode id=\"9\"
    policy=\"WAIT_UNTIL_FALSE_AND_FAIL\" name=\"Custom/DistanceAndLOS/AllyVisibleInThreatRange\">\r\n
    \     <inputParams />\r\n      <outputParams />\r\n      <localParams />\r\n    </ConditionEvalNode>\r\n
    \   <ActionNode id=\"7\" action=\"Custom/Movement/MoveToNearestVisibleAlly\">\r\n
    \     <inputParams />\r\n      <outputParams />\r\n      <localParams />\r\n    </ActionNode>\r\n
    \   <ActionNode id=\"13\" action=\"Custom/Movement/rotateTowardsNearestAlly\">\r\n
    \     <inputParams />\r\n      <outputParams />\r\n      <localParams />\r\n    </ActionNode>\r\n
    \   <ActionNode id=\"14\" action=\"Custom/Attack/EnemyAttack\">\r\n      <inputParams
    />\r\n      <outputParams />\r\n      <localParams />\r\n    </ActionNode>\r\n
    \ </runtimeInfo>\r\n  <editorInfo>\r\n    <BehaviorTree id=\"0\" _name=\"EnemyMushroomAttackTree\"
    _removeIfClosed=\"False\">\r\n      <_rootList>\r\n        <elem>\r\n          <SelectorNode
    id=\"1\" />\r\n        </elem>\r\n      </_rootList>\r\n      <_nodes>\r\n        <nodes>\r\n
    \         <SelectorNode id=\"1\" />\r\n          <ActionNode id=\"13\" />\r\n
    \         <SequenceNode id=\"10\" />\r\n          <ActionNode id=\"6\" />\r\n
    \         <ActionNode id=\"7\" />\r\n          <DecoratorGuard id=\"8\" />\r\n
    \         <DecoratorGuard id=\"11\" />\r\n          <ActionNode id=\"14\" />\r\n
    \       </nodes>\r\n      </_nodes>\r\n      <_selectedNode>\r\n        <SequenceNode
    id=\"10\" />\r\n      </_selectedNode>\r\n    </BehaviorTree>\r\n    <SelectorNode
    id=\"1\">\r\n      <_data>\r\n        <data selected=\"False\" position=\"430
    36\" name=\"Selector\" description=\"Executes all its children until one of them
    is successful\" cardinality=\"-1\" hasParent=\"False\">\r\n          <BehaviorTree
    id=\"0\" />\r\n          <SelectorNode id=\"1\" />\r\n        </data>\r\n      </_data>\r\n
    \   </SelectorNode>\r\n    <DecoratorGuard id=\"11\">\r\n      <_data>\r\n        <data
    selected=\"False\" position=\"310 188\" name=\"Custom/DistanceAndLOS/AllyInAttackRangeAndVisible\"
    description=\"checks if an ally is within the minions attackRange and LOS\" cardinality=\"1\"
    hasParent=\"True\">\r\n          <BehaviorTree id=\"0\" />\r\n          <DecoratorGuard
    id=\"11\" />\r\n          <SelectorNode id=\"1\" />\r\n        </data>\r\n      </_data>\r\n
    \   </DecoratorGuard>\r\n    <DecoratorGuard id=\"8\">\r\n      <_data>\r\n        <data
    selected=\"False\" position=\"496 213\" name=\"Custom/DistanceAndLOS/AllyVisibleInThreatRange\"
    description=\"checks if any allies (including twig) are visible and within the
    minions threatRange\" cardinality=\"1\" hasParent=\"True\">\r\n          <BehaviorTree
    id=\"0\" />\r\n          <DecoratorGuard id=\"8\" />\r\n          <SelectorNode
    id=\"1\" />\r\n        </data>\r\n      </_data>\r\n    </DecoratorGuard>\r\n
    \   <ActionNode id=\"6\">\r\n      <_data>\r\n        <data selected=\"False\"
    position=\"680 205\" name=\"Custom/Other/SwitchTreeSearch\" description=\"switches
    to the monster search tree\" cardinality=\"0\" hasParent=\"True\">\r\n          <BehaviorTree
    id=\"0\" />\r\n          <ActionNode id=\"6\" />\r\n          <SelectorNode id=\"1\"
    />\r\n        </data>\r\n      </_data>\r\n    </ActionNode>\r\n    <ConditionEvalNode
    id=\"12\">\r\n      <_data>\r\n        <data selected=\"False\" position=\"0 0\"
    name=\"DecoratorGuard\" description=\"Description\" cardinality=\"1\" hasParent=\"False\">\r\n
    \         <ConditionEvalNode id=\"12\" />\r\n        </data>\r\n      </_data>\r\n
    \   </ConditionEvalNode>\r\n    <SequenceNode id=\"10\">\r\n      <_data>\r\n
    \       <data selected=\"True\" position=\"272 337\" name=\"Sequence\" description=\"Executes
    all its children in sequence until all of them are successful\" cardinality=\"-1\"
    hasParent=\"True\">\r\n          <BehaviorTree id=\"0\" />\r\n          <SequenceNode
    id=\"10\" />\r\n          <DecoratorGuard id=\"11\" />\r\n        </data>\r\n
    \     </_data>\r\n    </SequenceNode>\r\n    <ConditionEvalNode id=\"9\">\r\n
    \     <_data>\r\n        <data selected=\"False\" position=\"0 0\" name=\"DecoratorGuard\"
    description=\"Description\" cardinality=\"1\" hasParent=\"False\">\r\n          <ConditionEvalNode
    id=\"9\" />\r\n        </data>\r\n      </_data>\r\n    </ConditionEvalNode>\r\n
    \   <ActionNode id=\"7\">\r\n      <_data>\r\n        <data selected=\"False\"
    position=\"492 363\" name=\"Custom/Movement/MoveToNearestVisibleAlly\" description=\"Moves
    the monster towards the nearest allied position\" cardinality=\"0\" hasParent=\"True\">\r\n
    \         <BehaviorTree id=\"0\" />\r\n          <ActionNode id=\"7\" />\r\n          <DecoratorGuard
    id=\"8\" />\r\n        </data>\r\n      </_data>\r\n    </ActionNode>\r\n    <ActionNode
    id=\"13\">\r\n      <_data>\r\n        <data selected=\"False\" position=\"247
    515\" name=\"Custom/Movement/rotateTowardsNearestAlly\" description=\"Tells the
    character to rotate towards the nearest enemy\" cardinality=\"0\" hasParent=\"True\">\r\n
    \         <BehaviorTree id=\"0\" />\r\n          <ActionNode id=\"13\" />\r\n
    \         <SequenceNode id=\"10\" />\r\n        </data>\r\n      </_data>\r\n
    \   </ActionNode>\r\n    <ActionNode id=\"14\">\r\n      <_data>\r\n        <data
    selected=\"False\" position=\"431 515\" name=\"Custom/Attack/EnemyAttack\" description=\"attack
    action for enemy monsters. attacks nearest ally, assumes it is within attackRange\"
    cardinality=\"0\" hasParent=\"True\">\r\n          <BehaviorTree id=\"0\" />\r\n
    \         <ActionNode id=\"14\" />\r\n          <SequenceNode id=\"10\" />\r\n
    \       </data>\r\n      </_data>\r\n    </ActionNode>\r\n  </editorInfo>\r\n</BehaviorBricks>"
  subslist: []
  _guid: add4ef025ef4dee4dbeeb5de245798de
