%YAML 1.1
%TAG !u! tag:unity3d.com,2011:
--- !u!114 &11400000
MonoBehaviour:
  m_ObjectHideFlags: 0
  m_PrefabParentObject: {fileID: 0}
  m_PrefabInternal: {fileID: 0}
  m_GameObject: {fileID: 0}
  m_Enabled: 1
  m_EditorHideFlags: 0
  m_Script: {fileID: 11500000, guid: 34a7c8ca992f915438a96c2077353778, type: 3}
  m_Name: EnemySlowAttackTree
  m_EditorClassIdentifier: 
  brickName: Assets/BehaviorTree/SpringQuarter/Enemy/EnemySlowAttackTree.asset
  xml: "\uFEFF<?xml version=\"1.0\" encoding=\"utf-8\"?>\r\n<BehaviorBricks xmlns:ref=\"urn:padaone\"
    version=\"1.0\">\r\n  <BehaviorTree id=\"0\" />\r\n  <runtimeInfo>\r\n    <BehaviorTree
    id=\"0\" guid=\"2671e5ae9aee946419f581f873191e85\" nextId=\"29\">\r\n      <root>\r\n
    \       <SelectorNode id=\"1\" />\r\n      </root>\r\n      <inputParams />\r\n
    \     <outputParams />\r\n      <localParams />\r\n    </BehaviorTree>\r\n    <SelectorNode
    id=\"1\">\r\n      <children>\r\n        <elem>\r\n          <DecoratorGuard id=\"22\"
    />\r\n        </elem>\r\n        <elem>\r\n          <DecoratorGuard id=\"5\"
    />\r\n        </elem>\r\n        <elem>\r\n          <DecoratorGuard id=\"13\"
    />\r\n        </elem>\r\n        <elem>\r\n          <ActionNode id=\"15\" />\r\n
    \       </elem>\r\n      </children>\r\n      <inputParams />\r\n      <outputParams
    />\r\n      <localParams />\r\n    </SelectorNode>\r\n    <DecoratorGuard id=\"22\">\r\n
    \     <guard>\r\n        <ConditionEvalNode id=\"23\" />\r\n      </guard>\r\n
    \     <child>\r\n        <ActionNode id=\"21\" />\r\n      </child>\r\n      <inputParams
    />\r\n      <outputParams />\r\n      <localParams />\r\n    </DecoratorGuard>\r\n
    \   <DecoratorGuard id=\"5\">\r\n      <guard>\r\n        <ConditionEvalNode id=\"6\"
    />\r\n      </guard>\r\n      <child>\r\n        <SequenceNode id=\"4\" />\r\n
    \     </child>\r\n      <inputParams />\r\n      <outputParams />\r\n      <localParams
    />\r\n    </DecoratorGuard>\r\n    <DecoratorGuard id=\"13\">\r\n      <guard>\r\n
    \       <ConditionEvalNode id=\"14\" />\r\n      </guard>\r\n      <child>\r\n
    \       <ActionNode id=\"12\" />\r\n      </child>\r\n      <inputParams />\r\n
    \     <outputParams />\r\n      <localParams />\r\n    </DecoratorGuard>\r\n    <ActionNode
    id=\"15\" action=\"Custom/Other/SwitchTreeSearch\">\r\n      <inputParams />\r\n
    \     <outputParams />\r\n      <localParams />\r\n    </ActionNode>\r\n    <ConditionEvalNode
    id=\"23\" policy=\"WAIT_UNTIL_FALSE_AND_FAIL\" name=\"Custom/DistanceAndLOS/ShouldUseSlow\">\r\n
    \     <inputParams />\r\n      <outputParams />\r\n      <localParams />\r\n    </ConditionEvalNode>\r\n
    \   <ActionNode id=\"21\" action=\"Custom/Attack/EnemySlowAbility\">\r\n      <inputParams
    />\r\n      <outputParams />\r\n      <localParams />\r\n    </ActionNode>\r\n
    \   <ConditionEvalNode id=\"6\" policy=\"WAIT_UNTIL_FALSE_AND_FAIL\" name=\"Custom/DistanceAndLOS/AllyInAttackRangeAndVisible\">\r\n
    \     <inputParams />\r\n      <outputParams />\r\n      <localParams />\r\n    </ConditionEvalNode>\r\n
    \   <SequenceNode id=\"4\">\r\n      <children>\r\n        <elem>\r\n          <ActionNode
    id=\"7\" />\r\n        </elem>\r\n        <elem>\r\n          <ActionNode id=\"8\"
    />\r\n        </elem>\r\n        <elem>\r\n          <ActionNode id=\"9\" />\r\n
    \       </elem>\r\n      </children>\r\n      <inputParams />\r\n      <outputParams
    />\r\n      <localParams />\r\n    </SequenceNode>\r\n    <ConditionEvalNode id=\"14\"
    policy=\"WAIT_UNTIL_FALSE_AND_FAIL\" name=\"Custom/DistanceAndLOS/AllyVisibleInThreatRange\">\r\n
    \     <inputParams />\r\n      <outputParams />\r\n      <localParams />\r\n    </ConditionEvalNode>\r\n
    \   <ActionNode id=\"12\" action=\"Custom/Movement/MoveToNearestVisibleAlly\">\r\n
    \     <inputParams />\r\n      <outputParams />\r\n      <localParams />\r\n    </ActionNode>\r\n
    \   <ActionNode id=\"7\" action=\"Custom/Movement/DontMove\">\r\n      <inputParams
    />\r\n      <outputParams />\r\n      <localParams />\r\n    </ActionNode>\r\n
    \   <ActionNode id=\"8\" action=\"Custom/Movement/rotateTowardsNearestAlly\">\r\n
    \     <inputParams />\r\n      <outputParams />\r\n      <localParams />\r\n    </ActionNode>\r\n
    \   <ActionNode id=\"9\" action=\"Custom/Attack/EnemyAttack\">\r\n      <inputParams
    />\r\n      <outputParams />\r\n      <localParams />\r\n    </ActionNode>\r\n
    \ </runtimeInfo>\r\n  <editorInfo>\r\n    <BehaviorTree id=\"0\" _name=\"EnemySlowAttackTree\"
    _removeIfClosed=\"False\">\r\n      <_rootList>\r\n        <elem>\r\n          <SelectorNode
    id=\"1\" />\r\n        </elem>\r\n      </_rootList>\r\n      <_nodes>\r\n        <nodes>\r\n
    \         <SelectorNode id=\"1\" />\r\n          <ActionNode id=\"7\" />\r\n          <SequenceNode
    id=\"4\" />\r\n          <DecoratorGuard id=\"5\" />\r\n          <ActionNode
    id=\"8\" />\r\n          <ActionNode id=\"9\" />\r\n          <ActionNode id=\"15\"
    />\r\n          <ActionNode id=\"12\" />\r\n          <DecoratorGuard id=\"13\"
    />\r\n          <ActionNode id=\"21\" />\r\n          <DecoratorGuard id=\"22\"
    />\r\n        </nodes>\r\n      </_nodes>\r\n      <_selectedNode>\r\n        <DecoratorGuard
    id=\"5\" />\r\n      </_selectedNode>\r\n    </BehaviorTree>\r\n    <SelectorNode
    id=\"1\">\r\n      <_data>\r\n        <data selected=\"False\" position=\"477
    256\" name=\"Selector\" description=\"Executes all its children until one of them
    is successful\" cardinality=\"-1\" hasParent=\"False\">\r\n          <BehaviorTree
    id=\"0\" />\r\n          <SelectorNode id=\"1\" />\r\n        </data>\r\n      </_data>\r\n
    \   </SelectorNode>\r\n    <DecoratorGuard id=\"22\">\r\n      <_data>\r\n        <data
    selected=\"False\" position=\"201.4358 378.2723\" name=\"Custom/DistanceAndLOS/ShouldUseSlow\"
    description=\"checks if this confusion enemy's ability is ready and if it is in
    range of at least 2 enemies\" cardinality=\"1\" hasParent=\"True\">\r\n          <BehaviorTree
    id=\"0\" />\r\n          <DecoratorGuard id=\"22\" />\r\n          <SelectorNode
    id=\"1\" />\r\n        </data>\r\n      </_data>\r\n    </DecoratorGuard>\r\n
    \   <DecoratorGuard id=\"5\">\r\n      <_data>\r\n        <data selected=\"True\"
    position=\"397 407\" name=\"Custom/DistanceAndLOS/AllyInAttackRangeAndVisible\"
    description=\"checks if an ally is within the minions attackRange and LOS\" cardinality=\"1\"
    hasParent=\"True\">\r\n          <BehaviorTree id=\"0\" />\r\n          <DecoratorGuard
    id=\"5\" />\r\n          <SelectorNode id=\"1\" />\r\n        </data>\r\n      </_data>\r\n
    \   </DecoratorGuard>\r\n    <DecoratorGuard id=\"13\">\r\n      <_data>\r\n        <data
    selected=\"False\" position=\"596 415\" name=\"Custom/DistanceAndLOS/AllyVisibleInThreatRange\"
    description=\"checks if any allies (including twig) are visible and within the
    minions threatRange\" cardinality=\"1\" hasParent=\"True\">\r\n          <BehaviorTree
    id=\"0\" />\r\n          <DecoratorGuard id=\"13\" />\r\n          <SelectorNode
    id=\"1\" />\r\n        </data>\r\n      </_data>\r\n    </DecoratorGuard>\r\n
    \   <ActionNode id=\"15\">\r\n      <_data>\r\n        <data selected=\"False\"
    position=\"795 333\" name=\"Custom/Other/SwitchTreeSearch\" description=\"switches
    to the monster search tree\" cardinality=\"0\" hasParent=\"True\">\r\n          <BehaviorTree
    id=\"0\" />\r\n          <ActionNode id=\"15\" />\r\n          <SelectorNode id=\"1\"
    />\r\n        </data>\r\n      </_data>\r\n    </ActionNode>\r\n    <ConditionEvalNode
    id=\"23\">\r\n      <_data>\r\n        <data selected=\"False\" position=\"0 0\"
    name=\"DecoratorGuard\" description=\"Description\" cardinality=\"1\" hasParent=\"False\">\r\n
    \         <BehaviorTree id=\"20\" />\r\n          <ConditionEvalNode id=\"23\"
    />\r\n        </data>\r\n      </_data>\r\n    </ConditionEvalNode>\r\n    <ActionNode
    id=\"21\">\r\n      <_data>\r\n        <data selected=\"False\" position=\"127.9564
    502.919\" name=\"Custom/Attack/EnemySlowAbility\" description=\"activates the
    slow ability on a slow minion that is an enemy\" cardinality=\"0\" hasParent=\"True\">\r\n
    \         <BehaviorTree id=\"0\" />\r\n          <ActionNode id=\"21\" />\r\n
    \         <DecoratorGuard id=\"22\" />\r\n        </data>\r\n      </_data>\r\n
    \   </ActionNode>\r\n    <ConditionEvalNode id=\"6\">\r\n      <_data>\r\n        <data
    selected=\"False\" position=\"0 0\" name=\"DecoratorGuard\" description=\"Description\"
    cardinality=\"1\" hasParent=\"False\">\r\n          <BehaviorTree id=\"6\" />\r\n
    \       </data>\r\n      </_data>\r\n    </ConditionEvalNode>\r\n    <SequenceNode
    id=\"4\">\r\n      <_data>\r\n        <data selected=\"False\" position=\"338.4431
    513.6766\" name=\"Sequence\" description=\"Executes all its children in sequence
    until all of them are successful\" cardinality=\"-1\" hasParent=\"True\">\r\n
    \         <BehaviorTree id=\"0\" />\r\n          <SequenceNode id=\"4\" />\r\n
    \         <DecoratorGuard id=\"5\" />\r\n        </data>\r\n      </_data>\r\n
    \   </SequenceNode>\r\n    <ConditionEvalNode id=\"14\">\r\n      <_data>\r\n
    \       <data selected=\"False\" position=\"0 0\" name=\"DecoratorGuard\" description=\"Description\"
    cardinality=\"1\" hasParent=\"False\">\r\n          <BehaviorTree id=\"14\" />\r\n
    \       </data>\r\n      </_data>\r\n    </ConditionEvalNode>\r\n    <ActionNode
    id=\"12\">\r\n      <_data>\r\n        <data selected=\"False\" position=\"675
    512\" name=\"Custom/Movement/MoveToNearestVisibleAlly\" description=\"Moves the
    monster towards the nearest allied position\" cardinality=\"0\" hasParent=\"True\">\r\n
    \         <BehaviorTree id=\"0\" />\r\n          <ActionNode id=\"12\" />\r\n
    \         <DecoratorGuard id=\"13\" />\r\n        </data>\r\n      </_data>\r\n
    \   </ActionNode>\r\n    <ActionNode id=\"7\">\r\n      <_data>\r\n        <data
    selected=\"False\" position=\"309 649\" name=\"Custom/Movement/DontMove\" description=\"Tells
    the character not to move until DoMove node is reached.\" cardinality=\"0\" hasParent=\"True\">\r\n
    \         <BehaviorTree id=\"0\" />\r\n          <ActionNode id=\"7\" />\r\n          <SequenceNode
    id=\"4\" />\r\n        </data>\r\n      </_data>\r\n    </ActionNode>\r\n    <ActionNode
    id=\"8\">\r\n      <_data>\r\n        <data selected=\"False\" position=\"486
    668\" name=\"Custom/Movement/rotateTowardsNearestAlly\" description=\"Tells the
    character to rotate towards the nearest enemy\" cardinality=\"0\" hasParent=\"True\">\r\n
    \         <BehaviorTree id=\"0\" />\r\n          <ActionNode id=\"8\" />\r\n          <SequenceNode
    id=\"4\" />\r\n        </data>\r\n      </_data>\r\n    </ActionNode>\r\n    <ActionNode
    id=\"9\">\r\n      <_data>\r\n        <data selected=\"False\" position=\"609
    660\" name=\"Custom/Attack/EnemyAttack\" description=\"attack action for enemy
    monsters. attacks nearest ally, assumes it is within attackRange\" cardinality=\"0\"
    hasParent=\"True\">\r\n          <BehaviorTree id=\"0\" />\r\n          <ActionNode
    id=\"9\" />\r\n          <SequenceNode id=\"4\" />\r\n        </data>\r\n      </_data>\r\n
    \   </ActionNode>\r\n  </editorInfo>\r\n  <runtimeInfo>\r\n    <BehaviorTree id=\"20\"
    nextId=\"1\">\r\n      <inputParams />\r\n      <outputParams />\r\n      <localParams
    />\r\n    </BehaviorTree>\r\n    <BehaviorTree id=\"6\" nextId=\"1\">\r\n      <inputParams
    />\r\n      <outputParams />\r\n      <localParams />\r\n    </BehaviorTree>\r\n
    \   <BehaviorTree id=\"14\" nextId=\"1\">\r\n      <inputParams />\r\n      <outputParams
    />\r\n      <localParams />\r\n    </BehaviorTree>\r\n  </runtimeInfo>\r\n  <editorInfo>\r\n
    \   <BehaviorTree id=\"20\" _removeIfClosed=\"False\">\r\n      <_rootList />\r\n
    \     <_nodes>\r\n        <nodes />\r\n      </_nodes>\r\n    </BehaviorTree>\r\n
    \   <BehaviorTree id=\"6\" _removeIfClosed=\"False\">\r\n      <_rootList />\r\n
    \     <_nodes>\r\n        <nodes />\r\n      </_nodes>\r\n    </BehaviorTree>\r\n
    \   <BehaviorTree id=\"14\" _removeIfClosed=\"False\">\r\n      <_rootList />\r\n
    \     <_nodes>\r\n        <nodes />\r\n      </_nodes>\r\n    </BehaviorTree>\r\n
    \ </editorInfo>\r\n</BehaviorBricks>"
  subslist: []
  _guid: 2671e5ae9aee946419f581f873191e85
