%YAML 1.1
%TAG !u! tag:unity3d.com,2011:
--- !u!21 &2100000
Material:
  serializedVersion: 6
  m_ObjectHideFlags: 0
  m_PrefabParentObject: {fileID: 0}
  m_PrefabInternal: {fileID: 0}
  m_Name: ShieldEffect
  m_Shader: {fileID: 4800000, guid: 4ead7ca0b2b650b4d85a6df753cf5a52, type: 3}
  m_ShaderKeywords: _EMISSION
  m_LightmapFlags: 1
  m_CustomRenderQueue: -1
  stringTagMap: {}
  m_SavedProperties:
    serializedVersion: 2
    m_TexEnvs:
    - first:
        name: _BumpMap
      second:
        m_Texture: {fileID: 0}
        m_Scale: {x: 1, y: 1}
        m_Offset: {x: 0, y: 0}
    - first:
        name: _DetailAlbedoMap
      second:
        m_Texture: {fileID: 0}
        m_Scale: {x: 1, y: 1}
        m_Offset: {x: 0, y: 0}
    - first:
        name: _DetailMask
      second:
        m_Texture: {fileID: 0}
        m_Scale: {x: 1, y: 1}
        m_Offset: {x: 0, y: 0}
    - first:
        name: _DetailNormalMap
      second:
        m_Texture: {fileID: 0}
        m_Scale: {x: 1, y: 1}
        m_Offset: {x: 0, y: 0}
    - first:
        name: _EmissionMap
      second:
        m_Texture: {fileID: 0}
        m_Scale: {x: 1, y: 1}
        m_Offset: {x: 0, y: 0}
    - first:
        name: _MainTex
      second:
        m_Texture: {fileID: 0}
        m_Scale: {x: 1, y: 1}
        m_Offset: {x: 0, y: 0}
    - first:
        name: _MetallicGlossMap
      second:
        m_Texture: {fileID: 0}
        m_Scale: {x: 1, y: 1}
        m_Offset: {x: 0, y: 0}
    - first:
        name: _OcclusionMap
      second:
        m_Texture: {fileID: 0}
        m_Scale: {x: 1, y: 1}
        m_Offset: {x: 0, y: 0}
    - first:
        name: _ParallaxMap
      second:
        m_Texture: {fileID: 0}
        m_Scale: {x: 1, y: 1}
        m_Offset: {x: 0, y: 0}
    m_Floats:
    - first:
        name: _BumpScale
      second: 1
    - first:
        name: _Cutoff
      second: 0.5
    - first:
        name: _DetailNormalMapScale
      second: 1
    - first:
        name: _Distance1
      second: 0
    - first:
        name: _Distance2
      second: 0
    - first:
        name: _Distance3
      second: 0
    - first:
        name: _Distance4
      second: 0
    - first:
        name: _DstBlend
      second: 0
    - first:
        name: _Frequency
      second: 0.1
    - first:
        name: _GlossMapScale
      second: 1
    - first:
        name: _Glossiness
      second: 1
    - first:
        name: _GlossyReflections
      second: 1
    - first:
        name: _Metallic
      second: 0
    - first:
        name: _Mode
      second: 0
    - first:
        name: _OcclusionStrength
      second: 1
    - first:
        name: _Parallax
      second: 0.02
    - first:
        name: _Scale
      second: 0.37
    - first:
        name: _SmoothnessTextureChannel
      second: 0
    - first:
        name: _SpecularHighlights
      second: 1
    - first:
        name: _Speed
      second: -0.46
    - first:
        name: _SrcBlend
      second: 1
    - first:
        name: _UVSec
      second: 0
    - first:
        name: _WaveAmplitude
      second: 0.51
    - first:
        name: _WaveAmplitude1
      second: 0.64
    - first:
        name: _WaveAmplitude2
      second: 0.67
    - first:
        name: _WaveAmplitude3
      second: 0.46
    - first:
        name: _WaveAmplitude4
      second: 0.06
    - first:
        name: _ZWrite
      second: 1
    - first:
        name: _xImpact1
      second: 0
    - first:
        name: _xImpact2
      second: 0
    - first:
        name: _xImpact3
      second: 0
    - first:
        name: _xImpact4
      second: 0
    - first:
        name: _yImpact1
      second: 0
    - first:
        name: _yImpact2
      second: 0
    - first:
        name: _yImpact3
      second: 0
    - first:
        name: _yImpact4
      second: 0
    - first:
        name: _zImpact1
      second: 0
    - first:
        name: _zImpact2
      second: 0
    - first:
        name: _zImpact3
      second: 0
    - first:
        name: _zImpact4
      second: 0
    m_Colors:
    - first:
        name: _Color
      second: {r: 0.40658632, g: 0.35121107, b: 0.8235294, a: 0.503}
    - first:
        name: _EmissionColor
      second: {r: 0, g: 0, b: 0, a: 1}
