# Blender v2.78 (sub 0) OBJ File: ''
# www.blender.org
mtllib Birch_Tree_NoLeaves_m_08.mtl
o Birch_Tree_NoLeaves_m_08
v 0.082569 0.031523 0.100118
v 0.009937 0.418659 0.091050
v -0.131965 0.401634 0.087468
v -0.085299 0.023508 0.093728
v -0.131928 1.151070 0.073251
v -0.241215 1.133231 0.073251
v -0.170930 0.399548 -0.035353
v -0.274987 1.127720 -0.032122
v -0.186571 1.142150 -0.097247
v -0.055294 0.401816 -0.115165
v -0.115054 0.023378 -0.037076
v 0.006646 0.031750 -0.131293
v -0.094445 1.160199 -0.033424
v -0.297666 2.540760 -0.028007
v -0.324165 2.535441 0.055177
v -0.409916 2.518230 0.055177
v -0.436414 2.512912 -0.028007
v -0.367040 2.526836 -0.079417
v -0.513340 4.211369 -0.047737
v -0.476961 4.218749 -0.020449
v -0.490724 4.215957 0.022771
v -0.535875 4.206798 0.023029
v -0.549802 4.203974 -0.020707
v -0.607265 5.841676 -0.008438
v -0.625805 5.893271 -0.002756
v -0.629893 5.892442 -0.014908
v -0.619585 5.894532 -0.022287
v 0.122686 0.508719 -0.063080
v 0.226775 0.337847 -0.011725
v 0.445027 1.176194 -0.254064
v 0.372236 1.228160 -0.281656
v 0.159042 0.331986 -0.144013
v 0.221435 0.014245 -0.052814
v 0.265336 0.269088 -0.096319
v 0.471101 1.141039 -0.315323
v 0.386355 1.181747 -0.349426
v 0.640467 2.825537 -0.433877
v 0.685995 2.816064 -0.419923
v 0.670352 2.822540 -0.387897
v 0.630255 2.836310 -0.397733
v 0.939732 4.502866 -0.380836
v 0.943774 4.500893 -0.393269
v 0.959502 4.499418 -0.389081
v 0.953886 4.499846 -0.378108
v 0.141560 0.892931 0.212399
v 0.027000 0.931257 0.261353
v 0.085138 1.860636 0.456675
v 0.002371 1.885269 0.491562
v 0.066155 0.941530 0.166863
v 0.044073 3.032883 0.645887
v -0.007709 3.047763 0.667681
v 0.024948 1.880763 0.421264
v -0.018993 4.074748 0.738038
v -0.044207 4.075382 0.748263
v 0.006210 3.044432 0.623710
v -0.037419 4.073386 0.727702
v 0.112308 1.362785 0.335338
v 0.819544 3.713117 -0.385942
v -0.325224 1.803311 0.064669
v -0.002351 2.463681 0.583138
v -0.626296 5.920848 -0.018514
v -0.617167 5.922699 -0.016071
v -0.532787 4.207425 -0.035930
v -0.409039 3.366758 0.039325
v -0.108366 1.156448 0.021502
v -0.106906 0.193327 0.091983
v -0.041568 4.100924 0.740259
v -0.026658 3.596682 0.712850
v 0.096359 0.690768 0.054302
v 0.961473 4.526892 -0.383110
v 0.126315 0.016430 -0.099440
v -0.137529 1.151678 -0.069494
v 0.829886 3.710478 -0.406636
v 0.555497 1.977649 -0.326822
v 0.241523 0.120168 -0.069634
v -0.620565 5.922010 -0.005401
v -0.196854 1.826905 -0.030172
v -0.262922 1.129662 0.022153
v 0.375283 1.207194 -0.317097
v 0.009865 1.884171 0.456396
v 0.633233 2.831442 -0.416373
v 0.510904 1.981923 -0.397826
v 0.075275 0.168978 -0.137001
v -0.276191 1.812323 -0.088787
v 0.956435 4.527415 -0.390654
v -0.544212 5.044176 -0.013097
v -0.186572 1.142150 0.078392
v 0.035396 0.448172 -0.095336
v 0.138749 0.418688 -0.112992
v -0.570628 5.105243 -0.034143
v 0.429738 1.159433 -0.335692
v -0.544806 4.204987 0.001813
v -0.029860 4.100817 0.735523
v -0.404087 2.519395 -0.057026
v -0.550237 5.042953 0.005824
v -0.367040 2.526836 0.059273
v 0.085311 0.910724 0.240564
v -0.593077 5.100690 -0.017600
v -0.629358 5.920228 -0.008900
v -0.067194 0.405008 0.093775
v 0.015722 2.459387 0.525975
v 0.363840 0.671326 -0.204154
v 0.150489 0.165481 0.049054
v 0.057824 1.869913 0.436183
v -0.355528 1.797741 -0.030172
v -0.220441 0.740388 -0.033793
v 0.663884 2.820430 -0.428587
v -0.157130 0.400306 0.027911
v -0.024124 0.202951 -0.127382
v -0.009766 0.023718 0.107855
v -0.108886 0.023443 0.030990
v 0.218211 0.296576 -0.124374
v -0.584446 5.102440 0.009248
v -0.495011 3.349320 -0.024409
v -0.493935 4.215305 -0.035801
v -0.426983 2.514797 0.014851
v 0.951603 4.528531 -0.378986
v 0.462077 1.156376 -0.283137
v 0.407622 1.204137 -0.264543
v 0.050920 0.334491 -0.127021
v -0.122128 0.752287 -0.105139
v 0.018812 3.040094 0.658527
v 0.064886 2.443827 0.554808
v -0.233759 1.134432 -0.068843
v 0.793267 3.720585 -0.391738
v 0.800328 3.715073 -0.415166
v -0.062514 0.758523 0.079943
v -0.033013 4.101756 0.745045
v 0.107754 0.916467 0.185919
v -0.487169 4.282216 0.001395
v -0.183597 0.744242 0.080594
v -0.003108 3.046815 0.645685
v 0.044768 1.872585 0.476922
v -0.329993 2.534277 -0.057026
v -0.513300 4.211378 0.025011
v -0.307097 2.538875 0.014851
v 0.116639 0.340165 0.052312
v 0.189687 0.444899 -0.040686
v -0.474716 3.353436 0.039325
v -0.141344 0.192325 -0.036620
v 0.181087 0.592212 0.099606
v 0.649651 2.829795 -0.391127
v -0.065963 0.023548 -0.089470
v 0.015193 1.393290 0.376376
v 0.499056 2.007949 -0.345213
v 0.255412 0.292610 -0.058493
v 0.167670 0.016174 0.024730
v 0.011425 3.589322 0.697032
v 0.680301 2.818783 -0.403341
v 0.050337 0.203915 0.095679
v 0.057357 0.487564 0.023189
v 0.275390 0.726926 -0.245702
v 0.253154 0.822476 -0.176757
v 0.946565 4.529055 -0.386529
v 0.576766 1.957273 -0.373898
v -0.388743 3.370875 -0.024409
v -0.227158 1.821335 0.064669
v -0.122532 0.402102 -0.078468
v -0.016415 3.594030 0.680973
v 0.024818 0.651809 0.170035
v -0.441877 3.360097 -0.063800
v 0.026870 3.038168 0.633066
v 0.044411 1.394466 0.294461
v 0.041649 0.938526 0.214133
v 0.009435 0.796591 -0.046760
v 0.339095 0.720309 -0.139569
v -0.001218 3.591411 0.687742
v -0.023279 3.595675 0.696905
v 0.042559 2.450969 0.538132
v 0.003609 2.462470 0.554543
v -0.007152 3.592948 0.706208
v 0.081698 1.377850 0.311650
v 0.025440 1.395521 0.335423
v 0.032089 2.453456 0.571246
v 0.144744 0.640945 0.072034
v 0.054219 0.675469 0.112833
v 0.064773 1.377169 0.359102
v -0.052173 0.775683 -0.080781
v -0.020360 0.779011 0.017987
v 0.103301 0.618376 0.139077
v 0.968404 4.609624 -0.383309
v 0.805969 3.717055 -0.387732
v 0.826117 3.711494 -0.395929
v 0.815544 3.712571 -0.412009
v 0.795396 3.718132 -0.403812
v 0.569201 1.966082 -0.349297
v 0.501910 1.996316 -0.372582
v 0.259894 0.778662 -0.213206
v 0.320795 0.695498 -0.228280
v 0.526445 1.993964 -0.333515
v 0.544666 1.968433 -0.388365
v -0.130232 0.192683 0.029608
v 0.166625 0.135040 -0.106603
v 0.355845 0.691857 -0.169885
v 0.206035 0.132934 -0.010858
v 0.294945 0.775021 -0.154811
v -0.628157 6.003501 -0.012269
v -0.582589 5.102817 -0.026999
v -0.570137 5.105342 0.009275
v -0.559036 5.107594 -0.025584
v -0.590006 5.101313 -0.003706
v -0.487756 3.350791 0.008417
v -0.395998 3.369403 0.008417
v -0.470232 3.354346 -0.046615
v -0.441877 3.360097 0.042429
v -0.413522 3.365849 -0.046615
v -0.318529 1.804541 -0.063216
v -0.276191 1.812323 0.069288
v -0.233853 1.820104 -0.063216
v -0.344695 1.799732 0.018676
v -0.207687 1.824914 0.018676
v -0.207271 0.741766 0.025122
v -0.091284 0.193548 -0.084274
v -0.175458 0.745094 -0.073647
v -0.123984 0.750479 0.086164
v -0.035319 0.194946 0.101277
vt 0.1535 0.1641
vt 0.1517 0.2018
vt 0.1385 0.2027
vt 0.1388 0.1654
vt 0.1498 0.2723
vt 0.1480 0.3428
vt 0.1366 0.3423
vt 0.1375 0.2725
vt 0.1004 0.2727
vt 0.1023 0.3426
vt 0.0909 0.3431
vt 0.0880 0.2724
vt 0.0978 0.1650
vt 0.0985 0.2027
vt 0.0851 0.2017
vt 0.0838 0.1637
vt 0.1252 0.2727
vt 0.1252 0.3422
vt 0.1138 0.3422
vt 0.1128 0.2729
vt 0.1661 0.4795
vt 0.1613 0.6151
vt 0.1523 0.6144
vt 0.1558 0.4788
vt 0.1253 0.4772
vt 0.1255 0.6121
vt 0.1165 0.6119
vt 0.1151 0.4771
vt 0.0846 0.4794
vt 0.0897 0.6148
vt 0.0807 0.6158
vt 0.0745 0.4803
vt 0.1457 0.4781
vt 0.1434 0.6134
vt 0.1345 0.6124
vt 0.1355 0.4773
vt 0.1049 0.4777
vt 0.1075 0.6128
vt 0.0986 0.6137
vt 0.0948 0.4784
vt 0.0529 0.6562
vt 0.0617 0.8184
vt 0.0571 0.8190
vt 0.0461 0.6571
vt 0.0937 0.6552
vt 0.0895 0.8176
vt 0.0849 0.8169
vt 0.0870 0.6544
vt 0.0665 0.6547
vt 0.0710 0.8171
vt 0.0663 0.8177
vt 0.0597 0.6554
vt 0.1073 0.6566
vt 0.0987 0.8186
vt 0.0941 0.8182
vt 0.1004 0.6560
vt 0.0801 0.6541
vt 0.0802 0.8167
vt 0.0756 0.8165
vt 0.0733 0.6539
vt 0.0517 0.3576
vt 0.0451 0.5296
vt 0.0470 0.3572
vt 0.0290 0.5280
vt 0.0295 0.7007
vt 0.0265 0.7006
vt 0.0252 0.5279
vt 0.0138 0.5293
vt 0.0175 0.7016
vt 0.0145 0.7019
vt 0.0099 0.5297
vt 0.0366 0.5287
vt 0.0355 0.7012
vt 0.0325 0.7008
vt 0.0328 0.5282
vt 0.0214 0.5283
vt 0.0235 0.7010
vt 0.0205 0.7013
vt 0.0176 0.5288
vt 0.0228 0.9591
vt 0.0228 0.9582
vt 0.0238 0.9580
vt 0.0238 0.9590
vt 0.0815 0.3827
vt 0.0896 0.3755
vt 0.0925 0.4383
vt 0.0862 0.4416
vt 0.0652 0.2083
vt 0.0645 0.1905
vt 0.2070 0.1485
vt 0.2218 0.1447
vt 0.2267 0.1668
vt 0.2197 0.1733
vt 0.0958 0.3733
vt 0.1020 0.3711
vt 0.1038 0.4350
vt 0.0981 0.4367
vt 0.0463 0.1463
vt 0.0632 0.1525
vt 0.0439 0.1793
vt 0.0346 0.1707
vt 0.1252 0.1658
vt 0.1251 0.2032
vt 0.1118 0.2036
vt 0.1117 0.1663
vt 0.1118 0.5602
vt 0.1176 0.5612
vt 0.1161 0.6833
vt 0.1122 0.6833
vt 0.0928 0.5630
vt 0.0976 0.5610
vt 0.1028 0.6837
vt 0.0994 0.6844
vt 0.1102 0.3741
vt 0.1185 0.3771
vt 0.1190 0.4391
vt 0.1114 0.4370
vt 0.1264 0.3830
vt 0.1343 0.3888
vt 0.1310 0.4437
vt 0.1250 0.4414
vt 0.1221 0.5627
vt 0.1266 0.5641
vt 0.1221 0.6846
vt 0.1191 0.6840
vt 0.1019 0.5601
vt 0.1060 0.5591
vt 0.1083 0.6832
vt 0.1055 0.6834
vt 0.1196 0.8153
vt 0.1223 0.8157
vt 0.1224 0.9468
vt 0.1201 0.9466
vt 0.1139 0.8150
vt 0.1169 0.8148
vt 0.1178 0.9464
vt 0.1155 0.9467
vt 0.1083 0.8152
vt 0.1108 0.8151
vt 0.1133 0.9470
vt 0.1111 0.9469
vt 0.1030 0.8156
vt 0.1058 0.8153
vt 0.1088 0.9468
vt 0.1065 0.9469
vt 0.0412 0.9265
vt 0.0402 0.9264
vt 0.0401 0.9255
vt 0.0411 0.9256
vt 0.0826 0.1257
vt 0.1649 0.2009
vt 0.1682 0.1628
vt 0.1889 0.1903
vt 0.0771 0.6584
vt 0.0901 0.6515
vt 0.0855 0.6955
vt 0.0760 0.6998
vt 0.1777 0.2757
vt 0.1621 0.2720
vt 0.1846 0.2076
vt 0.0724 0.2761
vt 0.0765 0.7588
vt 0.0849 0.7554
vt 0.0823 0.8270
vt 0.0751 0.8296
vt 0.0523 0.6662
vt 0.0640 0.6653
vt 0.0665 0.7040
vt 0.0584 0.7027
vt 0.0982 0.6593
vt 0.1063 0.6671
vt 0.1003 0.7024
vt 0.0929 0.6990
vt 0.0734 0.9124
vt 0.0793 0.9104
vt 0.0762 0.9938
vt 0.0717 0.9952
vt 0.0612 0.7608
vt 0.0682 0.7622
vt 0.0680 0.8321
vt 0.0622 0.8305
vt 0.0915 0.7578
vt 0.0980 0.7602
vt 0.0939 0.8298
vt 0.0881 0.8284
vt 0.0241 0.8240
vt 0.0274 0.8232
vt 0.0245 0.9017
vt 0.0223 0.9017
vt 0.0628 0.9133
vt 0.0676 0.9144
vt 0.0672 0.9967
vt 0.0635 0.9960
vt 0.0839 0.9116
vt 0.0886 0.9128
vt 0.0832 0.9958
vt 0.0797 0.9948
vt 0.0462 0.9568
vt 0.0462 0.9551
vt 0.0478 0.9565
vt 0.0180 0.8242
vt 0.0207 0.8247
vt 0.0202 0.9018
vt 0.0184 0.9015
vt 0.0300 0.8237
vt 0.0326 0.8241
vt 0.0279 0.9014
vt 0.0262 0.9016
vt 0.0303 0.7448
vt 0.0338 0.7458
vt 0.0373 0.7468
vt 0.0153 0.8238
vt 0.0167 0.9012
vt 0.0139 0.7463
vt 0.0176 0.7470
vt 0.0213 0.7477
vt 0.0478 0.9548
vt 0.0495 0.9562
vt 0.0462 0.9534
vt 0.0581 0.9122
vt 0.0598 0.9953
vt 0.0564 0.8290
vt 0.0258 0.7462
vt 0.0875 0.6838
vt 0.0949 0.6873
vt 0.1022 0.6907
vt 0.0543 0.7594
vt 0.0521 0.6898
vt 0.0602 0.6911
vt 0.0684 0.6923
vt 0.0947 0.6076
vt 0.1035 0.6197
vt 0.1123 0.6318
vt 0.0407 0.6671
vt 0.0502 0.7015
vt 0.0312 0.6327
vt 0.0464 0.6296
vt 0.0615 0.6265
vt 0.0780 0.6881
vt 0.0795 0.3440
vt 0.0682 0.3448
vt 0.0567 0.2798
vt 0.0453 0.2148
vt 0.1933 0.2794
vt 0.2043 0.2142
vt 0.1822 0.3446
vt 0.1708 0.3439
vt 0.1594 0.3432
vt 0.0781 0.6170
vt 0.1921 0.1523
vt 0.2128 0.1798
vt 0.1714 0.1247
vt 0.0423 0.9265
vt 0.0421 0.9257
vt 0.0425 0.9273
vt 0.0413 0.9273
vt 0.0402 0.9273
vt 0.1002 0.8160
vt 0.1042 0.9470
vt 0.0961 0.6850
vt 0.1180 0.3152
vt 0.1278 0.3246
vt 0.1376 0.3340
vt 0.1002 0.3071
vt 0.1091 0.3112
vt 0.0881 0.5649
vt 0.0800 0.4449
vt 0.1252 0.1285
vt 0.1115 0.1290
vt 0.1390 0.1281
vt 0.0292 0.1401
vt 0.0253 0.1622
vt 0.0332 0.1180
vt 0.0579 0.1218
vt 0.0866 0.3127
vt 0.0934 0.3099
vt 0.1942 0.1236
vt 0.2170 0.1226
vt 0.0446 0.1971
vt 0.0735 0.3900
vt 0.0670 0.3350
vt 0.0768 0.3239
vt 0.0230 0.9600
vt 0.0238 0.9601
vt 0.0221 0.9599
vt 0.0219 0.9591
vt 0.0217 0.9583
vt 0.0193 0.3557
vt 0.0147 0.3563
vt 0.0239 0.3551
vt 0.0378 0.3562
vt 0.0332 0.3555
vt 0.0424 0.3568
vt 0.0404 0.5292
vt 0.0385 0.7017
vt 0.0101 0.3569
vt 0.0054 0.3576
vt 0.0285 0.3553
vt 0.0800 0.4915
vt 0.0710 0.4913
vt 0.0890 0.4918
vt 0.1158 0.4945
vt 0.1068 0.4938
vt 0.1248 0.4952
vt 0.1141 0.6571
vt 0.1034 0.8190
vt 0.0620 0.4922
vt 0.0531 0.4931
vt 0.0979 0.4928
vt 0.0442 0.4941
vt 0.0352 0.4952
vt 0.1763 0.4801
vt 0.1703 0.6157
vt 0.0970 0.1274
vt 0.1552 0.1264
vn -0.0399 0.0237 0.9989
vn -0.0265 0.0236 0.9994
vn -0.5924 -0.0638 0.8031
vn -0.6167 -0.0606 0.7849
vn -0.0097 0.0208 0.9997
vn -0.0023 0.0163 0.9999
vn -0.5873 -0.0676 0.8066
vn -0.5853 -0.0719 0.8076
vn -0.5792 -0.0783 -0.8114
vn -0.5811 -0.0721 -0.8107
vn -0.0464 0.0143 -0.9988
vn -0.1128 0.0136 -0.9935
vn -0.6050 -0.0714 -0.7930
vn -0.5851 -0.0717 -0.8078
vn -0.2117 0.0485 -0.9761
vn -0.3064 -0.0089 -0.9519
vn -0.9423 -0.1344 0.3065
vn -0.9433 -0.1232 0.3082
vn -0.9432 -0.1259 -0.3074
vn -0.9419 -0.1330 -0.3084
vn 0.9386 0.1366 0.3168
vn 0.9438 0.1182 0.3087
vn 0.5784 0.0800 0.8119
vn 0.5768 0.0911 0.8118
vn -0.9449 -0.1104 0.3083
vn -0.9477 -0.0870 0.3072
vn -0.9480 -0.0863 -0.3064
vn -0.9462 -0.1092 -0.3047
vn 0.5746 0.0875 -0.8137
vn 0.5828 0.0771 -0.8090
vn 0.9431 0.1192 -0.3104
vn 0.9408 0.1390 -0.3091
vn -0.0029 0.0154 0.9999
vn -0.0083 0.0160 0.9998
vn -0.5914 -0.0472 0.8050
vn -0.5843 -0.0605 0.8092
vn -0.5856 -0.0618 -0.8083
vn -0.5887 -0.0500 -0.8068
vn -0.0088 0.0155 -0.9998
vn -0.0071 0.0123 -0.9999
vn 0.5861 0.0674 -0.8074
vn 0.6116 0.0608 -0.7888
vn 0.9506 0.0938 -0.2960
vn 0.9441 0.1020 -0.3135
vn -0.0032 0.0220 0.9998
vn 0.0267 0.0210 0.9994
vn -0.5844 -0.0225 0.8112
vn -0.5900 -0.0286 0.8069
vn -0.5908 -0.0323 -0.8062
vn -0.5871 -0.0281 -0.8090
vn 0.0042 0.0149 -0.9999
vn -0.0066 0.0181 -0.9998
vn 0.9461 0.1006 0.3078
vn 0.9484 0.0782 0.3074
vn 0.5937 0.0694 0.8017
vn 0.5811 0.0732 0.8106
vn -0.9497 -0.0639 0.3066
vn -0.9503 -0.0536 0.3065
vn -0.9502 -0.0555 -0.3066
vn -0.9495 -0.0625 -0.3074
vn 0.9734 0.0800 -0.2149
vn -0.9496 -0.0450 0.3101
vn -0.9091 0.0532 0.4132
vn -0.9508 -0.0383 -0.3075
vn -0.9516 -0.0437 -0.3041
vn 0.7294 0.0603 -0.6814
vn 0.8626 0.1637 -0.4787
vn 0.9468 0.0872 0.3099
vn 0.1869 0.0292 0.9819
vn 0.4126 0.1380 0.9004
vn -0.5076 -0.0070 0.8616
vn -0.5483 -0.0156 0.8361
vn -0.5883 -0.0213 -0.8084
vn -0.4979 0.0779 -0.8637
vn 0.0964 0.0275 -0.9950
vn 0.0492 0.0191 -0.9986
vn -0.0805 0.9967 -0.0022
vn -0.0448 0.2997 0.9530
vn 0.5149 0.1243 0.8482
vn 0.4645 0.0777 0.8822
vn -0.1917 0.2009 0.9607
vn 0.1260 0.2328 -0.9643
vn -0.0865 0.1430 -0.9859
vn 0.7940 -0.0758 0.6031
vn 0.9332 -0.2270 -0.2786
vn 0.9035 -0.2653 -0.3365
vn 0.8612 -0.0982 0.4987
vn 0.8960 -0.1023 0.4321
vn 0.8653 -0.3069 -0.3963
vn 0.8751 -0.2332 -0.4241
vn 0.9013 -0.0925 0.4231
vn 0.3268 -0.1896 -0.9259
vn 0.0715 -0.0688 -0.9951
vn -0.0522 -0.0504 -0.9974
vn 0.2850 -0.2516 -0.9249
vn -0.9576 -0.1244 0.2598
vn -0.9475 -0.1289 0.2925
vn -0.9417 -0.1299 -0.3105
vn -0.9401 -0.1274 -0.3162
vn 0.3072 -0.0966 -0.9467
vn -0.4405 0.0219 -0.8975
vn -0.4392 0.0616 -0.8963
vn 0.2888 -0.0584 -0.9556
vn -0.2501 0.1122 0.9617
vn 0.4017 0.0201 0.9155
vn 0.4026 -0.0282 0.9149
vn -0.2299 0.0681 0.9708
vn 0.2468 -0.2893 -0.9249
vn -0.3770 -0.1117 -0.9195
vn -0.4004 -0.0392 -0.9155
vn 0.2863 -0.1922 -0.9387
vn -0.8671 0.1370 -0.4789
vn -0.8155 0.3791 0.4372
vn -0.8520 0.2395 0.4655
vn -0.9270 0.1424 -0.3469
vn -0.9483 0.1332 -0.2882
vn -0.8513 0.1719 0.4957
vn -0.8565 0.1608 0.4905
vn -0.9394 0.1547 -0.3060
vn 0.8952 -0.0857 0.4373
vn 0.9008 -0.1414 -0.4106
vn 0.8933 -0.1361 -0.4284
vn 0.8866 -0.1176 0.4474
vn -0.9309 0.1774 -0.3193
vn -0.8500 0.1532 0.5040
vn -0.8470 0.1584 0.5074
vn -0.9107 0.2937 -0.2904
vn 0.2751 -0.0258 -0.9611
vn -0.4358 0.1007 -0.8944
vn -0.4395 0.1111 -0.8913
vn 0.3012 0.0698 -0.9510
vn 0.8778 -0.1502 0.4549
vn 0.8974 -0.1377 -0.4191
vn 0.8988 -0.1313 -0.4182
vn 0.9528 -0.0482 0.2997
vn -0.2108 0.0301 0.9771
vn 0.4064 -0.0740 0.9107
vn 0.4139 -0.0745 0.9073
vn -0.2660 0.1312 0.9550
vn 0.1686 0.9856 0.0125
vn -0.1637 -0.0882 -0.9826
vn 0.0945 -0.0118 0.9955
vn 0.2533 0.0654 0.9652
vn 0.4144 -0.0680 0.9075
vn 0.2878 -0.2948 0.9112
vn 0.9247 0.0282 0.3796
vn 0.9619 0.0125 0.2732
vn 0.3061 -0.2591 0.9161
vn 0.8217 0.2116 0.5292
vn 0.4694 0.1206 0.8747
vn -0.1892 0.9335 0.3045
vn 0.3645 0.1253 -0.9228
vn 0.3230 -0.2132 0.9221
vn 0.9837 0.0132 0.1795
vn 0.9862 0.0068 0.1653
vn 0.3363 -0.1750 0.9253
vn -0.8746 0.1680 -0.4548
vn -0.7716 -0.1736 0.6120
vn -0.7179 -0.1969 0.6677
vn -0.9149 0.0928 -0.3928
vn 0.7400 0.3894 -0.5484
vn -0.1560 0.4483 -0.8802
vn -0.2571 0.3040 -0.9173
vn 0.6469 0.3009 -0.7007
vn 0.3501 -0.1364 0.9267
vn 0.9914 0.0130 0.1302
vn 0.9908 0.0252 0.1332
vn 0.3623 -0.0963 0.9271
vn -0.9398 0.0552 -0.3372
vn -0.7002 -0.1848 0.6897
vn -0.6783 -0.1456 0.7202
vn -0.9498 0.0442 -0.3098
vn 0.5831 0.2351 -0.7777
vn -0.3016 0.2361 -0.9237
vn -0.3372 0.1908 -0.9219
vn 0.5549 0.1945 -0.8088
vn 0.3707 -0.0579 0.9270
vn 0.9937 0.0525 0.0993
vn 0.9914 0.0982 0.0863
vn 0.2365 0.7100 0.6633
vn -0.9525 0.0385 -0.3021
vn -0.6758 -0.1151 0.7281
vn -0.6585 -0.0940 0.7467
vn -0.9540 0.0136 -0.2994
vn 0.5386 0.1540 -0.8283
vn -0.3412 0.1556 -0.9270
vn -0.3482 0.1159 -0.9302
vn 0.5313 0.1300 -0.8372
vn -0.3631 0.1042 -0.9259
vn -0.7370 0.6738 -0.0535
vn 0.4540 0.7155 -0.5310
vn -0.9535 -0.0086 -0.3013
vn -0.6687 -0.0793 0.7393
vn -0.6753 -0.0287 0.7370
vn 0.5091 0.1087 -0.8538
vn -0.3558 0.0797 -0.9312
vn 0.7112 -0.0091 0.7030
vn 0.6750 0.5374 0.5055
vn 0.0595 0.7764 -0.6274
vn 0.5081 0.1094 -0.8544
vn 0.9309 0.1948 -0.3091
vn 0.9095 0.2819 -0.3055
vn 0.9056 0.1705 0.3883
vn 0.5421 0.1041 0.8338
vn 0.6009 0.0160 0.7992
vn 0.3816 0.0302 0.9238
vn -0.4918 0.2508 -0.8338
vn -0.9619 -0.1269 0.2421
vn -0.9341 -0.1293 -0.3327
vn -0.6047 -0.0612 0.7941
vn 0.9531 -0.2187 -0.2094
vn 0.3206 -0.1768 -0.9306
vn 0.7461 -0.0586 0.6632
vn 0.6604 0.0618 0.7483
vn -0.6090 -0.0783 -0.7893
vn -0.0358 0.0247 0.9991
usemtl None
s 1
f 216/1/1 100/2/2 3/3/3 66/4/4
f 215/5/5 87/6/6 6/7/7 131/8/8
f 214/9/9 124/10/10 9/11/11 121/12/12
f 213/13/13 158/14/14 10/15/15 109/16/16
f 212/17/17 78/18/18 8/19/19 106/20/20
f 211/21/21 136/22/22 15/23/23 157/24/24
f 210/25/25 116/26/26 17/27/27 105/28/28
f 209/29/29 134/30/30 14/31/31 77/32/32
f 208/33/33 96/34/34 16/35/35 59/36/36
f 207/37/37 94/38/38 18/39/39 84/40/40
f 206/41/41 115/42/42 20/43/43 156/44/44
f 205/45/45 135/46/46 22/47/47 139/48/48
f 204/49/49 63/50/50 19/51/51 161/52/52
f 203/53/53 130/54/54 21/55/55 64/56/56
f 202/57/57 92/58/58 23/59/59 114/60/60
f 20/61/43 86/62/61 130/63/54
f 201/64/62 99/65/63 26/66/64 98/67/65
f 200/68/66 62/69/67 24/70/68 86/71/61
f 199/72/69 76/73/70 25/74/71 113/75/72
f 198/76/73 61/77/74 27/78/75 90/79/76
f 197/80/77 76/81/70 24/82/68 62/83/67
f 196/84/78 166/85/79 30/86/80 119/87/81
f 10/15/15 88/88/82 120/89/83
f 195/90/84 75/91/85 34/92/86 146/93/87
f 194/94/88 102/95/89 35/96/90 118/97/91
f 193/98/92 83/99/93 32/100/94 112/101/95
f 192/102/96 108/103/97 7/104/98 140/105/99
f 191/106/100 82/107/101 37/108/102 107/109/103
f 190/110/104 74/111/105 39/112/106 142/113/107
f 189/114/108 152/115/109 36/116/110 91/117/111
f 188/118/112 153/119/113 31/120/114 79/121/115
f 187/122/116 145/123/117 40/124/118 81/125/119
f 186/126/120 155/127/121 38/128/122 149/129/123
f 185/130/124 125/131/125 41/132/126 154/133/127
f 184/134/128 126/135/129 42/136/130 85/137/131
f 183/138/132 73/139/133 43/140/134 70/141/135
f 182/142/136 58/143/137 44/144/138 117/145/139
f 181/146/140 154/147/127 41/148/126 117/149/139
f 12/150/141 109/16/16 83/99/93
f 2/151/142 150/152/143 137/153/144
f 180/154/145 141/155/146 45/156/147 97/157/148
f 179/158/149 127/159/150 2/151/142 151/160/151
f 178/161/152 88/88/82 10/15/15 121/12/12
f 177/162/153 57/163/154 47/164/155 133/165/156
f 176/166/157 160/167/158 46/168/159 164/169/160
f 175/170/161 69/171/162 49/172/163 129/173/164
f 174/174/165 123/175/166 50/176/167 122/177/168
f 173/178/169 144/179/170 48/180/171 80/181/172
f 172/182/173 163/183/174 52/184/175 104/185/176
f 171/186/177 148/187/178 53/188/179 128/189/180
f 170/190/181 60/191/182 51/192/183 132/193/184
f 169/194/185 101/195/186 55/196/187 162/197/188
f 56/198/189 67/199/190 93/200/191
f 168/201/192 68/202/193 54/203/194 67/204/190
f 167/205/195 159/206/196 56/207/189 93/208/191
f 148/187/178 167/205/195 93/208/191 53/188/179
f 50/209/167 162/210/188 167/205/195 148/187/178
f 162/210/188 55/211/187 159/206/196 167/205/195
f 159/212/196 168/201/192 67/204/190 56/213/189
f 55/214/187 132/215/184 168/201/192 159/212/196
f 132/215/184 51/216/183 68/202/193 168/201/192
f 93/200/191 128/217/180 53/218/179
f 93/200/191 67/199/190 128/217/180
f 67/199/190 54/219/194 128/217/180
f 123/175/166 169/194/185 162/197/188 50/176/167
f 47/164/155 104/185/176 169/194/185 123/175/166
f 104/185/176 52/184/175 101/195/186 169/194/185
f 101/220/186 170/190/181 132/193/184 55/221/187
f 52/222/175 80/181/172 170/190/181 101/220/186
f 80/181/172 48/180/171 60/191/182 170/190/181
f 68/202/193 171/186/177 128/189/180 54/203/194
f 51/216/183 122/223/168 171/186/177 68/202/193
f 122/223/168 50/209/167 148/187/178 171/186/177
f 57/163/154 172/182/173 104/185/176 47/164/155
f 45/224/147 129/225/164 172/182/173 57/163/154
f 129/225/164 49/226/163 163/183/174 172/182/173
f 163/227/174 173/178/169 80/181/172 52/222/175
f 49/228/163 164/229/160 173/178/169 163/227/174
f 164/229/160 46/230/159 144/179/170 173/178/169
f 60/191/182 174/174/165 122/177/168 51/192/183
f 48/180/171 133/165/156 174/174/165 60/191/182
f 133/165/156 47/164/155 123/175/166 174/174/165
f 141/155/146 175/170/161 129/173/164 45/156/147
f 29/231/197 138/232/198 175/170/161 141/155/146
f 138/232/198 28/233/199 69/171/162 175/170/161
f 69/234/162 176/166/157 164/169/160 49/235/163
f 28/236/199 151/237/151 176/166/157 69/234/162
f 151/237/151 2/238/142 160/167/158 176/166/157
f 144/179/170 177/162/153 133/165/156 48/180/171
f 46/230/159 97/239/148 177/162/153 144/179/170
f 97/239/148 45/224/147 57/163/154 177/162/153
f 72/240/200 178/161/152 121/12/12 9/11/11
f 13/241/201 165/242/202 178/161/152 72/240/200
f 165/242/202 28/243/199 88/88/82 178/161/152
f 165/244/202 179/158/149 151/160/151 28/245/199
f 13/246/201 65/247/203 179/158/149 165/244/202
f 65/247/203 5/248/204 127/159/150 179/158/149
f 160/167/158 180/154/145 97/157/148 46/168/159
f 2/238/142 137/249/144 180/154/145 160/167/158
f 137/249/144 29/231/197 141/155/146 180/154/145
f 137/153/144 103/250/205 29/251/197
f 137/153/144 150/152/143 103/250/205
f 150/152/143 1/252/206 103/250/205
f 83/99/93 120/89/83 32/100/94
f 83/99/93 109/16/16 120/89/83
f 109/16/16 10/15/15 120/89/83
f 70/253/135 181/146/140 117/149/139 44/254/138
f 43/255/134 85/256/131 181/146/140 70/253/135
f 85/256/131 42/257/130 154/147/127 181/146/140
f 125/258/125 182/142/136 117/145/139 41/259/126
f 40/260/118 142/113/107 182/142/136 125/258/125
f 142/113/107 39/112/106 58/143/137 182/142/136
f 58/143/137 183/138/132 70/141/135 44/144/138
f 39/112/106 149/129/123 183/138/132 58/143/137
f 149/129/123 38/128/122 73/139/133 183/138/132
f 73/139/133 184/134/128 85/137/131 43/140/134
f 38/128/122 107/109/103 184/134/128 73/139/133
f 107/109/103 37/108/102 126/135/129 184/134/128
f 126/135/129 185/130/124 154/133/127 42/136/130
f 37/108/102 81/125/119 185/130/124 126/135/129
f 81/125/119 40/124/118 125/131/125 185/130/124
f 74/111/105 186/126/120 149/129/123 39/112/106
f 30/86/80 118/97/91 186/126/120 74/111/105
f 118/97/91 35/96/90 155/127/121 186/126/120
f 82/107/101 187/122/116 81/125/119 37/108/102
f 36/116/110 79/121/115 187/122/116 82/107/101
f 79/121/115 31/120/114 145/123/117 187/122/116
f 152/115/109 188/118/112 79/121/115 36/116/110
f 32/261/94 89/262/207 188/118/112 152/115/109
f 89/262/207 28/263/199 153/119/113 188/118/112
f 102/95/89 189/114/108 91/117/111 35/96/90
f 34/264/86 112/265/95 189/114/108 102/95/89
f 112/265/95 32/261/94 152/115/109 189/114/108
f 145/266/117 190/110/104 142/113/107 40/260/118
f 31/267/114 119/87/81 190/110/104 145/266/117
f 119/87/81 30/86/80 74/111/105 190/110/104
f 155/127/121 191/106/100 107/109/103 38/128/122
f 35/96/90 91/117/111 191/106/100 155/127/121
f 91/117/111 36/116/110 82/107/101 191/106/100
f 111/268/208 192/102/96 140/105/99 11/269/209
f 4/270/210 66/4/4 192/102/96 111/268/208
f 66/4/4 3/3/3 108/103/97 192/102/96
f 75/271/85 193/98/92 112/101/95 34/272/86
f 33/273/211 71/274/212 193/98/92 75/271/85
f 71/274/212 12/150/141 83/99/93 193/98/92
f 166/85/79 194/94/88 118/97/91 30/86/80
f 29/275/197 146/276/87 194/94/88 166/85/79
f 146/276/87 34/264/86 102/95/89 194/94/88
f 103/250/205 195/90/84 146/93/87 29/251/197
f 1/252/206 147/277/213 195/90/84 103/250/205
f 147/277/213 33/278/211 75/91/85 195/90/84
f 120/89/83 89/279/207 32/100/94
f 120/89/83 88/88/82 89/279/207
f 88/88/82 28/243/199 89/279/207
f 153/280/113 196/84/78 119/87/81 31/267/114
f 28/281/199 138/282/198 196/84/78 153/280/113
f 138/282/198 29/275/197 166/85/79 196/84/78
f 61/283/74 197/80/77 62/83/67 27/284/75
f 26/285/64 99/286/63 197/80/77 61/283/74
f 99/286/63 25/287/71 76/81/70 197/80/77
f 63/288/50 198/76/73 90/79/76 19/289/51
f 23/290/59 98/67/65 198/76/73 63/288/50
f 98/67/65 26/66/64 61/77/74 198/76/73
f 135/291/46 199/72/69 113/75/72 22/292/47
f 21/293/55 95/294/214 199/72/69 135/291/46
f 95/294/214 24/295/68 76/73/70 199/72/69
f 115/296/42 200/68/66 86/71/61 20/297/43
f 19/289/51 90/79/76 200/68/66 115/296/42
f 90/79/76 27/78/75 62/69/67 200/68/66
f 92/298/58 201/64/62 98/67/65 23/290/59
f 22/292/47 113/75/72 201/64/62 92/298/58
f 113/75/72 25/74/71 99/65/63 201/64/62
f 130/63/54 95/294/214 21/293/55
f 130/63/54 86/62/61 95/294/214
f 86/62/61 24/295/68 95/294/214
f 116/299/26 202/57/57 114/60/60 17/300/27
f 16/301/35 139/48/48 202/57/57 116/299/26
f 139/48/48 22/47/47 92/58/58 202/57/57
f 136/302/22 203/53/53 64/56/56 15/303/23
f 14/304/31 156/305/44 203/53/53 136/302/22
f 156/305/44 20/306/43 130/54/54 203/53/53
f 94/307/38 204/49/49 161/52/52 18/308/39
f 17/300/27 114/60/60 204/49/49 94/307/38
f 114/60/60 23/59/59 63/50/50 204/49/49
f 96/309/34 205/45/45 139/48/48 16/301/35
f 15/303/23 64/56/56 205/45/45 96/309/34
f 64/56/56 21/55/55 135/46/46 205/45/45
f 134/310/30 206/41/41 156/44/44 14/311/31
f 18/308/39 161/52/52 206/41/41 134/310/30
f 161/52/52 19/51/51 115/42/42 206/41/41
f 124/10/10 207/37/37 84/40/40 9/11/11
f 8/19/19 105/28/28 207/37/37 124/10/10
f 105/28/28 17/27/27 94/38/38 207/37/37
f 87/6/6 208/33/33 59/36/36 6/7/7
f 5/248/204 157/24/24 208/33/33 87/6/6
f 157/24/24 15/23/23 96/34/34 208/33/33
f 72/240/200 209/29/29 77/32/32 13/241/201
f 9/11/11 84/40/40 209/29/29 72/240/200
f 84/40/40 18/39/39 134/30/30 209/29/29
f 78/18/18 210/25/25 105/28/28 8/19/19
f 6/7/7 59/36/36 210/25/25 78/18/18
f 59/36/36 16/35/35 116/26/26 210/25/25
f 65/247/203 211/21/21 157/24/24 5/248/204
f 13/246/201 77/312/32 211/21/21 65/247/203
f 77/312/32 14/313/31 136/22/22 211/21/21
f 108/103/97 212/17/17 106/20/20 7/104/98
f 3/3/3 131/8/8 212/17/17 108/103/97
f 131/8/8 6/7/7 78/18/18 212/17/17
f 143/314/215 213/13/13 109/16/16 12/150/141
f 11/269/209 140/105/99 213/13/13 143/314/215
f 140/105/99 7/104/98 158/14/14 213/13/13
f 158/14/14 214/9/9 121/12/12 10/15/15
f 7/104/98 106/20/20 214/9/9 158/14/14
f 106/20/20 8/19/19 124/10/10 214/9/9
f 100/2/2 215/5/5 131/8/8 3/3/3
f 2/151/142 127/159/150 215/5/5 100/2/2
f 127/159/150 5/248/204 87/6/6 215/5/5
f 110/315/216 216/1/1 66/4/4 4/270/210
f 1/252/206 150/152/143 216/1/1 110/315/216
f 150/152/143 2/151/142 100/2/2 216/1/1
