# Blender v2.78 (sub 0) OBJ File: ''
# www.blender.org
mtllib Birch_Tree_NoLeaves_l_03.mtl
o Birch_Tree_NoLeaves_l_03
v -0.123232 0.046706 0.206998
v -0.114444 0.676701 0.193428
v -0.211290 0.676705 -0.094247
v -0.264016 0.046706 -0.072697
v 0.104560 0.046706 -0.245558
v 0.042256 0.676694 -0.272071
v 0.295802 0.676683 -0.094296
v 0.473136 0.046706 -0.072697
v 0.332353 0.046706 0.206998
v 0.198956 0.676687 0.193397
v 0.449722 2.128359 -0.140787
v 0.305749 4.036658 -0.205235
v 0.244617 4.040333 -0.016033
v 0.375970 2.128623 0.086370
v 0.137303 2.129479 0.086809
v 0.045815 4.045288 -0.016041
v -0.014337 4.055896 -0.205151
v 0.063551 2.129742 -0.140077
v 0.256636 2.129051 -0.280740
v 0.145706 4.046278 -0.322115
v 0.108960 5.957559 0.075572
v 0.100474 6.146539 -0.089885
v 0.240839 6.086418 -0.221312
v 0.361857 6.059782 -0.128885
v 0.290747 6.103246 0.057164
v 0.661023 7.448221 -0.382192
v 0.622726 7.449203 -0.263543
v -0.249961 6.564183 0.703926
v -0.266026 6.644463 0.599257
v 0.558290 7.447814 -0.454109
v 0.500405 7.454444 -0.263753
v 0.182332 6.341733 0.053976
v 0.462394 7.447001 -0.384038
v 0.486882 9.416980 -0.518415
v 0.605956 9.363343 -0.486986
v 0.581639 9.517582 -0.406221
v 0.477584 9.522572 -0.408699
v 0.666984 12.599451 -0.486275
v 0.664434 12.535244 -0.513257
v 0.601271 9.678225 -0.495450
v 0.693619 12.604932 -0.505942
v 0.685783 12.538918 -0.483669
v -0.137542 6.620454 0.729358
v -0.168025 6.706194 0.628024
v -0.439276 7.497808 1.058022
v -0.451559 7.470937 1.158765
v -0.540766 7.453449 1.153374
v -0.523823 7.477265 1.059002
v -1.094782 8.672273 1.067107
v -1.034024 8.685168 1.065224
v -1.108768 8.657745 1.135365
v -1.044941 8.668515 1.138155
v -1.311468 10.319406 1.052379
v -1.315623 10.313098 1.080023
v -1.339821 10.309002 1.078986
v -1.334529 10.314523 1.053072
v 1.015169 9.874053 -0.385368
v 1.022998 9.833991 -0.311764
v 1.813774 11.026619 -0.175995
v 1.802524 11.036016 -0.211727
v 1.051311 9.818721 -0.367898
v 1.829159 11.020059 -0.198124
v 0.648668 7.448912 -0.320658
v 0.232416 4.041099 -0.272910
v 0.785879 9.669963 -0.443887
v 0.314507 3.067592 0.030074
v 0.474605 6.763724 -0.115582
v 0.515752 6.755319 -0.249576
v 0.319382 5.065340 -0.161251
v -1.243507 9.533147 1.105491
v -0.825943 8.029988 1.159179
v 0.151080 1.366601 -0.275586
v 0.096854 3.073189 0.030323
v 0.538031 9.628473 -0.516421
v 0.569815 11.117931 -0.450782
v 0.508090 7.529228 -0.431218
v 0.042256 0.676694 0.211007
v -1.192856 9.551731 1.057961
v 0.084279 6.008762 0.004147
v 0.310547 0.046706 -0.177801
v -1.105748 8.664254 1.101207
v 0.004504 6.470651 0.337298
v 0.138271 6.307636 -0.011706
v 0.600824 8.431121 -0.341790
v -0.060226 6.290968 0.378556
v 0.625272 11.123167 -0.449869
v -0.295642 7.081217 0.859705
v 0.474606 7.450522 -0.321686
v 0.306331 6.071856 -0.182396
v 0.264113 0.676685 0.054988
v 0.601958 9.694487 -0.450692
v 0.067106 0.314875 -0.262185
v -0.388413 7.040877 0.849507
v 0.603586 9.349459 -0.439272
v 0.265352 5.069275 0.008235
v 1.033903 9.847227 -0.381077
v 0.405490 6.768775 -0.332262
v 0.038555 5.100629 -0.160986
v 0.386736 0.314875 -0.083175
v -0.218455 6.680584 0.607042
v 0.594479 9.492723 -0.499178
v 0.084763 5.041297 0.007968
v 0.205681 3.070391 -0.305211
v 1.438727 10.451683 -0.239166
v 1.038794 9.823106 -0.336665
v -0.497254 7.460827 1.162255
v 0.058996 4.051456 -0.272868
v 0.286006 4.037898 -0.107106
v -0.252524 0.314875 -0.083175
v 0.240431 6.283766 0.067705
v 0.481499 8.331240 -0.459446
v 0.492210 8.427332 -0.342624
v 0.613855 7.448141 -0.423934
v -1.327689 10.350574 1.052018
v -0.094859 0.676699 -0.197393
v 0.029596 3.074918 -0.176894
v -0.228734 0.046706 0.074283
v -0.735547 8.063154 1.074350
v -0.809023 8.047555 1.076635
v -1.318241 10.349862 1.065487
v 0.015142 1.366657 0.142914
v 0.256636 2.129051 0.100156
v 0.361154 2.128698 -0.221755
v -0.130436 0.314874 0.206468
v -1.200251 9.540445 1.107386
v 0.670177 12.635466 -0.500465
v -1.341858 10.345375 1.065315
v -1.234026 9.542991 1.059241
v 0.689678 12.785357 -0.498692
v 0.189355 5.984315 0.085691
v -0.192321 6.587063 0.723241
v 0.779971 9.617979 -0.364918
v -0.389380 6.989928 0.948564
v -0.289257 7.026377 0.964907
v 0.682328 12.637733 -0.509422
v 0.175346 6.100978 -0.182112
v -1.077649 8.662136 1.141261
v -1.035510 8.677597 1.101718
v 0.004916 4.051190 -0.107068
v 0.575725 11.114642 -0.518590
v 0.639041 11.154500 -0.503336
v 1.847019 11.063796 -0.182531
v -0.748745 8.043010 1.162561
v 0.371033 1.366512 -0.115982
v 0.296198 6.785494 -0.249404
v 0.179371 0.676689 -0.197418
v 1.841677 11.067706 -0.198738
v -0.085837 6.393210 0.260208
v 0.071653 6.358068 0.397603
v -0.146169 6.667093 0.680313
v 0.346807 6.062856 -0.051060
v 0.521368 9.525324 -0.401614
v 0.632849 8.421710 -0.444303
v 0.525992 8.332064 -0.491771
v 0.352835 6.829279 -0.117251
v 0.104560 0.046706 0.230079
v -1.063609 8.679716 1.061664
v 0.287018 1.366546 0.142665
v 0.179213 5.084720 -0.265816
v 0.807253 9.600472 -0.433081
v -0.068873 1.366691 -0.115579
v 0.537148 9.355101 -0.511880
v 0.087524 2.129623 -0.022415
v 1.834645 11.070654 -0.188870
v 0.474652 9.517987 -0.463179
v 0.437855 0.046706 0.074283
v 0.381766 3.065863 -0.177297
v 1.427703 10.475518 -0.294315
v 0.692452 12.639475 -0.495394
v 0.152119 2.129404 -0.221367
v -1.332410 10.344662 1.078783
v -0.480458 7.488903 1.052326
v 0.425749 2.128479 -0.023043
v 0.680301 12.637207 -0.486437
v -0.101427 0.046706 -0.177801
v 1.016783 9.856432 -0.347289
v -0.179601 0.676703 0.055027
v -0.439959 7.485410 1.108433
v 0.264649 0.314874 0.206468
v 0.561565 7.451824 -0.256498
v 0.145216 4.042810 -0.004621
v -0.537753 7.464320 1.106148
v -0.264608 6.600554 0.649970
v 1.461074 10.440793 -0.277823
v 0.103293 5.095215 -0.221640
v 1.451382 10.444283 -0.256103
v 1.444766 10.458588 -0.289201
v 0.794128 9.605171 -0.396002
v 0.797674 9.636369 -0.443395
v 0.781301 9.646875 -0.402488
v 0.607999 11.135448 -0.514758
v 1.431355 10.465124 -0.266001
v -1.344118 10.448453 1.063258
v -1.241408 9.537567 1.082347
v -1.212913 9.548023 1.055607
v -1.222407 9.536135 1.109432
v -1.193912 9.546590 1.082692
v -0.788287 8.035318 1.166213
v -0.737431 8.053978 1.118490
v -0.822198 8.037876 1.117873
v -0.771343 8.056535 1.070149
v -0.394933 7.012999 0.898205
v -0.342197 7.064358 0.848214
v -0.339149 7.004842 0.963127
v -0.286413 7.056201 0.913137
v 0.045033 6.418883 0.370459
v -0.043570 6.438653 0.293162
v 0.317573 6.809926 -0.180884
v 0.008616 6.317796 0.393670
v 0.596928 11.119671 -0.446531
v 0.270215 1.366553 -0.208398
v 0.343844 1.366523 0.018142
v 0.031946 1.366650 -0.208179
v -0.041684 1.366680 0.018496
v 0.151080 1.366601 0.158370
v 0.635873 11.140244 -0.476097
v 0.569053 11.114876 -0.485192
v 0.478549 8.424402 -0.399867
v 0.623373 8.426487 -0.391475
v 0.545961 8.429700 -0.335514
v 0.583270 8.421994 -0.475686
v 0.345768 6.776062 -0.297300
v 0.414205 6.798135 -0.108400
v 0.465212 6.761487 -0.297460
v -0.079986 6.337565 0.316373
v 0.502122 6.756982 -0.180032
v 0.174813 5.053553 0.018298
v 0.302055 5.067736 -0.073348
v 0.255134 5.074223 -0.221800
v 0.051972 5.070535 -0.073359
v 0.110307 3.072843 -0.251149
v 0.205680 3.070390 0.042689
v 0.301055 3.067938 -0.251368
v 0.051362 3.074358 -0.069412
v 0.359999 3.066422 -0.069765
v 0.347226 0.314875 0.067040
v -0.106017 0.314875 -0.186800
v 0.067106 0.314874 0.223922
v 0.240230 0.314875 -0.186800
v -0.213013 0.314875 0.067040
vt 0.1971 0.0482
vt 0.1922 0.0784
vt 0.1762 0.0762
vt 0.1807 0.0457
vt 0.1224 0.0431
vt 0.1249 0.0766
vt 0.1067 0.0764
vt 0.1030 0.0410
vt 0.0486 0.0492
vt 0.0525 0.0803
vt 0.0353 0.0824
vt 0.0284 0.0534
vt 0.1612 0.0455
vt 0.1596 0.0765
vt 0.1431 0.0768
vt 0.1418 0.0452
vt 0.0859 0.0430
vt 0.0882 0.0773
vt 0.0696 0.0783
vt 0.0688 0.0451
vt 0.1023 0.3280
vt 0.1050 0.4238
vt 0.0940 0.4244
vt 0.0908 0.3282
vt 0.1721 0.3289
vt 0.1683 0.4262
vt 0.1579 0.4260
vt 0.1603 0.3285
vt 0.1253 0.3280
vt 0.1266 0.4239
vt 0.1160 0.4233
vt 0.1138 0.3278
vt 0.0793 0.3292
vt 0.0834 0.4257
vt 0.0727 0.4270
vt 0.0677 0.3302
vt 0.1486 0.3284
vt 0.1476 0.4252
vt 0.1372 0.4245
vt 0.1367 0.3282
vt 0.1645 0.5272
vt 0.1608 0.6283
vt 0.1519 0.6344
vt 0.1549 0.5302
vt 0.1268 0.5269
vt 0.1270 0.6299
vt 0.1188 0.6288
vt 0.1174 0.5260
vt 0.1078 0.5269
vt 0.1107 0.6299
vt 0.1025 0.6310
vt 0.0983 0.5277
vt 0.0886 0.5264
vt 0.0939 0.6270
vt 0.0853 0.6230
vt 0.0790 0.5250
vt 0.0646 0.6887
vt 0.0650 0.7516
vt 0.0592 0.7506
vt 0.0578 0.6873
vt 0.1948 0.6746
vt 0.2027 0.6755
vt 0.2011 0.7172
vt 0.1945 0.7170
vt 0.0785 0.6905
vt 0.0768 0.7526
vt 0.0709 0.7527
vt 0.0714 0.6900
vt 0.0510 0.6898
vt 0.0532 0.7499
vt 0.0473 0.7491
vt 0.0443 0.6923
vt 0.0923 0.6901
vt 0.0888 0.7515
vt 0.0828 0.7525
vt 0.0855 0.6910
vt 0.0761 0.8421
vt 0.0754 0.9317
vt 0.0697 0.9312
vt 0.0703 0.8419
vt 0.0547 0.8413
vt 0.0560 0.9328
vt 0.0514 0.9326
vt 0.0494 0.8408
vt 0.0948 0.7506
vt 0.0879 0.8414
vt 0.0651 0.8419
vt 0.0652 0.9321
vt 0.0607 0.9330
vt 0.0600 0.8418
vt 0.0938 0.8416
vt 0.0867 0.9327
vt 0.0810 0.9322
vt 0.1406 0.8326
vt 0.1447 0.8332
vt 0.1333 0.9850
vt 0.1307 0.9847
vt 0.1246 0.8344
vt 0.1282 0.8363
vt 0.1229 0.9850
vt 0.1204 0.9848
vt 0.0638 0.1565
vt 0.0751 0.2327
vt 0.0627 0.2333
vt 0.0490 0.1578
vt 0.1840 0.1550
vt 0.1759 0.2316
vt 0.1628 0.2311
vt 0.1695 0.1537
vt 0.1546 0.1540
vt 0.1495 0.2315
vt 0.1363 0.2319
vt 0.1397 0.1544
vt 0.0939 0.1548
vt 0.0996 0.2323
vt 0.0876 0.2321
vt 0.0786 0.1552
vt 0.1244 0.1544
vt 0.1240 0.2322
vt 0.1117 0.2324
vt 0.1092 0.1544
vt 0.0311 0.8457
vt 0.0323 0.8467
vt 0.0311 0.8469
vt 0.0331 0.8458
vt 0.0333 0.8468
vt 0.0321 0.8457
vt 0.1335 0.6785
vt 0.1391 0.6791
vt 0.1335 0.6831
vt 0.1175 0.8321
vt 0.1211 0.8324
vt 0.1178 0.9846
vt 0.1152 0.9843
vt 0.1509 0.6757
vt 0.1587 0.6751
vt 0.1591 0.7196
vt 0.1524 0.7191
vt 0.1061 0.6914
vt 0.1132 0.6937
vt 0.1070 0.7503
vt 0.1009 0.7505
vt 0.1804 0.6775
vt 0.1868 0.6737
vt 0.1878 0.7169
vt 0.1815 0.7183
vt 0.1663 0.6782
vt 0.1739 0.6813
vt 0.1753 0.7196
vt 0.1672 0.7196
vt 0.1680 0.7666
vt 0.1746 0.7664
vt 0.1739 0.8131
vt 0.1687 0.8135
vt 0.1556 0.7671
vt 0.1613 0.7667
vt 0.1635 0.8139
vt 0.1589 0.8151
vt 0.1799 0.7661
vt 0.1852 0.7659
vt 0.1826 0.8150
vt 0.1782 0.8140
vt 0.1912 0.7665
vt 0.1972 0.7671
vt 0.1932 0.8169
vt 0.1879 0.8160
vt 0.1768 0.8787
vt 0.1806 0.8794
vt 0.1785 0.9438
vt 0.1754 0.9434
vt 0.1850 0.8797
vt 0.1894 0.8800
vt 0.1856 0.9431
vt 0.1820 0.9434
vt 0.1685 0.8779
vt 0.1731 0.8780
vt 0.1723 0.9430
vt 0.1684 0.9423
vt 0.1600 0.8786
vt 0.1640 0.8777
vt 0.1645 0.9415
vt 0.1611 0.9421
vt 0.0434 0.5236
vt 0.0460 0.5241
vt 0.0447 0.6062
vt 0.0434 0.6059
vt 0.0384 0.5234
vt 0.0408 0.5231
vt 0.0421 0.6056
vt 0.0407 0.6056
vt 0.0482 0.5243
vt 0.0505 0.5245
vt 0.0474 0.6061
vt 0.0461 0.6062
vt 0.0530 0.5242
vt 0.0555 0.5238
vt 0.0504 0.6056
vt 0.0489 0.6058
vt 0.0235 0.8134
vt 0.0235 0.8120
vt 0.0246 0.8123
vt 0.0245 0.8137
vt 0.0385 0.3380
vt 0.0419 0.3378
vt 0.0418 0.4145
vt 0.0399 0.4143
vt 0.1323 0.8342
vt 0.1364 0.8320
vt 0.1280 0.9843
vt 0.1255 0.9847
vt 0.0372 0.2370
vt 0.0424 0.2356
vt 0.0420 0.2610
vt 0.0371 0.2617
vt 0.0281 0.2369
vt 0.0320 0.2384
vt 0.0323 0.2623
vt 0.0283 0.2618
vt 0.0465 0.2355
vt 0.0508 0.2354
vt 0.0494 0.2612
vt 0.0457 0.2611
vt 0.0345 0.8826
vt 0.0324 0.8826
vt 0.0331 0.8814
vt 0.0323 0.3381
vt 0.0351 0.3382
vt 0.0380 0.4141
vt 0.0363 0.4145
vt 0.0445 0.3379
vt 0.0471 0.3379
vt 0.0448 0.4147
vt 0.0433 0.4146
vt 0.1456 0.5289
vt 0.1436 0.6327
vt 0.1353 0.6309
vt 0.1362 0.5277
vt 0.0295 0.3381
vt 0.0346 0.4149
vt 0.0244 0.2613
vt 0.0310 0.8814
vt 0.0317 0.8801
vt 0.0303 0.8826
vt 0.0427 0.2102
vt 0.0474 0.2099
vt 0.0521 0.2096
vt 0.0242 0.2354
vt 0.0240 0.2096
vt 0.0279 0.2120
vt 0.0317 0.2144
vt 0.0372 0.2123
vt 0.1334 0.6877
vt 0.1391 0.6837
vt 0.1448 0.6798
vt 0.0234 0.8147
vt 0.0245 0.8150
vt 0.0224 0.8144
vt 0.0224 0.8131
vt 0.0224 0.8118
vt 0.0535 0.4429
vt 0.0571 0.4425
vt 0.0606 0.4421
vt 0.0473 0.4420
vt 0.0504 0.4424
vt 0.0360 0.5236
vt 0.0393 0.6056
vt 0.0327 0.4417
vt 0.0361 0.4411
vt 0.0395 0.4405
vt 0.0434 0.4412
vt 0.1560 0.8795
vt 0.1577 0.9427
vt 0.1543 0.8162
vt 0.1499 0.7674
vt 0.1456 0.7185
vt 0.1584 0.6305
vt 0.1655 0.6367
vt 0.1725 0.6430
vt 0.1792 0.6367
vt 0.1858 0.6305
vt 0.0990 0.6892
vt 0.1032 0.6279
vt 0.1113 0.6324
vt 0.1194 0.6370
vt 0.1431 0.6764
vt 0.1405 0.6343
vt 0.1495 0.6324
vt 0.1138 0.8318
vt 0.1126 0.9840
vt 0.1151 0.6795
vt 0.1197 0.6798
vt 0.1244 0.6802
vt 0.0335 0.8477
vt 0.0323 0.8479
vt 0.0311 0.8481
vt 0.2082 0.0806
vt 0.1986 0.1564
vt 0.1890 0.2322
vt 0.1289 0.6839
vt 0.1505 0.6805
vt 0.1561 0.6813
vt 0.0997 0.8418
vt 0.0924 0.9333
vt 0.0819 0.8424
vt 0.0958 0.6287
vt 0.0883 0.6294
vt 0.0488 0.6297
vt 0.0413 0.6354
vt 0.0563 0.6240
vt 0.0801 0.6284
vt 0.0720 0.6273
vt 0.1951 0.6322
vt 0.2043 0.6339
vt 0.0641 0.6257
vt 0.1787 0.4264
vt 0.1741 0.5243
vt 0.1696 0.6221
vt 0.1838 0.3293
vt 0.0836 0.0088
vt 0.0680 0.0119
vt 0.0992 0.0056
vt 0.1628 0.0144
vt 0.1404 0.0135
vt 0.1853 0.0153
vt 0.0448 0.0181
vt 0.0215 0.0243
vt 0.1198 0.0095
vt 0.2021 0.0180
vt 0.2188 0.0207
vt 0.2135 0.0507
vn -0.9216 0.0662 0.3824
vn -0.9324 0.1470 0.3302
vn -0.9397 0.1279 -0.3173
vn -0.9385 0.0486 -0.3420
vn 0.4904 0.0712 -0.8686
vn 0.5479 -0.0131 -0.8365
vn 0.9394 0.0424 -0.3403
vn 0.9063 0.2363 -0.3504
vn -0.0020 0.0292 0.9996
vn -0.0074 0.0595 0.9982
vn -0.5763 0.1147 0.8092
vn -0.5354 0.0383 0.8437
vn -0.4963 -0.0267 -0.8678
vn -0.5584 0.0442 -0.8284
vn -0.0336 -0.0006 -0.9994
vn -0.0059 -0.0160 -0.9999
vn 0.8926 0.2493 0.3756
vn 0.9391 0.0631 0.3378
vn 0.5337 0.0638 0.8433
vn 0.5134 0.1414 0.8464
vn 0.9484 0.0829 0.3062
vn 0.9518 0.0300 0.3051
vn 0.5850 0.0250 0.8107
vn 0.5886 0.0838 0.8041
vn -0.9514 -0.0273 0.3067
vn -0.9555 0.0004 0.2948
vn -0.9480 0.0060 -0.3182
vn -0.9495 -0.0491 -0.3100
vn 0.5882 0.0179 -0.8085
vn 0.5886 0.0249 -0.8080
vn 0.9463 0.0332 -0.3216
vn 0.9487 0.0607 -0.3104
vn 0.0023 0.0550 0.9985
vn -0.0022 0.0128 0.9999
vn -0.6066 0.0050 0.7950
vn -0.5879 0.0155 0.8088
vn -0.5889 -0.0501 -0.8066
vn -0.5913 0.0079 -0.8064
vn -0.0134 0.0171 -0.9998
vn 0.0002 -0.0214 -0.9998
vn -0.9692 0.0279 0.2447
vn -0.9909 -0.1348 -0.0059
vn -0.8720 0.0958 -0.4800
vn -0.9362 0.0657 -0.3453
vn 0.5979 0.0137 -0.8014
vn 0.5823 -0.1305 -0.8024
vn 0.9484 -0.1400 -0.2845
vn 0.9523 -0.0150 -0.3046
vn 0.9484 -0.0365 0.3150
vn 0.9370 -0.0946 0.3364
vn 0.7430 -0.1045 0.6611
vn 0.6106 -0.0470 0.7906
vn 0.0317 -0.0452 0.9985
vn 0.2196 -0.2961 0.9296
vn -0.6246 -0.3399 0.7031
vn -0.6042 -0.0147 0.7967
vn 0.9381 -0.1445 0.3147
vn 0.9540 -0.0476 0.2962
vn 0.6338 0.0455 0.7722
vn 0.6676 0.0199 0.7442
vn -0.9150 -0.3639 -0.1743
vn -0.5091 -0.7480 0.4259
vn -0.5644 -0.6756 0.4745
vn -0.9320 -0.3413 -0.1221
vn 0.5552 -0.2627 -0.7891
vn 0.5380 -0.1476 -0.8299
vn 0.9330 -0.1209 -0.3390
vn 0.9209 -0.2521 -0.2972
vn 0.1467 0.2221 0.9639
vn 0.0333 0.1443 0.9890
vn -0.5765 0.1907 0.7945
vn -0.5084 0.3641 0.7803
vn -0.6210 0.0088 -0.7838
vn -0.5815 -0.0456 -0.8123
vn 0.0037 -0.1140 -0.9935
vn -0.0213 -0.1648 -0.9861
vn 0.3872 -0.0244 -0.9217
vn 0.2839 -0.0269 -0.9585
vn 0.7467 -0.2238 -0.6264
vn 0.9069 0.0060 -0.4213
vn -0.0145 0.0701 0.9974
vn -0.0330 0.0439 0.9985
vn -0.7375 0.0488 0.6736
vn -0.6696 0.0485 0.7411
vn -0.9342 0.0869 -0.3461
vn -0.8944 -0.0183 -0.4469
vn 0.9585 0.0413 0.2822
vn 0.9200 -0.1581 0.3586
vn 0.1057 -0.0096 0.9943
vn 0.5874 0.0680 0.8064
vn -0.9971 0.0054 0.0754
vn -0.9965 0.0357 -0.0759
vn -0.6093 -0.0096 -0.7929
vn -0.9933 0.0603 -0.0982
vn -0.7516 0.0635 0.6566
vn -0.7520 0.0722 0.6552
vn -0.9132 0.1319 -0.3855
vn 0.9779 -0.0277 0.2071
vn 0.8416 -0.0291 -0.5393
vn 0.8516 -0.0248 -0.5236
vn 0.8841 0.0290 0.4665
vn 0.0018 0.0758 0.9971
vn 0.0088 0.0680 0.9976
vn -0.5641 0.0891 0.8209
vn -0.5726 0.1590 0.8043
vn -0.9330 0.1886 0.3066
vn -0.9475 0.0780 0.3102
vn -0.9467 0.0544 -0.3175
vn -0.9357 0.1678 -0.3103
vn -0.5818 0.0858 -0.8088
vn -0.5843 0.0129 -0.8114
vn 0.0287 -0.0187 -0.9994
vn 0.0017 -0.0056 -1.0000
vn 0.9465 -0.0890 0.3103
vn 0.9518 -0.0020 0.3066
vn 0.6078 0.0355 0.7933
vn 0.5874 -0.0120 0.8092
vn 0.5818 -0.0865 -0.8088
vn 0.5913 -0.0359 -0.8056
vn 0.9535 -0.0244 -0.3004
vn 0.9449 -0.1108 -0.3080
vn 0.0547 0.9985 -0.0057
vn 0.6089 -0.0046 0.7932
vn 0.1758 0.0737 0.9817
vn 0.2936 -0.0354 -0.9553
vn -0.0310 0.0287 0.9991
vn 0.6004 0.0013 0.7997
vn 0.2799 -0.6204 0.7327
vn 0.7805 -0.1080 0.6157
vn 0.7181 -0.1684 0.6752
vn 0.1249 -0.5961 0.7931
vn -0.9156 0.3301 0.2295
vn -0.9577 0.1572 0.2410
vn -0.2503 0.7532 -0.6083
vn -0.8161 0.1943 -0.5443
vn -0.8031 0.1559 -0.5751
vn -0.1450 0.6246 -0.7674
vn 0.8344 0.5166 0.1922
vn 0.4245 0.8585 -0.2878
vn 0.5558 0.6863 -0.4692
vn 0.9082 0.4090 0.0894
vn 0.9509 0.2947 0.0949
vn 0.6438 0.5282 -0.5536
vn 0.7216 0.4610 -0.5165
vn 0.9125 0.3608 0.1929
vn 0.0247 -0.4429 0.8962
vn 0.6963 -0.1034 0.7102
vn 0.6086 0.0814 0.7893
vn -0.0152 -0.2144 0.9766
vn -0.0925 0.4581 -0.8841
vn -0.7316 0.1397 -0.6672
vn -0.6593 -0.0931 -0.7461
vn -0.0495 0.2238 -0.9734
vn -0.9625 -0.2394 -0.1279
vn -0.6687 -0.4986 0.5517
vn -0.6720 -0.4000 0.6232
vn -0.9199 -0.3320 -0.2088
vn -0.0214 -0.0023 -0.9998
vn -0.5765 -0.2715 -0.7707
vn -0.6321 -0.1926 -0.7506
vn -0.0332 -0.0217 -0.9992
vn -0.8722 -0.4139 -0.2606
vn -0.7434 -0.3403 0.5757
vn -0.7988 -0.2270 0.5571
vn -0.9284 -0.2801 -0.2443
vn 0.8702 0.4370 0.2274
vn 0.7063 0.3608 -0.6091
vn 0.7216 0.2165 -0.6576
vn 0.9286 0.3069 0.2088
vn -0.0520 -0.0096 0.9986
vn 0.5434 0.2806 0.7911
vn 0.5563 0.2165 0.8023
vn -0.0621 0.0169 0.9979
vn 0.9694 0.1668 0.1800
vn 0.7581 0.1226 -0.6406
vn 0.7562 0.1276 -0.6418
vn 0.9469 0.2876 0.1439
vn -0.0518 0.0288 0.9982
vn 0.6153 0.1300 0.7775
vn 0.6204 0.1319 0.7731
vn -0.1358 0.1674 0.9765
vn -0.0254 -0.0101 -0.9996
vn -0.6393 -0.0979 -0.7627
vn -0.6367 -0.0772 -0.7672
vn 0.0777 0.1654 -0.9832
vn -0.9639 -0.1400 -0.2266
vn -0.8004 -0.0919 0.5924
vn -0.8006 -0.0659 0.5955
vn -0.9941 0.0071 -0.1078
vn -0.1490 0.9887 0.0192
vn -0.7943 0.4865 0.3639
vn -0.1458 -0.0143 0.9892
vn -0.1388 0.0149 0.9902
vn -0.2789 0.9241 0.2613
vn 0.2365 -0.0094 -0.9716
vn -0.5860 0.0359 -0.8095
vn -0.5826 0.0439 -0.8115
vn -0.1011 0.0822 -0.9915
vn -0.4300 0.7174 0.5481
vn -0.0747 -0.0464 0.9961
vn -0.0915 -0.0828 0.9924
vn -0.7296 0.5668 0.3825
vn 0.3105 -0.0574 -0.9488
vn -0.0111 0.7026 -0.7115
vn -0.4831 0.5614 -0.6719
vn 0.3315 -0.0814 -0.9399
vn 0.5263 -0.6557 0.5414
vn 0.6859 -0.5273 -0.5015
vn 0.7466 -0.5717 -0.3402
vn 0.6152 -0.6282 0.4764
vn -0.5284 0.4944 -0.6902
vn 0.4917 0.5711 -0.6574
vn 0.3521 -0.0950 -0.9311
vn -0.5498 0.4788 -0.6845
vn 0.6744 -0.5073 0.5365
vn 0.8166 -0.4819 -0.3177
vn 0.8363 -0.4638 -0.2924
vn 0.7782 0.2953 0.5543
vn -0.6030 0.0710 -0.7946
vn -0.6320 0.0529 -0.7732
vn -0.0401 -0.0543 -0.9977
vn 0.0002 0.0494 -0.9988
vn 0.5319 0.2407 -0.8118
vn 0.8050 0.3879 0.4489
vn 0.1950 -0.0031 -0.9808
vn 0.6202 0.3491 0.7025
vn -0.0395 0.9245 0.3791
vn -0.7846 0.5727 -0.2373
vn -0.9211 0.1880 -0.3409
vn -0.1264 -0.0418 -0.9911
vn 0.8778 0.2846 0.3853
vn 0.5438 0.1670 0.8224
vn 0.9121 0.2780 -0.3012
vn -0.4591 -0.0479 -0.8871
vn 0.0316 -0.0202 -0.9993
vn -0.9403 0.0223 -0.3395
vn 0.0084 0.0190 0.9998
vn -0.5001 0.0141 0.8658
vn 0.4734 0.0882 -0.8764
vn -0.9101 0.0399 0.4125
usemtl None
s 1
f 240/1/1 177/2/2 3/3/3 109/4/4
f 239/5/5 146/6/6 7/7/7 99/8/8
f 238/9/9 77/10/10 2/11/11 124/12/12
f 237/13/13 115/14/14 6/15/15 92/16/16
f 236/17/17 90/18/18 10/19/19 179/20/20
f 235/21/21 108/22/22 13/23/23 66/24/24
f 234/25/25 139/26/26 17/27/27 116/28/28
f 233/29/29 64/30/30 12/31/31 167/32/32
f 232/33/33 181/34/34 16/35/35 73/36/36
f 231/37/37 107/38/38 20/39/39 103/40/40
f 230/41/41 79/42/42 22/43/43 98/44/44
f 229/45/45 89/46/46 24/47/47 69/48/48
f 228/49/49 151/50/50 25/51/51 95/52/52
f 227/53/53 130/54/54 21/55/55 102/56/56
f 226/57/57 63/58/58 27/59/59 67/60/60
f 225/61/61 85/62/62 28/63/63 183/64/64
f 224/65/65 113/66/66 26/67/67 68/68/68
f 223/69/69 180/70/70 31/71/71 155/72/72
f 222/73/73 76/74/74 30/75/75 97/76/76
f 221/77/77 162/78/78 35/79/79 153/80/80
f 220/81/81 152/82/82 37/83/83 112/84/84
f 33/85/85 111/86/86 76/74/74
f 219/87/87 94/88/88 36/89/89 84/90/90
f 218/91/91 165/92/92 34/93/93 111/86/86
f 217/94/94 75/95/95 38/96/96 126/97/97
f 216/98/98 141/99/99 41/100/100 169/101/101
f 215/102/102 122/103/103 15/104/104 121/105/105
f 214/106/106 163/107/107 18/108/108 161/109/109
f 213/110/110 170/111/111 19/112/112 72/113/113
f 212/114/114 173/115/115 14/116/116 158/117/117
f 211/118/118 123/119/119 11/120/120 144/121/121
f 38/122/96 129/123/122 126/124/97
f 42/125/123 169/126/101 174/127/124
f 35/128/79 162/129/78 101/130/125
f 210/131/126 86/132/127 42/133/123 174/134/124
f 209/135/128 149/136/129 43/137/130 131/138/131
f 208/139/132 155/140/72 31/141/71 88/142/133
f 207/143/134 148/144/135 29/145/136 100/146/137
f 206/147/138 82/148/139 44/149/140 150/150/141
f 205/151/142 87/152/143 45/153/144 178/154/145
f 204/155/146 134/156/147 46/157/148 106/158/149
f 203/159/150 93/160/151 48/161/152 172/162/153
f 202/163/154 133/164/155 47/165/156 182/166/157
f 201/167/158 119/168/159 49/169/160 157/170/161
f 200/171/162 71/172/163 51/173/164 81/174/165
f 199/175/166 118/176/167 50/177/168 138/178/169
f 198/179/170 143/180/171 52/181/172 137/182/173
f 197/183/174 78/184/175 53/185/176 120/186/177
f 196/187/178 125/188/179 54/189/180 171/190/181
f 195/191/182 128/192/183 56/193/184 114/194/185
f 194/195/186 70/196/187 55/197/188 127/198/189
f 193/199/190 171/200/181 54/201/180 120/202/177
f 192/203/191 104/204/192 59/205/193 164/206/194
f 191/207/195 140/208/196 39/209/197 135/210/198
f 190/211/199 132/212/200 58/213/201 176/214/202
f 189/215/203 65/216/204 57/217/205 96/218/206
f 188/219/207 160/220/208 61/221/209 105/222/210
f 60/223/211 164/224/194 147/225/212
f 187/226/213 168/227/214 60/228/211 147/229/212
f 186/230/215 184/231/216 62/232/217 142/233/218
f 185/234/219 136/235/220 23/236/221 159/237/222
f 107/38/38 185/234/219 159/237/222 20/39/39
f 17/27/27 98/44/44 185/234/219 107/38/38
f 98/44/44 22/43/43 136/235/220 185/234/219
f 104/204/192 186/230/215 142/233/218 59/205/193
f 58/213/201 105/222/210 186/230/215 104/204/192
f 105/222/210 61/221/209 184/231/216 186/230/215
f 184/238/216 187/226/213 147/229/212 62/239/217
f 61/240/209 96/218/206 187/226/213 184/238/216
f 96/218/206 57/217/205 168/227/214 187/226/213
f 147/225/212 142/241/218 62/242/217
f 147/225/212 164/224/194 142/241/218
f 164/224/194 59/243/193 142/241/218
f 132/212/200 188/219/207 105/222/210 58/213/201
f 36/244/89 94/245/88 188/219/207 132/212/200
f 94/245/88 35/246/79 160/220/208 188/219/207
f 160/247/208 189/215/203 96/218/206 61/240/209
f 35/248/79 101/249/125 189/215/203 160/247/208
f 101/249/125 40/250/223 65/216/204 189/215/203
f 65/216/204 190/211/199 176/214/202 57/217/205
f 40/250/223 91/251/224 190/211/199 65/216/204
f 91/251/224 36/244/89 132/212/200 190/211/199
f 141/99/99 191/207/195 135/210/198 41/100/100
f 40/252/223 74/253/225 191/207/195 141/99/99
f 74/253/225 34/254/93 140/208/196 191/207/195
f 168/227/214 192/203/191 164/206/194 60/228/211
f 57/217/205 176/214/202 192/203/191 168/227/214
f 176/214/202 58/213/201 104/204/192 192/203/191
f 114/255/185 193/199/190 120/202/177 53/256/176
f 56/257/184 127/258/189 193/199/190 114/255/185
f 127/258/189 55/259/188 171/200/181 193/199/190
f 128/192/183 194/195/186 127/198/189 56/193/184
f 49/260/160 81/261/165 194/195/186 128/192/183
f 81/261/165 51/262/164 70/196/187 194/195/186
f 78/184/175 195/191/182 114/194/185 53/185/176
f 50/263/168 157/264/161 195/191/182 78/184/175
f 157/264/161 49/260/160 128/192/183 195/191/182
f 70/265/187 196/187/178 171/190/181 55/266/188
f 51/267/164 137/268/173 196/187/178 70/265/187
f 137/268/173 52/269/172 125/188/179 196/187/178
f 125/188/179 197/183/174 120/186/177 54/189/180
f 52/269/172 138/270/169 197/183/174 125/188/179
f 138/270/169 50/263/168 78/184/175 197/183/174
f 71/271/163 198/179/170 137/182/173 51/272/164
f 47/273/156 106/158/149 198/179/170 71/271/163
f 106/158/149 46/157/148 143/180/171 198/179/170
f 143/180/171 199/175/166 138/178/169 52/181/172
f 46/157/148 178/154/145 199/175/166 143/180/171
f 178/154/145 45/153/144 118/176/167 199/175/166
f 119/168/159 200/171/162 81/174/165 49/169/160
f 48/161/152 182/166/157 200/171/162 119/168/159
f 182/166/157 47/165/156 71/172/163 200/171/162
f 118/176/167 201/167/158 157/170/161 50/177/168
f 45/153/144 172/162/153 201/167/158 118/176/167
f 172/162/153 48/161/152 119/168/159 201/167/158
f 93/160/151 202/163/154 182/166/157 48/161/152
f 29/145/136 183/64/64 202/163/154 93/160/151
f 183/64/64 28/63/63 133/164/155 202/163/154
f 87/152/143 203/159/150 172/162/153 45/153/144
f 44/149/140 100/146/137 203/159/150 87/152/143
f 100/146/137 29/145/136 93/160/151 203/159/150
f 133/274/155 204/155/146 106/158/149 47/273/156
f 28/275/63 131/138/131 204/155/146 133/274/155
f 131/138/131 43/137/130 134/156/147 204/155/146
f 134/156/147 205/151/142 178/154/145 46/157/148
f 43/137/130 150/150/141 205/151/142 134/156/147
f 150/150/141 44/149/140 87/152/143 205/151/142
f 149/136/129 206/147/138 150/150/141 43/137/130
f 25/276/51 110/277/226 206/147/138 149/136/129
f 110/277/226 32/278/227 82/148/139 206/147/138
f 82/148/139 207/143/134 100/146/137 44/149/140
f 32/278/227 83/279/228 207/143/134 82/148/139
f 83/279/228 22/280/43 148/144/135 207/143/134
f 145/281/229 208/139/132 88/142/133 33/85/85
f 22/282/43 83/283/228 208/139/132 145/281/229
f 83/283/228 32/284/227 155/140/72 208/139/132
f 85/285/62 209/135/128 131/138/131 28/275/63
f 21/286/55 130/287/54 209/135/128 85/285/62
f 130/287/54 25/276/51 149/136/129 209/135/128
f 75/288/95 210/131/126 174/134/124 38/289/96
f 37/290/83 152/291/82 210/131/126 75/288/95
f 152/291/82 36/292/89 86/132/127 210/131/126
f 101/130/125 74/253/225 40/252/223
f 101/130/125 162/129/78 74/253/225
f 162/129/78 34/254/93 74/253/225
f 174/127/124 129/123/122 38/122/96
f 174/127/124 169/126/101 129/123/122
f 169/126/101 41/293/100 129/123/122
f 126/124/97 135/294/198 39/295/197
f 126/124/97 129/123/122 135/294/198
f 129/123/122 41/293/100 135/294/198
f 146/6/6 211/118/118 144/121/121 7/7/7
f 6/15/15 72/113/113 211/118/118 146/6/6
f 72/113/113 19/112/112 123/119/119 211/118/118
f 90/18/18 212/114/114 158/117/117 10/19/19
f 7/7/7 144/121/121 212/114/114 90/18/18
f 144/121/121 11/120/120 173/115/115 212/114/114
f 115/14/14 213/110/110 72/113/113 6/15/15
f 3/3/3 161/109/109 213/110/110 115/14/14
f 161/109/109 18/108/108 170/111/111 213/110/110
f 177/2/2 214/106/106 161/109/109 3/3/3
f 2/296/11 121/297/105 214/106/106 177/2/2
f 121/297/105 15/298/104 163/107/107 214/106/106
f 77/10/10 215/102/102 121/105/105 2/11/11
f 10/19/19 158/117/117 215/102/102 77/10/10
f 158/117/117 14/116/116 122/103/103 215/102/102
f 86/132/127 216/98/98 169/101/101 42/133/123
f 36/292/89 91/299/224 216/98/98 86/132/127
f 91/299/224 40/252/223 141/99/99 216/98/98
f 140/208/196 217/94/94 126/97/97 39/209/197
f 34/254/93 165/300/92 217/94/94 140/208/196
f 165/300/92 37/301/83 75/95/95 217/94/94
f 88/142/133 218/91/91 111/86/86 33/85/85
f 31/141/71 112/302/84 218/91/91 88/142/133
f 112/302/84 37/303/83 165/92/92 218/91/91
f 63/58/58 219/87/87 84/90/90 27/59/59
f 26/67/67 153/80/80 219/87/87 63/58/58
f 153/80/80 35/79/79 94/88/88 219/87/87
f 76/74/74 154/304/230 30/75/75
f 76/74/74 111/86/86 154/304/230
f 111/86/86 34/93/93 154/304/230
f 180/70/70 220/81/81 112/84/84 31/71/71
f 27/59/59 84/90/90 220/81/81 180/70/70
f 84/90/90 36/89/89 152/82/82 220/81/81
f 113/66/66 221/77/77 153/80/80 26/67/67
f 30/75/75 154/304/230 221/77/77 113/66/66
f 154/304/230 34/93/93 162/78/78 221/77/77
f 136/305/220 222/73/73 97/76/76 23/306/221
f 22/282/43 145/281/229 222/73/73 136/305/220
f 145/281/229 33/85/85 76/74/74 222/73/73
f 110/307/226 223/69/69 155/72/72 32/308/227
f 25/309/51 67/60/60 223/69/69 110/307/226
f 67/60/60 27/59/59 180/70/70 223/69/69
f 89/310/46 224/65/65 68/68/68 24/311/47
f 23/306/221 97/76/76 224/65/65 89/310/46
f 97/76/76 30/75/75 113/66/66 224/65/65
f 148/144/135 225/61/61 183/64/64 29/145/136
f 22/280/43 79/312/42 225/61/61 148/144/135
f 79/312/42 21/313/55 85/62/62 225/61/61
f 151/314/50 226/57/57 67/60/60 25/309/51
f 24/311/47 68/68/68 226/57/57 151/314/50
f 68/68/68 26/67/67 63/58/58 226/57/57
f 181/34/34 227/53/53 102/56/56 16/35/35
f 13/23/23 95/52/52 227/53/53 181/34/34
f 95/52/52 25/51/51 130/54/54 227/53/53
f 108/22/22 228/49/49 95/52/52 13/23/23
f 12/31/31 69/48/48 228/49/49 108/22/22
f 69/48/48 24/47/47 151/50/50 228/49/49
f 64/30/30 229/45/45 69/48/48 12/31/31
f 20/39/39 159/237/222 229/45/45 64/30/30
f 159/237/222 23/236/221 89/46/46 229/45/45
f 139/26/26 230/41/41 98/44/44 17/27/27
f 16/315/35 102/316/56 230/41/41 139/26/26
f 102/316/56 21/317/55 79/42/42 230/41/41
f 170/111/111 231/37/37 103/40/40 19/112/112
f 18/108/108 116/28/28 231/37/37 170/111/111
f 116/28/28 17/27/27 107/38/38 231/37/37
f 122/103/103 232/33/33 73/36/36 15/104/104
f 14/116/116 66/24/24 232/33/33 122/103/103
f 66/24/24 13/23/23 181/34/34 232/33/33
f 123/119/119 233/29/29 167/32/32 11/120/120
f 19/112/112 103/40/40 233/29/29 123/119/119
f 103/40/40 20/39/39 64/30/30 233/29/29
f 163/107/107 234/25/25 116/28/28 18/108/108
f 15/298/104 73/318/36 234/25/25 163/107/107
f 73/318/36 16/315/35 139/26/26 234/25/25
f 173/115/115 235/21/21 66/24/24 14/116/116
f 11/120/120 167/32/32 235/21/21 173/115/115
f 167/32/32 12/31/31 108/22/22 235/21/21
f 166/319/231 236/17/17 179/20/20 9/320/232
f 8/321/233 99/8/8 236/17/17 166/319/231
f 99/8/8 7/7/7 90/18/18 236/17/17
f 175/322/234 237/13/13 92/16/16 5/323/235
f 4/324/236 109/4/4 237/13/13 175/322/234
f 109/4/4 3/3/3 115/14/14 237/13/13
f 156/325/237 238/9/9 124/12/12 1/326/238
f 9/320/232 179/20/20 238/9/9 156/325/237
f 179/20/20 10/19/19 77/10/10 238/9/9
f 80/327/239 239/5/5 99/8/8 8/321/233
f 5/323/235 92/16/16 239/5/5 80/327/239
f 92/16/16 6/15/15 146/6/6 239/5/5
f 117/328/240 240/1/1 109/4/4 4/324/236
f 1/329/238 124/330/12 240/1/1 117/328/240
f 124/330/12 2/296/11 177/2/2 240/1/1
