# Blender v2.78 (sub 0) OBJ File: ''
# www.blender.org
mtllib Birch_Tree_NoLeaves_m_01.mtl
o Birch_Tree_NoLeaves_m_01
v 0.008831 0.157812 -0.167339
v 0.083997 1.648562 -0.145671
v 0.187990 1.698491 -0.067772
v 0.126008 0.160481 -0.081926
v 0.081046 0.147309 0.056378
v 0.158259 1.511707 0.041776
v 0.046272 1.661902 0.039646
v -0.063588 0.156163 0.056276
v -0.006363 1.626480 -0.077532
v -0.108346 0.155144 -0.081926
v 0.092121 2.771235 -0.073584
v 0.020032 2.768472 -0.128179
v -0.132714 6.023513 -0.086293
v -0.083725 6.099199 -0.038397
v -0.024595 2.766764 0.014871
v 0.064296 2.776089 0.014111
v -0.065059 5.907423 0.007972
v -0.126947 6.085812 -0.004911
v -0.052102 2.765709 -0.073510
v -0.161728 6.014899 -0.063915
v 0.351950 1.811827 0.135115
v 0.259987 1.871249 0.134254
v -0.379834 7.924113 -0.059403
v -0.370686 7.927498 -0.066118
v -0.108644 6.343534 0.001113
v 0.245017 6.748624 0.416138
v 0.246691 6.755331 0.408073
v -0.376135 7.925481 -0.048238
v -0.350900 7.841001 -0.053390
v 0.256401 6.740406 0.415948
v 0.256389 6.747880 0.402710
v 0.152112 1.888878 0.031727
v 0.276724 1.945139 0.078839
v 0.371307 1.898005 0.040489
v 0.384490 2.319864 0.222146
v 0.372414 2.340742 0.153632
v 0.465664 2.299396 0.232244
v 0.455331 2.318313 0.133286
v 0.613855 3.754513 0.286586
v 0.659474 3.742863 0.275755
v 0.666875 3.735855 0.331722
v 0.621745 3.745211 0.325472
v 0.778422 5.059212 0.323893
v 0.764657 5.096332 0.320072
v 0.757454 5.066592 0.306043
v 0.777532 5.095531 0.303106
v 0.034119 1.636138 -0.118342
v -0.381405 7.971595 -0.062710
v -0.021151 2.131532 -0.075674
v 0.726646 4.471530 0.294375
v 0.255162 6.767581 0.423347
v 0.154644 0.861525 -0.080628
v 0.775250 5.114547 0.321409
v 0.260626 6.766889 0.416584
v -0.228945 7.021344 -0.056697
v 0.159781 1.774481 0.087464
v 0.614216 3.750692 0.306210
v 0.412729 2.330748 0.136365
v 0.325325 1.928121 0.053549
v 0.284491 1.808809 -0.010739
v -0.116841 6.028326 -0.077007
v 0.117867 0.153895 -0.008114
v -0.019998 2.767091 -0.106531
v 0.084598 2.773662 -0.027601
v -0.384098 7.970598 -0.053874
v 0.112904 0.804525 0.047791
v -0.260018 7.121505 -0.074362
v -0.044738 2.766237 -0.027111
v 0.701625 4.473088 0.327347
v 0.082933 6.489592 0.210960
v -0.158487 6.015693 -0.045015
v 0.490624 3.008931 0.222089
v 0.501817 2.995740 0.277301
v 0.371665 2.331874 0.188231
v 0.003293 1.628459 -0.019831
v -0.373328 7.974583 -0.060625
v -0.083895 5.914902 0.010469
v 0.110361 2.207613 0.023386
v 0.214404 1.880365 0.053401
v -0.115546 6.409621 -0.019456
v 0.009995 2.140942 0.024334
v 0.260575 1.912451 0.107921
v 0.094195 6.453843 0.216036
v 0.019828 2.771427 0.021483
v -0.080650 4.353262 -0.006184
v 0.770525 5.117897 0.304754
v 0.001513 4.361288 -0.068788
v 0.133875 1.660986 -0.118342
v 0.060525 2.144575 -0.137533
v 0.731556 4.466879 0.331471
v 0.097847 6.475695 0.195257
v 0.260250 6.760547 0.427646
v -0.018463 0.840422 0.047352
v 0.467284 2.307283 0.182422
v -0.119718 6.329584 0.004428
v 0.076282 0.159147 -0.136831
v -0.058620 0.156478 -0.136831
v -0.100132 4.352841 -0.068764
v -0.016900 4.342574 -0.006449
v 0.696392 4.479254 0.301537
v 0.179530 1.856361 -0.016261
v 0.265714 6.759854 0.420883
v -0.059252 0.839998 -0.080666
v -0.100307 0.155653 -0.008166
v 0.781074 5.114185 0.313734
v 0.666759 3.738530 0.303558
v -0.148642 6.018680 -0.077190
v 0.183563 1.560204 -0.011470
v 0.412552 2.061118 0.085131
v 0.304659 1.834988 0.140799
v 0.565844 2.982460 0.286123
v 0.102064 1.835113 0.042713
v -0.376810 7.974449 -0.050521
v 0.073053 6.469473 0.217217
v 0.142149 2.162045 -0.075757
v 0.636060 3.749332 0.277425
v -0.277166 7.115160 -0.061216
v 0.060063 2.769853 -0.106531
v 0.319386 2.093981 0.112313
v 0.102954 1.538955 0.049643
v 0.047734 0.853040 -0.159762
v 0.408779 2.009575 0.183636
v 0.369409 1.850658 0.086427
v 0.253977 1.701730 0.083869
v 0.780263 5.196435 0.311978
v 0.644914 3.739889 0.332342
v 0.555342 2.992409 0.206769
v 0.426220 2.308410 0.234288
v 0.008729 0.151736 0.071405
v -0.049352 4.357802 -0.107456
v 0.764701 5.118260 0.312429
v 0.321095 2.049072 0.177777
v -0.058261 5.922433 -0.009530
v -0.236557 7.028699 -0.043383
v -0.270936 7.118618 -0.039855
v 0.105693 2.151787 -0.112816
v 0.060152 2.176492 0.031499
v 0.015356 2.137362 -0.112816
v -0.012559 2.132904 -0.023255
v 0.133236 2.188162 -0.023853
v -0.011431 0.845827 -0.128159
v 0.696584 4.476732 0.314564
v 0.731525 4.468644 0.312801
v 0.711111 4.475828 0.295422
v 0.716999 4.469549 0.331943
v 0.534704 2.988168 0.287132
v 0.491035 3.003536 0.249957
v 0.565778 2.986234 0.246184
v 0.522109 3.001602 0.209009
v 0.417949 2.032432 0.133525
v 0.366052 2.081434 0.092118
v 0.364854 2.025439 0.187310
v 0.312957 2.074440 0.145904
v 0.275850 1.749458 0.033837
v -0.003294 4.351620 -0.036146
v 0.252876 1.853165 0.016149
v 0.180476 1.833235 0.073161
v 0.288378 6.810690 0.456309
v 0.090935 6.484334 0.202020
v 0.097473 6.463580 0.204967
v 0.083079 6.459968 0.217715
v -0.397338 8.109887 -0.056982
v -0.262420 7.128932 -0.039470
v -0.250849 7.124898 -0.067902
v -0.275356 7.115829 -0.049922
v 0.076541 6.480721 0.214768
v -0.269476 7.118005 -0.069219
v -0.094790 4.353363 -0.035978
v 0.203450 1.729528 0.090849
v -0.077434 4.355059 -0.091996
v -0.048732 4.347181 -0.001525
v -0.021270 4.360545 -0.091996
v -0.047997 0.841370 -0.013642
v 0.142914 0.831865 -0.013365
v 0.047182 0.820195 0.057410
v 0.106899 0.860253 -0.128159
vt 0.0795 0.2110
vt 0.0775 0.2946
vt 0.0705 0.2960
vt 0.0712 0.2118
vt 0.1299 0.2092
vt 0.1205 0.2886
vt 0.1130 0.2922
vt 0.1213 0.2104
vt 0.0627 0.2082
vt 0.0633 0.2890
vt 0.0561 0.2820
vt 0.0542 0.2046
vt 0.1129 0.2097
vt 0.1058 0.2914
vt 0.0987 0.2907
vt 0.1046 0.2089
vt 0.0795 0.5196
vt 0.0865 0.5197
vt 0.0711 0.7603
vt 0.0658 0.7609
vt 0.1218 0.5200
vt 0.1289 0.5188
vt 0.1033 0.7547
vt 0.0978 0.7575
vt 0.0935 0.5198
vt 0.1005 0.5200
vt 0.0817 0.7590
vt 0.0764 0.7596
vt 0.1967 0.5831
vt 0.2045 0.5829
vt 0.2073 0.5978
vt 0.1995 0.5984
vt 0.1076 0.5206
vt 0.1147 0.5212
vt 0.0923 0.7603
vt 0.0870 0.7596
vt 0.1292 0.8321
vt 0.1320 0.8314
vt 0.1396 0.9864
vt 0.1369 0.9870
vt 0.0880 0.9417
vt 0.0891 0.9407
vt 0.0880 0.9903
vt 0.0872 0.9901
vt 0.1349 0.8315
vt 0.1377 0.8316
vt 0.1450 0.9865
vt 0.1423 0.9865
vt 0.1236 0.8334
vt 0.1264 0.8328
vt 0.1343 0.9876
vt 0.1316 0.9880
vt 0.1405 0.8334
vt 0.1432 0.8353
vt 0.1504 0.9873
vt 0.1477 0.9869
vt 0.0149 0.9090
vt 0.0148 0.9083
vt 0.0156 0.9082
vt 0.0156 0.9089
vt 0.0909 0.9406
vt 0.0926 0.9405
vt 0.0898 0.9902
vt 0.0889 0.9902
vt 0.0819 0.9409
vt 0.0839 0.9412
vt 0.0847 0.9897
vt 0.0838 0.9900
vt 0.1065 0.6841
vt 0.1095 0.6817
vt 0.1177 0.8363
vt 0.0854 0.9419
vt 0.0869 0.9427
vt 0.0864 0.9899
vt 0.0856 0.9898
vt 0.0297 0.8955
vt 0.0304 0.8955
vt 0.0304 0.8962
vt 0.0298 0.8962
vt 0.1840 0.5900
vt 0.1888 0.5833
vt 0.1916 0.5990
vt 0.1851 0.6025
vt 0.1704 0.5948
vt 0.1793 0.5968
vt 0.1787 0.6060
vt 0.1695 0.6072
vt 0.0655 0.5170
vt 0.0724 0.5196
vt 0.0605 0.7616
vt 0.0556 0.7566
vt 0.1518 0.5892
vt 0.1616 0.5927
vt 0.1603 0.6084
vt 0.1513 0.6054
vt 0.1842 0.6266
vt 0.1899 0.6248
vt 0.1882 0.6506
vt 0.1832 0.6508
vt 0.1969 0.6248
vt 0.2038 0.6247
vt 0.2003 0.6516
vt 0.1942 0.6511
vt 0.1708 0.6288
vt 0.1785 0.6285
vt 0.1782 0.6509
vt 0.1720 0.6505
vt 0.1548 0.6283
vt 0.1631 0.6292
vt 0.1659 0.6501
vt 0.1583 0.6513
vt 0.1734 0.7356
vt 0.1781 0.7360
vt 0.1779 0.8211
vt 0.1746 0.8207
vt 0.1629 0.7357
vt 0.1687 0.7352
vt 0.1714 0.8203
vt 0.1675 0.8202
vt 0.1818 0.7357
vt 0.1856 0.7355
vt 0.1830 0.8203
vt 0.1804 0.8207
vt 0.1902 0.7357
vt 0.1948 0.7358
vt 0.1894 0.8201
vt 0.1862 0.8202
vt 0.1829 0.8999
vt 0.1853 0.8999
vt 0.1812 0.9796
vt 0.1797 0.9797
vt 0.1743 0.9004
vt 0.1766 0.9007
vt 0.1753 0.9803
vt 0.1738 0.9801
vt 0.1692 0.9000
vt 0.1719 0.9001
vt 0.1724 0.9799
vt 0.1709 0.9798
vt 0.1786 0.9004
vt 0.1806 0.9000
vt 0.1782 0.9798
vt 0.1768 0.9800
vt 0.0129 0.8881
vt 0.0129 0.8892
vt 0.0121 0.8892
vt 0.0104 0.8884
vt 0.0116 0.8882
vt 0.0108 0.8893
vt 0.0963 0.2096
vt 0.0916 0.2919
vt 0.0845 0.2932
vt 0.0879 0.2102
vt 0.0761 0.2239
vt 0.0857 0.2202
vt 0.0844 0.2776
vt 0.0755 0.2774
vt 0.1344 0.2210
vt 0.1442 0.2223
vt 0.1372 0.2821
vt 0.1283 0.2815
vt 0.1149 0.2198
vt 0.1247 0.2198
vt 0.1194 0.2809
vt 0.1107 0.2800
vt 0.1534 0.2282
vt 0.1627 0.2341
vt 0.1545 0.2829
vt 0.1459 0.2825
vt 0.0955 0.2201
vt 0.1052 0.2199
vt 0.1020 0.2791
vt 0.0932 0.2783
vt 0.0871 0.1629
vt 0.0978 0.1618
vt 0.1084 0.1606
vt 0.1512 0.1625
vt 0.1610 0.1738
vt 0.1709 0.1852
vt 0.1191 0.1596
vt 0.1299 0.1587
vt 0.1405 0.1606
vt 0.0664 0.2277
vt 0.0665 0.2771
vt 0.0664 0.1782
vt 0.0767 0.1706
vt 0.1010 0.1272
vt 0.0914 0.1272
vt 0.1105 0.1272
vt 0.0112 0.8903
vt 0.0121 0.8903
vt 0.0129 0.8903
vt 0.1665 0.8999
vt 0.1694 0.9797
vt 0.1636 0.8201
vt 0.1572 0.7363
vt 0.1507 0.6525
vt 0.1465 0.6274
vt 0.1424 0.6023
vt 0.1421 0.5857
vt 0.1418 0.5691
vt 0.1523 0.5731
vt 0.1628 0.5770
vt 0.0586 0.5143
vt 0.0506 0.7515
vt 0.1714 0.5823
vt 0.1799 0.5876
vt 0.1830 0.5776
vt 0.1860 0.5676
vt 0.0290 0.8955
vt 0.0292 0.8962
vt 0.0288 0.8948
vt 0.0296 0.8948
vt 0.0304 0.8948
vt 0.0831 0.8926
vt 0.0852 0.8941
vt 0.0874 0.8955
vt 0.1208 0.8340
vt 0.1289 0.9885
vt 0.1126 0.6794
vt 0.0800 0.9406
vt 0.0830 0.9903
vt 0.0770 0.8909
vt 0.0800 0.8917
vt 0.0903 0.8911
vt 0.0929 0.8910
vt 0.0955 0.8909
vt 0.0150 0.9096
vt 0.0156 0.9097
vt 0.0144 0.9096
vt 0.0143 0.9090
vt 0.0141 0.9084
vt 0.1305 0.6767
vt 0.1333 0.6799
vt 0.1361 0.6832
vt 0.1155 0.6787
vt 0.1185 0.6779
vt 0.1244 0.6764
vt 0.1275 0.6766
vt 0.0888 0.8933
vt 0.1214 0.6772
vt 0.1939 0.5678
vt 0.2018 0.5680
vt 0.1200 0.1279
vt 0.1295 0.1286
vt 0.0620 0.1274
vt 0.0522 0.1273
vt 0.0718 0.1275
vt 0.1392 0.1299
vt 0.1489 0.1312
vt 0.1385 0.2081
vt 0.1281 0.2849
vt 0.0816 0.1274
vn 0.5934 -0.0148 -0.8048
vn 0.5911 0.0132 -0.8065
vn 0.7620 -0.0482 -0.6458
vn 0.9396 -0.0357 -0.3403
vn -0.0016 0.0141 0.9999
vn -0.0674 -0.0608 0.9959
vn -0.5910 -0.0057 0.8066
vn -0.5727 0.0506 0.8182
vn 0.9618 -0.0444 0.2701
vn 0.9751 -0.2207 0.0228
vn 0.5902 -0.1625 0.7907
vn 0.5938 -0.0206 0.8044
vn -0.9443 0.0694 0.3216
vn -0.9378 0.0238 0.3465
vn -0.9515 0.0218 -0.3070
vn -0.9501 0.0684 -0.3043
vn 0.6040 0.0399 -0.7959
vn 0.0005 0.0130 -0.9999
vn 0.0202 0.0118 -0.9997
vn 0.6130 0.0564 -0.7881
vn -0.0257 0.0030 0.9997
vn 0.5994 0.0319 0.7998
vn 0.6127 -0.1466 0.7766
vn -0.1810 -0.1134 0.9769
vn -0.6039 -0.0167 -0.7969
vn -0.9528 -0.0311 -0.3020
vn -0.9500 -0.0648 -0.3053
vn -0.5986 -0.0392 -0.8001
vn -0.1609 -0.2070 0.9650
vn 0.5685 -0.5495 0.6123
vn 0.6031 -0.5663 0.5617
vn -0.1398 -0.2467 0.9590
vn -0.9413 -0.0302 0.3363
vn -0.5964 -0.0156 0.8026
vn -0.6914 -0.0738 0.7187
vn -0.9200 -0.0554 0.3880
vn -0.5879 -0.0650 -0.8063
vn -0.9463 -0.1080 -0.3046
vn -0.9450 -0.1174 -0.3052
vn -0.5012 -0.0066 -0.8653
vn -0.8499 0.4345 0.2983
vn -0.6739 -0.0825 0.7342
vn -0.7458 -0.0056 0.6662
vn -0.8282 0.5231 0.2009
vn -0.9203 -0.1066 0.3765
vn -0.5908 -0.0569 0.8048
vn -0.5047 -0.0544 0.8616
vn -0.9128 -0.0633 0.4034
vn 0.7589 0.1119 -0.6416
vn 0.0558 0.0178 -0.9983
vn 0.0983 0.0263 -0.9948
vn 0.8580 0.1805 -0.4809
vn 0.2104 0.0453 0.9766
vn 0.7271 0.1520 0.6695
vn 0.9352 0.1445 0.3233
vn 0.3848 0.1170 0.9156
vn -0.1726 0.9849 -0.0114
vn -0.3428 -0.3292 0.8798
vn 0.5799 -0.5309 0.6179
vn 0.5257 -0.6589 0.5381
vn -0.0668 -0.4313 0.8998
vn 0.9239 -0.2502 -0.2894
vn 0.7514 0.0620 -0.6570
vn 0.6388 0.2038 -0.7419
vn 0.9467 -0.3111 -0.0836
vn -0.3176 0.5196 0.7932
vn 0.9329 0.2886 -0.2152
vn -0.1593 0.7231 -0.6722
vn -0.7546 0.6516 -0.0782
vn -0.5985 0.6875 -0.4112
vn 0.1671 0.6287 -0.7595
vn 0.4594 0.7261 0.5115
vn -0.5347 0.4200 0.7333
vn -0.4072 0.0568 0.9116
vn -0.5253 0.0659 0.8484
vn -0.8509 0.4110 0.3270
vn 0.0573 0.5790 -0.8133
vn -0.3945 0.9156 -0.0778
vn -0.6903 0.5156 -0.5076
vn -0.1485 0.4070 -0.9013
vn 0.9742 0.0452 0.2213
vn 0.9135 0.0509 -0.4037
vn 0.7560 0.0553 -0.6523
vn 0.9948 -0.0726 -0.0716
vn 0.8164 -0.4632 -0.3448
vn 0.5459 0.0138 -0.8377
vn 0.6465 -0.0026 -0.7629
vn 0.8942 -0.4029 -0.1950
vn -0.9590 0.2291 0.1670
vn -0.6547 0.0360 0.7550
vn -0.6564 0.0405 0.7533
vn -0.9639 0.1693 0.2054
vn -0.1305 -0.1644 0.9777
vn 0.6518 -0.3021 0.6957
vn 0.6854 -0.2025 0.6994
vn -0.1301 -0.0949 0.9870
vn -0.1920 0.2475 -0.9497
vn -0.7704 0.3060 -0.5594
vn -0.8061 0.2316 -0.5446
vn -0.1935 0.1727 -0.9658
vn 0.9766 -0.2034 -0.0705
vn 0.6272 0.0452 -0.7776
vn 0.6086 0.0191 -0.7932
vn 0.9833 -0.1462 -0.1081
vn -0.1980 0.1282 -0.9718
vn -0.8196 0.1910 -0.5402
vn -0.8309 0.1417 -0.5381
vn -0.2072 0.0827 -0.9748
vn 0.9824 -0.1256 -0.1380
vn 0.5915 -0.0036 -0.8063
vn 0.5958 -0.0192 -0.8029
vn 0.9849 -0.1035 -0.1388
vn -0.9642 0.1467 0.2208
vn -0.6615 0.0559 0.7479
vn -0.6546 0.0645 0.7532
vn -0.9665 0.1251 0.2241
vn -0.1342 -0.0478 0.9898
vn 0.7071 -0.1473 0.6916
vn 0.7127 -0.1017 0.6940
vn -0.1289 -0.0136 0.9916
vn -0.1384 0.0206 0.9902
vn 0.7141 -0.0547 0.6979
vn 0.7094 -0.0390 0.7038
vn 0.2741 0.0984 0.9567
vn -0.2156 0.0397 -0.9757
vn -0.8386 0.0996 -0.5356
vn -0.8418 0.0973 -0.5309
vn -0.4114 0.1339 -0.9016
vn 0.9859 -0.0811 -0.1466
vn 0.5825 -0.0334 -0.8122
vn 0.5794 -0.0225 -0.8147
vn 0.9886 0.0160 0.1496
vn -0.9690 0.1051 0.2235
vn -0.6587 0.0737 0.7488
vn -0.6601 0.0867 0.7462
vn -0.9789 0.1956 -0.0595
vn 0.0889 0.9960 -0.0057
vn -0.5958 0.0459 -0.8018
vn -0.5987 0.0153 -0.8008
vn 0.0116 0.0139 -0.9998
vn -0.0020 0.0163 -0.9999
vn 0.9629 0.1045 0.2489
vn 0.9208 0.0866 -0.3802
vn 0.9487 0.0675 -0.3089
vn 0.9541 0.0680 0.2917
vn -0.9432 -0.0396 0.3297
vn -0.5708 -0.0105 0.8210
vn -0.5979 -0.0157 0.8014
vn -0.9536 -0.0375 0.2986
vn -0.6005 -0.0195 -0.7994
vn -0.9520 -0.0361 -0.3040
vn -0.9527 -0.0368 -0.3016
vn -0.6031 -0.0201 -0.7974
vn 0.0031 0.0275 0.9996
vn 0.5952 0.0759 0.8000
vn 0.5931 0.0502 0.8036
vn 0.0036 0.0103 0.9999
vn 0.5896 0.0483 -0.8063
vn 0.0006 0.0155 -0.9999
vn -0.0043 0.0137 -0.9999
vn 0.5992 0.0453 -0.7993
vn -0.2197 0.1497 0.9640
vn 0.3773 0.4781 0.7931
vn 0.8162 0.4676 -0.3394
vn -0.5987 0.0480 -0.7995
vn -0.0223 0.0160 -0.9996
vn -0.9516 0.0718 -0.2988
vn 0.9700 0.1604 -0.1827
vn -0.4845 0.1178 0.8668
vn -0.9504 0.0717 0.3025
vn -0.5918 0.0531 0.8043
vn 0.9494 -0.0360 0.3121
vn 0.5770 -0.0134 0.8167
vn 0.9522 -0.0355 -0.3035
vn 0.0014 0.0177 0.9998
vn 0.5866 -0.0186 -0.8097
usemtl None
s 1
f 176/1/1 88/2/2 3/3/3 52/4/4
f 175/5/5 120/6/6 7/7/7 93/8/8
f 174/9/9 108/10/10 6/11/11 66/12/12
f 173/13/13 75/14/14 9/15/15 103/16/16
f 172/17/17 130/18/18 13/19/19 61/20/20
f 171/21/21 99/22/22 17/23/23 77/24/24
f 170/25/25 98/26/26 20/27/27 107/28/28
f 169/29/29 124/30/30 21/31/31 110/32/32
f 168/33/33 85/34/34 18/35/35 71/36/36
f 167/37/37 117/38/38 23/39/39 48/40/40
f 166/41/41 114/42/42 26/43/43 51/44/44
f 165/45/45 135/46/46 28/47/47 65/48/48
f 164/49/49 67/50/50 24/51/51 76/52/52
f 163/53/53 134/54/54 29/55/55 113/56/56
f 162/57/57 113/58/56 29/59/55 76/60/52
f 161/61/58 83/62/59 30/63/60 92/64/61
f 160/65/62 91/66/63 31/67/64 102/68/65
f 25/69/66 80/70/67 134/71/54
f 159/72/68 70/73/69 27/74/70 54/75/71
f 158/76/72 54/77/71 27/78/70 51/79/44
f 157/80/73 56/81/74 22/82/75 82/83/76
f 156/84/77 79/85/78 33/86/79 59/87/80
f 155/88/81 87/89/82 14/90/83 133/91/84
f 154/92/85 60/93/86 34/94/87 123/95/88
f 153/96/89 132/97/90 35/98/91 74/99/92
f 152/100/93 122/101/94 37/102/95 128/103/96
f 151/104/97 119/105/98 36/106/99 58/107/100
f 150/108/101 109/109/102 38/110/103 94/111/104
f 149/112/105 72/113/106 39/114/107 116/115/108
f 148/116/109 127/117/110 40/118/111 106/119/112
f 147/120/113 73/121/114 42/122/115 57/123/116
f 146/124/117 111/125/118 41/126/119 126/127/120
f 145/128/121 90/129/122 43/130/123 53/131/124
f 144/132/125 100/133/126 45/134/127 86/135/128
f 143/136/129 50/137/130 46/138/131 105/139/132
f 142/140/133 69/141/134 44/142/135 131/143/136
f 46/144/131 86/145/128 125/146/137
f 43/147/123 105/148/132 53/149/124
f 141/150/138 47/151/139 2/152/140 121/153/141
f 140/154/142 115/155/143 11/156/144 64/157/145
f 139/158/146 81/159/147 15/160/148 68/161/149
f 138/162/150 49/163/151 19/164/152 63/165/153
f 137/166/154 78/167/155 16/168/156 84/169/157
f 136/170/158 89/171/159 12/172/160 118/173/161
f 115/155/143 136/170/158 118/173/161 11/156/144
f 3/174/3 88/175/2 136/170/158 115/155/143
f 88/175/2 2/176/140 89/171/159 136/170/158
f 81/159/147 137/166/154 84/169/157 15/160/148
f 7/177/7 112/178/162 137/166/154 81/159/147
f 112/178/162 32/179/163 78/167/155 137/166/154
f 89/171/159 138/162/150 63/165/153 12/172/160
f 2/176/140 47/180/139 138/162/150 89/171/159
f 47/180/139 9/181/15 49/163/151 138/162/150
f 49/163/151 139/158/146 68/161/149 19/164/152
f 9/181/15 75/182/14 139/158/146 49/163/151
f 75/182/14 7/177/7 81/159/147 139/158/146
f 78/183/155 140/154/142 64/157/145 16/184/156
f 32/185/163 101/186/164 140/154/142 78/183/155
f 101/186/164 3/174/3 115/155/143 140/154/142
f 97/187/165 141/150/138 121/153/141 1/188/166
f 10/189/167 103/16/16 141/150/138 97/187/165
f 103/16/16 9/15/15 47/151/139 141/150/138
f 53/149/124 125/146/137 44/190/135
f 53/149/124 105/148/132 125/146/137
f 105/148/132 46/144/131 125/146/137
f 125/146/137 131/191/136 44/190/135
f 125/146/137 86/145/128 131/191/136
f 86/145/128 45/192/127 131/191/136
f 100/133/126 142/140/133 131/143/136 45/134/127
f 39/114/107 57/123/116 142/140/133 100/133/126
f 57/123/116 42/122/115 69/141/134 142/140/133
f 90/193/122 143/136/129 105/139/132 43/194/123
f 41/195/119 106/119/112 143/136/129 90/193/122
f 106/119/112 40/118/111 50/137/130 143/136/129
f 50/137/130 144/132/125 86/135/128 46/138/131
f 40/118/111 116/115/108 144/132/125 50/137/130
f 116/115/108 39/114/107 100/133/126 144/132/125
f 69/141/134 145/128/121 53/131/124 44/142/135
f 42/122/115 126/127/120 145/128/121 69/141/134
f 126/127/120 41/126/119 90/129/122 145/128/121
f 73/121/114 146/124/117 126/127/120 42/122/115
f 35/98/91 128/103/96 146/124/117 73/121/114
f 128/103/96 37/102/95 111/125/118 146/124/117
f 72/113/106 147/120/113 57/123/116 39/114/107
f 36/106/99 74/99/92 147/120/113 72/113/106
f 74/99/92 35/98/91 73/121/114 147/120/113
f 111/196/118 148/116/109 106/119/112 41/195/119
f 37/197/95 94/111/104 148/116/109 111/196/118
f 94/111/104 38/110/103 127/117/110 148/116/109
f 127/117/110 149/112/105 116/115/108 40/118/111
f 38/110/103 58/107/100 149/112/105 127/117/110
f 58/107/100 36/106/99 72/113/106 149/112/105
f 122/198/94 150/108/101 94/111/104 37/197/95
f 21/199/31 123/95/88 150/108/101 122/198/94
f 123/95/88 34/94/87 109/109/102 150/108/101
f 109/109/102 151/104/97 58/107/100 38/110/103
f 34/94/87 59/87/80 151/104/97 109/109/102
f 59/87/80 33/86/79 119/105/98 151/104/97
f 132/97/90 152/100/93 128/103/96 35/98/91
f 22/82/75 110/32/32 152/100/93 132/97/90
f 110/32/32 21/31/31 122/101/94 152/100/93
f 119/105/98 153/96/89 74/99/92 36/106/99
f 33/86/79 82/83/76 153/96/89 119/105/98
f 82/83/76 22/82/75 132/97/90 153/96/89
f 124/200/30 154/92/85 123/95/88 21/199/31
f 6/201/11 108/202/10 154/92/85 124/200/30
f 108/202/10 3/203/3 60/93/86 154/92/85
f 99/204/22 155/88/81 133/91/84 17/205/23
f 16/184/156 64/157/145 155/88/81 99/204/22
f 64/157/145 11/156/144 87/89/82 155/88/81
f 60/93/86 156/84/77 59/87/80 34/94/87
f 3/203/3 101/206/164 156/84/77 60/93/86
f 101/206/164 32/207/163 79/85/78 156/84/77
f 79/85/78 157/80/73 82/83/76 33/86/79
f 32/207/163 112/208/162 157/80/73 79/85/78
f 112/208/162 7/209/7 56/81/74 157/80/73
f 92/210/61 158/76/72 51/79/44 26/211/43
f 30/212/60 102/213/65 158/76/72 92/210/61
f 102/213/65 31/214/64 54/77/71 158/76/72
f 91/66/63 159/72/68 54/75/71 31/67/64
f 14/215/83 80/216/67 159/72/68 91/66/63
f 80/216/67 25/217/66 70/73/69 159/72/68
f 134/71/54 55/218/168 29/219/55
f 134/71/54 80/70/67 55/218/168
f 80/70/67 14/220/83 55/218/168
f 83/221/59 160/65/62 102/68/65 30/222/60
f 17/223/23 133/224/84 160/65/62 83/221/59
f 133/224/84 14/215/83 91/66/63 160/65/62
f 114/42/42 161/61/58 92/64/61 26/43/43
f 18/225/35 77/226/24 161/61/58 114/42/42
f 77/226/24 17/227/23 83/62/59 161/61/58
f 48/228/40 162/57/57 76/60/52 24/229/51
f 23/230/39 65/231/48 162/57/57 48/228/40
f 65/231/48 28/232/47 113/58/56 162/57/57
f 135/46/46 163/53/53 113/56/56 28/47/47
f 18/233/35 95/234/169 163/53/53 135/46/46
f 95/234/169 25/235/66 134/54/54 163/53/53
f 55/218/168 164/49/49 76/52/52 29/219/55
f 14/220/83 61/236/20 164/49/49 55/218/168
f 61/236/20 13/237/19 67/50/50 164/49/49
f 117/38/38 165/45/45 65/48/48 23/39/39
f 20/238/27 71/239/36 165/45/45 117/38/38
f 71/239/36 18/233/35 135/46/46 165/45/45
f 70/73/69 166/41/41 51/44/44 27/74/70
f 25/217/66 95/240/169 166/41/41 70/73/69
f 95/240/169 18/225/35 114/42/42 166/41/41
f 67/50/50 167/37/37 48/40/40 24/51/51
f 13/237/19 107/241/28 167/37/37 67/50/50
f 107/241/28 20/238/27 117/38/38 167/37/37
f 98/26/26 168/33/33 71/36/36 20/27/27
f 19/164/152 68/161/149 168/33/33 98/26/26
f 68/161/149 15/160/148 85/34/34 168/33/33
f 56/81/74 169/29/29 110/32/32 22/82/75
f 7/209/7 120/242/6 169/29/29 56/81/74
f 120/242/6 6/243/11 124/30/30 169/29/29
f 130/18/18 170/25/25 107/28/28 13/19/19
f 12/172/160 63/165/153 170/25/25 130/18/18
f 63/165/153 19/164/152 98/26/26 170/25/25
f 85/34/34 171/21/21 77/24/24 18/35/35
f 15/160/148 84/169/157 171/21/21 85/34/34
f 84/169/157 16/168/156 99/22/22 171/21/21
f 87/89/82 172/17/17 61/20/20 14/90/83
f 11/156/144 118/173/161 172/17/17 87/89/82
f 118/173/161 12/172/160 130/18/18 172/17/17
f 104/244/170 173/13/13 103/16/16 10/189/167
f 8/245/171 93/8/8 173/13/13 104/244/170
f 93/8/8 7/7/7 75/14/14 173/13/13
f 62/246/172 174/9/9 66/12/12 5/247/173
f 4/248/174 52/4/4 174/9/9 62/246/172
f 52/4/4 3/3/3 108/10/10 174/9/9
f 129/249/175 175/5/5 93/8/8 8/245/171
f 5/250/173 66/251/12 175/5/5 129/249/175
f 66/251/12 6/252/11 120/6/6 175/5/5
f 96/253/176 176/1/1 52/4/4 4/248/174
f 1/188/166 121/153/141 176/1/1 96/253/176
f 121/153/141 2/152/140 88/2/2 176/1/1
