# Blender v2.78 (sub 0) OBJ File: ''
# www.blender.org
mtllib Birch_Tree_m_07.mtl
o Birch_Tree_m_07
v 0.084292 0.046205 0.092954
v 0.013219 0.410093 0.079761
v -0.131362 0.408712 0.084524
v -0.082493 0.034457 0.089862
v -0.135085 1.165113 0.070788
v -0.240869 1.148145 0.070788
v -0.168656 0.406651 -0.034250
v -0.273559 1.142902 -0.031191
v -0.187977 1.156629 -0.094218
v -0.051046 0.407369 -0.113381
v -0.112501 0.034267 -0.035869
v 0.011779 0.046537 -0.126907
v -0.096955 1.175658 -0.033100
v -0.295460 2.546347 -0.027194
v -0.320985 2.541252 0.052914
v -0.403582 2.524766 0.052914
v -0.429105 2.519672 -0.027194
v -0.362283 2.533009 -0.076703
v -0.448447 4.055651 -0.048070
v -0.411398 4.063167 -0.020604
v -0.425550 4.060296 0.023838
v -0.471345 4.051006 0.023838
v -0.485498 4.048136 -0.020604
v 0.121593 0.512919 -0.070813
v 0.223258 0.337782 -0.021492
v 0.442273 1.207116 -0.254016
v 0.372646 1.258427 -0.280556
v 0.157110 0.344094 -0.145154
v 0.210068 0.020880 -0.051244
v 0.266960 0.285353 -0.100215
v 0.466286 1.173603 -0.311924
v 0.386927 1.212396 -0.344043
v 0.589398 2.844680 -0.430297
v 0.633897 2.833815 -0.416354
v 0.618945 2.841741 -0.384549
v 0.579440 2.856287 -0.394945
v -0.329451 4.252617 0.580610
v -0.107120 4.029057 0.221847
v 0.116002 5.197108 0.442684
v -0.077209 6.345295 0.394571
v -0.477771 6.601365 0.528775
v -0.560180 5.478690 0.708641
v 0.224443 5.138323 -0.142493
v -0.235328 3.824941 -0.123596
v -0.027583 4.982956 -0.550955
v -0.509223 4.058769 -0.469132
v -0.369790 5.463408 -0.722248
v -0.014891 6.387278 -0.345290
v -0.824623 4.854353 -0.555409
v -0.743367 3.916327 -0.178905
v -1.154188 5.108985 -0.098681
v -0.893757 6.364470 -0.437354
v -0.457635 6.536514 -0.565593
v -0.639247 3.895180 0.249368
v -0.984889 4.918778 0.450608
v -1.027293 6.323398 0.279534
v -0.655516 7.093322 0.146151
v -0.407866 7.095454 -0.162641
v 0.290549 3.309510 -0.588889
v 0.406212 3.074738 -0.357214
v 0.185038 3.932054 -0.233375
v 0.330108 4.791578 -0.300062
v 0.386583 5.002920 -0.593316
v 0.253605 4.183514 -0.745668
v 0.519109 3.870346 0.041429
v 0.682527 3.016317 -0.233029
v 0.867538 3.757586 0.017114
v 0.983579 3.190724 -0.325447
v 1.113768 4.140475 -0.103560
v 0.724469 4.806227 0.025616
v 1.129384 3.747407 -0.483295
v 0.911686 3.103324 -0.588582
v 1.021544 3.900803 -0.885212
v 1.095374 4.832896 -0.507184
v 1.020744 4.936448 -0.170376
v 0.640832 3.059572 -0.687580
v 0.576983 3.768768 -0.920906
v 0.685821 4.817682 -0.852111
v 0.633860 5.367744 -0.527857
v 0.739985 5.352287 -0.256384
v -0.652621 6.483908 -0.540219
v 0.337670 0.721675 -0.141937
v 0.453294 3.141344 -0.652214
v -0.441400 4.821822 0.667116
v -1.013253 5.005643 -0.359394
v 1.084316 4.388463 -0.727640
v -0.188540 5.329567 0.613737
v 0.945828 3.098606 -0.453711
v 0.235784 0.121605 -0.068500
v 0.452896 4.508626 -0.837526
v 0.447109 3.417947 -0.140974
v 0.073350 0.176422 -0.135074
v 0.636539 4.277570 -0.923614
v 0.284775 3.482080 -0.267797
v 0.051633 0.328226 -0.125502
v 0.709439 5.142714 -0.112345
v -0.276191 1.812323 -0.086128
v -0.160187 3.903297 0.054220
v -0.524652 6.117862 0.625896
v 0.805489 4.272406 0.056644
v 0.403884 4.361882 -0.085108
v -0.019341 0.206679 -0.126230
v 0.794800 2.982132 -0.427759
v -0.263788 4.461007 -0.526018
v 0.842916 3.067997 -0.276768
v 0.939368 4.486862 -0.003963
v -0.121264 0.753129 -0.102235
v 0.609143 4.372060 0.053999
v -0.442190 6.843942 -0.391686
v -0.003648 6.417869 0.016107
v -0.123659 0.409091 -0.078519
v -0.199340 1.826448 -0.029351
v -0.414791 6.093181 -0.651859
v -0.198983 4.094113 0.417533
v -0.323687 1.803593 0.062518
v -0.464003 3.349658 -0.023857
v -0.264280 1.144332 0.022126
v -0.469349 4.051412 -0.037674
v 0.602806 3.385576 -0.065835
v -0.558095 6.871459 0.362864
v 0.175835 0.428544 -0.038385
v -0.187977 1.156629 0.078322
v -0.806328 5.181175 0.603747
v 0.485957 2.101978 -0.346028
v -0.414629 4.062511 0.002891
v -0.181729 0.744438 0.077999
v -0.942033 4.432654 0.094234
v 0.117903 0.326187 0.036842
v 0.612923 2.838525 -0.426624
v 1.073773 4.604978 -0.130801
v -1.016035 6.404662 -0.080525
v 0.054381 0.207286 0.091504
v 0.118577 5.077569 -0.374670
v 0.979703 3.445267 -0.747285
v 0.406562 3.966893 -0.860540
v 0.494461 5.203089 -0.564176
v 0.618788 3.395668 -0.828261
v -0.818670 4.343919 -0.372190
v 0.139869 5.790658 0.122058
v 0.128916 0.024082 -0.099902
v 0.497521 2.077331 -0.396022
v -0.433616 4.702874 -0.629173
v 0.243485 4.490376 -0.520099
v -0.233282 6.838093 0.110072
v -0.618870 5.134973 -0.662771
v 1.141846 3.930812 -0.297368
v 0.086173 4.510801 0.041880
v 1.066212 3.618867 -0.205016
v -0.533249 7.108898 -0.006792
v -0.506859 3.748035 -0.132028
v -0.138164 0.192408 -0.035655
v -0.627992 3.910086 -0.327881
v 0.047052 4.591600 0.321451
v 0.233685 4.330588 -0.256333
v -0.421940 2.521084 0.014715
v -0.228695 1.821052 0.062518
v 0.702114 3.826638 0.056950
v -0.648156 5.898152 -0.640310
v -0.352799 3.841407 0.255202
v 0.630579 2.836765 -0.399340
v -0.353041 1.798198 -0.029351
v 0.911991 4.870700 -0.714753
v -0.432267 3.740741 0.075877
v -0.427546 4.059891 -0.037674
v -0.158338 0.407264 0.027855
v -0.743757 6.526098 0.438942
v -0.235135 1.149029 -0.068800
v -0.839539 4.383424 0.358161
v 0.220863 0.308917 -0.128852
v 0.540028 2.073257 -0.328338
v 0.898211 5.165127 -0.207821
v 0.004683 0.794590 -0.045163
v -0.325413 2.540380 -0.056807
v -0.195716 6.826369 -0.224098
v 0.373905 1.238695 -0.314581
v -0.063518 0.759170 0.077045
v 0.839787 3.430640 -0.825706
v -0.376557 3.886880 -0.309580
v -0.444344 3.353645 0.037880
v 0.505783 2.984723 -0.516925
v -0.958302 4.434700 -0.148245
v 0.141617 5.815183 -0.240491
v 0.534153 5.158551 -0.263938
v 0.212098 3.590425 -0.416747
v 0.031443 4.414022 -0.162165
v -0.276457 5.918458 0.610966
v 0.507859 4.958998 -0.726083
v 0.687146 5.370806 -0.393142
v 0.428087 1.190127 -0.332846
v 0.328504 3.915751 -0.085960
v 0.019018 5.684610 -0.485769
v 0.560034 2.053672 -0.373371
v 0.255677 0.817731 -0.177511
v -0.067597 0.034516 -0.089135
v 1.034612 3.396171 -0.561824
v 0.338224 4.919860 -0.479269
v -0.164689 5.951828 -0.580942
v 0.936033 3.431227 -0.144657
v 0.170145 0.023707 0.022434
v -0.482266 4.048792 0.002891
v -0.362283 2.533009 0.058918
v -0.665931 4.518708 0.550481
v 0.050520 5.732848 0.437830
v -0.246037 6.521763 -0.480582
v 0.597916 2.849737 -0.386448
v -0.364576 6.849370 0.292210
v 0.580260 2.851498 -0.413732
v 0.860799 5.193844 -0.534872
v 0.146885 0.173257 0.048450
v -0.380726 3.366549 0.037880
v -0.217418 0.740705 -0.032802
v 0.460161 1.187076 -0.280689
v -0.660990 6.865858 -0.312543
v -0.412534 3.360097 -0.062013
v -0.104397 0.193377 0.089224
v 0.800615 3.848042 -0.933507
v -0.011415 0.034765 0.107430
v 0.890756 4.916407 -0.065098
v -1.052334 5.603973 0.378688
v -0.709272 3.890445 0.026411
v 0.405979 1.235644 -0.262424
v -1.144460 5.772779 0.070764
v 0.678557 5.163926 -0.686668
v -1.078711 5.765372 -0.283294
v 0.417241 3.495440 -0.772484
v -0.880917 5.573514 -0.537190
v 0.361187 0.673650 -0.203627
v -0.102380 4.367317 -0.356687
v 1.067176 3.430797 -0.399418
v 1.075264 4.907592 -0.307422
v 0.252592 3.713446 -0.671922
v 0.202952 5.195633 0.170964
v 0.334600 3.157733 -0.471989
v -0.666412 4.398941 -0.529922
v -0.176387 5.216073 -0.651071
v -0.138099 1.166880 -0.069754
v 1.103454 3.843078 -0.688646
v -0.110264 0.034362 0.030901
v 0.186477 4.054630 -0.481620
v 0.470991 5.176198 -0.415416
v 0.992615 3.942210 -0.025894
v 0.135483 0.431873 -0.117221
v -0.095080 4.684311 0.539666
v -0.302626 2.544935 0.014715
v -0.108954 1.171578 0.021172
v 0.538931 3.025787 -0.290815
v 0.320384 4.650492 -0.674920
v -0.301904 6.500714 0.510624
v -0.448448 4.055651 0.027962
v 0.793424 3.072783 -0.645743
v 0.774302 3.359857 -0.082510
v -0.488880 4.018496 0.437666
v -0.831580 5.910440 0.540492
v 0.925257 5.193267 -0.375905
v 0.075419 0.456364 0.011160
v 0.258067 0.305065 -0.061807
v -0.361066 3.370537 -0.023857
v -0.399153 2.525639 -0.056807
v 0.516890 4.834926 -0.104569
v 0.883492 4.397001 -0.893371
v -1.104759 5.033895 0.198344
v 0.276945 0.727982 -0.243107
v -0.068489 0.412047 0.093769
v 1.147574 4.475990 -0.293792
v -0.855570 6.802318 0.190184
v 0.036998 0.455550 -0.096597
v 0.652742 2.955511 -0.464553
v 1.149134 4.258183 -0.499675
v -0.806422 6.853096 -0.131817
v -0.052173 0.775683 -0.080781
v -0.020360 0.779011 0.017987
v 0.554531 2.061443 -0.349297
v 0.487239 2.091676 -0.372582
v 0.259894 0.778662 -0.213206
v 0.320795 0.695498 -0.228280
v 0.511774 2.089325 -0.333515
v 0.529996 2.063794 -0.388365
v -0.130232 0.192683 0.029608
v 0.166625 0.135040 -0.106603
v 0.355845 0.691857 -0.169885
v 0.206035 0.132934 -0.010858
v 0.294945 0.775021 -0.154811
v -0.458414 3.350791 0.008417
v -0.366655 3.369403 0.008417
v -0.440889 3.354346 -0.046615
v -0.412535 3.360097 0.042429
v -0.384179 3.365849 -0.046615
v -0.318529 1.804541 -0.063216
v -0.276191 1.812323 0.069288
v -0.233853 1.820104 -0.063216
v -0.344695 1.799732 0.018676
v -0.207687 1.824914 0.018676
v -0.207271 0.741766 0.025122
v -0.091284 0.193548 -0.084274
v -0.175458 0.745094 -0.073647
v -0.123984 0.750479 0.086164
v -0.035319 0.194946 0.101277
vt 0.1396 0.1677
vt 0.1482 0.1804
vt 0.1386 0.1840
vt 0.1347 0.1698
vt 0.1503 0.2450
vt 0.1523 0.3097
vt 0.1406 0.3094
vt 0.1396 0.2467
vt 0.1082 0.2445
vt 0.1055 0.3092
vt 0.0937 0.3094
vt 0.0974 0.2427
vt 0.1204 0.1674
vt 0.1109 0.1797
vt 0.1011 0.1760
vt 0.1154 0.1653
vt 0.1293 0.2465
vt 0.1289 0.3092
vt 0.1172 0.3091
vt 0.1190 0.2463
vt 0.1709 0.4528
vt 0.1655 0.5954
vt 0.1561 0.5946
vt 0.1601 0.4523
vt 0.1284 0.4505
vt 0.1279 0.5918
vt 0.1185 0.5914
vt 0.1179 0.4503
vt 0.0858 0.4523
vt 0.0903 0.5947
vt 0.0809 0.5959
vt 0.0749 0.4531
vt 0.1495 0.4515
vt 0.1468 0.5934
vt 0.1374 0.5921
vt 0.1390 0.4507
vt 0.1073 0.4509
vt 0.1091 0.5925
vt 0.0997 0.5935
vt 0.0967 0.4514
vt 0.0581 0.7642
vt 0.0635 0.8709
vt 0.0604 0.8714
vt 0.0536 0.7649
vt 0.0849 0.7635
vt 0.0817 0.8703
vt 0.0787 0.8697
vt 0.0805 0.7628
vt 0.0670 0.7630
vt 0.0695 0.8699
vt 0.0665 0.8704
vt 0.0626 0.7636
vt 0.0938 0.7646
vt 0.0878 0.8712
vt 0.0847 0.8709
vt 0.0894 0.7642
vt 0.0760 0.7626
vt 0.0756 0.8695
vt 0.0725 0.8694
vt 0.0714 0.7624
vt 0.1348 0.1863
vt 0.1425 0.1795
vt 0.1447 0.2387
vt 0.1388 0.2418
vt 0.0770 0.1678
vt 0.0963 0.1434
vt 0.1382 0.1338
vt 0.1306 0.1357
vt 0.1307 0.1180
vt 0.1454 0.1135
vt 0.1484 0.1775
vt 0.1542 0.1754
vt 0.1554 0.2356
vt 0.1500 0.2371
vt 0.1206 0.1342
vt 0.1106 0.1327
vt 0.0916 0.1107
vt 0.1112 0.1143
vt 0.1300 0.1696
vt 0.1296 0.1837
vt 0.1207 0.1834
vt 0.1253 0.1695
vt 0.1617 0.3654
vt 0.1671 0.3666
vt 0.1644 0.4934
vt 0.1608 0.4931
vt 0.1439 0.3679
vt 0.1484 0.3660
vt 0.1520 0.4933
vt 0.1489 0.4941
vt 0.1621 0.1784
vt 0.1698 0.1814
vt 0.1697 0.2398
vt 0.1626 0.2377
vt 0.1772 0.1870
vt 0.1845 0.1926
vt 0.1808 0.2443
vt 0.1752 0.2420
vt 0.1712 0.3681
vt 0.1754 0.3695
vt 0.1700 0.4948
vt 0.1672 0.4941
vt 0.1523 0.3651
vt 0.1563 0.3641
vt 0.1572 0.4927
vt 0.1546 0.4930
vt 0.1296 0.1547
vt 0.1578 0.1767
vt 0.1445 0.1656
vt 0.1590 0.1428
vt 0.2033 0.1608
vt 0.1806 0.1687
vt 0.1817 0.1349
vt 0.1784 0.2395
vt 0.1609 0.2433
vt 0.0791 0.2388
vt 0.3054 0.0344
vt 0.3044 0.0298
vt 0.3115 0.0314
vt 0.3228 0.0347
vt 0.3230 0.0388
vt 0.3170 0.0395
vt 0.3222 0.0117
vt 0.3128 0.0184
vt 0.3108 0.0117
vt 0.3387 0.0651
vt 0.3387 0.0780
vt 0.3329 0.0712
vt 0.3271 0.0772
vt 0.3252 0.0850
vt 0.3228 0.0788
vt 0.3216 0.0693
vt 0.3225 0.0232
vt 0.3198 0.0200
vt 0.3145 0.0907
vt 0.3167 0.0957
vt 0.3095 0.0942
vt 0.3098 0.0873
vt 0.3050 0.0839
vt 0.3074 0.0797
vt 0.3118 0.0821
vt 0.3045 0.0977
vt 0.3117 0.0992
vt 0.3121 0.1055
vt 0.3001 0.0562
vt 0.3027 0.0453
vt 0.3056 0.0503
vt 0.3101 0.0587
vt 0.2960 0.1126
vt 0.2921 0.1031
vt 0.3002 0.1051
vt 0.2881 0.0936
vt 0.2966 0.0887
vt 0.2963 0.0957
vt 0.3342 0.0494
vt 0.3285 0.0421
vt 0.3378 0.0437
vt 0.3414 0.0379
vt 0.3321 0.0363
vt 0.3399 0.0298
vt 0.2988 0.0673
vt 0.3043 0.0714
vt 0.3019 0.0756
vt 0.2936 0.0719
vt 0.2883 0.0765
vt 0.2966 0.0802
vt 0.2882 0.0851
vt 0.3190 0.1007
vt 0.3212 0.0967
vt 0.3289 0.0958
vt 0.3034 0.0252
vt 0.2958 0.0310
vt 0.3175 0.0283
vt 0.3143 0.0363
vt 0.3202 0.0315
vt 0.3329 0.0840
vt 0.3274 0.0632
vt 0.3160 0.0613
vt 0.3173 0.0708
vt 0.3130 0.0684
vt 0.3302 0.0167
vt 0.3166 0.0855
vt 0.3189 0.0917
vt 0.3079 0.1129
vt 0.2941 0.0465
vt 0.3201 0.0613
vt 0.3156 0.0528
vt 0.3216 0.0521
vt 0.3271 0.0553
vt 0.3287 0.0461
vt 0.3074 0.0643
vt 0.3197 0.1133
vt 0.3194 0.1070
vt 0.3292 0.1021
vt 0.2881 0.0368
vt 0.2938 0.0243
vt 0.4256 0.0344
vt 0.4245 0.0298
vt 0.4316 0.0314
vt 0.4429 0.0347
vt 0.4431 0.0388
vt 0.4371 0.0395
vt 0.4423 0.0117
vt 0.4329 0.0184
vt 0.4309 0.0117
vt 0.4588 0.0651
vt 0.4588 0.0780
vt 0.4530 0.0712
vt 0.4472 0.0772
vt 0.4453 0.0850
vt 0.4430 0.0788
vt 0.4417 0.0693
vt 0.4426 0.0232
vt 0.4399 0.0200
vt 0.4347 0.0907
vt 0.4369 0.0957
vt 0.4297 0.0942
vt 0.4299 0.0873
vt 0.4251 0.0839
vt 0.4276 0.0797
vt 0.4319 0.0821
vt 0.4247 0.0977
vt 0.4319 0.0992
vt 0.4322 0.1055
vt 0.4202 0.0562
vt 0.4229 0.0453
vt 0.4258 0.0503
vt 0.4302 0.0587
vt 0.4161 0.1126
vt 0.4121 0.1031
vt 0.4204 0.1051
vt 0.4082 0.0936
vt 0.4166 0.0887
vt 0.4164 0.0957
vt 0.4543 0.0494
vt 0.4486 0.0421
vt 0.4579 0.0437
vt 0.4615 0.0379
vt 0.4522 0.0363
vt 0.4600 0.0298
vt 0.4189 0.0673
vt 0.4245 0.0714
vt 0.4220 0.0756
vt 0.4137 0.0719
vt 0.4085 0.0765
vt 0.4168 0.0802
vt 0.4083 0.0851
vt 0.4391 0.1007
vt 0.4413 0.0967
vt 0.4489 0.0958
vt 0.4235 0.0252
vt 0.4158 0.0310
vt 0.4376 0.0283
vt 0.4345 0.0363
vt 0.4402 0.0315
vt 0.4530 0.0840
vt 0.4474 0.0632
vt 0.4361 0.0613
vt 0.4374 0.0708
vt 0.4331 0.0684
vt 0.4503 0.0167
vt 0.4367 0.0855
vt 0.4391 0.0917
vt 0.4279 0.1129
vt 0.4142 0.0465
vt 0.4402 0.0613
vt 0.4358 0.0528
vt 0.4417 0.0521
vt 0.4473 0.0553
vt 0.4488 0.0461
vt 0.4275 0.0643
vt 0.4398 0.1133
vt 0.4394 0.1070
vt 0.4493 0.1021
vt 0.4082 0.0368
vt 0.4139 0.0243
vt 0.4216 0.0184
vt 0.4196 0.0117
vt 0.4588 0.0909
vt 0.4300 0.0755
vt 0.4433 0.0429
vt 0.4373 0.0436
vt 0.4313 0.0443
vt 0.4169 0.0356
vt 0.4387 0.0804
vt 0.4435 0.0927
vt 0.4411 0.0865
vt 0.4507 0.0281
vt 0.4584 0.0216
vt 0.4344 0.0780
vt 0.4512 0.0918
vt 0.4305 0.0268
vt 0.4284 0.0394
vt 0.4249 0.0908
vt 0.3015 0.0184
vt 0.2995 0.0117
vt 0.3387 0.0909
vt 0.3099 0.0755
vt 0.3232 0.0429
vt 0.3171 0.0436
vt 0.3111 0.0443
vt 0.2968 0.0356
vt 0.3186 0.0804
vt 0.3234 0.0927
vt 0.3210 0.0865
vt 0.3306 0.0281
vt 0.3383 0.0216
vt 0.3142 0.0780
vt 0.3310 0.0918
vt 0.3105 0.0268
vt 0.3083 0.0394
vt 0.3048 0.0908
vt 0.0813 0.3098
vt 0.0689 0.3102
vt 0.0609 0.2349
vt 0.0529 0.1595
vt 0.1960 0.2357
vt 0.1886 0.3105
vt 0.1763 0.3102
vt 0.1640 0.3100
vt 0.1602 0.1090
vt 0.1458 0.1318
vt 0.1313 0.1546
vt 0.1700 0.1230
vt 0.1791 0.1320
vt 0.1882 0.1410
vt 0.1531 0.1152
vt 0.1616 0.1191
vt 0.1394 0.3699
vt 0.1459 0.4949
vt 0.1329 0.2449
vt 0.1304 0.1556
vt 0.1300 0.1556
vt 0.1308 0.1556
vt 0.1305 0.1535
vt 0.1301 0.1541
vt 0.1402 0.1204
vt 0.1467 0.1178
vt 0.1309 0.1540
vt 0.0723 0.1351
vt 0.1272 0.1930
vt 0.1215 0.1412
vt 0.1309 0.1308
vt 0.0764 0.6557
vt 0.0704 0.6555
vt 0.0823 0.6559
vt 0.0999 0.6580
vt 0.0940 0.6575
vt 0.1058 0.6584
vt 0.0983 0.7650
vt 0.0908 0.8715
vt 0.0645 0.6561
vt 0.0586 0.6567
vt 0.0881 0.6567
vt 0.0527 0.6575
vt 0.0468 0.6583
vt 0.1818 0.4534
vt 0.1750 0.5962
vt 0.1298 0.1551
vt 0.1310 0.1551
vn -0.0285 0.0276 0.9992
vn -0.0018 0.0294 0.9996
vn -0.5933 -0.0654 0.8023
vn -0.6130 -0.0646 0.7874
vn 0.0034 0.0205 0.9998
vn -0.0024 0.0161 0.9999
vn -0.5868 -0.0678 0.8069
vn -0.5859 -0.0720 0.8072
vn -0.5787 -0.0777 -0.8118
vn -0.5811 -0.0719 -0.8107
vn -0.0462 0.0132 -0.9988
vn -0.1072 0.0146 -0.9941
vn -0.6013 -0.0742 -0.7956
vn -0.5843 -0.0714 -0.8084
vn -0.1924 0.0468 -0.9802
vn -0.2804 -0.0100 -0.9598
vn -0.9427 -0.1333 0.3058
vn -0.9434 -0.1227 0.3081
vn -0.9432 -0.1258 -0.3075
vn -0.9420 -0.1327 -0.3084
vn 0.9376 0.1342 0.3209
vn 0.9458 0.1009 0.3087
vn 0.5778 0.0734 0.8129
vn 0.5750 0.0889 0.8133
vn -0.9453 -0.1070 0.3081
vn -0.9494 -0.0699 0.3063
vn -0.9497 -0.0699 -0.3052
vn -0.9466 -0.1063 -0.3043
vn 0.5712 0.0860 -0.8163
vn 0.5836 0.0665 -0.8093
vn 0.9450 0.1011 -0.3109
vn 0.9411 0.1368 -0.3094
vn -0.0034 0.0158 0.9999
vn -0.0097 0.0152 0.9998
vn -0.5945 -0.0370 0.8032
vn -0.5854 -0.0588 0.8086
vn -0.5862 -0.0596 -0.8080
vn -0.5913 -0.0393 -0.8055
vn -0.0115 0.0153 -0.9998
vn -0.0100 0.0120 -0.9999
vn 0.5874 0.0498 -0.8078
vn 0.5978 0.0484 -0.8002
vn 0.9529 0.0698 -0.2952
vn 0.9485 0.0731 -0.3081
vn -0.0051 0.0184 0.9998
vn 0.0103 0.0220 0.9997
vn -0.5648 -0.0060 0.8252
vn -0.5924 -0.0110 0.8056
vn -0.5937 -0.0166 -0.8045
vn -0.5841 -0.0127 -0.8116
vn 0.0405 0.0213 -0.9990
vn -0.0040 0.0185 -0.9998
vn 0.9488 0.0724 0.3073
vn 0.9507 0.0689 0.3024
vn 0.6154 0.0549 0.7863
vn 0.5837 0.0551 0.8101
vn -0.9517 -0.0346 0.3052
vn -0.9506 -0.0293 0.3091
vn -0.9473 -0.0284 -0.3191
vn -0.9513 -0.0339 -0.3065
vn -0.0551 0.2872 0.9563
vn 0.4991 0.1194 0.8583
vn 0.4536 0.0786 0.8877
vn -0.2048 0.1867 0.9608
vn 0.0926 0.2151 -0.9722
vn -0.1149 0.1138 -0.9868
vn 0.8006 -0.0816 0.5936
vn 0.9238 -0.2570 -0.2839
vn 0.8961 -0.2792 -0.3450
vn 0.8565 -0.0876 0.5086
vn 0.8937 -0.0967 0.4382
vn 0.8627 -0.2986 -0.4082
vn 0.8745 -0.2123 -0.4360
vn 0.9097 -0.0811 0.4073
vn 0.3295 -0.2018 -0.9224
vn 0.0459 -0.0705 -0.9965
vn -0.0941 -0.0519 -0.9942
vn 0.2804 -0.2551 -0.9254
vn -0.9563 -0.1272 0.2633
vn -0.9476 -0.1294 0.2919
vn -0.9415 -0.1306 -0.3108
vn -0.9394 -0.1297 -0.3172
vn 0.3122 -0.0882 -0.9459
vn -0.4318 0.0065 -0.9020
vn -0.5121 0.0216 -0.8587
vn 0.2899 -0.0775 -0.9539
vn -0.2569 0.1042 0.9608
vn 0.3964 0.0306 0.9176
vn 0.3353 0.0333 0.9415
vn -0.2704 0.0978 0.9578
vn 0.2505 -0.2779 -0.9274
vn -0.3604 -0.1054 -0.9268
vn -0.3897 -0.0415 -0.9200
vn 0.2941 -0.1778 -0.9391
vn -0.8587 0.1367 -0.4939
vn -0.8208 0.3627 0.4412
vn -0.8534 0.2129 0.4757
vn -0.9289 0.1255 -0.3484
vn -0.9523 0.1047 -0.2868
vn -0.8509 0.1443 0.5051
vn -0.8543 0.1383 0.5010
vn -0.9610 0.1044 -0.2561
vn 0.9063 -0.0630 0.4180
vn 0.8955 -0.1179 -0.4292
vn 0.8903 -0.1090 -0.4421
vn 0.8969 -0.0590 0.4383
vn -0.1446 -0.0906 -0.9853
vn 0.3941 0.1513 0.9065
vn 0.2992 0.0948 0.9495
vn 0.4804 0.2257 0.8475
vn 0.1599 0.9861 0.0462
vn 0.6423 0.3146 0.6989
vn 0.2747 0.3668 0.8888
vn 0.8214 0.2073 0.5314
vn 0.4827 0.1149 0.8682
vn 0.3524 0.1273 -0.9272
vn 0.1606 -0.3418 0.9260
vn 0.5578 -0.4955 0.6659
vn 0.5730 -0.1563 0.8045
vn 0.7752 0.3070 0.5520
vn 0.4471 0.3513 0.8226
vn 0.3558 0.1297 0.9255
vn 0.9846 -0.0642 -0.1626
vn 0.9594 -0.2790 0.0415
vn 0.8963 -0.3314 -0.2948
vn 0.8603 -0.1029 -0.4993
vn 0.6204 -0.1643 -0.7669
vn 0.4141 -0.2975 -0.8602
vn 0.4014 -0.0513 -0.9144
vn 0.7340 0.0877 -0.6734
vn 0.9718 0.1756 0.1571
vn 0.9818 -0.0243 0.1886
vn -0.5730 -0.1503 -0.8057
vn -0.7585 -0.3076 -0.5745
vn -0.8337 -0.1256 -0.5377
vn -0.6242 0.0199 -0.7810
vn -0.7225 0.2610 -0.6402
vn -0.3531 0.3195 -0.8793
vn -0.3302 0.0973 -0.9389
vn -0.9813 -0.1153 -0.1540
vn -0.9309 -0.3163 -0.1827
vn -0.9224 -0.3456 0.1724
vn -0.7668 -0.1838 0.6150
vn -0.4277 -0.2561 0.8669
vn -0.4808 -0.0512 0.8754
vn -0.8327 0.0390 0.5524
vn -0.9564 -0.1534 0.2484
vn -0.8649 0.2559 0.4318
vn -0.9432 0.2919 -0.1588
vn -0.9942 0.0858 0.0644
vn -0.3086 0.8986 0.3118
vn 0.5099 0.6437 0.5707
vn -0.0047 1.0000 0.0009
vn 0.2711 0.9183 -0.2886
vn 0.7536 0.5961 0.2771
vn 0.7665 0.5528 -0.3270
vn 0.1250 0.5802 -0.8048
vn -0.4648 0.6158 -0.6362
vn -0.7659 0.5697 -0.2982
vn -0.7984 0.4855 0.3560
vn -0.7762 -0.5908 -0.2200
vn -0.4162 -0.6411 -0.6448
vn -0.1650 -0.9561 -0.2423
vn 0.8100 -0.5048 0.2984
vn 0.2469 -0.8099 0.5321
vn 0.7924 -0.0197 0.6097
vn 0.3838 0.0161 0.9233
vn 0.7766 0.1431 0.6135
vn 0.7063 -0.3531 -0.6135
vn 0.9583 0.1511 -0.2427
vn 0.8387 0.3137 -0.4451
vn 0.4974 0.1581 -0.8530
vn 0.4986 0.3540 -0.7913
vn -0.2732 -0.0659 -0.9597
vn -0.4022 -0.2655 -0.8762
vn -0.7642 -0.3666 0.5306
vn -0.5317 0.1345 0.8362
vn -0.5029 0.3124 0.8059
vn -0.0792 0.6071 0.7907
vn -0.5611 -0.6724 0.4827
vn -0.7433 -0.6520 0.1492
vn 0.0220 -0.9769 0.2124
vn -0.8572 -0.3243 -0.4001
vn -0.8661 -0.4964 -0.0590
vn -0.9822 -0.1848 0.0346
vn -0.8759 0.2745 0.3968
vn -0.9442 0.3294 0.0066
vn -0.9783 0.1835 -0.0962
vn -0.3618 -0.0983 0.9271
vn -0.5609 -0.3175 0.7646
vn -0.2223 -0.3494 0.9102
vn 0.0305 -0.1358 0.9903
vn 0.3735 -0.2024 0.9053
vn 0.5988 -0.3286 0.7304
vn 0.5659 -0.1132 0.8167
vn 0.2012 0.0182 0.9794
vn -0.6421 0.1467 0.7525
vn -0.6467 -0.0506 0.7611
vn 0.9865 -0.1483 -0.0696
vn 0.9284 -0.2834 -0.2402
vn 0.9472 -0.1100 -0.3013
vn 0.9918 0.0203 -0.1263
vn 0.9072 0.3016 -0.2934
vn 0.9334 0.3329 0.1339
vn 0.9872 0.0918 0.1306
vn 0.6315 -0.0727 -0.7720
vn 0.7213 -0.3336 -0.6070
vn 0.2819 -0.3452 -0.8952
vn -0.2321 -0.1455 -0.9618
vn -0.5430 -0.2470 -0.8025
vn -0.5121 -0.0432 -0.8579
vn -0.1296 0.0786 -0.9884
vn 0.1106 -0.0979 -0.9890
vn 0.0239 0.3181 -0.9478
vn 0.5925 0.3642 -0.7185
vn 0.3692 0.1647 -0.9146
vn -0.1628 0.9229 -0.3489
vn -0.8072 0.5586 0.1905
vn -0.0394 0.9968 0.0702
vn 0.0792 0.8924 0.4443
vn -0.6792 0.5102 0.5276
vn -0.1366 0.4917 0.8600
vn 0.6354 0.5533 0.5387
vn 0.7762 0.6280 -0.0553
vn 0.6333 0.6088 -0.4778
vn 0.0678 0.5466 -0.8346
vn 0.6625 -0.6024 -0.4453
vn 0.7905 -0.6119 -0.0251
vn 0.3891 -0.9211 0.0104
vn -0.6888 -0.6192 0.3769
vn -0.4228 -0.8771 -0.2279
vn -0.9190 -0.0270 0.3933
vn -0.9940 0.0344 -0.1041
vn -0.9030 0.1683 0.3953
vn 0.2563 -0.3698 0.8931
vn -0.2947 0.0888 0.9515
vn -0.0703 0.2453 0.9669
vn 0.4675 0.1029 0.8780
vn 0.4372 0.3103 0.8441
vn 0.9868 -0.0919 0.1334
vn 0.9666 -0.2525 0.0438
vn -0.1594 -0.3242 -0.9325
vn -0.4756 0.1783 -0.8614
vn -0.4866 0.3644 -0.7940
vn -0.7010 0.5768 -0.4193
vn -0.0434 -0.6767 -0.7350
vn 0.3469 -0.6964 -0.6282
vn 0.0125 -0.9968 -0.0784
vn -0.3907 -0.7409 0.5463
vn 0.0264 -0.7503 0.6606
vn 0.7728 0.3443 0.5331
vn -0.8246 0.4021 -0.3980
vn -0.8259 0.2407 -0.5098
vn -0.8220 0.0661 -0.5656
vn -0.5441 -0.5046 -0.6704
vn 0.8309 -0.0189 0.5560
vn 0.8232 -0.4460 0.3514
vn 0.8570 -0.2266 0.4628
vn -0.6141 0.2732 0.7404
vn 0.8049 0.1585 0.5718
vn 0.5240 -0.6505 0.5498
vn -0.8177 -0.2840 0.5008
vn -0.8614 -0.1289 -0.4912
vn 0.8408 0.1432 -0.5221
vn 0.7666 -0.6375 0.0770
vn 0.6127 -0.7361 -0.2879
vn 0.0681 0.3560 -0.9320
vn 0.0143 0.4097 0.9121
vn -0.1008 0.1792 0.9786
vn -0.1015 0.0347 0.9942
vn -0.2024 -0.5628 0.8014
vn 0.0957 0.0239 -0.9951
vn -0.0168 -0.4499 -0.8929
vn 0.0503 -0.1864 -0.9812
vn 0.9337 0.3444 0.0976
vn 0.1031 0.1716 -0.9798
vn 0.3271 -0.6492 -0.6867
vn 0.8818 -0.2429 0.4043
vn 0.0114 -0.1080 0.9941
vn -0.9038 0.0813 -0.4202
vn 0.5049 0.1076 -0.8565
vn 0.9319 0.1901 -0.3089
vn 0.9079 0.2809 -0.3112
vn 0.9044 0.1686 0.3919
vn 0.5422 0.1026 0.8340
vn 0.5882 0.1262 0.7988
vn 0.5793 0.0514 0.8135
vn 0.3958 0.0290 0.9179
vn -0.5002 0.2279 -0.8354
vn -0.9592 -0.1312 0.2505
vn -0.9335 -0.1332 -0.3329
vn -0.6000 -0.0669 0.7972
vn 0.9391 -0.2591 -0.2256
vn 0.3276 -0.1883 -0.9259
vn 0.7559 -0.0743 0.6505
vn -0.6016 -0.0842 -0.7943
vn -0.0324 0.0195 0.9993
usemtl None
s 1
f 297/1/1 263/2/2 3/3/3 215/4/4
f 296/5/5 122/6/6 6/7/7 126/8/8
f 295/9/9 167/10/10 9/11/11 107/12/12
f 294/13/13 111/14/14 10/15/15 102/16/16
f 293/17/17 117/18/18 8/19/19 211/20/20
f 292/21/21 244/22/22 15/23/23 156/24/24
f 291/25/25 155/26/26 17/27/27 161/28/28
f 290/29/29 173/30/30 14/31/31 112/32/32
f 289/33/33 201/34/34 16/35/35 115/36/36
f 288/37/37 258/38/38 18/39/39 97/40/40
f 287/41/41 164/42/42 20/43/43 257/44/44
f 286/45/45 249/46/46 22/47/47 179/48/48
f 285/49/49 118/50/50 19/51/51 214/52/52
f 284/53/53 125/54/54 21/55/55 210/56/56
f 283/57/57 200/58/58 23/59/59 116/60/60
f 282/61/61 82/62/62 26/63/63 221/64/64
f 10/15/15 266/65/65 95/66/66
f 281/67/67 89/68/68 30/69/69 256/70/70
f 280/71/71 227/72/72 31/73/73 212/74/74
f 279/75/75 92/76/76 28/77/77 169/78/78
f 278/79/79 165/80/80 7/81/81 151/82/82
f 277/83/83 141/84/84 33/85/85 129/86/86
f 276/87/87 170/88/88 35/89/89 205/90/90
f 275/91/91 262/92/92 32/93/93 189/94/94
f 274/95/95 193/96/96 27/97/97 175/98/98
f 273/99/99 124/100/100 36/101/101 207/102/102
f 272/103/103 192/104/104 34/105/105 160/106/106
f 12/107/107 102/16/16 92/76/76
f 2/108/108 132/109/109 128/110/110
f 24/111/111 255/112/112 121/113/113
f 271/114/114 176/115/115 2/108/108 255/112/112
f 270/116/116 266/65/65 10/15/15 107/12/12
f 37/117/117 114/118/118 243/119/119
f 40/120/120 248/121/121 186/122/122
f 43/123/123 147/124/124 185/125/125
f 43/126/123 185/127/125 133/128/126
f 45/129/127 104/130/128 235/131/129
f 45/129/127 235/131/129 191/132/130
f 43/123/123 139/133/131 232/134/132
f 49/135/133 138/136/134 85/137/135
f 49/135/133 85/137/135 226/138/136
f 52/139/137 81/140/138 158/141/139
f 51/142/140 181/143/141 127/144/142
f 55/145/143 202/146/144 123/147/145
f 55/145/143 123/147/145 219/148/146
f 55/149/143 219/150/146 261/151/147
f 56/152/148 131/153/149 222/154/150
f 57/155/151 206/156/152 149/157/153
f 58/158/154 144/159/155 174/160/156
f 58/161/154 109/162/157 213/163/158
f 58/161/154 213/163/158 149/164/153
f 57/165/151 269/166/159 265/167/160
f 50/168/161 152/169/162 150/170/163
f 38/171/164 114/118/118 159/172/165
f 39/173/166 87/174/167 243/119/119
f 39/173/166 203/175/168 87/174/167
f 43/123/123 232/134/132 147/124/124
f 45/129/127 228/176/169 104/130/128
f 43/126/123 133/128/126 182/177/170
f 48/178/171 197/179/172 204/180/173
f 43/123/123 182/181/170 139/133/131
f 49/135/133 145/182/174 234/183/175
f 49/135/133 234/183/175 138/136/134
f 49/135/133 226/138/136 145/182/174
f 55/149/143 261/151/147 168/184/176
f 55/145/143 168/185/176 202/146/144
f 56/186/148 253/187/177 166/188/178
f 57/155/151 265/189/160 120/190/179
f 57/155/151 120/190/179 206/156/152
f 58/161/154 174/191/156 109/162/157
f 54/192/180 220/193/181 163/194/182
f 54/195/180 163/196/182 159/172/165
f 59/197/183 233/198/184 184/199/185
f 62/200/186 196/201/187 143/202/188
f 65/203/189 91/204/190 119/205/191
f 65/206/189 119/207/191 157/208/192
f 67/209/193 198/210/194 241/211/195
f 67/209/193 241/211/195 100/212/196
f 65/203/189 101/213/197 190/214/198
f 71/215/199 195/216/200 237/217/201
f 71/215/199 237/217/201 268/218/202
f 74/219/203 230/220/204 264/221/205
f 73/222/206 134/223/207 177/224/208
f 77/225/209 225/226/210 135/227/211
f 77/225/209 135/227/211 93/228/212
f 77/229/209 93/230/212 216/231/213
f 78/232/214 162/233/215 260/234/216
f 79/235/217 240/236/218 188/237/219
f 80/238/220 183/239/221 96/240/222
f 80/241/220 171/242/223 254/243/224
f 80/241/220 254/243/224 188/244/219
f 79/245/217 208/246/225 223/247/226
f 72/248/227 88/249/228 103/250/229
f 60/251/230 233/198/184 180/252/231
f 61/253/232 239/254/233 184/199/185
f 61/253/232 154/255/234 239/254/233
f 65/203/189 190/214/198 91/204/190
f 67/209/193 251/256/235 198/210/194
f 65/206/189 157/208/192 108/257/236
f 70/258/237 106/259/238 218/260/239
f 65/203/189 108/261/236 101/213/197
f 71/215/199 146/262/240 229/263/241
f 71/215/199 229/263/241 195/216/200
f 71/215/199 268/218/202 146/262/240
f 77/229/209 216/231/213 137/264/242
f 77/225/209 137/265/242 225/226/210
f 78/266/214 90/267/243 187/268/244
f 79/235/217 223/269/226 136/270/245
f 79/235/217 136/270/245 240/236/218
f 80/241/220 96/271/222 171/242/223
f 76/272/246 250/273/247 267/274/248
f 76/275/246 267/276/248 180/252/231
f 180/252/231 246/277/249 60/251/230
f 180/252/231 267/276/248 246/277/249
f 267/276/248 66/278/250 246/277/249
f 267/274/248 103/250/229 66/279/250
f 267/274/248 250/273/247 103/250/229
f 250/273/247 72/248/227 103/250/229
f 171/242/223 218/260/239 75/280/251
f 171/242/223 96/271/222 218/260/239
f 96/271/222 70/258/237 218/260/239
f 240/236/218 196/201/187 62/200/186
f 240/236/218 136/270/245 196/201/187
f 136/270/245 63/281/252 196/201/187
f 136/270/245 187/268/244 63/281/252
f 136/270/245 223/269/226 187/268/244
f 223/269/226 78/266/214 187/268/244
f 187/268/244 247/282/253 63/281/252
f 187/268/244 90/267/243 247/282/253
f 90/267/243 64/283/254 247/282/253
f 225/226/210 83/284/255 59/197/183
f 225/226/210 137/265/242 83/284/255
f 137/265/242 76/275/246 83/284/255
f 137/264/242 177/224/208 76/272/246
f 137/264/242 216/231/213 177/224/208
f 216/231/213 73/222/206 177/224/208
f 146/262/240 264/221/205 69/285/256
f 146/262/240 268/218/202 264/221/205
f 268/218/202 74/219/203 264/221/205
f 195/216/200 88/249/228 72/248/227
f 195/216/200 229/263/241 88/249/228
f 229/263/241 68/286/257 88/249/228
f 229/263/241 148/287/258 68/286/257
f 229/263/241 146/262/240 148/287/258
f 146/262/240 69/285/256 148/287/258
f 101/213/197 259/288/259 62/200/186
f 101/213/197 108/261/236 259/288/259
f 108/261/236 70/289/237 259/288/259
f 218/260/239 130/290/260 75/280/251
f 218/260/239 106/259/238 130/290/260
f 106/259/238 69/285/256 130/290/260
f 108/257/236 100/212/196 70/258/237
f 108/257/236 157/208/192 100/212/196
f 157/208/192 67/209/193 100/212/196
f 198/210/194 105/291/261 68/286/257
f 198/210/194 251/256/235 105/291/261
f 251/256/235 66/279/250 105/291/261
f 91/204/190 94/292/262 60/251/230
f 91/204/190 190/214/198 94/292/262
f 190/214/198 61/253/232 94/292/262
f 239/254/233 143/202/188 64/283/254
f 239/254/233 154/255/234 143/202/188
f 154/255/234 62/200/186 143/202/188
f 184/199/185 231/293/263 59/197/183
f 184/199/185 239/254/233 231/293/263
f 239/254/233 64/283/254 231/293/263
f 180/252/231 83/284/255 76/275/246
f 180/252/231 233/198/184 83/284/255
f 233/198/184 59/197/183 83/284/255
f 103/250/229 105/291/261 66/279/250
f 103/250/229 88/249/228 105/291/261
f 88/249/228 68/286/257 105/291/261
f 223/247/226 162/233/215 78/232/214
f 223/247/226 208/246/225 162/233/215
f 208/246/225 74/219/203 162/233/215
f 188/244/219 208/246/225 79/245/217
f 188/244/219 254/243/224 208/246/225
f 254/243/224 74/219/203 208/246/225
f 254/243/224 230/220/204 74/219/203
f 254/243/224 171/242/223 230/220/204
f 171/242/223 75/280/251 230/220/204
f 96/240/222 259/288/259 70/289/237
f 96/240/222 183/239/221 259/288/259
f 183/239/221 62/200/186 259/288/259
f 188/237/219 183/239/221 80/238/220
f 188/237/219 240/236/218 183/239/221
f 240/236/218 62/200/186 183/239/221
f 260/234/216 86/294/264 73/222/206
f 260/234/216 162/233/215 86/294/264
f 162/233/215 74/219/203 86/294/264
f 216/231/213 260/234/216 73/222/206
f 216/231/213 93/230/212 260/234/216
f 93/230/212 78/232/214 260/234/216
f 93/228/212 90/267/243 78/266/214
f 93/228/212 135/227/211 90/267/243
f 135/227/211 64/283/254 90/267/243
f 135/227/211 231/293/263 64/283/254
f 135/227/211 225/226/210 231/293/263
f 225/226/210 59/197/183 231/293/263
f 177/224/208 250/273/247 76/272/246
f 177/224/208 134/223/207 250/273/247
f 134/223/207 72/248/227 250/273/247
f 264/221/205 130/290/260 69/285/256
f 264/221/205 230/220/204 130/290/260
f 230/220/204 75/280/251 130/290/260
f 268/218/202 86/294/264 74/219/203
f 268/218/202 237/217/201 86/294/264
f 237/217/201 73/222/206 86/294/264
f 237/217/201 134/223/207 73/222/206
f 237/217/201 195/216/200 134/223/207
f 195/216/200 72/248/227 134/223/207
f 190/214/198 154/255/234 61/253/232
f 190/214/198 101/213/197 154/255/234
f 101/213/197 62/200/186 154/255/234
f 100/212/196 106/259/238 70/258/237
f 100/212/196 241/211/195 106/259/238
f 241/211/195 69/285/256 106/259/238
f 241/211/195 148/287/258 69/285/256
f 241/211/195 198/210/194 148/287/258
f 198/210/194 68/286/257 148/287/258
f 157/208/192 251/256/235 67/209/193
f 157/208/192 119/207/191 251/256/235
f 119/207/191 66/279/250 251/256/235
f 119/205/191 246/277/249 66/278/250
f 119/205/191 91/204/190 246/277/249
f 91/204/190 60/251/230 246/277/249
f 143/202/188 247/282/253 64/283/254
f 143/202/188 196/201/187 247/282/253
f 196/201/187 63/281/252 247/282/253
f 184/199/185 94/292/262 61/253/232
f 184/199/185 233/198/184 94/292/262
f 233/198/184 60/251/230 94/292/262
f 159/172/165 98/295/265 38/171/164
f 159/172/165 163/196/182 98/295/265
f 163/196/182 44/296/266 98/295/265
f 163/194/182 150/170/163 44/297/266
f 163/194/182 220/193/181 150/170/163
f 220/193/181 50/168/161 150/170/163
f 109/162/157 204/180/173 53/298/267
f 109/162/157 174/191/156 204/180/173
f 174/191/156 48/178/171 204/180/173
f 206/156/152 248/121/121 40/120/120
f 206/156/152 120/190/179 248/121/121
f 120/190/179 41/299/268 248/121/121
f 120/190/179 166/188/178 41/299/268
f 120/190/179 265/189/160 166/188/178
f 265/189/160 56/186/148 166/188/178
f 166/188/178 99/300/269 41/299/268
f 166/188/178 253/187/177 99/300/269
f 253/187/177 42/301/270 99/300/269
f 202/146/144 252/302/271 37/117/117
f 202/146/144 168/185/176 252/302/271
f 168/185/176 54/195/180 252/302/271
f 168/184/176 127/144/142 54/192/180
f 168/184/176 261/151/147 127/144/142
f 261/151/147 51/142/140 127/144/142
f 145/182/174 158/141/139 47/303/272
f 145/182/174 226/138/136 158/141/139
f 226/138/136 52/139/137 158/141/139
f 138/136/134 152/169/162 50/168/161
f 138/136/134 234/183/175 152/169/162
f 234/183/175 46/304/273 152/169/162
f 234/183/175 142/305/274 46/304/273
f 234/183/175 145/182/174 142/305/274
f 145/182/174 47/303/272 142/305/274
f 139/133/131 110/306/275 40/120/120
f 139/133/131 182/181/170 110/306/275
f 182/181/170 48/307/171 110/306/275
f 204/180/173 113/308/276 53/298/267
f 204/180/173 197/179/172 113/308/276
f 197/179/172 47/303/272 113/308/276
f 182/177/170 191/132/130 48/178/171
f 182/177/170 133/128/126 191/132/130
f 133/128/126 45/129/127 191/132/130
f 104/130/128 178/309/277 46/304/273
f 104/130/128 228/176/169 178/309/277
f 228/176/169 44/297/266 178/309/277
f 147/124/124 153/310/278 38/171/164
f 147/124/124 232/134/132 153/310/278
f 232/134/132 39/173/166 153/310/278
f 87/174/167 186/122/122 42/301/270
f 87/174/167 203/175/168 186/122/122
f 203/175/168 40/120/120 186/122/122
f 243/119/119 84/311/279 37/117/117
f 243/119/119 87/174/167 84/311/279
f 87/174/167 42/301/270 84/311/279
f 159/172/165 252/302/271 54/195/180
f 159/172/165 114/118/118 252/302/271
f 114/118/118 37/117/117 252/302/271
f 150/170/163 178/309/277 44/297/266
f 150/170/163 152/169/162 178/309/277
f 152/169/162 46/304/273 178/309/277
f 265/167/160 131/153/149 56/152/148
f 265/167/160 269/166/159 131/153/149
f 269/166/159 52/139/137 131/153/149
f 149/164/153 269/166/159 57/165/151
f 149/164/153 213/163/158 269/166/159
f 213/163/158 52/139/137 269/166/159
f 213/163/158 81/140/138 52/139/137
f 213/163/158 109/162/157 81/140/138
f 109/162/157 53/298/267 81/140/138
f 174/160/156 110/306/275 48/307/171
f 174/160/156 144/159/155 110/306/275
f 144/159/155 40/120/120 110/306/275
f 149/157/153 144/159/155 58/158/154
f 149/157/153 206/156/152 144/159/155
f 206/156/152 40/120/120 144/159/155
f 222/154/150 224/312/280 51/142/140
f 222/154/150 131/153/149 224/312/280
f 131/153/149 52/139/137 224/312/280
f 261/151/147 222/154/150 51/142/140
f 261/151/147 219/150/146 222/154/150
f 219/150/146 56/152/148 222/154/150
f 219/148/146 253/187/177 56/186/148
f 219/148/146 123/147/145 253/187/177
f 123/147/145 42/301/270 253/187/177
f 123/147/145 84/311/279 42/301/270
f 123/147/145 202/146/144 84/311/279
f 202/146/144 37/117/117 84/311/279
f 127/144/142 220/193/181 54/192/180
f 127/144/142 181/143/141 220/193/181
f 181/143/141 50/168/161 220/193/181
f 158/141/139 113/308/276 47/303/272
f 158/141/139 81/140/138 113/308/276
f 81/140/138 53/298/267 113/308/276
f 226/138/136 224/312/280 52/139/137
f 226/138/136 85/137/135 224/312/280
f 85/137/135 51/142/140 224/312/280
f 85/137/135 181/143/141 51/142/140
f 85/137/135 138/136/134 181/143/141
f 138/136/134 50/168/161 181/143/141
f 232/134/132 203/175/168 39/173/166
f 232/134/132 139/133/131 203/175/168
f 139/133/131 40/120/120 203/175/168
f 191/132/130 197/179/172 48/178/171
f 191/132/130 235/131/129 197/179/172
f 235/131/129 47/303/272 197/179/172
f 235/131/129 142/305/274 47/303/272
f 235/131/129 104/130/128 142/305/274
f 104/130/128 46/304/273 142/305/274
f 133/128/126 228/176/169 45/129/127
f 133/128/126 185/127/125 228/176/169
f 185/127/125 44/297/266 228/176/169
f 185/125/125 98/295/265 44/296/266
f 185/125/125 147/124/124 98/295/265
f 147/124/124 38/171/164 98/295/265
f 186/122/122 99/300/269 42/301/270
f 186/122/122 248/121/121 99/300/269
f 248/121/121 41/299/268 99/300/269
f 243/119/119 153/310/278 39/173/166
f 243/119/119 114/118/118 153/310/278
f 114/118/118 38/171/164 153/310/278
f 236/313/281 270/116/116 107/12/12 9/11/11
f 13/314/282 172/315/283 270/116/116 236/313/281
f 172/315/283 24/316/111 266/65/65 270/116/116
f 172/317/283 271/114/114 255/112/112 24/111/111
f 13/318/282 245/319/284 271/114/114 172/317/283
f 245/319/284 5/320/285 176/115/115 271/114/114
f 121/113/113 128/110/110 25/321/286
f 121/113/113 255/112/112 128/110/110
f 255/112/112 2/108/108 128/110/110
f 128/110/110 209/322/287 25/321/286
f 128/110/110 132/109/109 209/322/287
f 132/109/109 1/323/288 209/322/287
f 92/76/76 95/66/66 28/77/77
f 92/76/76 102/16/16 95/66/66
f 102/16/16 10/15/15 95/66/66
f 170/88/88 272/103/103 160/106/106 35/89/89
f 26/63/63 212/74/74 272/103/103 170/88/88
f 212/74/74 31/73/73 192/104/104 272/103/103
f 141/84/84 273/99/99 207/102/102 33/85/85
f 32/93/93 175/98/98 273/99/99 141/84/84
f 175/98/98 27/97/97 124/100/100 273/99/99
f 262/92/92 274/95/95 175/98/98 32/93/93
f 28/324/77 242/325/289 274/95/95 262/92/92
f 242/325/289 24/326/111 193/96/96 274/95/95
f 227/72/72 275/91/91 189/94/94 31/73/73
f 30/327/69 169/328/78 275/91/91 227/72/72
f 169/328/78 28/324/77 262/92/92 275/91/91
f 124/329/100 276/87/87 205/90/90 36/330/101
f 27/331/97 221/64/64 276/87/87 124/329/100
f 221/64/64 26/63/63 170/88/88 276/87/87
f 192/104/104 277/83/83 129/86/86 34/105/105
f 31/73/73 189/94/94 277/83/83 192/104/104
f 189/94/94 32/93/93 141/84/84 277/83/83
f 238/332/290 278/79/79 151/82/82 11/333/291
f 4/334/292 215/4/4 278/79/79 238/332/290
f 215/4/4 3/3/3 165/80/80 278/79/79
f 89/68/68 279/75/75 169/78/78 30/69/69
f 29/335/293 140/336/294 279/75/75 89/68/68
f 140/336/294 12/107/107 92/76/76 279/75/75
f 82/62/62 280/71/71 212/74/74 26/63/63
f 25/337/286 256/338/70 280/71/71 82/62/62
f 256/338/70 30/327/69 227/72/72 280/71/71
f 209/322/287 281/67/67 256/70/70 25/321/286
f 1/323/288 199/339/295 281/67/67 209/322/287
f 199/339/295 29/335/293 89/68/68 281/67/67
f 95/66/66 242/340/289 28/77/77
f 95/66/66 266/65/65 242/340/289
f 266/65/65 24/316/111 242/340/289
f 193/341/96 282/61/61 221/64/64 27/331/97
f 24/342/111 121/343/113 282/61/61 193/341/96
f 121/343/113 25/337/286 82/62/62 282/61/61
f 155/344/26 283/57/57 116/60/60 17/345/27
f 16/346/35 179/48/48 283/57/57 155/344/26
f 179/48/48 22/47/47 200/58/58 283/57/57
f 244/347/22 284/53/53 210/56/56 15/348/23
f 14/349/31 257/350/44 284/53/53 244/347/22
f 257/350/44 20/351/43 125/54/54 284/53/53
f 258/352/38 285/49/49 214/52/52 18/353/39
f 17/345/27 116/60/60 285/49/49 258/352/38
f 116/60/60 23/59/59 118/50/50 285/49/49
f 201/354/34 286/45/45 179/48/48 16/346/35
f 15/348/23 210/56/56 286/45/45 201/354/34
f 210/56/56 21/55/55 249/46/46 286/45/45
f 173/355/30 287/41/41 257/44/44 14/356/31
f 18/353/39 214/52/52 287/41/41 173/355/30
f 214/52/52 19/51/51 164/42/42 287/41/41
f 167/10/10 288/37/37 97/40/40 9/11/11
f 8/19/19 161/28/28 288/37/37 167/10/10
f 161/28/28 17/27/27 258/38/38 288/37/37
f 122/6/6 289/33/33 115/36/36 6/7/7
f 5/320/285 156/24/24 289/33/33 122/6/6
f 156/24/24 15/23/23 201/34/34 289/33/33
f 236/313/281 290/29/29 112/32/32 13/314/282
f 9/11/11 97/40/40 290/29/29 236/313/281
f 97/40/40 18/39/39 173/30/30 290/29/29
f 117/18/18 291/25/25 161/28/28 8/19/19
f 6/7/7 115/36/36 291/25/25 117/18/18
f 115/36/36 16/35/35 155/26/26 291/25/25
f 245/319/284 292/21/21 156/24/24 5/320/285
f 13/318/282 112/357/32 292/21/21 245/319/284
f 112/357/32 14/358/31 244/22/22 292/21/21
f 165/80/80 293/17/17 211/20/20 7/81/81
f 3/3/3 126/8/8 293/17/17 165/80/80
f 126/8/8 6/7/7 117/18/18 293/17/17
f 194/359/296 294/13/13 102/16/16 12/107/107
f 11/333/291 151/82/82 294/13/13 194/359/296
f 151/82/82 7/81/81 111/14/14 294/13/13
f 111/14/14 295/9/9 107/12/12 10/15/15
f 7/81/81 211/20/20 295/9/9 111/14/14
f 211/20/20 8/19/19 167/10/10 295/9/9
f 263/2/2 296/5/5 126/8/8 3/3/3
f 2/108/108 176/115/115 296/5/5 263/2/2
f 176/115/115 5/320/285 122/6/6 296/5/5
f 217/360/297 297/1/1 215/4/4 4/334/292
f 1/323/288 132/109/109 297/1/1 217/360/297
f 132/109/109 2/108/108 263/2/2 297/1/1
