# Blender v2.78 (sub 0) OBJ File: ''
# www.blender.org
mtllib Birch_Tree_m_02.mtl
o Birch_Tree_m_02
v -0.194478 0.048085 -0.085068
v -0.193713 0.592049 -0.074891
v -0.055926 0.592402 -0.175005
v -0.004947 0.048085 -0.222771
v 0.184584 0.048085 -0.085068
v 0.081861 0.592755 -0.074891
v 0.029231 0.592620 0.087096
v 0.112190 0.048085 0.137739
v -0.122084 0.048085 0.137739
v -0.141083 0.592183 0.087096
v -0.047209 2.054906 -0.068613
v -0.086803 2.049633 0.055359
v -0.152155 2.050658 -0.143175
v -0.217487 2.046451 0.055329
v -0.255865 2.045685 -0.067699
v -0.499765 3.759837 0.060499
v -0.549549 3.743170 -0.063410
v -0.464498 3.755031 -0.125929
v -0.347721 3.784411 -0.056686
v -0.331439 3.626671 0.060534
v -0.937615 5.391631 -0.060516
v -0.967520 5.404413 0.019092
v -0.449074 4.024431 0.058051
v -1.004768 5.395617 -0.107679
v 0.008236 4.160770 0.194636
v 0.032872 4.089516 0.260386
v -1.046744 5.396500 0.019092
v -1.070686 5.398878 -0.059603
v -1.332594 6.827259 -0.012335
v -1.345670 6.827079 -0.052624
v -1.311436 6.827546 -0.077524
v -1.277202 6.828012 -0.052624
v -1.290278 6.827835 -0.012335
v -0.026868 4.122632 0.313084
v -0.032694 4.211610 0.265154
v 0.313799 4.677247 0.370229
v 0.360788 4.666365 0.312899
v 0.407858 4.614581 0.360888
v 0.358020 4.626075 0.413381
v 0.647365 5.648179 0.495598
v 0.613266 5.666128 0.467189
v 0.642559 5.662793 0.433276
v 0.677492 5.644332 0.464236
v 0.465790 6.271690 1.164275
v 0.771878 6.598183 1.186290
v 0.389704 7.063151 0.967096
v 0.046882 6.578419 0.831289
v 0.050311 6.988373 0.519280
v -0.051533 6.364486 0.346868
v 0.113160 5.939482 0.738261
v 0.431424 5.824020 0.969344
v 0.135006 6.839479 0.059038
v 0.445590 7.273223 0.136915
v 0.585668 6.551048 -0.249921
v 0.259433 6.221868 -0.100720
v 0.767448 5.716006 0.049987
v 0.289752 5.724460 0.216686
v 0.941684 6.272525 -0.190265
v 1.192523 6.665530 -0.013180
v 1.104897 7.227044 0.333755
v 1.363965 6.411496 0.624736
v 1.184237 5.935914 0.159767
v 1.046151 7.115501 0.859948
v 1.156987 6.640713 0.989492
v 0.948987 5.983741 1.018056
v 1.023578 5.696257 0.646760
v 0.568616 5.582782 0.644107
v 0.732470 7.395030 0.622994
v 0.905752 7.110558 -0.038697
v 0.368730 7.338579 0.580904
v -1.905508 7.295810 -0.742279
v -2.181282 7.870872 -0.461333
v -1.732318 8.673639 -0.827566
v -1.281364 7.844357 -1.048270
v -0.981791 8.595082 -0.903143
v -0.634917 7.550947 -0.801341
v -1.137271 6.773331 -0.805163
v -1.601837 6.560838 -0.577397
v -0.495887 8.421502 -0.474055
v -0.852304 9.170900 -0.243006
v -0.412980 8.010597 0.294603
v -0.318130 7.401755 -0.123436
v -0.769361 6.549042 0.439007
v -0.635409 6.503207 -0.219246
v -0.686764 7.550195 0.706996
v -1.110217 8.209792 0.810183
v -1.518847 9.105948 0.385601
v -1.920166 7.684494 0.621000
v -1.206484 6.935605 0.805173
v -2.063577 8.826035 -0.015095
v -2.224631 8.002193 0.102961
v -2.030115 6.861574 -0.045422
v -1.620575 6.436265 0.335450
v -1.293347 6.211350 -0.163484
v -1.616816 9.319878 -0.260717
v -0.944093 8.953710 0.426586
v -1.314147 9.205057 -0.638519
v -1.576334 9.281893 0.049202
v 0.258897 7.052605 0.075731
v 0.024124 4.121840 0.222532
v -1.177943 6.410443 -0.501158
v 0.517333 5.193872 0.377458
v -1.513721 8.243668 -0.985450
v -0.226991 2.877820 0.049392
v -1.342724 6.827039 -0.031312
v -1.757694 6.853675 -0.649343
v 0.176780 7.047241 0.761476
v 0.004445 4.099678 0.291338
v -1.183782 7.558567 0.853155
v -1.403758 6.619977 -0.697745
v 1.277630 6.862022 0.470804
v -1.803047 6.949074 0.499840
v 0.624211 5.666061 0.447096
v 0.486531 5.703999 0.835924
v 0.613114 7.381793 0.383212
v 1.250941 6.826601 0.742666
v 0.594625 6.826751 1.113988
v 0.422308 5.615902 0.410293
v -0.356299 2.884053 0.049676
v -0.131624 0.262280 0.117433
v -1.150838 6.184668 0.002447
v -0.055926 0.592402 0.099154
v 1.092744 6.340907 1.012630
v -0.505629 7.251149 0.393067
v -0.573844 8.662442 0.012964
v 0.388357 4.639749 0.332398
v -0.403823 3.976923 0.003513
v 1.010162 5.813216 0.835842
v -0.708697 8.538269 -0.709236
v 0.224723 4.323533 0.314031
v 0.142329 0.262280 -0.081606
v -0.684251 8.565794 0.372650
v -1.712389 9.085663 -0.534561
v -1.560181 7.243848 0.758050
v 0.659731 6.111470 -0.162511
v 0.020055 0.592579 -0.134703
v -1.842007 6.604300 0.174389
v 0.454463 6.004365 1.071819
v -1.210898 7.309704 -0.961433
v 0.487145 6.951571 -0.095635
v -0.931896 6.295674 -0.179555
v 0.236081 6.440995 1.013369
v 0.217986 7.198913 0.557223
v -0.196296 0.262280 -0.081606
v 1.002192 7.192730 0.113190
v 1.227020 6.290907 0.073671
v 0.865661 6.296431 1.142989
v -0.191163 2.901337 -0.071169
v -1.351279 8.665053 -0.930474
v -2.008169 8.260478 -0.652960
v 0.724833 7.127745 0.944125
v 0.361567 7.244469 0.759082
v 0.663102 5.653231 0.445387
v -1.193352 9.076036 0.421548
v -0.860011 7.124137 -0.830405
v 0.002029 6.130585 0.539298
v 0.666130 5.644655 0.483053
v -2.018617 7.040463 -0.423236
v -1.280148 6.828053 -0.031312
v -0.172904 3.898757 0.157116
v -2.031666 8.366123 0.344726
v -1.744842 8.472576 0.551225
v -0.430160 7.471873 -0.464461
v 0.189755 6.815223 0.922914
v -0.039233 6.473949 0.604534
v -0.677799 6.455792 0.105707
v 0.758439 6.878515 -0.152351
v 0.559909 5.159668 0.416966
v -0.810449 4.576236 -0.061688
v 0.255501 6.100707 0.978396
v -0.858721 6.594331 -0.528843
v 0.386868 4.616166 0.390796
v -1.131884 6.183901 -0.056017
v 1.299727 6.132611 0.378886
v -0.209408 2.047927 -0.112875
v -2.147119 8.398531 -0.281436
v 0.662332 5.866928 1.006420
v 1.216591 5.989876 0.658135
v 0.171925 4.346670 0.369835
v -0.262561 3.932213 0.190297
v -0.967647 5.393353 -0.088991
v -2.168234 7.482170 0.063510
v 0.331876 4.652384 0.396301
v -1.682061 6.429111 -0.102769
v -0.547269 3.738229 -0.007224
v -1.192185 9.253834 0.085248
v 0.764152 5.722216 0.852722
v -1.260859 9.327909 -0.234395
v 0.908344 6.634538 -0.180308
v -0.033351 4.170424 0.294098
v 0.185929 4.387637 0.258566
v -0.308462 3.647858 0.004484
v 0.095594 6.014835 0.265206
v -0.004947 0.048085 0.161982
v 0.405177 6.356149 -0.191879
v -1.231130 6.187917 -0.056017
v -1.216590 6.376377 0.402200
v -0.877399 8.940778 -0.614285
v 0.274123 5.946861 0.040504
v 0.104069 0.048085 -0.173533
v -0.791220 8.098411 -0.899740
v 0.178773 6.539470 -0.044975
v -1.471746 6.381439 -0.405471
v 0.409334 6.667521 1.108398
v -1.064451 5.398129 -0.018386
v 0.915677 7.352001 0.482951
v -0.915546 7.238992 0.782122
v 1.116160 7.184405 0.608812
v 0.279694 5.856563 0.882298
v -1.357071 8.677219 0.650116
v 0.526985 7.378857 0.601591
v 0.983951 6.621064 1.094321
v 1.320772 6.548454 0.284872
v -0.168702 1.278798 0.069036
v -0.626919 8.791232 -0.378881
v -0.152145 2.048042 0.064538
v -1.292099 6.827860 -0.068131
v -2.127791 7.863312 0.341488
v -1.002868 6.673474 0.659725
v 1.201297 6.159914 0.848788
v 1.055451 6.445076 -0.135674
v -0.696931 7.080700 0.614826
v -0.058272 2.052665 -0.003786
v -0.550653 7.716062 0.555055
v -2.078131 7.584717 -0.609528
v -1.846875 9.144145 -0.145198
v 0.312985 5.713279 0.680509
v 0.023708 6.789154 0.689134
v -1.007132 5.400457 0.025141
v 0.674610 5.583006 0.355349
v 0.796867 6.371368 -0.234606
v -0.021696 1.281673 0.069036
v -0.178866 0.592116 0.009829
v -1.425694 6.651122 0.597334
v -2.223764 7.939604 -0.161470
v 0.383841 7.334770 0.384938
v 0.870633 6.008155 -0.108662
v -1.181507 6.185909 -0.092150
v -1.499920 9.014977 -0.750393
v -0.710665 4.650469 0.032273
v -0.479572 6.957451 0.173315
v 0.519616 5.166345 0.459228
v 0.171444 0.048085 0.033827
v 0.208046 7.164859 0.313217
v -0.170398 3.964629 0.072157
v -1.166463 8.959995 -0.771773
v -0.876900 9.066398 0.144997
v 0.143339 4.415027 0.321618
v -0.654180 4.586047 -0.067416
v 0.790587 7.316077 0.224433
v 1.003595 5.784621 0.106155
v -1.450583 9.281460 -0.478324
v 0.077657 0.262280 0.117433
v -1.036634 6.265974 0.150650
v -2.179917 8.373726 0.070728
v -0.412380 3.757644 -0.106408
v 0.328023 6.725416 -0.120526
v -0.026983 0.262280 -0.204618
v -1.834180 8.989295 0.221481
v -1.212176 6.187150 0.002447
v -0.113963 0.048085 -0.173533
v 0.584715 7.281454 0.808157
v -0.487855 3.962686 0.069368
v -0.538374 8.025703 -0.661424
v 0.706663 6.109830 1.138259
v 0.498242 5.954702 -0.071014
v -1.311436 6.827547 -0.008556
v -1.528540 7.019475 -0.829851
v 1.046882 6.926744 -0.043468
v 0.017355 6.624979 0.191149
v -1.330773 6.827232 -0.068131
v -0.407818 8.269347 -0.114802
v 0.627227 6.437794 1.200446
v -1.010701 8.650506 0.621163
v -1.131173 8.225573 -1.014332
v 0.892249 6.889518 1.051075
v -0.790751 4.576701 0.032730
v 1.067707 6.098930 -0.044770
v -1.521603 7.970462 0.776490
v 1.199374 6.956126 0.166260
v -0.094284 2.053026 -0.113332
v -2.031906 7.207340 0.326842
v -0.214130 1.277910 -0.070836
v -0.368125 7.929279 -0.305109
v -0.848782 7.843804 0.771942
v -0.453120 6.910383 -0.155853
v -1.855042 7.976682 -0.834533
v -0.722585 8.164258 0.602661
v 1.269169 6.541412 0.848814
v 0.701967 7.189966 0.014921
v -0.095199 1.280236 -0.157283
v -0.037000 6.693242 0.437837
v -1.041272 5.397519 -0.088534
v 0.909639 5.639174 0.366583
v 0.058254 6.261679 0.798851
v -0.245410 2.045673 -0.003344
v -2.156446 7.369296 -0.275612
v 1.124866 5.794897 0.403852
v 1.131273 6.854796 0.941095
v -0.385114 2.889170 -0.065456
v 0.023732 1.282561 -0.070836
v -0.330935 7.655916 0.081817
v 0.068762 6.931113 0.274996
v 0.627239 5.657485 0.484762
v -0.734392 4.580636 -0.117434
v -0.946832 5.397583 -0.018843
v -0.181338 0.048085 0.033827
v -0.596439 6.977538 -0.521174
v 0.478077 5.199403 0.423291
v 0.067014 0.592688 0.009829
v 0.333365 4.675968 0.337902
v -1.100767 9.231412 -0.489550
v 0.813473 5.611877 0.652383
v 0.889515 7.297050 0.742434
v -1.806690 6.644121 -0.345654
v -0.394665 3.633018 0.071911
v -1.473092 6.276697 0.105723
v -0.950965 7.696840 -0.977690
v 0.178671 5.806426 0.469750
v -0.013672 4.192587 0.225292
v 0.084672 6.288612 0.094396
v -0.511333 3.749319 -0.100679
v -0.131907 0.592225 -0.134703
v 0.514153 5.678840 0.125109
v -0.291402 2.898475 -0.133995
v -1.599486 7.593357 -0.931450
v -1.942499 8.810934 -0.440245
v -0.234119 4.053128 0.159287
v 0.543115 5.160326 0.441104
v 0.494353 5.199318 0.397368
v 0.541792 5.176284 0.393701
v 0.495676 5.183360 0.444771
v 0.209128 4.353571 0.281561
v 0.153830 4.382862 0.350463
v 0.201010 4.329822 0.346065
v 0.161948 4.406611 0.285959
v -0.201025 4.016323 0.111100
v -0.752199 4.616185 0.039924
v -0.254452 3.997531 0.179587
v -0.218966 3.908041 0.178328
v -1.181507 6.185910 0.006888
v -1.154090 6.184800 -0.077676
v -1.137146 6.184114 -0.025413
v -1.208924 6.187018 -0.077676
v -1.225868 6.187704 -0.025413
v -0.776348 4.578681 -0.095012
v -0.806391 4.573126 -0.012396
v -0.165538 3.926832 0.109841
v -0.689177 4.580677 -0.098333
v -0.676322 4.621418 -0.015717
v -0.291949 2.879810 0.058536
v -0.236433 2.901227 -0.109770
v -0.200291 2.889429 -0.008541
v -0.343112 2.893810 -0.106449
v -0.379184 2.886580 -0.005328
v -0.160907 1.278951 -0.122656
v -0.201517 1.278157 0.002384
v -0.095199 1.280236 0.079662
v -0.029491 1.281520 -0.122656
v 0.011119 1.282315 0.002384
v -0.026983 0.262280 0.132553
v 0.066560 0.262280 -0.155345
v -0.178340 0.262280 0.022586
v 0.124374 0.262280 0.022586
v -0.120527 0.262280 -0.155345
vt 0.0928 0.1860
vt 0.0989 0.2252
vt 0.0837 0.2257
vt 0.0745 0.1869
vt 0.2022 0.1881
vt 0.1901 0.2259
vt 0.1756 0.2238
vt 0.1847 0.1845
vt 0.1296 0.1844
vt 0.1296 0.2242
vt 0.1142 0.2247
vt 0.1111 0.1851
vt 0.0568 0.1898
vt 0.0691 0.2273
vt 0.0545 0.2288
vt 0.0391 0.1926
vt 0.1664 0.1840
vt 0.1603 0.2237
vt 0.1450 0.2237
vt 0.1480 0.1837
vt 0.1836 0.3425
vt 0.1771 0.4590
vt 0.1657 0.4590
vt 0.1707 0.3414
vt 0.0770 0.3436
vt 0.0850 0.4600
vt 0.0735 0.4598
vt 0.0640 0.3443
vt 0.1573 0.3417
vt 0.1542 0.4596
vt 0.1427 0.4602
vt 0.1438 0.3419
vt 0.1303 0.3424
vt 0.1311 0.4605
vt 0.1195 0.4608
vt 0.1169 0.3428
vt 0.1035 0.3428
vt 0.1080 0.4604
vt 0.0964 0.4601
vt 0.0900 0.3429
vt 0.1229 0.4622
vt 0.1229 0.6298
vt 0.1106 0.6311
vt 0.1097 0.4630
vt 0.0968 0.4628
vt 0.0992 0.6311
vt 0.0878 0.6311
vt 0.0840 0.4625
vt 0.1788 0.4581
vt 0.1781 0.6234
vt 0.1638 0.6187
vt 0.1647 0.4557
vt 0.0709 0.4619
vt 0.0756 0.6299
vt 0.0634 0.6288
vt 0.0578 0.4613
vt 0.1505 0.4585
vt 0.1495 0.6236
vt 0.1352 0.6285
vt 0.1362 0.4613
vt 0.1942 0.6223
vt 0.1912 0.7490
vt 0.1841 0.7495
vt 0.1851 0.6296
vt 0.1280 0.6186
vt 0.1363 0.7516
vt 0.1294 0.7501
vt 0.1200 0.6170
vt 0.0513 0.6744
vt 0.0604 0.6741
vt 0.0659 0.7153
vt 0.0577 0.7146
vt 0.1597 0.6215
vt 0.1639 0.7552
vt 0.1569 0.7562
vt 0.1516 0.6227
vt 0.1438 0.6215
vt 0.1500 0.7546
vt 0.1432 0.7530
vt 0.1361 0.6203
vt 0.1667 0.8767
vt 0.1696 0.9982
vt 0.1662 0.9984
vt 0.1616 0.8773
vt 0.1565 0.8764
vt 0.1628 0.9983
vt 0.1595 0.9981
vt 0.1513 0.8756
vt 0.1871 0.8731
vt 0.1831 0.9973
vt 0.1797 0.9973
vt 0.1819 0.8734
vt 0.1462 0.8748
vt 0.1561 0.9980
vt 0.1527 0.9980
vt 0.1411 0.8741
vt 0.1769 0.8748
vt 0.1763 0.9977
vt 0.1730 0.9980
vt 0.1719 0.8762
vt 0.1070 0.6734
vt 0.1141 0.6772
vt 0.1095 0.7163
vt 0.1027 0.7159
vt 0.0914 0.6761
vt 0.1000 0.6697
vt 0.0959 0.7155
vt 0.0882 0.7181
vt 0.1765 0.6249
vt 0.1775 0.7519
vt 0.0716 0.6783
vt 0.0828 0.6824
vt 0.0805 0.7206
vt 0.0732 0.7179
vt 0.0725 0.7605
vt 0.0796 0.7616
vt 0.0788 0.8026
vt 0.0719 0.8031
vt 0.1009 0.7583
vt 0.1075 0.7589
vt 0.1054 0.8016
vt 0.0991 0.8008
vt 0.0870 0.7596
vt 0.0943 0.7577
vt 0.0928 0.7999
vt 0.0858 0.8012
vt 0.0577 0.7582
vt 0.0654 0.7595
vt 0.0650 0.8036
vt 0.0576 0.8019
vt 0.0830 0.8965
vt 0.0888 0.8954
vt 0.0847 0.9909
vt 0.0802 0.9917
vt 0.0599 0.8967
vt 0.0660 0.8979
vt 0.0670 0.9923
vt 0.0622 0.9915
vt 0.0716 0.8978
vt 0.0773 0.8975
vt 0.0757 0.9925
vt 0.0714 0.9924
vt 0.0940 0.8958
vt 0.0992 0.8962
vt 0.0930 0.9908
vt 0.0889 0.9908
vt 0.4783 0.0635
vt 0.4787 0.0677
vt 0.4716 0.0668
vt 0.4655 0.0591
vt 0.4610 0.0597
vt 0.4627 0.0539
vt 0.4649 0.0700
vt 0.4607 0.0652
vt 0.4652 0.0645
vt 0.4689 0.0547
vt 0.4723 0.0503
vt 0.4764 0.0520
vt 0.4753 0.0569
vt 0.4599 0.0487
vt 0.4582 0.0545
vt 0.4525 0.0504
vt 0.4452 0.0521
vt 0.4509 0.0562
vt 0.4430 0.0597
vt 0.4085 0.0328
vt 0.4160 0.0362
vt 0.4065 0.0418
vt 0.3918 0.0465
vt 0.3954 0.0575
vt 0.3880 0.0566
vt 0.4510 0.0328
vt 0.4608 0.0328
vt 0.4554 0.0408
vt 0.4079 0.0601
vt 0.4062 0.0554
vt 0.4123 0.0615
vt 0.4167 0.0629
vt 0.4227 0.0620
vt 0.4193 0.0705
vt 0.4125 0.0673
vt 0.4082 0.0717
vt 0.4036 0.0702
vt 0.4081 0.0659
vt 0.4035 0.0644
vt 0.4219 0.0781
vt 0.4253 0.0696
vt 0.4313 0.0744
vt 0.4872 0.0850
vt 0.4794 0.0870
vt 0.4832 0.0785
vt 0.4792 0.0720
vt 0.4869 0.0683
vt 0.4132 0.0959
vt 0.4095 0.0905
vt 0.4175 0.0870
vt 0.4058 0.0852
vt 0.3985 0.0854
vt 0.4862 0.0428
vt 0.4793 0.0465
vt 0.4784 0.0378
vt 0.3990 0.0686
vt 0.4024 0.0769
vt 0.4406 0.0544
vt 0.4406 0.0626
vt 0.4347 0.0578
vt 0.4287 0.0611
vt 0.4247 0.0577
vt 0.4261 0.0503
vt 0.4547 0.0715
vt 0.4556 0.0660
vt 0.4598 0.0707
vt 0.4558 0.0774
vt 0.4569 0.0832
vt 0.4609 0.0766
vt 0.4642 0.0861
vt 0.4719 0.0613
vt 0.4481 0.0424
vt 0.4002 0.0397
vt 0.3982 0.0487
vt 0.4046 0.0508
vt 0.4141 0.0452
vt 0.4126 0.0525
vt 0.4653 0.0408
vt 0.4661 0.0495
vt 0.4107 0.0569
vt 0.4187 0.0586
vt 0.4344 0.0873
vt 0.4281 0.0827
vt 0.4375 0.0790
vt 0.4754 0.0804
vt 0.4721 0.0710
vt 0.4909 0.0747
vt 0.4946 0.0645
vt 0.4865 0.0640
vt 0.4876 0.0591
vt 0.4238 0.0916
vt 0.4139 0.0817
vt 0.4150 0.0749
vt 0.4904 0.0536
vt 0.4834 0.0483
vt 0.3912 0.0856
vt 0.3877 0.0762
vt 0.3951 0.0771
vt 0.4321 0.0470
vt 0.4488 0.0753
vt 0.4477 0.0695
vt 0.3514 0.0635
vt 0.3518 0.0677
vt 0.3447 0.0668
vt 0.3386 0.0591
vt 0.3340 0.0597
vt 0.3358 0.0539
vt 0.3379 0.0700
vt 0.3337 0.0652
vt 0.3383 0.0645
vt 0.3419 0.0547
vt 0.3453 0.0503
vt 0.3495 0.0520
vt 0.3483 0.0569
vt 0.3330 0.0487
vt 0.3313 0.0545
vt 0.3257 0.0504
vt 0.3183 0.0521
vt 0.3239 0.0562
vt 0.3160 0.0597
vt 0.2815 0.0328
vt 0.2891 0.0362
vt 0.2796 0.0418
vt 0.2649 0.0465
vt 0.2685 0.0575
vt 0.2611 0.0566
vt 0.3241 0.0328
vt 0.3338 0.0328
vt 0.3285 0.0408
vt 0.2809 0.0601
vt 0.2792 0.0554
vt 0.2853 0.0615
vt 0.2897 0.0629
vt 0.2957 0.0620
vt 0.2923 0.0705
vt 0.2855 0.0673
vt 0.2813 0.0717
vt 0.2767 0.0702
vt 0.2811 0.0659
vt 0.2765 0.0644
vt 0.2949 0.0781
vt 0.2983 0.0696
vt 0.3043 0.0744
vt 0.3602 0.0850
vt 0.3525 0.0870
vt 0.3562 0.0785
vt 0.3523 0.0720
vt 0.3600 0.0683
vt 0.2863 0.0959
vt 0.2826 0.0905
vt 0.2906 0.0870
vt 0.2789 0.0852
vt 0.2716 0.0854
vt 0.3593 0.0428
vt 0.3523 0.0465
vt 0.3514 0.0378
vt 0.2720 0.0686
vt 0.2754 0.0769
vt 0.3137 0.0544
vt 0.3137 0.0626
vt 0.3077 0.0578
vt 0.3017 0.0611
vt 0.2977 0.0577
vt 0.2991 0.0503
vt 0.3278 0.0715
vt 0.3286 0.0660
vt 0.3329 0.0707
vt 0.3289 0.0774
vt 0.3300 0.0832
vt 0.3340 0.0766
vt 0.3374 0.0861
vt 0.3450 0.0613
vt 0.3212 0.0424
vt 0.2732 0.0397
vt 0.2713 0.0487
vt 0.2776 0.0508
vt 0.2871 0.0452
vt 0.2857 0.0525
vt 0.3383 0.0408
vt 0.3392 0.0495
vt 0.2836 0.0569
vt 0.2917 0.0586
vt 0.3074 0.0873
vt 0.3011 0.0827
vt 0.3105 0.0790
vt 0.3485 0.0804
vt 0.3451 0.0710
vt 0.3640 0.0747
vt 0.3677 0.0645
vt 0.3595 0.0640
vt 0.3607 0.0591
vt 0.2968 0.0916
vt 0.2869 0.0817
vt 0.2881 0.0749
vt 0.3635 0.0536
vt 0.3565 0.0483
vt 0.2643 0.0856
vt 0.2608 0.0762
vt 0.2682 0.0771
vt 0.3052 0.0470
vt 0.3219 0.0753
vt 0.3207 0.0695
vt 0.3216 0.0639
vt 0.3295 0.0604
vt 0.3137 0.0674
vt 0.2966 0.0396
vt 0.2646 0.0677
vt 0.2573 0.0668
vt 0.3537 0.0537
vt 0.2801 0.0784
vt 0.3525 0.0586
vt 0.3413 0.0794
vt 0.3447 0.0889
vt 0.3137 0.0707
vt 0.2937 0.0543
vt 0.3444 0.0415
vt 0.3436 0.0328
vt 0.2748 0.0597
vt 0.2952 0.0469
vt 0.3077 0.0659
vt 0.2753 0.0908
vt 0.4486 0.0639
vt 0.4565 0.0604
vt 0.4407 0.0674
vt 0.4236 0.0396
vt 0.3916 0.0677
vt 0.3843 0.0668
vt 0.4806 0.0537
vt 0.4070 0.0784
vt 0.4794 0.0586
vt 0.4682 0.0794
vt 0.4716 0.0889
vt 0.4406 0.0707
vt 0.4207 0.0543
vt 0.4715 0.0415
vt 0.4706 0.0328
vt 0.4018 0.0597
vt 0.4222 0.0469
vt 0.4347 0.0659
vt 0.4022 0.0908
vt 0.0538 0.8955
vt 0.0573 0.9907
vt 0.0503 0.8003
vt 0.0499 0.7571
vt 0.0495 0.7138
vt 0.0549 0.6330
vt 0.0700 0.6387
vt 0.0851 0.6443
vt 0.1679 0.6202
vt 0.1708 0.7543
vt 0.1649 0.4862
vt 0.1755 0.4980
vt 0.1861 0.5098
vt 0.0946 0.6342
vt 0.1041 0.6240
vt 0.1113 0.6310
vt 0.1186 0.6380
vt 0.1982 0.7484
vt 0.1923 0.8728
vt 0.1864 0.9972
vt 0.1376 0.4884
vt 0.1289 0.4876
vt 0.1463 0.4892
vt 0.1556 0.4877
vt 0.0422 0.6746
vt 0.0349 0.6354
vt 0.0449 0.6342
vt 0.1198 0.4857
vt 0.1107 0.4838
vt 0.1973 0.4957
vt 0.2085 0.4816
vt 0.2034 0.6150
vt 0.1515 0.2934
vt 0.1373 0.2942
vt 0.1656 0.2926
vt 0.0662 0.2939
vt 0.0521 0.2937
vt 0.0802 0.2940
vt 0.1797 0.2928
vt 0.1937 0.2929
vt 0.1930 0.4605
vt 0.1923 0.6281
vt 0.0944 0.2944
vt 0.1087 0.2949
vt 0.1230 0.2946
vt 0.2047 0.2280
vt 0.1966 0.3435
vt 0.1885 0.4591
vt 0.1725 0.1443
vt 0.1511 0.1436
vt 0.1938 0.1451
vt 0.0446 0.1523
vt 0.0238 0.1564
vt 0.0653 0.1482
vt 0.1296 0.1445
vt 0.1081 0.1455
vt 0.2142 0.1504
vt 0.2346 0.1556
vt 0.2197 0.1918
vt 0.0867 0.1469
vn -0.5885 0.0321 -0.8078
vn -0.5885 0.0096 -0.8084
vn -0.0056 0.0575 -0.9983
vn -0.0031 0.0955 -0.9954
vn 0.9337 0.1896 0.3037
vn 0.9432 0.1278 0.3067
vn 0.5805 0.1129 0.8064
vn 0.5764 0.1728 0.7987
vn -0.9513 0.0117 0.3082
vn -0.9512 -0.0090 0.3083
vn -0.9511 -0.0063 -0.3087
vn -0.9510 0.0144 -0.3089
vn 0.5802 0.1426 -0.8019
vn 0.5839 0.0943 -0.8064
vn 0.9418 0.1316 -0.3095
vn 0.9325 0.1926 -0.3054
vn -0.0020 0.1101 0.9939
vn -0.0016 0.0644 0.9979
vn -0.5915 0.0274 0.8059
vn -0.5885 0.0627 0.8060
vn 0.9478 0.0840 0.3076
vn 0.9437 0.1242 0.3067
vn 0.5919 0.0851 0.8015
vn 0.5874 0.0645 0.8068
vn 0.5846 0.0576 -0.8092
vn 0.5698 0.0778 -0.8181
vn 0.9418 0.1232 -0.3128
vn 0.9473 0.0848 -0.3090
vn 0.0003 0.0241 0.9997
vn 0.0040 0.0143 0.9999
vn -0.5841 -0.0557 0.8097
vn -0.5869 -0.0124 0.8096
vn -0.9510 -0.0401 0.3065
vn -0.9526 -0.1018 0.2865
vn -0.9406 -0.0979 -0.3251
vn -0.9496 -0.0386 -0.3110
vn -0.5871 -0.0186 -0.8093
vn -0.5828 -0.0561 -0.8107
vn 0.0006 0.0144 -0.9999
vn 0.0006 0.0220 -0.9998
vn -0.9452 -0.1641 0.2822
vn -0.9286 -0.2300 0.2911
vn -0.8993 -0.2289 -0.3727
vn -0.9231 -0.1605 -0.3494
vn -0.5801 -0.0971 -0.8088
vn -0.5718 -0.1419 -0.8080
vn -0.0366 0.0029 -0.9993
vn -0.0313 0.0035 -0.9995
vn 0.9545 0.1523 0.2563
vn 0.9968 -0.0722 -0.0338
vn 0.6188 -0.2274 0.7519
vn 0.5868 0.0888 0.8049
vn 0.5233 0.1003 -0.8462
vn 0.4876 0.1344 -0.8627
vn 0.6712 0.1312 -0.7296
vn 0.9032 0.1566 -0.3996
vn 0.0026 -0.0044 1.0000
vn -0.0426 -0.1533 0.9873
vn -0.5859 -0.1709 0.7922
vn -0.5763 -0.1004 0.8110
vn 0.9044 0.3491 0.2452
vn 0.9133 0.2720 0.3032
vn 0.5612 0.1730 0.8094
vn 0.5559 0.2239 0.8005
vn 0.5054 0.1811 -0.8436
vn 0.5555 0.1693 -0.8141
vn 0.9080 0.2782 -0.3133
vn 0.8431 0.3149 -0.4359
vn 0.8029 -0.3902 -0.4507
vn 0.5128 0.1368 -0.8475
vn 0.2869 0.1761 -0.9416
vn 0.6992 -0.3905 -0.5988
vn -0.9223 -0.2889 0.2565
vn -0.9354 -0.2383 0.2614
vn -0.9194 -0.2326 -0.3173
vn -0.8937 -0.2799 -0.3506
vn -0.5740 -0.1785 -0.7992
vn -0.5862 -0.1484 -0.7965
vn -0.0278 0.0030 -0.9996
vn -0.0367 0.0004 -0.9993
vn -0.9381 -0.1784 0.2969
vn -0.9397 -0.1683 0.2979
vn -0.9421 -0.1679 -0.2902
vn -0.9353 -0.1769 -0.3065
vn -0.5872 -0.1065 -0.8024
vn -0.5982 -0.1014 -0.7949
vn -0.0540 0.0110 -0.9985
vn -0.0063 0.0188 -0.9998
vn 0.9276 0.2184 0.3031
vn 0.9287 0.2097 0.3058
vn 0.5464 0.1367 0.8263
vn 0.5757 0.1473 0.8043
vn 0.5814 0.1427 -0.8010
vn 0.5722 0.1355 -0.8088
vn 0.9244 0.2096 -0.3187
vn 0.9271 0.2200 -0.3035
vn -0.0004 0.0236 0.9997
vn -0.0182 0.0210 0.9996
vn -0.6189 -0.0992 0.7791
vn -0.5886 -0.0999 0.8022
vn 0.0539 -0.4917 0.8691
vn 0.6436 -0.6714 0.3673
vn 0.7001 -0.7040 0.1196
vn 0.2932 -0.5926 0.7502
vn -0.5350 0.2783 0.7977
vn -0.3373 -0.1549 0.9285
vn -0.2065 -0.1905 0.9597
vn -0.6009 0.3253 0.7302
vn -0.0194 0.0250 0.9995
vn -0.0082 0.0179 0.9998
vn 0.0194 0.6661 -0.7456
vn -0.4785 0.8754 0.0690
vn -0.7170 0.6935 0.0702
vn -0.3453 0.6358 -0.6903
vn -0.5493 0.5455 -0.6330
vn -0.8083 0.5777 0.1137
vn -0.9044 0.4048 0.1351
vn -0.6614 0.3970 -0.6363
vn 0.4981 -0.5087 0.7022
vn 0.8135 -0.5809 -0.0285
vn 0.9137 -0.4021 -0.0582
vn 0.6287 -0.3726 0.6826
vn -0.5784 0.2837 0.7649
vn -0.0504 -0.1550 0.9866
vn 0.0576 -0.1375 0.9888
vn -0.5839 0.1806 0.7915
vn 0.6215 -0.2864 -0.7292
vn 0.0792 0.1746 -0.9815
vn 0.0311 0.1434 -0.9892
vn 0.6333 -0.1707 -0.7549
vn -0.6064 0.1092 0.7877
vn 0.0449 -0.0926 0.9947
vn 0.0241 -0.0830 0.9963
vn -0.6152 0.1059 0.7813
vn 0.6453 -0.0891 -0.7587
vn -0.0349 0.1291 -0.9910
vn -0.0611 0.1323 -0.9893
vn 0.6325 -0.0762 -0.7708
vn -0.7133 0.2801 -0.6424
vn -0.9544 0.2764 0.1129
vn -0.9601 0.2692 0.0761
vn -0.7140 0.2692 -0.6463
vn 0.6831 -0.2460 0.6877
vn 0.9668 -0.2469 -0.0653
vn 0.9680 -0.2257 -0.1094
vn 0.6903 -0.2330 0.6849
vn -0.3319 -0.1380 0.9332
vn -0.0616 0.0032 0.9981
vn -0.4074 0.1775 0.8959
vn -0.8305 0.0683 0.5528
vn -0.9029 0.2590 0.3431
vn -0.9769 -0.0175 0.2129
vn -0.3660 0.5098 0.7786
vn -0.7349 0.4953 0.4632
vn -0.6700 0.2628 0.6943
vn -0.8503 -0.1571 0.5023
vn -0.8197 -0.4541 0.3491
vn -0.5940 -0.5511 0.5860
vn -0.6413 -0.2385 0.7293
vn -0.9741 -0.1173 -0.1934
vn -0.9821 0.1811 -0.0512
vn -0.9019 0.1075 -0.4184
vn -0.7362 0.3009 -0.6061
vn -0.8675 0.3990 -0.2969
vn -0.5817 0.5165 -0.6283
vn -0.4512 0.2319 -0.8618
vn -0.5610 -0.2450 -0.7907
vn -0.2233 -0.4715 -0.8531
vn -0.5866 -0.4634 -0.6642
vn -0.8292 -0.1805 -0.5291
vn 0.3648 -0.1885 -0.9118
vn 0.1221 -0.0920 -0.9882
vn 0.5634 -0.0099 -0.8261
vn 0.7664 0.1367 -0.6277
vn 0.8559 0.3668 -0.3646
vn 0.9712 0.0645 -0.2292
vn 0.8537 -0.1345 -0.5032
vn 0.7965 -0.4572 -0.3956
vn 0.5063 -0.6852 -0.5236
vn 0.6021 -0.3179 -0.7324
vn 0.2331 -0.4381 -0.8682
vn 0.9857 -0.0556 0.1591
vn 0.9521 0.3056 -0.0071
vn 0.9028 0.3074 0.3007
vn 0.6776 0.1088 0.7274
vn 0.6660 0.3311 0.6684
vn 0.4492 0.1173 0.8857
vn 0.1632 0.1529 0.9747
vn 0.3507 -0.1437 0.9254
vn 0.4445 -0.4347 0.7833
vn 0.5510 -0.6148 0.5643
vn 0.7949 -0.2839 0.5363
vn 0.5873 -0.7710 0.2463
vn 0.2402 -0.9307 0.2759
vn -0.1267 -0.9587 0.2547
vn -0.5568 -0.7896 0.2579
vn -0.3818 -0.9211 -0.0765
vn 0.1318 -0.7447 -0.6543
vn 0.4020 -0.9008 -0.1642
vn 0.1024 0.9662 0.2368
vn 0.3403 0.8047 0.4865
vn 0.3883 0.9213 -0.0227
vn 0.6968 0.6958 -0.1743
vn 0.4902 0.7086 -0.5075
vn 0.1702 0.9033 -0.3939
vn -0.4768 0.8622 0.1710
vn -0.7304 0.6714 0.1258
vn -0.4690 0.7273 0.5011
vn -0.1868 0.9588 0.2141
vn -0.0890 0.7763 0.6241
vn -0.6348 -0.0108 0.7726
vn -0.6866 0.0463 -0.7255
vn -0.3276 -0.1181 -0.9374
vn -0.1109 0.0871 -0.9900
vn -0.2464 0.4274 -0.8699
vn 0.0846 0.3374 -0.9375
vn -0.8565 -0.4076 -0.3166
vn -0.9480 -0.3099 0.0728
vn 0.3208 0.1715 -0.9315
vn 0.5472 0.3359 -0.7666
vn 0.8671 0.0309 0.4972
vn 0.2752 0.3988 0.8748
vn -0.0885 0.3563 0.9302
vn 0.6254 -0.1381 0.7680
vn 0.0954 -0.3321 0.9384
vn 0.0725 -0.5971 0.7989
vn 0.8664 -0.4330 0.2486
vn 0.9551 -0.2772 -0.1047
vn 0.1716 -0.7638 0.6222
vn -0.2080 -0.8126 0.5444
vn 0.0505 -0.9819 -0.1826
vn -0.0372 0.9789 -0.2010
vn -0.4418 0.8798 -0.1753
vn -0.6247 -0.2323 -0.7455
vn -0.8239 -0.1145 -0.5551
vn -0.5742 0.0162 -0.8185
vn -0.0535 -0.0461 -0.9975
vn 0.1511 0.1230 -0.9808
vn 0.3181 -0.0811 -0.9446
vn -0.5382 0.3115 -0.7831
vn -0.0541 0.3145 -0.9477
vn -0.2696 0.0974 -0.9580
vn 0.0144 -0.2161 -0.9763
vn 0.1598 -0.4517 -0.8777
vn -0.1705 -0.5634 -0.8084
vn -0.2855 -0.3010 -0.9099
vn 0.6714 -0.1121 -0.7326
vn 0.5368 0.1034 -0.8373
vn 0.8140 0.0909 -0.5738
vn 0.8921 0.2780 -0.3562
vn 0.6935 0.3164 -0.6473
vn 0.8482 0.4715 -0.2411
vn 0.9646 0.2620 0.0288
vn 0.9892 -0.1333 -0.0611
vn 0.9114 -0.2914 0.2905
vn 0.9371 -0.3218 -0.1351
vn 0.8931 -0.1172 -0.4343
vn 0.6072 -0.0335 0.7938
vn 0.7919 0.0474 0.6088
vn 0.4222 0.1099 0.8998
vn 0.1413 0.2159 0.9661
vn -0.1498 0.3772 0.9139
vn -0.3037 0.1205 0.9451
vn 0.0039 -0.0095 0.9999
vn -0.0399 -0.2921 0.9555
vn 0.2444 -0.5045 0.8281
vn 0.3465 -0.1385 0.9278
vn 0.6737 -0.2397 0.6990
vn -0.6360 -0.0212 0.7714
vn -0.5090 0.2843 0.8125
vn -0.7523 0.2465 0.6109
vn -0.9774 0.0377 0.2082
vn -0.9538 0.2142 0.2108
vn -0.9974 0.0094 -0.0712
vn -0.9291 0.0151 -0.3694
vn -0.9669 -0.2023 -0.1553
vn -0.9037 -0.4274 0.0250
vn -0.7855 -0.5644 0.2538
vn -0.8607 -0.2489 0.4440
vn -0.5166 -0.6994 0.4939
vn -0.3599 -0.9150 0.1820
vn -0.1103 -0.9762 -0.1868
vn 0.1276 -0.7716 -0.6232
vn 0.3865 -0.8879 -0.2497
vn 0.5897 -0.5780 0.5641
vn -0.0079 -0.8010 0.5987
vn -0.3785 0.9160 -0.1332
vn -0.7345 0.6784 -0.0170
vn -0.2791 0.9039 0.3242
vn -0.2679 0.6783 0.6842
vn 0.1636 0.7181 0.6764
vn 0.2343 0.9158 0.3262
vn 0.0463 0.7523 -0.6572
vn 0.2462 0.5190 -0.8186
vn -0.2634 0.5445 -0.7963
vn -0.1740 0.8874 -0.4270
vn -0.6070 0.6031 -0.5174
vn -0.3375 -0.1256 -0.9329
vn 0.9699 0.0874 -0.2272
vn 0.9792 0.0023 0.2031
vn 0.9005 0.1811 0.3954
vn 0.8785 0.4350 0.1975
vn 0.7573 0.3795 0.5315
vn 0.7595 -0.3280 -0.5618
vn 0.4522 -0.2949 -0.8417
vn 0.6271 0.2553 0.7359
vn 0.3664 0.3810 0.8489
vn -0.8705 0.0054 0.4921
vn -0.9421 0.2267 -0.2473
vn -0.7922 0.1701 -0.5861
vn -0.9725 -0.1644 0.1649
vn -0.8520 -0.3688 -0.3716
vn -0.7421 -0.5944 -0.3099
vn -0.6523 -0.3392 0.6778
vn -0.3882 -0.1625 0.9071
vn -0.6518 -0.7495 -0.1157
vn -0.3607 -0.8167 -0.4504
vn 0.2375 -0.9329 0.2705
vn 0.1636 0.9864 -0.0169
vn 0.3772 0.8233 -0.4241
vn 0.5949 0.5438 -0.5920
vn 0.3778 0.3222 -0.8680
vn 0.6475 0.7594 -0.0635
vn 0.7224 -0.6652 0.1890
vn 0.7405 -0.6097 -0.2826
vn -0.4834 -0.6375 -0.5999
vn -0.3098 -0.5073 0.8042
vn -0.5950 -0.4263 -0.6814
vn -0.8229 0.3984 -0.4051
vn -0.8943 0.4296 0.1250
vn 0.5242 0.5810 0.6227
vn 0.4884 -0.5755 -0.6559
vn 0.8715 -0.1643 0.4621
vn 0.6393 0.6926 0.3340
vn -0.6521 0.5411 0.5310
vn -0.7199 0.6452 -0.2560
vn -0.8871 0.4563 0.0700
vn -0.3090 0.7762 -0.5496
vn -0.2152 -0.7961 -0.5657
vn -0.5928 -0.7092 -0.3817
vn -0.2838 -0.6182 0.7330
vn 0.7585 -0.6482 -0.0670
vn -0.2938 -0.3857 0.8746
vn 0.0875 0.5924 0.8009
vn 0.5519 0.5716 0.6072
vn 0.2768 0.5589 -0.7817
vn -0.7725 -0.6347 -0.0199
vn -0.0558 -0.3455 -0.9368
vn -0.0088 0.6876 -0.7260
vn 0.7570 0.6206 0.2045
vn 0.6946 0.5959 -0.4030
vn 0.2939 0.5986 0.7452
vn -0.5770 -0.1681 0.7992
vn -0.6040 -0.1456 0.7836
vn -0.2638 0.0850 0.9608
vn 0.0110 0.1215 0.9925
vn -0.5660 0.0703 0.8214
vn 0.5925 0.1871 0.7835
vn 0.5885 0.1545 -0.7936
vn 0.9340 0.2062 -0.2916
vn 0.0273 0.1046 -0.9941
vn -0.9494 0.0136 0.3138
vn -0.9494 0.0147 -0.3138
vn 0.9315 0.2047 0.3007
vn -0.5808 0.0352 -0.8133
usemtl None
s 1
f 365/1/1 323/2/2 3/3/3 258/4/4
f 364/5/5 310/6/6 7/7/7 253/8/8
f 363/9/9 233/10/10 2/11/11 144/12/12
f 362/13/13 136/14/14 6/15/15 131/16/16
f 361/17/17 122/18/18 10/19/19 120/20/20
f 360/21/21 223/22/22 12/23/23 232/24/24
f 359/25/25 281/26/26 11/27/27 301/28/28
f 358/29/29 216/30/30 14/31/31 214/32/32
f 357/33/33 296/34/34 15/35/35 283/36/36
f 356/37/37 175/38/38 13/39/39 291/40/40
f 355/41/41 185/42/42 17/43/43 300/44/44
f 354/45/45 322/46/46 18/47/47 325/48/48
f 353/49/49 192/50/50 20/51/51 104/52/52
f 352/53/53 256/54/54 19/55/55 148/56/56
f 351/57/57 316/58/58 16/59/59 119/60/60
f 350/61/61 306/62/62 22/63/63 240/64/64
f 349/65/65 181/66/66 21/67/67 249/68/68
f 348/69/69 245/70/70 25/71/71 100/72/72
f 347/73/73 205/74/74 28/75/75 169/76/76
f 346/77/77 293/78/78 24/79/79 305/80/80
f 345/81/81 105/82/82 30/83/83 196/84/84
f 344/85/85 271/86/86 31/87/87 238/88/88
f 343/89/89 159/90/90 33/91/91 121/92/92
f 342/93/93 217/94/94 32/95/95 173/96/96
f 341/97/97 267/98/98 29/99/99 260/100/100
f 340/101/101 160/102/102 26/103/103 108/104/104
f 339/105/105 180/106/106 34/107/107 190/108/108
f 338/109/109 240/64/64 22/63/63 229/110/110
f 337/111/111 328/112/112 35/113/113 320/114/114
f 336/115/115 248/116/116 36/117/117 311/118/118
f 335/119/119 130/120/120 38/121/121 172/122/122
f 334/123/123 179/124/124 39/125/125 183/126/126
f 333/127/127 191/128/128 37/129/129 126/130/130
f 332/131/131 242/132/132 40/133/133 304/134/134
f 331/135/135 102/136/136 42/137/137 153/138/138
f 330/139/139 309/140/140 41/141/141 113/142/142
f 329/143/143 168/144/144 43/145/145 157/146/146
f 44/147/147 273/148/148 204/149/149
f 47/150/150 228/151/151 165/152/152
f 46/153/153 107/154/154 164/155/155
f 47/150/150 165/152/152 295/156/156
f 50/157/157 209/158/158 170/159/159
f 49/160/160 292/161/161 270/162/162
f 52/163/163 303/164/164 99/165/165
f 52/166/163 99/167/165 257/168/166
f 55/169/167 266/170/168 199/171/169
f 55/172/167 199/173/169 321/174/170
f 58/175/171 231/176/172 221/177/173
f 59/178/174 280/179/175 213/180/176
f 59/178/174 213/180/176 146/181/177
f 62/182/178 251/183/179 278/184/180
f 58/175/171 237/185/181 231/176/172
f 61/186/182 111/187/183 116/188/184
f 64/189/185 299/190/186 212/191/187
f 45/192/188 273/148/148 147/193/189
f 65/194/190 128/195/191 220/196/192
f 66/197/193 128/195/191 313/198/194
f 67/199/195 227/200/196 118/201/197
f 56/202/198 251/183/179 294/203/199
f 68/204/200 314/205/201 206/206/202
f 60/207/203 145/208/204 250/209/205
f 70/210/206 143/211/207 152/212/208
f 70/210/206 152/212/208 211/213/209
f 68/214/200 262/215/210 314/216/201
f 47/150/150 142/217/211 164/155/155
f 47/150/150 295/156/156 142/217/211
f 55/172/167 321/174/170 202/218/212
f 55/169/167 202/219/212 195/220/213
f 54/221/214 140/222/215 167/223/216
f 55/169/167 195/220/213 266/170/168
f 49/160/160 193/224/217 156/225/218
f 59/178/174 189/226/219 269/227/220
f 59/178/174 269/227/220 280/179/175
f 59/178/174 146/181/177 221/177/173
f 64/228/185 289/229/221 299/230/186
f 45/192/188 276/231/222 117/232/223
f 64/189/185 212/191/187 123/233/224
f 65/234/190 265/235/225 177/236/226
f 64/228/185 123/237/224 289/229/221
f 61/186/182 178/238/227 174/239/228
f 67/199/195 187/240/229 114/241/230
f 67/199/195 114/241/230 227/200/196
f 67/242/195 118/243/197 230/244/231
f 67/242/195 230/244/231 313/198/194
f 68/204/200 206/206/202 115/245/232
f 68/214/200 115/246/232 211/213/209
f 70/210/206 236/247/233 143/211/207
f 71/248/234 225/249/235 287/250/236
f 74/251/237 275/252/238 318/253/239
f 73/254/240 149/255/241 103/256/242
f 74/251/237 318/253/239 139/257/243
f 77/258/244 110/259/245 268/260/246
f 76/261/247 201/262/248 264/263/249
f 79/264/250 129/265/251 215/266/252
f 79/267/250 215/268/252 272/269/253
f 82/270/254 241/271/255 286/272/256
f 82/273/254 286/274/256 163/275/257
f 85/276/258 224/277/259 285/278/260
f 86/279/261 210/280/262 279/281/263
f 86/279/261 279/281/263 109/282/264
f 89/283/265 219/284/266 207/285/267
f 85/276/258 222/286/268 224/277/259
f 88/287/269 162/288/270 161/289/271
f 91/290/272 255/291/273 235/292/274
f 72/293/275 225/249/235 297/294/276
f 92/295/277 137/296/278 282/297/279
f 93/298/280 137/296/278 317/299/281
f 94/300/282 101/301/283 141/302/284
f 83/303/285 219/284/266 197/304/286
f 95/305/287 226/306/288 98/307/289
f 87/308/290 154/309/291 186/310/292
f 97/311/293 246/312/294 239/313/295
f 97/311/293 239/313/295 252/314/296
f 95/315/287 133/316/297 226/317/288
f 74/251/237 326/318/298 103/256/242
f 74/251/237 139/257/243 326/318/298
f 82/273/254 163/275/257 284/319/299
f 82/270/254 284/320/299 302/321/300
f 81/322/301 125/323/302 132/324/303
f 82/270/254 302/321/300 241/271/255
f 76/261/247 308/325/304 155/326/305
f 86/279/261 288/327/306 274/328/307
f 86/279/261 274/328/307 210/280/262
f 86/279/261 109/282/264 285/278/260
f 91/329/272 218/330/308 255/331/273
f 72/293/275 176/332/309 150/333/310
f 91/290/272 235/292/274 182/334/311
f 92/335/277 158/336/312 315/337/313
f 91/329/272 182/338/311 218/330/308
f 88/287/269 112/339/314 134/340/315
f 94/300/282 184/341/316 203/342/317
f 94/300/282 203/342/317 101/301/283
f 94/343/282 141/344/284 254/345/318
f 94/343/282 254/345/318 317/299/281
f 95/305/287 98/307/289 188/346/319
f 95/315/287 188/347/319 252/314/296
f 97/311/293 312/348/320 246/312/294
f 246/312/294 198/349/321 75/350/322
f 246/312/294 312/348/320 198/349/321
f 312/348/320 80/351/323 198/349/321
f 252/314/296 312/348/320 97/311/293
f 252/314/296 188/347/319 312/348/320
f 188/347/319 80/351/323 312/348/320
f 188/346/319 186/310/292 80/352/323
f 188/346/319 98/307/289 186/310/292
f 98/307/289 87/308/290 186/310/292
f 317/299/281 197/304/286 93/298/280
f 317/299/281 254/345/318 197/304/286
f 254/345/318 83/303/285 197/304/286
f 254/345/318 166/353/324 83/303/285
f 254/345/318 141/344/284 166/353/324
f 141/344/284 84/354/325 166/353/324
f 101/301/283 110/259/245 77/258/244
f 101/301/283 203/342/317 110/259/245
f 203/342/317 78/355/326 110/259/245
f 203/342/317 315/337/313 78/355/326
f 203/342/317 184/341/316 315/337/313
f 184/341/316 92/335/277 315/337/313
f 134/340/315 234/356/327 89/283/265
f 134/340/315 112/339/314 234/356/327
f 112/339/314 93/298/280 234/356/327
f 218/330/308 282/297/279 88/287/269
f 218/330/308 182/338/311 282/297/279
f 182/338/311 92/295/277 282/297/279
f 315/337/313 106/357/328 78/355/326
f 315/337/313 158/336/312 106/357/328
f 158/336/312 71/248/234 106/357/328
f 182/334/311 297/294/276 92/335/277
f 182/334/311 235/292/274 297/294/276
f 235/292/274 72/293/275 297/294/276
f 150/333/310 327/358/329 73/254/240
f 150/333/310 176/332/309 327/358/329
f 176/332/309 90/359/330 327/358/329
f 255/331/273 161/289/271 90/360/330
f 255/331/273 218/330/308 161/289/271
f 218/330/308 88/287/269 161/289/271
f 285/278/260 207/285/267 85/276/258
f 285/278/260 109/282/264 207/285/267
f 109/282/264 89/283/265 207/285/267
f 210/280/262 154/309/291 87/308/290
f 210/280/262 274/328/307 154/309/291
f 274/328/307 96/361/331 154/309/291
f 274/328/307 132/324/303 96/361/331
f 274/328/307 288/327/306 132/324/303
f 288/327/306 81/322/301 132/324/303
f 155/326/305 171/362/332 77/258/244
f 155/326/305 308/325/304 171/362/332
f 308/325/304 84/363/325 171/362/332
f 241/271/255 124/364/333 83/303/285
f 241/271/255 302/321/300 124/364/333
f 302/321/300 81/322/301 124/364/333
f 132/324/303 247/365/334 96/361/331
f 132/324/303 125/323/302 247/365/334
f 125/323/302 80/352/323 247/365/334
f 302/321/300 272/269/253 81/322/301
f 302/321/300 284/320/299 272/269/253
f 284/320/299 79/267/250 272/269/253
f 284/319/299 264/263/249 79/264/250
f 284/319/299 163/275/257 264/263/249
f 163/275/257 76/261/247 264/263/249
f 326/318/298 268/260/246 71/248/234
f 326/318/298 139/257/243 268/260/246
f 139/257/243 77/258/244 268/260/246
f 103/256/242 287/250/236 73/254/240
f 103/256/242 326/318/298 287/250/236
f 326/318/298 71/248/234 287/250/236
f 226/317/288 327/358/329 90/359/330
f 226/317/288 133/316/297 327/358/329
f 133/316/297 73/254/240 327/358/329
f 252/314/296 133/316/297 95/315/287
f 252/314/296 239/313/295 133/316/297
f 239/313/295 73/254/240 133/316/297
f 239/313/295 149/255/241 73/254/240
f 239/313/295 246/312/294 149/255/241
f 246/312/294 75/350/322 149/255/241
f 186/310/292 247/365/334 80/352/323
f 186/310/292 154/309/291 247/365/334
f 154/309/291 96/361/331 247/365/334
f 98/307/289 259/366/335 87/308/290
f 98/307/289 226/306/288 259/366/335
f 226/306/288 90/360/330 259/366/335
f 197/304/286 234/356/327 93/298/280
f 197/304/286 219/284/266 234/356/327
f 219/284/266 89/283/265 234/356/327
f 141/302/284 171/362/332 84/363/325
f 141/302/284 101/301/283 171/362/332
f 101/301/283 77/258/244 171/362/332
f 317/299/281 184/367/316 94/343/282
f 317/299/281 137/296/278 184/367/316
f 137/296/278 92/295/277 184/367/316
f 282/297/279 112/339/314 88/287/269
f 282/297/279 137/296/278 112/339/314
f 137/296/278 93/298/280 112/339/314
f 297/294/276 158/336/312 92/335/277
f 297/294/276 225/249/235 158/336/312
f 225/249/235 71/248/234 158/336/312
f 235/292/274 176/332/309 72/293/275
f 235/292/274 255/291/273 176/332/309
f 255/291/273 90/359/330 176/332/309
f 161/289/271 259/366/335 90/360/330
f 161/289/271 162/288/270 259/366/335
f 162/288/270 87/308/290 259/366/335
f 224/277/259 124/364/333 81/322/301
f 224/277/259 222/286/268 124/364/333
f 222/286/268 83/303/285 124/364/333
f 207/285/267 222/286/268 85/276/258
f 207/285/267 219/284/266 222/286/268
f 219/284/266 83/303/285 222/286/268
f 109/282/264 134/340/315 89/283/265
f 109/282/264 279/281/263 134/340/315
f 279/281/263 88/287/269 134/340/315
f 279/281/263 162/288/270 88/287/269
f 279/281/263 210/280/262 162/288/270
f 210/280/262 87/308/290 162/288/270
f 285/278/260 288/327/306 86/279/261
f 285/278/260 224/277/259 288/327/306
f 224/277/259 81/322/301 288/327/306
f 163/275/257 308/325/304 76/261/247
f 163/275/257 286/274/256 308/325/304
f 286/274/256 84/363/325 308/325/304
f 286/272/256 166/353/324 84/354/325
f 286/272/256 241/271/255 166/353/324
f 241/271/255 83/303/285 166/353/324
f 272/269/253 125/323/302 81/322/301
f 272/269/253 215/268/252 125/323/302
f 215/268/252 80/352/323 125/323/302
f 215/266/252 198/349/321 80/351/323
f 215/266/252 129/265/251 198/349/321
f 129/265/251 75/350/322 198/349/321
f 264/263/249 129/265/251 79/264/250
f 264/263/249 201/262/248 129/265/251
f 201/262/248 75/350/322 129/265/251
f 268/260/246 106/357/328 71/248/234
f 268/260/246 110/259/245 106/357/328
f 110/259/245 78/355/326 106/357/328
f 139/257/243 155/326/305 77/258/244
f 139/257/243 318/253/239 155/326/305
f 318/253/239 76/261/247 155/326/305
f 103/256/242 275/252/238 74/251/237
f 103/256/242 149/255/241 275/252/238
f 149/255/241 75/350/322 275/252/238
f 318/253/239 201/262/248 76/261/247
f 318/253/239 275/252/238 201/262/248
f 275/252/238 75/350/322 201/262/248
f 287/250/236 150/333/310 73/254/240
f 287/250/236 225/249/235 150/333/310
f 225/249/235 72/293/275 150/333/310
f 143/211/207 244/368/336 48/369/337
f 143/211/207 236/247/233 244/368/336
f 236/247/233 53/370/338 244/368/336
f 211/213/209 236/247/233 70/210/206
f 211/213/209 115/246/232 236/247/233
f 115/246/232 53/370/338 236/247/233
f 115/245/232 250/209/205 53/371/338
f 115/245/232 206/206/202 250/209/205
f 206/206/202 60/207/203 250/209/205
f 313/198/194 294/203/199 66/197/193
f 313/198/194 230/244/231 294/203/199
f 230/244/231 56/202/198 294/203/199
f 230/244/231 324/372/339 56/202/198
f 230/244/231 118/243/197 324/372/339
f 118/243/197 57/373/340 324/372/339
f 227/200/196 209/158/158 50/157/157
f 227/200/196 114/241/230 209/158/158
f 114/241/230 51/374/341 209/158/158
f 114/241/230 177/236/226 51/374/341
f 114/241/230 187/240/229 177/236/226
f 187/240/229 65/234/190 177/236/226
f 174/239/228 298/375/342 62/182/178
f 174/239/228 178/238/227 298/375/342
f 178/238/227 66/197/193 298/375/342
f 289/229/221 220/196/192 61/186/182
f 289/229/221 123/237/224 220/196/192
f 123/237/224 65/194/190 220/196/192
f 177/236/226 138/376/343 51/374/341
f 177/236/226 265/235/225 138/376/343
f 265/235/225 44/147/147 138/376/343
f 123/233/224 147/193/189 65/234/190
f 123/233/224 212/191/187 147/193/189
f 212/191/187 45/192/188 147/193/189
f 117/232/223 151/377/344 46/153/153
f 117/232/223 276/231/222 151/377/344
f 276/231/222 63/378/345 151/377/344
f 299/230/186 116/188/184 63/379/345
f 299/230/186 289/229/221 116/188/184
f 289/229/221 61/186/182 116/188/184
f 221/177/173 278/184/180 58/175/171
f 221/177/173 146/181/177 278/184/180
f 146/181/177 62/182/178 278/184/180
f 280/179/175 145/208/204 60/207/203
f 280/179/175 269/227/220 145/208/204
f 269/227/220 69/380/346 145/208/204
f 269/227/220 167/223/216 69/380/346
f 269/227/220 189/226/219 167/223/216
f 189/226/219 54/221/214 167/223/216
f 156/225/218 319/381/347 50/157/157
f 156/225/218 193/224/217 319/381/347
f 193/224/217 57/382/340 319/381/347
f 266/170/168 135/383/348 56/202/198
f 266/170/168 195/220/213 135/383/348
f 195/220/213 54/221/214 135/383/348
f 167/223/216 290/384/349 69/380/346
f 167/223/216 140/222/215 290/384/349
f 140/222/215 53/371/338 290/384/349
f 195/220/213 257/168/166 54/221/214
f 195/220/213 202/219/212 257/168/166
f 202/219/212 52/166/163 257/168/166
f 202/218/212 270/162/162 52/163/163
f 202/218/212 321/174/170 270/162/162
f 321/174/170 49/160/160 270/162/162
f 142/217/211 170/159/159 44/147/147
f 142/217/211 295/156/156 170/159/159
f 295/156/156 50/157/157 170/159/159
f 164/155/155 204/149/149 46/153/153
f 164/155/155 142/217/211 204/149/149
f 142/217/211 44/147/147 204/149/149
f 314/216/201 151/377/344 63/378/345
f 314/216/201 262/215/210 151/377/344
f 262/215/210 46/153/153 151/377/344
f 211/213/209 262/215/210 68/214/200
f 211/213/209 152/212/208 262/215/210
f 152/212/208 46/153/153 262/215/210
f 152/212/208 107/154/154 46/153/153
f 152/212/208 143/211/207 107/154/154
f 143/211/207 48/369/337 107/154/154
f 250/209/205 290/384/349 53/371/338
f 250/209/205 145/208/204 290/384/349
f 145/208/204 69/380/346 290/384/349
f 206/206/202 208/385/350 60/207/203
f 206/206/202 314/205/201 208/385/350
f 314/205/201 63/379/345 208/385/350
f 294/203/199 298/375/342 66/197/193
f 294/203/199 251/183/179 298/375/342
f 251/183/179 62/182/178 298/375/342
f 118/201/197 319/381/347 57/382/340
f 118/201/197 227/200/196 319/381/347
f 227/200/196 50/157/157 319/381/347
f 313/198/194 187/386/229 67/242/195
f 313/198/194 128/195/191 187/386/229
f 128/195/191 65/194/190 187/386/229
f 220/196/192 178/238/227 61/186/182
f 220/196/192 128/195/191 178/238/227
f 128/195/191 66/197/193 178/238/227
f 147/193/189 265/235/225 65/234/190
f 147/193/189 273/148/148 265/235/225
f 273/148/148 44/147/147 265/235/225
f 212/191/187 276/231/222 45/192/188
f 212/191/187 299/190/186 276/231/222
f 299/190/186 63/378/345 276/231/222
f 116/188/184 208/385/350 63/379/345
f 116/188/184 111/187/183 208/385/350
f 111/187/183 60/207/203 208/385/350
f 231/176/172 135/383/348 54/221/214
f 231/176/172 237/185/181 135/383/348
f 237/185/181 56/202/198 135/383/348
f 278/184/180 237/185/181 58/175/171
f 278/184/180 251/183/179 237/185/181
f 251/183/179 56/202/198 237/185/181
f 146/181/177 174/239/228 62/182/178
f 146/181/177 213/180/176 174/239/228
f 213/180/176 61/186/182 174/239/228
f 213/180/176 111/187/183 61/186/182
f 213/180/176 280/179/175 111/187/183
f 280/179/175 60/207/203 111/187/183
f 221/177/173 189/226/219 59/178/174
f 221/177/173 231/176/172 189/226/219
f 231/176/172 54/221/214 189/226/219
f 321/174/170 193/224/217 49/160/160
f 321/174/170 199/173/169 193/224/217
f 199/173/169 57/382/340 193/224/217
f 199/171/169 324/372/339 57/373/340
f 199/171/169 266/170/168 324/372/339
f 266/170/168 56/202/198 324/372/339
f 257/168/166 140/222/215 54/221/214
f 257/168/166 99/167/165 140/222/215
f 99/167/165 53/371/338 140/222/215
f 99/165/165 244/368/336 53/370/338
f 99/165/165 303/164/164 244/368/336
f 303/164/164 48/369/337 244/368/336
f 270/162/162 303/164/164 52/163/163
f 270/162/162 292/161/161 303/164/164
f 292/161/161 48/369/337 303/164/164
f 170/159/159 138/376/343 44/147/147
f 170/159/159 209/158/158 138/376/343
f 209/158/158 51/374/341 138/376/343
f 295/156/156 156/225/218 50/157/157
f 295/156/156 165/152/152 156/225/218
f 165/152/152 49/160/160 156/225/218
f 164/155/155 228/151/151 47/150/150
f 164/155/155 107/154/154 228/151/151
f 107/154/154 48/369/337 228/151/151
f 165/152/152 292/161/161 49/160/160
f 165/152/152 228/151/151 292/161/161
f 228/151/151 48/369/337 292/161/161
f 204/149/149 117/232/223 46/153/153
f 204/149/149 273/148/148 117/232/223
f 273/148/148 45/192/188 117/232/223
f 242/132/132 329/143/143 157/146/146 40/133/133
f 39/125/125 172/122/122 329/143/143 242/132/132
f 172/122/122 38/121/121 168/144/144 329/143/143
f 102/136/136 330/139/139 113/142/142 42/137/137
f 37/129/129 311/118/118 330/139/139 102/136/136
f 311/118/118 36/117/117 309/140/140 330/139/139
f 168/387/144 331/135/135 153/138/138 43/388/145
f 38/389/121 126/130/130 331/135/135 168/387/144
f 126/130/130 37/129/129 102/136/136 331/135/135
f 309/140/140 332/131/131 304/134/134 41/141/141
f 36/117/117 183/126/126 332/131/131 309/140/140
f 183/126/126 39/125/125 242/132/132 332/131/131
f 130/390/120 333/127/127 126/130/130 38/389/121
f 26/391/103 100/72/72 333/127/127 130/390/120
f 100/72/72 25/71/71 191/128/128 333/127/127
f 248/116/116 334/123/123 183/126/126 36/117/117
f 35/113/113 190/108/108 334/123/123 248/116/116
f 190/108/108 34/107/107 179/124/124 334/123/123
f 179/124/124 335/119/119 172/122/122 39/125/125
f 34/107/107 108/104/104 335/119/119 179/124/124
f 108/104/104 26/103/103 130/120/120 335/119/119
f 191/128/128 336/115/115 311/118/118 37/129/129
f 25/71/71 320/114/114 336/115/115 191/128/128
f 320/114/114 35/113/113 248/116/116 336/115/115
f 245/70/70 337/111/111 320/114/114 25/71/71
f 19/392/55 127/393/351 337/111/111 245/70/70
f 127/393/351 23/394/352 328/112/112 337/111/111
f 277/395/353 338/109/109 229/110/110 27/396/354
f 16/397/59 263/398/355 338/109/109 277/395/353
f 263/398/355 23/399/352 240/64/64 338/109/109
f 328/112/112 339/105/105 190/108/108 35/113/113
f 23/394/352 263/400/355 339/105/105 328/112/112
f 263/400/355 16/401/59 180/106/106 339/105/105
f 180/106/106 340/101/101 108/104/104 34/107/107
f 16/401/59 316/402/58 340/101/101 180/106/106
f 316/402/58 20/403/51 160/102/102 340/101/101
f 229/110/110 341/97/97 260/100/100 27/396/354
f 22/63/63 121/92/92 341/97/97 229/110/110
f 121/92/92 33/91/91 267/98/98 341/97/97
f 181/66/66 342/93/93 173/96/96 21/67/67
f 24/79/79 238/88/88 342/93/93 181/66/66
f 238/88/88 31/87/87 217/94/94 342/93/93
f 306/62/62 343/89/89 121/92/92 22/63/63
f 21/404/67 173/405/96 343/89/89 306/62/62
f 173/405/96 32/406/95 159/90/90 343/89/89
f 293/78/78 344/85/85 238/88/88 24/79/79
f 28/75/75 196/84/84 344/85/85 293/78/78
f 196/84/84 30/83/83 271/86/86 344/85/85
f 205/74/74 345/81/81 196/84/84 28/75/75
f 27/396/354 260/100/100 345/81/81 205/74/74
f 260/100/100 29/99/99 105/82/82 345/81/81
f 322/407/46 346/77/77 305/80/80 18/408/47
f 17/409/43 169/76/76 346/77/77 322/407/46
f 169/76/76 28/75/75 293/78/78 346/77/77
f 185/410/42 347/73/73 169/76/76 17/409/43
f 16/397/59 277/395/353 347/73/73 185/410/42
f 277/395/353 27/396/354 205/74/74 347/73/73
f 160/411/102 348/69/69 100/72/72 26/391/103
f 20/412/51 192/413/50 348/69/69 160/411/102
f 192/413/50 19/392/55 245/70/70 348/69/69
f 256/414/54 349/65/65 249/68/68 19/415/55
f 18/408/47 305/80/80 349/65/65 256/414/54
f 305/80/80 24/79/79 181/66/66 349/65/65
f 127/416/351 350/61/61 240/64/64 23/399/352
f 19/417/55 249/418/68 350/61/61 127/416/351
f 249/418/68 21/404/67 306/62/62 350/61/61
f 216/419/30 351/57/57 119/60/60 14/420/31
f 12/421/23 104/52/52 351/57/57 216/419/30
f 104/52/52 20/51/51 316/58/58 351/57/57
f 281/422/26 352/53/53 148/56/56 11/423/27
f 13/424/39 325/48/48 352/53/53 281/422/26
f 325/48/48 18/47/47 256/54/54 352/53/53
f 223/425/22 353/49/49 104/52/52 12/421/23
f 11/426/27 148/427/56 353/49/49 223/425/22
f 148/427/56 19/428/55 192/50/50 353/49/49
f 175/429/38 354/45/45 325/48/48 13/424/39
f 15/430/35 300/44/44 354/45/45 175/429/38
f 300/44/44 17/43/43 322/46/46 354/45/45
f 296/431/34 355/41/41 300/44/44 15/430/35
f 14/420/31 119/60/60 355/41/41 296/431/34
f 119/60/60 16/59/59 185/42/42 355/41/41
f 323/2/2 356/37/37 291/40/40 3/3/3
f 2/11/11 283/36/36 356/37/37 323/2/2
f 283/36/36 15/35/35 175/38/38 356/37/37
f 233/10/10 357/33/33 283/36/36 2/11/11
f 10/19/19 214/32/32 357/33/33 233/10/10
f 214/32/32 14/31/31 296/34/34 357/33/33
f 122/18/18 358/29/29 214/32/32 10/19/19
f 7/7/7 232/24/24 358/29/29 122/18/18
f 232/24/24 12/23/23 216/30/30 358/29/29
f 136/14/14 359/25/25 301/28/28 6/15/15
f 3/3/3 291/40/40 359/25/25 136/14/14
f 291/40/40 13/39/39 281/26/26 359/25/25
f 310/6/6 360/21/21 232/24/24 7/7/7
f 6/432/15 301/433/28 360/21/21 310/6/6
f 301/433/28 11/434/27 223/22/22 360/21/21
f 194/435/356 361/17/17 120/20/20 9/436/357
f 8/437/358 253/8/8 361/17/17 194/435/356
f 253/8/8 7/7/7 122/18/18 361/17/17
f 200/438/359 362/13/13 131/16/16 5/439/360
f 4/440/361 258/4/4 362/13/13 200/438/359
f 258/4/4 3/3/3 136/14/14 362/13/13
f 307/441/362 363/9/9 144/12/12 1/442/363
f 9/436/357 120/20/20 363/9/9 307/441/362
f 120/20/20 10/19/19 233/10/10 363/9/9
f 243/443/364 364/5/5 253/8/8 8/437/358
f 5/444/360 131/445/16 364/5/5 243/443/364
f 131/445/16 6/432/15 310/6/6 364/5/5
f 261/446/365 365/1/1 258/4/4 4/440/361
f 1/442/363 144/12/12 365/1/1 261/446/365
f 144/12/12 2/11/11 323/2/2 365/1/1
