# Blender v2.78 (sub 0) OBJ File: ''
# www.blender.org
mtllib Birch_Tree_NoLeaves_crk_l_01.mtl
o Birch_Tree_NoLeaves_crk_l_01
v -0.152543 0.061434 0.152410
v 0.048055 0.669743 0.146576
v -0.039295 0.683798 -0.059909
v -0.243501 0.061434 -0.058215
v -0.005369 0.061434 -0.188388
v 0.149828 0.684252 -0.193621
v 0.322524 0.669743 -0.047903
v 0.232762 0.061434 -0.058215
v 0.138493 0.044254 0.152410
v 0.226223 0.468526 0.152410
v 0.176331 1.526520 0.113415
v 0.096979 1.570173 -0.057625
v 0.266444 1.578224 -0.187874
v 0.406633 1.527126 -0.054066
v -0.035097 1.593466 -0.217714
v -1.449877 1.164714 -1.856913
v -1.110084 1.230388 -1.772547
v 0.121206 1.619016 -0.339006
v 0.161094 1.822005 -0.333371
v -1.330397 1.346712 -2.019754
v -1.420642 1.472285 -1.840340
v 0.018692 1.927612 -0.251660
v -0.047845 1.789234 -0.128674
v -1.498214 1.356518 -1.736528
v -2.334664 1.097940 -2.525609
v -2.270895 1.108026 -2.644776
v -1.628631 1.125533 -2.242085
v -2.245436 1.241189 -2.661952
v -2.321969 1.308670 -2.575638
v -2.377114 1.220138 -2.491373
v -3.923632 0.768951 -4.207535
v -3.922336 0.867914 -4.235797
v -3.996525 0.916312 -4.183978
v -4.043671 0.847234 -4.123691
v -3.998620 0.756139 -4.138249
v -5.860595 0.246299 -6.182579
v -5.804295 0.257426 -6.241396
v -5.801880 0.334233 -6.262347
v -5.856721 0.371015 -6.216502
v -5.893009 0.316671 -6.167204
v -7.662359 0.020814 -7.848421
v -7.660738 0.049965 -7.857405
v -7.684832 0.063266 -7.836294
v -7.701061 0.041583 -7.814235
v -7.687505 0.016199 -7.821547
v -9.100206 0.025771 -9.071939
v -9.202802 0.024058 -9.182927
v -9.163820 0.034368 -9.153515
v -9.209404 0.039008 -9.179192
v -1.658270 0.777375 -3.311345
v -1.804831 0.707083 -3.293281
v -1.583915 0.664037 -3.271963
v -1.699189 0.647953 -3.198352
v -2.412913 0.370564 -4.845862
v -2.507964 0.329627 -4.806393
v -2.379371 0.283085 -4.845329
v -2.426431 0.272101 -4.766021
v -3.395571 0.090633 -6.147446
v -3.354177 0.064479 -6.144451
v -3.341294 0.071247 -6.186406
v -3.358698 0.109363 -6.177381
v -4.400099 0.021620 -7.389126
v -4.441652 0.008340 -7.406774
v -4.421927 0.002191 -7.422633
v -4.397293 -0.001277 -7.372658
v 0.670881 2.122633 0.244876
v 0.487682 2.092992 0.426194
v 0.689189 2.238131 0.468236
v -1.762025 0.674610 -3.241089
v -1.883647 1.143919 -2.349638
v 0.345333 1.550102 -0.115581
v 0.612976 2.176220 0.465970
v 0.697539 2.189903 0.382276
v -4.511871 0.000658 -7.507642
v 0.042701 1.138157 -0.057638
v -2.132740 0.511566 -4.042041
v -3.121394 1.128285 -3.327147
v -1.466877 1.423638 -1.783707
v -1.634426 0.648649 -3.230907
v -1.563514 0.900857 -2.517052
v -0.697737 1.401008 -0.964231
v -4.965161 0.578278 -5.147249
v -8.497376 0.013878 -8.570625
v -5.798742 0.294813 -6.256057
v -1.738676 0.749575 -3.306563
v 0.151377 0.549888 0.147942
v -0.698738 1.692031 -1.052368
v 0.131660 0.061434 -0.141374
v -3.949607 0.041366 -6.822194
v -8.511214 0.040806 -8.562965
v -5.878269 0.348101 -6.189386
v -7.788348 0.025275 -7.898682
v -7.674494 0.016605 -7.834935
v -0.783093 1.566814 -0.940614
v 0.265625 0.549888 0.067403
v -1.931169 1.285106 -2.116432
v 0.259803 1.967188 0.200414
v -5.880431 0.278883 -6.170588
v 0.065828 0.332077 -0.195291
v -3.921075 0.023689 -6.821437
v -1.671266 0.930183 -2.699995
v -7.672124 0.058366 -7.847973
v -4.925385 0.496875 -5.161639
v -3.957590 0.898501 -4.213251
v -3.348224 0.091264 -6.184741
v -2.937270 0.199526 -5.483887
v 0.284508 0.325634 -0.060349
v -0.561246 1.603614 -1.145052
v 0.080241 1.632961 -0.080837
v -3.376647 0.076597 -6.143100
v -3.379424 0.102396 -6.161973
v -9.230009 0.025706 -9.197390
v 0.084065 1.890201 -0.319070
v -2.875854 0.157301 -5.464076
v -2.390451 0.328946 -4.850571
v -9.233390 0.033222 -9.195480
v -1.162544 1.294197 -1.870119
v 0.183119 1.580958 -0.123319
v 0.374074 1.139567 -0.057865
v 0.237679 1.720869 -0.237047
v -0.154093 0.332076 -0.060349
v -2.848051 0.166360 -5.525261
v -4.858512 0.509128 -5.225502
v -4.024805 0.887049 -4.151487
v -0.057296 1.671750 -0.167584
v -4.450337 0.013130 -7.432815
v -9.319237 0.032150 -9.279884
v -3.959353 0.755336 -4.172264
v 0.045419 0.684025 -0.140319
v -0.482442 1.446185 -1.004602
v -0.227088 0.061434 0.054000
v -1.537300 1.214461 -2.214178
v -6.782842 0.111277 -7.025403
v -1.883925 1.144421 -2.156343
v -2.360943 1.155195 -2.501118
v -9.227873 0.036668 -9.202867
v -6.742271 0.119438 -7.068600
v 0.052148 1.699549 -0.071052
v -4.448910 0.001162 -7.424204
v -0.071332 0.325634 0.157994
v -6.779409 0.197203 -7.049547
v -5.827773 0.357828 -6.242202
v -1.602652 1.113972 -2.124184
v -3.047133 1.070617 -3.396065
v -4.439953 -0.001618 -7.431406
v -2.252390 1.172483 -2.660901
v -8.496231 0.032327 -8.576246
v -1.962338 0.459780 -4.065969
v -1.365640 0.946582 -2.518791
v -0.041592 1.869869 -0.194703
v -2.301612 1.093327 -2.585458
v -1.611078 0.723614 -3.296381
v -8.430060 0.022846 -8.469235
v -1.230155 1.190854 -1.777976
v -2.012232 0.562963 -4.077147
v -1.865012 1.387338 -2.210877
v 0.114116 1.139340 0.131065
v 0.460593 1.999675 0.001686
v -4.922858 0.640663 -5.202208
v 0.254283 0.684139 -0.140337
v -2.353832 1.271685 -2.528684
v -7.694318 0.053774 -7.824223
v -5.831286 0.246019 -6.211797
v -3.171981 1.050115 -3.255310
v -3.917140 0.817105 -4.226092
v -0.007025 0.052844 0.174748
v -1.485008 1.054419 -2.653020
v -3.914068 0.029331 -6.850895
v -3.128985 0.944134 -3.279831
v 0.216384 1.140749 -0.184499
v 0.420113 2.108381 0.182233
v -4.025893 0.798559 -4.126156
v 0.046098 1.591936 -0.277624
v 0.204945 0.696295 0.066881
v 0.141586 1.833089 -0.137056
v -3.345447 0.065465 -6.165869
v 0.214694 0.052844 0.054000
v 0.601453 2.122000 0.359609
v -1.358001 1.441239 -1.893340
v -2.036809 0.448741 -3.980623
v 0.140909 1.547510 0.033614
v -7.659767 0.035120 -7.854649
v 0.149241 1.703410 -0.354864
v -2.465059 0.356121 -4.827726
v 0.297168 1.548806 0.033406
v -4.441381 0.010350 -7.440016
v -6.740130 0.172285 -7.083507
v -3.051825 0.956806 -3.366822
v -0.142399 0.061434 -0.141374
v 0.238847 1.649925 -0.220183
v -0.019113 0.683912 0.053366
v -2.472889 0.298742 -4.781232
v -8.424794 0.013269 -8.472131
v -4.856939 0.597838 -5.250567
v -1.470455 1.273503 -1.742996
v 0.186335 0.252095 0.157994
v -2.872421 0.228716 -5.519826
v -9.224892 0.029868 -9.204556
v -2.281300 1.283273 -2.623188
v -2.398281 0.271567 -4.804077
v -3.925547 0.055509 -6.844287
v -6.805798 0.159398 -7.013631
v -1.776879 1.309837 -2.309156
v 0.252191 1.614754 -0.040782
v 0.329389 2.041123 0.207937
v 0.456170 2.061636 0.082458
v 0.354949 1.972485 0.093938
v 0.145051 1.721273 -0.152324
v 0.166986 1.618176 -0.147017
v -3.915960 0.024744 -6.836401
v -3.936592 0.031731 -6.819739
v -3.918557 0.043217 -6.849668
v -3.939189 0.050204 -6.833006
v -2.856504 0.199078 -5.526455
v -2.908301 0.218333 -5.502436
v -2.858498 0.157618 -5.494089
v -2.910294 0.176873 -5.470070
v -1.993701 0.447574 -4.020371
v -2.092628 0.477639 -4.006481
v -1.979432 0.513886 -4.076409
v -2.078359 0.543950 -4.062519
v -1.455430 0.918195 -2.505147
v -1.632861 0.908675 -2.610346
v -1.409853 1.007346 -2.584084
v -1.587284 0.997825 -2.689282
v -1.827080 1.223851 -2.340746
v -8.516551 0.033861 -8.555379
v -8.495600 0.022782 -8.574635
v -8.503344 0.037895 -8.570347
v -8.505205 0.012289 -8.561645
v -6.796888 0.133572 -7.016482
v -6.758676 0.188221 -7.068477
v -6.761758 0.111485 -7.046881
v -6.794991 0.181104 -7.029835
v -6.738137 0.145218 -7.079014
v -4.948065 0.614238 -5.172321
v -4.852631 0.552311 -5.242340
v -4.949461 0.534712 -5.149885
v -4.888215 0.625046 -5.229458
v -4.890482 0.496475 -5.193161
v -3.155384 0.993639 -3.261477
v -3.082143 1.106817 -3.365484
v -3.088935 0.942038 -3.323145
v -3.151186 1.095478 -3.287644
v -3.043669 1.011986 -3.387425
v -1.903960 1.344480 -2.158880
v -1.909549 1.210951 -2.124922
v -1.813764 1.358966 -2.261660
v -1.886278 1.132372 -2.256238
v -0.748910 1.639335 -0.991418
v -0.508138 1.523290 -1.079743
v -0.752361 1.477244 -0.947081
v -0.630229 1.658538 -1.108880
v -0.583620 1.411244 -0.979745
v 0.120315 1.139453 -0.133769
v 0.253323 1.139453 0.049300
v 0.312694 1.140272 -0.133901
v 0.060943 1.138635 0.049432
v 0.253667 0.285643 0.054000
v -0.055793 0.332077 -0.141374
v 0.056880 0.285643 0.174748
v 0.187449 0.332077 -0.141374
v -0.130958 0.332076 0.054000
vt 0.1291 0.0633
vt 0.1291 0.1011
vt 0.1152 0.1002
vt 0.1155 0.0619
vt 0.0720 0.0727
vt 0.0747 0.1082
vt 0.0615 0.1109
vt 0.0574 0.0762
vt 0.1583 0.0640
vt 0.1573 0.0954
vt 0.1430 0.1021
vt 0.1427 0.0648
vt 0.1011 0.0656
vt 0.1016 0.1028
vt 0.0880 0.1055
vt 0.0866 0.0693
vt 0.1869 0.0702
vt 0.1840 0.1003
vt 0.1715 0.0887
vt 0.1738 0.0632
vt 0.3240 0.8922
vt 0.3308 0.8988
vt 0.3188 0.8988
vt 0.1286 0.1546
vt 0.1281 0.2081
vt 0.1160 0.2077
vt 0.1156 0.1540
vt 0.0773 0.1596
vt 0.0798 0.2109
vt 0.0677 0.2121
vt 0.0646 0.1615
vt 0.3287 0.9330
vt 0.3318 0.9606
vt 0.3213 0.9606
vt 0.3175 0.9330
vt 0.1028 0.1558
vt 0.1039 0.2087
vt 0.0919 0.2097
vt 0.0899 0.1576
vt 0.0814 0.3329
vt 0.0830 0.4549
vt 0.0721 0.4380
vt 0.0699 0.3250
vt 0.1499 0.3413
vt 0.1476 0.4728
vt 0.1370 0.4731
vt 0.1386 0.3408
vt 0.1043 0.3406
vt 0.1046 0.4725
vt 0.0940 0.4718
vt 0.0930 0.3408
vt 0.1729 0.3338
vt 0.1695 0.4554
vt 0.1582 0.4725
vt 0.1613 0.3418
vt 0.1271 0.3406
vt 0.1261 0.4732
vt 0.1153 0.4732
vt 0.1156 0.3404
vt 0.0869 0.5348
vt 0.0897 0.5812
vt 0.0818 0.5818
vt 0.0780 0.5434
vt 0.1422 0.5274
vt 0.1368 0.5820
vt 0.1290 0.5808
vt 0.1330 0.5270
vt 0.1051 0.5264
vt 0.1055 0.5802
vt 0.0977 0.5806
vt 0.0958 0.5262
vt 0.1237 0.5267
vt 0.1212 0.5803
vt 0.1134 0.5798
vt 0.1143 0.5265
vt 0.0954 0.7646
vt 0.0937 0.8984
vt 0.0890 0.8985
vt 0.0899 0.7644
vt 0.0739 0.7645
vt 0.0751 0.9004
vt 0.0704 0.9008
vt 0.0685 0.7646
vt 0.0525 0.7653
vt 0.0565 0.8993
vt 0.0518 0.8989
vt 0.0472 0.7656
vt 0.0846 0.7644
vt 0.0844 0.8993
vt 0.0799 0.9001
vt 0.0793 0.7643
vt 0.0632 0.7648
vt 0.0658 0.9003
vt 0.0611 0.8998
vt 0.0579 0.7650
vt 0.1562 0.7810
vt 0.1581 0.9330
vt 0.1532 0.9331
vt 0.1508 0.7810
vt 0.1886 0.7810
vt 0.1877 0.9327
vt 0.1829 0.9326
vt 0.1832 0.7810
vt 0.1671 0.7811
vt 0.1680 0.9327
vt 0.1630 0.9328
vt 0.1617 0.7810
vt 0.1995 0.7810
vt 0.1975 0.9329
vt 0.1926 0.9328
vt 0.1939 0.7809
vt 0.1779 0.7811
vt 0.1779 0.9326
vt 0.1729 0.9326
vt 0.1725 0.7811
vt 0.1831 0.8927
vt 0.1789 0.9958
vt 0.1771 0.9957
vt 0.1803 0.8927
vt 0.1718 0.8926
vt 0.1718 0.9957
vt 0.1700 0.9957
vt 0.1689 0.8926
vt 0.1603 0.8927
vt 0.1647 0.9958
vt 0.1629 0.9958
vt 0.1575 0.8928
vt 0.1775 0.8926
vt 0.1753 0.9957
vt 0.1735 0.9957
vt 0.1746 0.8926
vt 0.1660 0.8926
vt 0.1682 0.9957
vt 0.1665 0.9957
vt 0.1632 0.8927
vt 0.0176 0.8275
vt 0.0194 0.9128
vt 0.0180 0.9131
vt 0.0160 0.8277
vt 0.0259 0.8276
vt 0.0255 0.9129
vt 0.0240 0.9128
vt 0.0243 0.8275
vt 0.0211 0.7422
vt 0.0210 0.8273
vt 0.0193 0.7422
vt 0.0292 0.8277
vt 0.0284 0.9130
vt 0.0269 0.9130
vt 0.0276 0.8276
vt 0.0226 0.8274
vt 0.0225 0.9126
vt 0.0209 0.9124
vt 0.0313 0.4848
vt 0.0322 0.4855
vt 0.0313 0.4857
vt 0.0326 0.4849
vt 0.0328 0.4855
vt 0.0320 0.4848
vt 0.1597 0.5376
vt 0.1680 0.5473
vt 0.1607 0.5853
vt 0.1527 0.5842
vt 0.1081 0.2566
vt 0.1201 0.2481
vt 0.1170 0.3243
vt 0.1067 0.3274
vt 0.1321 0.2424
vt 0.1441 0.2366
vt 0.1343 0.3248
vt 0.1256 0.3246
vt 0.0887 0.2529
vt 0.0961 0.2650
vt 0.0964 0.3306
vt 0.0882 0.3245
vt 0.0685 0.2383
vt 0.0812 0.2407
vt 0.0801 0.3184
vt 0.0723 0.3224
vt 0.1126 0.4270
vt 0.1211 0.4243
vt 0.1252 0.5242
vt 0.1185 0.5265
vt 0.1284 0.4245
vt 0.1357 0.4248
vt 0.1371 0.5248
vt 0.1312 0.5245
vt 0.0970 0.4247
vt 0.1040 0.4297
vt 0.1117 0.5287
vt 0.1057 0.5249
vt 0.0837 0.4237
vt 0.0899 0.4197
vt 0.0997 0.5211
vt 0.0951 0.5250
vt 0.1229 0.7480
vt 0.1263 0.7503
vt 0.1274 0.8224
vt 0.1252 0.8214
vt 0.1166 0.7479
vt 0.1195 0.7457
vt 0.1230 0.8204
vt 0.1214 0.8218
vt 0.1304 0.7496
vt 0.1346 0.7489
vt 0.1324 0.8222
vt 0.1299 0.8223
vt 0.1381 0.7494
vt 0.1416 0.7499
vt 0.1367 0.8227
vt 0.1346 0.8225
vt 0.1338 0.8999
vt 0.1357 0.8997
vt 0.1390 0.9773
vt 0.1377 0.9775
vt 0.1375 0.8999
vt 0.1392 0.9001
vt 0.1417 0.9775
vt 0.1403 0.9774
vt 0.1302 0.8992
vt 0.1319 0.9000
vt 0.1364 0.9777
vt 0.1351 0.9769
vt 0.1269 0.8996
vt 0.1284 0.8982
vt 0.1338 0.9761
vt 0.1325 0.9773
vt 0.0318 0.3119
vt 0.0331 0.3117
vt 0.0331 0.3131
vt 0.0313 0.3144
vt 0.0316 0.3131
vt 0.0328 0.3144
vt 0.0919 0.2098
vt 0.1039 0.2087
vt 0.0919 0.2097
vt 0.0798 0.2109
vt 0.0677 0.2121
vt 0.1160 0.2116
vt 0.0798 0.2109
vt 0.1039 0.2087
vt 0.3006 0.9074
vt 0.3016 0.9006
vt 0.3081 0.9006
vt 0.3090 0.9082
vt 0.2968 0.9373
vt 0.3071 0.9388
vt 0.3043 0.9618
vt 0.2940 0.9603
vt 0.1077 0.6115
vt 0.0886 0.5956
vt 0.0913 0.4942
vt 0.1093 0.5241
vt 0.0688 0.6108
vt 0.0491 0.6262
vt 0.0532 0.5527
vt 0.0723 0.5235
vt 0.2913 0.9796
vt 0.2875 0.9692
vt 0.2978 0.9707
vt 0.3318 0.9668
vt 0.3422 0.9606
vt 0.3402 0.9668
vt 0.3318 0.9729
vt 0.3382 0.9729
vt 0.3253 0.9729
vt 0.3233 0.9668
vt 0.2836 0.9589
vt 0.0858 0.6969
vt 0.0654 0.6982
vt 0.0451 0.6996
vt 0.1269 0.6276
vt 0.1274 0.5540
vt 0.1263 0.7011
vt 0.1060 0.6990
vt 0.2864 0.9359
vt 0.2893 0.9128
vt 0.2996 0.9143
vt 0.3099 0.9157
vt 0.2922 0.9067
vt 0.2952 0.9006
vt 0.1160 0.2077
vt 0.1160 0.2077
vt 0.1282 0.2104
vt 0.1644 0.2112
vt 0.0343 0.3144
vt 0.0343 0.3130
vt 0.0343 0.3115
vt 0.1255 0.9008
vt 0.1312 0.9785
vt 0.1198 0.8232
vt 0.1367 0.6756
vt 0.1416 0.6763
vt 0.1465 0.6771
vt 0.1252 0.6782
vt 0.1310 0.6769
vt 0.1137 0.7500
vt 0.1077 0.6768
vt 0.1118 0.6739
vt 0.1159 0.6710
vt 0.1206 0.6746
vt 0.0775 0.4277
vt 0.0905 0.5290
vt 0.0646 0.3265
vt 0.0558 0.2359
vt 0.0470 0.1452
vt 0.0646 0.1542
vt 0.0823 0.1631
vt 0.0891 0.1813
vt 0.0959 0.1994
vt 0.1232 0.1720
vt 0.1385 0.1602
vt 0.1539 0.1483
vt 0.1095 0.1857
vt 0.1515 0.5278
vt 0.1447 0.5832
vt 0.1668 0.4909
vt 0.1754 0.5093
vt 0.0330 0.4862
vt 0.0322 0.4863
vt 0.0313 0.4865
vt 0.0228 0.7422
vt 0.0246 0.7422
vt 0.0300 0.7423
vt 0.0282 0.7423
vt 0.0318 0.7424
vt 0.0309 0.8277
vt 0.0299 0.9131
vt 0.0192 0.8274
vt 0.0176 0.7423
vt 0.0264 0.7422
vt 0.0158 0.7423
vt 0.0140 0.7424
vt 0.1638 0.7896
vt 0.1599 0.7896
vt 0.1678 0.7895
vt 0.1796 0.7896
vt 0.1757 0.7895
vt 0.1835 0.7896
vt 0.1560 0.7897
vt 0.1521 0.7898
vt 0.1717 0.7895
vt 0.1874 0.7897
vt 0.1913 0.7898
vt 0.1860 0.8928
vt 0.1807 0.9958
vt 0.1778 0.6296
vt 0.1720 0.6297
vt 0.1836 0.6295
vt 0.2014 0.6290
vt 0.1953 0.6290
vt 0.2074 0.6290
vt 0.2050 0.7810
vt 0.2025 0.9330
vt 0.1662 0.6295
vt 0.1603 0.6293
vt 0.1894 0.6292
vt 0.1543 0.6292
vt 0.1484 0.6290
vt 0.0607 0.6293
vt 0.0547 0.6301
vt 0.0667 0.6285
vt 0.0848 0.6294
vt 0.0788 0.6286
vt 0.0909 0.6302
vt 0.0486 0.6313
vt 0.0425 0.6324
vt 0.0728 0.6285
vt 0.0971 0.6308
vt 0.1033 0.6314
vt 0.1009 0.7648
vt 0.0984 0.8982
vt 0.0840 0.4884
vt 0.0741 0.5050
vt 0.1281 0.2081
vt 0.1402 0.2085
vt 0.1764 0.2122
vt 0.1884 0.2131
vt 0.1846 0.3257
vt 0.1808 0.4384
vt 0.1523 0.2098
vt 0.3256 0.9053
vt 0.3137 0.9053
vt 0.3376 0.9053
vt 0.3399 0.9330
vt 0.1416 0.1553
vt 0.1402 0.2085
vt 0.1899 0.0401
vt 0.1762 0.0378
vt 0.2036 0.0424
vt 0.2000 0.0772
vt 0.1964 0.1120
vt 0.1005 0.0283
vt 0.0852 0.0330
vt 0.1159 0.0237
vt 0.1592 0.0326
vt 0.1423 0.0274
vt 0.0692 0.0372
vt 0.0532 0.0415
vt 0.1291 0.0256
vn -0.8840 0.2943 0.3632
vn -0.8984 0.2269 0.3761
vn -0.9188 0.2307 -0.3201
vn -0.8970 0.2925 -0.3315
vn 0.5424 -0.1040 -0.8337
vn 0.6116 -0.0823 -0.7869
vn 0.9994 -0.0343 -0.0110
vn 0.9501 -0.1369 -0.2804
vn 0.0116 0.0245 0.9996
vn 0.2564 0.2200 0.9412
vn -0.2798 0.2031 0.9383
vn -0.4904 0.1769 0.8534
vn -0.5187 0.1530 -0.8412
vn -0.5583 0.1316 -0.8191
vn 0.0107 0.0141 -0.9998
vn -0.0019 0.0065 -1.0000
vn 0.9252 -0.1377 0.3535
vn 0.8147 0.1227 0.5667
vn 0.5750 0.0948 0.8126
vn 0.5374 -0.0823 0.8393
vn -0.9052 0.1623 0.3928
vn -0.6179 0.6508 0.4413
vn -0.8065 0.5636 -0.1786
vn -0.9444 0.1607 -0.2870
vn 0.6515 -0.0581 -0.7564
vn 0.6667 0.5573 -0.4949
vn 0.9412 0.3223 0.1018
vn 0.9942 -0.0832 0.0684
vn 0.5870 -0.0417 0.8085
vn 0.4924 0.5413 0.6815
vn -0.1522 0.4107 0.8990
vn -0.2334 0.0881 0.9684
vn -0.5868 0.0965 -0.8039
vn -0.5936 0.0857 -0.8002
vn 0.0970 0.5235 -0.8465
vn 0.0098 0.0204 -0.9997
vn 0.2060 -0.9749 0.0845
vn 0.1712 -0.9607 0.2183
vn 0.6879 -0.6783 -0.2583
vn 0.6057 -0.7192 -0.3404
vn 0.2540 0.8453 -0.4700
vn 0.2337 0.8558 -0.4614
vn -0.1872 0.9808 -0.0553
vn -0.2269 0.9712 -0.0729
vn -0.6167 -0.4286 0.6603
vn -0.5701 -0.4690 0.6745
vn -0.2430 -0.8424 0.4809
vn -0.2492 -0.8594 0.4465
vn 0.7660 -0.1204 -0.6315
vn 0.8163 0.1724 -0.5513
vn 0.4485 0.6997 -0.5561
vn 0.5979 0.4602 -0.6563
vn -0.6158 0.7019 0.3580
vn -0.5568 0.7308 0.3948
vn -0.7109 0.1929 0.6763
vn -0.7563 0.1807 0.6288
vn 0.0034 -0.9997 0.0253
vn 0.1369 -0.9906 0.0034
vn 0.4917 -0.7460 -0.4491
vn 0.3747 -0.7596 -0.5316
vn 0.2210 0.8564 -0.4666
vn 0.2284 0.8569 -0.4621
vn -0.1861 0.9825 -0.0100
vn -0.1678 0.9857 -0.0139
vn -0.5462 -0.4324 0.7174
vn -0.5753 -0.3958 0.7158
vn -0.2774 -0.8480 0.4515
vn -0.3074 -0.8312 0.4633
vn -0.5027 0.7396 0.4476
vn -0.5222 0.7349 0.4327
vn -0.6736 0.2120 0.7080
vn -0.6556 0.2099 0.7253
vn 0.6927 -0.2090 -0.6903
vn 0.7241 -0.1976 -0.6608
vn 0.5947 0.4153 -0.6883
vn 0.5770 0.4023 -0.7108
vn -0.5560 0.7282 0.4008
vn -0.5827 0.7218 0.3734
vn -0.7347 0.1964 0.6494
vn -0.7076 0.2025 0.6770
vn 0.1820 -0.9831 0.0186
vn 0.2012 -0.9788 0.0377
vn 0.5699 -0.7273 -0.3824
vn 0.5397 -0.7337 -0.4128
vn 0.2377 0.8566 -0.4580
vn 0.2372 0.8598 -0.4522
vn -0.2173 0.9752 -0.0430
vn -0.1982 0.9796 -0.0322
vn -0.5937 -0.4022 0.6970
vn -0.6093 -0.4083 0.6797
vn -0.2564 -0.8560 0.4490
vn -0.2564 -0.8575 0.4461
vn 0.2192 -0.9748 0.0422
vn 0.1964 -0.9805 0.0019
vn 0.5488 -0.7280 -0.4110
vn 0.5911 -0.7190 -0.3655
vn 0.2340 0.8640 -0.4459
vn 0.2265 0.8708 -0.4363
vn -0.1976 0.9797 -0.0332
vn -0.2245 0.9729 -0.0553
vn -0.6166 -0.4199 0.6659
vn -0.5933 -0.4298 0.6806
vn -0.2323 -0.8810 0.4121
vn -0.2433 -0.8657 0.4375
vn 0.7438 -0.1942 -0.6396
vn 0.7028 -0.2101 -0.6797
vn 0.5870 0.4063 -0.7002
vn 0.6093 0.4163 -0.6749
vn -0.5986 0.7184 0.3544
vn -0.5588 0.7326 0.3887
vn -0.7184 0.1898 0.6692
vn -0.7521 0.1871 0.6320
vn 0.6521 -0.2307 -0.7222
vn 0.6365 -0.2525 -0.7288
vn 0.5629 0.4332 -0.7039
vn 0.5522 0.4210 -0.7196
vn -0.5036 0.7522 0.4249
vn -0.4807 0.7395 0.4712
vn -0.6621 0.1370 0.7368
vn -0.6779 0.1843 0.7117
vn 0.1553 -0.9872 -0.0368
vn 0.1033 -0.9931 -0.0559
vn 0.4357 -0.7758 -0.4563
vn 0.4863 -0.7478 -0.4520
vn 0.2122 0.8877 -0.4085
vn 0.2264 0.9089 -0.3503
vn -0.1439 0.9873 0.0679
vn -0.1746 0.9846 0.0111
vn -0.5708 -0.4371 0.6951
vn -0.5696 -0.5068 0.6471
vn -0.2866 -0.8738 0.3929
vn -0.2556 -0.8769 0.4071
vn -0.0461 -0.9982 0.0390
vn -0.3866 -0.8505 0.3567
vn 0.3544 -0.8313 -0.4281
vn 0.3834 -0.8086 -0.4463
vn 0.2534 0.9182 -0.3044
vn 0.3717 0.7893 -0.4887
vn -0.1609 0.9716 0.1732
vn -0.1383 0.9805 0.1394
vn -0.6708 0.0413 0.7405
vn 0.6307 -0.2623 -0.7304
vn 0.6210 -0.0529 -0.7820
vn 0.5872 0.4396 -0.6796
vn 0.5825 0.4433 -0.6813
vn -0.5163 0.6373 0.5722
vn -0.6912 0.1550 0.7058
vn -0.6146 -0.4136 0.6717
vn -0.7486 0.0063 -0.6630
vn 0.5190 -0.0726 -0.8517
vn 0.6449 -0.2099 -0.7348
vn -0.4708 0.8392 -0.2721
vn 0.2440 0.8571 -0.4537
vn 0.2719 0.8667 -0.4182
vn -0.4496 0.8820 -0.1412
vn 0.8054 0.4227 -0.4156
vn 0.8661 -0.4911 -0.0929
vn 0.8624 -0.4725 -0.1817
vn 0.8207 0.3693 -0.4359
vn -0.7459 -0.5794 0.3286
vn -0.9657 0.2501 0.0698
vn -0.9295 0.2779 0.2424
vn -0.7138 -0.5761 0.3984
vn 0.2054 -0.9331 0.2953
vn -0.2072 -0.9029 0.3765
vn -0.2169 -0.9111 0.3504
vn 0.2608 -0.9431 0.2062
vn -0.4121 0.9103 -0.0387
vn 0.2731 0.8869 -0.3726
vn 0.2849 0.8812 -0.3773
vn -0.3879 0.9215 0.0178
vn 0.8064 0.3322 -0.4892
vn 0.8228 -0.4819 -0.3013
vn 0.7822 -0.4858 -0.3900
vn 0.7807 0.3108 -0.5422
vn -0.6857 -0.5694 0.4534
vn -0.8911 0.2958 0.3442
vn -0.8538 0.2953 0.4287
vn -0.6505 -0.5888 0.4797
vn 0.2660 -0.9586 0.1013
vn -0.2323 -0.9160 0.3270
vn -0.2139 -0.9284 0.3039
vn 0.2721 -0.9617 0.0314
vn -0.6010 -0.6254 0.4977
vn -0.8260 0.2552 0.5026
vn -0.7950 0.1905 0.5760
vn -0.5313 -0.7031 0.4727
vn 0.2581 -0.9656 -0.0318
vn -0.2039 -0.9381 0.2801
vn -0.1659 -0.9590 0.2299
vn 0.2396 -0.9669 -0.0874
vn -0.3748 0.9235 0.0820
vn 0.2485 0.9019 -0.3534
vn 0.2341 0.9225 -0.3068
vn -0.3499 0.9241 0.1538
vn 0.7334 0.3432 -0.5868
vn 0.7486 -0.4695 -0.4681
vn 0.7143 -0.4444 -0.5406
vn 0.6896 0.4068 -0.5992
vn -0.3452 0.9103 0.2286
vn 0.2239 0.9387 -0.2623
vn 0.2233 0.9388 -0.2624
vn -0.2543 0.9660 0.0463
vn 0.6724 0.4157 -0.6125
vn 0.6928 -0.4203 -0.5860
vn 0.6819 -0.4177 -0.6004
vn 0.4824 0.6400 -0.5981
vn -0.5004 -0.7323 0.4619
vn -0.7633 0.1702 0.6232
vn -0.7675 0.1634 0.6199
vn -0.4533 -0.8184 0.3532
vn 0.2274 -0.9629 -0.1451
vn -0.1594 -0.9692 0.1878
vn -0.1513 -0.9735 0.1713
vn 0.0973 -0.9886 -0.1151
vn -0.6584 -0.0524 -0.7508
vn -0.2326 -0.8810 -0.4119
vn -0.7184 -0.6941 -0.0449
vn -0.2594 -0.8567 0.4458
vn 0.1966 -0.9785 0.0619
vn 0.5805 -0.7278 -0.3651
vn 0.7625 -0.1475 -0.6300
vn 0.4215 -0.5215 -0.7419
vn -0.6218 -0.3729 0.6887
vn 0.5961 0.3684 0.7134
vn 0.5934 0.3199 0.7386
vn 0.6842 -0.7244 -0.0839
vn 0.9745 0.2241 -0.0077
vn 0.3412 -0.9192 0.1964
vn 0.8093 -0.2204 -0.5444
vn 0.8783 -0.0900 -0.4695
vn 0.4182 -0.8638 0.2810
vn 0.1272 0.8599 -0.4943
vn -0.2932 0.9468 -0.1327
vn 0.5017 0.6227 0.6005
vn 0.9789 0.1548 -0.1332
vn -0.6240 0.7353 0.2645
vn -0.4967 -0.4218 0.7586
vn -0.4262 -0.3076 0.8507
vn -0.1446 -0.0345 0.9889
vn 0.1135 0.9835 0.1412
vn -0.0571 0.9974 -0.0432
vn -0.2652 0.9583 -0.1062
vn -0.6469 0.6797 0.3457
vn -0.6011 0.1261 0.7892
vn 0.7720 0.3424 -0.5355
vn 0.2440 0.8228 -0.5134
vn 0.5940 -0.6150 0.5186
vn -0.0851 0.0383 0.9956
vn -0.1382 -0.8326 0.5363
vn -0.5161 -0.5207 -0.6801
vn -0.3325 -0.9076 0.2562
vn -0.6865 -0.4538 -0.5681
vn 0.0325 0.6764 -0.7359
vn 0.4238 0.5373 -0.7292
vn 0.5369 0.4071 -0.7389
vn -0.3318 -0.8661 0.3739
vn 0.5804 0.1143 0.8063
vn 0.9071 -0.1756 0.3826
vn 0.4813 -0.1105 0.8695
vn 0.9209 -0.1762 -0.3477
vn -0.5217 0.1578 -0.8384
vn -0.0600 0.0141 -0.9981
vn -0.9043 0.3030 -0.3009
vn -0.0193 -0.0040 0.9998
vn -0.5660 0.1763 0.8053
vn 0.4872 -0.1128 -0.8659
vn -0.8908 0.2989 0.3422
usemtl None
s 1
f 263/1/1 191/2/2 3/3/3 121/4/4
f 262/5/5 160/6/6 7/7/7 107/8/8
f 261/9/9 86/10/10 2/11/11 140/12/12
f 260/13/13 129/14/14 6/15/15 99/16/16
f 259/17/17 95/18/18 10/19/19 196/20/20
f 10/21/19 95/22/18 86/23/10
f 258/24/21 181/25/22 12/26/23 75/27/24
f 257/28/25 71/29/26 14/30/27 119/31/28
f 256/32/29 185/33/30 11/34/31 157/35/32
f 255/36/33 118/37/34 13/38/35 170/39/36
f 254/40/37 154/41/38 17/42/39 130/43/40
f 253/44/41 179/45/42 21/46/43 87/47/44
f 252/48/45 195/49/46 16/50/47 81/51/48
f 251/52/49 117/53/50 20/54/51 108/55/52
f 250/56/53 78/57/54 24/58/55 94/59/56
f 249/60/57 151/61/58 26/62/59 70/63/60
f 248/64/61 199/65/62 29/66/63 156/67/64
f 247/68/65 135/69/66 25/70/67 134/71/68
f 246/72/69 161/73/70 30/74/71 96/75/72
f 245/76/73 165/77/74 32/78/75 144/79/76
f 244/80/77 124/81/78 34/82/79 164/83/80
f 243/84/81 128/85/82 31/86/83 188/87/84
f 242/88/85 104/89/86 33/90/87 77/91/88
f 241/92/89 172/93/90 35/94/91 169/95/92
f 240/96/93 163/97/94 37/98/95 123/99/96
f 239/100/97 142/101/98 39/102/99 159/103/100
f 238/104/101 98/105/102 36/106/103 103/107/104
f 237/108/105 84/109/106 38/110/107 194/111/108
f 236/112/109 91/113/110 40/114/111 82/115/112
f 235/116/113 182/117/114 42/118/115 187/119/116
f 234/120/117 162/121/118 44/122/119 202/123/120
f 233/124/121 93/125/122 41/126/123 137/127/124
f 232/128/125 102/129/126 43/130/127 141/131/128
f 231/132/129 92/133/130 45/134/131 133/135/132
f 230/136/133 112/137/134 47/138/135 83/139/136
f 229/140/137 136/141/138 49/142/139 90/143/140
f 44/144/119 153/145/141 92/146/130
f 228/147/142 198/148/143 48/149/144 147/150/145
f 227/151/146 116/152/147 46/153/148 153/145/141
f 49/154/139 127/155/149 116/156/147
f 48/157/144 198/158/143 136/159/138
f 226/160/150 70/161/60 26/162/59 146/163/151
f 225/164/152 167/165/153 50/166/154 85/167/155
f 224/168/156 149/169/157 52/170/158 152/171/159
f 223/172/160 101/173/161 51/174/162 69/175/163
f 222/176/164 80/177/165 53/178/166 79/179/167
f 221/180/168 155/181/169 54/182/170 184/183/171
f 220/184/172 148/185/173 56/186/174 115/187/175
f 219/188/176 76/189/177 55/190/178 192/191/179
f 218/192/180 180/193/181 57/194/182 200/195/183
f 217/196/184 106/197/185 58/198/186 110/199/187
f 216/200/188 114/201/189 59/202/190 176/203/191
f 215/204/192 197/205/193 61/206/194 111/207/195
f 214/208/196 122/209/197 60/210/198 105/211/199
f 213/212/200 201/213/201 62/214/202 126/215/203
f 212/216/204 168/217/205 64/218/206 186/219/207
f 211/220/208 89/221/209 63/222/210 139/223/211
f 210/224/212 100/225/213 65/226/214 145/227/215
f 64/228/206 145/229/215 74/230/216
f 62/231/202 186/232/207 126/233/203
f 209/234/217 109/235/218 15/236/219 173/237/220
f 18/238/221 183/239/222 190/240/223
f 15/236/219 109/235/218 125/241/224
f 208/242/225 118/243/226 13/244/227 120/245/228
f 207/246/229 158/247/230 66/248/231 178/249/232
f 206/250/233 171/251/234 68/252/235 73/253/236
f 205/254/237 97/255/238 67/256/239 72/257/240
f 68/258/235 72/259/240 73/260/236
f 204/261/241 185/33/30 14/262/27 71/263/26
f 118/264/242 204/261/241 71/263/26 13/265/35
f 12/266/23 181/267/22 204/261/241 118/264/242
f 181/267/22 11/34/31 185/33/30 204/261/241
f 73/260/236 178/249/232 66/248/231
f 73/260/236 72/259/240 178/249/232
f 72/259/240 67/268/239 178/249/232
f 171/251/234 205/254/237 72/257/240 68/252/235
f 22/269/243 150/270/244 205/254/237 171/251/234
f 150/270/244 23/271/245 97/255/238 205/254/237
f 158/272/230 206/250/233 73/253/236 66/273/231
f 19/274/246 113/275/247 206/250/233 158/272/230
f 113/275/247 22/269/243 171/251/234 206/250/233
f 97/276/238 207/246/229 178/249/232 67/268/239
f 23/277/245 175/278/248 207/246/229 97/276/238
f 175/278/248 19/279/246 158/247/230 207/246/229
f 175/278/248 208/242/225 120/245/228 19/279/246
f 23/277/245 138/280/249 208/242/225 175/278/248
f 138/280/249 12/281/250 118/243/226 208/242/225
f 125/241/224 138/282/249 23/283/245
f 125/241/224 109/235/218 138/282/249
f 109/235/218 12/26/250 138/282/249
f 190/240/223 120/284/228 13/38/227
f 190/240/223 183/239/222 120/284/228
f 183/239/222 19/285/246 120/284/228
f 190/240/223 209/234/217 173/237/220 18/238/221
f 13/38/227 118/37/251 209/234/217 190/240/223
f 118/37/251 12/26/250 109/235/218 209/234/217
f 126/233/203 74/230/216 63/286/210
f 126/233/203 186/232/207 74/230/216
f 186/232/207 64/228/206 74/230/216
f 74/230/216 139/287/211 63/286/210
f 74/230/216 145/229/215 139/287/211
f 145/229/215 65/288/214 139/287/211
f 168/289/205 210/224/212 145/227/215 64/290/206
f 60/291/198 176/203/191 210/224/212 168/289/205
f 176/203/191 59/202/190 100/225/213 210/224/212
f 100/225/213 211/220/208 139/223/211 65/226/214
f 59/202/190 110/199/187 211/220/208 100/225/213
f 110/199/187 58/198/186 89/221/209 211/220/208
f 201/213/201 212/216/204 186/219/207 62/214/202
f 61/206/194 105/211/199 212/216/204 201/213/201
f 105/211/199 60/210/198 168/217/205 212/216/204
f 89/221/209 213/212/200 126/215/203 63/222/210
f 58/198/186 111/207/195 213/212/200 89/221/209
f 111/207/195 61/206/194 201/213/201 213/212/200
f 197/205/193 214/208/196 105/211/199 61/206/194
f 54/292/170 115/293/175 214/208/196 197/205/193
f 115/293/175 56/294/174 122/209/197 214/208/196
f 106/197/185 215/204/192 111/207/195 58/198/186
f 55/295/178 184/296/171 215/204/192 106/197/185
f 184/296/171 54/292/170 197/205/193 215/204/192
f 122/297/197 216/200/188 176/203/191 60/291/198
f 56/298/174 200/299/183 216/200/188 122/297/197
f 200/299/183 57/300/182 114/201/189 216/200/188
f 114/201/189 217/196/184 110/199/187 59/202/190
f 57/300/182 192/301/179 217/196/184 114/201/189
f 192/301/179 55/295/178 106/197/185 217/196/184
f 148/302/173 218/192/180 200/195/183 56/303/174
f 52/304/158 79/179/167 218/192/180 148/302/173
f 79/179/167 53/178/166 180/193/181 218/192/180
f 180/193/181 219/188/176 192/191/179 57/194/182
f 53/178/166 69/175/163 219/188/176 180/193/181
f 69/175/163 51/174/162 76/189/177 219/188/176
f 155/181/169 220/184/172 115/187/175 54/182/170
f 50/166/154 152/171/159 220/184/172 155/181/169
f 152/171/159 52/170/158 148/185/173 220/184/172
f 76/189/177 221/180/168 184/183/171 55/190/178
f 51/174/162 85/167/155 221/180/168 76/189/177
f 85/167/155 50/166/154 155/181/169 221/180/168
f 149/305/157 222/176/164 79/179/167 52/304/158
f 17/306/39 154/307/38 222/176/164 149/305/157
f 154/307/38 16/308/47 80/177/165 222/176/164
f 80/177/165 223/172/160 69/175/163 53/178/166
f 16/308/47 143/309/252 223/172/160 80/177/165
f 143/309/252 27/310/253 101/173/161 223/172/160
f 167/165/153 224/168/156 152/171/159 50/166/154
f 20/311/51 117/312/50 224/168/156 167/165/153
f 117/312/50 17/313/39 149/169/157 224/168/156
f 101/173/161 225/164/152 85/167/155 51/174/162
f 27/310/253 132/314/254 225/164/152 101/173/161
f 132/314/254 20/311/51 167/165/153 225/164/152
f 203/315/255 226/160/150 146/163/151 28/316/256
f 20/54/51 132/317/254 226/160/150 203/315/255
f 132/317/254 27/318/253 70/161/60 226/160/150
f 136/159/138 127/155/149 49/154/139
f 136/159/138 198/158/143 127/155/149
f 198/158/143 47/319/135 127/155/149
f 116/156/147 112/320/134 46/321/148
f 116/156/147 127/155/149 112/320/134
f 127/155/149 47/319/135 112/320/134
f 162/322/118 227/151/146 153/145/141 44/144/119
f 43/323/127 90/143/140 227/151/146 162/322/118
f 90/143/140 49/142/139 116/152/147 227/151/146
f 182/324/114 228/147/142 147/150/145 42/325/115
f 41/326/123 83/327/136 228/147/142 182/324/114
f 83/327/136 47/328/135 198/148/143 228/147/142
f 92/146/130 193/329/257 45/330/131
f 92/146/130 153/145/141 193/329/257
f 153/145/141 46/153/148 193/329/257
f 102/331/126 229/140/137 90/143/140 43/323/127
f 42/325/115 147/150/145 229/140/137 102/331/126
f 147/150/145 48/149/144 136/141/138 229/140/137
f 93/332/122 230/136/133 83/139/136 41/333/123
f 45/330/131 193/329/257 230/136/133 93/332/122
f 193/329/257 46/153/148 112/137/134 230/136/133
f 98/334/102 231/132/129 133/135/132 36/335/103
f 40/336/111 202/123/120 231/132/129 98/334/102
f 202/123/120 44/122/119 92/133/130 231/132/129
f 142/337/98 232/128/125 141/131/128 39/338/99
f 38/339/107 187/119/116 232/128/125 142/337/98
f 187/119/116 42/118/115 102/129/126 232/128/125
f 163/340/94 233/124/121 137/127/124 37/341/95
f 36/335/103 133/135/132 233/124/121 163/340/94
f 133/135/132 45/134/131 93/125/122 233/124/121
f 91/342/110 234/120/117 202/123/120 40/336/111
f 39/338/99 141/131/128 234/120/117 91/342/110
f 141/131/128 43/130/127 162/121/118 234/120/117
f 84/343/106 235/116/113 187/119/116 38/339/107
f 37/344/95 137/345/124 235/116/113 84/343/106
f 137/345/124 41/346/123 182/117/114 235/116/113
f 124/347/78 236/112/109 82/115/112 34/348/79
f 33/349/87 159/103/100 236/112/109 124/347/78
f 159/103/100 39/102/99 91/113/110 236/112/109
f 165/350/74 237/108/105 194/111/108 32/351/75
f 31/352/83 123/353/96 237/108/105 165/350/74
f 123/353/96 37/354/95 84/109/106 237/108/105
f 172/355/90 238/104/101 103/107/104 35/356/91
f 34/348/79 82/115/112 238/104/101 172/355/90
f 82/115/112 40/114/111 98/105/102 238/104/101
f 104/357/86 239/100/97 159/103/100 33/349/87
f 32/351/75 194/111/108 239/100/97 104/357/86
f 194/111/108 38/110/107 142/101/98 239/100/97
f 128/358/82 240/96/93 123/99/96 31/359/83
f 35/356/91 103/107/104 240/96/93 128/358/82
f 103/107/104 36/106/103 163/97/94 240/96/93
f 135/360/66 241/92/89 169/95/92 25/361/67
f 30/362/71 164/83/80 241/92/89 135/360/66
f 164/83/80 34/82/79 172/93/90 241/92/89
f 199/363/62 242/88/85 77/91/88 29/364/63
f 28/365/256 144/79/76 242/88/85 199/363/62
f 144/79/76 32/78/75 104/89/86 242/88/85
f 151/366/58 243/84/81 188/87/84 26/367/59
f 25/361/67 169/95/92 243/84/81 151/366/58
f 169/95/92 35/94/91 128/85/82 243/84/81
f 161/368/70 244/80/77 164/83/80 30/362/71
f 29/364/63 77/91/88 244/80/77 161/368/70
f 77/91/88 33/90/87 124/81/78 244/80/77
f 146/369/151 245/76/73 144/79/76 28/365/256
f 26/370/59 188/371/84 245/76/73 146/369/151
f 188/371/84 31/372/83 165/77/74 245/76/73
f 78/57/54 246/72/69 96/75/72 24/58/55
f 21/46/43 156/67/64 246/72/69 78/57/54
f 156/67/64 29/66/63 161/73/70 246/72/69
f 195/49/46 247/68/65 134/71/68 16/50/47
f 24/58/55 96/75/72 247/68/65 195/49/46
f 96/75/72 30/74/71 135/69/66 247/68/65
f 179/45/42 248/64/61 156/67/64 21/46/43
f 20/54/51 203/315/255 248/64/61 179/45/42
f 203/315/255 28/316/256 199/65/62 248/64/61
f 143/373/252 249/60/57 70/63/60 27/374/253
f 16/50/47 134/71/68 249/60/57 143/373/252
f 134/71/68 25/70/67 151/61/58 249/60/57
f 150/375/244 250/56/53 94/59/56 23/283/245
f 22/376/243 87/47/44 250/56/53 150/375/244
f 87/47/44 21/46/43 78/57/54 250/56/53
f 183/377/222 251/52/49 108/55/52 19/285/246
f 18/378/221 130/379/40 251/52/49 183/377/222
f 130/379/40 17/380/39 117/53/50 251/52/49
f 125/241/224 252/48/45 81/51/48 15/236/219
f 23/283/245 94/59/56 252/48/45 125/241/224
f 94/59/56 24/58/55 195/49/46 252/48/45
f 113/381/247 253/44/41 87/47/44 22/376/243
f 19/285/246 108/55/52 253/44/41 113/381/247
f 108/55/52 20/54/51 179/45/42 253/44/41
f 173/237/220 254/40/37 130/43/40 18/238/221
f 15/236/219 81/51/48 254/40/37 173/237/220
f 81/51/48 16/50/47 154/41/38 254/40/37
f 129/14/14 255/36/33 170/39/36 6/15/15
f 3/3/3 75/27/24 255/36/33 129/14/14
f 75/27/24 12/26/23 118/37/34 255/36/33
f 174/382/258 256/32/29 157/35/32 2/383/11
f 7/384/7 119/385/28 256/32/29 174/382/258
f 119/385/28 14/262/27 185/33/30 256/32/29
f 160/6/6 257/28/25 119/31/28 7/7/7
f 6/15/15 170/39/36 257/28/25 160/6/6
f 170/39/36 13/38/35 71/29/26 257/28/25
f 191/2/2 258/24/21 75/27/24 3/3/3
f 2/11/11 157/386/32 258/24/21 191/2/2
f 157/386/32 11/387/31 181/25/22 258/24/21
f 86/23/10 174/382/258 2/383/11
f 86/23/10 95/22/18 174/382/258
f 95/22/18 7/384/7 174/382/258
f 177/388/259 259/17/17 196/20/20 9/389/260
f 8/390/261 107/391/8 259/17/17 177/388/259
f 107/391/8 7/392/7 95/18/18 259/17/17
f 189/393/262 260/13/13 99/16/16 5/394/263
f 4/395/264 121/4/4 260/13/13 189/393/262
f 121/4/4 3/3/3 129/14/14 260/13/13
f 166/396/265 261/9/9 140/12/12 1/397/266
f 9/389/260 196/20/20 261/9/9 166/396/265
f 196/20/20 10/19/19 86/10/10 261/9/9
f 88/398/267 262/5/5 107/8/8 8/399/261
f 5/394/263 99/16/16 262/5/5 88/398/267
f 99/16/16 6/15/15 160/6/6 262/5/5
f 131/400/268 263/1/1 121/4/4 4/395/264
f 1/397/266 140/12/12 263/1/1 131/400/268
f 140/12/12 2/11/11 191/2/2 263/1/1
