# Blender v2.78 (sub 0) OBJ File: ''
# www.blender.org
mtllib Birch_Tree_m_04.mtl
o Birch_Tree_m_04
v 0.100769 0.139591 -0.035830
v 0.102923 1.348612 -0.033468
v 0.069899 1.348663 0.068170
v 0.062727 0.139591 0.081250
v -0.060378 0.139591 0.081250
v -0.045792 1.404429 0.063629
v -0.087598 1.296517 -0.035286
v -0.098498 0.136411 -0.035842
v 0.001175 0.139591 -0.108190
v 0.005725 1.404373 -0.094924
v 0.159606 2.318566 -0.030012
v 0.131708 2.319133 0.055856
v 0.041431 2.320729 0.055865
v 0.018028 2.347960 -0.028788
v -0.026914 1.743824 -0.022011
v 0.086569 2.319811 -0.083073
v -0.188359 1.954572 0.021478
v -0.224572 1.928387 -0.050443
v 0.149720 3.527976 -0.071416
v 0.207070 3.527501 -0.029726
v 0.185165 3.528087 0.037730
v 0.114276 3.528929 0.037734
v 0.092371 3.528863 -0.029720
v 0.101282 4.842320 -0.044338
v 0.134848 4.845838 -0.069056
v 0.168418 4.849946 -0.044528
v 0.155595 4.848914 -0.004671
v 0.114103 4.844204 -0.004554
v -0.127678 2.000755 -0.035611
v -0.480523 2.837379 -0.033096
v -0.526909 2.811636 0.009940
v -0.152138 1.955127 -0.090207
v -0.551243 2.785732 -0.044614
v -0.500285 2.816870 -0.074176
v -0.988557 3.676311 -0.012679
v -1.020975 3.658904 0.018310
v -1.038007 3.638449 -0.019448
v -1.002440 3.660157 -0.041127
v -1.469284 4.512977 -0.059302
v -1.465573 4.520766 -0.048266
v -1.480635 4.501534 -0.050061
v -1.476092 4.511281 -0.035474
v 0.596670 6.286831 0.356973
v 0.405021 5.807734 0.579858
v 0.532521 5.147810 0.174944
v 0.669959 5.850216 -0.146646
v 0.467901 5.248474 -0.358952
v 0.410203 6.147900 -0.544341
v 0.547570 6.764630 -0.164799
v 0.480485 6.930335 0.205874
v 0.101525 5.457808 -0.620622
v -0.050815 4.825063 -0.356488
v -0.418902 5.847015 -0.529063
v -0.101395 6.338683 -0.645452
v -0.361023 7.049153 -0.206927
v 0.079222 7.054213 -0.407898
v -0.631572 6.251885 -0.253142
v -0.675067 5.679452 0.031838
v -0.372878 4.882164 0.212354
v -0.374218 6.050679 0.582434
v -0.571946 6.726008 0.146574
v 0.014611 5.057322 0.536038
v 0.014120 5.741272 0.700646
v 0.162303 6.684644 0.579197
v -0.147393 7.089231 0.372948
v 0.165141 7.264093 0.071136
v 0.078534 4.650660 0.163518
v -0.487356 5.044676 -0.176466
v 0.300012 4.739078 -0.106155
v -1.128263 3.896882 0.153857
v -1.342376 3.968547 0.361009
v -1.563463 3.861470 0.012839
v -1.284304 3.874712 -0.260112
v -1.558602 4.015081 -0.394841
v -1.251177 4.188138 -0.522595
v -0.982141 4.075034 -0.243992
v -0.927083 4.085980 0.061832
v -1.579444 4.385003 -0.531110
v -1.838623 4.401046 -0.300062
v -1.561748 4.842481 -0.359017
v -1.309261 4.649798 -0.505567
v -1.100920 4.866235 -0.105946
v -0.998049 4.534905 -0.346011
v -1.457980 5.015194 -0.098764
v -1.668135 4.943686 0.128983
v -1.879112 4.579139 0.208324
v -1.443472 4.640512 0.509881
v -1.259097 4.948339 0.208979
v -1.711477 4.221526 0.392744
v -1.457980 4.265916 0.528232
v -1.082589 4.261920 0.412952
v -1.016991 4.595926 0.311442
v -0.886465 4.405287 0.017105
v -1.854970 4.188304 0.084030
v -1.859535 4.756315 -0.075300
v -1.777055 4.058838 -0.168798
v -1.040824 3.949714 -0.056883
v -0.452405 4.924504 -0.010514
v -0.240993 5.272945 -0.493525
v -1.207920 4.086848 0.409570
v 0.154109 4.848210 -0.060248
v -1.587604 4.610197 -0.480509
v -1.417544 3.921033 -0.339090
v 0.051563 1.854293 -0.088803
v -0.374153 2.345874 -0.049510
v -0.287166 2.396047 -0.036050
v -1.789342 4.854528 0.016402
v -1.107044 4.367327 -0.458398
v -0.263254 6.671929 0.511521
v 0.579610 5.996419 -0.360859
v -0.343300 2.372161 0.013450
v -1.807320 4.409667 0.335121
v -0.503406 6.452844 0.373167
v -1.573249 4.827155 0.340204
v 0.291723 5.041919 0.383878
v 0.298424 4.815492 0.196590
v -0.652890 6.217383 0.117905
v -0.486147 2.829795 -0.056852
v -1.554460 5.002975 -0.008597
v -1.479338 4.505229 -0.041641
v -0.312197 2.375308 -0.083474
v -1.333742 3.838423 0.089879
v 0.351090 6.867424 0.381729
v -0.467596 5.369270 -0.349530
v 0.640279 5.509209 0.011233
v 0.048025 2.333966 -0.061812
v 0.005796 0.690996 -0.105215
v -0.140540 4.701313 0.189210
v -0.596861 5.719682 -0.271597
v -0.992354 3.669969 -0.029318
v -0.767764 3.232558 0.016277
v 0.172477 4.253142 0.015751
v -0.048927 1.306323 -0.072940
v -0.008845 6.929092 0.496246
v -1.142167 4.609875 -0.433760
v 0.266304 5.766538 -0.609399
v 0.022815 2.334482 0.015786
v -1.418609 4.755172 -0.451944
v -1.021668 3.647624 -0.033312
v -1.328957 4.895944 -0.273203
v -0.976146 4.157375 0.223865
v 0.117642 3.528463 -0.055254
v 0.000090 7.220443 0.240111
v 0.115589 4.843673 -0.060135
v -0.053476 0.690996 0.077203
v -0.024208 6.737946 -0.540333
v 0.201625 3.527694 0.005792
v 0.016466 1.348738 0.076690
v -0.937404 4.509453 0.180506
v -0.003419 5.884101 -0.664983
v -0.527664 2.799193 -0.063646
v 0.199471 5.771584 0.659501
v -1.859716 4.617497 -0.184549
v -0.259815 6.141192 -0.612644
v -1.654253 4.015323 0.221268
v -1.192734 4.625254 0.438620
v 0.101728 0.692189 -0.035533
v -0.200974 4.948058 0.413184
v 0.617820 6.535064 0.091768
v -1.002678 3.998827 0.115160
v 0.610022 5.718704 0.284952
v -1.889059 4.371191 0.145402
v -0.904286 4.242807 -0.137642
v -1.259548 4.000902 -0.410824
v -1.464573 4.967134 0.197170
v -1.410770 3.837233 -0.133102
v -1.451301 4.524165 -0.542973
v -0.120853 6.427279 0.634636
v 0.162574 2.901631 0.048277
v -0.935435 4.068000 -0.072090
v -0.572162 5.847600 0.322482
v 0.528738 6.888146 0.047684
v 0.189695 4.253415 -0.037470
v -1.334947 4.824899 0.372430
v 0.598203 5.541157 -0.260550
v -1.208649 3.861103 -0.060779
v 0.368614 7.091087 -0.075479
v 0.086570 2.319936 0.063131
v -1.284510 4.113746 -0.034050
v -0.669977 6.003299 -0.145081
v -0.098433 7.262471 -0.056736
v -1.261801 4.130022 -0.049183
v -0.229971 4.747841 -0.069090
v -1.475278 4.506312 -0.055950
v -1.740571 4.017441 0.070602
v -1.037821 4.443488 0.381470
v -0.728158 3.254786 -0.021082
v 0.002415 1.854781 0.062470
v -0.110390 1.668786 0.039655
v -0.487667 6.952782 -0.008797
v -1.562042 3.898928 -0.214050
v 0.162183 4.737313 -0.228643
v -0.788459 3.208812 -0.030313
v 0.228807 4.983142 -0.398396
v 0.099543 4.249914 -0.037365
v -1.741904 4.802855 -0.212565
v 0.147893 6.250350 -0.630915
v -0.562148 6.112648 -0.377752
v -1.577744 4.195148 -0.487063
v 0.181799 3.527648 -0.055256
v -0.056908 0.138001 -0.083366
v -0.253178 7.175997 0.107267
v 0.243916 5.381582 0.566913
v -0.253534 6.715858 -0.472133
v -0.923668 4.488435 -0.178053
v -0.536522 6.627003 -0.247563
v 0.001175 0.139591 0.095280
v -1.100104 4.123402 -0.405165
v -1.128066 3.952989 -0.261258
v 0.134849 4.846609 -0.000353
v -0.151800 5.604564 -0.617709
v -0.591457 5.300002 -0.087324
v 0.414234 6.515439 0.503421
v -1.814891 4.193606 -0.239680
v -0.133643 1.980022 -0.067130
v -1.889747 4.686928 0.047911
v -0.155647 5.872394 0.679693
v -1.085116 4.047740 0.305030
v 0.187700 2.900940 -0.029057
v -1.695050 4.629935 0.385551
v 0.513021 6.043140 0.493753
v -1.470514 4.516967 -0.040601
v -1.726141 4.628756 -0.368903
v -0.627203 6.496518 -0.072279
v -1.621524 4.442244 0.483395
v -0.973136 4.303876 -0.314542
v -0.375704 6.940864 0.275619
v -0.557931 5.263965 0.163897
v 0.127361 2.319101 -0.062426
v -0.154939 1.979746 -0.001482
v 0.152571 2.318715 0.015168
v -1.445201 3.895320 0.214248
v 0.003225 5.436090 0.652655
v -0.000948 4.661345 -0.076295
v 0.470668 5.672451 -0.474775
v 0.098464 1.840487 0.061859
v -1.536888 4.059892 0.377174
v -1.274108 4.128720 -0.008572
v -0.945869 4.331789 0.230002
v 0.064702 1.348671 -0.071768
v 0.292910 5.326013 -0.518145
v 0.097816 3.529013 0.005796
v -0.314291 4.936402 -0.273182
v 0.048123 4.787413 0.350661
v -1.495462 4.963860 -0.210985
v -1.024979 4.707026 -0.239463
v -1.466454 4.518050 -0.054911
v -0.092781 0.138001 0.027040
v -0.744996 3.236024 -0.056152
v -1.253318 4.141837 -0.030029
v 0.144618 4.251397 -0.070306
v -1.003321 3.669287 0.005840
v 0.121919 2.902109 -0.076853
v -1.714403 4.192442 -0.383706
v -0.090408 0.678805 -0.035582
v -1.291731 4.272189 0.502830
v -0.898637 4.217219 0.043274
v -1.280317 4.431145 -0.541182
v 0.065096 0.692189 0.077207
v -1.452220 4.424095 0.544376
v -1.019144 4.737336 0.122559
v 0.324459 6.950532 -0.308984
v 0.095092 0.139591 0.027045
v 0.056138 2.903524 -0.029056
v -0.136935 7.117824 -0.324301
v 0.166013 4.850034 -0.023297
v -0.213001 5.452248 0.593220
v -1.362544 5.006865 0.044938
v -1.706154 4.394179 -0.448454
v 0.032826 5.147663 -0.528587
v -0.501816 2.826616 -0.007327
v -1.403117 4.122087 0.461635
v 0.485560 5.484587 0.415979
v -1.407251 4.076541 -0.483027
v -0.543333 2.796014 -0.014121
v -0.191434 1.939675 -0.075909
v -0.010743 1.646042 -0.063738
v -0.064576 1.817302 -0.028439
v -1.233104 3.917928 0.275093
v -0.411632 5.396955 0.422727
v 0.635755 6.303990 -0.161007
v -1.129380 4.786266 0.275961
v -1.160812 4.928114 0.072840
v 0.547089 5.165483 -0.109859
v -1.298309 4.974587 -0.108884
v -1.786751 4.780843 0.207748
v 0.354566 7.097339 0.150826
v 0.207282 4.676261 0.011044
v 0.536762 6.677873 0.289544
v 0.497895 6.491036 -0.378223
v 0.103686 4.842695 -0.023114
v 0.111737 7.218945 -0.188748
v 0.116760 4.250981 0.015816
v -0.004987 1.992076 -0.024841
v 0.128840 1.840186 -0.031632
v -1.901643 4.493577 -0.041043
v 0.065130 6.166439 0.675901
v -1.695371 3.954050 -0.098388
v -1.807027 4.196515 0.238236
v 0.174099 7.072066 0.345584
v -1.203921 4.786542 -0.337613
v -0.039382 1.646084 0.024403
v -1.643596 4.933787 -0.124217
v 0.149720 3.528537 0.043523
v 0.059218 0.139591 -0.083360
v -0.078421 1.306323 0.017832
v -1.032636 3.646941 0.001846
v -0.142563 1.630107 -0.042923
v -1.688115 4.029391 -0.273047
v -1.818927 4.109625 -0.059779
v -1.573030 4.251071 0.489894
v -1.426783 4.278611 -0.550300
v 0.249730 6.648488 -0.506031
v -1.243361 4.460805 0.507077
v -0.423656 6.482112 -0.428006
v -0.954992 4.645374 -0.034650
v -0.212730 1.939399 -0.010262
v 0.660579 6.044031 0.102142
v 0.309817 6.238358 0.614460
v 0.094514 1.348637 0.019984
v -1.877612 4.295583 -0.090004
v 0.383599 4.937255 -0.220898
v 0.419782 4.874032 0.010054
v 0.081264 2.903227 0.048277
v -0.067378 1.668781 -0.092723
v -1.281247 4.119924 -0.019681
v -1.262871 4.136473 -0.017312
v -1.273997 4.120690 -0.043605
v -1.255622 4.137239 -0.041236
v -0.732876 3.247608 -0.041432
v -0.768399 3.220524 -0.046870
v -0.781812 3.218482 -0.004202
v -0.746289 3.245566 0.001236
v -0.363988 2.356642 -0.014312
v -0.294421 2.388053 -0.063480
v -0.106528 1.641104 -0.074365
v -0.060586 1.751381 -0.065833
v -0.345665 2.358496 -0.071410
v -0.085925 1.751384 0.012151
v 0.019771 1.929927 -0.062907
v -0.312744 2.386199 -0.006382
v 0.144618 4.252095 0.020276
v 0.169787 4.252480 -0.057526
v 0.103896 4.250294 -0.009381
v 0.185342 4.253455 -0.009475
v 0.119450 4.250525 -0.057468
v 0.062490 2.903503 0.011629
v 0.181348 2.901169 0.011628
v 0.085190 2.902878 -0.058238
v 0.121919 2.902446 0.054808
v 0.158648 2.901436 -0.058239
v -0.131867 1.641107 0.003618
v 0.049316 1.840934 0.069758
v 0.093719 1.840493 -0.066908
v -0.007671 1.930200 0.021557
v 0.121161 1.840269 0.017553
v -0.047918 0.684304 -0.078103
v 0.005825 0.692189 0.086728
v 0.059373 0.692189 -0.078075
v -0.081012 0.684304 0.023750
v 0.092467 0.692189 0.023779
vt 0.1232 0.2361
vt 0.1228 0.3418
vt 0.1137 0.3417
vt 0.1131 0.2360
vt 0.0829 0.2351
vt 0.0866 0.3392
vt 0.0775 0.3371
vt 0.0728 0.2342
vt 0.1434 0.2362
vt 0.1409 0.3417
vt 0.1319 0.3419
vt 0.1332 0.2362
vt 0.1031 0.2360
vt 0.1047 0.3415
vt 0.0957 0.3413
vt 0.0930 0.2359
vt 0.1636 0.2354
vt 0.1591 0.3396
vt 0.1500 0.3416
vt 0.1535 0.2362
vt 0.0816 0.5701
vt 0.0820 0.6324
vt 0.0752 0.6324
vt 0.0741 0.5701
vt 0.0531 0.5820
vt 0.0548 0.6323
vt 0.0480 0.6325
vt 0.0471 0.5943
vt 0.0965 0.5700
vt 0.0957 0.6323
vt 0.0889 0.6325
vt 0.0890 0.5702
vt 0.0667 0.5699
vt 0.0684 0.6322
vt 0.0616 0.6320
vt 0.0592 0.5697
vt 0.1666 0.5511
vt 0.1736 0.5518
vt 0.1746 0.5898
vt 0.1682 0.5890
vt 0.0949 0.7137
vt 0.0941 0.7951
vt 0.0887 0.7950
vt 0.0888 0.7138
vt 0.0704 0.7137
vt 0.0724 0.7952
vt 0.0670 0.7953
vt 0.0643 0.7136
vt 0.1071 0.7137
vt 0.1049 0.7953
vt 0.0995 0.7951
vt 0.1010 0.7136
vt 0.0826 0.7137
vt 0.0833 0.7950
vt 0.0778 0.7950
vt 0.0765 0.7137
vt 0.0582 0.7139
vt 0.0616 0.7956
vt 0.0562 0.7959
vt 0.0521 0.7142
vt 0.1008 0.8957
vt 0.0967 0.9962
vt 0.0937 0.9963
vt 0.0966 0.8957
vt 0.0840 0.8958
vt 0.0847 0.9965
vt 0.0817 0.9965
vt 0.0798 0.8958
vt 0.0671 0.8959
vt 0.0726 0.9962
vt 0.0696 0.9962
vt 0.0629 0.8960
vt 0.0924 0.8957
vt 0.0907 0.9964
vt 0.0877 0.9966
vt 0.0882 0.8958
vt 0.0755 0.8957
vt 0.0786 0.9963
vt 0.0756 0.9961
vt 0.0713 0.8957
vt 0.1780 0.6547
vt 0.1839 0.6551
vt 0.1798 0.7199
vt 0.1748 0.7194
vt 0.1106 0.5819
vt 0.1172 0.5939
vt 0.1162 0.6320
vt 0.1093 0.6321
vt 0.1811 0.5634
vt 0.1885 0.5749
vt 0.1879 0.5902
vt 0.1813 0.5900
vt 0.1977 0.6544
vt 0.2034 0.6546
vt 0.1966 0.7184
vt 0.1917 0.7185
vt 0.1957 0.5634
vt 0.2029 0.5518
vt 0.1973 0.5896
vt 0.1926 0.5899
vt 0.2100 0.5526
vt 0.2171 0.5533
vt 0.2102 0.5909
vt 0.2037 0.5903
vt 0.1880 0.6546
vt 0.1921 0.6542
vt 0.1868 0.7187
vt 0.1833 0.7193
vt 0.1666 0.6533
vt 0.1722 0.6544
vt 0.1698 0.7189
vt 0.1650 0.7177
vt 0.1717 0.7853
vt 0.1761 0.7855
vt 0.1723 0.8512
vt 0.1686 0.8512
vt 0.1632 0.7840
vt 0.1673 0.7851
vt 0.1649 0.8512
vt 0.1614 0.8504
vt 0.1865 0.7846
vt 0.1907 0.7846
vt 0.1848 0.8509
vt 0.1812 0.8506
vt 0.1791 0.7851
vt 0.1822 0.7845
vt 0.1776 0.8504
vt 0.1750 0.8508
vt 0.1695 0.9248
vt 0.1714 0.9244
vt 0.1653 0.9984
vt 0.1641 0.9988
vt 0.1739 0.9243
vt 0.1763 0.9243
vt 0.1678 0.9976
vt 0.1665 0.9980
vt 0.1652 0.9251
vt 0.1676 0.9252
vt 0.1629 0.9993
vt 0.1618 0.9989
vt 0.1604 0.9242
vt 0.1628 0.9248
vt 0.1606 0.9985
vt 0.1594 0.9979
vt 0.6004 0.0597
vt 0.6008 0.0638
vt 0.5939 0.0628
vt 0.5880 0.0554
vt 0.5836 0.0560
vt 0.5853 0.0503
vt 0.5874 0.0660
vt 0.5833 0.0613
vt 0.5877 0.0607
vt 0.5913 0.0511
vt 0.5946 0.0468
vt 0.5986 0.0485
vt 0.5975 0.0532
vt 0.5825 0.0453
vt 0.5809 0.0510
vt 0.5754 0.0469
vt 0.5683 0.0486
vt 0.5738 0.0526
vt 0.5660 0.0561
vt 0.5325 0.0298
vt 0.5398 0.0331
vt 0.5306 0.0386
vt 0.5163 0.0431
vt 0.5198 0.0538
vt 0.5126 0.0529
vt 0.5739 0.0298
vt 0.5834 0.0298
vt 0.5782 0.0375
vt 0.5319 0.0564
vt 0.5303 0.0518
vt 0.5362 0.0578
vt 0.5405 0.0591
vt 0.5464 0.0582
vt 0.5430 0.0665
vt 0.5364 0.0634
vt 0.5322 0.0677
vt 0.5278 0.0661
vt 0.5321 0.0620
vt 0.5276 0.0605
vt 0.5455 0.0739
vt 0.5488 0.0656
vt 0.5546 0.0703
vt 0.6091 0.0806
vt 0.6015 0.0825
vt 0.6052 0.0742
vt 0.6013 0.0679
vt 0.6088 0.0642
vt 0.5371 0.0912
vt 0.5335 0.0860
vt 0.5413 0.0826
vt 0.5299 0.0808
vt 0.5228 0.0809
vt 0.6081 0.0396
vt 0.6014 0.0432
vt 0.6005 0.0347
vt 0.5233 0.0646
vt 0.5266 0.0727
vt 0.5638 0.0508
vt 0.5638 0.0587
vt 0.5580 0.0540
vt 0.5522 0.0573
vt 0.5483 0.0540
vt 0.5497 0.0469
vt 0.5775 0.0674
vt 0.5784 0.0620
vt 0.5825 0.0667
vt 0.5785 0.0731
vt 0.5796 0.0788
vt 0.5835 0.0724
vt 0.5868 0.0816
vt 0.5942 0.0575
vt 0.5711 0.0392
vt 0.5244 0.0364
vt 0.5225 0.0452
vt 0.5287 0.0473
vt 0.5380 0.0419
vt 0.5365 0.0490
vt 0.5877 0.0375
vt 0.5885 0.0460
vt 0.5346 0.0532
vt 0.5424 0.0549
vt 0.5577 0.0828
vt 0.5516 0.0784
vt 0.5608 0.0747
vt 0.5976 0.0761
vt 0.5943 0.0670
vt 0.6127 0.0706
vt 0.6163 0.0606
vt 0.6083 0.0602
vt 0.6095 0.0553
vt 0.5474 0.0870
vt 0.5377 0.0773
vt 0.5388 0.0708
vt 0.6122 0.0501
vt 0.6054 0.0448
vt 0.5157 0.0811
vt 0.5123 0.0720
vt 0.5195 0.0729
vt 0.5555 0.0436
vt 0.5717 0.0712
vt 0.5706 0.0654
vt 0.3494 0.0597
vt 0.3498 0.0638
vt 0.3429 0.0628
vt 0.3370 0.0554
vt 0.3326 0.0560
vt 0.3343 0.0503
vt 0.3364 0.0660
vt 0.3323 0.0613
vt 0.3367 0.0607
vt 0.3403 0.0511
vt 0.3436 0.0468
vt 0.3476 0.0485
vt 0.3465 0.0532
vt 0.3315 0.0453
vt 0.3299 0.0510
vt 0.3244 0.0469
vt 0.3173 0.0486
vt 0.3228 0.0526
vt 0.3151 0.0561
vt 0.2815 0.0298
vt 0.2889 0.0331
vt 0.2796 0.0386
vt 0.2653 0.0431
vt 0.2688 0.0538
vt 0.2616 0.0529
vt 0.3229 0.0298
vt 0.3324 0.0298
vt 0.3272 0.0375
vt 0.2809 0.0564
vt 0.2793 0.0518
vt 0.2852 0.0578
vt 0.2895 0.0591
vt 0.2954 0.0582
vt 0.2921 0.0665
vt 0.2854 0.0634
vt 0.2813 0.0677
vt 0.2768 0.0661
vt 0.2811 0.0620
vt 0.2766 0.0605
vt 0.2946 0.0739
vt 0.2979 0.0656
vt 0.3037 0.0703
vt 0.3581 0.0806
vt 0.3505 0.0825
vt 0.3542 0.0742
vt 0.3503 0.0679
vt 0.3578 0.0642
vt 0.2861 0.0912
vt 0.2825 0.0860
vt 0.2904 0.0826
vt 0.2789 0.0808
vt 0.2718 0.0809
vt 0.3572 0.0396
vt 0.3504 0.0432
vt 0.3496 0.0347
vt 0.2723 0.0646
vt 0.2756 0.0727
vt 0.3128 0.0508
vt 0.3128 0.0587
vt 0.3070 0.0540
vt 0.3012 0.0573
vt 0.2973 0.0540
vt 0.2987 0.0469
vt 0.3265 0.0674
vt 0.3274 0.0620
vt 0.3314 0.0667
vt 0.3276 0.0731
vt 0.3287 0.0788
vt 0.3325 0.0724
vt 0.3358 0.0816
vt 0.3432 0.0575
vt 0.3201 0.0392
vt 0.2734 0.0364
vt 0.2715 0.0452
vt 0.2777 0.0473
vt 0.2869 0.0419
vt 0.2855 0.0490
vt 0.3367 0.0375
vt 0.3375 0.0460
vt 0.2836 0.0532
vt 0.2914 0.0549
vt 0.3067 0.0828
vt 0.3007 0.0784
vt 0.3097 0.0747
vt 0.3466 0.0761
vt 0.3433 0.0670
vt 0.3617 0.0706
vt 0.3653 0.0606
vt 0.3573 0.0602
vt 0.3585 0.0553
vt 0.2964 0.0870
vt 0.2868 0.0773
vt 0.2880 0.0708
vt 0.3612 0.0501
vt 0.3544 0.0448
vt 0.2647 0.0811
vt 0.2613 0.0720
vt 0.2685 0.0729
vt 0.3045 0.0436
vt 0.3207 0.0712
vt 0.3196 0.0654
vt 0.3205 0.0601
vt 0.3282 0.0567
vt 0.3128 0.0635
vt 0.2962 0.0364
vt 0.2652 0.0637
vt 0.2580 0.0628
vt 0.3517 0.0501
vt 0.2801 0.0742
vt 0.3505 0.0549
vt 0.3397 0.0751
vt 0.3429 0.0843
vt 0.3128 0.0667
vt 0.2934 0.0507
vt 0.3428 0.0383
vt 0.3419 0.0298
vt 0.2750 0.0560
vt 0.2948 0.0435
vt 0.3070 0.0620
vt 0.2754 0.0862
vt 0.5715 0.0601
vt 0.5792 0.0567
vt 0.5638 0.0635
vt 0.5472 0.0364
vt 0.5161 0.0637
vt 0.5089 0.0628
vt 0.6027 0.0501
vt 0.5310 0.0742
vt 0.6015 0.0549
vt 0.5907 0.0751
vt 0.5939 0.0843
vt 0.5638 0.0667
vt 0.5444 0.0507
vt 0.5938 0.0383
vt 0.5929 0.0298
vt 0.5260 0.0560
vt 0.5458 0.0435
vt 0.5580 0.0620
vt 0.5264 0.0862
vt 0.1581 0.9235
vt 0.1582 0.9974
vt 0.1579 0.8496
vt 0.1591 0.7831
vt 0.1603 0.7165
vt 0.1610 0.6523
vt 0.1617 0.5882
vt 0.2085 0.5140
vt 0.2163 0.5149
vt 0.2240 0.5157
vt 0.1892 0.5596
vt 0.1989 0.5368
vt 0.1726 0.5139
vt 0.1809 0.5367
vt 0.1039 0.5698
vt 0.1025 0.6321
vt 0.1053 0.5076
vt 0.1118 0.5317
vt 0.1183 0.5558
vt 0.1103 0.7955
vt 0.1050 0.8957
vt 0.0998 0.9960
vt 0.1133 0.7138
vt 0.1595 0.5504
vt 0.1573 0.5127
vt 0.1649 0.5133
vt 0.0649 0.5076
vt 0.0568 0.5074
vt 0.0730 0.5077
vt 0.0972 0.5078
vt 0.0892 0.5079
vt 0.0515 0.5318
vt 0.0462 0.5562
vt 0.0811 0.5078
vt 0.1680 0.1313
vt 0.1569 0.1309
vt 0.1792 0.1317
vt 0.1737 0.2346
vt 0.1682 0.3375
vt 0.1014 0.1305
vt 0.0903 0.1305
vt 0.1125 0.1304
vt 0.1458 0.1307
vt 0.1346 0.1305
vt 0.0792 0.1309
vt 0.0680 0.1313
vt 0.1235 0.1305
vn 0.9510 0.0007 0.3091
vn 0.9505 -0.0256 0.3097
vn 0.5830 -0.0081 0.8125
vn 0.5870 0.0072 0.8096
vn -0.9454 0.0140 0.3256
vn -0.9241 -0.0443 0.3796
vn -0.9478 -0.0674 -0.3117
vn -0.9509 0.0123 -0.3093
vn 0.5783 0.0046 -0.8158
vn 0.5651 -0.0078 -0.8250
vn 0.9500 -0.0250 -0.3112
vn 0.9509 0.0009 -0.3094
vn -0.0044 0.0140 0.9999
vn -0.0101 0.0145 0.9998
vn -0.4827 -0.0193 0.8756
vn -0.5778 0.0177 0.8160
vn -0.5779 0.0104 -0.8160
vn -0.5411 -0.0341 -0.8403
vn 0.0428 -0.0235 -0.9988
vn -0.0013 0.0100 -0.9999
vn 0.9495 -0.0553 0.3089
vn 0.9497 -0.0529 0.3087
vn 0.5888 -0.0258 0.8079
vn 0.5862 -0.0271 0.8097
vn -0.9704 0.0901 0.2242
vn -0.9596 0.0717 0.2721
vn -0.9496 0.0656 -0.3066
vn -0.9508 0.0711 -0.3016
vn 0.5733 -0.0279 -0.8189
vn 0.5930 -0.0299 -0.8047
vn 0.9495 -0.0558 -0.3087
vn 0.9484 -0.0539 -0.3124
vn -0.0022 0.0136 0.9999
vn 0.0027 0.0140 0.9999
vn -0.5971 0.0556 0.8002
vn -0.5932 0.0679 0.8022
vn -0.8668 -0.1681 0.4694
vn -0.2797 0.0163 0.9599
vn -0.1690 -0.0151 0.9855
vn -0.8331 -0.2491 0.4939
vn 0.5882 -0.0188 -0.8085
vn 0.5900 -0.0054 -0.8074
vn 0.9522 -0.0052 -0.3054
vn 0.9507 -0.0375 -0.3078
vn 0.0011 0.0161 0.9999
vn 0.0029 0.0250 0.9997
vn -0.5819 0.0356 0.8125
vn -0.5867 0.0474 0.8084
vn -0.5922 0.0392 -0.8048
vn -0.5867 0.0166 -0.8097
vn 0.0073 0.0049 -1.0000
vn -0.0037 0.0095 -0.9999
vn 0.9504 -0.0364 0.3089
vn 0.9512 -0.0001 0.3085
vn 0.5922 0.0134 0.8057
vn 0.5889 -0.0142 0.8081
vn -0.9509 0.0625 0.3032
vn -0.9501 0.0356 0.3098
vn -0.9504 0.0305 -0.3097
vn -0.9492 0.0605 -0.3088
vn -0.5897 -0.0038 -0.8076
vn -0.5835 -0.0066 -0.8121
vn 0.0266 0.0016 -0.9996
vn 0.0004 0.0014 -1.0000
vn 0.9508 0.0333 0.3079
vn 0.9520 0.0387 0.3035
vn 0.6076 0.0435 0.7931
vn 0.5889 0.0391 0.8072
vn -0.9513 0.0111 0.3081
vn -0.9508 0.0077 0.3097
vn -0.9484 -0.0019 -0.3172
vn -0.9513 0.0022 -0.3083
vn 0.5887 0.0099 -0.8083
vn 0.5953 0.0129 -0.8034
vn 0.9529 0.0295 -0.3020
vn 0.9510 0.0245 -0.3082
vn 0.0001 0.0338 0.9994
vn 0.0102 0.0357 0.9993
vn -0.5721 0.0247 0.8198
vn -0.5877 0.0254 0.8087
vn 0.5768 0.2415 0.7804
vn 0.9041 0.3796 0.1960
vn 0.8732 0.4491 0.1893
vn 0.5679 0.2800 0.7740
vn -0.6754 0.0611 -0.7349
vn -0.6242 0.0454 -0.7799
vn 0.4716 0.2411 0.8482
vn 0.9150 0.3511 0.1985
vn 0.9179 0.3490 0.1890
vn 0.5661 0.2242 0.7932
vn -0.4234 -0.1527 -0.8930
vn -0.8939 -0.3362 -0.2965
vn -0.8650 -0.4020 -0.3002
vn -0.4086 -0.1748 -0.8958
vn 0.7113 0.2677 -0.6499
vn 0.1104 0.0492 -0.9927
vn 0.1934 0.0720 -0.9785
vn 0.7721 0.2758 -0.5725
vn -0.4766 -0.1152 -0.8715
vn -0.9307 -0.2006 -0.3058
vn -0.9095 -0.2843 -0.3033
vn -0.4467 -0.1424 -0.8833
vn 0.7654 0.3237 -0.5563
vn 0.1948 0.0960 -0.9761
vn 0.1963 0.1242 -0.9726
vn 0.7378 0.3896 -0.5513
vn -0.7998 -0.3056 0.5167
vn -0.1431 -0.0439 0.9887
vn -0.1069 -0.0611 0.9924
vn -0.7616 -0.3744 0.5290
vn 0.5505 0.3157 0.7728
vn 0.8425 0.5058 0.1854
vn 0.8455 0.5006 0.1861
vn 0.5475 0.3330 0.7677
vn -0.7246 -0.4268 0.5412
vn -0.1104 -0.0746 0.9911
vn -0.1320 -0.0456 0.9902
vn -0.7374 -0.4009 0.5436
vn -0.4057 -0.2041 -0.8909
vn -0.8380 -0.4696 -0.2779
vn -0.8448 -0.4679 -0.2595
vn -0.4089 -0.2254 -0.8843
vn 0.6975 0.4385 -0.5668
vn 0.1596 0.1329 -0.9782
vn 0.1583 0.1027 -0.9820
vn 0.7072 0.4169 -0.5710
vn 0.7297 0.3903 -0.5615
vn 0.1740 0.0746 -0.9819
vn 0.2956 0.1353 -0.9457
vn 0.7621 0.4042 -0.5058
vn -0.4152 -0.2424 -0.8769
vn -0.8531 -0.4477 -0.2678
vn -0.8560 -0.4447 -0.2637
vn -0.4020 -0.2380 -0.8841
vn 0.5547 0.3474 0.7560
vn 0.8537 0.4887 0.1799
vn 0.8507 0.4855 0.2013
vn 0.5741 0.3586 0.7361
vn -0.7640 -0.3702 0.5284
vn -0.1438 -0.0126 0.9895
vn 0.0187 0.0802 0.9966
vn -0.7550 -0.3566 0.5502
vn 0.8911 0.1091 0.4406
vn 0.7385 0.0089 0.6742
vn 0.9240 -0.1051 0.3677
vn 0.9835 -0.0314 -0.1780
vn 0.9089 -0.1640 -0.3833
vn 0.8494 0.0267 -0.5270
vn 0.8706 -0.3609 0.3344
vn 0.9199 -0.3451 -0.1864
vn 0.9853 -0.1676 0.0342
vn 0.9648 0.1206 -0.2338
vn 0.8730 0.3433 -0.3463
vn 0.9005 0.4348 0.0046
vn 0.9803 0.1813 0.0788
vn 0.5671 0.0884 -0.8189
vn 0.6804 -0.1130 -0.7241
vn 0.3620 -0.0647 -0.9299
vn 0.1142 -0.2077 -0.9715
vn 0.4423 -0.2764 -0.8532
vn -0.0073 -0.3787 -0.9255
vn -0.2781 -0.1632 -0.9466
vn -0.1560 0.1757 -0.9720
vn -0.4700 0.3356 -0.8164
vn -0.0513 0.3329 -0.9416
vn 0.2286 0.1277 -0.9651
vn -0.9080 0.1249 -0.3998
vn -0.7753 0.0485 -0.6297
vn -0.9792 -0.0051 -0.2028
vn -0.9908 -0.1111 0.0771
vn -0.8974 -0.2762 0.3442
vn -0.8574 -0.0582 0.5113
vn -0.9692 0.0753 0.2345
vn -0.9052 0.3167 0.2835
vn -0.8458 0.5332 -0.0170
vn -0.9724 0.2065 -0.1084
vn -0.8203 0.3050 -0.4838
vn -0.6022 0.0322 0.7977
vn -0.7047 -0.2216 0.6740
vn -0.4458 -0.2179 0.8682
vn 0.0190 -0.0788 0.9967
vn -0.0033 -0.2304 0.9731
vn 0.2980 -0.0749 0.9516
vn 0.5707 -0.0968 0.8155
vn 0.3935 0.1035 0.9135
vn 0.2264 0.3176 0.9208
vn -0.0175 0.4703 0.8824
vn -0.2134 0.1908 0.9582
vn -0.3186 0.6472 0.6926
vn -0.0194 0.8736 0.4862
vn 0.3306 0.9353 0.1263
vn 0.6914 0.6798 -0.2447
vn 0.2560 0.8637 -0.4341
vn -0.6634 0.6093 -0.4343
vn -0.5551 0.8070 0.2018
vn 0.1411 -0.9371 0.3192
vn 0.1216 -0.6791 0.7239
vn -0.3744 -0.8649 0.3342
vn -0.6995 -0.5896 0.4039
vn -0.7999 -0.5985 -0.0447
vn -0.5086 -0.8328 -0.2184
vn 0.6028 -0.7555 -0.2564
vn 0.7183 -0.5070 -0.4764
vn 0.8232 -0.5659 0.0457
vn 0.4137 -0.9102 0.0186
vn 0.6195 -0.6334 0.4637
vn 0.9931 0.0241 0.1149
vn -0.0133 -0.0275 -0.9995
vn -0.4234 0.0704 -0.9032
vn -0.6072 -0.0752 -0.7910
vn -0.4391 -0.3130 -0.8421
vn -0.7314 -0.2440 -0.6368
vn 0.4069 0.2947 -0.8646
vn 0.7467 0.2255 -0.6258
vn -0.8833 -0.1302 -0.4503
vn -0.9519 -0.2490 -0.1786
vn -0.2835 -0.0232 0.9587
vn 0.4386 -0.2741 0.8559
vn 0.7403 -0.2372 0.6291
vn 0.0760 0.0917 0.9929
vn 0.5978 0.2392 0.7652
vn 0.5426 0.4559 0.7055
vn -0.4839 0.3023 0.8212
vn -0.7784 0.1752 0.6028
vn 0.3459 0.6407 0.6855
vn 0.6421 0.7019 0.3083
vn -0.2562 0.9567 -0.1378
vn -0.1254 -0.9618 -0.2434
vn 0.2615 -0.7896 -0.5552
vn 0.4613 -0.8448 0.2711
vn 0.2345 -0.8095 0.5382
vn 0.0363 -0.9831 0.1795
vn 0.1961 -0.8980 -0.3939
vn -0.1121 -0.8103 -0.5752
vn 0.2604 -0.6454 -0.7181
vn -0.3963 -0.9105 0.1181
vn -0.3998 -0.8527 -0.3362
vn -0.0757 -0.9838 -0.1624
vn 0.5072 -0.7490 -0.4263
vn 0.7766 -0.4576 -0.4330
vn 0.8770 -0.4659 -0.1177
vn 0.6185 -0.7788 -0.1042
vn 0.2888 -0.2705 -0.9184
vn -0.0783 -0.5069 -0.8585
vn -0.0744 -0.1562 -0.9849
vn -0.3758 -0.0161 -0.9266
vn -0.4132 -0.3267 -0.8500
vn -0.6490 -0.0083 -0.7607
vn -0.4054 0.3297 -0.8526
vn 0.2251 0.4092 -0.8842
vn 0.4396 0.6620 -0.6070
vn 0.5278 0.3649 -0.7670
vn 0.2642 0.0779 -0.9613
vn -0.0354 0.9731 -0.2277
vn -0.1286 0.8681 -0.4794
vn -0.2940 0.9558 -0.0037
vn -0.4798 0.8292 0.2869
vn -0.7067 0.5212 0.4785
vn -0.3207 0.6351 0.7027
vn -0.0943 0.8877 0.4507
vn 0.3387 0.8331 0.4372
vn 0.5957 0.7954 0.1113
vn 0.1567 0.9828 0.0973
vn 0.3408 0.8974 -0.2803
vn -0.0783 0.3795 0.9219
vn -0.5701 0.3247 0.7547
vn -0.4867 0.0727 0.8705
vn -0.0818 -0.2618 0.9616
vn -0.3899 -0.2998 0.8707
vn -0.0396 -0.4908 0.8704
vn -0.0136 -0.7145 0.6995
vn 0.3351 -0.4624 0.8209
vn 0.6125 -0.1881 0.7678
vn 0.7172 0.0802 0.6922
vn 0.3445 0.0870 0.9347
vn 0.7712 0.3356 0.5410
vn 0.9325 0.2104 0.2935
vn 0.9936 0.0967 0.0580
vn 0.9678 -0.1076 -0.2275
vn 0.9517 0.1832 -0.2465
vn 0.6625 0.7162 -0.2196
vn 0.8293 0.5197 0.2054
vn -0.9133 -0.3831 0.1384
vn -0.8044 -0.4193 0.4208
vn -0.9685 -0.1293 0.2128
vn -0.9005 0.1656 0.4021
vn -0.9525 0.2920 0.0869
vn -0.9960 0.0076 -0.0895
vn -0.7917 -0.5525 -0.2607
vn -0.6367 -0.6100 -0.4718
vn -0.6494 -0.7530 -0.1067
vn -0.8811 -0.4706 -0.0457
vn -0.7131 -0.6684 0.2116
vn 0.3214 -0.9430 -0.0866
vn -0.0996 0.1984 -0.9751
vn 0.0064 0.5917 -0.8061
vn -0.3126 0.6704 -0.6729
vn -0.6729 0.3316 -0.6613
vn -0.6608 0.5833 -0.4723
vn 0.5848 -0.0012 -0.8112
vn 0.5920 -0.3753 -0.7133
vn -0.5137 0.8078 -0.2890
vn -0.7191 0.6949 -0.0016
vn -0.0833 0.0296 0.9961
vn -0.3691 -0.6387 0.6751
vn -0.2433 -0.8655 0.4379
vn 0.2528 -0.2187 0.9425
vn 0.6107 -0.5082 0.6073
vn 0.8396 -0.2780 0.4667
vn 0.4425 0.3756 0.8143
vn 0.1689 0.6484 0.7423
vn 0.9038 -0.0560 0.4243
vn 0.9820 -0.1319 0.1352
vn 0.9137 0.4057 -0.0233
vn -0.9727 -0.1910 -0.1320
vn -0.8624 -0.3308 -0.3832
vn -0.6762 -0.3445 -0.6512
vn -0.4044 -0.6208 -0.6716
vn -0.8735 -0.0260 -0.4862
vn 0.7602 0.5176 -0.3927
vn 0.7814 0.2331 -0.5789
vn 0.9015 -0.3933 0.1807
vn 0.6105 0.5820 0.5372
vn 0.7396 -0.6197 0.2627
vn -0.5535 -0.7007 0.4501
vn -0.6270 -0.3685 0.6864
vn -0.8568 0.4639 -0.2251
vn 0.8363 -0.0783 -0.5427
vn 0.2535 0.7896 -0.5589
vn -0.8942 0.2251 -0.3870
vn -0.7805 -0.0316 0.6244
vn 0.3951 -0.4926 -0.7754
vn 0.7364 -0.3181 -0.5972
vn -0.1715 -0.6666 -0.7254
vn -0.3034 0.6855 -0.6619
vn 0.1757 0.5829 -0.7933
vn 0.7762 0.5017 0.3818
vn -0.6916 0.4886 0.5320
vn 0.8473 0.2869 0.4469
vn 0.5608 -0.4329 0.7058
vn 0.0484 -0.4269 0.9030
vn -0.8023 -0.4354 -0.4084
vn 0.6026 0.4988 -0.6230
vn -0.6371 0.2247 -0.7373
vn -0.5609 -0.5625 -0.6074
vn -0.4300 -0.4902 0.7581
vn -0.5709 0.7587 -0.3139
vn -0.0461 0.1603 -0.9860
vn -0.4207 0.2028 0.8843
vn -0.0641 0.0223 -0.9977
vn -0.0217 0.0082 -0.9997
vn -0.5908 0.0138 -0.8067
vn -0.0060 0.0094 -0.9999
vn -0.9512 0.0184 -0.3079
vn -0.0011 0.0118 0.9999
vn -0.5920 0.0173 0.8058
vn 0.5861 0.0074 0.8102
vn 0.5872 0.0039 -0.8095
vn 0.9510 0.0025 -0.3093
vn -0.9518 0.0186 0.3061
vn 0.9509 0.0027 0.3095
usemtl None
s 1
f 361/1/1 320/2/2 3/3/3 259/4/4
f 360/5/5 306/6/6 7/7/7 255/8/8
f 359/9/9 240/10/10 2/11/11 157/12/12
f 358/13/13 148/14/14 6/15/15 145/16/16
f 357/17/17 133/18/18 10/19/19 127/20/20
f 356/21/21 231/22/22 12/23/23 236/24/24
f 355/25/25 137/26/26 14/27/27 294/28/28
f 354/29/29 229/30/30 11/31/31 295/32/32
f 353/33/33 178/34/34 13/35/35 188/36/36
f 352/37/37 189/38/38 17/39/39 317/40/40
f 351/41/41 200/42/42 20/43/43 219/44/44
f 350/45/45 304/46/46 22/47/47 324/48/48
f 349/49/49 142/50/50 19/51/51 253/52/52
f 348/53/53 147/54/54 21/55/55 169/56/56
f 347/57/57 242/58/58 23/59/59 264/60/60
f 346/61/61 144/62/62 25/63/63 251/64/64
f 345/65/65 266/66/66 27/67/67 132/68/68
f 344/69/69 291/70/70 24/71/71 195/72/72
f 343/73/73 101/74/74 26/75/75 173/76/76
f 342/77/77 210/78/78 28/79/79 293/80/80
f 341/81/81 106/82/82 30/83/83 271/84/84
f 340/85/85 294/86/28 14/87/27 126/88/86
f 339/89/87 278/90/88 29/91/89 230/92/90
f 338/93/91 105/94/92 33/95/93 151/96/94
f 337/97/95 325/98/96 32/99/97 215/100/98
f 336/101/99 308/102/100 18/103/101 276/104/102
f 335/105/103 121/106/104 34/107/105 118/108/106
f 334/109/107 111/110/108 31/111/109 275/112/110
f 333/113/111 187/114/112 35/115/113 252/116/114
f 332/117/115 131/118/116 36/119/117 307/120/118
f 331/121/119 193/122/120 37/123/121 139/124/122
f 330/125/123 249/126/124 38/127/125 130/128/126
f 329/129/127 182/130/128 39/131/129 247/132/130
f 328/133/131 179/134/132 41/135/133 184/136/134
f 327/137/135 250/138/136 40/139/137 222/140/138
f 326/141/139 238/142/140 42/143/141 120/144/142
f 43/145/143 221/146/144 161/147/145
f 46/148/146 175/149/147 110/150/148
f 45/151/149 284/152/150 125/153/151
f 46/148/146 110/150/148 281/154/152
f 49/155/153 172/156/154 159/157/155
f 48/158/156 235/159/157 136/160/158
f 51/161/159 241/162/160 270/163/161
f 51/164/159 270/165/161 211/166/162
f 54/167/163 204/168/164 146/169/165
f 54/170/163 146/171/165 197/172/166
f 57/173/167 198/174/168 180/175/169
f 58/176/170 228/177/171 171/178/172
f 58/176/170 171/178/172 117/179/173
f 61/180/174 190/181/175 224/182/176
f 57/173/167 206/183/177 198/174/168
f 60/184/178 280/185/179 267/186/180
f 63/187/181 233/188/182 152/189/183
f 44/190/184 221/146/144 319/191/185
f 64/192/186 134/193/187 168/194/188
f 65/195/189 134/193/187 143/196/190
f 66/197/191 177/198/192 292/199/193
f 55/200/194 190/181/175 202/201/195
f 67/202/196 244/203/197 128/204/198
f 59/205/199 98/206/200 183/207/201
f 69/208/202 322/209/203 323/210/204
f 69/208/202 323/210/204 288/211/205
f 67/212/196 116/213/206 244/214/197
f 46/148/146 318/215/207 125/153/151
f 46/148/146 281/154/152 318/215/207
f 54/170/163 197/172/166 150/216/208
f 54/167/163 150/217/208 154/218/209
f 53/219/210 99/220/211 124/221/212
f 54/167/163 154/218/209 204/168/164
f 48/158/156 313/222/213 290/223/214
f 58/176/170 129/224/215 212/225/216
f 58/176/170 212/225/216 228/177/171
f 58/176/170 117/179/173 180/175/169
f 63/226/181 217/227/217 233/228/182
f 44/190/184 203/229/218 273/230/219
f 63/187/181 152/189/183 297/231/220
f 64/232/186 213/233/221 123/234/222
f 63/226/181 297/235/220 217/227/217
f 60/184/178 109/236/223 113/237/224
f 66/197/191 300/238/225 287/239/226
f 66/197/191 287/239/226 177/198/192
f 66/240/191 292/241/193 181/242/227
f 66/240/191 181/242/227 143/196/190
f 67/202/196 128/204/198 234/243/228
f 67/212/196 234/244/228 288/211/205
f 69/208/202 192/245/229 322/209/203
f 70/246/230 279/247/231 122/248/232
f 73/249/233 103/250/234 164/251/235
f 72/252/236 191/253/237 166/254/238
f 73/249/233 164/251/235 209/255/239
f 76/256/240 170/257/241 97/258/242
f 75/259/243 274/260/244 312/261/245
f 78/262/246 199/263/247 269/264/248
f 78/265/246 269/266/248 102/267/249
f 81/268/250 301/269/251 135/270/252
f 81/271/250 135/272/252 258/273/253
f 84/274/254 245/275/255 119/276/256
f 85/277/257 286/278/258 114/279/259
f 85/277/257 114/279/259 165/280/260
f 88/281/261 283/282/262 268/283/263
f 84/274/254 285/284/264 245/275/255
f 87/285/265 220/286/266 225/287/267
f 90/288/268 311/289/269 272/290/270
f 71/291/271 279/247/231 100/292/272
f 91/293/273 186/294/274 314/295/275
f 92/296/276 186/294/274 149/297/277
f 93/298/278 163/299/279 205/300/280
f 82/301/281 283/282/262 261/302/282
f 94/303/283 299/304/284 162/305/285
f 86/306/286 216/307/287 296/308/288
f 96/309/289 309/310/290 298/311/291
f 96/309/289 298/311/291 310/312/292
f 94/313/283 185/314/293 299/315/284
f 73/249/233 176/316/294 166/254/238
f 73/249/233 209/255/239 176/316/294
f 81/271/250 258/273/253 167/317/295
f 81/268/250 167/318/295 138/319/296
f 80/320/297 223/321/298 196/322/299
f 81/268/250 138/319/296 301/269/251
f 75/259/243 108/323/300 208/324/301
f 85/277/257 303/325/302 107/326/303
f 85/277/257 107/326/303 286/278/258
f 85/277/257 165/280/260 119/276/256
f 90/327/268 260/328/304 311/329/269
f 71/291/271 237/330/305 232/331/306
f 90/288/268 272/290/270 256/332/307
f 91/333/273 218/334/308 141/335/309
f 90/327/268 256/336/307 260/328/304
f 87/285/265 156/337/310 174/338/311
f 93/298/278 239/339/312 257/340/313
f 93/298/278 257/340/313 163/299/279
f 93/341/278 205/342/280 316/343/314
f 93/341/278 316/343/314 149/297/277
f 94/303/283 162/305/285 321/344/315
f 94/313/283 321/345/315 310/312/292
f 96/309/289 214/346/316 309/310/290
f 309/310/290 254/347/317 74/348/318
f 309/310/290 214/346/316 254/347/317
f 214/346/316 79/349/319 254/347/317
f 310/312/292 214/346/316 96/309/289
f 310/312/292 321/345/315 214/346/316
f 321/345/315 79/349/319 214/346/316
f 321/344/315 296/308/288 79/350/319
f 321/344/315 162/305/285 296/308/288
f 162/305/285 86/306/286 296/308/288
f 149/297/277 261/302/282 92/296/276
f 149/297/277 316/343/314 261/302/282
f 316/343/314 82/301/281 261/302/282
f 316/343/314 246/351/320 82/301/281
f 316/343/314 205/342/280 246/351/320
f 205/342/280 83/352/321 246/351/320
f 163/299/279 170/257/241 76/256/240
f 163/299/279 257/340/313 170/257/241
f 257/340/313 77/353/322 170/257/241
f 257/340/313 141/335/309 77/353/322
f 257/340/313 239/339/312 141/335/309
f 239/339/312 91/333/273 141/335/309
f 174/338/311 282/354/323 88/281/261
f 174/338/311 156/337/310 282/354/323
f 156/337/310 92/296/276 282/354/323
f 260/328/304 314/295/275 87/285/265
f 260/328/304 256/336/307 314/295/275
f 256/336/307 91/293/273 314/295/275
f 141/335/309 160/355/324 77/353/322
f 141/335/309 218/334/308 160/355/324
f 218/334/308 70/246/230 160/355/324
f 256/332/307 100/292/272 91/333/273
f 256/332/307 272/290/270 100/292/272
f 272/290/270 71/291/271 100/292/272
f 232/331/306 155/356/325 72/252/236
f 232/331/306 237/330/305 155/356/325
f 237/330/305 89/357/326 155/356/325
f 311/329/269 225/287/267 89/358/326
f 311/329/269 260/328/304 225/287/267
f 260/328/304 87/285/265 225/287/267
f 119/276/256 268/283/263 84/274/254
f 119/276/256 165/280/260 268/283/263
f 165/280/260 88/281/261 268/283/263
f 286/278/258 216/307/287 86/306/286
f 286/278/258 107/326/303 216/307/287
f 107/326/303 95/359/327 216/307/287
f 107/326/303 196/322/299 95/359/327
f 107/326/303 303/325/302 196/322/299
f 303/325/302 80/320/297 196/322/299
f 208/324/301 226/360/328 76/256/240
f 208/324/301 108/323/300 226/360/328
f 108/323/300 83/361/321 226/360/328
f 301/269/251 140/362/329 82/301/281
f 301/269/251 138/319/296 140/362/329
f 138/319/296 80/320/297 140/362/329
f 196/322/299 153/363/330 95/359/327
f 196/322/299 223/321/298 153/363/330
f 223/321/298 79/350/319 153/363/330
f 138/319/296 102/267/249 80/320/297
f 138/319/296 167/318/295 102/267/249
f 167/318/295 78/265/246 102/267/249
f 167/317/295 312/261/245 78/262/246
f 167/317/295 258/273/253 312/261/245
f 258/273/253 75/259/243 312/261/245
f 176/316/294 97/258/242 70/246/230
f 176/316/294 209/255/239 97/258/242
f 209/255/239 76/256/240 97/258/242
f 166/254/238 122/248/232 72/252/236
f 166/254/238 176/316/294 122/248/232
f 176/316/294 70/246/230 122/248/232
f 299/315/284 155/356/325 89/357/326
f 299/315/284 185/314/293 155/356/325
f 185/314/293 72/252/236 155/356/325
f 310/312/292 185/314/293 94/313/283
f 310/312/292 298/311/291 185/314/293
f 298/311/291 72/252/236 185/314/293
f 298/311/291 191/253/237 72/252/236
f 298/311/291 309/310/290 191/253/237
f 309/310/290 74/348/318 191/253/237
f 296/308/288 153/363/330 79/350/319
f 296/308/288 216/307/287 153/363/330
f 216/307/287 95/359/327 153/363/330
f 162/305/285 112/364/331 86/306/286
f 162/305/285 299/304/284 112/364/331
f 299/304/284 89/358/326 112/364/331
f 261/302/282 282/354/323 92/296/276
f 261/302/282 283/282/262 282/354/323
f 283/282/262 88/281/261 282/354/323
f 205/300/280 226/360/328 83/361/321
f 205/300/280 163/299/279 226/360/328
f 163/299/279 76/256/240 226/360/328
f 149/297/277 239/365/312 93/341/278
f 149/297/277 186/294/274 239/365/312
f 186/294/274 91/293/273 239/365/312
f 314/295/275 156/337/310 87/285/265
f 314/295/275 186/294/274 156/337/310
f 186/294/274 92/296/276 156/337/310
f 100/292/272 218/334/308 91/333/273
f 100/292/272 279/247/231 218/334/308
f 279/247/231 70/246/230 218/334/308
f 272/290/270 237/330/305 71/291/271
f 272/290/270 311/289/269 237/330/305
f 311/289/269 89/357/326 237/330/305
f 225/287/267 112/364/331 89/358/326
f 225/287/267 220/286/266 112/364/331
f 220/286/266 86/306/286 112/364/331
f 245/275/255 140/362/329 80/320/297
f 245/275/255 285/284/264 140/362/329
f 285/284/264 82/301/281 140/362/329
f 268/283/263 285/284/264 84/274/254
f 268/283/263 283/282/262 285/284/264
f 283/282/262 82/301/281 285/284/264
f 165/280/260 174/338/311 88/281/261
f 165/280/260 114/279/259 174/338/311
f 114/279/259 87/285/265 174/338/311
f 114/279/259 220/286/266 87/285/265
f 114/279/259 286/278/258 220/286/266
f 286/278/258 86/306/286 220/286/266
f 119/276/256 303/325/302 85/277/257
f 119/276/256 245/275/255 303/325/302
f 245/275/255 80/320/297 303/325/302
f 258/273/253 108/323/300 75/259/243
f 258/273/253 135/272/252 108/323/300
f 135/272/252 83/361/321 108/323/300
f 135/270/252 246/351/320 83/352/321
f 135/270/252 301/269/251 246/351/320
f 301/269/251 82/301/281 246/351/320
f 102/267/249 223/321/298 80/320/297
f 102/267/249 269/266/248 223/321/298
f 269/266/248 79/350/319 223/321/298
f 269/264/248 254/347/317 79/349/319
f 269/264/248 199/263/247 254/347/317
f 199/263/247 74/348/318 254/347/317
f 312/261/245 199/263/247 78/262/246
f 312/261/245 274/260/244 199/263/247
f 274/260/244 74/348/318 199/263/247
f 97/258/242 160/355/324 70/246/230
f 97/258/242 170/257/241 160/355/324
f 170/257/241 77/353/322 160/355/324
f 209/255/239 208/324/301 76/256/240
f 209/255/239 164/251/235 208/324/301
f 164/251/235 75/259/243 208/324/301
f 166/254/238 103/250/234 73/249/233
f 166/254/238 191/253/237 103/250/234
f 191/253/237 74/348/318 103/250/234
f 164/251/235 274/260/244 75/259/243
f 164/251/235 103/250/234 274/260/244
f 103/250/234 74/348/318 274/260/244
f 122/248/232 232/331/306 72/252/236
f 122/248/232 279/247/231 232/331/306
f 279/247/231 71/291/271 232/331/306
f 322/209/203 194/366/332 47/367/333
f 322/209/203 192/245/229 194/366/332
f 192/245/229 52/368/334 194/366/332
f 288/211/205 192/245/229 69/208/202
f 288/211/205 234/244/228 192/245/229
f 234/244/228 52/368/334 192/245/229
f 234/243/228 183/207/201 52/369/334
f 234/243/228 128/204/198 183/207/201
f 128/204/198 59/205/199 183/207/201
f 143/196/190 202/201/195 65/195/189
f 143/196/190 181/242/227 202/201/195
f 181/242/227 55/200/194 202/201/195
f 181/242/227 265/370/335 55/200/194
f 181/242/227 292/241/193 265/370/335
f 292/241/193 56/371/336 265/370/335
f 177/198/192 172/156/154 49/155/153
f 177/198/192 287/239/226 172/156/154
f 287/239/226 50/372/337 172/156/154
f 287/239/226 123/234/222 50/372/337
f 287/239/226 300/238/225 123/234/222
f 300/238/225 64/232/186 123/234/222
f 113/237/224 227/373/338 61/180/174
f 113/237/224 109/236/223 227/373/338
f 109/236/223 65/195/189 227/373/338
f 217/227/217 168/194/188 60/184/178
f 217/227/217 297/235/220 168/194/188
f 297/235/220 64/192/186 168/194/188
f 123/234/222 289/374/339 50/372/337
f 123/234/222 213/233/221 289/374/339
f 213/233/221 43/145/143 289/374/339
f 297/231/220 319/191/185 64/232/186
f 297/231/220 152/189/183 319/191/185
f 152/189/183 44/190/184 319/191/185
f 273/230/219 115/375/340 45/151/149
f 273/230/219 203/229/218 115/375/340
f 203/229/218 62/376/341 115/375/340
f 233/228/182 267/186/180 62/377/341
f 233/228/182 217/227/217 267/186/180
f 217/227/217 60/184/178 267/186/180
f 180/175/169 224/182/176 57/173/167
f 180/175/169 117/179/173 224/182/176
f 117/179/173 61/180/174 224/182/176
f 228/177/171 98/206/200 59/205/199
f 228/177/171 212/225/216 98/206/200
f 212/225/216 68/378/342 98/206/200
f 212/225/216 124/221/212 68/378/342
f 212/225/216 129/224/215 124/221/212
f 129/224/215 53/219/210 124/221/212
f 290/223/214 262/379/343 49/155/153
f 290/223/214 313/222/213 262/379/343
f 313/222/213 56/380/336 262/379/343
f 204/168/164 315/381/344 55/200/194
f 204/168/164 154/218/209 315/381/344
f 154/218/209 53/219/210 315/381/344
f 124/221/212 243/382/345 68/378/342
f 124/221/212 99/220/211 243/382/345
f 99/220/211 52/369/334 243/382/345
f 154/218/209 211/166/162 53/219/210
f 154/218/209 150/217/208 211/166/162
f 150/217/208 51/164/159 211/166/162
f 150/216/208 136/160/158 51/161/159
f 150/216/208 197/172/166 136/160/158
f 197/172/166 48/158/156 136/160/158
f 318/215/207 159/157/155 43/145/143
f 318/215/207 281/154/152 159/157/155
f 281/154/152 49/155/153 159/157/155
f 125/153/151 161/147/145 45/151/149
f 125/153/151 318/215/207 161/147/145
f 318/215/207 43/145/143 161/147/145
f 244/214/197 115/375/340 62/376/341
f 244/214/197 116/213/206 115/375/340
f 116/213/206 45/151/149 115/375/340
f 288/211/205 116/213/206 67/212/196
f 288/211/205 323/210/204 116/213/206
f 323/210/204 45/151/149 116/213/206
f 323/210/204 284/152/150 45/151/149
f 323/210/204 322/209/203 284/152/150
f 322/209/203 47/367/333 284/152/150
f 183/207/201 243/382/345 52/369/334
f 183/207/201 98/206/200 243/382/345
f 98/206/200 68/378/342 243/382/345
f 128/204/198 158/383/346 59/205/199
f 128/204/198 244/203/197 158/383/346
f 244/203/197 62/377/341 158/383/346
f 202/201/195 227/373/338 65/195/189
f 202/201/195 190/181/175 227/373/338
f 190/181/175 61/180/174 227/373/338
f 292/199/193 262/379/343 56/380/336
f 292/199/193 177/198/192 262/379/343
f 177/198/192 49/155/153 262/379/343
f 143/196/190 300/384/225 66/240/191
f 143/196/190 134/193/187 300/384/225
f 134/193/187 64/192/186 300/384/225
f 168/194/188 109/236/223 60/184/178
f 168/194/188 134/193/187 109/236/223
f 134/193/187 65/195/189 109/236/223
f 319/191/185 213/233/221 64/232/186
f 319/191/185 221/146/144 213/233/221
f 221/146/144 43/145/143 213/233/221
f 152/189/183 203/229/218 44/190/184
f 152/189/183 233/188/182 203/229/218
f 233/188/182 62/376/341 203/229/218
f 267/186/180 158/383/346 62/377/341
f 267/186/180 280/185/179 158/383/346
f 280/185/179 59/205/199 158/383/346
f 198/174/168 315/381/344 53/219/210
f 198/174/168 206/183/177 315/381/344
f 206/183/177 55/200/194 315/381/344
f 224/182/176 206/183/177 57/173/167
f 224/182/176 190/181/175 206/183/177
f 190/181/175 55/200/194 206/183/177
f 117/179/173 113/237/224 61/180/174
f 117/179/173 171/178/172 113/237/224
f 171/178/172 60/184/178 113/237/224
f 171/178/172 280/185/179 60/184/178
f 171/178/172 228/177/171 280/185/179
f 228/177/171 59/205/199 280/185/179
f 180/175/169 129/224/215 58/176/170
f 180/175/169 198/174/168 129/224/215
f 198/174/168 53/219/210 129/224/215
f 197/172/166 313/222/213 48/158/156
f 197/172/166 146/171/165 313/222/213
f 146/171/165 56/380/336 313/222/213
f 146/169/165 265/370/335 56/371/336
f 146/169/165 204/168/164 265/370/335
f 204/168/164 55/200/194 265/370/335
f 211/166/162 99/220/211 53/219/210
f 211/166/162 270/165/161 99/220/211
f 270/165/161 52/369/334 99/220/211
f 270/163/161 194/366/332 52/368/334
f 270/163/161 241/162/160 194/366/332
f 241/162/160 47/367/333 194/366/332
f 136/160/158 241/162/160 51/161/159
f 136/160/158 235/159/157 241/162/160
f 235/159/157 47/367/333 241/162/160
f 159/157/155 289/374/339 43/145/143
f 159/157/155 172/156/154 289/374/339
f 172/156/154 50/372/337 289/374/339
f 281/154/152 290/223/214 49/155/153
f 281/154/152 110/150/148 290/223/214
f 110/150/148 48/158/156 290/223/214
f 125/153/151 175/149/147 46/148/146
f 125/153/151 284/152/150 175/149/147
f 284/152/150 47/367/333 175/149/147
f 110/150/148 235/159/157 48/158/156
f 110/150/148 175/149/147 235/159/157
f 175/149/147 47/367/333 235/159/157
f 161/147/145 273/230/219 45/151/149
f 161/147/145 221/146/144 273/230/219
f 221/146/144 44/190/184 273/230/219
f 179/385/132 326/141/139 120/144/142 41/386/133
f 37/387/121 307/120/118 326/141/139 179/385/132
f 307/120/118 36/119/117 238/142/140 326/141/139
f 238/142/140 327/137/135 222/140/138 42/143/141
f 36/119/117 252/116/114 327/137/135 238/142/140
f 252/116/114 35/115/113 250/138/136 327/137/135
f 182/130/128 328/133/131 184/136/134 39/131/129
f 38/127/125 139/124/122 328/133/131 182/130/128
f 139/124/122 37/123/121 179/134/132 328/133/131
f 250/138/136 329/129/127 247/132/130 40/139/137
f 35/115/113 130/128/126 329/129/127 250/138/136
f 130/128/126 38/127/125 182/130/128 329/129/127
f 187/114/112 330/125/123 130/128/126 35/115/113
f 30/83/83 118/108/106 330/125/123 187/114/112
f 118/108/106 34/107/105 249/126/124 330/125/123
f 249/126/124 331/121/119 139/124/122 38/127/125
f 34/107/105 151/96/94 331/121/119 249/126/124
f 151/96/94 33/95/93 193/122/120 331/121/119
f 193/388/120 332/117/115 307/120/118 37/387/121
f 33/389/93 275/112/110 332/117/115 193/388/120
f 275/112/110 31/111/109 131/118/116 332/117/115
f 131/118/116 333/113/111 252/116/114 36/119/117
f 31/111/109 271/84/84 333/113/111 131/118/116
f 271/84/84 30/83/83 187/114/112 333/113/111
f 105/390/92 334/109/107 275/112/110 33/389/93
f 18/391/101 317/40/40 334/109/107 105/390/92
f 317/40/40 17/39/39 111/110/108 334/109/107
f 106/82/82 335/105/103 118/108/106 30/83/83
f 29/91/89 215/100/98 335/105/103 106/82/82
f 215/100/98 32/99/97 121/106/104 335/105/103
f 325/98/96 336/101/99 276/104/102 32/99/97
f 10/392/19 133/393/18 336/101/99 325/98/96
f 133/393/18 7/394/7 308/102/100 336/101/99
f 278/90/88 337/97/95 215/100/98 29/91/89
f 15/395/347 277/396/348 337/97/95 278/90/88
f 277/396/348 10/392/19 325/98/96 337/97/95
f 121/106/104 338/93/91 151/96/94 34/107/105
f 32/99/97 276/104/102 338/93/91 121/106/104
f 276/104/102 18/103/101 105/94/92 338/93/91
f 189/38/38 339/89/87 230/92/90 17/39/39
f 6/397/15 302/398/349 339/89/87 189/38/38
f 302/398/349 15/395/347 278/90/88 339/89/87
f 104/399/350 340/85/85 126/88/86 16/400/351
f 10/401/19 277/402/348 340/85/85 104/399/350
f 277/402/348 15/403/347 294/86/28 340/85/85
f 111/110/108 341/81/81 271/84/84 31/111/109
f 17/39/39 230/92/90 341/81/81 111/110/108
f 230/92/90 29/91/89 106/82/82 341/81/81
f 304/46/46 342/77/77 293/80/80 22/47/47
f 21/55/55 132/68/68 342/77/77 304/46/46
f 132/68/68 27/67/67 210/78/78 342/77/77
f 200/42/42 343/73/73 173/76/76 20/43/43
f 19/51/51 251/64/64 343/73/73 200/42/42
f 251/64/64 25/63/63 101/74/74 343/73/73
f 242/58/58 344/69/69 195/72/72 23/59/59
f 22/47/47 293/80/80 344/69/69 242/58/58
f 293/80/80 28/79/79 291/70/70 344/69/69
f 147/54/54 345/65/65 132/68/68 21/55/55
f 20/43/43 173/76/76 345/65/65 147/54/54
f 173/76/76 26/75/75 266/66/66 345/65/65
f 142/50/50 346/61/61 251/64/64 19/51/51
f 23/404/59 195/405/72 346/61/61 142/50/50
f 195/405/72 24/406/71 144/62/62 346/61/61
f 137/26/26 347/57/57 264/60/60 14/27/27
f 13/35/35 324/48/48 347/57/57 137/26/26
f 324/48/48 22/47/47 242/58/58 347/57/57
f 231/22/22 348/53/53 169/56/56 12/23/23
f 11/31/31 219/44/44 348/53/53 231/22/22
f 219/44/44 20/43/43 147/54/54 348/53/53
f 126/88/86 349/49/49 253/52/52 16/400/351
f 14/87/27 264/407/60 349/49/49 126/88/86
f 264/407/60 23/404/59 142/50/50 349/49/49
f 178/34/34 350/45/45 324/48/48 13/35/35
f 12/23/23 169/56/56 350/45/45 178/34/34
f 169/56/56 21/55/55 304/46/46 350/45/45
f 229/30/30 351/41/41 219/44/44 11/31/31
f 16/400/351 253/52/52 351/41/41 229/30/30
f 253/52/52 19/51/51 200/42/42 351/41/41
f 308/408/100 352/37/37 317/40/40 18/391/101
f 7/409/7 306/410/6 352/37/37 308/408/100
f 306/410/6 6/397/15 189/38/38 352/37/37
f 148/411/14 353/33/33 188/36/36 6/412/15
f 3/413/3 236/24/24 353/33/33 148/411/14
f 236/24/24 12/23/23 178/34/34 353/33/33
f 240/414/10 354/29/29 295/32/32 2/415/11
f 10/401/19 104/399/350 354/29/29 240/414/10
f 104/399/350 16/400/351 229/30/30 354/29/29
f 302/416/349 355/25/25 294/28/28 15/417/347
f 6/412/15 188/36/36 355/25/25 302/416/349
f 188/36/36 13/35/35 137/26/26 355/25/25
f 320/418/2 356/21/21 236/24/24 3/413/3
f 2/415/11 295/32/32 356/21/21 320/418/2
f 295/32/32 11/31/31 231/22/22 356/21/21
f 201/419/352 357/17/17 127/20/20 9/420/353
f 8/421/354 255/422/8 357/17/17 201/419/352
f 255/422/8 7/423/7 133/18/18 357/17/17
f 207/424/355 358/13/13 145/16/16 5/425/356
f 4/426/357 259/4/4 358/13/13 207/424/355
f 259/4/4 3/3/3 148/14/14 358/13/13
f 305/427/358 359/9/9 157/12/12 1/428/359
f 9/420/353 127/20/20 359/9/9 305/427/358
f 127/20/20 10/19/19 240/10/10 359/9/9
f 248/429/360 360/5/5 255/8/8 8/430/354
f 5/425/356 145/16/16 360/5/5 248/429/360
f 145/16/16 6/15/15 306/6/6 360/5/5
f 263/431/361 361/1/1 259/4/4 4/426/357
f 1/428/359 157/12/12 361/1/1 263/431/361
f 157/12/12 2/11/11 320/2/2 361/1/1
