# Blender v2.78 (sub 0) OBJ File: ''
# www.blender.org
mtllib Birch_Tree_NoLeaves_crk_m_04.mtl
o Birch_Tree_NoLeaves_crk_m_04
v -0.844302 0.063984 0.308235
v -0.892132 0.037891 0.246577
v -1.724434 0.036487 0.467824
v -1.703473 0.063726 0.526014
v -0.845924 -0.011755 0.259500
v -0.785127 -0.002301 0.329513
v -1.675815 0.003742 0.537507
v -1.709657 -0.009329 0.478684
v -2.630835 0.044025 0.853843
v -2.616583 0.063771 0.894550
v -2.601713 0.024888 0.903542
v -2.619022 0.014340 0.861721
v -3.527119 0.002416 1.195367
v -3.533354 0.012977 1.193651
v -3.517001 0.007353 1.210119
v -3.524734 0.021197 1.208265
v 0.099752 0.147667 -0.035491
v 0.102660 1.346543 -0.033284
v 0.069843 1.346596 0.067716
v 0.062125 0.147667 0.080313
v -0.059639 0.147667 0.080313
v -0.045689 1.405589 0.062912
v -0.085538 1.284358 -0.034893
v -0.097349 0.144303 -0.035503
v 0.001243 0.147667 -0.107061
v 0.005382 1.405530 -0.094268
v 0.159076 2.319881 -0.029860
v 0.131372 2.320442 0.055414
v 0.041720 2.322016 0.055423
v 0.018770 2.350791 -0.028566
v -0.027039 1.744108 -0.022089
v 0.086545 2.321108 -0.082553
v -0.156227 1.876231 0.012005
v -0.172882 1.770767 -0.046381
v 0.149307 3.529202 -0.071048
v 0.206207 3.528759 -0.029685
v 0.184473 3.529329 0.037244
v 0.114142 3.530129 0.037249
v 0.092409 3.530053 -0.029677
v 0.089624 5.004464 -0.048671
v 0.120754 5.007865 -0.071606
v 0.153841 5.012130 -0.048380
v 0.141451 5.011075 -0.009854
v 0.101360 5.006283 -0.009737
v -0.021025 6.459141 -0.063918
v -0.011303 6.371542 -0.085522
v 0.003026 6.462460 -0.081654
v -0.002194 6.461965 -0.063333
v -0.101245 1.925039 -0.035022
v -0.126212 1.876225 -0.080369
v -0.089758 0.678943 -0.035371
v 0.043223 5.707952 -0.068730
v 0.095053 0.147667 0.026998
v -1.715600 0.055149 0.495871
v 0.127331 2.320402 -0.062429
v -3.556566 0.016094 1.210640
v 0.121405 5.008719 -0.006416
v -0.016029 6.504241 -0.064691
v 0.056582 2.903515 -0.028912
v -0.169563 1.835790 -0.019847
v -0.056777 0.145985 -0.083289
v -3.557856 0.006781 1.204221
v 0.116948 4.250986 0.015556
v 0.201166 3.528939 0.005674
v -0.039568 1.650969 0.024214
v 0.016744 1.346676 0.076729
v -2.607669 0.045824 0.903121
v -0.784271 0.028314 0.313902
v 0.150825 5.012082 -0.028083
v 0.059221 0.147667 -0.083283
v -0.784976 -0.006109 0.291753
v 0.055713 5.709651 -0.077956
v 0.098133 1.840490 0.061403
v -3.109166 0.016859 1.076752
v -2.626408 0.027688 0.853707
v -1.687306 0.035639 0.537304
v -0.115369 1.915332 -0.055220
v -2.174227 0.041685 0.655137
v 0.144618 4.251400 -0.069985
v 0.181358 3.528885 -0.055322
v -0.078018 1.298269 0.017882
v 0.187256 2.900949 -0.028913
v -0.130361 1.583651 -0.041114
v 0.101080 0.692189 -0.035323
v -0.767603 0.025455 0.265927
v -0.010985 1.650925 -0.063754
v 0.172289 4.253133 0.015491
v -0.109247 1.665024 0.039012
v -0.092609 0.145985 0.026992
v -3.548109 0.013401 1.218634
v -0.128892 1.915334 -0.013603
v -0.025247 6.502682 -0.075984
v -0.048531 1.298269 -0.072868
v 0.005794 0.690927 -0.104534
v -1.260557 0.037093 0.336364
v -1.719385 0.011674 0.467710
v 0.162299 2.901635 0.047899
v -1.691090 -0.007836 0.509143
v 0.065789 5.818112 -0.039236
v 0.149308 3.529760 0.043373
v -1.237764 0.068292 0.404714
v -0.151598 1.916646 -0.036262
v 0.117257 3.529674 -0.055319
v 0.081539 2.903221 0.047900
v 0.064696 0.692189 0.076656
v 0.074267 5.818995 -0.066421
v 0.189390 4.253404 -0.037370
v -0.004710 1.990520 -0.024736
v -2.625013 0.057231 0.873336
v 0.152538 2.320020 0.015153
v 0.095771 5.108345 -0.064528
v 0.128303 1.840190 -0.031458
v -2.155952 0.065439 0.704973
v -0.846986 0.016539 0.245064
v -0.066677 1.665020 -0.092001
v 0.001243 0.147667 0.095155
v -0.003716 6.505941 -0.073770
v 0.092313 5.004924 -0.028147
v 0.051693 1.855069 -0.088204
v -0.053077 0.690927 0.076652
v -0.011513 6.504574 -0.086113
v 0.086546 2.321234 0.063110
v 0.065000 1.346605 -0.071786
v -2.138698 0.015561 0.715648
v -0.156040 1.835787 -0.061464
v 0.099848 4.249927 -0.037266
v -2.609064 0.016281 0.883492
v -1.176826 -0.001621 0.416765
v 0.097449 3.530214 0.005678
v 0.002877 1.855554 0.062048
v -0.846282 0.050962 0.267213
v -3.120406 0.042165 1.071549
v 0.139262 5.010250 -0.062735
v 0.048137 2.336034 -0.061781
v -1.242050 -0.016338 0.350142
v -3.122658 0.009197 1.049356
v -0.064794 1.815648 -0.028399
v 0.037630 5.813959 -0.039384
v 0.094823 1.346570 0.020001
v -3.131582 0.028469 1.044738
v -2.160510 0.003620 0.664494
v 0.121919 2.902110 -0.076386
v 0.022930 2.336549 0.015806
v -3.549399 0.004089 1.212214
v -0.027252 6.635422 -0.079068
v -0.099614 1.613287 -0.073402
v -0.060586 1.751381 -0.065833
v -0.085925 1.751384 0.012151
v 0.019771 1.929927 -0.062907
v 0.072508 5.818930 -0.052194
v 0.051546 5.816046 -0.036726
v 0.062466 5.817119 -0.075591
v 0.032621 5.813031 -0.053559
v 0.144618 4.252095 0.020276
v 0.169787 4.252480 -0.057526
v 0.103896 4.250294 -0.009381
v 0.185342 4.253455 -0.009475
v 0.119450 4.250525 -0.057468
v 0.062490 2.903503 0.011629
v 0.181348 2.901169 0.011628
v 0.085190 2.902878 -0.058238
v 0.121919 2.902446 0.054808
v 0.158648 2.901436 -0.058239
v -0.124953 1.613290 0.004582
v 0.049316 1.840934 0.069758
v 0.093719 1.840493 -0.066908
v -0.007671 1.930200 0.021557
v 0.121161 1.840269 0.017553
v -0.047918 0.684304 -0.078103
v 0.005825 0.692189 0.086728
v 0.059373 0.692189 -0.078075
v -0.081012 0.684304 0.023750
v 0.092467 0.692189 0.023779
v -3.635273 0.007409 1.240156
v -3.113611 0.030529 1.076732
v -3.126955 0.037440 1.057676
v -3.114952 0.010905 1.063522
v -3.128295 0.017816 1.044465
v -2.169277 0.020953 0.655006
v -2.148129 0.005403 0.691025
v -2.145416 0.042199 0.715119
v -2.166565 0.057749 0.679101
v -1.203104 0.035522 0.417167
v -1.255494 0.008191 0.336825
v -1.205655 -0.014853 0.384683
v -1.252944 0.058566 0.369309
vt 0.1780 0.6547
vt 0.1839 0.6551
vt 0.1798 0.7199
vt 0.1748 0.7194
vt 0.1984 0.6506
vt 0.2048 0.6470
vt 0.1966 0.7184
vt 0.1917 0.7185
vt 0.1880 0.6546
vt 0.1921 0.6542
vt 0.1868 0.7187
vt 0.1833 0.7193
vt 0.1664 0.6495
vt 0.1722 0.6544
vt 0.1698 0.7189
vt 0.1650 0.7177
vt 0.1717 0.7853
vt 0.1761 0.7855
vt 0.1723 0.8512
vt 0.1686 0.8512
vt 0.1632 0.7840
vt 0.1673 0.7851
vt 0.1649 0.8512
vt 0.1614 0.8504
vt 0.1865 0.7846
vt 0.1907 0.7846
vt 0.1848 0.8509
vt 0.1812 0.8506
vt 0.1791 0.7851
vt 0.1822 0.7845
vt 0.1776 0.8504
vt 0.1750 0.8508
vt 0.1695 0.9248
vt 0.1714 0.9244
vt 0.1653 0.9984
vt 0.1641 0.9988
vt 0.1739 0.9243
vt 0.1763 0.9243
vt 0.1678 0.9976
vt 0.1665 0.9980
vt 0.1652 0.9251
vt 0.1676 0.9252
vt 0.1629 0.9993
vt 0.1618 0.9989
vt 0.1604 0.9242
vt 0.1628 0.9248
vt 0.1606 0.9985
vt 0.1594 0.9979
vt 0.0191 0.9432
vt 0.0178 0.9432
vt 0.0178 0.9419
vt 0.0191 0.9421
vt 0.3334 0.9381
vt 0.3451 0.9394
vt 0.3451 0.9560
vt 0.3050 0.9801
vt 0.3192 0.9591
vt 0.3309 0.9770
vt 0.1232 0.2361
vt 0.1228 0.3418
vt 0.1137 0.3417
vt 0.1131 0.2360
vt 0.0829 0.2351
vt 0.0866 0.3392
vt 0.0775 0.3371
vt 0.0728 0.2342
vt 0.1434 0.2362
vt 0.1409 0.3417
vt 0.1319 0.3419
vt 0.1332 0.2362
vt 0.1031 0.2360
vt 0.1047 0.3415
vt 0.0957 0.3413
vt 0.0930 0.2359
vt 0.1636 0.2354
vt 0.1591 0.3396
vt 0.1500 0.3416
vt 0.1535 0.2362
vt 0.0816 0.5701
vt 0.0820 0.6324
vt 0.0752 0.6324
vt 0.0741 0.5701
vt 0.0531 0.5820
vt 0.0548 0.6323
vt 0.0480 0.6325
vt 0.0471 0.5943
vt 0.0965 0.5700
vt 0.0957 0.6323
vt 0.0889 0.6325
vt 0.0890 0.5702
vt 0.0667 0.5699
vt 0.0684 0.6322
vt 0.0616 0.6320
vt 0.0592 0.5697
vt 0.1663 0.5473
vt 0.1736 0.5518
vt 0.1746 0.5898
vt 0.1677 0.5813
vt 0.0949 0.7137
vt 0.0941 0.7951
vt 0.0887 0.7950
vt 0.0888 0.7138
vt 0.0704 0.7137
vt 0.0724 0.7952
vt 0.0670 0.7953
vt 0.0643 0.7136
vt 0.1071 0.7137
vt 0.1049 0.7953
vt 0.0995 0.7951
vt 0.1010 0.7136
vt 0.0826 0.7137
vt 0.0833 0.7950
vt 0.0778 0.7950
vt 0.0765 0.7137
vt 0.0582 0.7139
vt 0.0616 0.7956
vt 0.0562 0.7959
vt 0.0521 0.7142
vt 0.1008 0.8957
vt 0.0967 0.9962
vt 0.0937 0.9963
vt 0.0966 0.8957
vt 0.0840 0.8958
vt 0.0847 0.9965
vt 0.0817 0.9965
vt 0.0798 0.8958
vt 0.0671 0.8959
vt 0.0726 0.9962
vt 0.0696 0.9962
vt 0.0629 0.8960
vt 0.0924 0.8957
vt 0.0907 0.9964
vt 0.0877 0.9966
vt 0.0882 0.8958
vt 0.0755 0.8957
vt 0.0786 0.9963
vt 0.0756 0.9961
vt 0.0713 0.8957
vt 0.1672 0.8841
vt 0.1704 0.9961
vt 0.1684 0.9962
vt 0.1648 0.8842
vt 0.1822 0.8843
vt 0.1822 0.9961
vt 0.1802 0.9962
vt 0.1797 0.8844
vt 0.1722 0.8842
vt 0.1743 0.9961
vt 0.1723 0.9960
vt 0.1697 0.8841
vt 0.1912 0.7720
vt 0.1876 0.8840
vt 0.1882 0.7722
vt 0.1772 0.8843
vt 0.1782 0.9962
vt 0.1763 0.9961
vt 0.1747 0.8843
vt 0.1106 0.5819
vt 0.1172 0.5939
vt 0.1162 0.6320
vt 0.1093 0.6321
vt 0.1811 0.5634
vt 0.1885 0.5749
vt 0.1879 0.5902
vt 0.1813 0.5900
vt 0.1957 0.5634
vt 0.2029 0.5518
vt 0.1973 0.5896
vt 0.1926 0.5899
vt 0.2107 0.5487
vt 0.2185 0.5457
vt 0.2130 0.5756
vt 0.2052 0.5826
vt 0.0193 0.8415
vt 0.0195 0.8431
vt 0.0178 0.8433
vt 0.0178 0.8416
vt 0.3213 0.9098
vt 0.3198 0.9226
vt 0.3108 0.9226
vt 0.2819 0.9005
vt 0.3016 0.9051
vt 0.2910 0.9180
vt 0.3002 0.9355
vt 0.3093 0.9355
vt 0.3184 0.9355
vt 0.0192 0.8400
vt 0.0178 0.8399
vt 0.0206 0.8401
vt 0.0209 0.8414
vt 0.0212 0.8428
vt 0.2085 0.5140
vt 0.2163 0.5149
vt 0.2240 0.5157
vt 0.1892 0.5596
vt 0.1989 0.5368
vt 0.1726 0.5139
vt 0.1809 0.5367
vt 0.1039 0.5698
vt 0.1025 0.6321
vt 0.1053 0.5076
vt 0.1118 0.5317
vt 0.1183 0.5558
vt 0.1761 0.7725
vt 0.1731 0.7724
vt 0.1792 0.7726
vt 0.1847 0.8842
vt 0.1852 0.7723
vt 0.1841 0.9960
vt 0.1701 0.7722
vt 0.1671 0.7721
vt 0.1822 0.7724
vt 0.1641 0.7721
vt 0.1611 0.7722
vt 0.1103 0.7955
vt 0.1050 0.8957
vt 0.0998 0.9960
vt 0.1133 0.7138
vt 0.1590 0.5428
vt 0.1608 0.5728
vt 0.1573 0.5127
vt 0.1649 0.5133
vt 0.0649 0.5076
vt 0.0568 0.5074
vt 0.0730 0.5077
vt 0.0972 0.5078
vt 0.0892 0.5079
vt 0.0515 0.5318
vt 0.0462 0.5562
vt 0.0811 0.5078
vt 0.1680 0.1313
vt 0.1569 0.1309
vt 0.1792 0.1317
vt 0.1737 0.2346
vt 0.1682 0.3375
vt 0.1014 0.1305
vt 0.0903 0.1305
vt 0.1125 0.1304
vt 0.1458 0.1307
vt 0.1346 0.1305
vt 0.0792 0.1309
vt 0.0680 0.1313
vt 0.1235 0.1305
vt 0.3567 0.9739
vt 0.3567 0.9573
vt 0.3567 0.9407
vt 0.0204 0.9432
vt 0.0204 0.9423
vt 0.0203 0.9441
vt 0.0191 0.9442
vt 0.0178 0.9444
vt 0.1581 0.9235
vt 0.1582 0.9974
vt 0.1579 0.8496
vt 0.1591 0.7831
vt 0.1603 0.7165
vt 0.1605 0.6446
vt 0.1608 0.5728
vt 0.1677 0.5813
vt 0.1746 0.5898
vt 0.1879 0.5902
vt 0.1926 0.5899
vt 0.1973 0.5896
vt 0.2052 0.5826
vt 0.2130 0.5756
vt 0.1813 0.5900
vn -0.0966 0.9216 -0.3760
vn -0.2255 0.4415 -0.8685
vn -0.2973 0.4412 -0.8467
vn -0.1312 0.9140 -0.3840
vn 0.0433 -0.9836 0.1750
vn 0.2016 -0.5092 0.8367
vn 0.2351 -0.5332 0.8127
vn 0.0422 -0.9808 0.1902
vn -0.2333 -0.3399 -0.9111
vn -0.1143 -0.8815 -0.4582
vn -0.1629 -0.8858 -0.4344
vn -0.3150 -0.3210 -0.8931
vn 0.2256 0.3507 0.9089
vn 0.0929 0.9281 0.3606
vn 0.1167 0.9316 0.3443
vn 0.2881 0.3223 0.9017
vn -0.1546 0.9131 -0.3774
vn -0.3491 0.4402 -0.8273
vn -0.3413 0.4444 -0.8282
vn -0.1676 0.9108 -0.3774
vn 0.3527 0.3213 0.8788
vn 0.1397 0.9281 0.3450
vn 0.1109 0.9281 0.3555
vn 0.3288 0.3227 0.8875
vn 0.0578 -0.9771 0.2049
vn 0.3044 -0.5161 0.8006
vn 0.3043 -0.5028 0.8091
vn 0.0776 -0.9729 0.2179
vn -0.3727 -0.3442 -0.8618
vn -0.1881 -0.9003 -0.3926
vn -0.1590 -0.9131 -0.3754
vn -0.3515 -0.3572 -0.8654
vn -0.3222 -0.3475 -0.8806
vn -0.1292 -0.9155 -0.3809
vn -0.1329 -0.9110 -0.3904
vn -0.4228 -0.3668 -0.8287
vn 0.0924 -0.9697 0.2263
vn 0.2819 -0.5091 0.8132
vn 0.2725 -0.5076 0.8174
vn 0.0526 -0.9352 0.3502
vn -0.1791 0.9050 -0.3858
vn -0.3308 0.4324 -0.8388
vn -0.3348 0.4280 -0.8395
vn -0.2337 0.9361 -0.2627
vn 0.2921 0.3169 0.9024
vn 0.0797 0.9276 0.3650
vn 0.0662 0.9288 0.3647
vn 0.1687 0.3002 0.9388
vn -0.9153 -0.0648 0.3976
vn 0.0639 -0.8418 -0.5359
vn 0.0987 -0.0298 -0.9947
vn 0.8613 0.1697 -0.4790
vn 0.5811 -0.4448 0.6816
vn 0.6219 -0.7810 -0.0573
vn 0.7226 0.4454 0.5287
vn 0.9510 0.0003 0.3091
vn 0.9505 -0.0254 0.3097
vn 0.5832 -0.0081 0.8123
vn 0.5870 0.0067 0.8096
vn -0.9466 0.0143 0.3222
vn -0.9290 -0.0419 0.3677
vn -0.9481 -0.0576 -0.3127
vn -0.9508 0.0127 -0.3096
vn 0.5779 0.0044 -0.8161
vn 0.5643 -0.0077 -0.8255
vn 0.9500 -0.0249 -0.3111
vn 0.9509 0.0004 -0.3094
vn -0.0045 0.0138 0.9999
vn -0.0102 0.0145 0.9998
vn -0.4861 -0.0184 0.8737
vn -0.5789 0.0176 0.8152
vn -0.5803 0.0106 -0.8143
vn -0.5496 -0.0327 -0.8348
vn 0.0375 -0.0229 -0.9990
vn -0.0028 0.0099 -0.9999
vn 0.9495 -0.0548 0.3089
vn 0.9497 -0.0529 0.3087
vn 0.5887 -0.0258 0.8079
vn 0.5862 -0.0269 0.8097
vn -0.9697 0.0910 0.2268
vn -0.9597 0.0717 0.2717
vn -0.9496 0.0656 -0.3066
vn -0.9506 0.0719 -0.3019
vn 0.5725 -0.0276 -0.8195
vn 0.5930 -0.0298 -0.8046
vn 0.9495 -0.0559 -0.3087
vn 0.9484 -0.0535 -0.3124
vn -0.0022 0.0136 0.9999
vn 0.0028 0.0140 0.9999
vn -0.5973 0.0555 0.8001
vn -0.5897 0.0678 0.8048
vn -0.8730 -0.1350 0.4687
vn -0.3468 0.0398 0.9371
vn -0.4737 0.3155 0.8222
vn -0.9915 0.0440 0.1221
vn 0.5883 -0.0187 -0.8084
vn 0.5900 -0.0053 -0.8074
vn 0.9522 -0.0052 -0.3056
vn 0.9507 -0.0373 -0.3078
vn 0.0012 0.0162 0.9999
vn 0.0030 0.0250 0.9997
vn -0.5821 0.0354 0.8123
vn -0.5868 0.0472 0.8084
vn -0.5925 0.0389 -0.8046
vn -0.5866 0.0166 -0.8097
vn 0.0069 0.0048 -1.0000
vn -0.0038 0.0093 -0.9999
vn 0.9504 -0.0361 0.3089
vn 0.9512 0.0000 0.3085
vn 0.5920 0.0133 0.8058
vn 0.5890 -0.0141 0.8080
vn -0.9510 0.0623 0.3029
vn -0.9501 0.0355 0.3098
vn -0.9504 0.0303 -0.3096
vn -0.9492 0.0600 -0.3088
vn -0.5958 -0.0106 -0.8031
vn -0.5843 -0.0566 -0.8096
vn 0.0035 -0.0013 -1.0000
vn 0.0160 -0.0006 -0.9999
vn 0.9507 0.0389 0.3076
vn 0.9493 0.0761 0.3049
vn 0.5906 0.0674 0.8041
vn 0.5898 0.0425 0.8064
vn -0.9524 0.0039 0.3049
vn -0.9673 -0.0356 0.2513
vn -0.9516 -0.0360 -0.3052
vn -0.9577 -0.0063 -0.2876
vn 0.5860 0.0124 -0.8102
vn 0.5470 0.0266 -0.8367
vn 0.9429 0.0628 -0.3270
vn 0.9505 0.0295 -0.3094
vn 0.0011 0.0345 0.9994
vn -0.0014 0.0360 0.9993
vn -0.6004 -0.0028 0.7997
vn -0.5870 0.0210 0.8093
vn -0.9934 -0.0783 0.0837
vn -0.9914 0.0002 -0.1307
vn -0.5865 -0.0577 -0.8079
vn -0.8835 -0.0747 -0.4624
vn 0.3870 0.0248 -0.9218
vn 0.1690 0.0918 -0.9813
vn 0.8966 0.0958 -0.4324
vn 0.9180 0.0883 -0.3865
vn -0.0133 0.0374 0.9992
vn -0.1329 0.1167 0.9842
vn -0.6883 -0.0283 0.7249
vn -0.6503 -0.0256 0.7592
vn 0.9494 0.1074 0.2951
vn 0.9608 0.2030 0.1888
vn 0.5822 0.0971 0.8072
vn 0.5838 0.0885 0.8070
vn -0.6731 0.0619 -0.7369
vn -0.6245 0.0454 -0.7797
vn 0.4375 0.2613 0.8604
vn 0.9056 0.3834 0.1814
vn 0.5483 0.8309 0.0949
vn 0.0776 0.7617 0.6433
vn 0.6864 0.2851 -0.6690
vn 0.0524 0.0589 -0.9969
vn -0.0818 0.2836 -0.9554
vn 0.2157 0.7418 -0.6350
vn -0.4803 -0.0933 -0.8722
vn -0.9384 -0.1575 -0.3074
vn -0.9435 -0.1395 -0.3005
vn -0.7530 0.0699 -0.6542
vn -0.1060 0.9939 -0.0298
vn -0.6368 0.7563 -0.1501
vn -0.5643 0.7647 -0.3112
vn -0.0518 0.1581 -0.9861
vn -0.4222 0.2010 0.8839
vn -0.0619 0.0223 -0.9978
vn -0.0222 0.0082 -0.9997
vn -0.1462 -0.0250 -0.9889
vn -0.5912 0.0135 -0.8064
vn -0.0060 0.0090 -0.9999
vn -0.9512 0.0180 -0.3079
vn -0.0011 0.0115 0.9999
vn -0.5920 0.0169 0.8058
vn 0.5861 0.0070 0.8102
vn 0.5871 0.0036 -0.8095
vn 0.9510 0.0021 -0.3093
vn -0.9520 0.0183 0.3057
vn 0.9509 0.0024 0.3095
vn 0.2149 0.9322 0.2914
vn 0.1350 0.8193 -0.5573
vn -0.1370 0.4231 -0.8957
usemtl None
s 1
f 186/1/1 95/2/2 3/3/3 54/4/4
f 185/5/5 128/6/6 7/7/7 98/8/8
f 184/9/9 135/10/10 8/11/11 96/12/12
f 183/13/13 101/14/14 4/15/15 76/16/16
f 182/17/17 78/18/18 9/19/19 109/20/20
f 181/21/21 113/22/22 10/23/23 67/24/24
f 180/25/25 124/26/26 11/27/27 127/28/28
f 179/29/29 141/30/30 12/31/31 75/32/32
f 178/33/33 136/34/34 13/35/35 62/36/36
f 177/37/37 74/38/38 15/39/39 144/40/40
f 176/41/41 140/42/42 14/43/43 56/44/44
f 175/45/45 132/46/46 16/47/47 90/48/48
f 174/49/49 90/50/48 16/51/47 56/52/44
f 5/53/50 114/54/51 85/55/52
f 6/56/53 71/57/54 68/58/55
f 173/59/56 139/60/57 19/61/58 105/62/59
f 172/63/60 81/64/61 23/65/62 51/66/63
f 171/67/64 123/68/65 18/69/66 84/70/67
f 170/71/68 66/72/69 22/73/70 120/74/71
f 169/75/72 93/76/73 26/77/74 94/78/75
f 168/79/76 110/80/77 28/81/78 73/82/79
f 167/83/80 143/84/81 30/85/82 108/86/83
f 166/87/84 55/88/85 27/89/86 112/90/87
f 165/91/88 122/92/89 29/93/90 130/94/91
f 164/95/92 88/96/93 33/97/94 60/98/95
f 163/99/96 80/100/97 36/101/98 82/102/99
f 162/103/100 100/104/101 38/105/102 104/106/103
f 161/107/104 103/108/105 35/109/106 142/110/107
f 160/111/108 64/112/109 37/113/110 97/114/111
f 159/115/112 129/116/113 39/117/114 59/118/115
f 158/119/116 111/120/117 41/121/118 79/122/119
f 157/123/120 69/124/121 43/125/122 87/126/123
f 156/127/124 118/128/125 40/129/126 126/130/127
f 155/131/128 133/132/129 42/133/130 107/134/131
f 154/135/132 57/136/133 44/137/134 63/138/135
f 153/139/136 92/140/137 46/141/138 52/142/139
f 152/143/140 121/144/141 47/145/142 106/146/143
f 151/147/144 58/148/145 45/149/146 138/150/147
f 40/151/126 52/152/139 111/153/117
f 150/154/148 117/155/149 48/156/150 99/157/151
f 149/158/152 108/159/83 30/160/82 134/161/153
f 148/162/154 137/163/155 49/164/156 91/165/157
f 147/166/158 115/167/159 50/168/160 77/169/161
f 146/170/162 83/171/163 34/172/164 125/173/165
f 145/174/166 121/175/141 46/176/138 92/177/137
f 33/178/94 91/179/157 102/180/167
f 34/181/164 60/182/95 125/183/165
f 125/183/165 102/180/167 50/184/160
f 125/183/165 60/182/95 102/180/167
f 60/182/95 33/178/94 102/180/167
f 102/180/167 77/185/161 50/184/160
f 102/180/167 91/179/157 77/185/161
f 91/179/157 49/186/156 77/185/161
f 58/187/145 145/174/166 92/177/137 45/188/146
f 48/189/150 117/190/149 145/174/166 58/187/145
f 117/190/149 47/191/142 121/175/141 145/174/166
f 115/167/159 146/170/162 125/173/165 50/168/160
f 26/192/74 93/193/73 146/170/162 115/167/159
f 93/193/73 23/194/62 83/171/163 146/170/162
f 137/163/155 147/166/158 77/169/161 49/164/156
f 31/195/168 86/196/169 147/166/158 137/163/155
f 86/196/169 26/192/74 115/167/159 147/166/158
f 88/96/93 148/162/154 91/165/157 33/97/94
f 22/197/70 65/198/170 148/162/154 88/96/93
f 65/198/170 31/195/168 137/163/155 148/162/154
f 119/199/171 149/158/152 134/161/153 32/200/172
f 26/201/74 86/202/169 149/158/152 119/199/171
f 86/202/169 31/203/168 108/159/83 149/158/152
f 69/204/121 150/154/148 99/157/151 43/205/122
f 42/206/130 106/146/143 150/154/148 69/204/121
f 106/146/143 47/145/142 117/155/149 150/154/148
f 111/153/117 72/207/173 41/208/118
f 111/153/117 52/152/139 72/207/173
f 52/152/139 46/209/138 72/207/173
f 57/210/133 151/147/144 138/150/147 44/211/134
f 43/205/122 99/157/151 151/147/144 57/210/133
f 99/157/151 48/156/150 58/148/145 151/147/144
f 133/212/129 152/143/140 106/146/143 42/206/130
f 41/208/118 72/207/173 152/143/140 133/212/129
f 72/207/173 46/209/138 121/144/141 152/143/140
f 118/213/125 153/139/136 52/142/139 40/214/126
f 44/211/134 138/150/147 153/139/136 118/213/125
f 138/150/147 45/149/146 92/140/137 153/139/136
f 100/104/101 154/135/132 63/138/135 38/105/102
f 37/113/110 87/126/123 154/135/132 100/104/101
f 87/126/123 43/125/122 57/136/133 154/135/132
f 80/100/97 155/131/128 107/134/131 36/101/98
f 35/109/106 79/122/119 155/131/128 80/100/97
f 79/122/119 41/121/118 133/132/129 155/131/128
f 129/116/113 156/127/124 126/130/127 39/117/114
f 38/105/102 63/138/135 156/127/124 129/116/113
f 63/138/135 44/137/134 118/128/125 156/127/124
f 64/112/109 157/123/120 87/126/123 37/113/110
f 36/101/98 107/134/131 157/123/120 64/112/109
f 107/134/131 42/133/130 69/124/121 157/123/120
f 103/108/105 158/119/116 79/122/119 35/109/106
f 39/215/114 126/216/127 158/119/116 103/108/105
f 126/216/127 40/217/126 111/120/117 158/119/116
f 143/84/81 159/115/112 59/118/115 30/85/82
f 29/93/90 104/106/103 159/115/112 143/84/81
f 104/106/103 38/105/102 129/116/113 159/115/112
f 110/80/77 160/111/108 97/114/111 28/81/78
f 27/89/86 82/102/99 160/111/108 110/80/77
f 82/102/99 36/101/98 64/112/109 160/111/108
f 134/161/153 161/107/104 142/110/107 32/200/172
f 30/160/82 59/218/115 161/107/104 134/161/153
f 59/218/115 39/215/114 103/108/105 161/107/104
f 122/92/89 162/103/100 104/106/103 29/93/90
f 28/81/78 97/114/111 162/103/100 122/92/89
f 97/114/111 37/113/110 100/104/101 162/103/100
f 55/88/85 163/99/96 82/102/99 27/89/86
f 32/200/172 142/110/107 163/99/96 55/88/85
f 142/110/107 35/109/106 80/100/97 163/99/96
f 83/219/163 164/95/92 60/98/95 34/220/164
f 23/221/62 81/222/61 164/95/92 83/219/163
f 81/222/61 22/197/70 88/96/93 164/95/92
f 66/223/69 165/91/88 130/94/91 22/224/70
f 19/225/58 73/82/79 165/91/88 66/223/69
f 73/82/79 28/81/78 122/92/89 165/91/88
f 123/226/65 166/87/84 112/90/87 18/227/66
f 26/201/74 119/199/171 166/87/84 123/226/65
f 119/199/171 32/200/172 55/88/85 166/87/84
f 65/228/170 167/83/80 108/86/83 31/229/168
f 22/224/70 130/94/91 167/83/80 65/228/170
f 130/94/91 29/93/90 143/84/81 167/83/80
f 139/230/57 168/79/76 73/82/79 19/225/58
f 18/227/66 112/90/87 168/79/76 139/230/57
f 112/90/87 27/89/86 110/80/77 168/79/76
f 61/231/174 169/75/72 94/78/75 25/232/175
f 24/233/176 51/234/63 169/75/72 61/231/174
f 51/234/63 23/235/62 93/76/73 169/75/72
f 116/236/177 170/71/68 120/74/71 21/237/178
f 20/238/179 105/62/59 170/71/68 116/236/177
f 105/62/59 19/61/58 66/72/69 170/71/68
f 70/239/180 171/67/64 84/70/67 17/240/181
f 25/232/175 94/78/75 171/67/64 70/239/180
f 94/78/75 26/77/74 123/68/65 171/67/64
f 89/241/182 172/63/60 51/66/63 24/242/176
f 21/237/178 120/74/71 172/63/60 89/241/182
f 120/74/71 22/73/70 81/64/61 172/63/60
f 53/243/183 173/59/56 105/62/59 20/238/179
f 17/240/181 84/70/67 173/59/56 53/243/183
f 84/70/67 18/69/66 139/60/57 173/59/56
f 68/58/55 85/55/52 1/244/184
f 68/58/55 71/57/54 85/55/52
f 71/57/54 5/53/50 85/55/52
f 85/55/52 131/245/185 1/244/184
f 85/55/52 114/54/51 131/245/185
f 114/54/51 2/246/186 131/245/185
f 62/247/36 174/49/49 56/52/44 14/248/43
f 13/249/35 144/250/40 174/49/49 62/247/36
f 144/250/40 15/251/39 90/50/48 174/49/49
f 74/252/38 175/45/45 90/48/48 15/253/39
f 11/254/27 67/24/24 175/45/45 74/252/38
f 67/24/24 10/23/23 132/46/46 175/45/45
f 132/46/46 176/41/41 56/44/44 16/47/47
f 10/23/23 109/20/20 176/41/41 132/46/46
f 109/20/20 9/19/19 140/42/42 176/41/41
f 136/34/34 177/37/37 144/40/40 13/35/35
f 12/31/31 127/28/28 177/37/37 136/34/34
f 127/28/28 11/27/27 74/38/38 177/37/37
f 140/42/42 178/33/33 62/36/36 14/43/43
f 9/19/19 75/32/32 178/33/33 140/42/42
f 75/32/32 12/31/31 136/34/34 178/33/33
f 78/18/18 179/29/29 75/32/32 9/19/19
f 3/3/3 96/12/12 179/29/29 78/18/18
f 96/12/12 8/11/11 141/30/30 179/29/29
f 141/30/30 180/25/25 127/28/28 12/31/31
f 8/11/11 98/8/8 180/25/25 141/30/30
f 98/8/8 7/7/7 124/26/26 180/25/25
f 124/255/26 181/21/21 67/24/24 11/254/27
f 7/256/7 76/16/16 181/21/21 124/255/26
f 76/16/16 4/15/15 113/22/22 181/21/21
f 113/22/22 182/17/17 109/20/20 10/23/23
f 4/15/15 54/4/4 182/17/17 113/22/22
f 54/4/4 3/3/3 78/18/18 182/17/17
f 128/257/6 183/13/13 76/16/16 7/256/7
f 6/258/53 68/259/55 183/13/13 128/257/6
f 68/259/55 1/260/184 101/14/14 183/13/13
f 95/2/2 184/9/9 96/12/12 3/3/3
f 2/261/186 114/262/51 184/9/9 95/2/2
f 114/262/51 5/263/50 135/10/10 184/9/9
f 135/10/10 185/5/5 98/8/8 8/11/11
f 5/263/50 71/264/54 185/5/5 135/10/10
f 71/264/54 6/265/53 128/6/6 185/5/5
f 101/14/14 186/1/1 54/4/4 4/15/15
f 1/260/184 131/266/185 186/1/1 101/14/14
f 131/266/185 2/261/186 95/2/2 186/1/1
