# Blender v2.78 (sub 0) OBJ File: ''
# www.blender.org
mtllib Birch_Tree_NoLeaves_m_06.mtl
o Birch_Tree_NoLeaves_m_06
v 0.006860 0.054347 -0.118374
v -0.063285 1.122904 -0.098294
v 0.025600 1.147641 -0.032383
v 0.100239 0.274758 -0.037281
v 0.075060 0.054394 0.088289
v -0.007620 1.128885 0.074204
v -0.118571 1.114023 0.074166
v -0.071224 0.059649 0.093082
v -0.113279 0.059319 -0.036435
v -0.152739 1.108535 -0.032420
v 0.241887 0.345879 -0.025176
v 0.175177 0.422758 -0.069409
v -0.159434 2.537024 -0.020412
v -0.166382 2.410045 0.065933
v -0.271165 2.514503 0.062400
v -0.304092 2.503940 -0.028198
v -0.234118 2.518001 -0.080055
v -0.491749 4.035543 -0.048004
v -0.455117 4.042974 -0.020551
v -0.217452 2.711175 0.057633
v -0.100256 2.746385 0.207941
v -0.040166 2.702189 0.198306
v -0.528457 4.028099 -0.020791
v -0.470073 4.045932 0.022861
v -0.514435 4.030942 0.023241
v -0.876424 5.655845 -0.008392
v -0.903667 5.700742 -0.002518
v -0.907834 5.699897 -0.014966
v -0.897292 5.702034 -0.022537
v 0.549883 1.769105 -0.266776
v 0.490142 1.796512 -0.284378
v 0.119166 0.012684 -0.039351
v 0.264304 0.291818 -0.094696
v 0.573836 1.751635 -0.315434
v 0.174585 0.353081 -0.143810
v 0.504836 1.772646 -0.338955
v 0.651020 3.231587 -0.434317
v 0.696345 3.223160 -0.420746
v 0.680579 3.228651 -0.388984
v 0.640557 3.241470 -0.398379
v 0.733730 4.713403 -0.379521
v 0.738665 4.711096 -0.394645
v 0.757799 4.709421 -0.389580
v 0.750949 4.709822 -0.376254
v -0.053544 2.649619 0.260334
v -0.122967 2.685483 0.259714
v 0.018617 3.215214 0.585530
v 0.031092 3.233725 0.544104
v 0.073904 3.224510 0.544019
v 0.067730 3.200058 0.592416
v 0.034980 4.005467 0.739999
v 0.062551 4.001647 0.740830
v 0.058930 3.988935 0.773115
v 0.027180 3.996490 0.767351
v -0.069126 4.938303 0.836775
v -0.063238 4.930630 0.818269
v -0.047313 4.941451 0.820422
v -0.047403 4.919894 0.840228
v -0.902440 5.726202 -0.005271
v -0.043967 2.674172 0.229177
v 0.643894 3.236990 -0.416854
v -0.898991 5.726901 -0.016101
v -0.153176 2.441522 0.024319
v 0.038054 3.609485 0.647606
v -0.716650 4.908649 0.009577
v -0.672026 4.857194 0.006117
v 0.718845 4.009389 -0.384894
v 0.570152 2.516175 -0.346522
v 0.062039 3.995047 0.757119
v -0.294128 2.505936 0.014883
v 0.132362 0.302163 -0.048813
v -0.725411 4.906873 -0.017695
v 0.007867 4.487436 0.784215
v 0.674264 3.227044 -0.429035
v 0.519130 1.783664 -0.273299
v 0.171313 0.390970 -0.108606
v -0.110665 1.115272 -0.069060
v 0.068277 3.585672 0.688426
v -0.069439 2.726761 0.200553
v -0.003178 0.060183 0.100758
v 0.659987 3.235390 -0.392179
v -0.139947 1.110555 0.022287
v 0.004891 4.477106 0.810915
v -0.091039 1.788604 0.065608
v 0.033096 0.565365 0.085137
v 0.749349 4.731544 -0.391708
v 0.340169 1.039548 -0.239732
v 0.540219 1.761285 -0.329472
v 0.185311 0.119830 -0.062314
v -0.059601 4.943810 0.839560
v 0.640440 2.486206 -0.373642
v -0.092056 0.550882 0.085118
v -0.474240 4.099569 0.001380
v -0.049298 2.937802 0.422966
v -0.116082 2.545513 0.155776
v -0.336768 3.341204 0.038074
v -0.411089 3.258387 -0.024539
v -0.304580 3.282985 -0.024610
v 0.065717 0.680273 -0.034500
v 0.068514 0.014629 -0.085149
v -0.391187 3.265419 0.039595
v 0.419611 0.996708 -0.203899
v 0.013282 1.138987 0.022325
v 0.330795 1.082847 -0.174965
v -0.357563 3.269243 -0.064220
v 0.055058 0.176529 -0.083136
v 0.009831 2.912402 0.426749
v 0.256664 0.315798 -0.057939
v -0.197029 2.525459 -0.057078
v 0.052901 3.230017 0.542071
v 0.620314 2.496859 -0.333426
v -0.911508 5.724363 -0.008797
v 0.029782 4.001223 0.753528
v 0.042806 3.992245 0.771541
v -0.213748 2.429342 0.069210
v 0.042771 3.206737 0.590963
v -0.032456 2.975728 0.374923
v -0.144744 1.812323 -0.089413
v -0.029622 0.560715 -0.109090
v 0.690356 3.225443 -0.404359
v -0.067799 4.949369 0.828192
v -0.064631 1.825562 -0.030346
v -0.114499 2.717666 0.233970
v -0.702613 4.911496 -0.034505
v 0.730000 4.006732 -0.407099
v 0.049015 4.004025 0.739107
v 0.105758 0.014401 0.026710
v -0.271206 2.510544 -0.057078
v -0.014889 4.490517 0.783484
v 0.028062 3.596617 0.681903
v 0.690612 4.017283 -0.391042
v -0.523198 4.029165 0.001806
v -0.063095 1.121454 0.078762
v 0.073033 3.603711 0.648137
v -0.511186 4.031602 -0.035918
v 0.755527 4.730903 -0.382467
v -0.492254 4.038437 0.024930
v -0.196581 2.589513 0.156965
v 0.583134 2.500040 -0.391808
v 0.564717 1.759366 -0.290229
v -0.062740 0.059751 -0.082667
v 0.072844 3.211789 0.568382
v -0.248695 2.647867 0.063790
v 0.088158 0.158140 -0.128070
v -0.224667 1.797634 -0.030365
v 0.743401 4.732833 -0.377391
v 0.156552 0.154272 0.035484
v -0.099551 0.059484 0.030696
v 0.219991 0.319741 -0.122406
v -0.156605 2.691117 0.126295
v -0.193948 1.801794 0.065195
v -0.189960 2.659781 0.020248
v 0.207986 0.387027 -0.044139
v 0.737223 4.733474 -0.386633
v 0.698218 4.011491 -0.416230
v -0.472351 4.039478 -0.035798
v -0.021317 4.483225 0.806094
v -0.099559 2.609192 0.085039
v 0.091976 0.176558 0.028462
v -0.049159 4.945318 0.831732
v 0.494632 1.785583 -0.312542
v -0.016190 1.135720 -0.069041
v -0.062726 4.980033 0.831613
v -0.089027 2.665077 0.262594
v -0.130819 0.548008 -0.034920
v 0.022828 3.224965 0.564652
v 0.396672 1.033998 -0.145835
v -0.908359 5.725001 -0.018687
v -0.057357 4.950876 0.820363
v -0.665849 4.858447 -0.013277
v 0.019557 2.950765 0.371642
v -0.008421 4.479776 0.809595
v -0.003303 4.489366 0.782759
v 0.007462 4.482068 0.797688
v -0.019185 4.487075 0.794666
v 0.072317 3.594322 0.668437
v 0.031395 3.603421 0.664599
v 0.047843 3.590461 0.686813
v 0.055869 3.607281 0.646223
v -0.005863 2.964933 0.371001
v -0.020321 2.923415 0.427138
v 0.017151 2.930470 0.399206
v -0.043335 2.957878 0.398933
v -0.179634 2.643099 0.142568
v -0.364249 3.304753 0.041563
v -0.157581 2.563859 0.158613
v -0.104779 2.574569 0.119469
v 0.749644 4.795948 -0.383200
v 0.704314 4.013524 -0.386920
v 0.725749 4.007782 -0.395658
v 0.714523 4.008925 -0.412712
v 0.693088 4.014667 -0.403974
v 0.632753 2.490800 -0.352843
v 0.574267 2.508841 -0.369856
v 0.332269 1.063225 -0.208785
v 0.380605 1.016346 -0.224531
v 0.594501 2.507110 -0.338084
v 0.612519 2.492531 -0.384615
v 0.107578 0.234268 -0.091759
v 0.136393 0.135040 -0.099106
v 0.411354 1.013326 -0.173431
v 0.173614 0.132934 -0.010097
v 0.054148 0.625773 0.026925
v 0.363019 1.060204 -0.157685
v -0.922822 5.797701 -0.012255
v -0.714672 4.909051 -0.027114
v -0.702106 4.911599 0.009403
v -0.690946 4.913863 -0.025641
v -0.722148 4.907535 -0.003635
v -0.403442 3.259938 0.008417
v -0.318370 3.314059 0.007551
v -0.385918 3.263492 -0.046615
v -0.126833 2.653809 0.103425
v -0.329208 3.274994 -0.046615
v -0.187082 1.804541 -0.063216
v -0.142398 1.794474 0.069523
v -0.102406 1.820104 -0.063216
v -0.213248 1.799732 0.018676
v -0.073894 1.807065 0.018911
v -0.116321 0.549083 0.026696
v 0.144798 0.232163 -0.002750
v -0.083097 0.551546 -0.076194
v -0.029338 0.555532 0.090285
v 0.020924 0.623309 -0.075965
vt 0.0761 0.2015
vt 0.0809 0.2923
vt 0.0700 0.2935
vt 0.0645 0.2138
vt 0.1486 0.1887
vt 0.1461 0.2908
vt 0.1353 0.2897
vt 0.1364 0.1884
vt 0.0999 0.1888
vt 0.1025 0.2903
vt 0.0917 0.2912
vt 0.0878 0.1892
vt 0.0646 0.5700
vt 0.0712 0.5575
vt 0.0737 0.5832
vt 0.0666 0.5877
vt 0.1242 0.1884
vt 0.1243 0.2895
vt 0.1134 0.2893
vt 0.1120 0.1884
vt 0.1635 0.4190
vt 0.1591 0.5453
vt 0.1506 0.5382
vt 0.1538 0.4151
vt 0.1245 0.4196
vt 0.1246 0.5496
vt 0.1160 0.5495
vt 0.1147 0.4194
vt 0.0855 0.4220
vt 0.0902 0.5517
vt 0.0816 0.5525
vt 0.0758 0.4230
vt 0.1440 0.4174
vt 0.1419 0.5440
vt 0.1332 0.5497
vt 0.1343 0.4197
vt 0.1050 0.4202
vt 0.1074 0.5502
vt 0.0988 0.5508
vt 0.0953 0.4210
vt 0.0545 0.7722
vt 0.0619 0.9310
vt 0.0584 0.9312
vt 0.0494 0.7728
vt 0.1717 0.6601
vt 0.1795 0.6637
vt 0.1788 0.6784
vt 0.1725 0.6780
vt 0.0649 0.7713
vt 0.0690 0.9307
vt 0.0655 0.9308
vt 0.0597 0.7717
vt 0.0957 0.7791
vt 0.0905 0.9306
vt 0.0869 0.9304
vt 0.0903 0.7862
vt 0.0752 0.7709
vt 0.0762 0.9305
vt 0.0726 0.9306
vt 0.0700 0.7709
vt 0.1478 0.6377
vt 0.1427 0.8073
vt 0.1433 0.6375
vt 0.1270 0.8073
vt 0.1288 0.9772
vt 0.1259 0.9773
vt 0.1233 0.8074
vt 0.1121 0.8076
vt 0.1172 0.9772
vt 0.1142 0.9773
vt 0.1084 0.8077
vt 0.1344 0.8072
vt 0.1346 0.9770
vt 0.1317 0.9771
vt 0.1307 0.8072
vt 0.1196 0.8074
vt 0.1230 0.9772
vt 0.1201 0.9772
vt 0.1159 0.8074
vt 0.0267 0.4957
vt 0.0265 0.4947
vt 0.0277 0.4945
vt 0.0277 0.4956
vt 0.0670 0.6977
vt 0.0731 0.6947
vt 0.0725 0.8063
vt 0.0674 0.8077
vt 0.1723 0.2014
vt 0.1840 0.2138
vt 0.1787 0.2934
vt 0.1679 0.2926
vt 0.0796 0.5583
vt 0.0880 0.5590
vt 0.0873 0.5785
vt 0.0805 0.5809
vt 0.0787 0.6934
vt 0.0844 0.6920
vt 0.0814 0.8056
vt 0.0769 0.8059
vt 0.0977 0.5590
vt 0.1073 0.5590
vt 0.1056 0.5845
vt 0.0965 0.5815
vt 0.1137 0.5715
vt 0.1201 0.5839
vt 0.1187 0.5937
vt 0.1121 0.5891
vt 0.0827 0.8343
vt 0.0875 0.8349
vt 0.0876 0.9412
vt 0.0838 0.9409
vt 0.0665 0.8360
vt 0.0706 0.8347
vt 0.0743 0.9411
vt 0.0711 0.9420
vt 0.0918 0.6941
vt 0.0993 0.6962
vt 0.0930 0.8078
vt 0.0872 0.8067
vt 0.1049 0.6991
vt 0.1106 0.7021
vt 0.1024 0.8106
vt 0.0977 0.8092
vt 0.0915 0.8357
vt 0.0953 0.8367
vt 0.0937 0.9425
vt 0.0906 0.9419
vt 0.0743 0.8342
vt 0.0779 0.8338
vt 0.0800 0.9405
vt 0.0772 0.9408
vt 0.0308 0.8433
vt 0.0333 0.8437
vt 0.0326 0.9585
vt 0.0306 0.9583
vt 0.0254 0.8426
vt 0.0283 0.8428
vt 0.0286 0.9580
vt 0.0265 0.9580
vt 0.0200 0.8426
vt 0.0224 0.8424
vt 0.0245 0.9580
vt 0.0225 0.9580
vt 0.0150 0.8434
vt 0.0177 0.8428
vt 0.0206 0.9580
vt 0.0186 0.9584
vt 0.0420 0.5289
vt 0.0406 0.5288
vt 0.0405 0.5276
vt 0.0419 0.5277
vt 0.1565 0.6578
vt 0.1639 0.6565
vt 0.1663 0.6776
vt 0.1596 0.6783
vt 0.2025 0.6579
vt 0.2093 0.6592
vt 0.2060 0.6787
vt 0.1996 0.6781
vt 0.0853 0.7785
vt 0.0834 0.9304
vt 0.1876 0.6601
vt 0.1958 0.6565
vt 0.1933 0.6776
vt 0.1860 0.6780
vt 0.1850 0.7285
vt 0.1904 0.7283
vt 0.1876 0.7790
vt 0.1840 0.7790
vt 0.1644 0.7285
vt 0.1700 0.7282
vt 0.1737 0.7788
vt 0.1693 0.7788
vt 0.1957 0.7285
vt 0.2009 0.7286
vt 0.1959 0.7786
vt 0.1917 0.7788
vt 0.1748 0.7285
vt 0.1796 0.7287
vt 0.1804 0.7790
vt 0.1770 0.7789
vt 0.1781 0.8385
vt 0.1808 0.8387
vt 0.1812 0.8984
vt 0.1792 0.8981
vt 0.1900 0.8380
vt 0.1933 0.8376
vt 0.1907 0.8966
vt 0.1882 0.8972
vt 0.1837 0.8385
vt 0.1867 0.8384
vt 0.1857 0.8978
vt 0.1834 0.8981
vt 0.1718 0.8380
vt 0.1754 0.8383
vt 0.1771 0.8977
vt 0.1744 0.8972
vt 0.1578 0.9222
vt 0.1596 0.9219
vt 0.1592 0.9941
vt 0.1577 0.9943
vt 0.1504 0.9213
vt 0.1526 0.9218
vt 0.1536 0.9940
vt 0.1519 0.9936
vt 0.1542 0.9221
vt 0.1559 0.9225
vt 0.1563 0.9946
vt 0.1549 0.9943
vt 0.1617 0.9213
vt 0.1638 0.9208
vt 0.1625 0.9930
vt 0.1608 0.9935
vt 0.0136 0.5437
vt 0.0122 0.5437
vt 0.0118 0.5421
vt 0.0136 0.5399
vt 0.0136 0.5418
vt 0.0118 0.5402
vt 0.0101 0.5405
vt 0.0104 0.5421
vt 0.0107 0.5436
vt 0.1601 0.8497
vt 0.1626 0.8491
vt 0.1652 0.8485
vt 0.1515 0.8496
vt 0.1535 0.8500
vt 0.1556 0.8503
vt 0.1481 0.9208
vt 0.1501 0.9931
vt 0.1462 0.8486
vt 0.1488 0.8491
vt 0.1578 0.8500
vt 0.1682 0.8378
vt 0.1717 0.8967
vt 0.1648 0.7788
vt 0.1588 0.7289
vt 0.1529 0.6789
vt 0.1802 0.6490
vt 0.1892 0.6422
vt 0.1983 0.6354
vt 0.0804 0.7709
vt 0.0798 0.9304
vt 0.0810 0.6113
vt 0.0873 0.6266
vt 0.0937 0.6420
vt 0.2054 0.6375
vt 0.2126 0.6397
vt 0.1492 0.6592
vt 0.1455 0.6394
vt 0.1535 0.6374
vt 0.1615 0.6354
vt 0.0434 0.5289
vt 0.0432 0.5278
vt 0.0437 0.5301
vt 0.0422 0.5301
vt 0.0407 0.5301
vt 0.0124 0.8440
vt 0.0166 0.9587
vt 0.0081 0.7294
vt 0.0114 0.7285
vt 0.0147 0.7275
vt 0.0175 0.7272
vt 0.0203 0.7268
vt 0.0242 0.7272
vt 0.0280 0.7276
vt 0.0310 0.7283
vt 0.0340 0.7289
vt 0.0670 0.7283
vt 0.0714 0.7276
vt 0.0758 0.7270
vt 0.0875 0.7285
vt 0.0923 0.7297
vt 0.0970 0.7308
vt 0.0623 0.8374
vt 0.0678 0.9430
vt 0.0569 0.7317
vt 0.0619 0.7300
vt 0.0817 0.7278
vt 0.1091 0.5336
vt 0.1153 0.5539
vt 0.1215 0.5742
vt 0.0887 0.5396
vt 0.0989 0.5366
vt 0.0686 0.5318
vt 0.0786 0.5357
vt 0.1608 0.1891
vt 0.1570 0.2919
vt 0.1645 0.0863
vt 0.1768 0.1102
vt 0.1892 0.1341
vt 0.0609 0.7007
vt 0.0623 0.8092
vt 0.0594 0.5923
vt 0.0268 0.4967
vt 0.0277 0.4968
vt 0.0258 0.4967
vt 0.0256 0.4958
vt 0.0254 0.4949
vt 0.1161 0.6376
vt 0.1116 0.6377
vt 0.1207 0.6375
vt 0.1343 0.6373
vt 0.1297 0.6373
vt 0.1388 0.6374
vt 0.1382 0.8072
vt 0.1376 0.9769
vt 0.1071 0.6379
vt 0.1026 0.6381
vt 0.1252 0.6374
vt 0.0742 0.6112
vt 0.0674 0.6111
vt 0.1010 0.6276
vt 0.1082 0.6132
vt 0.1011 0.7720
vt 0.0940 0.9308
vt 0.0606 0.6118
vt 0.0539 0.6125
vt 0.1709 0.6422
vt 0.0471 0.6135
vt 0.0403 0.6144
vt 0.1732 0.4229
vt 0.1676 0.5524
vt 0.1242 0.0873
vt 0.1107 0.0876
vt 0.1376 0.0871
vt 0.0580 0.5825
vt 0.0567 0.5728
vt 0.0626 0.5523
vt 0.0972 0.0874
vt 0.0838 0.0872
vt 0.1511 0.0867
vt 0.0714 0.1106
vt 0.0590 0.1340
vn 0.5764 0.0545 -0.8154
vn 0.5811 0.0665 -0.8111
vn 0.9464 0.1057 -0.3052
vn 0.9484 0.0821 -0.3063
vn 0.0058 0.0212 0.9998
vn -0.0052 0.0164 0.9999
vn -0.5815 -0.0348 0.8128
vn -0.5862 -0.0105 0.8101
vn -0.5839 -0.0177 -0.8117
vn -0.5872 -0.0383 -0.8085
vn 0.0046 0.0157 -0.9999
vn -0.0031 0.0210 -0.9998
vn -0.1670 0.4427 0.8810
vn 0.5289 0.0593 0.8466
vn 0.4435 0.0843 0.8923
vn -0.3215 0.2907 0.9012
vn -0.9508 -0.0349 0.3079
vn -0.9488 -0.0682 0.3085
vn -0.9480 -0.0660 -0.3114
vn -0.9506 -0.0333 -0.3087
vn 0.9467 0.1211 0.2985
vn 0.9944 -0.0568 0.0892
vn 0.6010 -0.1878 0.7768
vn 0.5841 0.0797 0.8077
vn -0.9430 -0.1018 0.3168
vn -0.9375 -0.1188 0.3271
vn -0.9432 -0.1184 -0.3103
vn -0.9456 -0.1015 -0.3090
vn 0.5862 0.0837 -0.8058
vn 0.5899 0.1004 -0.8012
vn 0.8360 0.0939 -0.5406
vn 0.9394 0.1260 -0.3189
vn -0.0093 0.0086 0.9999
vn -0.1655 -0.2016 0.9654
vn -0.7406 -0.1325 0.6588
vn -0.5858 -0.0587 0.8084
vn -0.5858 -0.0604 -0.8082
vn -0.5840 -0.0701 -0.8087
vn 0.0030 0.0172 -0.9998
vn -0.0012 0.0129 -0.9999
vn 0.5824 0.1167 -0.8044
vn 0.5959 0.1413 -0.7905
vn 0.9400 0.2044 -0.2732
vn 0.9305 0.1840 -0.3167
vn 0.5329 0.5917 -0.6049
vn -0.2380 0.9636 -0.1216
vn -0.4528 0.7243 -0.5199
vn 0.3117 0.5751 -0.7564
vn -0.5828 -0.0807 -0.8086
vn -0.5770 -0.1041 -0.8101
vn 0.0173 0.0226 -0.9996
vn -0.0017 0.0208 -0.9998
vn 0.9302 0.1865 0.3161
vn 0.9249 0.2313 0.3016
vn 0.6099 0.1390 0.7802
vn 0.5874 0.1316 0.7986
vn -0.9375 -0.1386 0.3191
vn -0.9344 -0.1760 0.3097
vn -0.9339 -0.1742 -0.3122
vn -0.9411 -0.1369 -0.3093
vn 0.9424 0.2472 -0.2254
vn -0.9263 -0.2104 0.3127
vn -0.9026 -0.0934 0.4203
vn -0.9285 -0.2059 -0.3089
vn -0.9276 -0.2093 -0.3093
vn 0.7017 0.1868 -0.6875
vn 0.8210 0.3266 -0.4682
vn 0.9162 0.2556 0.3088
vn 0.1741 0.0607 0.9829
vn 0.3918 0.2235 0.8925
vn -0.4935 -0.0948 0.8645
vn -0.5285 -0.1092 0.8419
vn -0.5710 -0.1258 -0.8113
vn -0.4942 0.0048 -0.8693
vn 0.0938 0.0467 -0.9945
vn 0.0530 0.0292 -0.9982
vn -0.2283 0.9736 0.0005
vn -0.2657 0.2137 0.9401
vn 0.4023 0.0678 0.9130
vn 0.4311 0.0551 0.9006
vn -0.2265 0.1563 0.9614
vn 0.9425 0.0786 0.3249
vn 0.9434 0.1014 0.3157
vn 0.8518 -0.3395 0.3989
vn 0.8303 -0.4682 -0.3024
vn 0.8693 -0.3578 -0.3411
vn 0.8884 -0.2092 0.4087
vn 0.8951 -0.1223 0.4287
vn 0.8879 -0.2472 -0.3881
vn 0.8973 -0.1830 -0.4018
vn 0.8915 -0.0790 0.4461
vn 0.4135 -0.3345 -0.8468
vn -0.1843 0.0718 -0.9802
vn -0.3962 0.0421 -0.9172
vn 0.3644 -0.2491 -0.8973
vn -0.7922 0.4415 -0.4213
vn -0.7620 0.5123 0.3961
vn -0.8216 0.3238 0.4692
vn -0.9388 0.2671 -0.2176
vn 0.2832 -0.0908 -0.9547
vn -0.4520 -0.0094 -0.8920
vn -0.4405 0.0196 -0.8976
vn 0.2816 -0.0382 -0.9588
vn -0.2177 0.1007 0.9708
vn 0.4169 0.0426 0.9080
vn 0.4224 0.0087 0.9064
vn -0.2161 0.0485 0.9752
vn 0.3122 -0.2029 -0.9281
vn -0.4609 -0.0153 -0.8873
vn -0.4302 -0.0159 -0.9026
vn 0.2914 -0.1477 -0.9451
vn -0.9495 0.1831 -0.2548
vn -0.8322 0.2682 0.4852
vn -0.8463 0.1922 0.4968
vn -0.9474 0.1258 -0.2944
vn -0.9524 0.0773 -0.2950
vn -0.8529 0.1276 0.5062
vn -0.8626 0.0798 0.4996
vn -0.9518 0.0641 -0.3000
vn 0.8927 -0.0418 0.4487
vn 0.9056 -0.1055 -0.4108
vn 0.9031 -0.0653 -0.4244
vn 0.8931 -0.0470 0.4475
vn -0.9520 0.0657 -0.2991
vn -0.8582 0.0508 0.5109
vn -0.8566 0.0617 0.5122
vn -0.9261 0.2409 -0.2903
vn 0.2767 0.0100 -0.9609
vn -0.4536 0.0511 -0.8897
vn -0.4585 0.0687 -0.8860
vn 0.3017 0.1554 -0.9407
vn 0.8921 -0.0456 0.4495
vn 0.9085 -0.0252 -0.4171
vn 0.9090 -0.0093 -0.4166
vn 0.9458 0.1227 0.3007
vn -0.2137 0.0019 0.9769
vn 0.4176 -0.0273 0.9082
vn 0.4215 -0.0182 0.9067
vn -0.2602 0.1420 0.9551
vn 0.0707 0.9973 0.0187
vn 0.9306 -0.3313 -0.1558
vn 0.8613 0.1164 -0.4946
vn 0.8553 0.1242 -0.5030
vn 0.9443 -0.3229 -0.0638
vn -0.3256 -0.5086 0.7971
vn 0.5091 -0.6728 0.5368
vn 0.5214 -0.6529 0.5494
vn -0.2711 -0.5283 0.8046
vn -0.0039 0.0271 0.9996
vn 0.0276 0.0269 0.9993
vn -0.8092 0.3875 0.4416
vn -0.7020 -0.1090 0.7038
vn -0.7630 -0.1271 0.6338
vn -0.9154 0.3905 0.0980
vn -0.9459 0.3128 -0.0862
vn -0.8334 -0.1074 0.5421
vn -0.8113 -0.1217 0.5718
vn -0.9643 0.1960 -0.1783
vn 0.9746 -0.2233 0.0171
vn 0.8157 0.1879 -0.5471
vn 0.8262 0.1688 -0.5375
vn 0.9900 -0.1208 0.0732
vn -0.2505 -0.4572 0.8534
vn 0.5519 -0.5180 0.6535
vn 0.5739 -0.3615 0.7348
vn -0.2255 -0.3414 0.9125
vn 0.1931 0.5185 -0.8330
vn -0.5272 0.5702 -0.6300
vn -0.5772 0.3843 -0.7205
vn 0.1138 0.3918 -0.9130
vn 0.0586 0.2469 -0.9673
vn -0.5895 0.2005 -0.7825
vn -0.5879 0.0887 -0.8041
vn 0.0545 0.1617 -0.9853
vn -0.2121 -0.2192 0.9523
vn 0.5863 -0.1775 0.7904
vn 0.5824 -0.0877 0.8082
vn -0.2053 -0.1505 0.9671
vn -0.9649 0.0704 -0.2528
vn -0.8497 -0.1087 0.5159
vn -0.8366 -0.1113 0.5364
vn -0.9617 -0.0096 -0.2739
vn 0.9935 -0.0138 0.1131
vn 0.7785 0.1669 -0.6050
vn 0.7937 0.1599 -0.5870
vn 0.9897 0.0487 0.1346
vn -0.9537 -0.0757 -0.2910
vn -0.8516 -0.1231 0.5096
vn -0.8529 -0.0322 0.5212
vn -0.9063 0.1519 -0.3945
vn 0.9845 0.1037 0.1416
vn 0.7749 0.1442 -0.6154
vn 0.7654 0.2293 -0.6013
vn 0.8608 0.2816 0.4239
vn 0.0486 0.0903 -0.9947
vn -0.5794 0.0073 -0.8150
vn -0.5809 0.0335 -0.8133
vn -0.1109 0.3000 -0.9475
vn -0.2100 -0.0926 0.9733
vn 0.5751 0.0065 0.8181
vn 0.5685 0.0467 0.8214
vn 0.0808 0.1639 0.9832
vn -0.1139 0.9912 0.0682
vn 0.4675 0.4543 0.7583
vn -0.4174 0.1728 0.8921
vn -0.5850 -0.0707 0.8079
vn -0.5649 -0.0942 0.8197
vn -0.0665 -0.0810 -0.9945
vn -0.0634 0.3315 -0.9413
vn 0.5898 0.7961 -0.1354
vn 0.8113 -0.5118 -0.2826
vn 0.4267 -0.3713 -0.8247
vn 0.5296 -0.0482 0.8469
vn 0.8301 -0.3814 0.4068
vn 0.5813 0.0578 0.8117
vn 0.5865 0.0680 0.8071
vn 0.5684 0.3213 0.7575
vn 0.6344 0.1747 0.7530
vn 0.9072 0.4004 -0.1290
vn -0.9504 -0.0321 0.3093
vn -0.9495 -0.0308 -0.3123
vn -0.5783 -0.0089 0.8158
vn -0.5749 -0.0167 -0.8180
vn 0.0186 0.0182 0.9997
usemtl None
s 1
f 224/1/1 162/2/2 3/3/3 99/4/4
f 223/5/5 133/6/6 7/7/7 92/8/8
f 222/9/9 77/10/10 2/11/11 119/12/12
f 221/13/13 147/14/14 11/15/15 153/16/16
f 220/17/17 82/18/18 10/19/19 165/20/20
f 219/21/21 63/22/22 14/23/23 84/24/24
f 218/25/25 70/26/26 16/27/27 145/28/28
f 217/29/29 109/30/30 13/31/31 122/32/32
f 216/33/33 115/34/34 15/35/35 151/36/36
f 215/37/37 128/38/38 17/39/39 118/40/40
f 214/41/41 156/42/42 19/43/43 98/44/44
f 213/45/45 150/46/46 21/47/47 79/48/48
f 212/49/49 135/50/50 18/51/51 105/52/52
f 211/53/53 93/54/54 24/55/55 96/56/56
f 210/57/57 132/58/58 23/59/59 97/60/60
f 19/61/43 170/62/61 93/63/54
f 209/64/62 112/65/63 28/66/64 72/67/65
f 208/68/66 62/69/67 26/70/68 170/71/61
f 207/72/69 59/73/70 27/74/71 65/75/72
f 206/76/73 168/77/74 29/78/75 124/79/76
f 205/80/77 59/81/70 26/82/68 62/83/67
f 204/84/78 167/85/79 30/86/80 75/87/81
f 203/88/82 99/89/4 3/90/3 103/91/83
f 202/92/84 89/93/85 33/94/86 108/95/87
f 201/96/88 102/97/89 34/98/90 140/99/91
f 200/100/92 144/101/93 35/102/94 149/103/95
f 199/104/96 71/105/97 12/106/98 76/107/99
f 198/108/100 139/109/101 37/110/102 74/111/103
f 197/112/104 111/113/105 39/114/106 81/115/107
f 196/116/108 87/117/109 36/118/110 88/119/111
f 195/120/112 104/121/113 31/122/114 161/123/115
f 194/124/116 68/125/117 40/126/118 61/127/119
f 193/128/120 91/129/121 38/130/122 120/131/123
f 192/132/124 131/133/125 41/134/126 154/135/127
f 191/136/128 155/137/129 42/138/130 86/139/131
f 190/140/132 125/141/133 43/142/134 136/143/135
f 189/144/136 67/145/137 44/146/138 146/147/139
f 188/148/140 154/149/127 41/150/126 146/151/139
f 187/152/141 158/153/142 22/154/143 60/155/144
f 186/156/145 95/157/146 45/158/147 164/159/148
f 185/160/149 96/56/56 24/55/55 137/161/150
f 184/162/151 138/163/152 46/164/153 123/165/154
f 183/166/155 94/167/156 47/168/157 166/169/158
f 182/170/159 171/171/160 49/172/161 142/173/162
f 181/174/163 107/175/164 50/176/165 116/177/166
f 180/178/167 117/179/168 48/180/169 110/181/170
f 179/182/171 64/183/172 51/184/173 126/185/174
f 178/186/175 78/187/176 53/188/177 114/189/178
f 177/190/179 130/191/180 54/192/181 113/193/182
f 176/194/183 134/195/184 52/196/185 69/197/186
f 175/198/187 157/199/188 55/200/189 121/201/190
f 174/202/191 73/203/192 57/204/193 160/205/194
f 173/206/195 129/207/196 56/208/197 169/209/198
f 172/210/199 83/211/200 58/212/201 90/213/202
f 57/214/193 169/215/198 163/216/203
f 58/217/201 160/218/194 90/219/202
f 90/219/202 163/216/203 55/220/189
f 90/219/202 160/218/194 163/216/203
f 160/218/194 57/214/193 163/216/203
f 163/216/203 121/221/190 55/220/189
f 163/216/203 169/215/198 121/221/190
f 169/215/198 56/222/197 121/221/190
f 157/199/188 172/210/199 90/213/202 55/200/189
f 54/223/181 114/224/178 172/210/199 157/199/188
f 114/224/178 53/225/177 83/211/200 172/210/199
f 73/203/192 173/206/195 169/209/198 57/204/193
f 52/226/185 126/227/174 173/206/195 73/203/192
f 126/227/174 51/228/173 129/207/196 173/206/195
f 83/229/200 174/202/191 160/205/194 58/230/201
f 53/231/177 69/232/186 174/202/191 83/229/200
f 69/232/186 52/226/185 73/203/192 174/202/191
f 129/207/196 175/198/187 121/201/190 56/208/197
f 51/228/173 113/233/182 175/198/187 129/207/196
f 113/233/182 54/223/181 157/199/188 175/198/187
f 78/234/176 176/194/183 69/197/186 53/235/177
f 50/236/165 142/173/162 176/194/183 78/234/176
f 142/173/162 49/172/161 134/195/184 176/194/183
f 64/183/172 177/190/179 113/193/182 51/184/173
f 48/180/169 166/169/158 177/190/179 64/183/172
f 166/169/158 47/168/157 130/191/180 177/190/179
f 130/191/180 178/186/175 114/189/178 54/192/181
f 47/168/157 116/177/166 178/186/175 130/191/180
f 116/177/166 50/176/165 78/187/176 178/186/175
f 134/195/184 179/182/171 126/185/174 52/196/185
f 49/172/161 110/181/170 179/182/171 134/195/184
f 110/181/170 48/180/169 64/183/172 179/182/171
f 171/171/160 180/178/167 110/181/170 49/172/161
f 22/154/143 79/48/48 180/178/167 171/171/160
f 79/48/48 21/47/47 117/179/168 180/178/167
f 94/167/156 181/174/163 116/177/166 47/168/157
f 46/164/153 164/159/148 181/174/163 94/167/156
f 164/159/148 45/158/147 107/175/164 181/174/163
f 107/237/164 182/170/159 142/173/162 50/236/165
f 45/238/147 60/155/144 182/170/159 107/237/164
f 60/155/144 22/154/143 171/171/160 182/170/159
f 117/179/168 183/166/155 166/169/158 48/180/169
f 21/47/47 123/165/154 183/166/155 117/179/168
f 123/165/154 46/164/153 94/167/156 183/166/155
f 150/46/46 184/162/151 123/165/154 21/47/47
f 20/239/204 143/240/205 184/162/151 150/46/46
f 143/240/205 15/241/35 138/163/152 184/162/151
f 101/242/206 185/160/149 137/161/150 25/243/207
f 15/244/35 143/245/205 185/160/149 101/242/206
f 143/245/205 20/246/204 96/56/56 185/160/149
f 138/163/152 186/156/145 164/159/148 46/164/153
f 15/241/35 115/247/34 186/156/145 138/163/152
f 115/247/34 14/248/23 95/157/146 186/156/145
f 95/249/146 187/152/141 60/155/144 45/238/147
f 14/250/23 63/251/22 187/152/141 95/249/146
f 63/251/22 13/252/31 158/153/142 187/152/141
f 136/253/135 188/148/140 146/151/139 44/254/138
f 43/255/134 86/256/131 188/148/140 136/253/135
f 86/256/131 42/257/130 154/149/127 188/148/140
f 131/258/125 189/144/136 146/147/139 41/259/126
f 40/260/118 81/261/107 189/144/136 131/258/125
f 81/261/107 39/262/106 67/145/137 189/144/136
f 67/145/137 190/140/132 136/143/135 44/146/138
f 39/262/106 120/263/123 190/140/132 67/145/137
f 120/263/123 38/264/122 125/141/133 190/140/132
f 125/141/133 191/136/128 86/139/131 43/142/134
f 38/264/122 74/265/103 191/136/128 125/141/133
f 74/265/103 37/266/102 155/137/129 191/136/128
f 155/137/129 192/132/124 154/135/127 42/138/130
f 37/266/102 61/267/119 192/132/124 155/137/129
f 61/267/119 40/268/118 131/133/125 192/132/124
f 111/113/105 193/128/120 120/131/123 39/114/106
f 30/269/80 140/270/91 193/128/120 111/113/105
f 140/270/91 34/271/90 91/129/121 193/128/120
f 139/109/101 194/124/116 61/127/119 37/110/102
f 36/272/110 161/273/115 194/124/116 139/109/101
f 161/273/115 31/274/114 68/125/117 194/124/116
f 87/117/109 195/120/112 161/123/115 36/118/110
f 35/102/94 76/107/99 195/120/112 87/117/109
f 76/107/99 12/106/98 104/121/113 195/120/112
f 102/97/89 196/116/108 88/119/111 34/98/90
f 33/94/86 149/103/95 196/116/108 102/97/89
f 149/103/95 35/102/94 87/117/109 196/116/108
f 68/275/117 197/112/104 81/115/107 40/276/118
f 31/277/114 75/278/81 197/112/104 68/275/117
f 75/278/81 30/269/80 111/113/105 197/112/104
f 91/129/121 198/108/100 74/111/103 38/130/122
f 34/271/90 88/279/111 198/108/100 91/129/121
f 88/279/111 36/272/110 139/109/101 198/108/100
f 144/101/93 199/104/96 76/107/99 35/102/94
f 1/280/208 106/281/209 199/104/96 144/101/93
f 106/281/209 4/282/210 71/105/97 199/104/96
f 89/93/85 200/100/92 149/103/95 33/94/86
f 32/283/211 100/284/212 200/100/92 89/93/85
f 100/284/212 1/280/208 144/101/93 200/100/92
f 167/85/79 201/96/88 140/99/91 30/86/80
f 11/15/15 108/95/87 201/96/88 167/85/79
f 108/95/87 33/94/86 102/97/89 201/96/88
f 147/14/14 202/92/84 108/95/87 11/15/15
f 5/285/213 127/286/214 202/92/84 147/14/14
f 127/286/214 32/283/211 89/93/85 202/92/84
f 85/287/215 203/88/82 103/91/83 6/288/216
f 5/289/213 159/290/217 203/88/82 85/287/215
f 159/290/217 4/291/210 99/89/4 203/88/82
f 104/292/113 204/84/78 75/87/81 31/293/114
f 12/294/98 153/16/16 204/84/78 104/292/113
f 153/16/16 11/15/15 167/85/79 204/84/78
f 168/295/74 205/80/77 62/83/67 29/296/75
f 28/297/64 112/298/63 205/80/77 168/295/74
f 112/298/63 27/299/71 59/81/70 205/80/77
f 135/300/50 206/76/73 124/79/76 18/301/51
f 23/302/59 72/67/65 206/76/73 135/300/50
f 72/67/65 28/66/64 168/77/74 206/76/73
f 137/303/150 207/72/69 65/75/72 25/304/207
f 24/305/55 66/306/218 207/72/69 137/303/150
f 66/306/218 26/307/68 59/73/70 207/72/69
f 156/308/42 208/68/66 170/71/61 19/309/43
f 18/301/51 124/79/76 208/68/66 156/308/42
f 124/79/76 29/78/75 62/69/67 208/68/66
f 132/310/58 209/64/62 72/67/65 23/302/59
f 25/304/207 65/75/72 209/64/62 132/310/58
f 65/75/72 27/74/71 112/65/63 209/64/62
f 93/63/54 66/306/218 24/305/55
f 93/63/54 170/62/61 66/306/218
f 170/62/61 26/307/68 66/306/218
f 70/311/26 210/57/57 97/60/60 16/312/27
f 15/244/35 101/242/206 210/57/57 70/311/26
f 101/242/206 25/243/207 132/58/58 210/57/57
f 152/313/219 211/53/53 96/56/56 20/246/204
f 13/314/31 98/315/44 211/53/53 152/313/219
f 98/315/44 19/316/43 93/54/54 211/53/53
f 128/317/38 212/49/49 105/52/52 17/318/39
f 16/312/27 97/60/60 212/49/49 128/317/38
f 97/60/60 23/59/59 135/50/50 212/49/49
f 158/153/142 213/45/45 79/48/48 22/154/143
f 13/252/31 152/319/219 213/45/45 158/153/142
f 152/319/219 20/239/204 150/46/46 213/45/45
f 109/320/30 214/41/41 98/44/44 13/321/31
f 17/318/39 105/52/52 214/41/41 109/320/30
f 105/52/52 18/51/51 156/42/42 214/41/41
f 77/10/10 215/37/37 118/40/40 2/11/11
f 10/19/19 145/28/28 215/37/37 77/10/10
f 145/28/28 16/27/27 128/38/38 215/37/37
f 133/6/6 216/33/33 151/36/36 7/7/7
f 6/288/216 84/24/24 216/33/33 133/6/6
f 84/24/24 14/23/23 115/34/34 216/33/33
f 162/2/2 217/29/29 122/32/32 3/3/3
f 2/11/11 118/40/40 217/29/29 162/2/2
f 118/40/40 17/39/39 109/30/30 217/29/29
f 82/18/18 218/25/25 145/28/28 10/19/19
f 7/7/7 151/36/36 218/25/25 82/18/18
f 151/36/36 15/35/35 70/26/26 218/25/25
f 103/91/83 219/21/21 84/24/24 6/288/216
f 3/90/3 122/322/32 219/21/21 103/91/83
f 122/322/32 13/323/31 63/22/22 219/21/21
f 148/324/220 220/17/17 165/20/20 9/325/221
f 8/326/222 92/8/8 220/17/17 148/324/220
f 92/8/8 7/7/7 82/18/18 220/17/17
f 71/327/97 221/13/13 153/16/16 12/294/98
f 4/328/210 159/329/217 221/13/13 71/327/97
f 159/329/217 5/285/213 147/14/14 221/13/13
f 141/330/223 222/9/9 119/12/12 1/331/208
f 9/325/221 165/20/20 222/9/9 141/330/223
f 165/20/20 10/19/19 77/10/10 222/9/9
f 80/332/224 223/5/5 92/8/8 8/326/222
f 5/289/213 85/287/215 223/5/5 80/332/224
f 85/287/215 6/288/216 133/6/6 223/5/5
f 106/333/209 224/1/1 99/4/4 4/334/210
f 1/331/208 119/12/12 224/1/1 106/333/209
f 119/12/12 2/11/11 162/2/2 224/1/1
