# Blender v2.77 (sub 0) OBJ File: 'Fir_Tree_crk_m_01.obj'
# www.blender.org
mtllib Fir_Tree_s_04.mtl
o Fir_Tree_s_04
v 0.053140 0.472847 0.003708
v -0.348865 0.301909 -0.047636
v 0.021507 0.269411 -0.487760
v 0.377919 0.243762 -0.292668
v 0.365240 0.253616 0.311562
v -0.177151 0.293804 0.447352
v 0.359270 0.655220 0.292864
v -0.043230 0.727925 0.381803
v -0.160744 0.749190 0.025300
v 0.117647 0.697205 -0.292944
v 0.372911 0.650081 -0.152343
v 0.435361 0.753151 -0.163959
v 0.417691 0.747870 0.315011
v -0.037455 0.848945 0.430867
v -0.173051 0.888995 0.036236
v 0.139181 0.825098 -0.294179
v 0.441519 1.136402 0.263188
v 0.138620 1.203212 0.332134
v 0.034439 1.236910 0.072537
v 0.248227 1.214722 -0.135689
v 0.451376 1.162112 -0.066686
v 0.517934 1.285891 -0.061306
v 0.487609 1.251486 0.311995
v 0.184154 1.313251 0.342390
v 0.067582 1.358862 0.081536
v 0.290575 1.340219 -0.149481
v 0.578531 1.873326 0.054595
v 0.575519 1.872517 0.210935
v 0.463697 1.903841 0.215653
v 0.412106 1.918579 0.103455
v 0.491204 1.897872 0.016789
v 0.638978 2.249617 0.141170
v 0.012136 0.254416 -0.081020
v 0.044609 0.510827 -0.047304
v 0.097742 0.505508 -0.009459
v 0.096447 0.252638 -0.020294
v -0.054676 0.255802 0.015823
v 0.004751 0.515124 0.024633
v 0.089993 0.023529 -0.031578
v 0.037714 0.253987 0.072741
v 0.027323 0.023881 0.072872
v -0.082411 0.024444 0.002631
v -0.005889 0.024034 -0.100208
v 0.053687 0.510370 0.050902
v 0.339440 1.278954 0.353106
v -0.269968 0.511184 -0.013760
v 0.080959 0.507323 0.023969
v 0.208052 0.263487 -0.417504
v 0.616509 2.087466 0.102011
v 0.372708 0.440363 0.313483
v 0.545668 1.913230 0.034238
v 0.029233 0.394537 -0.064295
v 0.104300 1.339322 0.221996
v 0.195093 0.796539 0.407930
v -0.119468 0.497041 0.429795
v 0.266278 1.272069 -0.142377
v 0.394876 0.255274 0.011129
v 0.024769 0.513312 0.044840
v -0.013552 0.254982 0.051942
v 0.255428 0.671515 -0.250127
v -0.076653 0.370324 0.258344
v -0.055941 0.024286 -0.056762
v 0.529490 1.546347 0.266804
v 0.098735 0.281573 0.409222
v 0.573189 2.100151 0.079998
v -0.070898 1.063898 0.054011
v -0.041183 0.792805 0.406071
v 0.095395 0.125605 -0.027052
v 0.614640 2.089248 0.174297
v 0.098435 0.390704 -0.014483
v 0.524258 1.264040 0.127926
v 0.070449 0.023658 0.028621
v 0.316560 1.594099 0.282523
v 0.293810 1.167606 0.318972
v 0.222688 0.349813 0.177805
v -0.028436 0.255232 -0.037378
v 0.384801 1.604904 -0.073005
v 0.001436 0.126552 -0.094686
v -0.033441 0.861421 -0.149731
v 0.165316 1.353476 -0.047519
v 0.193189 1.020249 -0.214531
v -0.176600 0.293858 -0.285228
v 0.074247 0.253189 0.031003
v 0.075626 0.507603 -0.035454
v 0.299936 0.786749 -0.261094
v 0.161910 0.690946 0.366030
v -0.023936 0.397576 0.021576
v 0.443417 0.957110 -0.116231
v 0.243809 0.343478 -0.165633
v 0.462074 1.185787 0.289577
v 0.130686 1.228775 -0.043013
v 0.386208 0.703037 0.304342
v 0.385539 0.432054 -0.234001
v 0.460793 1.936932 0.060251
v -0.034229 0.725651 -0.151408
v 0.589251 1.900492 0.134704
v 0.547280 1.564343 -0.007565
v 0.158004 1.249806 0.337805
v -0.126730 0.743378 0.217839
v -0.074213 0.127303 0.009076
v 0.032674 0.126263 0.076431
v 0.562812 2.104906 0.178869
v 0.430774 0.941673 0.287506
v 0.357530 1.188864 -0.120164
v 0.027967 0.357377 -0.281070
v 0.046115 0.394068 0.062285
v 0.049138 1.026938 0.383501
v 0.019436 0.513592 -0.014583
v 0.414542 1.313918 -0.130376
v 0.483159 1.218322 -0.064602
v -0.136411 0.875795 0.251097
v 0.531082 1.916712 0.218305
v 0.389474 0.648131 0.072346
v 0.049997 0.023748 -0.077706
v 0.229596 1.625510 0.091062
v -0.166118 0.824415 0.032517
v 0.402420 0.702561 -0.155266
v 0.059363 0.253440 -0.058317
v 0.046253 1.290318 0.077819
v -0.180879 0.374482 -0.026037
v 0.464469 1.144862 0.097764
v 0.128104 0.763756 -0.290453
v -0.035489 0.024196 0.049565
v 0.537226 2.111617 0.122686
v -0.289179 0.307008 0.215101
v 0.456550 0.743555 0.075774
v 0.067686 1.223252 0.211926
v 0.067846 0.468317 -0.410009
v 0.446462 1.940669 0.161174
v -0.026284 0.126839 0.051013
v 0.077825 0.392093 0.027509
v 0.053930 0.126023 -0.069129
v 0.006885 0.396077 0.048413
v -0.044393 0.127007 -0.048185
v 0.072039 0.125855 0.030069
v -0.002901 0.396349 -0.024967
v 0.068038 0.392365 -0.045871
v 0.472546 1.584575 -0.057160
v 0.258931 1.612469 0.193281
v 0.383726 1.245851 -0.125469
v 0.081923 1.273290 0.217624
v 0.297866 1.617867 -0.000382
v 0.425776 1.568310 0.292560
v 0.552609 1.551982 0.131520
v 0.328499 0.987715 -0.190882
v 0.144060 1.284641 -0.044771
v -0.035880 1.050426 0.232324
v 0.313689 1.214988 0.337303
v 0.492370 1.197533 0.113535
v 0.461118 0.943716 0.085518
v 0.276669 0.730908 -0.252614
v 0.047569 1.045740 -0.096359
v -0.131600 0.814432 0.235210
v 0.244314 0.982270 0.363654
v -0.226879 0.507952 0.227296
v -0.033601 0.797500 -0.148141
v 0.176945 0.746674 0.387051
v 0.421018 0.697062 0.075705
v 0.239577 0.448280 -0.357933
v 0.409927 0.432677 0.041973
v -0.118184 0.491605 -0.235250
v 0.132215 0.468445 0.409423
vt 0.3063 0.3071
vt 0.3036 0.2891
vt 0.3264 0.2994
vt 0.3234 0.3170
vt 0.2986 0.3251
vt 0.2856 0.3036
vt 0.2777 0.3102
vt 0.2806 0.2869
vt 0.2951 0.2989
vt 0.2925 0.3074
vt 0.3340 0.3193
vt 0.3228 0.3400
vt 0.3111 0.3190
vt 0.3164 0.3107
vt 0.3025 0.2796
vt 0.3243 0.2723
vt 0.3120 0.2891
vt 0.3036 0.2940
vt 0.3347 0.2855
vt 0.3452 0.2987
vt 0.3218 0.3024
vt 0.3169 0.2957
vt 0.3037 0.2958
vt 0.3112 0.2923
vt 0.3104 0.2955
vt 0.3038 0.2976
vt 0.2947 0.3064
vt 0.2962 0.2993
vt 0.2973 0.2997
vt 0.2968 0.3054
vt 0.3149 0.3097
vt 0.3097 0.3167
vt 0.3083 0.3144
vt 0.3133 0.3086
vt 0.2988 0.3367
vt 0.2748 0.3334
vt 0.2900 0.3158
vt 0.3005 0.3174
vt 0.2826 0.3095
vt 0.2790 0.2919
vt 0.2948 0.3005
vt 0.2956 0.3067
vt 0.3014 0.3151
vt 0.2931 0.3135
vt 0.2962 0.3111
vt 0.3022 0.3127
vt 0.3245 0.3130
vt 0.3173 0.3288
vt 0.3084 0.3138
vt 0.3110 0.3082
vt 0.3157 0.2975
vt 0.3201 0.3026
vt 0.3184 0.3028
vt 0.3144 0.2991
vt 0.2971 0.2840
vt 0.3152 0.2762
vt 0.3070 0.2929
vt 0.3009 0.2967
vt 0.3011 0.2984
vt 0.3059 0.2950
vt 0.3049 0.2970
vt 0.3013 0.3000
vt 0.2966 0.3068
vt 0.2962 0.3018
vt 0.2977 0.3030
vt 0.2976 0.3069
vt 0.3018 0.3280
vt 0.2862 0.3272
vt 0.2964 0.3129
vt 0.3024 0.3134
vt 0.3097 0.3077
vt 0.3077 0.3130
vt 0.3071 0.3122
vt 0.3085 0.3072
vt 0.3234 0.2867
vt 0.3317 0.2973
vt 0.3136 0.3026
vt 0.3103 0.2977
vt 0.3203 0.4122
vt 0.3426 0.4182
vt 0.3202 0.4293
vt 0.3180 0.4282
vt 0.2923 0.4232
vt 0.2980 0.4062
vt 0.3158 0.4271
vt 0.3146 0.4292
vt 0.3261 0.4531
vt 0.3093 0.4615
vt 0.3175 0.4344
vt 0.3191 0.4332
vt 0.3024 0.3124
vt 0.2970 0.3118
vt 0.2976 0.3107
vt 0.3023 0.3115
vt 0.3088 0.2987
vt 0.3117 0.3024
vt 0.3099 0.3022
vt 0.3074 0.2996
vt 0.3205 0.4306
vt 0.3191 0.4299
vt 0.3155 0.4329
vt 0.3177 0.4324
vt 0.2979 0.4508
vt 0.2865 0.4401
vt 0.3134 0.4313
vt 0.3169 0.4288
vt 0.3427 0.4314
vt 0.3428 0.4447
vt 0.3207 0.4320
vt 0.9680 0.9515
vt 0.9678 0.9858
vt 0.9608 0.9858
vt 0.9609 0.9514
vt 0.9115 0.9513
vt 0.9112 0.9852
vt 0.9041 0.9854
vt 0.9044 0.9513
vt 0.9541 0.9043
vt 0.9539 0.9172
vt 0.9467 0.9173
vt 0.9469 0.9045
vt 0.9115 0.9046
vt 0.9117 0.9173
vt 0.9047 0.9171
vt 0.9044 0.9043
vt 0.9326 0.9513
vt 0.9325 0.9852
vt 0.9183 0.9851
vt 0.9186 0.9513
vt 0.9683 0.9043
vt 0.9682 0.9172
vt 0.9610 0.9171
vt 0.9612 0.9042
vt 0.9538 0.9514
vt 0.9538 0.9856
vt 0.9468 0.9854
vt 0.9467 0.9513
vt 0.9328 0.9047
vt 0.9186 0.9049
vt 0.9184 0.8922
vt 0.9328 0.8920
vt 0.9472 0.8918
vt 0.9327 0.9174
vt 0.9188 0.9175
vt 0.9684 0.8915
vt 0.9614 0.8912
vt 0.9755 0.8917
vt 0.9754 0.9045
vt 0.9754 0.9173
vt 0.9112 0.8918
vt 0.9041 0.8914
vt 0.9543 0.8915
vt 0.9751 0.9515
vt 0.9748 0.9857
vt 0.3650 0.4070
vt 0.3650 0.4322
vt 0.3650 0.4574
vt 0.3193 0.4312
vt 0.3179 0.4304
vt 0.3156 0.4309
vt 0.3011 0.4887
vt 0.2803 0.4688
vt 0.2596 0.4488
vt 0.3331 0.4730
vt 0.2699 0.4171
vt 0.2802 0.3854
vt 0.3226 0.3962
vt 0.3234 0.2595
vt 0.3366 0.2757
vt 0.3498 0.2919
vt 0.3262 0.3438
vt 0.3011 0.3426
vt 0.2760 0.3415
vt 0.2632 0.2833
vt 0.2933 0.2714
vt 0.3380 0.3178
vt 0.2696 0.3124
vt 0.3346 0.3609
vt 0.2971 0.3559
vt 0.2596 0.3510
vt 0.3366 0.2555
vt 0.3526 0.2752
vt 0.3686 0.2950
vt 0.3435 0.3094
vt 0.3405 0.3270
vt 0.3465 0.2918
vt 0.2828 0.2856
vt 0.3008 0.2711
vt 0.2649 0.3001
vt 0.2661 0.2750
vt 0.3013 0.2652
vt 0.3516 0.3280
vt 0.2628 0.3130
vt 0.2779 0.3216
vt 0.2909 0.3431
vt 0.3157 0.3350
vt 0.3237 0.2815
vn -0.0656 -0.9978 0.0039
vn 0.3608 -0.9280 0.0932
vn 0.0358 -0.9317 0.3615
vn -0.4213 -0.8874 0.1872
vn -0.3728 -0.8999 -0.2264
vn 0.1006 -0.9491 -0.2983
vn 0.2374 0.0673 0.9691
vn 0.7866 0.0199 0.6172
vn 0.7336 -0.2230 0.6420
vn 0.1948 -0.1177 0.9738
vn -0.6671 0.4132 -0.6199
vn -0.8952 0.3997 -0.1973
vn -0.9499 0.2111 -0.2306
vn -0.7061 0.2581 -0.6594
vn 0.9996 0.0130 0.0250
vn 0.8865 0.1388 -0.4415
vn 0.8800 -0.1179 -0.4602
vn 0.9722 -0.2319 0.0340
vn 0.4865 0.2817 -0.8270
vn -0.1499 0.4152 -0.8973
vn -0.1903 0.2682 -0.9444
vn 0.4720 0.0948 -0.8765
vn 0.8284 -0.5594 0.0303
vn 0.7401 -0.4883 -0.4625
vn 0.8291 -0.2256 -0.5116
vn 0.9463 -0.3220 0.0282
vn 0.1312 -0.3935 0.9099
vn 0.6020 -0.5489 0.5799
vn 0.7408 -0.2774 0.6118
vn 0.2091 -0.1348 0.9686
vn -0.7364 0.0224 -0.6762
vn -0.9714 -0.0648 -0.2286
vn -0.9488 0.2277 -0.2190
vn -0.6879 0.2293 -0.6887
vn -0.8878 0.3308 0.3199
vn -0.4363 0.2387 0.8676
vn -0.4967 0.0035 0.8679
vn -0.9395 0.1315 0.3162
vn 0.2685 0.1538 0.9509
vn 0.7937 0.0407 0.6070
vn 0.7671 -0.2664 0.5836
vn 0.1874 -0.1066 0.9765
vn -0.9418 -0.1347 0.3079
vn -0.5191 -0.3107 0.7962
vn -0.4659 0.0434 0.8838
vn -0.9186 0.1851 0.3492
vn -0.5973 0.4560 -0.6597
vn -0.8257 0.5253 -0.2058
vn -0.8925 0.3969 -0.2142
vn -0.6504 0.3134 -0.6919
vn 0.3828 -0.2310 -0.8945
vn -0.2497 -0.0307 -0.9678
vn -0.2080 0.1640 -0.9643
vn 0.4021 -0.0222 -0.9153
vn 0.9992 -0.0255 0.0308
vn 0.8658 0.0923 -0.4918
vn 0.8212 -0.1532 -0.5497
vn 0.9678 -0.2516 0.0083
vn 0.8931 -0.4495 0.0150
vn 0.7542 -0.3876 -0.5301
vn 0.8429 -0.1895 -0.5036
vn 0.9613 -0.2706 0.0522
vn 0.0830 -0.3056 0.9485
vn 0.6248 -0.4974 0.6018
vn 0.6900 -0.2265 0.6874
vn 0.1032 -0.0456 0.9936
vn -0.7929 0.4993 0.3494
vn -0.3428 0.4002 0.8499
vn -0.4258 0.2235 0.8768
vn -0.8475 0.3694 0.3813
vn -0.6911 0.1755 -0.7012
vn -0.9476 0.2589 -0.1874
vn -0.9015 0.4024 -0.1592
vn -0.6658 0.3126 -0.6775
vn 0.4096 0.2463 -0.8784
vn -0.1549 0.4047 -0.9012
vn -0.2399 0.2064 -0.9486
vn 0.3379 0.0280 -0.9408
vn 0.9932 -0.1022 0.0554
vn 0.8749 0.0015 -0.4842
vn 0.8700 -0.0120 -0.4929
vn 0.9903 -0.1354 0.0299
vn 0.1174 0.1727 0.9780
vn 0.7434 0.0072 0.6688
vn 0.7491 -0.0015 0.6625
vn 0.1025 0.1727 0.9796
vn -0.6242 0.4347 -0.6491
vn -0.8392 0.5236 -0.1472
vn -0.8315 0.5344 -0.1518
vn -0.6030 0.4592 -0.6523
vn -0.8768 0.2453 0.4137
vn -0.4754 0.0245 0.8794
vn -0.4356 0.2063 0.8762
vn -0.8215 0.3741 0.4304
vn 0.2904 -0.1958 -0.9367
vn -0.2758 -0.0029 -0.9612
vn -0.2214 0.1676 -0.9607
vn 0.3603 -0.0175 -0.9327
vn 0.4217 0.1456 -0.8949
vn 0.8683 -0.0042 -0.4959
vn -0.7714 0.4805 0.4171
vn -0.7986 0.5863 -0.1359
vn -0.7687 0.4781 0.4249
vn -0.4068 0.3701 0.8352
vn -0.4249 0.3725 0.8251
vn 0.7465 0.0206 0.6650
vn 0.4038 0.1577 -0.9012
vn -0.1805 0.3406 -0.9227
vn -0.1647 0.3466 -0.9235
vn 0.5826 0.0418 -0.8117
vn 0.5850 0.0464 -0.8097
vn 0.9919 0.0061 -0.1270
vn 0.9880 0.0021 -0.1543
vn -0.8281 0.2005 -0.5235
vn -0.8395 0.2085 -0.5017
vn -0.2309 0.1659 -0.9587
vn -0.2080 0.1553 -0.9657
vn 0.8520 -0.0309 0.5226
vn 0.8426 -0.0147 0.5384
vn 0.2287 0.0328 0.9729
vn 0.2260 -0.0046 0.9741
vn -0.8033 0.1321 -0.5807
vn -0.8129 0.1701 -0.5571
vn -0.1874 0.1346 -0.9730
vn -0.1689 0.1064 -0.9799
vn -0.4989 0.1074 0.8600
vn -0.4795 0.1153 0.8699
vn -0.9489 0.2122 0.2335
vn -0.9559 0.2046 0.2108
vn 0.5832 0.0354 -0.8116
vn 0.5827 0.0411 -0.8116
vn 0.9842 0.0008 -0.1770
vn 0.9813 -0.0075 -0.1925
vn 0.8278 -0.0055 0.5611
vn 0.8175 -0.0005 0.5759
vn 0.2592 0.0600 0.9639
vn 0.2491 0.0554 0.9669
vn -0.5324 0.0331 0.8458
vn -0.9760 0.1120 0.1869
vn -0.9834 0.0935 0.1555
vn -0.5445 0.0177 0.8386
vn 0.2098 -0.0225 0.9775
vn -0.5214 0.0740 0.8501
vn -0.9664 0.1639 0.1979
vn 0.5741 0.0265 -0.8183
vn 0.9767 -0.0180 -0.2137
vn -0.1846 0.0930 -0.9784
vn -0.7999 0.1168 -0.5886
vn 0.8549 -0.0426 0.5170
vn -0.0739 0.3893 -0.9182
vn 0.3513 0.9350 0.0476
vn -0.3789 0.4055 0.8319
vn -0.7673 -0.6144 -0.1836
vn -0.6892 -0.6946 0.2063
vn -0.4494 -0.6229 0.6403
vn 0.5487 -0.7487 -0.3720
vn 0.2709 -0.7319 -0.6253
vn -0.2557 -0.5836 -0.7708
vn 0.4958 -0.7611 0.4182
vn 0.5032 -0.8642 0.0067
vn -0.5644 -0.6950 -0.4454
vn 0.0711 -0.8105 0.5814
usemtl None
s 1
f 1/1/1 120/2/2 105/3/3
f 1/1/1 89/4/4 75/5/5
f 1/1/1 75/5/5 61/6/6
f 162/7/7 50/8/8 7/9/9 86/10/10
f 161/11/11 46/12/12 9/13/13 95/14/14
f 160/15/15 93/16/16 11/17/17 113/18/18
f 1/1/1 61/6/6 120/2/2
f 1/1/1 105/3/3 89/4/4
f 159/19/19 128/20/20 10/21/21 60/22/22
f 158/23/23 117/24/24 12/25/25 126/26/26
f 157/27/27 92/28/28 13/29/29 54/30/30
f 156/31/31 116/32/32 15/33/33 79/34/34
f 155/35/35 55/36/36 8/37/37 99/38/38
f 154/39/39 103/40/40 17/41/41 74/42/42
f 153/43/43 67/44/44 14/45/45 111/46/46
f 152/47/47 66/48/48 19/49/49 91/50/50
f 151/51/51 122/52/52 16/53/53 85/54/54
f 150/55/55 88/56/56 21/57/57 121/58/58
f 149/59/59 110/60/60 22/61/61 71/62/62
f 148/63/63 90/64/64 23/65/65 45/66/66
f 147/67/67 107/68/68 18/69/69 127/70/70
f 146/71/71 119/72/72 25/73/73 80/74/74
f 145/75/75 81/76/76 20/77/77 104/78/78
f 144/79/79 97/80/80 27/81/81 96/82/82
f 143/83/83 63/84/84 28/85/85 112/86/86
f 142/87/87 115/88/88 30/89/89 94/90/90
f 141/91/91 98/92/92 24/93/93 53/94/94
f 140/95/95 56/96/96 26/97/97 109/98/98
f 27/81/81 51/99/99 49/100/100
f 30/89/89 129/101/101 124/102/102
f 139/103/103 73/104/104 29/105/105 129/101/101
f 28/85/85 69/106/106 112/86/86
f 27/81/81 49/100/100 96/82/82
f 30/89/89 124/102/102 94/90/90
f 138/107/107 77/108/108 31/109/109 51/99/99
f 137/110/110 84/111/111 35/112/112 70/113/113
f 136/114/114 108/115/115 34/116/116 52/117/117
f 135/118/118 83/119/119 40/120/120 101/121/121
f 134/122/122 76/123/123 33/124/124 78/125/125
f 133/126/126 58/127/127 38/128/128 87/129/129
f 132/130/130 118/131/131 36/132/132 68/133/133
f 131/134/134 47/135/135 44/136/136 106/137/137
f 130/138/138 100/139/139 42/140/140 123/141/141
f 101/121/121 130/138/138 123/141/141 41/142/142
f 40/120/120 59/143/143 130/138/138 101/121/121
f 59/143/143 37/144/144 100/139/139 130/138/138
f 83/119/119 131/134/134 106/137/137 40/120/120
f 36/132/132 70/113/113 131/134/134 83/119/119
f 70/113/113 35/112/112 47/135/135 131/134/134
f 114/145/145 132/130/130 68/133/133 39/146/146
f 43/147/147 78/148/125 132/130/130 114/145/145
f 78/148/125 33/149/124 118/131/131 132/130/130
f 59/143/143 133/126/126 87/129/129 37/144/144
f 40/120/120 106/137/137 133/126/126 59/143/143
f 106/137/137 44/136/136 58/127/127 133/126/126
f 62/150/148 134/122/122 78/125/125 43/151/147
f 42/140/140 100/139/139 134/122/122 62/150/148
f 100/139/139 37/144/144 76/123/123 134/122/122
f 72/152/149 135/118/118 101/121/121 41/142/142
f 39/146/146 68/133/133 135/118/118 72/152/149
f 68/133/133 36/132/132 83/119/119 135/118/118
f 76/123/123 136/114/114 52/117/117 33/124/124
f 37/144/144 87/129/129 136/114/114 76/123/123
f 87/129/129 38/128/128 108/115/115 136/114/114
f 118/131/131 137/110/110 70/113/113 36/132/132
f 33/149/124 52/153/117 137/110/110 118/131/131
f 52/153/117 34/154/116 84/111/111 137/110/110
f 97/80/80 138/107/107 51/99/99 27/81/81
f 22/155/61 109/156/98 138/107/107 97/80/80
f 109/156/98 26/157/97 77/108/108 138/107/107
f 94/90/90 65/158/150 31/109/109
f 94/90/90 124/102/102 65/158/150
f 124/102/102 32/159/151 65/158/150
f 96/82/82 69/106/106 28/85/85
f 96/82/82 49/100/100 69/106/106
f 49/100/100 32/159/151 69/106/106
f 112/86/86 102/160/152 29/105/105
f 112/86/86 69/106/106 102/160/152
f 69/106/106 32/159/151 102/160/152
f 115/88/88 139/103/103 129/101/101 30/89/89
f 25/161/73 53/162/94 139/103/103 115/88/88
f 53/162/94 24/163/93 73/104/104 139/103/103
f 124/102/102 102/160/152 32/159/151
f 124/102/102 129/101/101 102/160/152
f 129/101/101 29/105/105 102/160/152
f 49/100/100 65/158/150 32/159/151
f 49/100/100 51/99/99 65/158/150
f 51/99/99 31/109/109 65/158/150
f 110/60/60 140/95/95 109/98/98 22/61/61
f 21/57/57 104/78/78 140/95/95 110/60/60
f 104/78/78 20/77/77 56/96/96 140/95/95
f 119/72/72 141/91/91 53/94/94 25/73/73
f 19/49/49 127/70/70 141/91/91 119/72/72
f 127/70/70 18/69/69 98/92/92 141/91/91
f 77/108/108 142/87/87 94/90/90 31/109/109
f 26/157/97 80/164/74 142/87/87 77/108/108
f 80/164/74 25/161/73 115/88/88 142/87/87
f 73/104/104 143/83/83 112/86/86 29/105/105
f 24/163/93 45/165/66 143/83/83 73/104/104
f 45/165/66 23/166/65 63/84/84 143/83/83
f 63/84/84 144/79/79 96/82/82 28/85/85
f 23/166/65 71/167/62 144/79/79 63/84/84
f 71/167/62 22/155/61 97/80/80 144/79/79
f 88/56/56 145/75/75 104/78/78 21/57/57
f 12/168/25 85/169/54 145/75/75 88/56/56
f 85/169/54 16/170/53 81/76/76 145/75/75
f 56/96/96 146/71/71 80/74/74 26/97/97
f 20/77/77 91/50/50 146/71/71 56/96/96
f 91/50/50 19/49/49 119/72/72 146/71/71
f 66/48/48 147/67/67 127/70/70 19/49/49
f 15/171/33 111/172/46 147/67/67 66/48/48
f 111/172/46 14/173/45 107/68/68 147/67/67
f 98/92/92 148/63/63 45/66/66 24/93/93
f 18/69/69 74/42/42 148/63/63 98/92/92
f 74/42/42 17/41/41 90/64/64 148/63/63
f 90/64/64 149/59/59 71/62/62 23/65/65
f 17/41/41 121/58/58 149/59/59 90/64/64
f 121/58/58 21/57/57 110/60/60 149/59/59
f 103/40/40 150/55/55 121/58/58 17/41/41
f 13/174/29 126/175/26 150/55/55 103/40/40
f 126/175/26 12/168/25 88/56/56 150/55/55
f 117/24/24 151/51/51 85/54/54 12/25/25
f 11/17/17 60/22/22 151/51/51 117/24/24
f 60/22/22 10/21/21 122/52/52 151/51/51
f 81/76/76 152/47/47 91/50/50 20/77/77
f 16/170/53 79/176/34 152/47/47 81/76/76
f 79/176/34 15/171/33 66/48/48 152/47/47
f 116/32/32 153/43/43 111/46/46 15/33/33
f 9/13/13 99/38/38 153/43/43 116/32/32
f 99/38/38 8/37/37 67/44/44 153/43/43
f 107/68/68 154/39/39 74/42/42 18/69/69
f 14/173/45 54/177/30 154/39/39 107/68/68
f 54/177/30 13/174/29 103/40/40 154/39/39
f 46/12/12 155/35/35 99/38/38 9/13/13
f 2/178/153 125/179/154 155/35/35 46/12/12
f 125/179/154 6/180/155 55/36/36 155/35/35
f 122/52/52 156/31/31 79/34/34 16/53/53
f 10/21/21 95/14/14 156/31/31 122/52/52
f 95/14/14 9/13/13 116/32/32 156/31/31
f 67/44/44 157/27/27 54/30/30 14/45/45
f 8/37/37 86/10/10 157/27/27 67/44/44
f 86/10/10 7/9/9 92/28/28 157/27/27
f 92/28/28 158/23/23 126/26/26 13/29/29
f 7/9/9 113/18/18 158/23/23 92/28/28
f 113/18/18 11/17/17 117/24/24 158/23/23
f 93/16/16 159/19/19 60/22/22 11/17/17
f 4/181/156 48/182/157 159/19/19 93/16/16
f 48/182/157 3/183/158 128/20/20 159/19/19
f 89/4/4 48/184/157 4/185/156
f 89/4/4 105/3/3 48/184/157
f 105/3/3 3/186/158 48/184/157
f 120/2/2 125/187/154 2/188/153
f 120/2/2 61/6/6 125/187/154
f 61/6/6 6/189/155 125/187/154
f 50/8/8 160/15/15 113/18/18 7/9/9
f 5/190/159 57/191/160 160/15/15 50/8/8
f 57/191/160 4/181/156 93/16/16 160/15/15
f 128/20/20 161/11/11 95/14/14 10/21/21
f 3/183/158 82/192/161 161/11/11 128/20/20
f 82/192/161 2/178/153 46/12/12 161/11/11
f 55/36/36 162/7/7 86/10/10 8/37/37
f 6/180/155 64/193/162 162/7/7 55/36/36
f 64/193/162 5/190/159 50/8/8 162/7/7
f 61/6/6 64/194/162 6/189/155
f 61/6/6 75/5/5 64/194/162
f 75/5/5 5/195/159 64/194/162
f 75/5/5 57/196/160 5/195/159
f 75/5/5 89/4/4 57/196/160
f 89/4/4 4/185/156 57/196/160
f 105/3/3 82/197/161 3/186/158
f 105/3/3 120/2/2 82/197/161
f 120/2/2 2/188/153 82/197/161
