# Blender v2.78 (sub 0) OBJ File: ''
# www.blender.org
mtllib Dead_Pine_Tree_crk_l_07.mtl
o Dead_Pine_Tree_crk_l_07
v 1.140817 3.433769 0.085426
v 1.113359 3.615826 -0.039591
v 1.105828 3.613620 0.182794
v 1.154068 3.310729 0.538411
v 1.088415 3.778486 -0.344368
v 1.009680 3.986977 -0.239905
v 1.092089 3.564880 -0.466001
v 1.069794 3.782726 -1.093052
v 1.047591 4.109983 -0.908765
v 0.968112 3.938199 -1.530867
v 1.002712 4.204829 -1.447568
v 0.935381 4.431105 -0.765298
v 0.851611 4.475718 -1.314825
v 0.802620 4.688151 -1.174913
v 1.018995 4.269815 -1.202679
v 0.885556 4.502168 -1.746903
v 1.025960 3.496449 -0.914424
v 0.849509 4.394178 -0.453929
v 2.381118 2.598600 1.863216
v 2.233212 2.482030 1.967623
v 2.397566 2.398647 1.856255
v 2.756722 2.537363 1.614917
v 1.954212 2.451450 2.151695
v 1.946205 2.216208 2.117660
v 1.907677 2.684072 2.134550
v 1.356353 2.732723 2.499702
v 1.427694 2.378142 2.507185
v 0.914349 2.718467 2.691212
v 0.959672 2.454864 2.767153
v 1.419106 2.022152 2.460994
v 0.941971 2.143160 2.671498
v 0.992543 1.903552 2.633449
v 1.153297 2.328709 2.681008
v 0.619169 2.236473 2.918424
v 1.537185 2.905516 2.274840
v 1.612020 1.920032 2.240026
v 4.185233 2.026715 2.087958
v 4.152633 2.138258 1.991178
v 4.223956 2.157768 2.123579
v 4.329826 1.983815 2.369921
v 4.053331 2.210878 1.791653
v 4.073157 2.369565 1.839032
v 3.983940 2.062873 1.758127
v 3.763641 2.098018 1.355853
v 3.859763 2.321598 1.411466
v 3.560249 2.145516 1.099727
v 3.644559 2.301710 1.091311
v 3.894222 2.567847 1.473039
v 3.646850 2.517579 1.169018
v 3.704618 2.687571 1.229681
v 3.753145 2.371336 1.218906
v 3.516068 2.478677 0.901339
v 3.774417 1.972779 1.528360
v 3.957476 2.622227 1.688400
v 6.600217 1.407617 3.745659
v 6.509349 1.384513 3.814636
v 6.528174 1.335938 3.712250
v 6.696780 1.336922 3.532166
v 6.425309 1.408512 3.972386
v 6.327394 1.337806 3.934644
v 6.496778 1.504777 4.013981
v 6.411509 1.568913 4.366965
v 6.303296 1.434460 4.292178
v 6.313727 1.597542 4.617424
v 6.249177 1.480696 4.587762
v 6.157146 1.320733 4.231093
v 6.107667 1.408425 4.518160
v 6.025311 1.320389 4.446832
v 6.241804 1.429417 4.458991
v 6.099941 1.408812 4.746222
v 6.485135 1.643445 4.235659
v 6.128272 1.294004 4.066156
v 1.153722 3.310666 0.538403
v 1.105485 3.613547 0.182782
v 1.113013 3.615759 -0.039594
v 1.140470 3.433716 0.085424
v 1.009350 3.986865 -0.239948
v 1.088070 3.778423 -0.344376
v 1.047250 4.109900 -0.908766
v 1.069445 3.782728 -1.093020
v 1.091739 3.564872 -0.465985
v 1.002378 4.204730 -1.447541
v 0.967773 3.938206 -1.530783
v 0.802289 4.688045 -1.174868
v 0.851298 4.475560 -1.314813
v 0.935060 4.430968 -0.765324
v 1.018665 4.269694 -1.202668
v 0.885257 4.501985 -1.746908
v 1.025620 3.496525 -0.914389
v 0.849221 4.394012 -0.454035
v 2.756527 2.537357 1.614625
v 2.397371 2.398653 1.855962
v 2.233021 2.482025 1.967327
v 2.380925 2.598583 1.862922
v 1.946004 2.216263 2.117378
v 1.954018 2.451446 2.151402
v 1.427513 2.378150 2.506884
v 1.356175 2.732644 2.499410
v 1.907487 2.684006 2.134263
v 0.959515 2.454882 2.766842
v 0.914219 2.718367 2.690904
v 0.992409 1.903575 2.633127
v 0.941826 2.143244 2.671189
v 1.418928 2.022228 2.460702
v 1.153137 2.328752 2.680698
v 0.619017 2.236586 2.918130
v 1.536997 2.905372 2.274583
v 1.611808 1.920168 2.239785
v 4.329519 1.983861 2.370084
v 4.223646 2.157803 2.123741
v 4.152328 2.138301 1.991349
v 4.184930 2.026771 2.088126
v 4.072839 2.369553 1.839182
v 4.053027 2.210921 1.791821
v 3.859464 2.321625 1.411651
v 3.763366 2.098135 1.356034
v 3.983652 2.062977 1.758299
v 3.644276 2.301730 1.091514
v 3.560009 2.145647 1.099944
v 3.704346 2.687582 1.229902
v 3.646567 2.517528 1.169219
v 3.893918 2.567815 1.473211
v 3.752855 2.371329 1.219105
v 3.515782 2.478598 0.901524
v 3.774164 1.972969 1.528511
v 3.957153 2.622147 1.688509
v 6.696601 1.337178 3.532003
v 6.527999 1.336200 3.712095
v 6.509164 1.384771 3.814483
v 6.600030 1.407868 3.745499
v 6.327232 1.338099 3.934543
v 6.425112 1.408775 3.972261
v 6.303093 1.434730 4.292084
v 6.411246 1.569123 4.366867
v 6.496539 1.505000 4.013857
v 6.248975 1.480971 4.587686
v 6.313462 1.597732 4.617299
v 6.025122 1.320659 4.446717
v 6.107519 1.408734 4.518086
v 6.156990 1.321036 4.231009
v 6.241620 1.429705 4.458912
v 6.099813 1.409136 4.746182
v 6.484828 1.643583 4.235564
v 6.128169 1.294337 4.066120
v 0.016455 2.234449 0.204513
v -0.015120 3.263165 0.185752
v -0.295876 3.160201 0.104730
v -0.289852 2.180424 0.125051
v -0.037565 2.220579 -0.289193
v -0.055726 3.214161 -0.262568
v 0.164600 3.258318 -0.042798
v 0.196235 2.226071 -0.053293
v 2.183254 2.710697 1.078483
v 2.763338 2.588928 0.576440
v 2.763150 2.612831 0.567734
v 2.176486 2.768524 1.062700
v 2.145802 2.725465 1.033673
v 2.753497 2.593854 0.553848
v 3.800114 2.254426 2.119161
v 3.966081 2.598868 2.446108
v 3.970854 2.623311 2.425195
v 3.807284 2.295141 2.080657
v 3.993921 2.601044 2.429411
v 3.849529 2.259505 2.092251
v 3.347551 2.490896 1.621654
v 6.270495 1.481869 3.128294
v 6.229105 1.373027 3.128157
v 3.225832 2.289890 1.622761
v 3.145176 2.263924 1.765781
v 6.173017 1.355273 3.225664
v 6.171931 1.454623 3.285931
v 3.108045 2.469179 1.854465
v 3.294467 2.595728 1.766922
v 6.236405 1.532191 3.225124
v 10.549993 0.136749 5.619554
v 10.608141 0.174806 5.644746
v 12.473823 -0.137407 6.907026
v 12.432809 -0.144680 6.884161
v 10.506017 0.173862 5.701333
v 10.525639 0.138135 5.677710
v 12.457100 -0.151981 6.924500
v 12.441510 -0.138123 6.929363
v 10.612874 0.187868 5.698849
v 12.502451 -0.138388 6.952790
v 0.201266 3.489475 0.379580
v 0.302710 3.711007 0.212915
v 0.377687 3.262192 0.041523
v 0.203091 3.224123 0.278401
v 0.429298 3.547622 0.026342
v 8.375768 0.753036 4.539099
v 8.454032 0.798787 4.487692
v 8.428541 0.709084 4.408796
v 8.377425 0.697298 4.485623
v 8.487242 0.766387 4.423404
v -0.371009 3.873068 -0.407899
v -0.847844 4.145718 -0.435816
v -0.580930 3.816518 -0.077121
v -0.278477 -0.026272 -0.165451
v -0.304381 1.806300 -0.163182
v 0.032561 -0.002514 -0.332451
v 0.285241 -0.002408 -0.054120
v 0.105247 -0.001682 0.263331
v -0.246954 -0.005335 0.188308
v -0.075608 -0.003509 0.247308
v -0.296300 1.997957 -0.032585
v 3.830477 2.278998 2.084060
v 3.888597 2.460313 2.252261
v 1.048303 2.242364 2.677069
v 0.245942 1.072446 -0.054073
v 6.655987 1.368575 3.624437
v 3.702210 2.340052 1.155582
v 1.168025 1.954934 2.566776
v 1.637266 2.723201 2.310600
v 6.363778 1.422163 4.132100
v 3.699821 2.439704 1.193020
v 3.882309 2.426007 2.283545
v 1.133337 3.444343 0.386637
v 4.152545 2.255695 1.986132
v 2.159481 2.749689 1.045959
v 3.862899 2.013773 1.621103
v 3.800340 2.275895 2.100459
v 1.690269 2.108594 2.283676
v 1.052866 3.877198 -0.284721
v 3.647013 2.127612 1.202509
v 0.937622 4.366791 -1.260659
v 3.328789 2.550862 1.692288
v 6.487993 1.583604 4.144631
v 0.822820 4.590136 -1.221604
v 4.067585 2.287053 1.819424
v 4.826121 1.977966 2.382730
v 6.103157 1.411855 4.648144
v 1.690781 2.415208 2.329603
v -0.181104 2.270215 -0.091278
v 7.362560 1.155458 3.861942
v 6.244555 1.451981 4.521757
v 3.603085 2.209654 1.103470
v 6.329410 1.528371 4.488877
v 6.554908 1.396417 3.779652
v 6.146999 1.303419 4.125751
v 11.535254 0.002765 6.350142
v 12.482279 -0.145436 6.914934
v 1.749264 2.047136 2.193894
v 6.081152 1.321128 4.359855
v 1.637080 2.723123 2.310313
v 1.033443 4.197408 -1.067802
v 6.165510 1.437323 4.677734
v 10.614634 0.182539 5.672464
v 6.290182 1.547015 4.597639
v 6.656168 1.368321 3.624599
v 0.970391 4.216029 -0.488539
v 0.823142 4.590266 -1.221633
v 6.169863 1.402749 3.259439
v 1.080834 3.657502 -0.778077
v 4.169241 2.081988 2.039822
v 0.264071 3.606518 0.317363
v 1.036276 3.996601 -1.289247
v -0.355897 3.962493 -0.155148
v 6.251871 1.426729 3.123742
v 12.482984 -0.149875 6.949053
v 0.127899 3.265512 0.092433
v 0.094949 2.224723 -0.186866
v 0.769653 2.327813 2.857722
v 1.053204 3.877286 -0.284697
v 0.118840 2.231670 0.082915
v 2.316229 2.439798 1.911721
v 6.289944 1.547242 4.597535
v 3.956338 2.266778 1.601596
v 1.063246 3.785713 -0.022118
v -0.499133 3.855920 -0.255435
v 6.354343 1.583939 4.515041
v 2.316036 2.439798 1.911427
v 4.168936 2.082038 2.039991
v 0.893548 4.399851 -0.566722
v 1.062908 3.785623 -0.022144
v 3.863167 2.013622 1.620942
v 4.267201 2.000371 2.247586
v 6.488270 1.583427 4.144739
v 2.156520 2.633521 1.993900
v 0.948109 2.607301 2.719553
v 2.774179 2.588377 0.552216
v 1.118109 3.501935 -0.175659
v 3.697079 2.197869 1.211567
v 1.141588 2.599375 2.644363
v 1.127529 3.523915 0.023316
v -0.296397 0.884427 -0.167065
v 1.165055 2.073240 2.573700
v 0.860787 4.582049 -1.008771
v 7.349060 1.033666 3.775248
v 3.956640 2.266742 1.601420
v 0.867589 4.487946 -1.561451
v 2.470113 2.691948 0.815380
v 1.429970 2.199832 2.484619
v 1.093411 3.669353 -0.396648
v 0.003923 1.062438 -0.321654
v -0.144114 2.207232 0.184994
v 1.033779 4.197510 -1.067808
v 0.214682 -0.002045 0.115996
v -0.132096 -0.014393 -0.269192
v 3.683269 2.612080 1.212737
v 1.013463 4.243760 -1.321364
v 6.165350 1.437628 4.677679
v 6.518456 1.360136 3.762745
v 3.603345 2.209570 1.103259
v 3.696801 2.197941 1.211761
v 6.354607 1.583738 4.515153
v -0.295284 2.728947 0.120084
v 0.888732 4.470159 -1.053294
v 0.413367 3.392959 0.021886
v 4.657351 1.954197 2.575448
v 2.182420 2.740652 1.073311
v 6.622806 1.335083 3.609120
v 0.172117 2.784044 -0.052853
v 1.621904 2.759530 1.002172
v 6.363577 1.422429 4.131991
v 4.188850 2.148330 2.057865
v 6.458584 1.543823 4.187011
v 3.783638 2.636536 1.327135
v 0.937944 4.366931 -1.260670
v 6.125659 1.364243 4.381893
v 3.783352 2.636526 1.327335
v 1.690460 2.108524 2.283960
v 2.182700 2.318259 1.983151
v 6.255602 1.511307 3.175300
v 6.232174 1.376411 4.259053
v 2.602451 2.474339 1.719385
v 6.232353 1.376123 4.259142
v 0.219076 3.552148 0.151740
v 8.414025 0.777959 4.516119
v 3.120167 2.363089 1.815290
v 6.469800 1.395945 3.886458
v 10.537100 0.135667 5.647558
v 1.014776 3.879449 -1.351184
v 6.547191 1.451939 3.871463
v 4.745100 1.823434 2.384084
v 6.237792 1.326581 4.075683
v 3.940679 2.594483 1.607865
v 0.268553 3.421474 -0.027888
v 3.289423 2.388590 1.615575
v 2.104982 2.468359 2.051617
v 3.575599 2.403061 0.982082
v 1.959244 2.336346 2.132478
v 1.093759 3.669390 -0.396652
v 9.492941 0.414817 5.012469
v 3.940994 2.594541 1.607729
v -0.237838 3.678401 0.129782
v 1.118458 3.501969 -0.175665
v 1.050538 3.609113 -0.970897
v 0.048671 3.232552 -0.162346
v 2.307904 2.541012 1.915244
v 0.920055 4.223376 -0.370219
v 6.212395 1.313166 4.013908
v 1.064054 3.944319 -0.996697
v 0.073465 3.265514 0.075229
v 4.091610 2.049277 1.930772
v 1.959047 2.336370 2.132189
v 1.480561 2.834506 2.362482
v 8.459906 0.737255 4.412878
v 3.815592 2.207703 1.385015
v 4.152231 2.255709 1.986290
v 3.569480 2.493345 1.017829
v 1.059784 2.385367 2.726138
v 1.127183 3.523855 0.023314
v 4.005799 2.514854 1.747039
v 1.101776 3.689875 -0.179733
v 1.617702 2.992096 1.108886
v 1.149551 3.360993 0.341508
v 6.212525 1.312850 4.013973
v 3.647270 2.127489 1.202308
v 6.622628 1.335340 3.608959
v 1.689742 2.808678 2.221198
v -0.273679 1.040643 0.167109
v 4.106936 2.172325 1.899862
v 12.566515 -0.158650 6.996487
v 7.295107 1.018747 3.861792
v 0.893851 4.400004 -0.566651
v 12.503540 -0.140119 6.939853
v 0.947966 2.607251 2.719243
v 1.055511 3.531448 -0.729694
v 1.097858 2.721572 2.618128
v 6.463335 1.454586 3.988698
v 3.873022 2.072048 1.560895
v 0.174523 -0.002461 -0.208927
v 1.063708 3.944278 -0.996682
v 0.861113 4.582171 -1.008785
v 3.826111 2.254181 2.107550
v -0.164918 3.209822 0.142241
v 1.013132 4.243647 -1.321346
v 0.981838 2.008454 2.640832
v -0.183361 2.016215 -0.219333
v 0.769808 2.327739 2.858025
v 3.922985 2.429827 2.260585
v 6.469610 1.396205 3.886318
v 3.881330 2.443845 1.444073
v 0.756603 2.198917 2.808969
v 0.941630 4.378054 -1.615487
v 2.163640 2.714345 1.055587
v 3.198982 2.539762 1.816154
v 3.802800 2.348728 1.306714
v 0.996047 4.270067 -0.831593
v 7.396988 1.114880 3.782415
v 6.360384 1.500767 4.327550
v 2.778491 2.597108 0.558642
v 1.690593 2.415210 2.329306
v 1.015119 3.879447 -1.351244
v 0.047835 3.285028 0.208441
v 6.379629 1.372460 3.949527
v 3.779005 2.022490 1.466429
v 1.551175 1.966983 2.326969
v 1.551373 1.966874 2.327233
v 0.867894 4.488120 -1.561453
v 0.276664 3.236230 0.144383
v 6.177440 1.421206 4.489527
v 1.939865 2.567030 2.140540
v 6.062700 1.359953 4.470377
v 4.267508 2.000321 2.247420
v 6.270224 1.432474 4.382477
v 3.872741 2.072165 1.561069
v 4.023151 2.135988 1.779397
v 10.579293 0.155450 5.629421
v 3.702498 2.340048 1.155381
v 3.183709 2.267314 1.692275
v 2.182502 2.318286 1.982863
v 0.987785 4.047160 -1.481829
v 4.285487 2.061081 2.263977
v 1.940058 2.567064 2.140831
v 10.512609 0.155783 5.690916
v 2.105175 2.468364 2.051912
v 0.207385 3.339075 0.353345
v 0.756455 2.199019 2.808667
v 2.156713 2.633559 1.994191
v 9.552345 0.462102 5.032833
v 3.803094 2.348718 1.306522
v -0.180022 3.200794 -0.081233
v 11.606258 0.011447 6.352949
v 6.270418 1.432194 4.382563
v 6.062531 1.360242 4.470280
v 6.463118 1.454830 3.988573
v 1.081184 3.657499 -0.778101
v 6.459018 1.610351 4.280745
v 8.401608 0.700637 4.445541
v -0.042744 2.778854 -0.279141
v 6.458330 1.544035 4.186902
v 1.279865 2.351881 2.602951
v 1.133682 3.444411 0.386647
v 1.149898 3.361053 0.341513
v 6.546981 1.452179 3.871319
v 3.699534 2.439674 1.193220
v 4.285179 2.061123 2.264141
v 1.167873 1.954982 2.566467
v 10.559026 0.181982 5.701834
v 3.682992 2.612062 1.212949
v 3.779268 2.022331 1.466265
v 9.454956 0.409896 5.080518
v 6.459305 1.610181 4.280842
v 6.555094 1.396162 3.779809
v -0.731994 3.988212 -0.271396
v 7.295589 1.094057 3.918829
v 3.575312 2.403024 0.982276
v 1.749470 2.047035 2.194155
v 1.059943 2.385333 2.726449
v 1.398717 2.557017 2.504887
v 1.759758 3.167020 0.972794
v 1.067648 3.944205 -0.626841
v 4.005478 2.514803 1.747168
v 3.569765 2.493414 1.017636
v 1.165214 2.073164 2.574003
v 0.063895 1.076797 0.238306
v 6.203426 1.496769 3.259141
v 3.983962 2.609361 2.446341
v 3.986212 2.620825 2.436586
v 3.815880 2.207632 1.384832
v 6.200190 1.359429 3.175548
v 3.973201 2.619826 2.444431
v 1.109474 3.614882 0.072596
v 1.048456 2.242299 2.677378
v 9.538288 0.484651 5.091906
v 4.023448 2.135916 1.779226
v 6.379809 1.372182 3.949642
v 2.774186 2.599322 0.548152
v -0.006576 2.794515 0.188010
v 0.941315 4.377905 -1.615479
v 6.433136 1.339093 3.818677
v 3.988553 2.476763 1.663781
v 0.888414 4.470014 -1.053297
v 3.881028 2.443841 1.444251
v 2.448875 2.659285 0.792786
v 6.432965 1.339370 3.818546
v 1.141422 2.599342 2.644059
v 1.398537 2.556983 2.504590
v 4.091907 2.049200 1.930602
v 0.988123 4.047199 -1.481887
v 4.785275 2.054497 2.503676
v 2.594831 2.567017 1.722606
v 6.177605 1.420906 4.489604
v 3.765066 2.551061 1.311764
v 1.036618 3.996648 -1.289279
v 1.861158 3.034077 0.804987
v 6.244745 1.451697 4.521834
v 4.107241 2.172282 1.899693
v 12.458776 -0.150603 6.913263
v 2.473775 2.648916 0.828274
v 4.678515 1.801997 2.501747
v 6.237948 1.326280 4.075771
v 11.602129 0.003277 6.312225
v 0.995716 4.269956 -0.831607
v 0.065791 3.395841 0.267249
v 8.373594 0.723796 4.515438
v 1.067991 3.944277 -0.626836
v 11.552109 -0.018770 6.287665
v 9.443155 0.455313 5.118835
v 11.537455 -0.019617 6.326289
v 2.602646 2.474340 1.719677
v 0.214091 3.302624 -0.029979
v 0.391586 3.639720 0.120319
v 6.103021 1.412174 4.648089
v 1.050193 3.609157 -0.970865
v 1.055856 3.531409 -0.729721
v 6.146873 1.303738 4.125694
v 0.970067 4.215902 -0.488579
v -0.016785 3.737949 -0.218536
v 0.919748 4.223234 -0.370296
v 6.125813 1.363939 4.381975
v 2.595025 2.567027 1.722900
v 6.080978 1.321414 4.359754
v 4.067274 2.287069 1.819585
v 1.101430 3.689810 -0.179738
v 4.188543 2.148369 2.058032
v 6.329175 1.528612 4.488787
v -0.283884 -0.015804 0.014432
v 8.473874 0.784946 4.454638
v 2.307713 2.541001 1.914948
v 1.689930 2.808788 2.221469
v -0.631486 4.015287 -0.429768
v 3.988865 2.476789 1.663625
v 1.430150 2.199788 2.484916
v 1.736891 2.796589 0.799259
v 6.360151 1.501008 4.327455
v 3.764774 2.551022 1.311954
v 1.109819 3.614952 0.072603
v 12.503601 -0.143605 6.962111
v 1.279695 2.351907 2.602645
v 6.518634 1.359876 3.762900
v 0.981699 2.008505 2.640517
v 1.098010 2.721661 2.618430
v 1.480377 2.834390 2.362210
v -0.059562 3.264299 -0.010443
v 0.166846 3.419019 0.121235
v -0.181086 2.752204 -0.086581
v -0.108650 1.062782 0.217253
v 0.136143 1.071760 -0.198286
v -0.299854 0.957395 0.001996
v 0.168456 1.075326 0.100040
v -0.152411 0.969487 -0.258380
v -0.115800 3.695368 -0.038798
v -0.310972 3.824601 -0.002316
v -0.183747 3.858874 -0.202787
v 12.568010 -0.158716 6.984763
v 9.523764 0.438055 5.019675
v 7.375067 1.073673 3.774979
v 9.445946 0.431811 5.101912
v 7.292542 1.054617 3.893670
v 9.548998 0.475157 5.062248
v 7.382469 1.138487 3.821020
v 9.472902 0.410192 5.045122
v 7.320959 1.022568 3.817004
v 9.490074 0.471564 5.107604
v 7.328267 1.127462 3.893554
v 1.804047 2.913098 0.793508
v 1.613899 2.870845 1.063479
v 1.816724 3.110133 0.885874
v 1.676561 2.767136 0.898052
v 1.686181 3.088099 1.047184
v 11.570759 0.007814 6.353021
v 11.543724 -0.020241 6.305866
v 11.607088 0.008072 6.333262
v 11.534351 -0.008638 6.339056
v 11.577284 -0.007906 6.298063
v 4.719806 2.009682 2.544098
v 4.710474 1.805558 2.441236
v 4.810664 2.022145 2.441499
v 4.663406 1.875265 2.543002
v 4.788012 1.899439 2.377849
v 3.903354 2.426286 2.273063
v 3.906974 2.446030 2.255057
v 3.883563 2.443832 2.268271
v 2.458775 2.676961 0.802864
v 2.460883 2.652194 0.810285
v 2.473106 2.670993 0.823289
v 0.094842 2.790976 0.074632
v 0.075024 2.782394 -0.181341
v -0.161268 2.760786 0.169392
v 6.509713 1.425947 3.880343
v 6.304028 1.373684 4.103299
v 6.201711 1.398489 4.376939
v 6.170175 1.430589 4.590032
v 6.303428 1.478509 4.429442
v 6.412121 1.480383 4.158313
v 6.449174 1.366048 3.852321
v 6.591304 1.364124 3.688542
v 4.098078 2.107943 1.913456
v 3.975545 2.368672 1.632195
v 3.788965 2.446265 1.315117
v 3.632463 2.420823 1.080745
v 3.757308 2.271807 1.264463
v 3.918574 2.170117 1.581558
v 4.130266 2.217553 1.942934
v 4.231091 2.070231 2.159365
v 2.129247 2.555693 2.024009
v 1.695102 2.264843 2.309075
v 1.233603 2.215848 2.584670
v 0.898577 2.286841 2.772824
v 1.223947 2.475445 2.621854
v 1.668492 2.566459 2.322529
v 2.143043 2.388311 2.018149
v 2.465251 2.506587 1.810862
v 1.110811 3.592265 -0.181456
v 1.024378 4.077269 -0.556541
v 0.965268 4.327252 -1.050238
v 0.938180 4.374286 -1.450102
v 1.041290 4.094457 -1.167122
v 1.078800 3.803311 -0.698811
v 1.081500 3.742896 -0.099944
v 1.131071 3.480395 0.216791
v 6.509914 1.425697 3.880484
v 6.304208 1.373401 4.103400
v 6.201882 1.398195 4.377021
v 6.170337 1.430286 4.590097
v 6.303640 1.478247 4.429528
v 6.412347 1.480141 4.158423
v 6.449354 1.365779 3.852457
v 6.591484 1.363868 3.688701
v 4.098379 2.107882 1.913286
v 3.975852 2.368666 1.632027
v 3.789259 2.446283 1.314927
v 3.632749 2.420858 1.080548
v 3.757596 2.271768 1.264271
v 3.918866 2.170043 1.581381
v 4.130576 2.217525 1.942771
v 4.231398 2.070186 2.159198
v 2.129439 2.555716 2.024302
v 1.695291 2.264808 2.309367
v 1.233769 2.215793 2.584973
v 0.898731 2.286771 2.773130
v 1.224116 2.475446 2.622159
v 1.668679 2.566495 2.322823
v 2.143238 2.388299 2.018440
v 2.465445 2.506592 1.811156
v 1.111158 3.592314 -0.181457
v 1.024713 4.077368 -0.556521
v 0.965595 4.327379 -1.050237
v 0.938498 4.374431 -1.450112
v 1.041629 4.094533 -1.167139
v 1.079147 3.803348 -0.698820
v 1.081842 3.742974 -0.099928
v 1.131417 3.480460 0.216797
vt 0.9351 0.3490
vt 0.9372 0.3418
vt 0.9393 0.3459
vt 0.9372 0.3562
vt 0.9384 0.3336
vt 0.9418 0.3356
vt 0.9291 0.3121
vt 0.9232 0.3121
vt 0.9203 0.2989
vt 0.9277 0.2989
vt 0.9190 0.2888
vt 0.9248 0.2888
vt 0.9500 0.2989
vt 0.9455 0.2888
vt 0.9513 0.2888
vt 0.9299 0.2909
vt 0.9293 0.2787
vt 0.9322 0.2828
vt 0.9351 0.2763
vt 0.9322 0.2696
vt 0.9171 0.3043
vt 0.9443 0.3253
vt 0.9471 0.3121
vt 0.9503 0.3172
vt 0.9403 0.2909
vt 0.9351 0.2930
vt 0.9351 0.2870
vt 0.9381 0.2828
vt 0.9411 0.3121
vt 0.9351 0.3121
vt 0.9351 0.2989
vt 0.9426 0.2989
vt 0.9318 0.3336
vt 0.9351 0.3315
vt 0.9351 0.3377
vt 0.9331 0.3418
vt 0.9351 0.3490
vt 0.9372 0.3418
vt 0.9393 0.3459
vt 0.9372 0.3562
vt 0.9384 0.3336
vt 0.9418 0.3356
vt 0.9291 0.3121
vt 0.9232 0.3121
vt 0.9203 0.2989
vt 0.9277 0.2989
vt 0.9190 0.2888
vt 0.9248 0.2888
vt 0.9500 0.2989
vt 0.9455 0.2888
vt 0.9513 0.2888
vt 0.9299 0.2909
vt 0.9293 0.2787
vt 0.9322 0.2828
vt 0.9351 0.2763
vt 0.9322 0.2696
vt 0.9171 0.3043
vt 0.9443 0.3253
vt 0.9471 0.3121
vt 0.9503 0.3172
vt 0.9403 0.2909
vt 0.9351 0.2930
vt 0.9351 0.2870
vt 0.9381 0.2828
vt 0.9411 0.3121
vt 0.9351 0.3121
vt 0.9351 0.2989
vt 0.9426 0.2989
vt 0.9318 0.3336
vt 0.9351 0.3315
vt 0.9351 0.3377
vt 0.9331 0.3418
vt 0.9351 0.3490
vt 0.9372 0.3418
vt 0.9393 0.3459
vt 0.9372 0.3562
vt 0.9384 0.3336
vt 0.9418 0.3356
vt 0.9291 0.3121
vt 0.9232 0.3121
vt 0.9203 0.2989
vt 0.9277 0.2989
vt 0.9190 0.2888
vt 0.9248 0.2888
vt 0.9500 0.2989
vt 0.9455 0.2888
vt 0.9513 0.2888
vt 0.9299 0.2909
vt 0.9293 0.2787
vt 0.9322 0.2828
vt 0.9351 0.2763
vt 0.9322 0.2696
vt 0.9171 0.3043
vt 0.9443 0.3253
vt 0.9471 0.3121
vt 0.9503 0.3172
vt 0.9403 0.2909
vt 0.9351 0.2930
vt 0.9351 0.2870
vt 0.9381 0.2828
vt 0.9411 0.3121
vt 0.9351 0.3121
vt 0.9351 0.2989
vt 0.9426 0.2989
vt 0.9318 0.3336
vt 0.9351 0.3315
vt 0.9351 0.3377
vt 0.9331 0.3418
vt 0.9351 0.3490
vt 0.9372 0.3418
vt 0.9393 0.3459
vt 0.9372 0.3562
vt 0.9384 0.3336
vt 0.9418 0.3356
vt 0.9291 0.3121
vt 0.9232 0.3121
vt 0.9203 0.2989
vt 0.9277 0.2989
vt 0.9190 0.2888
vt 0.9248 0.2888
vt 0.9500 0.2989
vt 0.9455 0.2888
vt 0.9513 0.2888
vt 0.9299 0.2909
vt 0.9293 0.2787
vt 0.9322 0.2828
vt 0.9351 0.2763
vt 0.9322 0.2696
vt 0.9171 0.3043
vt 0.9443 0.3253
vt 0.9471 0.3121
vt 0.9503 0.3172
vt 0.9403 0.2909
vt 0.9351 0.2930
vt 0.9351 0.2870
vt 0.9381 0.2828
vt 0.9411 0.3121
vt 0.9351 0.3121
vt 0.9351 0.2989
vt 0.9426 0.2989
vt 0.9318 0.3336
vt 0.9351 0.3315
vt 0.9351 0.3377
vt 0.9331 0.3418
vt 0.9351 0.3490
vt 0.9372 0.3418
vt 0.9351 0.3377
vt 0.9331 0.3418
vt 0.9384 0.3336
vt 0.9418 0.3356
vt 0.9443 0.3253
vt 0.9397 0.3253
vt 0.9291 0.3121
vt 0.9232 0.3121
vt 0.9260 0.3253
vt 0.9305 0.3253
vt 0.9293 0.2787
vt 0.9235 0.2787
vt 0.9248 0.2888
vt 0.9526 0.2787
vt 0.9468 0.2787
vt 0.9513 0.2888
vt 0.9299 0.2909
vt 0.9203 0.2989
vt 0.9277 0.2989
vt 0.9351 0.2763
vt 0.9322 0.2828
vt 0.9351 0.2870
vt 0.9381 0.2828
vt 0.9139 0.3096
vt 0.9200 0.3174
vt 0.9171 0.3043
vt 0.9564 0.3091
vt 0.9532 0.3040
vt 0.9503 0.3172
vt 0.9403 0.2909
vt 0.9351 0.2930
vt 0.9351 0.2989
vt 0.9426 0.2989
vt 0.9411 0.3121
vt 0.9351 0.3121
vt 0.9351 0.3253
vt 0.9318 0.3336
vt 0.9351 0.3315
vt 0.9351 0.3490
vt 0.9372 0.3418
vt 0.9351 0.3377
vt 0.9331 0.3418
vt 0.9384 0.3336
vt 0.9418 0.3356
vt 0.9443 0.3253
vt 0.9397 0.3253
vt 0.9291 0.3121
vt 0.9232 0.3121
vt 0.9260 0.3253
vt 0.9305 0.3253
vt 0.9293 0.2787
vt 0.9235 0.2787
vt 0.9248 0.2888
vt 0.9526 0.2787
vt 0.9468 0.2787
vt 0.9513 0.2888
vt 0.9299 0.2909
vt 0.9203 0.2989
vt 0.9277 0.2989
vt 0.9351 0.2763
vt 0.9322 0.2828
vt 0.9351 0.2870
vt 0.9381 0.2828
vt 0.9139 0.3096
vt 0.9200 0.3174
vt 0.9171 0.3043
vt 0.9564 0.3091
vt 0.9532 0.3040
vt 0.9503 0.3172
vt 0.9403 0.2909
vt 0.9351 0.2930
vt 0.9351 0.2989
vt 0.9426 0.2989
vt 0.9411 0.3121
vt 0.9351 0.3121
vt 0.9351 0.3253
vt 0.9318 0.3336
vt 0.9351 0.3315
vt 0.9351 0.3490
vt 0.9372 0.3418
vt 0.9351 0.3377
vt 0.9331 0.3418
vt 0.9384 0.3336
vt 0.9418 0.3356
vt 0.9443 0.3253
vt 0.9397 0.3253
vt 0.9291 0.3121
vt 0.9232 0.3121
vt 0.9260 0.3253
vt 0.9305 0.3253
vt 0.9293 0.2787
vt 0.9235 0.2787
vt 0.9248 0.2888
vt 0.9526 0.2787
vt 0.9468 0.2787
vt 0.9513 0.2888
vt 0.9299 0.2909
vt 0.9203 0.2989
vt 0.9277 0.2989
vt 0.9351 0.2763
vt 0.9322 0.2828
vt 0.9351 0.2870
vt 0.9381 0.2828
vt 0.9139 0.3096
vt 0.9200 0.3174
vt 0.9171 0.3043
vt 0.9564 0.3091
vt 0.9532 0.3040
vt 0.9503 0.3172
vt 0.9403 0.2909
vt 0.9351 0.2930
vt 0.9351 0.2989
vt 0.9426 0.2989
vt 0.9411 0.3121
vt 0.9351 0.3121
vt 0.9351 0.3253
vt 0.9318 0.3336
vt 0.9351 0.3315
vt 0.9351 0.3490
vt 0.9372 0.3418
vt 0.9351 0.3377
vt 0.9331 0.3418
vt 0.9384 0.3336
vt 0.9418 0.3356
vt 0.9443 0.3253
vt 0.9397 0.3253
vt 0.9291 0.3121
vt 0.9232 0.3121
vt 0.9260 0.3253
vt 0.9305 0.3253
vt 0.9293 0.2787
vt 0.9235 0.2787
vt 0.9248 0.2888
vt 0.9526 0.2787
vt 0.9468 0.2787
vt 0.9513 0.2888
vt 0.9299 0.2909
vt 0.9203 0.2989
vt 0.9277 0.2989
vt 0.9351 0.2763
vt 0.9322 0.2828
vt 0.9351 0.2870
vt 0.9381 0.2828
vt 0.9139 0.3096
vt 0.9200 0.3174
vt 0.9171 0.3043
vt 0.9564 0.3091
vt 0.9532 0.3040
vt 0.9503 0.3172
vt 0.9403 0.2909
vt 0.9351 0.2930
vt 0.9351 0.2989
vt 0.9426 0.2989
vt 0.9411 0.3121
vt 0.9351 0.3121
vt 0.9351 0.3253
vt 0.9318 0.3336
vt 0.9351 0.3315
vt 0.9121 0.9580
vt 0.9118 0.9654
vt 0.9095 0.9647
vt 0.9096 0.9575
vt 0.8976 0.9584
vt 0.8979 0.9657
vt 0.8954 0.9658
vt 0.8950 0.9584
vt 0.9169 0.9585
vt 0.9165 0.9660
vt 0.9142 0.9660
vt 0.9146 0.9585
vt 0.9375 0.9162
vt 0.9309 0.9162
vt 0.9309 0.9160
vt 0.9375 0.9159
vt 0.9375 0.9170
vt 0.9309 0.9166
vt 0.9309 0.9164
vt 0.9375 0.9166
vt 0.9308 0.9224
vt 0.9310 0.9225
vt 0.9308 0.9226
vt 0.9375 0.9155
vt 0.9309 0.9158
vt 0.9308 0.9156
vt 0.9375 0.9151
vt 0.9351 0.9187
vt 0.9309 0.9190
vt 0.9308 0.9187
vt 0.9351 0.9183
vt 0.9351 0.9204
vt 0.9309 0.9201
vt 0.9309 0.9198
vt 0.9352 0.9200
vt 0.9352 0.9196
vt 0.9309 0.9196
vt 0.9309 0.9193
vt 0.9352 0.9191
vt 0.9308 0.9221
vt 0.9311 0.9219
vt 0.9311 0.9222
vt 0.9584 0.9700
vt 0.9323 0.9695
vt 0.9323 0.9686
vt 0.9586 0.9686
vt 0.9584 0.9777
vt 0.9319 0.9749
vt 0.9320 0.9740
vt 0.9588 0.9764
vt 0.9581 0.9725
vt 0.9322 0.9713
vt 0.9322 0.9704
vt 0.9582 0.9713
vt 0.9586 0.9675
vt 0.9323 0.9677
vt 0.9323 0.9669
vt 0.9586 0.9664
vt 0.9584 0.9751
vt 0.9320 0.9731
vt 0.9321 0.9722
vt 0.9581 0.9737
vt 0.9115 0.9853
vt 0.9109 0.9857
vt 0.8931 0.9861
vt 0.8938 0.9858
vt 0.9118 0.9875
vt 0.9119 0.9878
vt 0.8945 0.9879
vt 0.8941 0.9876
vt 0.9107 0.9860
vt 0.9105 0.9863
vt 0.8928 0.9867
vt 0.8929 0.9864
vt 0.9119 0.9845
vt 0.9121 0.9849
vt 0.8946 0.9855
vt 0.8944 0.9852
vt 0.9111 0.9867
vt 0.9117 0.9871
vt 0.8937 0.9873
vt 0.8932 0.9870
vt 0.9202 0.9049
vt 0.8937 0.9021
vt 0.8931 0.9002
vt 0.9204 0.9028
vt 0.9207 0.8929
vt 0.8942 0.8922
vt 0.8941 0.8910
vt 0.9207 0.8910
vt 0.9201 0.9009
vt 0.8931 0.8987
vt 0.8932 0.8972
vt 0.9198 0.8990
vt 0.9196 0.9089
vt 0.8935 0.9057
vt 0.8943 0.9040
vt 0.9201 0.9069
vt 0.9203 0.8969
vt 0.8937 0.8953
vt 0.8942 0.8935
vt 0.9208 0.8948
vt 0.9125 0.9719
vt 0.9126 0.9727
vt 0.8932 0.9715
vt 0.8930 0.9707
vt 0.9471 0.9866
vt 0.9476 0.9873
vt 0.9297 0.9870
vt 0.9290 0.9864
vt 0.9129 0.9672
vt 0.9129 0.9681
vt 0.8936 0.9675
vt 0.8936 0.9668
vt 0.9475 0.9835
vt 0.9475 0.9841
vt 0.9295 0.9844
vt 0.9294 0.9839
vt 0.9125 0.9703
vt 0.9125 0.9711
vt 0.8929 0.9699
vt 0.8928 0.9692
vt 0.9467 0.9855
vt 0.9466 0.9860
vt 0.9282 0.9859
vt 0.9284 0.9855
vt 0.9126 0.9735
vt 0.9126 0.9742
vt 0.8933 0.9727
vt 0.8932 0.9721
vt 0.9475 0.9878
vt 0.9475 0.9883
vt 0.9293 0.9877
vt 0.9295 0.9873
vt 0.9127 0.9688
vt 0.9125 0.9695
vt 0.8928 0.9686
vt 0.8932 0.9681
vt 0.9472 0.9846
vt 0.9468 0.9850
vt 0.9287 0.9852
vt 0.9291 0.9848
vt 0.9314 0.9215
vt 0.9316 0.9216
vt 0.9312 0.9217
vt 0.9310 0.9216
vt 0.9312 0.9212
vt 0.9315 0.9212
vt 0.9310 0.9214
vt 0.9485 0.8955
vt 0.9479 0.8958
vt 0.9479 0.8933
vt 0.9493 0.8910
vt 0.9489 0.8932
vt 0.9483 0.8910
vt 0.9455 0.9144
vt 0.9457 0.9122
vt 0.9465 0.9144
vt 0.9473 0.8961
vt 0.9469 0.8985
vt 0.9559 0.9036
vt 0.9533 0.9013
vt 0.9601 0.9017
vt 0.9647 0.9042
vt 0.9556 0.9082
vt 0.9585 0.9060
vt 0.9692 0.9067
vt 0.9643 0.9087
vt 0.8588 0.8427
vt 0.8456 0.8474
vt 0.8456 0.8377
vt 0.8140 0.8424
vt 0.8140 0.8327
vt 0.8323 0.8327
vt 0.8323 0.8424
vt 0.9022 0.9312
vt 0.9025 0.9478
vt 0.9000 0.9509
vt 0.8995 0.9327
vt 0.9184 0.9329
vt 0.9173 0.9511
vt 0.9149 0.9511
vt 0.9157 0.9328
vt 0.9075 0.9310
vt 0.9074 0.9475
vt 0.9050 0.9448
vt 0.9049 0.9297
vt 0.8966 0.9328
vt 0.8973 0.9510
vt 0.8946 0.9510
vt 0.8937 0.9329
vt 0.9129 0.9326
vt 0.9123 0.9506
vt 0.9098 0.9502
vt 0.9102 0.9324
vt 0.7921 0.7993
vt 0.8028 0.7984
vt 0.8020 0.8179
vt 0.7917 0.8189
vt 0.7931 0.7627
vt 0.7983 0.7709
vt 0.7873 0.7715
vt 0.7889 0.8414
vt 0.7820 0.8404
vt 0.7825 0.8343
vt 0.7891 0.8335
vt 0.7919 0.8253
vt 0.7837 0.8263
vt 0.7815 0.8200
vt 0.8001 0.8242
vt 0.7981 0.8305
vt 0.7921 0.8316
vt 0.7860 0.8326
vt 0.7957 0.8424
vt 0.7957 0.8327
vt 0.7957 0.8520
vt 0.7886 0.8492
vt 0.7815 0.8465
vt 0.7925 0.7796
vt 0.7815 0.7803
vt 0.8036 0.7790
vt 0.7815 0.8002
vt 0.9136 0.9145
vt 0.9106 0.9145
vt 0.9165 0.9145
vt 0.8959 0.9146
vt 0.8928 0.9147
vt 0.8990 0.9145
vt 0.9077 0.9146
vt 0.9048 0.9146
vt 0.9195 0.9146
vt 0.9225 0.9148
vt 0.9211 0.9330
vt 0.9198 0.9511
vt 0.9019 0.9146
vt 0.8140 0.8520
vt 0.8323 0.8520
vt 0.9527 0.9103
vt 0.9595 0.9107
vt 0.9459 0.9099
vt 0.9468 0.9076
vt 0.9477 0.9053
vt 0.9471 0.9031
vt 0.9465 0.9008
vt 0.9475 0.8981
vt 0.9467 0.9122
vt 0.9475 0.9145
vt 0.9473 0.8911
vt 0.9473 0.8936
vt 0.9312 0.9214
vt 0.9308 0.9215
vt 0.9317 0.9212
vt 0.9318 0.9213
vt 0.9319 0.9214
vt 0.9656 0.9838
vt 0.9653 0.9843
vt 0.9649 0.9849
vt 0.9655 0.9876
vt 0.9656 0.9882
vt 0.9656 0.9888
vt 0.9319 0.9758
vt 0.9649 0.9855
vt 0.9650 0.9861
vt 0.9474 0.9828
vt 0.9292 0.9834
vt 0.9656 0.9823
vt 0.9656 0.9830
vt 0.9129 0.9664
vt 0.8936 0.9660
vt 0.9653 0.9869
vt 0.9191 0.9109
vt 0.8928 0.9074
vt 0.9117 0.9841
vt 0.8943 0.9849
vt 0.9848 0.9771
vt 0.9841 0.9752
vt 0.9855 0.9789
vt 0.9850 0.9673
vt 0.9850 0.9660
vt 0.9850 0.9686
vt 0.9841 0.9737
vt 0.9841 0.9723
vt 0.9848 0.9806
vt 0.9841 0.9823
vt 0.9580 0.9790
vt 0.9845 0.9704
vt 0.9313 0.9220
vt 0.9313 0.9223
vt 0.9313 0.9218
vt 0.9394 0.9196
vt 0.9394 0.9190
vt 0.9394 0.9201
vt 0.9394 0.9206
vt 0.9393 0.9211
vt 0.9351 0.9208
vt 0.9308 0.9204
vt 0.9394 0.9185
vt 0.9393 0.9180
vt 0.9441 0.9151
vt 0.9441 0.9145
vt 0.9442 0.9157
vt 0.9310 0.9227
vt 0.9308 0.9228
vt 0.9312 0.9226
vt 0.9441 0.9174
vt 0.9441 0.9168
vt 0.9441 0.9179
vt 0.9375 0.9174
vt 0.9308 0.9168
vt 0.9441 0.9162
vt 0.9193 0.9585
vt 0.9188 0.9659
vt 0.9002 0.9583
vt 0.9004 0.9657
vt 0.9285 0.3356
vt 0.9310 0.3459
vt 0.9471 0.3121
vt 0.9500 0.2989
vt 0.9455 0.2888
vt 0.9410 0.2787
vt 0.9381 0.2696
vt 0.9351 0.2606
vt 0.9322 0.2696
vt 0.9190 0.2888
vt 0.9177 0.2787
vt 0.9393 0.3459
vt 0.9331 0.3562
vt 0.9351 0.3666
vt 0.9372 0.3562
vt 0.9285 0.3356
vt 0.9310 0.3459
vt 0.9471 0.3121
vt 0.9500 0.2989
vt 0.9455 0.2888
vt 0.9410 0.2787
vt 0.9381 0.2696
vt 0.9351 0.2606
vt 0.9322 0.2696
vt 0.9190 0.2888
vt 0.9177 0.2787
vt 0.9393 0.3459
vt 0.9331 0.3562
vt 0.9351 0.3666
vt 0.9372 0.3562
vt 0.9285 0.3356
vt 0.9310 0.3459
vt 0.9471 0.3121
vt 0.9500 0.2989
vt 0.9455 0.2888
vt 0.9410 0.2787
vt 0.9381 0.2696
vt 0.9351 0.2606
vt 0.9322 0.2696
vt 0.9190 0.2888
vt 0.9177 0.2787
vt 0.9393 0.3459
vt 0.9331 0.3562
vt 0.9351 0.3666
vt 0.9372 0.3562
vt 0.9285 0.3356
vt 0.9310 0.3459
vt 0.9471 0.3121
vt 0.9500 0.2989
vt 0.9455 0.2888
vt 0.9410 0.2787
vt 0.9381 0.2696
vt 0.9351 0.2606
vt 0.9322 0.2696
vt 0.9190 0.2888
vt 0.9177 0.2787
vt 0.9393 0.3459
vt 0.9331 0.3562
vt 0.9351 0.3666
vt 0.9372 0.3562
vt 0.9285 0.3356
vt 0.9310 0.3459
vt 0.9260 0.3253
vt 0.9305 0.3253
vt 0.9351 0.3253
vt 0.9397 0.3253
vt 0.9410 0.2787
vt 0.9532 0.3040
vt 0.9564 0.3091
vt 0.9200 0.3174
vt 0.9139 0.3096
vt 0.9381 0.2696
vt 0.9351 0.2606
vt 0.9468 0.2787
vt 0.9526 0.2787
vt 0.9235 0.2787
vt 0.9177 0.2787
vt 0.9331 0.3562
vt 0.9351 0.3666
vt 0.9285 0.3356
vt 0.9310 0.3459
vt 0.9260 0.3253
vt 0.9305 0.3253
vt 0.9351 0.3253
vt 0.9397 0.3253
vt 0.9410 0.2787
vt 0.9532 0.3040
vt 0.9564 0.3091
vt 0.9200 0.3174
vt 0.9139 0.3096
vt 0.9381 0.2696
vt 0.9351 0.2606
vt 0.9468 0.2787
vt 0.9526 0.2787
vt 0.9235 0.2787
vt 0.9177 0.2787
vt 0.9331 0.3562
vt 0.9351 0.3666
vt 0.9285 0.3356
vt 0.9310 0.3459
vt 0.9260 0.3253
vt 0.9305 0.3253
vt 0.9351 0.3253
vt 0.9397 0.3253
vt 0.9410 0.2787
vt 0.9532 0.3040
vt 0.9564 0.3091
vt 0.9200 0.3174
vt 0.9139 0.3096
vt 0.9381 0.2696
vt 0.9351 0.2606
vt 0.9468 0.2787
vt 0.9526 0.2787
vt 0.9235 0.2787
vt 0.9177 0.2787
vt 0.9331 0.3562
vt 0.9351 0.3666
vt 0.9285 0.3356
vt 0.9310 0.3459
vt 0.9260 0.3253
vt 0.9305 0.3253
vt 0.9351 0.3253
vt 0.9397 0.3253
vt 0.9410 0.2787
vt 0.9532 0.3040
vt 0.9564 0.3091
vt 0.9200 0.3174
vt 0.9139 0.3096
vt 0.9381 0.2696
vt 0.9351 0.2606
vt 0.9468 0.2787
vt 0.9526 0.2787
vt 0.9235 0.2787
vt 0.9177 0.2787
vt 0.9331 0.3562
vt 0.9351 0.3666
vn 0.9836 0.1788 0.0231
vn 0.9716 0.2333 0.0385
vn 0.9754 0.2176 0.0366
vn 0.9832 0.1809 0.0259
vn 0.9549 0.2907 0.0610
vn 0.9510 0.3029 0.0615
vn 0.9981 0.0579 -0.0228
vn 0.9928 -0.1001 -0.0665
vn 0.9965 0.0027 -0.0834
vn 0.9963 0.0770 -0.0382
vn 0.9680 -0.0518 -0.2454
vn 0.9851 0.0123 -0.1716
vn 0.9253 0.3763 0.0470
vn 0.9158 0.3890 -0.0997
vn 0.9481 0.2856 -0.1399
vn 0.9932 0.0937 -0.0686
vn 0.9738 0.1927 -0.1204
vn 0.9530 0.2940 -0.0734
vn 0.8670 0.4983 0.0014
vn 0.8730 0.4860 0.0399
vn 0.9715 -0.2122 -0.1059
vn 0.9327 0.3347 0.1345
vn 0.8903 0.3986 0.2202
vn 0.8144 0.4836 0.3208
vn 0.8811 0.4729 -0.0023
vn 0.9589 0.2838 0.0051
vn 0.9210 0.3895 -0.0016
vn 0.8332 0.5527 -0.0149
vn 0.9510 0.2894 0.1089
vn 0.9832 0.1786 0.0379
vn 0.9770 0.2123 0.0213
vn 0.9375 0.3449 0.0464
vn 0.9951 0.0838 -0.0521
vn 0.9825 0.1858 0.0095
vn 0.9825 0.1860 0.0092
vn 0.9907 0.1355 -0.0146
vn 0.5560 0.0168 0.8310
vn 0.5492 -0.0406 0.8347
vn 0.5533 -0.0250 0.8326
vn 0.5574 0.0138 0.8301
vn 0.5440 -0.1050 0.8325
vn 0.5397 -0.1168 0.8337
vn 0.5501 0.1467 0.8221
vn 0.5482 0.3014 0.7801
vn 0.5080 0.2172 0.8335
vn 0.5288 0.1354 0.8379
vn 0.3657 0.3193 0.8743
vn 0.4225 0.2389 0.8743
vn 0.4937 -0.1881 0.8490
vn 0.3735 -0.1554 0.9145
vn 0.3760 -0.0443 0.9256
vn 0.4956 0.1297 0.8588
vn 0.4311 0.0515 0.9008
vn 0.4424 -0.0647 0.8945
vn 0.4311 -0.2994 0.8512
vn 0.4705 -0.2972 0.8308
vn 0.5304 0.4077 0.7433
vn 0.5736 -0.1783 0.7995
vn 0.5992 -0.2767 0.7513
vn 0.6143 -0.4065 0.6763
vn 0.4196 -0.2657 0.8680
vn 0.5025 -0.0778 0.8611
vn 0.4624 -0.1781 0.8686
vn 0.3806 -0.3491 0.8563
vn 0.5724 -0.1240 0.8105
vn 0.5614 0.0106 0.8275
vn 0.5377 -0.0141 0.8430
vn 0.5076 -0.1550 0.8475
vn 0.5241 0.1340 0.8411
vn 0.5426 0.0153 0.8399
vn 0.5429 0.0155 0.8397
vn 0.5399 0.0720 0.8386
vn 0.8752 -0.1320 -0.4654
vn 0.8835 -0.0706 -0.4631
vn 0.8829 -0.0895 -0.4610
vn 0.8767 -0.1297 -0.4632
vn 0.8896 -0.0045 -0.4567
vn 0.8898 0.0075 -0.4564
vn 0.8350 -0.2574 -0.4863
vn 0.7805 -0.4236 -0.4597
vn 0.7926 -0.3235 -0.5169
vn 0.8285 -0.2424 -0.5047
vn 0.6768 -0.4025 -0.6164
vn 0.7401 -0.3297 -0.5860
vn 0.8578 0.0684 -0.5094
vn 0.7738 0.0595 -0.6306
vn 0.7685 -0.0559 -0.6374
vn 0.8127 -0.2307 -0.5351
vn 0.7867 -0.1504 -0.5987
vn 0.8118 -0.0317 -0.5831
vn 0.8167 0.1992 -0.5416
vn 0.8425 0.1866 -0.5053
vn 0.7209 -0.5362 -0.4391
vn 0.9061 0.0541 -0.4195
vn 0.9191 0.1295 -0.3722
vn 0.9245 0.2427 -0.2939
vn 0.8031 0.1666 -0.5721
vn 0.8466 -0.0251 -0.5317
vn 0.8294 0.0713 -0.5541
vn 0.7789 0.2592 -0.5711
vn 0.8956 -0.0022 -0.4448
vn 0.8703 -0.1280 -0.4756
vn 0.8600 -0.0960 -0.5013
vn 0.8571 0.0413 -0.5135
vn 0.8261 -0.2353 -0.5120
vn 0.8664 -0.1221 -0.4842
vn 0.8677 -0.1223 -0.4818
vn 0.8526 -0.1803 -0.4905
vn 0.5091 -0.7267 0.4613
vn 0.4916 -0.7513 0.4403
vn 0.4896 -0.7473 0.4492
vn 0.5050 -0.7277 0.4641
vn 0.4721 -0.7844 0.4022
vn 0.4584 -0.7881 0.4107
vn 0.6805 -0.6696 0.2977
vn 0.8049 -0.5204 0.2852
vn 0.7412 -0.6100 0.2801
vn 0.6839 -0.6806 0.2627
vn 0.7734 -0.5201 0.3625
vn 0.7423 -0.5947 0.3087
vn 0.4637 -0.8479 0.2570
vn 0.4765 -0.8168 0.3252
vn 0.5570 -0.7551 0.3457
vn 0.6872 -0.6868 0.2369
vn 0.6440 -0.7208 0.2562
vn 0.5547 -0.8022 0.2209
vn 0.3882 -0.9128 0.1269
vn 0.4089 -0.9094 0.0767
vn 0.8782 -0.3912 0.2753
vn 0.4510 -0.8485 0.2767
vn 0.3933 -0.9037 0.1695
vn 0.2759 -0.9570 0.0895
vn 0.4099 -0.8748 0.2582
vn 0.5562 -0.8011 0.2210
vn 0.4818 -0.8514 0.2073
vn 0.3276 -0.9224 0.2048
vn 0.5130 -0.8200 0.2536
vn 0.5970 -0.7503 0.2841
vn 0.5915 -0.7651 0.2547
vn 0.4952 -0.8281 0.2627
vn 0.5799 -0.6825 0.4448
vn 0.5344 -0.7377 0.4126
vn 0.5238 -0.7335 0.4331
vn 0.5363 -0.7083 0.4590
vn -0.9836 -0.1788 -0.0231
vn -0.9716 -0.2333 -0.0385
vn -0.9825 -0.1860 -0.0092
vn -0.9907 -0.1355 0.0146
vn -0.9549 -0.2907 -0.0610
vn -0.9510 -0.3029 -0.0615
vn -0.9327 -0.3347 -0.1345
vn -0.9502 -0.2979 -0.0911
vn -0.9981 -0.0579 0.0228
vn -0.9927 0.1001 0.0665
vn -0.9985 -0.0009 0.0554
vn -0.9973 -0.0585 0.0439
vn -0.9738 -0.1927 0.1204
vn -0.9650 0.0431 0.2587
vn -0.9851 -0.0123 0.1716
vn -0.9484 -0.2746 0.1587
vn -0.9412 -0.3061 0.1430
vn -0.9481 -0.2857 0.1399
vn -0.9932 -0.0937 0.0686
vn -0.9965 -0.0027 0.0834
vn -0.9963 -0.0770 0.0382
vn -0.8670 -0.4983 -0.0014
vn -0.9530 -0.2940 0.0734
vn -0.9210 -0.3895 0.0016
vn -0.8332 -0.5527 0.0149
vn -0.9592 0.2622 0.1057
vn -0.9660 0.2377 0.1015
vn -0.9715 0.2122 0.1059
vn -0.7987 -0.4965 -0.3399
vn -0.8347 -0.4724 -0.2831
vn -0.8144 -0.4836 -0.3208
vn -0.8811 -0.4729 0.0023
vn -0.9589 -0.2838 -0.0051
vn -0.9770 -0.2123 -0.0213
vn -0.9375 -0.3449 -0.0464
vn -0.9510 -0.2894 -0.1089
vn -0.9832 -0.1786 -0.0379
vn -0.9836 -0.1789 -0.0239
vn -0.9951 -0.0838 0.0521
vn -0.9825 -0.1858 -0.0095
vn -0.5560 -0.0168 -0.8310
vn -0.5492 0.0406 -0.8347
vn -0.5429 -0.0155 -0.8397
vn -0.5399 -0.0720 -0.8386
vn -0.5440 0.1050 -0.8325
vn -0.5397 0.1168 -0.8337
vn -0.5736 0.1783 -0.7995
vn -0.5596 0.1247 -0.8193
vn -0.5501 -0.1467 -0.8221
vn -0.5482 -0.3014 -0.7801
vn -0.5394 -0.2088 -0.8158
vn -0.5353 -0.1538 -0.8305
vn -0.4311 -0.0515 -0.9008
vn -0.3514 -0.3138 -0.8821
vn -0.4225 -0.2389 -0.8743
vn -0.3623 0.0286 -0.9316
vn -0.3661 0.0660 -0.9283
vn -0.3760 0.0444 -0.9256
vn -0.4956 -0.1297 -0.8588
vn -0.5080 -0.2172 -0.8335
vn -0.5288 -0.1354 -0.8379
vn -0.4311 0.2995 -0.8512
vn -0.4424 0.0647 -0.8945
vn -0.4624 0.1781 -0.8686
vn -0.3806 0.3492 -0.8563
vn -0.5357 -0.4527 -0.7128
vn -0.5373 -0.4307 -0.7251
vn -0.5304 -0.4077 -0.7433
vn -0.6169 0.4294 -0.6596
vn -0.5999 0.3803 -0.7039
vn -0.6143 0.4066 -0.6763
vn -0.4195 0.2657 -0.8680
vn -0.5025 0.0778 -0.8611
vn -0.5377 0.0141 -0.8430
vn -0.5076 0.1550 -0.8475
vn -0.5724 0.1240 -0.8105
vn -0.5614 -0.0106 -0.8275
vn -0.5533 -0.0154 -0.8329
vn -0.5241 -0.1340 -0.8411
vn -0.5426 -0.0153 -0.8399
vn -0.8752 0.1320 0.4655
vn -0.8835 0.0706 0.4631
vn -0.8677 0.1223 0.4818
vn -0.8526 0.1803 0.4905
vn -0.8896 0.0045 0.4567
vn -0.8898 -0.0075 0.4564
vn -0.9061 -0.0541 0.4195
vn -0.8950 -0.0075 0.4459
vn -0.8350 0.2575 0.4863
vn -0.7805 0.4237 0.4597
vn -0.8122 0.3147 0.4912
vn -0.8260 0.2576 0.5013
vn -0.7867 0.1505 0.5987
vn -0.6697 0.3956 0.6285
vn -0.7401 0.3298 0.5860
vn -0.7571 0.0682 0.6497
vn -0.7639 0.0313 0.6446
vn -0.7685 0.0559 0.6374
vn -0.8127 0.2307 0.5351
vn -0.7926 0.3235 0.5169
vn -0.8285 0.2424 0.5047
vn -0.8167 -0.1993 0.5416
vn -0.8118 0.0317 0.5831
vn -0.8294 -0.0713 0.5541
vn -0.7788 -0.2592 0.5711
vn -0.6988 0.5848 0.4120
vn -0.7120 0.5607 0.4228
vn -0.7209 0.5363 0.4391
vn -0.9235 -0.2633 0.2790
vn -0.9183 -0.2233 0.3269
vn -0.9245 -0.2428 0.2938
vn -0.8031 -0.1666 0.5721
vn -0.8466 0.0251 0.5317
vn -0.8600 0.0960 0.5013
vn -0.8571 -0.0413 0.5135
vn -0.8956 0.0022 0.4448
vn -0.8703 0.1280 0.4756
vn -0.8691 0.1247 0.4787
vn -0.8261 0.2353 0.5120
vn -0.8664 0.1221 0.4842
vn -0.5091 0.7267 -0.4613
vn -0.4916 0.7513 -0.4403
vn -0.5238 0.7335 -0.4330
vn -0.5363 0.7083 -0.4590
vn -0.4721 0.7844 -0.4022
vn -0.4584 0.7881 -0.4107
vn -0.4510 0.8485 -0.2767
vn -0.4827 0.8139 -0.3233
vn -0.6805 0.6696 -0.2977
vn -0.8049 0.5204 -0.2852
vn -0.6993 0.6226 -0.3513
vn -0.6433 0.6662 -0.3774
vn -0.6440 0.7208 -0.2562
vn -0.7695 0.5198 -0.3711
vn -0.7424 0.5946 -0.3087
vn -0.5642 0.7450 -0.3559
vn -0.5338 0.7734 -0.3420
vn -0.5570 0.7552 -0.3457
vn -0.6872 0.6868 -0.2369
vn -0.7413 0.6100 -0.2801
vn -0.6839 0.6806 -0.2627
vn -0.3882 0.9128 -0.1269
vn -0.5547 0.8022 -0.2209
vn -0.4818 0.8514 -0.2073
vn -0.3276 0.9224 -0.2048
vn -0.9013 0.3466 -0.2600
vn -0.8888 0.3690 -0.2719
vn -0.8782 0.3911 -0.2753
vn -0.2591 0.9633 -0.0707
vn -0.2912 0.9508 -0.1054
vn -0.2758 0.9570 -0.0895
vn -0.4099 0.8748 -0.2583
vn -0.5562 0.8012 -0.2210
vn -0.5914 0.7651 -0.2547
vn -0.4952 0.8281 -0.2627
vn -0.5130 0.8200 -0.2536
vn -0.5970 0.7503 -0.2841
vn -0.5689 0.7458 -0.3465
vn -0.5799 0.6826 -0.4448
vn -0.5344 0.7377 -0.4126
vn -0.2543 0.0278 0.9667
vn -0.3923 0.6506 0.6503
vn -0.8704 0.3973 0.2908
vn -0.9359 0.0153 0.3519
vn 0.7126 0.0420 -0.7003
vn 0.4148 0.6906 -0.5925
vn 0.8015 0.5930 -0.0764
vn 0.9970 0.0442 -0.0629
vn 0.8034 0.0328 0.5945
vn 0.7938 0.0222 0.6078
vn 0.1692 0.6329 0.7555
vn 0.3365 0.0370 0.9410
vn 0.6646 0.2646 0.6988
vn 0.9812 0.0930 0.1693
vn 0.3533 0.9354 0.0160
vn 0.3059 0.9502 0.0588
vn -0.2733 -0.9578 -0.0890
vn 0.4219 -0.7855 -0.4527
vn 0.4324 -0.6980 0.5708
vn 0.3886 -0.6891 0.6117
vn -0.3589 0.6752 -0.6444
vn 0.3927 0.3429 -0.8533
vn -0.5615 -0.2954 -0.7730
vn -0.6296 -0.2782 -0.7255
vn -0.9372 0.3137 0.1528
vn -0.3588 0.6635 0.6565
vn -0.2925 0.8785 -0.3777
vn -0.3714 0.7572 -0.5373
vn 0.5646 0.4511 -0.6912
vn 0.6636 0.7452 0.0655
vn 0.9867 -0.1623 -0.0133
vn 0.9534 -0.2761 -0.1217
vn 0.3905 -0.7224 0.5707
vn 0.5096 -0.0752 0.8571
vn -0.4824 -0.2952 0.8247
vn -0.5496 -0.4157 0.7247
vn 0.3898 -0.2071 -0.8973
vn 0.4242 -0.1838 -0.8867
vn 0.1708 -0.6882 -0.7052
vn 0.1465 -0.6885 -0.7103
vn -0.4935 -0.4338 0.7538
vn -0.5175 -0.4575 0.7231
vn -0.4112 0.1516 0.8989
vn -0.3779 0.1472 0.9141
vn 0.4656 0.8130 -0.3497
vn 0.4488 0.8420 -0.2995
vn 0.5399 0.3995 -0.7409
vn 0.5228 0.3596 -0.7729
vn -0.1578 -0.9520 -0.2624
vn -0.1483 -0.9542 -0.2599
vn -0.4069 -0.8698 0.2790
vn -0.4091 -0.8564 0.3151
vn -0.1171 0.6730 0.7303
vn -0.1337 0.6960 0.7055
vn 0.1952 0.9486 0.2490
vn 0.2167 0.9439 0.2492
vn 0.5143 -0.2526 -0.8196
vn 0.5543 0.4452 -0.7032
vn 0.5505 0.5030 -0.6663
vn 0.5750 -0.3331 -0.7473
vn -0.4738 -0.6615 0.5813
vn -0.3063 -0.9147 0.2635
vn -0.2652 -0.9322 0.2464
vn -0.4380 -0.5828 0.6845
vn 0.2963 0.9328 -0.2053
vn 0.0773 0.9877 0.1361
vn 0.0993 0.9770 0.1886
vn 0.4744 0.7940 -0.3802
vn -0.1027 -0.9924 -0.0683
vn 0.2470 -0.7982 -0.5494
vn 0.2628 -0.7926 -0.5502
vn 0.0618 -0.9705 -0.2329
vn -0.1292 0.8938 0.4295
vn -0.4981 0.2051 0.8425
vn -0.5057 0.1809 0.8435
vn -0.3491 0.4715 0.8098
vn -0.1342 0.6655 0.7342
vn -0.1199 0.6739 0.7290
vn 0.2238 0.9433 0.2451
vn 0.2196 0.9419 0.2542
vn -0.1705 -0.9472 -0.2717
vn -0.1662 -0.9499 -0.2647
vn -0.4236 -0.8459 0.3242
vn -0.4376 -0.8396 0.3219
vn 0.4867 0.7960 -0.3599
vn 0.4803 0.7961 -0.3682
vn 0.5319 0.3330 -0.7786
vn 0.5456 0.3506 -0.7612
vn -0.5140 -0.3655 0.7760
vn -0.5031 -0.4081 0.7618
vn -0.3844 0.1625 0.9088
vn -0.3884 0.1877 0.9022
vn 0.4224 -0.1919 -0.8858
vn 0.3967 -0.2231 -0.8904
vn 0.1462 -0.6958 -0.7032
vn 0.1573 -0.6883 -0.7082
vn -0.1286 0.7467 0.6526
vn -0.4449 0.1659 0.8801
vn -0.4419 0.1606 0.8825
vn -0.0985 0.7919 0.6026
vn -0.0913 0.8137 0.5740
vn -0.4369 0.1604 0.8851
vn -0.4552 0.1562 0.8766
vn -0.1052 0.8627 0.4946
vn -0.1416 -0.9574 -0.2516
vn 0.1839 -0.7068 -0.6831
vn 0.1729 -0.7297 -0.6615
vn -0.1450 -0.9633 -0.2261
vn -0.1660 -0.9726 -0.1625
vn 0.1650 -0.7482 -0.6426
vn 0.1935 -0.7724 -0.6049
vn -0.1537 -0.9845 -0.0841
vn 0.4318 0.8643 -0.2581
vn 0.1785 0.9548 0.2379
vn 0.1733 0.9611 0.2151
vn 0.4090 0.8789 -0.2454
vn 0.3906 0.8864 -0.2484
vn 0.1610 0.9670 0.1974
vn 0.1223 0.9846 0.1252
vn 0.3529 0.9032 -0.2443
vn -0.5389 -0.5084 0.6717
vn -0.4033 -0.8822 0.2431
vn -0.3782 -0.8998 0.2177
vn -0.5195 -0.5799 0.6275
vn -0.4967 -0.6254 0.6018
vn -0.3619 -0.9043 0.2263
vn -0.3351 -0.9072 0.2543
vn -0.4855 -0.6467 0.5882
vn 0.4492 -0.1933 -0.8723
vn 0.5556 0.4252 -0.7145
vn 0.5459 0.4343 -0.7165
vn 0.4440 -0.2072 -0.8718
vn 0.4504 -0.1856 -0.8733
vn 0.5371 0.4517 -0.7123
vn 0.5606 0.4238 -0.7114
vn 0.4872 -0.2077 -0.8482
vn 0.8892 -0.1621 -0.4279
vn -0.1560 -0.6140 -0.7737
vn 0.3682 -0.5656 -0.7379
vn -0.0565 -0.9971 -0.0513
vn -0.8679 -0.4870 0.0978
vn 0.0161 -0.9936 0.1122
vn -0.2319 -0.7868 0.5720
vn -0.4308 -0.8408 0.3277
vn -0.5314 -0.3147 0.7865
vn 0.1616 -0.6691 -0.7254
vn 0.3835 -0.1285 -0.9146
vn 0.4789 0.8161 -0.3235
vn 0.3872 -0.2155 -0.8964
vn 0.2467 -0.1666 -0.9547
vn 0.0391 0.0237 -0.9990
vn -0.1747 0.6608 0.7299
vn 0.1890 0.9464 0.2619
vn -0.7239 0.5836 -0.3680
vn -0.8802 -0.1959 0.4323
vn -0.2201 -0.9290 -0.2975
vn -0.5881 -0.4516 0.6709
vn -0.7185 -0.4043 0.5659
vn -0.3299 -0.8733 -0.3585
vn -0.4514 0.0048 -0.8923
vn -0.6542 0.1702 -0.7369
vn -0.0581 0.1054 -0.9927
vn 0.1543 0.0258 -0.9877
vn 0.8475 0.0429 0.5290
vn 0.8241 0.0438 0.5648
vn 0.3683 0.0401 0.9288
vn 0.3881 0.0391 0.9208
vn -0.9967 -0.0101 0.0806
vn -0.9680 0.1643 -0.1898
vn -0.8663 0.0655 -0.4953
vn -0.8742 -0.0077 -0.4855
vn 0.7328 0.0334 -0.6796
vn 0.7207 0.0332 -0.6924
vn 0.9965 0.0451 -0.0705
vn 0.9948 0.0431 -0.0924
vn -0.2215 0.0209 0.9749
vn -0.2379 0.0205 0.9711
vn -0.8908 0.0975 0.4438
vn -0.7720 0.0075 0.6356
vn -0.8449 -0.0006 -0.5350
vn -0.7054 0.5917 -0.3902
vn -0.6733 0.6183 -0.4054
vn -0.6782 0.5664 -0.4682
vn -0.8940 0.2919 0.3399
vn -0.2026 0.9765 -0.0739
vn -0.1515 0.5084 -0.8477
vn -0.0976 0.9940 -0.0484
vn -0.7067 -0.4139 -0.5738
vn -0.5904 0.2186 0.7769
vn 0.3503 0.3621 -0.8639
vn -0.2053 0.3298 -0.9215
vn -0.8492 0.1247 -0.5131
vn -0.1219 0.0338 -0.9920
vn -0.2069 0.0183 0.9782
vn -0.7518 -0.0020 0.6594
vn 0.4053 0.0380 0.9134
vn 0.7409 0.0304 -0.6710
vn 0.9939 0.0413 -0.1026
vn 0.1724 0.0172 -0.9849
vn -0.9966 -0.0180 0.0808
vn -0.8764 -0.0143 -0.4813
vn 0.8597 0.0418 0.5091
vn -0.4668 -0.0032 -0.8844
vn -0.1518 0.6532 0.7418
vn 0.2083 0.9397 0.2714
vn 0.4912 0.8007 -0.3428
vn -0.1356 -0.9548 -0.2646
vn 0.9345 -0.1700 0.3126
vn 0.3861 -0.7249 0.5705
vn -0.5319 -0.4356 0.7262
vn 0.9469 -0.3061 -0.0986
vn 0.5686 0.4449 -0.6919
vn -0.3811 0.7517 -0.5382
vn -0.9390 0.3067 0.1557
vn -0.3547 0.6828 -0.6387
vn -0.6343 -0.2308 -0.7378
vn 0.2886 0.9565 0.0424
vn -0.2758 -0.9570 -0.0896
vn 0.3971 -0.6731 0.6238
vn 0.6630 0.2731 0.6970
vn -0.5785 0.6744 -0.4589
vn -0.5303 0.7073 -0.4675
vn -0.3933 0.9037 -0.1694
vn -0.4637 0.8479 -0.2570
vn -0.4765 0.8168 -0.3252
vn -0.3442 0.9190 -0.1920
vn -0.3357 0.9409 -0.0442
vn -0.3632 0.9310 -0.0358
vn -0.4088 0.9094 -0.0766
vn -0.7734 0.5200 -0.3625
vn -0.7738 0.5084 -0.3779
vn -0.4896 0.7473 -0.4492
vn -0.5091 0.7236 -0.4661
vn -0.5067 0.7255 -0.4657
vn -0.5050 0.7277 -0.4641
vn -0.8197 0.2444 0.5180
vn -0.8599 0.1689 0.4817
vn -0.9191 -0.1295 0.3721
vn -0.8578 -0.0684 0.5094
vn -0.7738 -0.0595 0.6306
vn -0.7890 -0.2318 0.5690
vn -0.8358 -0.2673 0.4797
vn -0.8470 -0.2412 0.4737
vn -0.8425 -0.1867 0.5053
vn -0.6767 0.4026 0.6164
vn -0.6592 0.4089 0.6311
vn -0.8829 0.0896 0.4610
vn -0.8749 0.1358 0.4648
vn -0.8760 0.1329 0.4636
vn -0.8767 0.1297 0.4632
vn -0.5180 -0.1448 -0.8430
vn -0.5465 -0.0573 -0.8355
vn -0.5992 0.2767 -0.7513
vn -0.4937 0.1881 -0.8491
vn -0.3735 0.1554 -0.9145
vn -0.3924 0.3250 -0.8604
vn -0.4653 0.3771 -0.8008
vn -0.4806 0.3547 -0.8020
vn -0.4705 0.2972 -0.8308
vn -0.3656 -0.3194 -0.8742
vn -0.3430 -0.3286 -0.8800
vn -0.5533 0.0249 -0.8326
vn -0.5569 -0.0201 -0.8303
vn -0.5574 -0.0170 -0.8301
vn -0.5574 -0.0138 -0.8301
vn -0.9952 -0.0762 0.0621
vn -0.9893 -0.1461 0.0022
vn -0.8903 -0.3986 -0.2202
vn -0.9253 -0.3763 -0.0470
vn -0.9158 -0.3890 0.0997
vn -0.8508 -0.5251 0.0200
vn -0.8320 -0.5501 -0.0717
vn -0.8453 -0.5287 -0.0767
vn -0.8730 -0.4860 -0.0399
vn -0.9680 0.0519 0.2454
vn -0.9613 0.0554 0.2697
vn -0.9754 -0.2176 -0.0366
vn -0.9842 -0.1754 -0.0229
vn -0.9837 -0.1780 -0.0247
vn -0.9832 -0.1809 -0.0259
vn 0.5785 -0.6743 0.4589
vn 0.5303 -0.7073 0.4675
vn 0.6993 -0.6226 0.3513
vn 0.6433 -0.6662 0.3774
vn 0.5689 -0.7458 0.3465
vn 0.4827 -0.8139 0.3233
vn 0.3443 -0.9190 0.1920
vn 0.2913 -0.9508 0.1054
vn 0.2592 -0.9632 0.0707
vn 0.8887 -0.3691 0.2719
vn 0.9012 -0.3467 0.2600
vn 0.3357 -0.9409 0.0442
vn 0.3633 -0.9310 0.0358
vn 0.5338 -0.7733 0.3420
vn 0.5642 -0.7450 0.3559
vn 0.7694 -0.5199 0.3711
vn 0.7737 -0.5085 0.3779
vn 0.5091 -0.7236 0.4661
vn 0.5067 -0.7255 0.4657
vn 0.8197 -0.2444 -0.5180
vn 0.8599 -0.1689 -0.4817
vn 0.8122 -0.3147 -0.4912
vn 0.8260 -0.2576 -0.5013
vn 0.8691 -0.1247 -0.4787
vn 0.8950 0.0075 -0.4459
vn 0.7890 0.2318 -0.5689
vn 0.9183 0.2232 -0.3270
vn 0.9235 0.2632 -0.2790
vn 0.7120 -0.5606 -0.4228
vn 0.6989 -0.5847 -0.4120
vn 0.8358 0.2672 -0.4797
vn 0.8470 0.2411 -0.4737
vn 0.7639 -0.0313 -0.6446
vn 0.7571 -0.0683 -0.6497
vn 0.6697 -0.3955 -0.6285
vn 0.6593 -0.4088 -0.6311
vn 0.8749 -0.1358 -0.4648
vn 0.8760 -0.1329 -0.4636
vn 0.5180 0.1448 0.8430
vn 0.5465 0.0573 0.8355
vn 0.5394 0.2088 0.8158
vn 0.5353 0.1538 0.8305
vn 0.5533 0.0154 0.8329
vn 0.5596 -0.1247 0.8193
vn 0.3925 -0.3250 0.8604
vn 0.5999 -0.3803 0.7039
vn 0.6169 -0.4294 0.6596
vn 0.5373 0.4307 0.7251
vn 0.5357 0.4526 0.7128
vn 0.4653 -0.3771 0.8008
vn 0.4806 -0.3547 0.8020
vn 0.3661 -0.0659 0.9283
vn 0.3623 -0.0286 0.9316
vn 0.3514 0.3137 0.8821
vn 0.3430 0.3285 0.8800
vn 0.5569 0.0201 0.8303
vn 0.5574 0.0170 0.8301
vn 0.9952 0.0762 -0.0621
vn 0.9893 0.1460 -0.0022
vn 0.9985 0.0009 -0.0554
vn 0.9973 0.0586 -0.0439
vn 0.9836 0.1789 0.0239
vn 0.9502 0.2979 0.0911
vn 0.8508 0.5250 -0.0200
vn 0.8347 0.4724 0.2830
vn 0.7987 0.4965 0.3399
vn 0.9660 -0.2376 -0.1015
vn 0.9592 -0.2622 -0.1056
vn 0.8321 0.5500 0.0717
vn 0.8454 0.5287 0.0767
vn 0.9412 0.3061 -0.1430
vn 0.9484 0.2746 -0.1587
vn 0.9650 -0.0430 -0.2586
vn 0.9614 -0.0553 -0.2697
vn 0.9842 0.1754 0.0229
vn 0.9837 0.1780 0.0247
usemtl None
s 1
f 655/1/1 539/2/2 3/3/3 444/4/4
f 654/5/5 268/6/6 3/3/3 539/2/2
f 653/7/7 438/8/8 8/9/9 352/10/10
f 8/9/9 404/11/11 496/12/12
f 12/13/13 307/14/14 384/15/15
f 652/16/16 496/12/12 11/17/17 300/18/18
f 651/19/19 300/18/18 11/17/17 395/20/20
f 8/9/9 438/8/8 347/21/21
f 6/22/22 250/23/23 350/24/24
f 650/25/25 296/26/26 15/27/27 318/28/28
f 649/29/29 508/30/30 9/31/31 399/32/32
f 648/33/33 364/34/34 2/35/35 284/36/36
f 647/37/37 265/38/38 21/39/39 512/40/40
f 646/41/41 322/42/42 21/39/39 265/38/38
f 645/43/43 213/44/44 26/45/45 461/46/46
f 26/45/45 544/47/47 283/48/48
f 30/49/49 466/50/50 212/51/51
f 644/52/52 283/48/48 29/53/53 460/54/54
f 643/55/55 460/54/54 29/53/53 390/56/56
f 26/45/45 213/44/44 356/57/57
f 24/58/58 321/59/59 459/60/60
f 642/61/61 443/62/62 33/63/63 475/64/64
f 641/65/65 232/66/66 27/67/67 535/68/68
f 640/69/69 427/70/70 20/71/71 349/72/72
f 639/73/73 315/74/74 39/75/75 424/76/76
f 638/77/77 218/78/78 39/75/75 315/74/74
f 637/79/79 381/80/80 44/81/81 471/82/82
f 44/81/81 368/83/83 282/84/84
f 48/85/85 495/86/86 317/87/87
f 636/88/88 282/84/84 47/89/89 420/90/90
f 635/91/91 420/90/90 47/89/89 340/92/92
f 44/81/81 381/80/80 452/93/93
f 42/94/94 534/95/95 363/96/96
f 634/97/97 432/98/98 51/99/99 215/100/100
f 633/101/101 289/102/102 45/103/103 393/104/104
f 632/105/105 499/106/106 38/107/107 254/108/108
f 631/109/109 542/110/110 57/111/111 311/112/112
f 630/113/113 482/114/114 57/111/111 542/110/110
f 629/115/115 316/116/116 62/117/117 401/118/118
f 62/117/117 305/119/119 237/120/120
f 66/121/121 522/122/122 243/123/123
f 628/124/124 237/120/120 65/125/125 498/126/126
f 627/127/127 498/126/126 65/125/125 246/128/128
f 62/117/117 316/116/116 454/129/129
f 60/130/130 503/131/131 367/132/132
f 626/133/133 435/134/134 69/135/135 494/136/136
f 625/137/137 214/138/138 63/139/139 326/140/140
f 624/141/141 330/142/142 56/143/143 455/144/144
f 623/145/145 474/146/146 75/147/147 362/148/148
f 622/149/149 274/150/150 77/151/151 223/152/152
f 621/153/153 253/154/154 81/155/155 293/156/156
f 82/157/157 423/158/158 256/159/159
f 84/160/160 228/161/161 287/162/162
f 620/163/163 256/159/159 80/164/164 383/165/165
f 619/166/166 387/167/167 87/168/168 225/169/169
f 89/170/170 378/171/171 516/172/172
f 90/173/173 273/174/174 521/175/175
f 618/176/176 245/177/177 79/178/178 505/179/179
f 617/180/180 463/181/181 78/182/182 223/152/152
f 616/183/183 526/184/184 78/182/182 293/156/156
f 615/185/185 271/186/186 93/187/187 531/188/188
f 614/189/189 422/190/190 95/191/191 355/192/192
f 613/193/193 244/194/194 99/195/195 413/196/196
f 100/197/197 377/198/198 488/199/199
f 102/200/200 543/201/201 449/202/202
f 612/203/203 488/199/199 98/204/204 489/205/205
f 611/206/206 361/207/207 105/208/208 208/209/209
f 107/210/210 370/211/211 545/212/212
f 108/213/213 408/214/214 242/215/215
f 610/216/216 541/217/217 97/218/218 292/219/219
f 609/220/220 403/221/221 96/222/222 355/192/192
f 608/223/223 339/224/224 96/222/222 413/196/196
f 607/225/225 527/226/226 111/227/227 272/228/228
f 606/229/229 359/230/230 113/231/231 525/232/232
f 605/233/233 417/234/234 117/235/235 418/236/236
f 118/237/237 236/238/238 304/239/239
f 120/240/240 451/241/241 320/242/242
f 604/243/243 304/239/239 116/244/244 358/245/245
f 603/246/246 211/247/247 123/248/248 447/249/249
f 125/250/250 220/251/251 407/252/252
f 126/253/253 336/254/254 464/255/255
f 602/256/256 398/257/257 115/258/258 485/259/259
f 601/260/260 267/261/261 114/262/262 525/232/232
f 600/263/263 372/264/264 114/262/262 418/236/236
f 599/265/265 302/266/266 129/267/267 238/268/268
f 598/269/269 487/270/270 131/271/271 406/272/272
f 597/273/273 442/274/274 135/275/275 437/276/276
f 136/277/277 266/278/278 528/279/279
f 138/280/280 436/281/281 524/282/282
f 596/283/283 528/279/279 134/284/284 537/285/285
f 595/286/286 235/287/287 141/288/288 412/289/289
f 143/290/290 227/291/291 439/292/292
f 144/293/293 518/294/294 351/295/295
f 594/296/296 416/297/297 133/298/298 324/299/299
f 593/300/300 314/301/301 132/302/302 406/272/272
f 592/303/303 392/304/304 132/302/302 437/276/276
f 591/305/305 386/306/306 147/307/307 306/308/308
f 590/309/309 348/310/310 151/311/311 312/312/312
f 589/313/313 353/314/314 146/315/315 480/316/316
f 588/317/317 402/318/318 155/319/319 291/320/320
f 587/321/321 280/322/322 154/323/323 501/324/324
f 154/325/323 280/326/322 402/327/318
f 586/328/325 479/329/326 158/330/327 486/331/328
f 585/332/329 473/333/330 161/334/331 207/335/332
f 584/336/333 470/337/334 163/338/335 391/339/336
f 583/340/337 469/341/338 160/342/339 216/343/340
f 163/344/335 470/345/334 469/346/338
f 582/347/341 258/348/342 167/349/343 334/350/344
f 581/351/345 252/352/346 171/353/347 309/354/348
f 580/355/349 323/356/350 166/357/351 230/358/352
f 579/359/353 472/360/354 170/361/355 502/362/356
f 578/363/357 468/364/358 174/365/359 492/366/360
f 577/367/361 504/368/362 177/369/363 241/370/364
f 576/371/365 511/372/366 181/373/367 259/374/368
f 575/375/369 434/376/370 184/377/371 376/378/372
f 574/379/373 509/380/374 178/381/375 500/382/376
f 573/383/377 240/384/378 182/385/379 540/386/380
f 572/387/381 397/388/382 173/389/383 462/390/384
f 571/391/385 421/392/386 169/393/387 313/394/388
f 570/395/389 226/396/390 165/397/391 497/398/392
f 569/399/393 329/400/394 172/401/395 365/402/396
f 568/403/397 338/404/398 168/405/399 536/406/400
f 567/407/401 457/408/402 190/409/403 328/410/404
f 566/411/405 510/412/406 179/413/407 450/414/408
f 565/415/409 288/416/410 192/417/411 440/418/412
f 564/419/413 343/420/414 175/421/415 331/422/416
f 563/423/417 234/424/418 191/425/419 530/426/420
f 562/427/421 476/428/422 183/429/423 247/430/424
f 561/431/425 374/432/426 193/433/427 507/434/428
f 560/435/429 453/436/430 180/437/431 426/438/432
f 559/439/433 400/440/434 194/441/435 357/442/436
f 558/443/437 431/444/438 176/445/439 419/446/440
f 557/447/441 241/448/364 177/449/363 376/450/372
f 182/451/379 259/452/368 540/453/380
f 151/454/442 513/455/443 260/456/444
f 146/457/445 353/458/446 405/459/447
f 188/460/448 428/461/449 405/462/447
f 187/463/450 513/455/443 308/464/451
f 556/465/452 520/466/453 195/467/454 533/468/455
f 555/469/456 257/470/457 196/471/458 456/472/459
f 196/473/458 533/474/455 456/475/459
f 554/476/460 345/477/461 197/478/462 269/479/463
f 553/480/464 389/481/465 149/482/466 294/483/467
f 552/484/468 264/485/469 145/486/470 467/487/471
f 551/488/472 205/489/473 199/490/474 285/491/475
f 550/492/476 261/493/477 152/494/478 209/495/479
f 549/496/480 295/497/481 148/498/482 371/499/483
f 548/500/484 306/501/308 147/502/307 433/503/485
f 199/504/474 205/505/473 389/506/465
f 547/507/486 353/508/487 146/509/445 506/510/488
f 546/511/489 348/512/310 150/513/490 433/503/485
f 386/514/306 546/511/489 433/503/485 147/502/307
f 146/515/315 353/516/491 546/511/489 386/514/306
f 353/516/491 151/517/311 348/512/310 546/511/489
f 327/518/492 547/507/486 506/510/488 185/519/493
f 189/520/494 337/521/495 547/507/486 327/518/492
f 337/521/495 151/522/442 353/508/487 547/507/486
f 389/506/465 233/523/496 149/524/466
f 389/506/465 205/505/473 233/523/496
f 205/505/473 148/525/482 233/523/496
f 441/526/497 548/500/484 433/503/485 150/513/490
f 149/524/466 233/523/496 548/500/484 441/526/497
f 233/523/496 148/525/482 306/501/308 548/500/484
f 204/527/498 549/496/480 371/499/483 203/528/499
f 202/529/500 467/487/471 549/496/480 204/527/498
f 467/487/471 145/486/470 295/497/481 549/496/480
f 382/530/501 550/492/476 209/495/479 201/531/502
f 200/532/503 294/483/467 550/492/476 382/530/501
f 294/483/467 149/482/466 261/493/477 550/492/476
f 529/533/504 551/488/472 285/491/475 198/534/505
f 203/528/499 371/499/483 551/488/472 529/533/504
f 371/499/483 148/498/482 205/489/473 551/488/472
f 297/535/506 552/484/468 467/487/471 202/529/500
f 201/536/502 209/537/479 552/484/468 297/535/506
f 209/537/479 152/538/478 264/485/469 552/484/468
f 298/539/507 553/480/464 294/483/467 200/532/503
f 198/534/505 285/491/475 553/480/464 298/539/507
f 285/491/475 199/490/474 389/481/465 553/480/464
f 520/540/453 554/476/460 269/479/463 195/541/454
f 189/520/494 327/518/492 554/476/460 520/540/453
f 327/518/492 185/519/493 345/477/461 554/476/460
f 456/475/459 269/479/463 197/478/462
f 456/475/459 533/474/455 269/479/463
f 533/474/455 195/541/454 269/479/463
f 345/542/461 555/469/456 456/472/459 197/543/462
f 185/544/493 255/545/508 555/469/456 345/542/461
f 255/545/508 186/546/509 257/470/457 555/469/456
f 257/470/457 556/465/452 533/468/455 196/471/458
f 186/546/509 514/547/510 556/465/452 257/470/457
f 514/547/510 189/548/494 520/466/453 556/465/452
f 308/464/451 337/549/495 189/548/494
f 308/464/451 513/455/443 337/549/495
f 513/455/443 151/454/442 337/549/495
f 405/462/447 506/550/488 146/551/445
f 405/462/447 428/461/449 506/550/488
f 428/461/449 185/544/493 506/550/488
f 405/459/447 260/456/444 188/552/448
f 405/459/447 353/458/446 260/456/444
f 353/458/446 151/454/442 260/456/444
f 260/456/444 411/553/511 188/552/448
f 260/456/444 513/455/443 411/553/511
f 513/455/443 187/463/450 411/553/511
f 540/453/380 373/554/512 184/555/371
f 540/453/380 259/452/368 373/554/512
f 259/452/368 181/556/367 373/554/512
f 373/554/512 557/447/441 376/450/372 184/555/371
f 181/556/367 500/557/376 557/447/441 373/554/512
f 500/557/376 178/558/375 241/448/364 557/447/441
f 343/420/414 558/443/437 419/446/440 175/421/415
f 192/559/411 357/560/436 558/443/437 343/420/414
f 357/560/436 194/561/435 431/444/438 558/443/437
f 288/416/410 559/439/433 357/442/436 192/417/411
f 167/349/343 258/348/342 559/439/433 288/416/410
f 258/348/342 166/357/351 400/440/434 559/439/433
f 510/412/406 560/435/429 426/438/432 179/413/407
f 190/562/403 507/563/428 560/435/429 510/412/406
f 507/563/428 193/564/427 453/436/430 560/435/429
f 457/408/402 561/431/425 507/434/428 190/409/403
f 171/353/347 252/352/346 561/431/425 457/408/402
f 252/352/346 170/565/355 374/432/426 561/431/425
f 431/444/438 562/427/421 247/430/424 176/445/439
f 194/561/435 530/566/420 562/427/421 431/444/438
f 530/566/420 191/567/419 476/428/422 562/427/421
f 400/440/434 563/423/417 530/426/420 194/441/435
f 166/357/351 323/356/350 563/423/417 400/440/434
f 323/356/350 174/365/359 234/424/418 563/423/417
f 453/568/430 564/419/413 331/422/416 180/569/431
f 193/570/427 440/571/412 564/419/413 453/568/430
f 440/571/412 192/559/411 343/420/414 564/419/413
f 374/572/426 565/415/409 440/418/412 193/573/427
f 170/361/355 472/360/354 565/415/409 374/572/426
f 472/360/354 167/349/343 288/416/410 565/415/409
f 476/428/422 566/411/405 450/414/408 183/429/423
f 191/567/419 328/574/404 566/411/405 476/428/422
f 328/574/404 190/562/403 510/412/406 566/411/405
f 234/424/418 567/407/401 328/410/404 191/425/419
f 174/365/359 468/364/358 567/407/401 234/424/418
f 468/364/358 171/353/347 457/408/402 567/407/401
f 308/464/451 568/403/397 536/406/400 187/463/450
f 189/548/494 497/398/392 568/403/397 308/464/451
f 497/398/392 165/397/391 338/404/398 568/403/397
f 428/461/449 569/399/393 365/402/396 185/544/493
f 188/460/448 313/575/388 569/399/393 428/461/449
f 313/575/388 169/576/387 329/400/394 569/399/393
f 514/547/510 570/395/389 497/398/392 189/548/494
f 186/546/509 462/390/384 570/395/389 514/547/510
f 462/390/384 173/389/383 226/396/390 570/395/389
f 411/553/511 571/391/385 313/394/388 188/552/448
f 187/463/450 536/406/400 571/391/385 411/553/511
f 536/406/400 168/405/399 421/392/386 571/391/385
f 255/545/508 572/387/381 462/390/384 186/546/509
f 185/544/493 365/402/396 572/387/381 255/545/508
f 365/402/396 172/401/395 397/388/382 572/387/381
f 434/376/370 573/383/377 540/386/380 184/377/371
f 183/429/423 450/414/408 573/383/377 434/376/370
f 450/414/408 179/413/407 240/384/378 573/383/377
f 511/577/366 574/379/373 500/382/376 181/578/367
f 180/569/431 331/422/416 574/379/373 511/577/366
f 331/422/416 175/421/415 509/380/374 574/379/373
f 504/368/362 575/375/369 376/378/372 177/369/363
f 176/445/439 247/430/424 575/375/369 504/368/362
f 247/430/424 183/429/423 434/376/370 575/375/369
f 240/384/378 576/371/365 259/374/368 182/385/379
f 179/413/407 426/438/432 576/371/365 240/384/378
f 426/438/432 180/437/431 511/372/366 576/371/365
f 509/380/374 577/367/361 241/370/364 178/381/375
f 175/421/415 419/446/440 577/367/361 509/380/374
f 419/446/440 176/445/439 504/368/362 577/367/361
f 397/579/382 578/363/357 492/366/360 173/580/383
f 172/581/395 309/354/348 578/363/357 397/579/382
f 309/354/348 171/353/347 468/364/358 578/363/357
f 421/582/386 579/359/353 502/362/356 169/583/387
f 168/584/399 334/350/344 579/359/353 421/582/386
f 334/350/344 167/349/343 472/360/354 579/359/353
f 226/585/390 580/355/349 230/358/352 165/586/391
f 173/580/383 492/366/360 580/355/349 226/585/390
f 492/366/360 174/365/359 323/356/350 580/355/349
f 329/587/394 581/351/345 309/354/348 172/581/395
f 169/588/387 502/589/356 581/351/345 329/587/394
f 502/589/356 170/565/355 252/352/346 581/351/345
f 338/590/398 582/347/341 334/350/344 168/584/399
f 165/586/391 230/358/352 582/347/341 338/590/398
f 230/358/352 166/357/351 258/348/342 582/347/341
f 469/346/338 473/591/330 160/592/339
f 469/346/338 470/345/334 473/591/330
f 470/345/334 161/593/331 473/591/330
f 385/594/513 583/340/337 216/343/340 159/595/514
f 164/596/515 391/339/336 583/340/337 385/594/513
f 391/339/336 163/338/335 469/341/338 583/340/337
f 206/597/516 584/336/333 391/339/336 164/596/515
f 162/598/517 207/599/332 584/336/333 206/597/516
f 207/599/332 161/600/331 470/337/334 584/336/333
f 221/601/518 585/332/329 207/335/332 162/602/517
f 159/595/514 216/343/340 585/332/329 221/601/518
f 216/343/340 160/342/339 473/333/330 585/332/329
f 219/603/519 586/328/325 486/331/328 157/604/520
f 156/605/521 291/320/320 586/328/325 219/603/519
f 291/320/320 155/319/319 479/329/326 586/328/325
f 402/327/318 479/606/326 155/607/319
f 402/327/318 280/326/322 479/606/326
f 280/326/322 158/608/327 479/606/326
f 396/609/522 587/321/321 501/324/324 153/610/523
f 157/611/520 486/612/328 587/321/321 396/609/522
f 486/612/328 158/613/327 280/322/322 587/321/321
f 310/614/524 588/317/317 291/320/320 156/605/521
f 153/610/523 501/324/324 588/317/317 310/614/524
f 501/324/324 154/323/323 402/318/318 588/317/317
f 264/485/469 589/313/313 480/316/316 145/486/470
f 152/538/478 312/615/312 589/313/313 264/485/469
f 312/615/312 151/616/311 353/314/314 589/313/313
f 261/493/477 590/309/309 312/312/312 152/494/478
f 149/482/466 441/617/497 590/309/309 261/493/477
f 441/617/497 150/618/490 348/310/310 590/309/309
f 295/497/481 591/305/305 306/308/308 148/498/482
f 145/486/470 480/316/316 591/305/305 295/497/481
f 480/316/316 146/315/315 386/306/306 591/305/305
f 446/619/525 592/303/303 437/276/276 135/275/275
f 130/620/526 238/268/268 592/303/303 446/619/525
f 238/268/268 129/267/267 392/304/304 592/303/303
f 335/621/527 593/300/300 406/272/272 131/271/271
f 140/622/528 324/299/299 593/300/300 335/621/527
f 324/299/299 133/298/298 314/301/301 593/300/300
f 319/623/529 594/296/296 324/299/299 140/622/528
f 139/624/530 412/289/289 594/296/296 319/623/529
f 412/289/289 141/288/288 416/297/297 594/296/296
f 351/295/295 335/621/527 131/271/271
f 351/295/295 518/294/294 335/621/527
f 518/294/294 140/622/528 335/621/527
f 439/292/292 442/274/274 134/284/284
f 439/292/292 227/291/291 442/274/274
f 227/291/291 135/275/275 442/274/274
f 515/625/531 595/286/286 412/289/289 139/624/530
f 142/626/532 301/627/533 595/286/286 515/625/531
f 301/627/533 136/277/277 235/287/287 595/286/286
f 416/297/297 596/283/283 537/285/285 133/298/298
f 141/288/288 235/287/287 596/283/283 416/297/297
f 235/287/287 136/277/277 528/279/279 596/283/283
f 524/282/282 319/623/529 140/622/528
f 524/282/282 436/281/281 319/623/529
f 436/281/281 139/624/530 319/623/529
f 528/279/279 270/628/534 134/284/284
f 528/279/279 266/278/278 270/628/534
f 266/278/278 137/629/535 270/628/534
f 314/301/301 597/273/273 437/276/276 132/302/302
f 133/298/298 537/285/285 597/273/273 314/301/301
f 537/285/285 134/284/284 442/274/274 597/273/273
f 392/304/304 598/269/269 406/272/272 132/302/302
f 129/267/267 302/266/266 598/269/269 392/304/304
f 302/266/266 128/630/536 487/270/270 598/269/269
f 210/631/537 599/265/265 238/268/268 130/620/526
f 127/632/538 369/633/539 599/265/265 210/631/537
f 369/633/539 128/630/536 302/266/266 599/265/265
f 354/634/540 600/263/263 418/236/236 117/235/235
f 112/635/541 272/228/228 600/263/263 354/634/540
f 272/228/228 111/227/227 372/264/264 600/263/263
f 483/636/542 601/260/260 525/232/232 113/231/231
f 122/637/543 485/259/259 601/260/260 483/636/542
f 485/259/259 115/258/258 267/261/261 601/260/260
f 538/638/544 602/256/256 485/259/259 122/637/543
f 121/639/545 447/249/249 602/256/256 538/638/544
f 447/249/249 123/248/248 398/257/257 602/256/256
f 464/255/255 483/636/542 113/231/231
f 464/255/255 336/254/254 483/636/542
f 336/254/254 122/637/543 483/636/542
f 407/252/252 417/234/234 116/244/244
f 407/252/252 220/251/251 417/234/234
f 220/251/251 117/235/235 417/234/234
f 360/640/546 603/246/246 447/249/249 121/639/545
f 124/641/547 458/642/548 603/246/246 360/640/546
f 458/642/548 118/237/237 211/247/247 603/246/246
f 398/257/257 604/243/243 358/245/245 115/258/258
f 123/248/248 211/247/247 604/243/243 398/257/257
f 211/247/247 118/237/237 304/239/239 604/243/243
f 320/242/242 538/638/544 122/637/543
f 320/242/242 451/241/241 538/638/544
f 451/241/241 121/639/545 538/638/544
f 304/239/239 224/643/549 116/244/244
f 304/239/239 236/238/238 224/643/549
f 236/238/238 119/644/550 224/643/549
f 267/261/261 605/233/233 418/236/236 114/262/262
f 115/258/258 358/245/245 605/233/233 267/261/261
f 358/245/245 116/244/244 417/234/234 605/233/233
f 372/264/264 606/229/229 525/232/232 114/262/262
f 111/227/227 527/226/226 606/229/229 372/264/264
f 527/226/226 110/645/551 359/230/230 606/229/229
f 276/646/552 607/225/225 272/228/228 112/635/541
f 109/647/553 448/648/554 607/225/225 276/646/552
f 448/648/554 110/645/551 527/226/226 607/225/225
f 278/649/555 608/223/223 413/196/196 99/195/195
f 94/650/556 531/188/188 608/223/223 278/649/555
f 531/188/188 93/187/187 339/224/224 608/223/223
f 222/651/557 609/220/220 355/192/192 95/191/191
f 104/652/558 292/219/219 609/220/220 222/651/557
f 292/219/219 97/218/218 403/221/221 609/220/220
f 286/653/559 610/216/216 292/219/219 104/652/558
f 103/654/560 208/209/209 610/216/216 286/653/559
f 208/209/209 105/208/208 541/217/217 610/216/216
f 242/215/215 222/651/557 95/191/191
f 242/215/215 408/214/214 222/651/557
f 408/214/214 104/652/558 222/651/557
f 545/212/212 244/194/194 98/204/204
f 545/212/212 370/211/211 244/194/194
f 370/211/211 99/195/195 244/194/194
f 429/655/561 611/206/206 208/209/209 103/654/560
f 106/656/562 262/657/563 611/206/206 429/655/561
f 262/657/563 100/197/197 361/207/207 611/206/206
f 541/217/217 612/203/203 489/205/205 97/218/218
f 105/208/208 361/207/207 612/203/203 541/217/217
f 361/207/207 100/197/197 488/199/199 612/203/203
f 449/202/202 286/653/559 104/652/558
f 449/202/202 543/201/201 286/653/559
f 543/201/201 103/654/560 286/653/559
f 488/199/199 379/658/564 98/204/204
f 488/199/199 377/198/198 379/658/564
f 377/198/198 101/659/565 379/658/564
f 403/221/221 613/193/193 413/196/196 96/222/222
f 97/218/218 489/205/205 613/193/193 403/221/221
f 489/205/205 98/204/204 244/194/194 613/193/193
f 339/224/224 614/189/189 355/192/192 96/222/222
f 93/187/187 271/186/186 614/189/189 339/224/224
f 271/186/186 92/660/566 422/190/190 614/189/189
f 493/661/567 615/185/185 531/188/188 94/650/556
f 91/662/568 325/663/569 615/185/185 493/661/567
f 325/663/569 92/660/566 271/186/186 615/185/185
f 281/664/570 616/183/183 293/156/156 81/155/155
f 76/665/571 362/148/148 616/183/183 281/664/570
f 362/148/148 75/147/147 526/184/184 616/183/183
f 519/666/572 617/180/180 223/152/152 77/151/151
f 86/667/573 505/179/179 617/180/180 519/666/572
f 505/179/179 79/178/178 463/181/181 617/180/180
f 484/668/574 618/176/176 505/179/179 86/667/573
f 85/669/575 225/169/169 618/176/176 484/668/574
f 225/169/169 87/168/168 245/177/177 618/176/176
f 521/175/175 519/666/572 77/151/151
f 521/175/175 273/174/174 519/666/572
f 273/174/174 86/667/573 519/666/572
f 516/172/172 253/154/154 80/164/164
f 516/172/172 378/171/171 253/154/154
f 378/171/171 81/155/155 253/154/154
f 290/670/576 619/166/166 225/169/169 85/669/575
f 88/671/577 481/672/578 619/166/166 290/670/576
f 481/672/578 82/157/157 387/167/167 619/166/166
f 245/177/177 620/163/163 383/165/165 79/178/178
f 87/168/168 387/167/167 620/163/163 245/177/177
f 387/167/167 82/157/157 256/159/159 620/163/163
f 287/162/162 484/668/574 86/667/573
f 287/162/162 228/161/161 484/668/574
f 228/161/161 85/669/575 484/668/574
f 256/159/159 332/673/579 80/164/164
f 256/159/159 423/158/158 332/673/579
f 423/158/158 83/674/580 332/673/579
f 463/181/181 621/153/153 293/156/156 78/182/182
f 79/178/178 383/165/165 621/153/153 463/181/181
f 383/165/165 80/164/164 253/154/154 621/153/153
f 526/184/184 622/149/149 223/152/152 78/182/182
f 75/147/147 474/146/146 622/149/149 526/184/184
f 474/146/146 74/675/581 274/150/150 622/149/149
f 366/676/582 623/145/145 362/148/148 76/665/571
f 73/677/583 217/678/584 623/145/145 366/676/582
f 217/678/584 74/675/581 474/146/146 623/145/145
f 333/679/585 624/141/141 455/144/144 55/680/586
f 61/681/587 380/682/588 624/141/141 333/679/585
f 380/682/588 59/683/589 330/142/142 624/141/141
f 503/131/131 625/137/137 326/140/140 66/121/121
f 60/130/130 478/684/590 625/137/137 503/131/131
f 478/684/590 59/683/589 214/138/138 625/137/137
f 522/122/122 626/133/133 494/136/136 67/685/591
f 66/121/121 326/140/140 626/133/133 522/122/122
f 326/140/140 63/139/139 435/134/134 626/133/133
f 367/132/132 239/686/592 72/687/593
f 367/132/132 503/131/131 239/686/592
f 503/131/131 66/121/121 239/686/592
f 454/129/129 277/688/594 71/689/595
f 454/129/129 316/116/116 277/688/594
f 316/116/116 61/681/587 277/688/594
f 231/690/596 627/127/127 246/128/128 70/691/597
f 67/685/591 494/136/136 627/127/127 231/690/596
f 494/136/136 69/135/135 498/126/126 627/127/127
f 435/134/134 628/124/124 498/126/126 69/135/135
f 63/139/139 401/118/118 628/124/124 435/134/134
f 401/118/118 62/117/117 237/120/120 628/124/124
f 243/123/123 414/692/598 68/693/599
f 243/123/123 522/122/122 414/692/598
f 522/122/122 67/685/591 414/692/598
f 237/120/120 248/694/600 65/125/125
f 237/120/120 305/119/119 248/694/600
f 305/119/119 64/695/601 248/694/600
f 214/138/138 629/115/115 401/118/118 63/139/139
f 59/683/589 380/682/588 629/115/115 214/138/138
f 380/682/588 61/681/587 316/116/116 629/115/115
f 330/142/142 630/113/113 542/110/110 56/143/143
f 59/683/589 478/684/590 630/113/113 330/142/142
f 478/684/590 60/130/130 482/114/114 630/113/113
f 249/696/602 631/109/109 311/112/112 58/697/603
f 55/680/586 455/144/144 631/109/109 249/696/602
f 455/144/144 56/143/143 542/110/110 631/109/109
f 490/698/604 632/105/105 254/108/108 37/699/605
f 43/700/606 477/701/607 632/105/105 490/698/604
f 477/701/607 41/702/608 499/106/106 632/105/105
f 534/95/95 633/101/101 393/104/104 48/85/85
f 42/94/94 229/703/609 633/101/101 534/95/95
f 229/703/609 41/702/608 289/102/102 633/101/101
f 495/86/86 634/97/97 215/100/100 49/704/610
f 48/85/85 393/104/104 634/97/97 495/86/86
f 393/104/104 45/103/103 432/98/98 634/97/97
f 363/96/96 344/705/611 54/706/612
f 363/96/96 534/95/95 344/705/611
f 534/95/95 48/85/85 344/705/611
f 452/93/93 275/707/613 53/708/614
f 452/93/93 381/80/80 275/707/613
f 381/80/80 43/700/606 275/707/613
f 465/709/615 635/91/91 340/92/92 52/710/616
f 49/704/610 215/100/100 635/91/91 465/709/615
f 215/100/100 51/99/99 420/90/90 635/91/91
f 432/98/98 636/88/88 420/90/90 51/99/99
f 45/103/103 471/82/82 636/88/88 432/98/98
f 471/82/82 44/81/81 282/84/84 636/88/88
f 317/87/87 299/711/617 50/712/618
f 317/87/87 495/86/86 299/711/617
f 495/86/86 49/704/610 299/711/617
f 282/84/84 303/713/619 47/89/89
f 282/84/84 368/83/83 303/713/619
f 368/83/83 46/714/620 303/713/619
f 289/102/102 637/79/79 471/82/82 45/103/103
f 41/702/608 477/701/607 637/79/79 289/102/102
f 477/701/607 43/700/606 381/80/80 637/79/79
f 499/106/106 638/77/77 315/74/74 38/107/107
f 41/702/608 229/703/609 638/77/77 499/106/106
f 229/703/609 42/94/94 218/78/78 638/77/77
f 415/715/621 639/73/73 424/76/76 40/716/622
f 37/699/605 254/108/108 639/73/73 415/715/621
f 254/108/108 38/107/107 315/74/74 639/73/73
f 430/717/623 640/69/69 349/72/72 19/718/624
f 25/719/625 425/720/626 640/69/69 430/717/623
f 425/720/626 23/721/627 427/70/70 640/69/69
f 321/59/59 641/65/65 535/68/68 30/49/49
f 24/58/58 341/722/628 641/65/65 321/59/59
f 341/722/628 23/721/627 232/66/66 641/65/65
f 466/50/50 642/61/61 475/64/64 31/723/629
f 30/49/49 535/68/68 642/61/61 466/50/50
f 535/68/68 27/67/67 443/62/62 642/61/61
f 459/60/60 409/724/630 36/725/631
f 459/60/60 321/59/59 409/724/630
f 321/59/59 30/49/49 409/724/630
f 356/57/57 532/726/632 35/727/633
f 356/57/57 213/44/44 532/726/632
f 213/44/44 25/719/625 532/726/632
f 394/728/634 643/55/55 390/56/56 34/729/635
f 31/723/629 475/64/64 643/55/55 394/728/634
f 475/64/64 33/63/63 460/54/54 643/55/55
f 443/62/62 644/52/52 460/54/54 33/63/63
f 27/67/67 461/46/46 644/52/52 443/62/62
f 461/46/46 26/45/45 283/48/48 644/52/52
f 212/51/51 388/730/636 32/731/637
f 212/51/51 466/50/50 388/730/636
f 466/50/50 31/723/629 388/730/636
f 283/48/48 279/732/638 29/53/53
f 283/48/48 544/47/47 279/732/638
f 544/47/47 28/733/639 279/732/638
f 232/66/66 645/43/43 461/46/46 27/67/67
f 23/721/627 425/720/626 645/43/43 232/66/66
f 425/720/626 25/719/625 213/44/44 645/43/43
f 427/70/70 646/41/41 265/38/38 20/71/71
f 23/721/627 341/722/628 646/41/41 427/70/70
f 341/722/628 24/58/58 322/42/42 646/41/41
f 523/734/640 647/37/37 512/40/40 22/735/641
f 19/718/624 349/72/72 647/37/37 523/734/640
f 349/72/72 20/71/71 265/38/38 647/37/37
f 346/736/642 648/33/33 284/36/36 1/737/643
f 7/738/644 342/739/645 648/33/33 346/736/642
f 342/739/645 5/740/646 364/34/34 648/33/33
f 250/23/23 649/29/29 399/32/32 12/13/13
f 6/22/22 263/741/647 649/29/29 250/23/23
f 263/741/647 5/740/646 508/30/30 649/29/29
f 307/14/14 650/25/25 318/28/28 13/742/648
f 12/13/13 399/32/32 650/25/25 307/14/14
f 399/32/32 9/31/31 296/26/26 650/25/25
f 350/24/24 375/743/649 18/744/650
f 350/24/24 250/23/23 375/743/649
f 250/23/23 12/13/13 375/743/649
f 347/21/21 517/745/651 17/746/652
f 347/21/21 438/8/8 517/745/651
f 438/8/8 7/738/644 517/745/651
f 410/747/653 651/19/19 395/20/20 16/748/654
f 13/742/648 318/28/28 651/19/19 410/747/653
f 318/28/28 15/27/27 300/18/18 651/19/19
f 296/26/26 652/16/16 300/18/18 15/27/27
f 9/31/31 352/10/10 652/16/16 296/26/26
f 352/10/10 8/9/9 496/12/12 652/16/16
f 384/15/15 251/749/655 14/750/656
f 384/15/15 307/14/14 251/749/655
f 307/14/14 13/742/648 251/749/655
f 496/12/12 491/751/657 11/17/17
f 496/12/12 404/11/11 491/751/657
f 404/11/11 10/752/658 491/751/657
f 508/30/30 653/7/7 352/10/10 9/31/31
f 5/740/646 342/739/645 653/7/7 508/30/30
f 342/739/645 7/738/644 438/8/8 653/7/7
f 364/34/34 654/5/5 539/2/2 2/35/35
f 5/740/646 263/741/647 654/5/5 364/34/34
f 263/741/647 6/22/22 268/6/6 654/5/5
f 445/753/659 655/1/1 444/4/4 4/754/660
f 1/737/643 284/36/36 655/1/1 445/753/659
f 284/36/36 2/35/35 539/2/2 655/1/1
