# Blender v2.78 (sub 0) OBJ File: ''
# www.blender.org
mtllib Dead_Pine_Tree_crk_l_03.mtl
o Dead_Pine_Tree_crk_l_03
v 0.221606 2.809861 0.133512
v 0.531053 3.021821 0.587743
v 0.510643 3.006607 0.616160
v 0.182729 2.780710 0.181915
v 0.499716 3.039424 0.600589
v 0.167324 2.843367 0.158713
v -0.302945 -0.001264 -0.026631
v -0.143342 3.322612 -0.108364
v 0.038939 3.209748 -0.349354
v -0.060752 -0.004928 -0.326160
v 0.300876 -0.002098 0.191987
v 0.292150 3.271272 0.086406
v -0.016527 3.309253 0.161434
v -0.087443 -0.001992 0.298640
v 0.291316 3.362989 -0.217828
v 0.291101 -0.000381 -0.185286
v -0.581918 1.922812 -0.256658
v -0.783718 1.843430 -0.209016
v -0.640816 1.926218 -0.060625
v -0.202296 2.122675 -0.039179
v -1.070199 1.703302 -0.292654
v -1.128251 1.670949 -0.064397
v -0.992818 1.663313 -0.513848
v -1.523081 1.384840 -0.804064
v -1.632725 1.433134 -0.456972
v -1.888361 1.100017 -0.967760
v -2.021373 1.178155 -0.730631
v -1.732194 1.394459 -0.105312
v -2.072203 1.096182 -0.421840
v -2.128077 1.108088 -0.160384
v -1.908064 1.295259 -0.537302
v -2.399417 0.949797 -0.678928
v -1.200946 1.416396 -0.859617
v -1.505115 1.428240 0.114117
v 0.670786 2.818909 -0.322607
v 0.771567 2.736706 -0.494015
v 0.577437 2.829427 -0.497350
v 0.274546 3.037272 -0.210410
v 1.016276 2.586157 -0.633802
v 0.898147 2.563683 -0.830321
v 1.111909 2.539748 -0.429411
v 1.656162 2.236064 -0.595427
v 1.497144 2.295359 -0.908189
v 2.000638 1.938684 -0.735298
v 1.934555 2.020624 -0.988432
v 1.322705 2.271152 -1.217740
v 1.753436 1.954336 -1.235592
v 1.613854 1.976357 -1.453070
v 1.732102 2.147575 -1.042601
v 2.144118 1.787784 -1.284360
v 1.475449 2.276245 -0.336548
v 1.019411 2.323143 -1.212511
v -0.202156 2.122355 -0.039131
v -0.640672 1.925899 -0.060588
v -0.783573 1.843114 -0.208967
v -0.581780 1.922494 -0.256599
v -1.128099 1.670631 -0.064408
v -1.070057 1.702984 -0.292607
v -1.632566 1.432823 -0.456931
v -1.522963 1.384532 -0.803941
v -0.992702 1.662999 -0.513745
v -2.021192 1.177858 -0.730587
v -1.888217 1.099742 -0.967597
v -2.127876 1.107806 -0.160329
v -2.071993 1.095901 -0.421855
v -1.732017 1.394156 -0.105333
v -1.907877 1.294962 -0.537283
v -2.399208 0.949519 -0.678978
v -1.200887 1.416098 -0.859442
v -1.504972 1.427938 0.114012
v 0.274394 3.036962 -0.210347
v 0.577289 2.829116 -0.497276
v 0.771410 2.736398 -0.493949
v 0.670627 2.818600 -0.322554
v 0.898028 2.563372 -0.830208
v 1.016122 2.585847 -0.633738
v 1.496982 2.295057 -0.908109
v 1.655974 2.235768 -0.595433
v 1.111734 2.539444 -0.429405
v 1.934377 2.020338 -0.988337
v 2.000405 1.938424 -0.735314
v 1.613656 1.976085 -1.452970
v 1.753280 1.954062 -1.235436
v 1.322575 2.270856 -1.217602
v 1.731937 2.147286 -1.042484
v 2.143988 1.787512 -1.284179
v 1.475266 2.275958 -0.336633
v 1.019365 2.322841 -1.212339
v -1.940908 1.142617 -0.857910
v 0.735401 2.701690 -0.655154
v -0.058485 1.635233 0.239323
v -1.730754 1.228965 -0.894646
v -1.954851 1.235853 -0.138602
v 1.101930 2.420173 -1.029018
v 0.302002 1.652791 -0.208431
v -2.248294 1.014040 -0.563847
v 0.411830 2.943335 -0.342938
v 0.456204 2.938335 -0.259874
v -1.988721 1.196735 -0.483788
v -1.094415 1.691694 -0.178322
v 1.622032 2.218019 -0.979560
v 0.954059 2.579532 -0.728875
v 1.831781 2.086499 -1.019383
v 1.059915 2.567278 -0.530373
v 1.382625 2.388467 -0.502022
v 1.964206 1.983183 -0.846307
v -1.427551 1.534948 -0.074892
v -1.249436 1.524962 -0.665612
v -0.193980 -0.003096 -0.186349
v -2.229137 1.057309 -0.700603
v 0.673842 2.783181 -0.495786
v -1.730621 1.228675 -0.894504
v 0.332884 2.942228 0.379647
v 1.575846 2.270028 -0.750359
v 1.807163 2.122334 -0.792849
v 0.721059 2.778188 -0.407755
v -1.249322 1.524651 -0.665497
v -0.918550 1.777018 -0.248373
v 0.161559 3.314441 -0.291169
v -0.233653 1.642459 -0.065285
v 1.850471 2.072694 -0.676617
v -1.913869 1.238659 -0.261589
v 1.831951 2.086787 -1.019490
v -0.402846 2.033888 -0.047080
v 0.295083 3.346392 -0.058647
v 1.256690 2.440368 -0.771003
v -1.351474 1.567825 -0.374816
v -1.027391 1.687509 -0.400894
v 1.544438 2.106226 -1.236208
v -0.876252 1.803782 -0.066847
v -0.374849 2.032269 -0.140264
v -0.208706 -0.001628 0.144691
v 0.144755 3.329635 0.121374
v 0.195015 2.828750 0.144454
v 0.172862 2.812140 0.172023
v 0.969975 2.430819 -1.041518
v 0.346499 2.892864 0.399694
v -1.940748 1.142331 -0.857801
v -0.374709 2.031950 -0.140212
v 1.744744 2.051787 -1.135230
v 1.546700 2.267990 -0.447613
v -0.682312 1.883509 -0.233138
v 0.203783 2.793048 0.157663
v -1.339868 1.536894 0.030687
v -1.778801 1.360794 -0.499631
v 2.049057 1.897510 -1.152279
v 1.744584 2.051506 -1.135092
v 1.315795 2.394249 -0.382259
v -1.955041 1.236144 -0.138621
v -0.402704 2.033568 -0.047036
v 1.966109 1.861538 -1.259521
v -1.340016 1.537203 0.030748
v -2.229335 1.057596 -0.700595
v 0.377153 2.915803 0.359975
v 1.256848 2.440675 -0.771074
v 0.137897 3.433489 -0.026279
v 1.408082 2.287139 -1.062454
v 0.953921 2.579222 -0.728786
v -0.682171 1.883192 -0.233084
v -1.680759 1.417996 -0.279984
v -2.093055 1.105793 -0.276246
v -1.351624 1.568141 -0.374860
v -1.966318 1.239056 -0.629895
v -1.781750 1.276072 -0.775570
v 0.886701 2.665395 -0.559812
v 1.408227 2.287438 -1.062564
v 1.060080 2.567586 -0.530409
v -2.248505 1.014319 -0.563812
v -1.027521 1.687826 -0.400969
v 1.146508 2.310687 -1.208651
v 2.048905 1.897232 -1.152135
v -1.595481 1.423739 0.018226
v 1.963999 1.982910 -0.846272
v -1.781600 1.275770 -0.775485
v 0.886857 2.665704 -0.559877
v -2.093259 1.106075 -0.276267
v 1.101810 2.419869 -1.028890
v 0.883231 2.685032 -0.378425
v -0.079837 3.339314 0.026153
v 1.850682 2.072971 -0.676608
v -1.113044 1.527147 -0.704051
v -1.576082 1.413390 -0.630767
v 0.969895 2.430514 -1.041372
v 1.668858 1.969866 -1.349646
v 0.673995 2.783491 -0.495856
v -0.782979 1.798389 -0.377293
v 0.720901 2.777879 -0.407696
v -1.988523 1.196446 -0.483787
v 0.120091 -0.002654 -0.270153
v 1.146424 2.310387 -1.208495
v -1.112958 1.526841 -0.703909
v -1.334204 1.411699 -0.830754
v 0.072022 3.438310 -0.165949
v 1.806979 2.122044 -0.792806
v -1.575943 1.413080 -0.630686
v -0.046334 3.305262 -0.235550
v 0.456048 2.938025 -0.259815
v 1.488350 2.107888 -1.348606
v 0.300269 1.634359 0.141823
v 0.511165 3.026673 0.615799
v 1.575671 2.269728 -0.750321
v 1.382806 2.388767 -0.502019
v -0.712007 1.885226 -0.134303
v 0.311806 -0.001240 0.004068
v -1.427388 1.534638 -0.074912
v -0.711862 1.884909 -0.134260
v -0.918694 1.777335 -0.248421
v 0.111625 -0.002045 0.260292
v -0.876104 1.803463 -0.066832
v -0.782851 1.798072 -0.377214
v -1.778974 1.361098 -0.499661
v -1.680591 1.417688 -0.279975
v -1.334118 1.411396 -0.830603
v -1.094267 1.691376 -0.178303
v 0.526192 3.018260 0.609666
v 0.883065 2.684725 -0.378393
v 1.965968 1.861266 -1.259350
v 0.520920 3.033943 0.602164
v -0.011858 1.601384 -0.342042
v 0.735266 2.701379 -0.655062
v 0.411680 2.943024 -0.342870
v -1.966502 1.239354 -0.629925
v 1.621868 2.217724 -0.979462
v 1.544292 2.105942 -1.236063
v 1.488183 2.107606 -1.348487
v -1.595323 1.423436 0.018160
v 1.669036 1.970139 -1.349773
v -1.914063 1.238950 -0.261574
v 1.315616 2.393954 -0.382302
v 1.546515 2.267698 -0.447662
v 0.887284 2.674579 -0.466699
v 1.180145 2.433686 -0.898069
v 1.578541 2.167245 -1.103714
v 1.903323 1.970035 -1.144681
v 1.709634 2.177098 -0.884434
v 1.319027 2.418035 -0.638099
v 0.810305 2.683253 -0.610798
v 0.559680 2.864439 -0.373134
v -0.850719 1.787225 -0.316319
v -1.388569 1.554979 -0.226702
v -1.839853 1.305035 -0.379987
v -2.114581 1.122836 -0.596424
v -1.775175 1.325410 -0.634944
v -1.300947 1.549910 -0.518353
v -0.899288 1.790033 -0.154662
v -0.535888 1.962071 -0.136616
v 0.887445 2.674887 -0.466747
v 1.180286 2.433992 -0.898168
v 1.578694 2.167536 -1.103837
v 1.903479 1.970315 -1.144822
v 1.709807 2.177391 -0.884506
v 1.319197 2.418339 -0.638134
v 0.810451 2.683563 -0.610877
v 0.559834 2.864748 -0.373198
v -0.850855 1.787542 -0.316384
v -1.388727 1.555292 -0.226716
v -1.840037 1.305333 -0.379992
v -2.114780 1.123124 -0.596420
v -1.775337 1.325715 -0.635000
v -1.301080 1.550224 -0.518432
v -0.899434 1.790351 -0.154693
v -0.536030 1.962390 -0.136665
v 0.311671 1.644408 -0.032741
v -0.155177 1.639553 0.092883
v 0.148546 1.626722 -0.285040
v 0.123614 1.634337 0.200818
v -0.130380 1.621205 -0.210530
v 0.355299 2.930207 0.368826
v 0.338457 2.917603 0.390650
v 0.362780 2.903084 0.379841
vt 0.9720 0.9236
vt 0.9678 0.9238
vt 0.9678 0.9235
vt 0.9720 0.9232
vt 0.9720 0.9251
vt 0.9678 0.9249
vt 0.9679 0.9246
vt 0.9720 0.9247
vt 0.9721 0.9243
vt 0.9679 0.9244
vt 0.9679 0.9241
vt 0.9721 0.9239
vt 0.9678 0.9333
vt 0.9678 0.9331
vt 0.9680 0.9332
vt 0.9516 0.9374
vt 0.9500 0.9831
vt 0.9458 0.9819
vt 0.9468 0.9367
vt 0.9231 0.9378
vt 0.9249 0.9839
vt 0.9204 0.9840
vt 0.9181 0.9379
vt 0.9422 0.9375
vt 0.9419 0.9834
vt 0.9379 0.9849
vt 0.9376 0.9383
vt 0.9612 0.9381
vt 0.9584 0.9843
vt 0.9543 0.9843
vt 0.9564 0.9380
vt 0.9329 0.9380
vt 0.9337 0.9843
vt 0.9294 0.9838
vt 0.9282 0.9377
vt 0.7956 0.8262
vt 0.7956 0.8124
vt 0.8082 0.8084
vt 0.8384 0.8100
vt 0.8295 0.8203
vt 0.8296 0.8004
vt 0.8206 0.8305
vt 0.8081 0.8284
vt 0.8207 0.8106
vt 0.6872 0.3490
vt 0.6893 0.3418
vt 0.6914 0.3459
vt 0.6893 0.3562
vt 0.6905 0.3336
vt 0.6939 0.3356
vt 0.6812 0.3121
vt 0.6751 0.3121
vt 0.6723 0.2989
vt 0.6797 0.2989
vt 0.6710 0.2888
vt 0.6768 0.2888
vt 0.7021 0.2989
vt 0.6975 0.2888
vt 0.7033 0.2888
vt 0.6820 0.2909
vt 0.6814 0.2787
vt 0.6843 0.2828
vt 0.6872 0.2763
vt 0.6843 0.2696
vt 0.6691 0.3043
vt 0.6963 0.3253
vt 0.6992 0.3121
vt 0.7024 0.3172
vt 0.6924 0.2909
vt 0.6872 0.2930
vt 0.6872 0.2870
vt 0.6901 0.2828
vt 0.6932 0.3121
vt 0.6872 0.3121
vt 0.6872 0.2989
vt 0.6946 0.2989
vt 0.6839 0.3336
vt 0.6872 0.3315
vt 0.6872 0.3377
vt 0.6851 0.3418
vt 0.9351 0.3490
vt 0.9372 0.3418
vt 0.9393 0.3459
vt 0.9372 0.3562
vt 0.9384 0.3336
vt 0.9418 0.3356
vt 0.9291 0.3121
vt 0.9232 0.3121
vt 0.9203 0.2989
vt 0.9277 0.2989
vt 0.9190 0.2888
vt 0.9248 0.2888
vt 0.9500 0.2989
vt 0.9455 0.2888
vt 0.9513 0.2888
vt 0.9299 0.2909
vt 0.9293 0.2787
vt 0.9322 0.2828
vt 0.9351 0.2763
vt 0.9322 0.2696
vt 0.9171 0.3043
vt 0.9443 0.3253
vt 0.9471 0.3121
vt 0.9503 0.3172
vt 0.9403 0.2909
vt 0.9351 0.2930
vt 0.9351 0.2870
vt 0.9381 0.2828
vt 0.9411 0.3121
vt 0.9351 0.3121
vt 0.9351 0.2989
vt 0.9426 0.2989
vt 0.9318 0.3336
vt 0.9351 0.3315
vt 0.9351 0.3377
vt 0.9331 0.3418
vt 0.6872 0.3490
vt 0.6893 0.3418
vt 0.6872 0.3377
vt 0.6851 0.3418
vt 0.6905 0.3336
vt 0.6939 0.3356
vt 0.6963 0.3253
vt 0.6918 0.3253
vt 0.6812 0.3121
vt 0.6751 0.3121
vt 0.6780 0.3253
vt 0.6826 0.3253
vt 0.6814 0.2787
vt 0.6755 0.2787
vt 0.6768 0.2888
vt 0.7046 0.2787
vt 0.6988 0.2787
vt 0.7033 0.2888
vt 0.6820 0.2909
vt 0.6723 0.2989
vt 0.6797 0.2989
vt 0.6872 0.2763
vt 0.6843 0.2828
vt 0.6872 0.2870
vt 0.6901 0.2828
vt 0.6660 0.3096
vt 0.6720 0.3174
vt 0.6691 0.3043
vt 0.7084 0.3091
vt 0.7053 0.3040
vt 0.7024 0.3172
vt 0.6924 0.2909
vt 0.6872 0.2930
vt 0.6872 0.2989
vt 0.6946 0.2989
vt 0.6932 0.3121
vt 0.6872 0.3121
vt 0.6872 0.3253
vt 0.6839 0.3336
vt 0.6872 0.3315
vt 0.9351 0.3490
vt 0.9372 0.3418
vt 0.9351 0.3377
vt 0.9331 0.3418
vt 0.9384 0.3336
vt 0.9418 0.3356
vt 0.9443 0.3253
vt 0.9397 0.3253
vt 0.9291 0.3121
vt 0.9232 0.3121
vt 0.9260 0.3253
vt 0.9305 0.3253
vt 0.9293 0.2787
vt 0.9235 0.2787
vt 0.9248 0.2888
vt 0.9526 0.2787
vt 0.9468 0.2787
vt 0.9513 0.2888
vt 0.9299 0.2909
vt 0.9203 0.2989
vt 0.9277 0.2989
vt 0.9351 0.2763
vt 0.9322 0.2828
vt 0.9351 0.2870
vt 0.9381 0.2828
vt 0.9139 0.3096
vt 0.9200 0.3174
vt 0.9171 0.3043
vt 0.9564 0.3091
vt 0.9532 0.3040
vt 0.9503 0.3172
vt 0.9403 0.2909
vt 0.9351 0.2930
vt 0.9351 0.2989
vt 0.9426 0.2989
vt 0.9411 0.3121
vt 0.9351 0.3121
vt 0.9351 0.3253
vt 0.9318 0.3336
vt 0.9351 0.3315
vt 0.9285 0.3356
vt 0.9310 0.3459
vt 0.9471 0.3121
vt 0.9500 0.2989
vt 0.9455 0.2888
vt 0.9410 0.2787
vt 0.9381 0.2696
vt 0.9351 0.2606
vt 0.9322 0.2696
vt 0.9190 0.2888
vt 0.9177 0.2787
vt 0.9393 0.3459
vt 0.9331 0.3562
vt 0.9351 0.3666
vt 0.9372 0.3562
vt 0.6805 0.3356
vt 0.6830 0.3459
vt 0.6992 0.3121
vt 0.7021 0.2989
vt 0.6975 0.2888
vt 0.6930 0.2787
vt 0.6901 0.2696
vt 0.6872 0.2606
vt 0.6843 0.2696
vt 0.6710 0.2888
vt 0.6697 0.2787
vt 0.6914 0.3459
vt 0.6851 0.3562
vt 0.6872 0.3666
vt 0.6893 0.3562
vt 0.9285 0.3356
vt 0.9310 0.3459
vt 0.9260 0.3253
vt 0.9305 0.3253
vt 0.9351 0.3253
vt 0.9397 0.3253
vt 0.9410 0.2787
vt 0.9532 0.3040
vt 0.9564 0.3091
vt 0.9200 0.3174
vt 0.9139 0.3096
vt 0.9381 0.2696
vt 0.9351 0.2606
vt 0.9468 0.2787
vt 0.9526 0.2787
vt 0.9235 0.2787
vt 0.9177 0.2787
vt 0.9331 0.3562
vt 0.9351 0.3666
vt 0.6805 0.3356
vt 0.6830 0.3459
vt 0.6780 0.3253
vt 0.6826 0.3253
vt 0.6872 0.3253
vt 0.6918 0.3253
vt 0.6930 0.2787
vt 0.7053 0.3040
vt 0.7084 0.3091
vt 0.6720 0.3174
vt 0.6660 0.3096
vt 0.6901 0.2696
vt 0.6872 0.2606
vt 0.6988 0.2787
vt 0.7046 0.2787
vt 0.6755 0.2787
vt 0.6697 0.2787
vt 0.6851 0.3562
vt 0.6872 0.3666
vt 0.8208 0.7907
vt 0.8082 0.7946
vt 0.7956 0.7985
vt 0.9322 0.8916
vt 0.9269 0.8916
vt 0.9374 0.8916
vt 0.9639 0.8918
vt 0.9585 0.8916
vt 0.9693 0.8921
vt 0.9660 0.9381
vt 0.9626 0.9842
vt 0.9426 0.8916
vt 0.9478 0.8916
vt 0.9214 0.8917
vt 0.9158 0.8918
vt 0.9532 0.8916
vt 0.9680 0.9330
vt 0.9682 0.9331
vt 0.9678 0.9328
vt 0.9762 0.9244
vt 0.9763 0.9238
vt 0.9762 0.9249
vt 0.9762 0.9254
vt 0.9761 0.9259
vt 0.9720 0.9255
vt 0.9678 0.9252
vt 0.9762 0.9233
vt 0.9761 0.9228
vn 0.5847 -0.8111 -0.0155
vn 0.8360 -0.2003 0.5108
vn -0.0275 -0.6216 0.7829
vn -0.2165 -0.7871 0.5776
vn -0.8011 0.0205 0.5982
vn -0.1351 0.3709 0.9188
vn -0.4103 0.8822 0.2311
vn -0.5587 0.8274 0.0574
vn 0.2427 0.8076 -0.5374
vn 0.5287 0.8405 0.1183
vn 0.9320 0.0923 -0.3506
vn 0.8293 -0.0035 -0.5587
vn -0.7814 0.0235 -0.6235
vn -0.5951 0.4271 -0.6808
vn -0.2304 0.1981 -0.9527
vn -0.2434 0.0040 -0.9699
vn 0.2583 0.0357 0.9654
vn 0.2764 0.5237 0.8058
vn -0.3662 0.4218 0.8294
vn -0.3812 0.0503 0.9231
vn 0.4051 -0.0121 -0.9142
vn 0.1765 0.4109 -0.8944
vn 0.7088 0.5222 -0.4742
vn 0.8379 -0.0045 -0.5458
vn -0.8666 0.0490 0.4965
vn -0.7063 0.5891 0.3927
vn -0.8827 0.4579 -0.1060
vn -0.9959 0.0457 -0.0786
vn 1.0000 0.0033 -0.0043
vn 0.8374 0.5212 0.1647
vn 0.7429 0.3115 0.5925
vn 0.7918 0.0237 0.6103
vn 0.1402 0.9511 0.2754
vn -0.1643 0.9330 -0.3203
vn -0.3978 0.9075 -0.1353
vn -0.4254 0.9010 -0.0852
vn -0.4142 0.9044 -0.1025
vn -0.3975 0.9079 -0.1330
vn -0.4493 0.8930 -0.0240
vn -0.4573 0.8892 -0.0170
vn -0.3446 0.9032 -0.2558
vn -0.2483 0.8857 -0.3923
vn -0.3389 0.8784 -0.3370
vn -0.3676 0.8950 -0.2526
vn -0.3955 0.7822 -0.4814
vn -0.3998 0.8311 -0.3865
vn -0.5101 0.8598 0.0222
vn -0.6105 0.7893 -0.0660
vn -0.5658 0.8063 -0.1725
vn -0.3925 0.8804 -0.2662
vn -0.4912 0.8425 -0.2211
vn -0.5268 0.8426 -0.1116
vn -0.5945 0.7951 0.1200
vn -0.5545 0.8229 0.1238
vn -0.1727 0.8499 -0.4979
vn -0.4335 0.8995 0.0540
vn -0.4170 0.8940 0.1637
vn -0.4000 0.8601 0.3166
vn -0.6034 0.7941 0.0722
vn -0.4780 0.8748 -0.0790
vn -0.5417 0.8406 -0.0011
vn -0.6460 0.7488 0.1481
vn -0.4220 0.9066 -0.0039
vn -0.3928 0.9100 -0.1326
vn -0.4250 0.8969 -0.1221
vn -0.4980 0.8671 -0.0086
vn -0.3796 0.8890 -0.2560
vn -0.4116 0.9007 -0.1393
vn -0.4115 0.9007 -0.1393
vn -0.3933 0.8991 -0.1921
vn 0.4338 0.8831 -0.1786
vn 0.4176 0.8781 -0.2336
vn 0.4221 0.8811 -0.2134
vn 0.4320 0.8837 -0.1800
vn 0.3909 0.8723 -0.2939
vn 0.3913 0.8684 -0.3045
vn 0.4809 0.8750 -0.0557
vn 0.5080 0.8545 0.1088
vn 0.5325 0.8464 0.0055
vn 0.4944 0.8661 -0.0743
vn 0.6682 0.7409 0.0671
vn 0.6075 0.7943 -0.0028
vn 0.3992 0.8390 -0.3698
vn 0.5278 0.7602 -0.3788
vn 0.5723 0.7737 -0.2717
vn 0.5207 0.8497 -0.0824
vn 0.5562 0.8104 -0.1843
vn 0.5042 0.8145 -0.2870
vn 0.3858 0.7759 -0.4991
vn 0.3566 0.8055 -0.4733
vn 0.5267 0.8165 0.2366
vn 0.3251 0.8832 -0.3379
vn 0.2358 0.8839 -0.4039
vn 0.1140 0.8583 -0.5003
vn 0.4257 0.7723 -0.4716
vn 0.4488 0.8502 -0.2754
vn 0.4368 0.8174 -0.3757
vn 0.3995 0.7291 -0.5556
vn 0.3583 0.8878 -0.2887
vn 0.4286 0.8860 -0.1770
vn 0.4431 0.8722 -0.2073
vn 0.4128 0.8452 -0.3394
vn 0.5049 0.8594 -0.0804
vn 0.4460 0.8756 -0.1855
vn 0.4459 0.8757 -0.1855
vn 0.4702 0.8721 -0.1353
vn 0.3978 -0.9075 0.1353
vn 0.4254 -0.9010 0.0852
vn 0.4115 -0.9007 0.1393
vn 0.3933 -0.8991 0.1921
vn 0.4493 -0.8930 0.0240
vn 0.4573 -0.8892 0.0170
vn 0.4335 -0.8995 -0.0540
vn 0.4378 -0.8991 -0.0003
vn 0.3446 -0.9032 0.2558
vn 0.2483 -0.8857 0.3923
vn 0.3231 -0.8931 0.3129
vn 0.3566 -0.8944 0.2701
vn 0.4912 -0.8425 0.2211
vn 0.4053 -0.7765 0.4825
vn 0.3998 -0.8311 0.3866
vn 0.5695 -0.8009 0.1850
vn 0.5772 -0.8006 0.1612
vn 0.5658 -0.8063 0.1724
vn 0.3925 -0.8804 0.2663
vn 0.3389 -0.8784 0.3370
vn 0.3676 -0.8950 0.2526
vn 0.5945 -0.7951 -0.1200
vn 0.5268 -0.8426 0.1116
vn 0.5417 -0.8406 0.0011
vn 0.6460 -0.7488 -0.1481
vn 0.1422 -0.8425 0.5195
vn 0.1541 -0.8473 0.5083
vn 0.1727 -0.8499 0.4979
vn 0.3963 -0.8555 -0.3334
vn 0.4141 -0.8627 -0.2903
vn 0.4000 -0.8601 -0.3166
vn 0.6035 -0.7941 -0.0722
vn 0.4780 -0.8748 0.0790
vn 0.4250 -0.8969 0.1221
vn 0.4980 -0.8671 0.0086
vn 0.4220 -0.9066 0.0039
vn 0.3928 -0.9100 0.1326
vn 0.4007 -0.9060 0.1361
vn 0.3796 -0.8890 0.2560
vn 0.4116 -0.9007 0.1393
vn -0.4338 -0.8831 0.1786
vn -0.4176 -0.8781 0.2336
vn -0.4459 -0.8757 0.1855
vn -0.4702 -0.8721 0.1353
vn -0.3909 -0.8723 0.2939
vn -0.3913 -0.8684 0.3045
vn -0.3251 -0.8832 0.3379
vn -0.3660 -0.8799 0.3029
vn -0.4809 -0.8750 0.0557
vn -0.5080 -0.8545 -0.1088
vn -0.5053 -0.8629 0.0002
vn -0.4989 -0.8650 0.0542
vn -0.5562 -0.8104 0.1843
vn -0.6755 -0.7348 -0.0608
vn -0.6075 -0.7943 0.0027
vn -0.5834 -0.7675 0.2655
vn -0.5721 -0.7681 0.2878
vn -0.5723 -0.7737 0.2717
vn -0.5207 -0.8498 0.0824
vn -0.5325 -0.8464 -0.0055
vn -0.4943 -0.8661 0.0743
vn -0.3858 -0.7759 0.4991
vn -0.5042 -0.8145 0.2870
vn -0.4368 -0.8174 0.3757
vn -0.3995 -0.7291 0.5557
vn -0.5199 -0.8093 -0.2734
vn -0.5207 -0.8141 -0.2571
vn -0.5267 -0.8165 -0.2366
vn -0.0992 -0.8547 0.5096
vn -0.1426 -0.8591 0.4916
vn -0.1139 -0.8583 0.5003
vn -0.4257 -0.7722 0.4716
vn -0.4488 -0.8502 0.2754
vn -0.4431 -0.8722 0.2073
vn -0.4128 -0.8452 0.3394
vn -0.3583 -0.8878 0.2887
vn -0.4286 -0.8860 0.1770
vn -0.4364 -0.8815 0.1801
vn -0.5049 -0.8594 0.0804
vn -0.4460 -0.8756 0.1855
vn -0.5138 -0.8546 0.0753
vn -0.4561 -0.8772 0.1499
vn -0.2358 -0.8839 0.4039
vn -0.3992 -0.8390 0.3698
vn -0.5278 -0.7602 0.3788
vn -0.4081 -0.7479 0.5235
vn -0.3067 -0.7851 0.5380
vn -0.3121 -0.8014 0.5102
vn -0.3566 -0.8055 0.4733
vn -0.6682 -0.7409 -0.0671
vn -0.6804 -0.7295 -0.0692
vn -0.4221 -0.8811 0.2134
vn -0.4340 -0.8835 0.1762
vn -0.4328 -0.8837 0.1780
vn -0.4320 -0.8837 0.1800
vn 0.3824 -0.8848 0.2661
vn 0.3935 -0.9032 0.1716
vn 0.4170 -0.8940 -0.1638
vn 0.5101 -0.8598 -0.0222
vn 0.6105 -0.7892 0.0660
vn 0.6287 -0.7683 -0.1202
vn 0.5658 -0.7990 -0.2038
vn 0.5493 -0.8158 -0.1812
vn 0.5545 -0.8229 -0.1239
vn 0.3954 -0.7822 0.4815
vn 0.4030 -0.7716 0.4921
vn 0.4142 -0.9044 0.1025
vn 0.3963 -0.9079 0.1371
vn 0.3967 -0.9080 0.1350
vn 0.3975 -0.9079 0.1330
vn 0.5138 0.8546 -0.0753
vn 0.4561 0.8772 -0.1499
vn 0.5053 0.8629 -0.0002
vn 0.4989 0.8650 -0.0542
vn 0.4364 0.8815 -0.1801
vn 0.3661 0.8799 -0.3028
vn 0.4082 0.7479 -0.5235
vn 0.1426 0.8591 -0.4916
vn 0.0992 0.8547 -0.5095
vn 0.5207 0.8141 0.2571
vn 0.5199 0.8093 0.2734
vn 0.3067 0.7852 -0.5380
vn 0.3121 0.8014 -0.5102
vn 0.5721 0.7681 -0.2878
vn 0.5834 0.7675 -0.2655
vn 0.6755 0.7348 0.0607
vn 0.6804 0.7296 0.0691
vn 0.4340 0.8835 -0.1762
vn 0.4328 0.8837 -0.1780
vn -0.3824 0.8848 -0.2661
vn -0.3935 0.9032 -0.1716
vn -0.3231 0.8931 -0.3129
vn -0.3566 0.8944 -0.2701
vn -0.4007 0.9060 -0.1361
vn -0.4378 0.8991 0.0003
vn -0.6287 0.7683 0.1201
vn -0.4141 0.8627 0.2902
vn -0.3963 0.8555 0.3333
vn -0.1541 0.8473 -0.5082
vn -0.1422 0.8426 -0.5195
vn -0.5658 0.7990 0.2037
vn -0.5493 0.8158 0.1811
vn -0.5772 0.8006 -0.1612
vn -0.5695 0.8009 -0.1850
vn -0.4053 0.7765 -0.4824
vn -0.4031 0.7716 -0.4920
vn -0.3963 0.9079 -0.1371
vn -0.3967 0.9080 -0.1350
vn 1.0000 -0.0014 -0.0095
vn 0.7909 0.0197 0.6116
vn 0.8285 -0.0117 -0.5599
vn -0.8485 0.0431 0.5275
vn -0.9976 0.0401 -0.0563
vn -0.3637 0.0436 0.9305
vn 0.3810 -0.0162 -0.9244
vn -0.2591 0.0007 -0.9659
vn 0.2629 0.0319 0.9643
vn -0.7787 0.0198 -0.6271
vn 0.2445 0.8051 -0.5404
vn 0.8214 0.0192 -0.5700
vn -0.5375 0.8428 0.0284
vn -0.8033 0.0242 0.5951
vn -0.2121 -0.7933 0.5707
vn 0.5864 -0.8098 -0.0202
usemtl None
s 1
f 270/1/1 215/2/2 3/3/3 137/4/4
f 269/5/5 200/6/6 5/7/7 113/8/8
f 268/9/9 218/10/10 2/11/11 154/12/12
f 5/13/7 200/14/6 218/15/10
f 267/16/13 196/17/14 9/18/15 219/19/16
f 266/20/17 133/21/18 13/22/19 91/23/20
f 265/24/21 119/25/22 15/26/23 95/27/24
f 264/28/25 179/29/26 8/30/27 120/31/28
f 263/32/29 125/33/30 12/34/31 199/35/32
f 13/36/19 133/37/18 156/38/33
f 9/39/15 196/40/14 119/41/22
f 8/42/27 179/43/26 193/44/34
f 262/45/35 203/46/36 19/47/37 124/48/38
f 261/49/39 130/50/40 19/47/37 203/46/36
f 260/51/41 108/52/42 24/53/43 182/54/44
f 24/53/43 92/55/45 164/56/46
f 28/57/47 228/58/48 149/59/49
f 259/60/50 164/56/46 27/61/51 222/62/52
f 258/63/53 222/62/52 27/61/51 153/64/54
f 24/53/43 108/52/42 192/65/55
f 22/66/56 107/67/57 152/68/58
f 257/69/59 211/70/60 31/71/61 99/72/62
f 256/73/63 162/74/64 25/75/65 160/76/66
f 255/77/67 207/78/68 18/79/69 142/80/70
f 254/81/71 185/82/72 37/83/73 97/84/74
f 253/85/75 90/86/76 37/83/73 185/82/72
f 252/87/77 202/88/78 42/89/79 114/90/80
f 42/89/79 180/91/81 115/92/82
f 46/93/83 129/94/84 198/95/85
f 251/96/86 115/92/82 45/97/87 123/98/88
f 250/99/89 123/98/88 45/97/87 146/100/90
f 42/89/79 202/88/78 141/101/91
f 40/102/92 94/103/93 136/104/94
f 249/105/95 101/106/96 49/107/97 140/108/98
f 248/109/99 155/110/100 43/111/101 166/112/102
f 247/113/103 175/114/104 36/115/105 116/116/106
f 246/117/107 206/118/108 55/119/109 159/120/110
f 245/121/111 209/122/112 57/123/113 214/124/114
f 244/125/115 117/126/116 61/127/117 128/128/118
f 62/129/119 138/130/120 174/131/121
f 64/132/122 161/133/123 93/134/124
f 243/135/125 174/131/121 60/136/126 195/137/127
f 242/138/128 163/139/129 67/140/130 188/141/131
f 69/142/132 191/143/133 213/144/134
f 70/145/135 226/146/136 144/147/137
f 241/148/138 145/149/139 59/150/140 212/151/141
f 240/152/142 127/153/143 58/154/144 214/124/114
f 239/155/145 118/156/146 58/154/144 128/128/118
f 238/157/147 111/158/148 73/159/149 187/160/150
f 237/161/151 220/162/152 75/163/153 158/164/154
f 236/165/155 105/166/156 79/167/157 104/168/158
f 80/169/159 173/170/160 194/171/161
f 82/172/162 184/173/163 225/174/164
f 235/175/165 194/171/161 78/176/166 201/177/167
f 234/178/168 103/179/169 85/180/170 147/181/171
f 87/182/172 229/183/173 230/184/174
f 88/185/175 190/186/176 183/187/177
f 233/188/178 223/189/179 77/190/180 157/191/181
f 232/192/182 126/193/183 76/194/184 158/164/154
f 231/195/185 165/196/186 76/194/184 104/168/158
f 216/197/187 231/195/185 104/168/158 79/167/157
f 74/198/188 187/160/150 231/195/185 216/197/187
f 187/160/150 73/159/149 165/196/186 231/195/185
f 177/199/189 232/192/182 158/164/154 75/163/153
f 84/200/190 157/191/181 232/192/182 177/199/189
f 157/191/181 77/190/180 126/193/183 232/192/182
f 224/201/191 233/188/178 157/191/181 84/200/190
f 83/202/192 147/181/171 233/188/178 224/201/191
f 147/181/171 85/180/170 223/189/179 233/188/178
f 183/187/177 177/199/189 75/163/153
f 183/187/177 190/186/176 177/199/189
f 190/186/176 84/200/190 177/199/189
f 230/184/174 105/166/156 78/176/166
f 230/184/174 229/183/173 105/166/156
f 229/183/173 79/167/157 105/166/156
f 217/203/193 234/178/168 147/181/171 83/202/192
f 86/204/194 171/205/195 234/178/168 217/203/193
f 171/205/195 80/169/159 103/179/169 234/178/168
f 223/189/179 235/175/165 201/177/167 77/190/180
f 85/180/170 103/179/169 235/175/165 223/189/179
f 103/179/169 80/169/159 194/171/161 235/175/165
f 225/174/164 224/201/191 84/200/190
f 225/174/164 184/173/163 224/201/191
f 184/173/163 83/202/192 224/201/191
f 194/171/161 121/206/196 78/176/166
f 194/171/161 173/170/160 121/206/196
f 173/170/160 81/207/197 121/206/196
f 126/193/183 236/165/155 104/168/158 76/194/184
f 77/190/180 201/177/167 236/165/155 126/193/183
f 201/177/167 78/176/166 105/166/156 236/165/155
f 165/196/186 237/161/151 158/164/154 76/194/184
f 73/159/149 111/158/148 237/161/151 165/196/186
f 111/158/148 72/208/198 220/162/152 237/161/151
f 197/209/199 238/157/147 187/160/150 74/198/188
f 71/210/200 221/211/201 238/157/147 197/209/199
f 221/211/201 72/208/198 111/158/148 238/157/147
f 210/212/202 239/155/145 128/128/118 61/127/117
f 56/213/203 159/120/110 239/155/145 210/212/202
f 159/120/110 55/119/109 118/156/146 239/155/145
f 205/214/204 240/152/142 214/124/114 57/123/113
f 66/215/205 212/151/141 240/152/142 205/214/204
f 212/151/141 59/150/140 127/153/143 240/152/142
f 122/216/206 241/148/138 212/151/141 66/215/205
f 65/217/207 188/141/131 241/148/138 122/216/206
f 188/141/131 67/140/130 145/149/139 241/148/138
f 144/147/137 205/214/204 57/123/113
f 144/147/137 226/146/136 205/214/204
f 226/146/136 66/215/205 205/214/204
f 213/144/134 117/126/116 60/136/126
f 213/144/134 191/143/133 117/126/116
f 191/143/133 61/127/117 117/126/116
f 96/218/208 242/138/128 188/141/131 65/217/207
f 68/219/209 110/220/210 242/138/128 96/218/208
f 110/220/210 62/129/119 163/139/129 242/138/128
f 145/149/139 243/135/125 195/137/127 59/150/140
f 67/140/130 163/139/129 243/135/125 145/149/139
f 163/139/129 62/129/119 174/131/121 243/135/125
f 93/134/124 122/216/206 66/215/205
f 93/134/124 161/133/123 122/216/206
f 161/133/123 65/217/207 122/216/206
f 174/131/121 112/221/211 60/136/126
f 174/131/121 138/130/120 112/221/211
f 138/130/120 63/222/212 112/221/211
f 127/153/143 244/125/115 128/128/118 58/154/144
f 59/150/140 195/137/127 244/125/115 127/153/143
f 195/137/127 60/136/126 117/126/116 244/125/115
f 118/156/146 245/121/111 214/124/114 58/154/144
f 55/119/109 206/118/108 245/121/111 118/156/146
f 206/118/108 54/223/213 209/122/112 245/121/111
f 139/224/214 246/117/107 159/120/110 56/213/203
f 53/225/215 150/226/216 246/117/107 139/224/214
f 150/226/216 54/223/213 206/118/108 246/117/107
f 178/227/217 247/113/103 116/116/106 35/228/218
f 41/229/219 167/230/220 247/113/103 178/227/217
f 167/230/220 39/231/221 175/114/104 247/113/103
f 94/103/93 248/109/99 166/112/102 46/93/83
f 40/102/92 102/232/222 248/109/99 94/103/93
f 102/232/222 39/231/221 155/110/100 248/109/99
f 129/94/84 249/105/95 140/108/98 47/233/223
f 46/93/83 166/112/102 249/105/95 129/94/84
f 166/112/102 43/111/101 101/106/96 249/105/95
f 136/104/94 170/234/224 52/235/225
f 136/104/94 94/103/93 170/234/224
f 94/103/93 46/93/83 170/234/224
f 141/101/91 148/236/226 51/237/227
f 141/101/91 202/88/78 148/236/226
f 202/88/78 41/229/219 148/236/226
f 151/238/228 250/99/89 146/100/90 50/239/229
f 47/233/223 140/108/98 250/99/89 151/238/228
f 140/108/98 49/107/97 123/98/88 250/99/89
f 101/106/96 251/96/86 123/98/88 49/107/97
f 43/111/101 114/90/80 251/96/86 101/106/96
f 114/90/80 42/89/79 115/92/82 251/96/86
f 198/95/85 227/240/230 48/241/231
f 198/95/85 129/94/84 227/240/230
f 129/94/84 47/233/223 227/240/230
f 115/92/82 106/242/232 45/97/87
f 115/92/82 180/91/81 106/242/232
f 180/91/81 44/243/233 106/242/232
f 155/110/100 252/87/77 114/90/80 43/111/101
f 39/231/221 167/230/220 252/87/77 155/110/100
f 167/230/220 41/229/219 202/88/78 252/87/77
f 175/114/104 253/85/75 185/82/72 36/115/105
f 39/231/221 102/232/222 253/85/75 175/114/104
f 102/232/222 40/102/92 90/86/76 253/85/75
f 98/244/234 254/81/71 97/84/74 38/245/235
f 35/228/218 116/116/106 254/81/71 98/244/234
f 116/116/106 36/115/105 185/82/72 254/81/71
f 186/246/236 255/77/67 142/80/70 17/247/237
f 23/248/238 169/249/239 255/77/67 186/246/236
f 169/249/239 21/250/240 207/78/68 255/77/67
f 107/67/57 256/73/63 160/76/66 28/57/47
f 22/66/56 100/251/241 256/73/63 107/67/57
f 100/251/241 21/250/240 162/74/64 256/73/63
f 228/58/48 257/69/59 99/72/62 29/252/242
f 28/57/47 160/76/66 257/69/59 228/58/48
f 160/76/66 25/75/65 211/70/60 257/69/59
f 152/68/58 172/253/243 34/254/244
f 152/68/58 107/67/57 172/253/243
f 107/67/57 28/57/47 172/253/243
f 192/65/55 181/255/245 33/256/246
f 192/65/55 108/52/42 181/255/245
f 108/52/42 23/248/238 181/255/245
f 168/257/247 258/63/53 153/64/54 32/258/248
f 29/252/242 99/72/62 258/63/53 168/257/247
f 99/72/62 31/71/61 222/62/52 258/63/53
f 211/70/60 259/60/50 222/62/52 31/71/61
f 25/75/65 182/54/44 259/60/50 211/70/60
f 182/54/44 24/53/43 164/56/46 259/60/50
f 149/59/49 176/259/249 30/260/250
f 149/59/49 228/58/48 176/259/249
f 228/58/48 29/252/242 176/259/249
f 164/56/46 89/261/251 27/61/51
f 164/56/46 92/55/45 89/261/251
f 92/55/45 26/262/252 89/261/251
f 162/74/64 260/51/41 182/54/44 25/75/65
f 21/250/240 169/249/239 260/51/41 162/74/64
f 169/249/239 23/248/238 108/52/42 260/51/41
f 207/78/68 261/49/39 203/46/36 18/79/69
f 21/250/240 100/251/241 261/49/39 207/78/68
f 100/251/241 22/66/56 130/50/40 261/49/39
f 131/263/253 262/45/35 124/48/38 20/264/254
f 17/247/237 142/80/70 262/45/35 131/263/253
f 142/80/70 18/79/69 203/46/36 262/45/35
f 193/44/34 156/38/33 15/265/23
f 193/44/34 179/43/26 156/38/33
f 179/43/26 13/36/19 156/38/33
f 119/41/22 193/44/34 15/265/23
f 119/41/22 196/40/14 193/44/34
f 196/40/14 8/42/27 193/44/34
f 156/38/33 125/266/30 15/265/23
f 156/38/33 133/37/18 125/266/30
f 133/37/18 12/267/31 125/266/30
f 204/268/255 263/32/29 199/35/32 11/269/256
f 16/270/257 95/27/24 263/32/29 204/268/255
f 95/27/24 15/26/23 125/33/30 263/32/29
f 132/271/258 264/28/25 120/31/28 7/272/259
f 14/273/260 91/274/20 264/28/25 132/271/258
f 91/274/20 13/275/19 179/29/26 264/28/25
f 189/276/261 265/24/21 95/27/24 16/270/257
f 10/277/262 219/19/16 265/24/21 189/276/261
f 219/19/16 9/18/15 119/25/22 265/24/21
f 208/278/263 266/20/17 91/23/20 14/279/260
f 11/269/256 199/35/32 266/20/17 208/278/263
f 199/35/32 12/34/31 133/21/18 266/20/17
f 109/280/264 267/16/13 219/19/16 10/277/262
f 7/272/259 120/31/28 267/16/13 109/280/264
f 120/31/28 8/30/27 196/17/14 267/16/13
f 218/15/10 215/281/2 2/282/11
f 218/15/10 200/14/6 215/281/2
f 200/14/6 3/283/3 215/281/2
f 134/284/265 268/9/9 154/12/12 1/285/266
f 6/286/267 113/8/8 268/9/9 134/284/265
f 113/8/8 5/7/7 218/10/10 268/9/9
f 135/287/268 269/5/5 113/8/8 6/286/267
f 4/288/269 137/289/4 269/5/5 135/287/268
f 137/289/4 3/290/3 200/6/6 269/5/5
f 143/291/270 270/1/1 137/4/4 4/292/269
f 1/285/266 154/12/12 270/1/1 143/291/270
f 154/12/12 2/11/11 215/2/2 270/1/1
