# Blender v2.78 (sub 0) OBJ File: ''
# www.blender.org
mtllib Pine_Tree_m_07.mtl
o Pine_Tree_m_07
v -0.084504 0.453540 0.131616
v -0.068258 1.866616 0.109912
v -0.109853 1.866267 -0.017684
v -0.137707 0.453558 -0.032118
v 0.001576 0.453570 -0.133308
v -0.001161 1.865394 -0.096378
v 0.107613 1.865213 -0.017416
v 0.140860 0.453557 -0.032114
v 0.087660 0.453539 0.131618
v 0.066143 1.865978 0.110077
v 0.170166 0.008414 -0.056386
v 0.105180 0.008413 0.143618
v -0.170103 0.008413 -0.056386
v 0.000031 0.008414 -0.179996
v -0.105117 0.008413 0.143618
v 0.396671 0.502813 0.953553
v 0.213147 1.843942 0.537610
v -0.371087 1.850489 0.465345
v -0.602893 0.903416 0.828809
v 1.095709 0.903150 -0.003980
v 0.536201 1.832776 -0.045516
v 0.416907 1.503283 0.968020
v -0.663012 1.131857 0.970738
v -1.253105 0.502857 0.002611
v -0.665736 1.846830 -0.049239
v -0.376571 1.835577 -0.574440
v -0.516943 0.903192 -0.890947
v 0.449261 0.502595 -0.844822
v 0.188984 1.829417 -0.478835
v -0.528776 1.131578 -1.097255
v 0.528913 1.503011 -0.988553
v -1.116776 1.503315 -0.000764
v 1.216185 1.131549 0.029779
v -0.182510 3.108033 -0.185381
v 0.057328 3.109047 -0.091618
v 0.151969 3.111311 0.368439
v -0.095860 3.111655 0.280958
v 0.161596 3.108918 0.044557
v 0.434590 2.011764 0.942640
v -0.501040 2.366172 0.813210
v -0.196757 3.110557 0.040893
v -0.410706 2.367369 -0.749459
v 0.526467 2.097740 -0.808512
v -1.081108 2.011692 0.062026
v 0.167962 3.829100 0.362339
v -0.078408 3.829329 0.274733
v 1.068568 2.367451 0.066247
v 0.072911 3.826394 -0.092703
v 0.178388 3.830785 0.039844
v -0.165366 3.825267 -0.186755
v -0.179226 3.825002 0.036197
v 0.306443 3.223498 0.664836
v -0.372288 2.961058 0.651311
v 0.870664 3.024866 0.044109
v -0.344139 2.960929 -0.594888
v 0.315035 3.223370 -0.472201
v -0.653126 3.222367 0.025155
v -0.195661 4.242458 -0.184512
v 0.105850 4.249352 -0.110238
v 0.170019 4.253870 0.385881
v -0.148666 4.246964 0.327425
v 0.304963 4.265311 0.061017
v 0.001920 5.184658 0.088993
v -0.034110 1.468568 0.025017
v -0.287187 4.246916 0.063687
v -0.449131 1.370517 -0.735443
v -0.297349 2.742890 0.545910
v -0.094237 1.832387 -0.533390
v -0.087359 0.008413 -0.121389
v -0.411987 3.529898 0.030192
v -0.035125 3.091793 0.667328
v -0.290582 3.098723 0.545167
v -0.475960 3.722786 0.044158
v -0.295841 2.741681 -0.464772
v 0.110950 3.108963 -0.025072
v -0.000712 1.317295 -1.058678
v -0.174568 3.825104 -0.077631
v -0.001056 1.866308 0.112492
v 0.159065 3.110121 0.207938
v 0.360527 1.664323 -0.737656
v 0.072629 0.453564 -0.084653
v -0.098166 4.725332 -0.048055
v -0.033643 2.188968 0.890026
v -0.241710 4.256616 -0.060905
v -0.130483 3.827166 0.156327
v 0.809269 2.233252 -0.378142
v 0.550447 1.176219 0.012037
v -0.223814 3.396553 0.461340
v 0.886403 1.317280 -0.485511
v 0.089259 1.865587 0.047105
v -0.102917 0.706940 0.897956
v 0.087514 4.729349 0.238513
v 0.000213 1.166120 -0.114782
v 0.058873 2.233211 -0.791590
v 0.687146 2.120432 0.037571
v -0.330479 1.176219 0.443584
v 0.054111 4.726989 -0.012096
v 0.240512 3.726847 0.529897
v -0.902283 1.317586 0.493215
v 0.010787 4.262280 0.357703
v -0.272733 3.587788 -0.394862
v 0.315614 1.671803 0.754146
v 0.124295 1.166021 -0.024665
v 0.175515 3.829977 0.202560
v 0.000820 0.219487 -0.157651
v -0.633344 2.914465 0.049357
v 0.000031 0.008413 0.147571
v -0.045360 4.257728 -0.147170
v -0.934229 0.706957 0.418585
v 0.601996 3.124603 -0.217723
v -0.288415 3.097288 -0.469320
v -0.218085 4.258889 0.195544
v -0.123829 1.166555 -0.024803
v -0.893697 1.673291 -0.025680
v 0.291756 2.602306 -0.448713
v -0.454203 1.475652 -0.840279
v 0.153457 4.736579 0.076241
v 0.625130 3.099630 0.053187
v 0.283841 2.313134 0.667112
v 0.292131 2.311292 -0.538477
v -0.056979 1.865829 -0.059053
v -0.079147 1.847327 0.509327
v -0.113389 0.453549 0.050491
v -0.663120 0.982264 0.013257
v -0.073159 4.727686 0.209584
v -0.032966 0.706763 -0.873914
v 0.127202 3.828593 -0.027995
v -0.147912 3.111127 0.161758
v -0.144475 4.725528 0.076067
v 0.302379 2.916575 0.654580
v -0.076409 1.166723 0.120924
v 0.597768 3.124667 0.358380
v -0.141369 0.008413 0.044837
v -0.095340 0.219463 0.138303
v -0.016444 3.091665 -0.541988
v -0.046902 3.825797 -0.142059
v -0.890595 0.706868 -0.446883
v 0.595397 3.631799 0.052388
v 0.613832 2.742137 0.055689
v -0.125708 1.317570 0.983523
v -0.154772 0.219474 -0.044606
v 0.521956 3.429541 0.041640
v -0.653448 2.312746 0.020274
v 0.879915 1.474209 -0.008251
v -0.527258 1.841222 -0.316217
v 0.306525 1.168504 0.749177
v 0.368874 1.830966 -0.265648
v 0.156412 0.219482 -0.044606
v -0.191853 3.109289 -0.074568
v -0.833974 1.317447 -0.557030
v 0.205622 4.269272 -0.024891
v 0.762605 2.188951 0.511980
v 0.829716 1.317416 0.506446
v 0.054696 1.865287 -0.058915
v 0.220056 0.982264 -0.426209
v 0.238144 4.271551 0.223533
v 0.293287 2.559790 0.655391
v -0.519562 1.483331 0.720492
v 0.236174 3.532493 0.511219
v -0.757241 2.188874 -0.348809
v -0.524589 1.848793 0.211241
v -0.964982 1.169992 -0.023845
v -0.285915 1.176219 -0.448317
v 0.028787 3.111509 0.328564
v -0.355087 2.119977 -0.641004
v 0.001578 0.453539 0.134018
v 0.192070 3.530423 -0.279660
v 0.301432 2.958863 -0.453227
v -0.638825 2.559402 0.051944
v -0.063270 3.108512 -0.140772
v 0.752662 0.706834 0.478695
v 0.116543 0.453548 0.050494
v 0.381296 1.838335 0.249611
v 0.819075 1.369074 -0.025564
v -0.520029 3.091712 0.342768
v 0.141432 0.008413 0.044837
v 0.213046 3.724521 -0.295613
v -0.488928 1.378197 0.649126
v -0.378592 2.121842 0.625638
v 0.087422 0.008414 -0.121389
v 0.096981 0.219467 0.138303
v -0.069476 0.453564 -0.084655
v -0.263851 3.590109 0.494031
v -0.091436 1.866457 0.046883
v -0.505577 3.091648 -0.290444
v 0.045496 3.829242 0.322454
v 0.191948 0.982264 0.504974
v 0.076940 1.166400 0.121009
v -0.254000 3.394461 -0.389598
v 0.320078 1.161024 -0.664325
v -0.803093 2.188931 0.442687
v 0.778978 0.706746 -0.427707
v -0.064406 1.265716 -0.709721
v 0.424441 3.679649 0.293923
v -0.379415 3.655262 -0.179374
v 0.410366 3.678468 -0.124368
v -0.375051 3.656439 0.272037
v -0.012746 3.658195 0.518742
v -0.031185 3.655838 -0.350961
v -0.322395 3.463225 0.248465
v 0.362363 3.480227 -0.121631
v -0.337601 3.462164 -0.183667
v -0.032248 3.462183 -0.340016
v 0.384842 3.481276 0.279118
v -0.467682 3.005533 -0.213703
v 0.470437 3.007792 0.358386
v 0.005438 3.464294 0.492865
v -0.468805 3.006594 0.300227
v 0.006668 3.028387 -0.468741
v 0.469933 3.029577 -0.204308
v 0.459413 2.672540 -0.200787
v -0.474110 2.650210 -0.210122
v 0.460213 2.650639 0.360028
v 0.006049 3.007663 0.607882
v -0.474898 2.651157 0.301878
v -0.001885 2.672308 -0.464181
v -0.523016 2.217304 0.327486
v 0.497309 2.215852 -0.254286
v -0.510977 2.216358 -0.315537
v -0.001874 2.651353 0.608634
v 0.493220 2.216786 0.356835
v -0.048337 2.217501 0.655380
v 0.607660 1.572994 0.378502
v -0.032208 2.215620 -0.598763
v -0.715913 1.578378 0.353114
v 0.630288 1.569201 -0.377752
v -0.682601 1.574481 -0.439179
v -0.047450 1.569932 -0.800231
v -0.736521 1.274161 0.317090
v 0.578920 1.264984 -0.350086
v -0.716132 1.270264 -0.385071
v -0.103390 1.577623 0.748316
v 0.572245 1.268777 0.367194
v -0.091470 1.273406 0.709719
v 0.102652 1.166208 0.048833
v -0.127607 0.219468 0.047677
v 0.080193 0.219485 -0.103299
v 0.000820 0.219465 0.140986
v -0.078552 0.219481 -0.103299
v 0.129248 0.219475 0.047677
v -0.063066 1.166337 -0.071522
v 0.000266 1.166565 0.123103
v 0.063511 1.166065 -0.071452
v -0.102153 1.166644 0.048720
vt 0.7997 0.9476
vt 0.7995 0.9769
vt 0.7933 0.9769
vt 0.7936 0.9475
vt 0.8365 0.9477
vt 0.8363 0.9775
vt 0.8302 0.9775
vt 0.8303 0.9477
vt 0.8119 0.9476
vt 0.8119 0.9770
vt 0.8058 0.9769
vt 0.8058 0.9476
vt 0.7874 0.9475
vt 0.7872 0.9770
vt 0.7810 0.9772
vt 0.7812 0.9475
vt 0.8244 0.9068
vt 0.8242 0.9180
vt 0.8180 0.9181
vt 0.8182 0.9070
vt 0.7874 0.9070
vt 0.7876 0.9181
vt 0.7815 0.9179
vt 0.7812 0.9068
vt 0.8120 0.9072
vt 0.8119 0.9182
vt 0.8058 0.9183
vt 0.8059 0.9073
vt 0.8367 0.9068
vt 0.8367 0.9180
vt 0.8304 0.9179
vt 0.8305 0.9067
vt 0.7997 0.9073
vt 0.7998 0.9182
vt 0.7938 0.9182
vt 0.7936 0.9073
vt 0.8242 0.9477
vt 0.8241 0.9773
vt 0.8181 0.9772
vt 0.8181 0.9476
vt 0.5398 0.3069
vt 0.5512 0.3068
vt 0.5460 0.3172
vt 0.5326 0.3216
vt 0.5642 0.2846
vt 0.5671 0.2936
vt 0.5564 0.2964
vt 0.5470 0.2922
vt 0.5350 0.3164
vt 0.5421 0.3312
vt 0.5354 0.3364
vt 0.5264 0.3180
vt 0.5681 0.3432
vt 0.5696 0.3317
vt 0.5808 0.3294
vt 0.5864 0.3381
vt 0.5905 0.2927
vt 0.5836 0.2994
vt 0.5778 0.2907
vt 0.5814 0.2771
vt 0.5412 0.3349
vt 0.5522 0.3256
vt 0.5584 0.3339
vt 0.5498 0.3483
vt 0.5935 0.3012
vt 0.5867 0.2855
vt 0.5934 0.2772
vt 0.6026 0.2977
vt 0.5664 0.2796
vt 0.5461 0.2738
vt 0.5404 0.2649
vt 0.5669 0.2711
vt 0.5888 0.3339
vt 0.6003 0.3170
vt 0.6118 0.3182
vt 0.5957 0.3396
vt 0.5370 0.2878
vt 0.5279 0.3017
vt 0.5175 0.2997
vt 0.5289 0.2823
vt 0.5879 0.3223
vt 0.5734 0.3175
vt 0.5756 0.3110
vt 0.5932 0.3104
vt 0.5597 0.3410
vt 0.5773 0.3508
vt 0.5795 0.3611
vt 0.5574 0.3487
vt 0.5420 0.3094
vt 0.5476 0.2973
vt 0.5562 0.3055
vt 0.5534 0.3113
vt 0.5615 0.2903
vt 0.5753 0.2832
vt 0.5684 0.3013
vt 0.5623 0.3034
vt 0.5416 0.3213
vt 0.5477 0.3360
vt 0.5385 0.3489
vt 0.5296 0.3264
vt 0.5673 0.3389
vt 0.5518 0.3435
vt 0.5590 0.3264
vt 0.5651 0.3252
vt 0.5842 0.2968
vt 0.5720 0.3061
vt 0.5441 0.3325
vt 0.5364 0.3214
vt 0.5507 0.3170
vt 0.5548 0.3217
vt 0.5895 0.3055
vt 0.5835 0.2903
vt 0.5909 0.2778
vt 0.6000 0.3015
vt 0.5434 0.2941
vt 0.5355 0.3066
vt 0.5207 0.3040
vt 0.5323 0.2854
vt 0.5460 0.3104
vt 0.5515 0.3000
vt 0.5643 0.3115
vt 0.5625 0.3133
vt 0.5630 0.3415
vt 0.5783 0.3469
vt 0.5832 0.3617
vt 0.5609 0.3553
vt 0.5674 0.2859
vt 0.5512 0.2815
vt 0.5439 0.2669
vt 0.5674 0.2724
vt 0.5869 0.3338
vt 0.5954 0.3207
vt 0.6091 0.3251
vt 0.5961 0.3434
vt 0.5831 0.2986
vt 0.5896 0.3104
vt 0.5716 0.3137
vt 0.5704 0.3117
vt 0.5852 0.3211
vt 0.5808 0.3318
vt 0.5698 0.3182
vt 0.5707 0.3159
vt 0.5472 0.3310
vt 0.5405 0.3207
vt 0.5607 0.3150
vt 0.5628 0.3173
vt 0.5515 0.3290
vt 0.5630 0.3334
vt 0.5607 0.3497
vt 0.5416 0.3424
vt 0.5641 0.2934
vt 0.5767 0.2868
vt 0.5691 0.3097
vt 0.5667 0.3106
vt 0.5673 0.3366
vt 0.5538 0.3413
vt 0.5650 0.3196
vt 0.5674 0.3189
vt 0.5784 0.3289
vt 0.5939 0.3243
vt 0.6127 0.3347
vt 0.5867 0.3422
vt 0.5751 0.2908
vt 0.5631 0.2863
vt 0.5614 0.2709
vt 0.5817 0.2784
vt 0.5487 0.2930
vt 0.5344 0.2996
vt 0.5131 0.2933
vt 0.5373 0.2821
vt 0.5905 0.3099
vt 0.5871 0.2954
vt 0.6020 0.2859
vt 0.6073 0.3103
vt 0.5372 0.3121
vt 0.5400 0.3246
vt 0.5226 0.3351
vt 0.5179 0.3142
vt 0.4461 0.3380
vt 0.4393 0.3253
vt 0.4447 0.3228
vt 0.4574 0.3318
vt 0.4245 0.2885
vt 0.4367 0.2831
vt 0.4354 0.2995
vt 0.4295 0.3022
vt 0.4424 0.3026
vt 0.4356 0.3066
vt 0.5910 0.2848
vt 0.5981 0.3015
vt 0.5786 0.2993
vt 0.4339 0.3278
vt 0.4279 0.3238
vt 0.4348 0.3208
vt 0.4495 0.3058
vt 0.4471 0.3143
vt 0.4426 0.3098
vt 0.4218 0.3197
vt 0.4227 0.3124
vt 0.4288 0.3167
vt 0.4095 0.3104
vt 0.4123 0.2937
vt 0.4237 0.3050
vt 0.4618 0.3138
vt 0.4207 0.3356
vt 0.4067 0.3270
vt 0.4515 0.2894
vt 0.4663 0.2957
vt 0.4402 0.3183
vt 0.5426 0.3360
vt 0.5344 0.3191
vt 0.5544 0.3249
vt 0.5841 0.3571
vt 0.5633 0.3465
vt 0.5752 0.3355
vt 0.5469 0.2696
vt 0.5689 0.2772
vt 0.5566 0.2918
vt 0.6052 0.3182
vt 0.5947 0.3377
vt 0.5857 0.3160
vt 0.5262 0.3022
vt 0.5365 0.2859
vt 0.5462 0.3080
vt 0.5930 0.3232
vt 0.5996 0.3083
vt 0.6096 0.3084
vt 0.6008 0.3277
vt 0.5920 0.3469
vt 0.5852 0.3188
vt 0.5895 0.3082
vt 0.5663 0.3139
vt 0.4358 0.3138
vt 0.4381 0.2668
vt 0.4606 0.2762
vt 0.4830 0.2856
vt 0.4348 0.3442
vt 0.4356 0.3605
vt 0.4136 0.3474
vt 0.3916 0.3343
vt 0.4765 0.3133
vt 0.4701 0.3409
vt 0.4297 0.3094
vt 0.3963 0.3084
vt 0.4009 0.2825
vt 0.4195 0.2746
vt 0.4528 0.3507
vt 0.5556 0.3059
vt 0.5565 0.3100
vt 0.5573 0.3141
vt 0.5750 0.3140
vt 0.5736 0.3094
vt 0.5722 0.3048
vt 0.5648 0.3017
vt 0.5602 0.3038
vt 0.5685 0.3033
vt 0.5652 0.3170
vt 0.5701 0.3155
vt 0.5918 0.3454
vt 0.5672 0.3543
vt 0.5426 0.3631
vt 0.5386 0.2885
vt 0.5614 0.2762
vt 0.5842 0.2639
vt 0.5612 0.3155
vt 0.5314 0.3448
vt 0.5203 0.3265
vt 0.6076 0.3071
vt 0.5997 0.3263
vt 0.5959 0.2855
vt 0.5735 0.3321
vt 0.5776 0.3242
vt 0.5818 0.3164
vt 0.5761 0.3028
vt 0.5674 0.2995
vt 0.5586 0.2962
vt 0.5569 0.3231
vt 0.5652 0.3276
vt 0.5294 0.3075
vt 0.5545 0.3027
vt 0.5504 0.3092
vt 0.5789 0.3096
vt 0.5446 0.3606
vt 0.5333 0.3432
vt 0.5221 0.3259
vt 0.5822 0.2651
vt 0.5964 0.2874
vt 0.6107 0.3097
vt 0.5827 0.3342
vt 0.5711 0.3240
vt 0.5944 0.3444
vt 0.5695 0.3525
vt 0.5537 0.3162
vt 0.5390 0.2891
vt 0.5606 0.2771
vt 0.5306 0.3075
vt 0.5488 0.3260
vt 0.5619 0.3332
vt 0.5751 0.3405
vt 0.6026 0.3271
vt 0.5518 0.2827
vt 0.5450 0.2932
vt 0.5382 0.3037
vt 0.5819 0.3282
vt 0.5887 0.3159
vt 0.5799 0.2937
vt 0.5659 0.2882
vt 0.5843 0.3048
vt 0.5303 0.3443
vt 0.5413 0.3626
vt 0.5192 0.3260
vt 0.5973 0.2860
vt 0.5850 0.2635
vt 0.5667 0.3547
vt 0.5435 0.3149
vt 0.5613 0.2757
vt 0.5377 0.2879
vt 0.5285 0.3070
vt 0.7997 0.8964
vt 0.7934 0.8963
vt 0.8060 0.8964
vt 0.8368 0.8957
vt 0.8307 0.8954
vt 0.8430 0.8959
vt 0.8429 0.9070
vt 0.8429 0.9181
vt 0.8122 0.8961
vt 0.8184 0.8959
vt 0.7872 0.8960
vt 0.7810 0.8956
vt 0.8246 0.8957
vt 0.8426 0.9477
vt 0.8424 0.9774
vn -0.9508 0.0158 0.3094
vn -0.9507 0.0159 0.3097
vn -0.9517 0.0216 -0.3061
vn -0.9508 0.0217 -0.3091
vn 0.5875 0.0224 -0.8089
vn 0.5874 0.0224 -0.8090
vn 0.9513 0.0253 -0.3073
vn 0.9508 0.0253 -0.3089
vn -0.0005 0.0155 0.9999
vn -0.0010 0.0156 0.9999
vn -0.5880 0.0190 0.8086
vn -0.5877 0.0189 0.8089
vn -0.5870 0.0201 -0.8093
vn -0.5868 0.0200 -0.8095
vn -0.0019 0.0257 -0.9997
vn 0.0003 0.0258 -0.9997
vn 0.9499 0.0481 0.3087
vn 0.9504 0.0336 0.3091
vn 0.5855 0.0338 0.8099
vn 0.5868 0.0462 0.8084
vn -0.5855 0.0890 -0.8058
vn -0.5869 0.0536 -0.8079
vn 0.0010 0.0657 -0.9978
vn 0.0002 0.1058 -0.9944
vn 0.0000 0.0293 0.9996
vn -0.0001 0.0225 0.9997
vn -0.5844 0.0346 0.8107
vn -0.5865 0.0503 0.8084
vn 0.5857 0.0850 -0.8061
vn 0.5871 0.0529 -0.8078
vn 0.9513 0.0528 -0.3036
vn 0.9484 0.0806 -0.3068
vn -0.9496 0.0547 0.3086
vn -0.9504 0.0349 0.3092
vn -0.9511 0.0541 -0.3041
vn -0.9478 0.0871 -0.3067
vn 0.9509 0.0194 0.3090
vn 0.9508 0.0195 0.3093
vn 0.5844 0.0211 0.8112
vn 0.5873 0.0210 0.8091
vn -0.0369 0.3254 0.9449
vn 0.1888 -0.8390 0.5103
vn -0.0576 -0.9727 0.2249
vn -0.4743 0.3999 0.7843
vn 0.7370 0.3608 0.5715
vn 0.2975 -0.8109 0.5039
vn 0.0000 0.0000 0.0000
vn 0.3959 0.3439 0.8514
vn 0.1749 -0.6673 -0.7240
vn -0.2590 -0.7886 -0.5577
vn 0.3580 -0.5847 0.7280
vn 0.1801 -0.8112 0.5563
vn -0.8087 0.3177 -0.4951
vn -0.4833 -0.8710 -0.0885
vn 0.1444 -0.9754 -0.1667
vn -0.3835 0.3526 -0.8536
vn 0.6857 0.3450 -0.6409
vn 0.2164 -0.7732 -0.5961
vn 0.1366 -0.9875 -0.0781
vn 0.8797 0.4734 -0.0450
vn -0.8075 0.3738 0.4563
vn -0.5484 -0.8317 0.0865
vn -0.3390 -0.9400 0.0376
vn -0.9194 0.3928 -0.0228
vn 0.0644 -0.7080 0.7032
vn 0.3839 -0.6389 0.6666
vn -0.3042 -0.7940 -0.5263
vn 0.2743 -0.7557 -0.5948
vn 0.6383 -0.5993 0.4831
vn 0.6606 -0.7505 0.0173
vn -0.8494 -0.5203 -0.0885
vn -0.5953 -0.8034 -0.0126
vn -0.6205 -0.7386 0.2635
vn -0.2702 -0.8368 0.4762
vn 0.4364 -0.4706 -0.7669
vn 0.4382 -0.7572 -0.4843
vn 0.5890 -0.6653 -0.4588
vn 0.4105 -0.6543 -0.6351
vn -0.3888 -0.7842 0.4836
vn -0.6264 -0.7787 0.0348
vn 0.0285 0.4552 -0.8900
vn -0.5117 -0.6829 -0.5214
vn 0.3267 -0.9443 0.0394
vn 0.4607 0.5171 -0.7213
vn -0.6450 -0.7036 -0.2982
vn -0.6927 -0.7211 -0.0138
vn 0.6949 -0.7183 -0.0354
vn 0.3730 -0.8005 0.4692
vn -0.1680 0.3512 0.9211
vn 0.4169 0.4085 0.8119
vn -0.0587 -0.9778 -0.2011
vn -0.5333 -0.7916 0.2981
vn 0.8385 0.3789 0.3916
vn 0.8876 0.4607 -0.0017
vn 0.5708 -0.8125 0.1186
vn 0.5870 -0.7745 -0.2358
vn 0.0173 -0.5198 -0.8541
vn -0.3631 -0.5446 -0.7560
vn 0.2092 -0.8516 0.4806
vn -0.3574 -0.8390 0.4102
vn -0.7968 0.4045 -0.4489
vn -0.8790 0.4765 0.0146
vn -0.1877 -0.9798 0.0686
vn -0.1817 -0.7406 -0.6469
vn 0.7949 0.4485 -0.4088
vn 0.7108 -0.6465 0.2771
vn -0.7782 0.4135 0.4727
vn -0.5095 0.4095 0.7568
vn -0.2503 -0.9023 0.3511
vn -0.2149 -0.7676 0.6038
vn -0.1703 -0.6023 0.7799
vn 0.3660 -0.6577 0.6584
vn -0.3538 -0.6653 -0.6575
vn -0.2340 -0.8194 -0.5233
vn 0.7381 -0.6103 -0.2875
vn 0.4213 -0.6494 -0.6331
vn -0.3942 -0.6295 0.6695
vn -0.2864 -0.7863 0.5475
vn -0.0893 0.3291 0.9401
vn 0.4053 0.3616 0.8396
vn 0.1813 -0.9288 0.3232
vn 0.6661 -0.6280 0.4024
vn -0.6541 -0.5823 -0.4828
vn -0.6669 -0.7448 0.0240
vn 0.8520 -0.5235 -0.0002
vn 0.5565 -0.8283 0.0652
vn 0.7717 -0.5627 0.2965
vn 0.7846 -0.6200 0.0075
vn -0.6467 -0.7627 0.0081
vn -0.2442 -0.8210 -0.5160
vn -0.5508 -0.6501 0.5235
vn -0.3704 -0.6431 0.6702
vn 0.3012 -0.7694 -0.5633
vn 0.5868 -0.7981 -0.1370
vn 0.7040 0.4257 -0.5685
vn 0.4384 0.4323 -0.7880
vn 0.2439 -0.9202 -0.3062
vn 0.3113 -0.8665 -0.3901
vn 0.1288 0.3816 -0.9153
vn -0.4317 0.4152 -0.8008
vn 0.0453 -0.9873 -0.1526
vn 0.2111 -0.8940 -0.3952
vn -0.8168 0.4063 0.4095
vn -0.5101 0.4154 0.7531
vn 0.3571 -0.9230 0.1431
vn -0.5708 -0.7866 -0.2353
vn 0.2253 -0.4324 -0.8731
vn -0.3563 -0.5369 -0.7647
vn 0.2868 -0.7359 0.6134
vn 0.3519 -0.8453 0.4020
vn 0.7866 0.3718 0.4929
vn 0.8687 0.4932 -0.0457
vn 0.1839 -0.9420 0.2808
vn 0.1502 -0.7218 0.6756
vn -0.8395 0.3666 -0.4009
vn -0.9012 0.4334 -0.0003
vn -0.4293 -0.8840 -0.1852
vn -0.4169 -0.9035 -0.0990
vn -0.7763 -0.5338 -0.3353
vn -0.7704 -0.6316 0.0866
vn 0.6642 -0.7461 -0.0479
vn 0.1574 -0.8367 0.5246
vn -0.0868 -0.4780 0.8741
vn 0.4054 -0.4945 0.7688
vn -0.2019 -0.8391 -0.5052
vn 0.3230 -0.8672 -0.3789
vn 0.7792 -0.4691 0.4156
vn 0.8161 -0.5772 -0.0292
vn -0.7270 -0.6843 -0.0563
vn -0.4554 -0.8903 0.0036
vn -0.6530 -0.5732 0.4949
vn -0.3877 -0.5754 0.7201
vn 0.2570 -0.7268 -0.6370
vn 0.1374 -0.8295 -0.5414
vn 0.7305 -0.5028 -0.4622
vn 0.5095 -0.4866 -0.7096
vn -0.2400 -0.8595 0.4512
vn -0.4937 -0.8674 -0.0614
vn 0.1092 0.3211 -0.9407
vn 0.1897 0.2710 -0.9437
vn 0.4219 0.2991 -0.8559
vn 0.4083 0.3604 -0.8387
vn -0.1404 0.2580 0.9559
vn 0.3896 0.3089 0.8676
vn 0.4242 0.3236 0.8458
vn -0.1668 0.2631 0.9502
vn 0.8572 0.2949 0.4222
vn 0.4454 0.3471 0.8253
vn -0.3443 -0.5230 -0.7797
vn -0.2692 -0.7632 -0.5874
vn 0.1725 -0.8752 0.4519
vn -0.4469 0.3345 -0.8297
vn -0.8813 0.2824 -0.3789
vn -0.4392 0.3361 -0.8331
vn 0.9137 0.3639 -0.1811
vn 0.6385 0.2820 -0.7161
vn 0.9234 0.3132 -0.2219
vn -0.9513 0.3051 0.0447
vn -0.8496 0.2625 0.4574
vn -0.9533 0.2953 0.0635
vn -0.8366 0.2759 0.4732
vn -0.5402 0.2916 0.7894
vn -0.5605 0.2875 0.7767
vn 0.6719 0.3437 -0.6560
vn -0.8397 0.2817 -0.4643
vn -0.9464 0.3230 0.0081
vn 0.7977 0.3106 0.5169
vn 0.9094 0.4077 -0.0818
vn 0.4389 0.2370 -0.8667
vn 0.2383 -0.7969 0.5551
vn -0.3890 -0.7462 0.5402
vn -0.2927 -0.7296 -0.6181
vn 0.9046 -0.4262 0.0107
vn 0.6543 -0.7510 0.0885
vn -0.4493 -0.8933 0.0136
vn -0.6802 -0.7328 0.0189
vn -0.3214 -0.7564 -0.5697
vn 0.6182 -0.7857 0.0234
vn 0.2741 -0.8215 -0.4999
vn 0.6441 -0.7552 -0.1215
vn -0.3328 -0.7210 0.6078
vn -0.4232 -0.5148 0.7456
vn -0.3445 -0.7170 0.6060
vn 0.2375 -0.8653 -0.4415
vn 0.1660 0.2950 -0.9410
vn 0.4492 0.3230 -0.8330
vn 0.3190 -0.8217 -0.4722
vn 0.2259 -0.8737 -0.4308
vn -0.0181 -0.9998 -0.0076
vn 0.0020 0.9999 -0.0156
vn -0.4319 0.3341 -0.8377
vn -0.5668 0.2905 0.7710
vn -0.1615 -0.9355 -0.3142
vn -0.4407 0.4581 -0.7720
vn -0.9498 0.0555 0.3079
vn -0.9440 0.0891 -0.3176
vn -0.5934 0.0505 0.8033
vn 0.5852 0.0868 -0.8062
vn 0.9443 0.0821 -0.3186
vn -0.0013 0.1080 -0.9941
vn -0.0001 0.0289 0.9996
vn 0.5918 0.0460 0.8047
vn -0.5851 0.0912 -0.8058
vn 0.9501 0.0484 0.3080
usemtl None
s 1
f 244/1/1 184/2/2 3/3/3 113/4/4
f 243/5/5 154/6/6 7/7/7 103/8/8
f 242/9/9 78/10/10 2/11/11 131/12/12
f 241/13/13 121/14/14 6/15/15 93/16/16
f 240/17/17 172/18/18 9/19/19 181/20/20
f 239/21/21 182/22/22 5/23/23 105/24/24
f 238/25/25 166/26/26 1/27/27 134/28/28
f 237/29/29 81/30/30 8/31/31 148/32/32
f 236/33/33 123/34/34 4/35/35 141/36/36
f 235/37/37 90/38/38 10/39/39 188/40/40
f 234/41/41 122/42/42 18/43/43 178/44/44
f 233/45/45 173/46/46 17/47/47 146/48/48
f 232/49/49 102/50/50 22/51/51 140/52/52
f 231/53/53 145/54/54 26/55/55 66/56/56
f 230/57/57 147/58/58 21/59/59 174/60/60
f 229/61/61 161/62/62 25/63/63 162/64/64
f 228/65/65 116/66/66 30/67/67 76/68/68
f 227/69/69 114/70/70 32/71/71 150/72/72
f 226/73/73 80/74/74 31/75/75 89/76/76
f 225/77/77 158/78/78 23/79/79 99/80/80
f 224/81/81 170/82/82 35/83/83 120/84/84
f 223/85/85 144/86/86 33/87/87 153/88/88
f 222/89/89 119/90/90 36/91/91 164/92/92
f 221/93/93 95/94/94 38/95/95 79/96/96
f 220/97/97 157/98/98 39/99/99 83/100/100
f 219/101/101 143/102/102 41/103/103 149/104/104
f 218/105/105 120/84/84 35/83/83 75/106/106
f 217/107/107 179/108/108 37/109/109 128/110/110
f 216/111/111 74/112/112 42/113/113 94/114/114
f 215/115/115 67/116/116 40/117/117 191/118/118
f 214/119/119 130/120/120 45/121/121 186/122/122
f 213/123/123 139/124/124 47/125/125 152/126/126
f 212/127/127 169/128/128 44/129/129 160/130/130
f 211/131/131 115/132/132 43/133/133 86/134/134
f 210/135/135 168/136/136 48/137/137 127/138/138
f 209/139/139 111/140/140 50/141/141 136/142/142
f 208/143/143 72/144/144 46/145/145 85/146/146
f 207/147/147 159/148/148 52/149/149 71/150/150
f 206/151/151 118/152/152 49/153/153 104/154/154
f 205/155/155 106/156/156 51/157/157 77/158/158
f 204/159/159 142/160/160 54/161/161 132/162/162
f 203/163/163 189/164/164 55/165/165 135/166/166
f 202/167/167 70/168/168 57/169/169 185/170/170
f 201/171/171 167/172/172 56/173/173 110/174/174
f 200/175/175 88/176/176 53/177/177 175/178/178
f 199/179/179 108/180/180 59/181/181 177/182/182
f 198/183/183 98/184/184 60/185/185 100/186/186
f 60/185/185 156/187/187 92/188/188
f 27/189/189 126/190/190 163/191/191
f 58/192/192 84/193/193 82/194/194
f 62/195/195 151/196/196 117/197/197
f 65/198/198 112/199/199 129/200/200
f 197/201/201 183/202/202 61/203/203 112/199/199
f 60/185/185 92/188/188 100/186/186
f 196/204/204 177/182/182 59/181/181 151/196/196
f 195/205/205 73/206/206 65/198/198 84/193/193
f 194/207/207 138/208/208 62/195/195 156/187/187
f 59/181/181 108/180/180 97/209/209
f 16/210/210 91/211/211 187/212/212
f 20/213/213 171/214/214 87/215/215
f 24/216/216 137/217/217 124/218/218
f 28/219/219 192/220/220 155/221/221
f 19/222/222 109/223/223 96/224/224
f 193/225/225 190/226/226 28/227/219 126/228/190
f 66/56/56 193/225/225 126/228/190 27/229/189
f 26/55/55 68/230/227 193/225/225 66/56/56
f 68/230/227 29/231/228 190/226/226 193/225/225
f 96/224/224 124/218/218 64/232/229
f 96/224/224 109/223/223 124/218/218
f 109/223/223 24/216/216 124/218/218
f 155/221/221 87/215/215 64/232/229
f 155/221/221 192/220/220 87/215/215
f 192/220/220 20/213/213 87/215/215
f 124/218/218 163/191/191 64/232/229
f 124/218/218 137/217/217 163/191/191
f 137/217/217 27/189/189 163/191/191
f 87/215/215 187/212/212 64/232/229
f 87/215/215 171/214/214 187/212/212
f 171/214/214 16/210/210 187/212/212
f 187/212/212 96/224/224 64/232/229
f 187/212/212 91/211/211 96/224/224
f 91/211/211 19/222/222 96/224/224
f 97/209/209 82/194/194 63/233/230
f 97/209/209 108/180/180 82/194/194
f 108/180/180 58/192/192 82/194/194
f 98/184/184 194/207/207 156/187/187 60/185/185
f 52/234/149 132/235/162 194/207/207 98/184/184
f 132/235/162 54/236/161 138/208/208 194/207/207
f 101/237/231 195/205/205 84/193/193 58/192/192
f 55/238/165 185/239/170 195/205/205 101/237/231
f 185/239/170 57/240/169 73/206/206 195/205/205
f 138/208/208 196/204/204 151/196/196 62/195/195
f 54/236/161 110/241/174 196/204/204 138/208/208
f 110/241/174 56/242/173 177/182/182 196/204/204
f 100/186/186 125/243/232 61/203/203
f 100/186/186 92/188/188 125/243/232
f 92/188/188 63/233/230 125/243/232
f 73/206/206 197/201/201 112/199/199 65/198/198
f 57/240/169 175/244/178 197/201/201 73/206/206
f 175/244/178 53/245/177 183/202/202 197/201/201
f 129/200/200 125/243/232 63/233/230
f 129/200/200 112/199/199 125/243/232
f 112/199/199 61/203/203 125/243/232
f 117/197/197 97/209/209 63/233/230
f 117/197/197 151/196/196 97/209/209
f 151/196/196 59/181/181 97/209/209
f 82/194/194 129/200/200 63/233/230
f 82/194/194 84/193/193 129/200/200
f 84/193/193 65/198/198 129/200/200
f 163/191/191 155/221/221 64/232/229
f 163/191/191 126/190/190 155/221/221
f 126/190/190 28/219/219 155/221/221
f 92/188/188 117/197/197 63/233/230
f 92/188/188 156/187/187 117/197/197
f 156/187/187 62/195/195 117/197/197
f 183/202/202 198/183/183 100/186/186 61/203/203
f 53/245/177 71/246/150 198/183/183 183/202/202
f 71/246/150 52/234/149 98/184/184 198/183/183
f 135/247/166 199/179/179 177/182/182 56/242/173
f 55/238/165 101/237/231 199/179/179 135/247/166
f 101/237/231 58/192/192 108/180/180 199/179/179
f 70/168/168 200/175/175 175/178/178 57/169/169
f 51/248/157 85/249/146 200/175/175 70/168/168
f 85/249/146 46/250/145 88/176/176 200/175/175
f 142/160/160 201/171/171 110/174/174 54/161/161
f 49/251/153 127/252/138 201/171/171 142/160/160
f 127/252/138 48/253/137 167/172/172 201/171/171
f 189/164/164 202/167/167 185/170/170 55/165/165
f 50/254/141 77/255/158 202/167/167 189/164/164
f 77/255/158 51/248/157 70/168/168 202/167/167
f 167/172/172 203/163/163 135/166/166 56/173/173
f 48/253/137 136/256/142 203/163/163 167/172/172
f 136/256/142 50/254/141 189/164/164 203/163/163
f 159/148/148 204/159/159 132/162/162 52/149/149
f 45/257/121 104/258/154 204/159/159 159/148/148
f 104/258/154 49/251/153 142/160/160 204/159/159
f 111/140/140 205/155/155 77/158/158 50/141/141
f 42/259/113 160/260/130 205/155/155 111/140/140
f 160/260/130 44/261/129 106/156/156 205/155/155
f 130/120/120 206/151/151 104/154/154 45/121/121
f 39/262/99 152/263/126 206/151/151 130/120/120
f 152/263/126 47/264/125 118/152/152 206/151/151
f 88/176/176 207/147/147 71/150/150 53/177/177
f 46/250/145 186/265/122 207/147/147 88/176/176
f 186/265/122 45/257/121 159/148/148 207/147/147
f 106/156/156 208/143/143 85/146/146 51/157/157
f 44/261/129 191/266/118 208/143/143 106/156/156
f 191/266/118 40/267/117 72/144/144 208/143/143
f 168/136/136 209/139/139 136/142/142 48/137/137
f 43/268/133 94/269/114 209/139/139 168/136/136
f 94/269/114 42/259/113 111/140/140 209/139/139
f 118/152/152 210/135/135 127/138/138 49/153/153
f 47/264/125 86/270/134 210/135/135 118/152/152
f 86/270/134 43/268/133 168/136/136 210/135/135
f 139/124/124 211/131/131 86/134/134 47/125/125
f 38/271/95 75/272/106 211/131/131 139/124/124
f 75/272/106 35/273/83 115/132/132 211/131/131
f 74/112/112 212/127/127 160/130/130 42/113/113
f 34/274/233 149/275/104 212/127/127 74/112/112
f 149/275/104 41/276/103 169/128/128 212/127/127
f 157/98/98 213/123/123 152/126/126 39/99/99
f 36/277/91 79/278/96 213/123/123 157/98/98
f 79/278/96 38/271/95 139/124/124 213/123/123
f 72/144/144 214/119/119 186/122/122 46/145/145
f 40/267/117 83/279/100 214/119/119 72/144/144
f 83/279/100 39/262/99 130/120/120 214/119/119
f 169/128/128 215/115/115 191/118/118 44/129/129
f 41/276/103 128/280/110 215/115/115 169/128/128
f 128/280/110 37/281/109 67/116/116 215/115/115
f 115/132/132 216/111/111 94/114/114 43/133/133
f 35/273/83 170/282/82 216/111/111 115/132/132
f 170/282/82 34/274/233 74/112/112 216/111/111
f 143/102/102 217/107/107 128/110/110 41/103/103
f 32/283/71 99/284/80 217/107/107 143/102/102
f 99/284/80 23/285/79 179/108/108 217/107/107
f 95/94/94 218/105/105 75/106/106 38/95/95
f 33/286/87 89/287/76 218/105/105 95/94/94
f 89/287/76 31/288/75 120/84/84 218/105/105
f 165/289/234 219/101/101 149/104/104 34/290/233
f 30/291/67 150/292/72 219/101/101 165/289/234
f 150/292/72 32/283/71 143/102/102 219/101/101
f 67/116/116 220/97/97 83/100/100 40/117/117
f 37/281/109 164/293/92 220/97/97 67/116/116
f 164/293/92 36/277/91 157/98/98 220/97/97
f 119/90/90 221/93/93 79/96/96 36/91/91
f 22/294/51 153/295/88 221/93/93 119/90/90
f 153/295/88 33/286/87 95/94/94 221/93/93
f 179/108/108 222/89/89 164/92/92 37/109/109
f 23/285/79 140/296/52 222/89/89 179/108/108
f 140/296/52 22/294/51 119/90/90 222/89/89
f 102/50/50 223/85/85 153/88/88 22/51/51
f 17/297/47 173/298/46 223/85/85 102/50/50
f 173/298/46 21/299/59 144/86/86 223/85/85
f 76/300/68 224/81/81 120/84/84 31/288/75
f 30/291/67 165/289/234 224/81/81 76/300/68
f 165/289/234 34/290/233 170/82/82 224/81/81
f 114/70/70 225/77/77 99/80/80 32/71/71
f 25/301/63 161/302/62 225/77/77 114/70/70
f 161/302/62 18/303/43 158/78/78 225/77/77
f 144/86/86 226/73/73 89/76/76 33/87/87
f 21/299/59 147/304/58 226/73/73 144/86/86
f 147/304/58 29/305/228 80/74/74 226/73/73
f 116/66/66 227/69/69 150/72/72 30/67/67
f 26/306/55 145/307/54 227/69/69 116/66/66
f 145/307/54 25/301/63 114/70/70 227/69/69
f 80/74/74 228/65/65 76/68/68 31/75/75
f 29/305/228 68/308/227 228/65/65 80/74/74
f 68/308/227 26/306/55 116/66/66 228/65/65
f 109/309/223 229/61/61 162/64/64 24/310/216
f 19/311/222 178/44/44 229/61/61 109/309/223
f 178/44/44 18/43/43 161/62/62 229/61/61
f 192/312/220 230/57/57 174/60/60 20/313/213
f 28/227/219 190/226/226 230/57/57 192/312/220
f 190/226/226 29/231/228 147/58/58 230/57/57
f 137/314/217 231/53/53 66/56/56 27/229/189
f 24/310/216 162/64/64 231/53/53 137/314/217
f 162/64/64 25/63/63 145/54/54 231/53/53
f 158/78/78 232/49/49 140/52/52 23/79/79
f 18/303/43 122/315/42 232/49/49 158/78/78
f 122/315/42 17/297/47 102/50/50 232/49/49
f 171/316/214 233/45/45 146/48/48 16/317/210
f 20/313/213 174/60/60 233/45/45 171/316/214
f 174/60/60 21/59/59 173/46/46 233/45/45
f 91/318/211 234/41/41 178/44/44 19/311/222
f 16/317/210 146/48/48 234/41/41 91/318/211
f 146/48/48 17/47/47 122/42/42 234/41/41
f 172/18/18 235/37/37 188/40/40 9/19/19
f 8/31/31 103/8/8 235/37/37 172/18/18
f 103/8/8 7/7/7 90/38/38 235/37/37
f 133/319/235 236/33/33 141/36/36 13/320/236
f 15/321/237 134/28/28 236/33/33 133/319/235
f 134/28/28 1/27/27 123/34/34 236/33/33
f 180/322/238 237/29/29 148/32/32 11/323/239
f 14/324/240 105/325/24 237/29/29 180/322/238
f 105/325/24 5/326/23 81/30/30 237/29/29
f 107/327/241 238/25/25 134/28/28 15/321/237
f 12/328/242 181/20/20 238/25/25 107/327/241
f 181/20/20 9/19/19 166/26/26 238/25/25
f 69/329/243 239/21/21 105/24/24 14/330/240
f 13/320/236 141/36/36 239/21/21 69/329/243
f 141/36/36 4/35/35 182/22/22 239/21/21
f 176/331/244 240/17/17 181/20/20 12/328/242
f 11/323/239 148/32/32 240/17/17 176/331/244
f 148/32/32 8/31/31 172/18/18 240/17/17
f 182/22/22 241/13/13 93/16/16 5/23/23
f 4/35/35 113/4/4 241/13/13 182/22/22
f 113/4/4 3/3/3 121/14/14 241/13/13
f 166/26/26 242/9/9 131/12/12 1/27/27
f 9/19/19 188/40/40 242/9/9 166/26/26
f 188/40/40 10/39/39 78/10/10 242/9/9
f 81/30/30 243/5/5 103/8/8 8/31/31
f 5/326/23 93/332/16 243/5/5 81/30/30
f 93/332/16 6/333/15 154/6/6 243/5/5
f 123/34/34 244/1/1 113/4/4 4/35/35
f 1/27/27 131/12/12 244/1/1 123/34/34
f 131/12/12 2/11/11 184/2/2 244/1/1
