# Blender v2.78 (sub 0) OBJ File: ''
# www.blender.org
mtllib Pine_Tree_NoLeaves_crk_l_07.mtl
o Pine_Tree_NoLeaves_crk_l_07
v 0.017439 2.320531 0.208192
v -0.017015 3.339470 0.186003
v -0.305971 3.240754 0.110373
v -0.296183 2.264047 0.131913
v -0.034536 2.306549 -0.297723
v -0.055279 3.298735 -0.273499
v 0.165821 3.331004 -0.045444
v 0.200839 2.310988 -0.053333
v 2.173312 2.778392 1.089274
v 2.774375 2.653194 0.567506
v 2.774364 2.677577 0.558473
v 2.165946 2.840691 1.072332
v 2.132802 2.794335 1.041115
v 2.764726 2.658137 0.544178
v 3.795762 2.313946 2.114403
v 3.968631 2.671896 2.452948
v 3.973625 2.697356 2.431268
v 3.803435 2.357591 2.073063
v 3.997542 2.674121 2.435529
v 3.848788 2.319415 2.085571
v 3.350107 2.558311 1.621335
v 6.280955 1.545736 3.129779
v 6.240475 1.435507 3.129846
v 3.224035 2.353311 1.622914
v 3.144758 2.326724 1.767230
v 6.183510 1.417482 3.228824
v 6.183205 1.517628 3.289834
v 3.102540 2.537202 1.857428
v 3.298187 2.664785 1.769565
v 6.246451 1.596413 3.228172
v 10.551117 0.199448 5.616498
v 10.610633 0.238703 5.642673
v 12.507478 -0.075720 6.929448
v 12.465357 -0.082398 6.905946
v 10.504944 0.237876 5.699489
v 10.527594 0.201243 5.676766
v 12.481287 -0.088961 6.940299
v 12.475622 -0.076374 6.951587
v 10.617174 0.251507 5.698236
v 12.528021 -0.075189 6.970094
v 0.181735 3.564288 0.378458
v 0.277808 3.791992 0.201246
v 0.342002 3.339247 0.016940
v 0.170836 3.296986 0.268163
v 0.417315 3.625407 0.011591
v 8.375120 0.818822 4.541861
v 8.454767 0.865568 4.488371
v 8.428862 0.774639 4.408462
v 8.376884 0.762385 4.486759
v 8.489344 0.832312 4.423781
v -0.369152 3.940319 -0.420857
v -0.883715 4.232882 -0.455492
v -0.591795 3.880342 -0.070032
v -0.284269 0.006999 -0.168862
v -0.309945 1.894269 -0.166054
v 0.034665 0.023969 -0.341422
v 0.294961 0.024045 -0.054889
v 0.110123 0.024564 0.271814
v -0.252053 0.021954 0.194373
v -0.300656 0.946643 -0.169421
v 4.744848 1.888677 2.382540
v 3.985916 2.679726 2.450367
v 7.398092 1.182418 3.781471
v 6.181493 1.465984 3.261930
v -0.302806 2.794282 0.124853
v -0.131329 0.015484 -0.269600
v -0.497018 3.918278 -0.254676
v 7.349123 1.099795 3.773991
v 7.294692 1.161245 3.920357
v 0.246615 3.313168 0.131424
v 0.004654 1.131977 -0.327310
v 9.492615 0.481257 5.011261
v 1.760261 3.238140 0.973173
v 3.119047 2.429489 1.816020
v 2.152423 2.783695 1.064843
v 0.230806 3.618847 0.158438
v 9.553312 0.529439 5.032341
v 12.507105 -0.082197 6.931511
v 3.183115 2.333165 1.693647
v 2.448211 2.725969 0.791950
v -0.177785 2.335093 -0.089481
v 10.538845 0.199077 5.645864
v 12.528751 -0.077042 6.956874
v 12.566610 -0.091693 6.996511
v 11.537359 0.047073 6.326521
v 3.823196 2.314691 2.101304
v 3.988316 2.691915 2.440030
v 2.785260 2.662692 0.553386
v 1.736684 2.860955 0.796439
v -0.042121 2.846559 -0.287940
v 10.581038 0.218841 5.627636
v -0.181089 2.102391 -0.226992
v 6.214299 1.559422 3.261584
v 3.827590 2.339700 2.077607
v 2.171451 2.810286 1.082746
v -0.283282 0.014477 0.014901
v 11.551600 0.047950 6.286798
v 6.265241 1.574129 3.177970
v 9.454685 0.476228 5.080942
v 10.513971 0.219405 5.689123
v 6.262195 1.490108 3.126610
v -0.750331 4.061679 -0.273425
v 0.271285 3.491423 -0.030970
v 3.888193 2.528250 2.251691
v 0.216427 0.024304 0.116598
v 11.602732 0.070475 6.312016
v 3.289022 2.454523 1.617387
v 3.881633 2.492463 2.284326
v 3.797199 2.336562 2.094126
v 9.539424 0.552340 5.092329
v 7.362996 1.223826 3.862224
v 0.365835 3.716131 0.106911
v 6.211370 1.423122 3.178362
v 4.678005 1.866673 2.502330
v 2.780875 2.664985 0.542298
v -0.168221 3.288783 0.146045
v 7.294401 1.084549 3.862183
v -0.302481 2.082439 -0.026727
v -0.642190 4.090811 -0.443825
v 0.177401 2.850889 -0.052822
v 0.128367 3.331347 0.093240
v 12.502510 -0.086112 6.961743
v -0.144669 2.292142 0.184490
v 10.560760 0.245489 5.700108
v 3.329704 2.616941 1.694022
v 3.924065 2.496448 2.260375
v 3.974509 2.690866 2.448379
v 0.213159 3.365388 -0.035210
v 8.401891 0.766687 4.446419
v 0.180004 3.417978 0.340707
v 9.441648 0.522537 5.119689
v 2.474186 2.715153 0.828970
v 8.474367 0.850625 4.455426
v 10.616851 0.245963 5.670931
v 4.655275 2.021912 2.577381
v 0.386712 3.473792 0.005661
v 2.780809 2.653513 0.546608
v -0.183640 3.279469 -0.083216
v 12.483194 -0.087303 6.929502
v -0.074361 0.023259 0.248443
v -0.239320 3.740461 0.138894
v 0.043946 3.347788 0.210201
v 1.864235 3.102443 0.802883
v 4.827744 2.046012 2.381098
v -0.277887 1.109499 0.170592
v 0.065956 1.144271 0.243134
v 8.414319 0.843657 4.517061
v 3.198739 2.606214 1.817397
v 11.607309 0.078664 6.353543
v 2.470366 2.760042 0.815519
v 0.073492 3.338646 0.072960
v 0.175972 0.024007 -0.209329
v 0.062873 3.465823 0.271219
v 0.051152 3.312235 -0.166374
v 0.251617 1.139384 -0.054373
v -0.004962 2.862649 0.192010
v -0.008725 3.802580 -0.224460
v -0.362475 4.036816 -0.158336
v 8.460542 0.803132 4.413820
v 0.118064 2.316766 0.082647
v 0.238402 3.682624 0.304934
v 12.524408 -0.079602 6.975864
v 11.534205 0.069962 6.350390
v 0.094305 2.309767 -0.186687
v 1.615742 3.059865 1.112131
v 2.148187 2.819438 1.055133
v 8.373858 0.789624 4.516508
v 1.620490 2.822931 1.003469
v 4.786489 2.123839 2.504335
v -0.059562 3.331303 -0.010443
v 0.166846 3.486024 0.121235
v -0.181086 2.819209 -0.086581
v -0.108650 1.129786 0.217253
v 0.136143 1.138765 -0.198286
v -0.299854 1.024400 0.001996
v 0.168456 1.142331 0.100040
v -0.152411 1.036492 -0.258380
v -0.115800 3.762372 -0.038798
v -0.310972 3.891606 -0.002316
v -0.183747 3.925879 -0.202787
v 12.568010 -0.091711 6.984763
v 9.523764 0.505060 5.019675
v 7.375067 1.140678 3.774979
v 9.445946 0.498816 5.101912
v 7.292542 1.121622 3.893670
v 9.548998 0.542161 5.062248
v 7.382469 1.205492 3.821020
v 9.472902 0.477196 5.045122
v 7.320959 1.089573 3.817004
v 9.490074 0.538568 5.107604
v 7.328267 1.194467 3.893554
v 1.804047 2.980103 0.793508
v 1.613899 2.937850 1.063479
v 1.816724 3.177138 0.885874
v 1.676561 2.834141 0.898052
v 1.686181 3.155103 1.047184
v 11.570759 0.074819 6.353021
v 11.543724 0.046764 6.305866
v 11.607088 0.075077 6.333262
v 11.534351 0.058366 6.339056
v 11.577284 0.059099 6.298063
v 4.719806 2.076687 2.544098
v 4.710474 1.872563 2.441236
v 4.810664 2.089149 2.441499
v 4.663406 1.942270 2.543002
v 4.788012 1.966444 2.377849
v 3.903354 2.493290 2.273063
v 3.906974 2.513035 2.255057
v 3.883563 2.510836 2.268271
v 2.458775 2.743966 0.802864
v 2.460883 2.719199 0.810285
v 2.473106 2.737998 0.823289
v 0.094842 2.857981 0.074632
v 0.075024 2.849399 -0.181341
v -0.161268 2.827791 0.169392
vt 0.9121 0.9580
vt 0.9118 0.9654
vt 0.9095 0.9647
vt 0.9096 0.9575
vt 0.8976 0.9584
vt 0.8979 0.9657
vt 0.8954 0.9658
vt 0.8950 0.9584
vt 0.9169 0.9585
vt 0.9165 0.9660
vt 0.9142 0.9660
vt 0.9146 0.9585
vt 0.9375 0.9162
vt 0.9309 0.9162
vt 0.9309 0.9160
vt 0.9375 0.9159
vt 0.9375 0.9170
vt 0.9309 0.9166
vt 0.9309 0.9164
vt 0.9375 0.9166
vt 0.9308 0.9224
vt 0.9310 0.9225
vt 0.9308 0.9226
vt 0.9375 0.9155
vt 0.9309 0.9158
vt 0.9308 0.9156
vt 0.9375 0.9151
vt 0.9351 0.9187
vt 0.9309 0.9190
vt 0.9308 0.9187
vt 0.9351 0.9183
vt 0.9351 0.9204
vt 0.9309 0.9201
vt 0.9309 0.9198
vt 0.9352 0.9200
vt 0.9352 0.9196
vt 0.9309 0.9196
vt 0.9309 0.9193
vt 0.9352 0.9191
vt 0.9308 0.9221
vt 0.9311 0.9219
vt 0.9311 0.9222
vt 0.9584 0.9700
vt 0.9323 0.9695
vt 0.9323 0.9686
vt 0.9586 0.9686
vt 0.9584 0.9777
vt 0.9319 0.9749
vt 0.9320 0.9740
vt 0.9588 0.9764
vt 0.9581 0.9725
vt 0.9322 0.9713
vt 0.9322 0.9704
vt 0.9582 0.9713
vt 0.9586 0.9675
vt 0.9323 0.9677
vt 0.9323 0.9669
vt 0.9586 0.9664
vt 0.9584 0.9751
vt 0.9320 0.9731
vt 0.9321 0.9722
vt 0.9581 0.9737
vt 0.9115 0.9853
vt 0.9109 0.9857
vt 0.8931 0.9861
vt 0.8938 0.9858
vt 0.9118 0.9875
vt 0.9119 0.9878
vt 0.8945 0.9879
vt 0.8941 0.9876
vt 0.9107 0.9860
vt 0.9105 0.9863
vt 0.8928 0.9867
vt 0.8929 0.9864
vt 0.9119 0.9845
vt 0.9121 0.9849
vt 0.8946 0.9855
vt 0.8944 0.9852
vt 0.9111 0.9867
vt 0.9117 0.9871
vt 0.8937 0.9873
vt 0.8932 0.9870
vt 0.9202 0.9049
vt 0.8937 0.9021
vt 0.8931 0.9002
vt 0.9204 0.9028
vt 0.9207 0.8929
vt 0.8942 0.8922
vt 0.8941 0.8910
vt 0.9207 0.8910
vt 0.9201 0.9009
vt 0.8931 0.8987
vt 0.8932 0.8972
vt 0.9198 0.8990
vt 0.9196 0.9089
vt 0.8935 0.9057
vt 0.8943 0.9040
vt 0.9201 0.9069
vt 0.9203 0.8969
vt 0.8937 0.8953
vt 0.8942 0.8935
vt 0.9208 0.8948
vt 0.9125 0.9719
vt 0.9126 0.9727
vt 0.8932 0.9715
vt 0.8930 0.9707
vt 0.9471 0.9866
vt 0.9476 0.9873
vt 0.9297 0.9870
vt 0.9290 0.9864
vt 0.9129 0.9672
vt 0.9129 0.9681
vt 0.8936 0.9675
vt 0.8936 0.9668
vt 0.9475 0.9835
vt 0.9475 0.9841
vt 0.9295 0.9844
vt 0.9294 0.9839
vt 0.9125 0.9703
vt 0.9125 0.9711
vt 0.8929 0.9699
vt 0.8928 0.9692
vt 0.9467 0.9855
vt 0.9466 0.9860
vt 0.9282 0.9859
vt 0.9284 0.9855
vt 0.9126 0.9735
vt 0.9126 0.9742
vt 0.8933 0.9727
vt 0.8932 0.9721
vt 0.9475 0.9878
vt 0.9475 0.9883
vt 0.9293 0.9877
vt 0.9295 0.9873
vt 0.9127 0.9688
vt 0.9125 0.9695
vt 0.8928 0.9686
vt 0.8932 0.9681
vt 0.9472 0.9846
vt 0.9468 0.9850
vt 0.9287 0.9852
vt 0.9291 0.9848
vt 0.9314 0.9215
vt 0.9316 0.9216
vt 0.9312 0.9217
vt 0.9310 0.9216
vt 0.9312 0.9212
vt 0.9315 0.9212
vt 0.9310 0.9214
vt 0.9485 0.8955
vt 0.9479 0.8958
vt 0.9479 0.8933
vt 0.9493 0.8910
vt 0.9489 0.8932
vt 0.9483 0.8910
vt 0.9455 0.9144
vt 0.9457 0.9122
vt 0.9465 0.9144
vt 0.9473 0.8961
vt 0.9469 0.8985
vt 0.9559 0.9036
vt 0.9533 0.9013
vt 0.9601 0.9017
vt 0.9647 0.9042
vt 0.9556 0.9082
vt 0.9585 0.9060
vt 0.9692 0.9067
vt 0.9643 0.9087
vt 0.8588 0.8427
vt 0.8456 0.8474
vt 0.8456 0.8377
vt 0.8140 0.8424
vt 0.8140 0.8327
vt 0.8323 0.8327
vt 0.8323 0.8424
vt 0.9022 0.9312
vt 0.9025 0.9478
vt 0.9000 0.9509
vt 0.8995 0.9327
vt 0.9184 0.9329
vt 0.9173 0.9511
vt 0.9149 0.9511
vt 0.9157 0.9328
vt 0.9075 0.9310
vt 0.9074 0.9475
vt 0.9050 0.9448
vt 0.9049 0.9297
vt 0.8966 0.9328
vt 0.8973 0.9510
vt 0.8946 0.9510
vt 0.8937 0.9329
vt 0.9129 0.9326
vt 0.9123 0.9506
vt 0.9098 0.9502
vt 0.9102 0.9324
vt 0.7921 0.7993
vt 0.8028 0.7984
vt 0.8020 0.8179
vt 0.7917 0.8189
vt 0.7931 0.7627
vt 0.7983 0.7709
vt 0.7873 0.7715
vt 0.7889 0.8414
vt 0.7820 0.8404
vt 0.7825 0.8343
vt 0.7891 0.8335
vt 0.7919 0.8253
vt 0.7837 0.8263
vt 0.7815 0.8200
vt 0.8001 0.8242
vt 0.7981 0.8305
vt 0.7921 0.8316
vt 0.7860 0.8326
vt 0.7957 0.8424
vt 0.7957 0.8327
vt 0.7957 0.8520
vt 0.7886 0.8492
vt 0.7815 0.8465
vt 0.7925 0.7796
vt 0.7815 0.7803
vt 0.8036 0.7790
vt 0.7815 0.8002
vt 0.9136 0.9145
vt 0.9106 0.9145
vt 0.9165 0.9145
vt 0.8959 0.9146
vt 0.8928 0.9147
vt 0.8990 0.9145
vt 0.9077 0.9146
vt 0.9048 0.9146
vt 0.9195 0.9146
vt 0.9225 0.9148
vt 0.9211 0.9330
vt 0.9198 0.9511
vt 0.9019 0.9146
vt 0.8140 0.8520
vt 0.8323 0.8520
vt 0.9527 0.9103
vt 0.9595 0.9107
vt 0.9459 0.9099
vt 0.9468 0.9076
vt 0.9477 0.9053
vt 0.9471 0.9031
vt 0.9465 0.9008
vt 0.9475 0.8981
vt 0.9467 0.9122
vt 0.9475 0.9145
vt 0.9473 0.8911
vt 0.9473 0.8936
vt 0.9312 0.9214
vt 0.9308 0.9215
vt 0.9317 0.9212
vt 0.9318 0.9213
vt 0.9319 0.9214
vt 0.9656 0.9838
vt 0.9653 0.9843
vt 0.9649 0.9849
vt 0.9655 0.9876
vt 0.9656 0.9882
vt 0.9656 0.9888
vt 0.9319 0.9758
vt 0.9649 0.9855
vt 0.9650 0.9861
vt 0.9474 0.9828
vt 0.9292 0.9834
vt 0.9656 0.9823
vt 0.9656 0.9830
vt 0.9129 0.9664
vt 0.8936 0.9660
vt 0.9653 0.9869
vt 0.9191 0.9109
vt 0.8928 0.9074
vt 0.9117 0.9841
vt 0.8943 0.9849
vt 0.9848 0.9771
vt 0.9841 0.9752
vt 0.9855 0.9789
vt 0.9850 0.9673
vt 0.9850 0.9660
vt 0.9850 0.9686
vt 0.9841 0.9737
vt 0.9841 0.9723
vt 0.9848 0.9806
vt 0.9841 0.9823
vt 0.9580 0.9790
vt 0.9845 0.9704
vt 0.9313 0.9220
vt 0.9313 0.9223
vt 0.9313 0.9218
vt 0.9394 0.9196
vt 0.9394 0.9190
vt 0.9394 0.9201
vt 0.9394 0.9206
vt 0.9393 0.9211
vt 0.9351 0.9208
vt 0.9308 0.9204
vt 0.9394 0.9185
vt 0.9393 0.9180
vt 0.9441 0.9151
vt 0.9441 0.9145
vt 0.9442 0.9157
vt 0.9310 0.9227
vt 0.9308 0.9228
vt 0.9312 0.9226
vt 0.9441 0.9174
vt 0.9441 0.9168
vt 0.9441 0.9179
vt 0.9375 0.9174
vt 0.9308 0.9168
vt 0.9441 0.9162
vt 0.9193 0.9585
vt 0.9188 0.9659
vt 0.9002 0.9583
vt 0.9004 0.9657
vn -0.2379 0.0259 0.9710
vn -0.3619 0.6682 0.6500
vn -0.8583 0.4146 0.3024
vn -0.9313 0.0102 0.3642
vn 0.7225 0.0392 -0.6903
vn 0.4292 0.7082 -0.5606
vn 0.7974 0.5999 -0.0647
vn 0.9973 0.0448 -0.0576
vn 0.8022 0.0359 0.5960
vn 0.7929 0.0284 0.6087
vn 0.1766 0.6547 0.7350
vn 0.3416 0.0376 0.9391
vn 0.6646 0.2648 0.6987
vn 0.9839 0.0802 0.1596
vn 0.3870 0.9220 -0.0125
vn 0.3067 0.9501 0.0579
vn -0.2732 -0.9578 -0.0888
vn 0.4508 -0.7804 -0.4333
vn 0.4612 -0.7016 0.5432
vn 0.3891 -0.6896 0.6107
vn -0.3588 0.6755 -0.6442
vn 0.4208 0.3439 -0.8394
vn -0.4995 -0.3061 -0.8104
vn -0.6287 -0.2788 -0.7260
vn -0.9373 0.3131 0.1530
vn -0.3589 0.6552 0.6648
vn -0.2511 0.9208 -0.2985
vn -0.3712 0.7576 -0.5369
vn 0.5649 0.4505 -0.6913
vn 0.6752 0.7345 0.0682
vn 0.9929 -0.1143 0.0337
vn 0.9537 -0.2752 -0.1216
vn 0.3904 -0.7226 0.5705
vn 0.5130 -0.0763 0.8550
vn -0.4487 -0.2410 0.8606
vn -0.5497 -0.4149 0.7251
vn 0.3885 -0.2078 -0.8977
vn 0.4250 -0.1825 -0.8866
vn 0.1715 -0.6882 -0.7049
vn 0.1436 -0.6920 -0.7075
vn -0.4927 -0.4363 0.7529
vn -0.5179 -0.4575 0.7228
vn -0.4120 0.1505 0.8987
vn -0.3767 0.1461 0.9148
vn 0.4656 0.8126 -0.3506
vn 0.4483 0.8426 -0.2983
vn 0.5403 0.4009 -0.7399
vn 0.5226 0.3629 -0.7715
vn -0.1576 -0.9519 -0.2626
vn -0.1483 -0.9543 -0.2596
vn -0.4062 -0.8706 0.2776
vn -0.4069 -0.8587 0.3114
vn -0.1161 0.6731 0.7304
vn -0.1346 0.6955 0.7059
vn 0.1959 0.9488 0.2480
vn 0.2190 0.9440 0.2468
vn 0.5147 -0.2548 -0.8186
vn 0.5541 0.4452 -0.7034
vn 0.5618 0.5506 -0.6174
vn 0.5329 -0.4631 -0.7082
vn -0.4719 -0.6664 0.5773
vn -0.3067 -0.9139 0.2658
vn -0.2550 -0.9352 0.2458
vn -0.4030 -0.6369 0.6572
vn 0.2960 0.9326 -0.2066
vn 0.0782 0.9880 0.1333
vn 0.1378 0.9652 0.2223
vn 0.5268 0.7520 -0.3962
vn -0.1015 -0.9925 -0.0675
vn 0.2526 -0.7945 -0.5522
vn 0.2692 -0.7874 -0.5545
vn 0.0676 -0.9725 -0.2229
vn -0.1292 0.8951 0.4267
vn -0.4998 0.2041 0.8417
vn -0.5031 0.1732 0.8467
vn -0.3464 0.4182 0.8397
vn -0.1322 0.6679 0.7324
vn -0.1191 0.6750 0.7281
vn 0.2267 0.9438 0.2406
vn 0.2218 0.9422 0.2512
vn -0.1712 -0.9471 -0.2715
vn -0.1658 -0.9498 -0.2654
vn -0.4213 -0.8489 0.3191
vn -0.4374 -0.8397 0.3218
vn 0.4861 0.7978 -0.3566
vn 0.4809 0.7948 -0.3702
vn 0.5324 0.3355 -0.7772
vn 0.5472 0.3546 -0.7582
vn -0.5140 -0.3664 0.7756
vn -0.5032 -0.4116 0.7599
vn -0.3848 0.1612 0.9088
vn -0.3880 0.1870 0.9025
vn 0.4224 -0.1943 -0.8853
vn 0.3958 -0.2256 -0.8902
vn 0.1427 -0.7010 -0.6987
vn 0.1560 -0.6906 -0.7062
vn -0.1286 0.7478 0.6513
vn -0.4473 0.1629 0.8794
vn -0.4439 0.1531 0.8829
vn -0.0964 0.7942 0.6000
vn -0.0894 0.8142 0.5737
vn -0.4384 0.1513 0.8859
vn -0.4562 0.1435 0.8783
vn -0.1028 0.8647 0.4917
vn -0.1413 -0.9574 -0.2518
vn 0.1863 -0.7051 -0.6842
vn 0.1755 -0.7268 -0.6640
vn -0.1448 -0.9632 -0.2263
vn -0.1688 -0.9726 -0.1598
vn 0.1669 -0.7443 -0.6466
vn 0.1953 -0.7686 -0.6092
vn -0.1572 -0.9845 -0.0778
vn 0.4320 0.8643 -0.2576
vn 0.1796 0.9550 0.2359
vn 0.1762 0.9616 0.2106
vn 0.4093 0.8786 -0.2460
vn 0.3913 0.8859 -0.2491
vn 0.1650 0.9671 0.1936
vn 0.1249 0.9853 0.1164
vn 0.3525 0.9035 -0.2436
vn -0.5401 -0.5101 0.6694
vn -0.4045 -0.8813 0.2443
vn -0.3790 -0.8989 0.2198
vn -0.5186 -0.5856 0.6230
vn -0.4950 -0.6321 0.5962
vn -0.3639 -0.9026 0.2301
vn -0.3364 -0.9056 0.2584
vn -0.4836 -0.6528 0.5831
vn 0.4505 -0.1926 -0.8718
vn 0.5565 0.4249 -0.7139
vn 0.5459 0.4325 -0.7176
vn 0.4440 -0.2066 -0.8719
vn 0.4505 -0.1811 -0.8742
vn 0.5364 0.4531 -0.7120
vn 0.5627 0.4216 -0.7111
vn 0.4886 -0.2021 -0.8487
vn 0.9042 -0.1983 -0.3782
vn -0.2085 -0.5890 -0.7808
vn 0.3117 -0.5664 -0.7629
vn -0.0988 -0.9905 -0.0951
vn -0.9082 -0.4147 0.0565
vn -0.0994 -0.9949 0.0168
vn -0.3207 -0.7906 0.5216
vn -0.4349 -0.8349 0.3373
vn -0.5314 -0.3127 0.7873
vn 0.1664 -0.6626 -0.7303
vn 0.3726 -0.1233 -0.9197
vn 0.4812 0.8179 -0.3156
vn 0.4012 -0.2019 -0.8935
vn 0.2518 -0.1570 -0.9550
vn 0.0568 0.0197 -0.9982
vn -0.1689 0.6630 0.7293
vn 0.1945 0.9445 0.2646
vn -0.7387 0.5548 -0.3827
vn -0.8715 -0.2024 0.4467
vn -0.2136 -0.9316 -0.2942
vn -0.5823 -0.4443 0.6808
vn -0.7180 -0.3968 0.5719
vn -0.3246 -0.8764 -0.3557
vn -0.4547 0.0034 -0.8907
vn -0.6572 0.1844 -0.7308
vn -0.0495 0.1092 -0.9928
vn 0.1611 0.0248 -0.9866
vn 0.8468 0.0437 0.5301
vn 0.8226 0.0434 0.5670
vn 0.3686 0.0404 0.9287
vn 0.3887 0.0405 0.9205
vn -0.9969 -0.0116 0.0782
vn -0.9652 0.1774 -0.1923
vn -0.8657 0.0711 -0.4956
vn -0.8743 -0.0082 -0.4854
vn 0.7353 0.0333 -0.6769
vn 0.7274 0.0331 -0.6854
vn 0.9966 0.0455 -0.0685
vn 0.9949 0.0440 -0.0911
vn -0.2169 0.0214 0.9760
vn -0.2293 0.0194 0.9732
vn -0.8859 0.1032 0.4522
vn -0.7665 0.0056 0.6423
vn -0.8449 -0.0068 -0.5348
vn -0.6970 0.6076 -0.3808
vn -0.6691 0.6212 -0.4080
vn -0.6645 0.5848 -0.4653
vn -0.8970 0.2961 0.3281
vn -0.1862 0.9805 -0.0620
vn -0.1375 0.5338 -0.8344
vn -0.1026 0.9931 -0.0568
vn -0.7305 -0.3635 -0.5782
vn -0.6128 0.2201 0.7590
vn 0.3274 0.3690 -0.8699
vn -0.2306 0.3356 -0.9134
vn -0.8483 0.1435 -0.5097
vn -0.1102 0.0279 -0.9935
vn -0.2075 0.0192 0.9780
vn -0.7498 -0.0005 0.6617
vn 0.4063 0.0395 0.9129
vn 0.7406 0.0313 -0.6712
vn 0.9939 0.0427 -0.1017
vn 0.1735 0.0187 -0.9847
vn -0.9965 -0.0171 0.0813
vn -0.8765 -0.0128 -0.4812
vn 0.8596 0.0426 0.5092
vn -0.4680 -0.0022 -0.8837
vn -0.1493 0.6575 0.7385
vn 0.2085 0.9397 0.2711
vn 0.4887 0.8061 -0.3338
vn -0.1227 -0.9594 -0.2538
vn 0.8678 -0.1864 0.4607
vn 0.3865 -0.7244 0.5709
vn -0.5311 -0.4337 0.7279
vn 0.9476 -0.3045 -0.0965
vn 0.5680 0.4461 -0.6917
vn -0.3806 0.7534 -0.5362
vn -0.9386 0.3082 0.1551
vn -0.3547 0.6821 -0.6394
vn -0.6326 -0.2297 -0.7397
vn 0.2893 0.9564 0.0396
vn -0.2749 -0.9573 -0.0892
vn 0.3987 -0.6737 0.6222
vn 0.6635 0.2713 0.6972
usemtl None
s 1
f 215/1/1 116/2/2 3/3/3 65/4/4
f 214/5/5 154/6/6 7/7/7 120/8/8
f 213/9/9 151/10/10 2/11/11 156/12/12
f 212/13/13 88/14/14 11/15/15 150/16/16
f 211/17/17 137/18/18 10/19/19 132/20/20
f 10/21/19 137/22/18 88/23/14
f 210/24/21 115/25/22 14/26/23 80/27/24
f 209/28/25 127/29/26 17/30/27 104/31/28
f 208/32/29 87/33/30 19/34/31 126/35/32
f 207/36/33 62/37/34 16/38/35 108/39/36
f 19/40/31 87/41/30 62/42/34
f 206/43/37 101/44/38 23/45/39 61/46/40
f 205/47/41 64/48/42 27/49/43 135/50/44
f 204/51/45 98/52/46 22/53/47 144/54/48
f 203/55/49 113/56/50 26/57/51 114/58/52
f 202/59/53 93/60/54 30/61/55 169/62/56
f 201/63/57 106/64/58 33/65/59 78/66/60
f 200/67/61 85/68/62 37/69/63 122/70/64
f 199/71/65 149/72/66 40/73/67 83/74/68
f 198/75/69 97/76/70 34/77/71 139/78/72
f 197/79/73 163/80/74 38/81/75 162/82/76
f 196/83/77 148/84/78 29/85/79 73/86/80
f 195/87/81 79/88/82 25/89/83 168/90/84
f 194/91/85 125/92/86 21/93/87 143/94/88
f 193/95/89 74/96/90 28/97/91 165/98/92
f 192/99/93 107/100/94 24/101/95 89/102/96
f 191/103/97 69/104/98 46/105/99 147/106/100
f 190/107/101 131/108/102 35/109/103 124/110/104
f 189/111/105 68/112/106 48/113/107 129/114/108
f 188/115/109 72/116/110 31/117/111 82/118/112
f 187/119/113 111/120/114 47/121/115 133/122/116
f 186/123/117 110/124/118 39/125/119 134/126/120
f 185/127/121 117/128/122 49/129/123 167/130/124
f 184/131/125 99/132/126 36/133/127 100/134/128
f 183/135/129 63/136/130 50/137/131 159/138/132
f 182/139/133 77/140/134 32/141/135 91/142/136
f 181/143/137 78/144/60 33/145/59 83/146/68
f 38/147/75 122/148/64 162/149/76
f 7/150/138 128/151/139 121/152/140
f 2/153/141 151/154/142 142/155/143
f 44/156/144 130/157/145 142/158/143
f 43/159/146 128/151/139 136/160/147
f 180/161/148 157/162/149 51/163/150 119/164/151
f 179/165/152 158/166/153 52/167/154 102/168/155
f 52/169/154 119/170/151 102/171/155
f 178/172/156 141/173/157 53/174/158 67/175/159
f 177/176/160 92/177/161 5/178/162 71/179/163
f 176/180/164 160/181/165 1/182/166 146/183/167
f 175/184/168 118/185/169 55/186/170 60/187/171
f 174/188/172 164/189/173 8/190/174 155/191/175
f 173/192/176 123/193/177 4/194/178 145/195/179
f 172/196/180 65/197/4 3/198/3 138/199/181
f 55/200/170 118/201/169 92/202/161
f 171/203/182 151/204/183 2/205/141 153/206/184
f 170/207/185 154/208/6 6/209/186 138/199/181
f 116/210/2 170/207/185 138/199/181 3/198/3
f 2/211/11 151/212/187 170/207/185 116/210/2
f 151/212/187 7/213/7 154/208/6 170/207/185
f 76/214/188 171/203/182 153/206/184 41/215/189
f 45/216/190 103/217/191 171/203/182 76/214/188
f 103/217/191 7/218/138 151/204/183 171/203/182
f 92/202/161 81/219/192 5/220/162
f 92/202/161 118/201/169 81/219/192
f 118/201/169 4/221/178 81/219/192
f 90/222/193 172/196/180 138/199/181 6/209/186
f 5/220/162 81/219/192 172/196/180 90/222/193
f 81/219/192 4/221/178 65/197/4 172/196/180
f 140/223/194 173/192/176 145/195/179 59/224/195
f 58/225/196 146/183/167 173/192/176 140/223/194
f 146/183/167 1/182/166 123/193/177 173/192/176
f 152/226/197 174/188/172 155/191/175 57/227/198
f 56/228/199 71/179/163 174/188/172 152/226/197
f 71/179/163 5/178/162 164/189/173 174/188/172
f 96/229/200 175/184/168 60/187/171 54/230/201
f 59/224/195 145/195/179 175/184/168 96/229/200
f 145/195/179 4/194/178 118/185/169 175/184/168
f 105/231/202 176/180/164 146/183/167 58/225/196
f 57/232/198 155/233/175 176/180/164 105/231/202
f 155/233/175 8/234/174 160/181/165 176/180/164
f 66/235/203 177/176/160 71/179/163 56/228/199
f 54/230/201 60/187/171 177/176/160 66/235/203
f 60/187/171 55/186/170 92/177/161 177/176/160
f 157/236/149 178/172/156 67/175/159 51/237/150
f 45/216/190 76/214/188 178/172/156 157/236/149
f 76/214/188 41/215/189 141/173/157 178/172/156
f 102/171/155 67/175/159 53/174/158
f 102/171/155 119/170/151 67/175/159
f 119/170/151 51/237/150 67/175/159
f 141/238/157 179/165/152 102/168/155 53/239/158
f 41/240/189 161/241/204 179/165/152 141/238/157
f 161/241/204 42/242/205 158/166/153 179/165/152
f 158/166/153 180/161/148 119/164/151 52/167/154
f 42/242/205 112/243/206 180/161/148 158/166/153
f 112/243/206 45/244/190 157/162/149 180/161/148
f 136/160/147 103/245/191 45/244/190
f 136/160/147 128/151/139 103/245/191
f 128/151/139 7/150/138 103/245/191
f 142/158/143 153/246/184 2/247/141
f 142/158/143 130/157/145 153/246/184
f 130/157/145 41/240/189 153/246/184
f 142/155/143 121/152/140 44/248/144
f 142/155/143 151/154/142 121/152/140
f 151/154/142 7/150/138 121/152/140
f 121/152/140 70/249/207 44/248/144
f 121/152/140 128/151/139 70/249/207
f 128/151/139 43/159/146 70/249/207
f 162/149/76 84/250/208 40/251/67
f 162/149/76 122/148/64 84/250/208
f 122/148/64 37/252/63 84/250/208
f 84/250/208 181/143/137 83/146/68 40/251/67
f 37/252/63 139/253/72 181/143/137 84/250/208
f 139/253/72 34/254/71 78/144/60 181/143/137
f 72/116/110 182/139/133 91/142/136 31/117/111
f 48/255/107 159/256/132 182/139/133 72/116/110
f 159/256/132 50/257/131 77/140/134 182/139/133
f 68/112/106 183/135/129 159/138/132 48/113/107
f 23/45/39 101/44/38 183/135/129 68/112/106
f 101/44/38 22/53/47 63/136/130 183/135/129
f 131/108/102 184/131/125 100/134/128 35/109/103
f 46/258/99 167/259/124 184/131/125 131/108/102
f 167/259/124 49/260/123 99/132/126 184/131/125
f 69/104/98 185/127/121 167/130/124 46/105/99
f 27/49/43 64/48/42 185/127/121 69/104/98
f 64/48/42 26/261/51 117/128/122 185/127/121
f 77/140/134 186/123/117 134/126/120 32/141/135
f 50/257/131 133/262/116 186/123/117 77/140/134
f 133/262/116 47/263/115 110/124/118 186/123/117
f 63/136/130 187/119/113 133/122/116 50/137/131
f 22/53/47 98/52/46 187/119/113 63/136/130
f 98/52/46 30/61/55 111/120/114 187/119/113
f 99/264/126 188/115/109 82/118/112 36/265/127
f 49/266/123 129/267/108 188/115/109 99/264/126
f 129/267/108 48/255/107 72/116/110 188/115/109
f 117/268/122 189/111/105 129/114/108 49/269/123
f 26/57/51 113/56/50 189/111/105 117/268/122
f 113/56/50 23/45/39 68/112/106 189/111/105
f 110/124/118 190/107/101 124/110/104 39/125/119
f 47/263/115 147/270/100 190/107/101 110/124/118
f 147/270/100 46/258/99 131/108/102 190/107/101
f 111/120/114 191/103/97 147/106/100 47/121/115
f 30/61/55 93/60/54 191/103/97 111/120/114
f 93/60/54 27/49/43 69/104/98 191/103/97
f 136/160/147 192/99/93 89/102/96 43/159/146
f 45/244/190 143/94/88 192/99/93 136/160/147
f 143/94/88 21/93/87 107/100/94 192/99/93
f 130/157/145 193/95/89 165/98/92 41/240/189
f 44/156/144 168/271/84 193/95/89 130/157/145
f 168/271/84 25/272/83 74/96/90 193/95/89
f 112/243/206 194/91/85 143/94/88 45/244/190
f 42/242/205 73/86/80 194/91/85 112/243/206
f 73/86/80 29/85/79 125/92/86 194/91/85
f 70/249/207 195/87/81 168/90/84 44/248/144
f 43/159/146 89/102/96 195/87/81 70/249/207
f 89/102/96 24/101/95 79/88/82 195/87/81
f 161/241/204 196/83/77 73/86/80 42/242/205
f 41/240/189 165/98/92 196/83/77 161/241/204
f 165/98/92 28/97/91 148/84/78 196/83/77
f 149/72/66 197/79/73 162/82/76 40/73/67
f 39/125/119 124/110/104 197/79/73 149/72/66
f 124/110/104 35/109/103 163/80/74 197/79/73
f 85/273/62 198/75/69 139/78/72 37/274/63
f 36/265/127 82/118/112 198/75/69 85/273/62
f 82/118/112 31/117/111 97/76/70 198/75/69
f 106/64/58 199/71/65 83/74/68 33/65/59
f 32/141/135 134/126/120 199/71/65 106/64/58
f 134/126/120 39/125/119 149/72/66 199/71/65
f 163/80/74 200/67/61 122/70/64 38/81/75
f 35/109/103 100/134/128 200/67/61 163/80/74
f 100/134/128 36/133/127 85/68/62 200/67/61
f 97/76/70 201/63/57 78/66/60 34/77/71
f 31/117/111 91/142/136 201/63/57 97/76/70
f 91/142/136 32/141/135 106/64/58 201/63/57
f 148/275/78 202/59/53 169/62/56 29/276/79
f 28/277/91 135/50/44 202/59/53 148/275/78
f 135/50/44 27/49/43 93/60/54 202/59/53
f 79/278/82 203/55/49 114/58/52 25/279/83
f 24/280/95 61/46/40 203/55/49 79/278/82
f 61/46/40 23/45/39 113/56/50 203/55/49
f 125/281/86 204/51/45 144/54/48 21/282/87
f 29/276/79 169/62/56 204/51/45 125/281/86
f 169/62/56 30/61/55 98/52/46 204/51/45
f 74/283/90 205/47/41 135/50/44 28/277/91
f 25/284/83 114/285/52 205/47/41 74/283/90
f 114/285/52 26/261/51 64/48/42 205/47/41
f 107/286/94 206/43/37 61/46/40 24/280/95
f 21/282/87 144/54/48 206/43/37 107/286/94
f 144/54/48 22/53/47 101/44/38 206/43/37
f 62/42/34 127/287/26 16/288/35
f 62/42/34 87/41/30 127/287/26
f 87/41/30 17/289/27 127/287/26
f 86/290/209 207/36/33 108/39/36 15/291/210
f 20/292/211 126/35/32 207/36/33 86/290/209
f 126/35/32 19/34/31 62/37/34 207/36/33
f 94/293/212 208/32/29 126/35/32 20/292/211
f 18/294/213 104/295/28 208/32/29 94/293/212
f 104/295/28 17/296/27 87/33/30 208/32/29
f 109/297/214 209/28/25 104/31/28 18/298/213
f 15/291/210 108/39/36 209/28/25 109/297/214
f 108/39/36 16/38/35 127/29/26 209/28/25
f 166/299/215 210/24/21 80/27/24 13/300/216
f 12/301/217 150/16/16 210/24/21 166/299/215
f 150/16/16 11/15/15 115/25/22 210/24/21
f 88/23/14 115/302/22 11/303/15
f 88/23/14 137/22/18 115/302/22
f 137/22/18 14/304/23 115/302/22
f 75/305/218 211/17/17 132/20/20 9/306/219
f 13/307/216 80/308/24 211/17/17 75/305/218
f 80/308/24 14/309/23 137/18/18 211/17/17
f 95/310/220 212/13/13 150/16/16 12/301/217
f 9/306/219 132/20/20 212/13/13 95/310/220
f 132/20/20 10/19/19 88/14/14 212/13/13
f 160/181/165 213/9/9 156/12/12 1/182/166
f 8/234/174 120/311/8 213/9/9 160/181/165
f 120/311/8 7/312/7 151/10/10 213/9/9
f 164/189/173 214/5/5 120/8/8 8/190/174
f 5/178/162 90/313/193 214/5/5 164/189/173
f 90/313/193 6/314/186 154/6/6 214/5/5
f 123/193/177 215/1/1 65/4/4 4/194/178
f 1/182/166 156/12/12 215/1/1 123/193/177
f 156/12/12 2/11/11 116/2/2 215/1/1
