# Blender v2.78 (sub 0) OBJ File: ''
# www.blender.org
mtllib Pine_Tree_m_01.mtl
o Pine_Tree_m_01
v -0.149419 0.796532 0.232707
v -0.120731 3.298515 0.194324
v -0.194298 3.297895 -0.031346
v -0.243496 0.796566 -0.056821
v 0.002795 0.796589 -0.235755
v -0.002060 3.296345 -0.170523
v 0.190322 3.296025 -0.030869
v 0.249086 0.796568 -0.056815
v 0.155013 0.796533 0.232710
v 0.116977 3.297383 0.194618
v 0.301324 0.012903 -0.099907
v 0.186247 0.012902 0.254265
v -0.301228 0.012903 -0.099907
v 0.000048 0.012904 -0.318796
v -0.186151 0.012902 0.254265
v -1.340824 1.602764 -1.329237
v -0.864442 3.249446 -0.840087
v -0.115019 3.234970 -1.153452
v -0.060681 1.016817 -1.983738
v 0.635188 3.233079 -0.841460
v 1.227230 1.639557 -1.335001
v 1.863847 1.085337 -0.002946
v 0.946313 3.243108 -0.084731
v 0.636964 3.261146 0.667154
v 1.230877 1.692267 1.317400
v -0.055530 1.095054 1.986926
v -0.112018 3.274115 0.977881
v -0.862015 3.276735 0.665710
v -1.337483 1.654453 1.323883
v -1.980104 1.029219 0.006173
v -1.173759 3.265728 -0.086738
v -0.030143 2.866185 2.005460
v -1.497924 2.225557 1.504095
v -1.975261 2.683697 0.014922
v -1.459667 2.098560 -1.561220
v 1.491395 2.239082 -1.745580
v 1.964160 2.885230 0.052451
v 1.449969 2.377092 1.534326
v 0.024086 2.683835 -2.249044
v -0.030935 5.495913 -0.241034
v 0.185711 5.496226 -0.150274
v 0.274791 5.500549 0.073363
v 0.184455 5.503830 0.292058
v -0.032729 5.506185 0.382141
v -0.249518 5.504296 0.290973
v -0.338523 5.501676 0.071835
v -0.248234 5.497162 -0.148549
v 1.256077 4.358471 1.327766
v 0.030939 3.880344 1.946024
v -1.189022 4.422178 1.313876
v -1.777212 3.982318 0.099882
v -1.158448 4.495214 -1.138692
v 0.071809 3.985817 -1.725305
v 1.280371 4.426172 -1.124477
v 1.878426 3.882898 0.120924
v 0.215496 6.765782 -0.155440
v 0.305600 6.768756 0.064639
v 0.214460 6.772370 0.284225
v -0.003653 6.770685 0.375156
v -0.221375 6.768447 0.283257
v -0.311360 6.763478 0.063253
v -0.220271 6.762094 -0.156418
v -0.002113 6.761549 -0.247266
v 1.327066 5.975093 0.048780
v 0.994669 5.523379 1.061084
v 0.004295 5.910064 1.382294
v -0.983916 5.489180 1.056507
v -1.316741 5.931046 0.042666
v -0.982958 5.555155 -0.943913
v 0.995643 5.586773 -0.939346
v 0.005572 5.996464 -1.290806
v -0.036246 7.493564 -0.462830
v -0.428112 7.484223 -0.301368
v 0.003042 9.156893 0.153533
v 0.386207 7.494380 -0.299743
v 0.385298 7.505146 0.487905
v 0.547361 7.506985 0.094220
v -0.428865 7.494559 0.486310
v -0.037415 7.508547 0.649003
v -0.589513 7.492514 0.091974
v -0.056033 2.607314 0.043604
v -0.084295 2.177221 1.488042
v -0.696253 1.380057 1.658002
v -0.154153 0.012903 -0.214256
v -1.055022 1.812004 0.025591
v -1.158790 5.709822 0.553850
v -0.045451 2.955796 -1.708783
v -0.723296 2.117398 0.712472
v -0.547080 4.240985 -1.443847
v 1.719557 2.632178 0.801990
v -1.583906 2.140827 -0.041187
v -0.725031 2.090435 -0.670004
v -1.494962 4.202435 0.710747
v -0.001875 3.297966 0.198301
v 1.547574 1.367833 -0.668328
v 0.128105 0.796579 -0.149263
v -0.031318 4.194236 1.190255
v -0.003193 4.096239 -1.242456
v -1.662202 1.321203 -0.660867
v -0.016775 6.692631 1.025419
v 0.173254 7.524520 0.567143
v -0.232319 7.519256 0.566350
v 0.601666 6.150727 0.669525
v -1.056808 4.742040 0.086443
v -0.141815 5.505273 0.338240
v 0.798164 3.252091 0.293927
v 0.157301 3.296691 0.083063
v -0.058010 1.805743 -1.008260
v -0.690357 5.630003 -0.648920
v 1.578996 4.120264 0.728347
v -0.700500 1.315010 -1.657931
v -0.231360 7.506368 -0.379624
v 1.169817 5.781205 -0.449546
v -0.000695 4.691436 1.163769
v 0.000374 2.056647 -0.203045
v 0.231288 5.502194 0.183410
v -1.166792 2.662571 -1.206589
v -0.770500 2.546066 1.767308
v 0.698498 6.521679 -0.627603
v 0.197427 8.341523 -0.075415
v -0.809086 6.355506 0.052407
v -0.268100 6.765959 0.173975
v 1.075882 4.689766 0.097602
v 0.219794 2.056474 -0.043689
v 0.503713 5.716521 1.230255
v 0.001447 0.387103 -0.278807
v 0.941651 1.841525 0.020811
v 0.000048 0.012902 0.260326
v -0.713306 6.500553 -0.630733
v 0.464717 7.523639 0.290813
v -0.706389 5.596628 0.800212
v 0.106117 6.771574 0.331439
v 0.612840 2.109879 -0.673041
v -0.295044 5.499415 -0.039057
v 0.750005 5.596716 -0.641260
v 0.504847 5.791962 -1.123621
v -0.218972 2.057418 -0.043933
v 0.262779 3.233874 -1.003996
v -1.749283 2.454268 0.766438
v -0.111906 6.761776 -0.203590
v -0.100437 3.297118 -0.104036
v -0.851897 3.796768 -0.853114
v 1.047809 2.808923 1.104575
v -0.492445 3.242131 -1.003314
v -0.199959 0.796549 0.089081
v -0.506737 7.505916 -0.103283
v -0.717450 4.969377 0.801214
v -0.871739 3.865004 0.896329
v -1.025633 3.257623 -0.466127
v -0.216093 8.342279 0.322928
v 0.647320 4.118979 1.648741
v -0.489704 3.275574 0.828336
v -0.016744 8.338174 -0.158501
v -0.492924 5.776029 -1.125925
v 0.680125 4.206215 -1.436692
v -1.158307 5.743106 -0.454926
v -0.599879 6.131073 0.666818
v -0.071421 3.067385 1.495586
v -0.135118 2.057714 0.213761
v -0.249454 0.012902 0.079052
v -0.168598 0.387059 0.244538
v 0.196959 8.347589 0.323732
v 1.169326 5.749245 0.559235
v -0.298031 8.338085 0.123182
v 0.265186 3.267715 0.829062
v 1.067909 2.725210 -1.300630
v 1.410635 2.156470 -0.045052
v -0.273692 0.387080 -0.078907
v 0.815522 3.942037 0.912089
v 0.587719 1.399015 1.654751
v 1.549399 1.394193 0.657707
v -1.479544 4.239215 -0.523408
v -1.106853 2.427178 -1.088640
v -0.140273 5.496512 -0.196476
v 0.276585 0.387094 -0.078907
v 0.078080 5.496036 -0.197337
v -0.701573 5.003629 -0.640846
v 0.096385 3.296160 -0.103792
v 0.764261 2.461067 -2.013300
v -1.660535 1.347042 0.665534
v 0.001519 6.387630 -0.764638
v 0.602519 6.179126 -0.545152
v 0.811009 6.381044 0.056053
v -0.714167 6.472324 0.778605
v 0.076551 5.505035 0.338784
v -0.723928 2.390291 -1.918427
v 0.936754 2.476602 0.994663
v -1.047187 5.368235 0.081883
v 1.740456 2.562567 -0.852859
v 0.002797 0.796532 0.236391
v -0.215704 8.336413 -0.076235
v -0.599040 6.160859 -0.547857
v -0.583107 4.151011 1.641752
v 0.718797 4.935860 0.808595
v 0.583315 1.333447 -1.660815
v 0.836992 3.868025 -0.947468
v -1.579809 2.971185 -0.036857
v 0.797271 3.237958 -0.465800
v -1.730011 2.390308 -0.778292
v -0.507113 7.511181 0.288903
v -0.113234 6.769595 0.330952
v 0.205552 0.796551 0.089086
v -0.494050 5.699265 1.227946
v 0.933737 2.436600 -1.091022
v -0.055340 1.846417 1.054643
v 0.697549 6.494975 0.781726
v 0.737188 5.566143 0.807703
v 0.249551 0.012903 0.079052
v 0.614735 2.137357 0.709069
v 0.231918 5.498366 -0.039151
v 1.115609 4.201214 0.063507
v -0.088778 2.118969 -1.574307
v 0.013997 5.320363 1.164286
v 1.591192 4.154306 -0.505642
v 1.460174 3.061429 -0.016764
v 0.154249 0.012903 -0.214256
v 0.731458 4.967246 -0.633295
v 0.171492 0.387067 0.244538
v -0.122515 0.796578 -0.149267
v 0.020548 4.740909 -0.979768
v -0.963524 6.695193 0.066779
v 0.000368 6.349094 0.873119
v 0.261760 6.770599 0.175159
v -0.161165 3.298228 0.082668
v -0.017348 8.346610 0.405990
v 1.095870 5.320292 0.093196
v -0.295687 5.503005 0.182099
v 0.716063 2.622493 1.782554
v -1.024406 3.271359 0.292191
v 0.035461 5.368640 -0.989252
v 0.136054 2.057142 0.213912
v -0.015542 6.728870 -0.887625
v 0.174293 7.511417 -0.378815
v -1.152698 4.098912 0.043861
v 0.947398 6.724786 0.071005
v 0.465172 7.518158 -0.101357
v 0.107412 6.763635 -0.203098
v -1.103682 2.466341 0.997413
v 0.262281 6.767273 -0.046121
v 0.279970 8.345372 0.124318
v -0.267545 6.762751 -0.047309
v -1.184955 2.740320 1.088496
v -0.367357 6.614790 -0.765203
v 0.344315 6.625434 -0.763625
v 0.828534 6.609915 0.429241
v -0.368411 6.582319 0.908024
v -0.844372 6.597839 -0.284853
v 0.829012 6.623376 -0.281148
v 0.343216 6.593744 0.909597
v -0.844806 6.583597 0.425541
v 0.304499 6.283534 -0.660040
v -0.301233 6.274331 -0.661404
v -0.709580 6.243142 0.362104
v 0.303489 6.249833 0.776479
v 0.711861 6.280222 -0.247041
v -0.709157 6.258168 -0.250239
v -0.302235 6.239919 0.775114
v 0.711431 6.265907 0.365304
v -0.875494 5.499326 -0.285884
v -0.348589 5.458385 0.989023
v 0.923267 5.443026 0.452814
v 0.395110 5.482773 -0.822029
v -0.329685 5.499534 -0.825884
v -0.883577 5.482523 0.443342
v 0.377855 5.443062 0.992792
v 0.929700 5.458392 -0.276325
v 0.910400 4.828381 -0.270127
v -0.885880 4.873057 -0.279553
v -0.361451 4.830298 0.989234
v 0.904044 4.812605 0.455449
v 0.378366 4.854171 -0.813273
v -0.342737 4.872491 -0.817074
v -0.893884 4.855812 0.446111
v 0.361301 4.813448 0.992947
v -0.430958 3.946038 -1.055275
v -1.019397 3.981789 0.473907
v 0.395521 4.068578 1.058345
v 0.983473 4.034814 -0.445475
v -1.009403 3.947428 -0.407548
v -0.455108 4.029734 1.050399
v 0.972644 4.072137 0.492449
v 0.420506 3.981919 -1.103798
v 1.263501 2.935667 0.549563
v 0.515836 2.840232 -1.515971
v -0.610548 2.808692 -1.467606
v -1.391986 2.855637 0.530636
v 0.492626 2.938623 1.309684
v 1.273641 2.893457 -0.663197
v -1.382840 2.816486 -0.625652
v -0.632765 2.904025 1.301577
v -1.353222 2.303601 0.481603
v 0.429649 2.327106 1.250994
v 1.181614 2.296520 -0.571525
v -1.354819 2.283894 -0.568379
v -0.597378 2.321946 1.252379
v 1.183132 2.316657 0.478269
v 0.425871 2.277607 -1.342314
v -0.601234 2.272877 -1.341118
v 0.181044 2.056804 0.086126
v -0.225057 0.387070 0.084087
v 0.141434 0.387099 -0.182185
v 0.001447 0.387063 0.248652
v -0.138541 0.387092 -0.182185
v 0.227951 0.387081 0.084087
v -0.111228 2.057032 -0.126141
v 0.000469 2.057435 0.217114
v 0.112012 2.056551 -0.126017
v -0.180164 2.057575 0.085925
vt 0.7997 0.9476
vt 0.7995 0.9769
vt 0.7933 0.9769
vt 0.7936 0.9475
vt 0.8365 0.9477
vt 0.8363 0.9775
vt 0.8302 0.9775
vt 0.8303 0.9477
vt 0.8119 0.9476
vt 0.8119 0.9770
vt 0.8058 0.9769
vt 0.8058 0.9476
vt 0.7874 0.9475
vt 0.7872 0.9770
vt 0.7810 0.9772
vt 0.7812 0.9475
vt 0.8244 0.9068
vt 0.8242 0.9180
vt 0.8180 0.9181
vt 0.8182 0.9070
vt 0.7874 0.9070
vt 0.7876 0.9181
vt 0.7815 0.9179
vt 0.7812 0.9068
vt 0.8120 0.9072
vt 0.8119 0.9182
vt 0.8058 0.9183
vt 0.8059 0.9073
vt 0.8367 0.9068
vt 0.8367 0.9180
vt 0.8304 0.9179
vt 0.8305 0.9067
vt 0.7997 0.9073
vt 0.7998 0.9182
vt 0.7938 0.9182
vt 0.7936 0.9073
vt 0.8242 0.9477
vt 0.8241 0.9773
vt 0.8181 0.9772
vt 0.8181 0.9476
vt 0.5901 0.3410
vt 0.5819 0.3289
vt 0.5888 0.3223
vt 0.6018 0.3304
vt 0.6021 0.3145
vt 0.5889 0.3130
vt 0.5890 0.3036
vt 0.6023 0.2986
vt 0.5635 0.2758
vt 0.5661 0.2897
vt 0.5564 0.2893
vt 0.5475 0.2756
vt 0.5251 0.3125
vt 0.5419 0.3119
vt 0.5417 0.3216
vt 0.5250 0.3278
vt 0.5626 0.3508
vt 0.5653 0.3353
vt 0.5750 0.3355
vt 0.5784 0.3516
vt 0.5910 0.2873
vt 0.5824 0.2969
vt 0.5758 0.2901
vt 0.5796 0.2760
vt 0.5363 0.2864
vt 0.5493 0.2957
vt 0.5422 0.3022
vt 0.5252 0.2972
vt 0.5358 0.3389
vt 0.5487 0.3284
vt 0.5556 0.3351
vt 0.5467 0.3501
vt 0.5191 0.3121
vt 0.5189 0.3286
vt 0.5073 0.3328
vt 0.5076 0.3124
vt 0.5599 0.2725
vt 0.5428 0.2725
vt 0.5369 0.2633
vt 0.5587 0.2628
vt 0.5889 0.3402
vt 0.6026 0.3278
vt 0.6146 0.3308
vt 0.5961 0.3471
vt 0.5306 0.3403
vt 0.5422 0.3521
vt 0.5358 0.3623
vt 0.5215 0.3476
vt 0.5310 0.2841
vt 0.5193 0.2956
vt 0.5078 0.2919
vt 0.5223 0.2776
vt 0.5900 0.2836
vt 0.5770 0.2724
vt 0.5805 0.2624
vt 0.5976 0.2760
vt 0.6027 0.3113
vt 0.6028 0.2948
vt 0.6146 0.2895
vt 0.6146 0.3101
vt 0.5587 0.3523
vt 0.5753 0.3526
vt 0.5776 0.3633
vt 0.5567 0.3628
vt 0.5953 0.3151
vt 0.5954 0.3277
vt 0.5746 0.3197
vt 0.5743 0.3142
vt 0.5603 0.2824
vt 0.5731 0.2823
vt 0.5660 0.3011
vt 0.5605 0.3011
vt 0.5297 0.3139
vt 0.5296 0.3009
vt 0.5477 0.3092
vt 0.5480 0.3146
vt 0.5623 0.3453
vt 0.5487 0.3451
vt 0.5563 0.3273
vt 0.5616 0.3275
vt 0.5841 0.2924
vt 0.5951 0.3025
vt 0.5740 0.3087
vt 0.5700 0.3049
vt 0.5386 0.2917
vt 0.5475 0.2825
vt 0.5551 0.3011
vt 0.5514 0.3051
vt 0.5393 0.3360
vt 0.5299 0.3270
vt 0.5482 0.3201
vt 0.5523 0.3237
vt 0.5857 0.3365
vt 0.5759 0.3454
vt 0.5669 0.3276
vt 0.5707 0.3237
vt 0.5383 0.3386
vt 0.5483 0.3485
vt 0.5408 0.3639
vt 0.5264 0.3496
vt 0.5382 0.2906
vt 0.5283 0.3007
vt 0.5117 0.2947
vt 0.5261 0.2800
vt 0.5863 0.2907
vt 0.5764 0.2806
vt 0.5817 0.2654
vt 0.5961 0.2800
vt 0.5962 0.3148
vt 0.5962 0.3008
vt 0.6105 0.2947
vt 0.6104 0.3151
vt 0.5623 0.3486
vt 0.5763 0.3486
vt 0.5814 0.3640
vt 0.5611 0.3640
vt 0.5283 0.3147
vt 0.5284 0.3287
vt 0.5120 0.3353
vt 0.5118 0.3150
vt 0.5623 0.2806
vt 0.5482 0.2806
vt 0.5405 0.2654
vt 0.5611 0.2654
vt 0.5863 0.3387
vt 0.5962 0.3288
vt 0.6103 0.3354
vt 0.5958 0.3497
vt 0.5829 0.2943
vt 0.5913 0.3026
vt 0.5696 0.3130
vt 0.5681 0.3115
vt 0.5429 0.2944
vt 0.5512 0.2861
vt 0.5625 0.3098
vt 0.5609 0.3113
vt 0.5426 0.3344
vt 0.5344 0.3259
vt 0.5594 0.3172
vt 0.5610 0.3187
vt 0.5828 0.3345
vt 0.5746 0.3430
vt 0.5666 0.3200
vt 0.5680 0.3185
vt 0.5912 0.3144
vt 0.5912 0.3261
vt 0.5694 0.3170
vt 0.5695 0.3150
vt 0.5629 0.2861
vt 0.5746 0.2860
vt 0.5667 0.3099
vt 0.5646 0.3098
vt 0.5345 0.3142
vt 0.5346 0.3026
vt 0.5593 0.3129
vt 0.5594 0.3151
vt 0.5627 0.3429
vt 0.5509 0.3428
vt 0.5625 0.3202
vt 0.5646 0.3201
vt 0.5834 0.3341
vt 0.5925 0.3251
vt 0.6121 0.3359
vt 0.5968 0.3508
vt 0.5397 0.3340
vt 0.5487 0.3429
vt 0.5390 0.3655
vt 0.5240 0.3505
vt 0.5396 0.2902
vt 0.5306 0.2994
vt 0.5085 0.2928
vt 0.5236 0.2774
vt 0.5926 0.3122
vt 0.5927 0.2994
vt 0.6127 0.2928
vt 0.6124 0.3144
vt 0.5615 0.3430
vt 0.5742 0.3431
vt 0.5814 0.3657
vt 0.5602 0.3656
vt 0.5307 0.3122
vt 0.5308 0.3250
vt 0.5090 0.3356
vt 0.5087 0.3142
vt 0.5616 0.2810
vt 0.5487 0.2810
vt 0.5386 0.2620
vt 0.5603 0.2620
vt 0.5836 0.2902
vt 0.5745 0.2810
vt 0.5820 0.2620
vt 0.5974 0.2774
vt 0.4419 0.3316
vt 0.4358 0.3313
vt 0.4398 0.3241
vt 0.4521 0.3229
vt 0.4470 0.3273
vt 0.4449 0.3198
vt 0.4443 0.2993
vt 0.4487 0.3045
vt 0.4410 0.3079
vt 0.4207 0.3094
vt 0.4252 0.3045
vt 0.4292 0.3130
vt 0.4296 0.3309
vt 0.4257 0.3264
vt 0.4337 0.3238
vt 0.4531 0.3098
vt 0.4526 0.3163
vt 0.4454 0.3132
vt 0.4297 0.2996
vt 0.4370 0.2994
vt 0.4337 0.3081
vt 0.4218 0.3218
vt 0.4212 0.3156
vt 0.4297 0.3192
vt 0.4046 0.3138
vt 0.4044 0.2994
vt 0.4393 0.2803
vt 0.4534 0.2808
vt 0.4717 0.3147
vt 0.4715 0.3284
vt 0.4145 0.3381
vt 0.4047 0.3281
vt 0.4148 0.2896
vt 0.4251 0.2799
vt 0.4627 0.2909
vt 0.4719 0.3010
vt 0.4616 0.3381
vt 0.4518 0.3479
vt 0.4381 0.3480
vt 0.4243 0.3480
vt 0.6099 0.2937
vt 0.6098 0.3127
vt 0.5868 0.3040
vt 0.5824 0.3592
vt 0.5630 0.3596
vt 0.5731 0.3367
vt 0.5161 0.3337
vt 0.5161 0.3147
vt 0.5400 0.3239
vt 0.5436 0.2682
vt 0.5631 0.2678
vt 0.5537 0.2912
vt 0.6098 0.3317
vt 0.5961 0.3454
vt 0.5868 0.3230
vt 0.5435 0.3600
vt 0.5298 0.3469
vt 0.5537 0.3371
vt 0.5161 0.2957
vt 0.5299 0.2819
vt 0.5400 0.3049
vt 0.5825 0.2674
vt 0.5962 0.2806
vt 0.5731 0.2908
vt 0.5638 0.3142
vt 0.4617 0.3642
vt 0.4403 0.3647
vt 0.4190 0.3652
vt 0.4908 0.3338
vt 0.4762 0.3490
vt 0.4625 0.2623
vt 0.4766 0.2772
vt 0.4908 0.2922
vt 0.3882 0.2895
vt 0.4044 0.2748
vt 0.4206 0.2601
vt 0.4033 0.3498
vt 0.3877 0.3344
vt 0.4908 0.3130
vt 0.4416 0.2612
vt 0.3880 0.3119
vt 0.4377 0.3166
vt 0.5728 0.3059
vt 0.5699 0.3030
vt 0.5670 0.3001
vt 0.5628 0.3001
vt 0.5587 0.3001
vt 0.5526 0.3060
vt 0.5526 0.3102
vt 0.5525 0.3144
vt 0.5585 0.3204
vt 0.5627 0.3204
vt 0.5670 0.3204
vt 0.5729 0.3143
vt 0.5728 0.3101
vt 0.5556 0.3030
vt 0.5555 0.3174
vt 0.5699 0.3174
vt 0.5825 0.3660
vt 0.5609 0.3658
vt 0.5392 0.3655
vt 0.5094 0.3345
vt 0.5097 0.3134
vt 0.5100 0.2923
vt 0.5399 0.2625
vt 0.5612 0.2623
vt 0.5825 0.2622
vt 0.6129 0.2922
vt 0.6129 0.3137
vt 0.6129 0.3352
vt 0.5977 0.3506
vt 0.5243 0.3500
vt 0.5250 0.2774
vt 0.5977 0.2772
vt 0.5713 0.3332
vt 0.5768 0.3277
vt 0.5822 0.3222
vt 0.5711 0.2959
vt 0.5634 0.2959
vt 0.5558 0.2959
vt 0.5449 0.3066
vt 0.5448 0.3144
vt 0.5448 0.3221
vt 0.5558 0.3331
vt 0.5635 0.3331
vt 0.5821 0.3145
vt 0.5820 0.3068
vt 0.5766 0.3013
vt 0.5504 0.3012
vt 0.5503 0.3276
vt 0.6163 0.3356
vt 0.6006 0.3494
vt 0.5849 0.3632
vt 0.5412 0.3629
vt 0.5264 0.3483
vt 0.5115 0.3338
vt 0.5115 0.2926
vt 0.5257 0.2783
vt 0.5399 0.2639
vt 0.5803 0.2635
vt 0.5983 0.2799
vt 0.6163 0.2963
vt 0.5631 0.3630
vt 0.5115 0.3132
vt 0.5601 0.2637
vt 0.6163 0.3159
vt 0.5485 0.3418
vt 0.5608 0.3418
vt 0.5730 0.3419
vt 0.5906 0.3249
vt 0.5908 0.3125
vt 0.5911 0.3001
vt 0.5824 0.2912
vt 0.5736 0.2823
vt 0.5487 0.2818
vt 0.5397 0.2905
vt 0.5307 0.2993
vt 0.5306 0.3244
vt 0.5396 0.3331
vt 0.5818 0.3334
vt 0.5611 0.2821
vt 0.5307 0.3119
vt 0.5231 0.3496
vt 0.5378 0.3650
vt 0.5083 0.3341
vt 0.5234 0.2770
vt 0.5081 0.2923
vt 0.5386 0.2618
vt 0.5995 0.2776
vt 0.5833 0.2618
vt 0.6157 0.2935
vt 0.5598 0.3663
vt 0.5818 0.3677
vt 0.5082 0.3132
vt 0.5610 0.2618
vt 0.6152 0.3160
vt 0.6148 0.3385
vt 0.5983 0.3531
vt 0.7997 0.8964
vt 0.7934 0.8963
vt 0.8060 0.8964
vt 0.8368 0.8957
vt 0.8307 0.8954
vt 0.8430 0.8959
vt 0.8429 0.9070
vt 0.8429 0.9181
vt 0.8122 0.8961
vt 0.8184 0.8959
vt 0.7872 0.8960
vt 0.7810 0.8956
vt 0.8246 0.8957
vt 0.8426 0.9477
vt 0.8424 0.9774
vn -0.9508 0.0157 0.3094
vn -0.9507 0.0158 0.3097
vn -0.9518 0.0216 -0.3061
vn -0.9508 0.0216 -0.3091
vn 0.5875 0.0224 -0.8089
vn 0.5874 0.0223 -0.8090
vn 0.9513 0.0253 -0.3072
vn 0.9508 0.0253 -0.3089
vn -0.0005 0.0154 0.9999
vn -0.0009 0.0156 0.9999
vn -0.5881 0.0189 0.8086
vn -0.5877 0.0189 0.8089
vn -0.5870 0.0200 -0.8093
vn -0.5868 0.0199 -0.8095
vn -0.0019 0.0257 -0.9997
vn 0.0003 0.0258 -0.9997
vn 0.9499 0.0484 0.3087
vn 0.9504 0.0337 0.3090
vn 0.5855 0.0341 0.8100
vn 0.5868 0.0468 0.8084
vn -0.5854 0.0896 -0.8057
vn -0.5868 0.0540 -0.8079
vn 0.0011 0.0662 -0.9978
vn 0.0002 0.1067 -0.9943
vn 0.0000 0.0296 0.9996
vn -0.0001 0.0226 0.9997
vn -0.5843 0.0349 0.8108
vn -0.5865 0.0509 0.8084
vn 0.5857 0.0855 -0.8060
vn 0.5870 0.0532 -0.8078
vn 0.9514 0.0532 -0.3035
vn 0.9483 0.0813 -0.3068
vn -0.9496 0.0551 0.3086
vn -0.9504 0.0351 0.3091
vn -0.9511 0.0546 -0.3040
vn -0.9477 0.0879 -0.3067
vn 0.9509 0.0193 0.3090
vn 0.9508 0.0194 0.3093
vn 0.5844 0.0211 0.8112
vn 0.5873 0.0210 0.8091
vn -0.3227 0.3373 -0.8844
vn 0.0649 -0.7926 -0.6062
vn 0.0727 -0.8599 -0.5053
vn -0.0075 0.3550 -0.9348
vn 0.3084 0.3588 -0.8810
vn 0.0562 -0.7679 -0.6380
vn 0.2880 -0.9104 -0.2970
vn 0.6427 0.4175 -0.6423
vn 0.8704 0.4080 0.2756
vn 0.6919 -0.7209 0.0388
vn 0.3315 -0.8901 0.3127
vn 0.6327 0.4712 0.6146
vn -0.3008 0.4112 0.8605
vn 0.0388 -0.7425 0.6688
vn -0.1951 -0.9388 0.2840
vn -0.6467 0.4276 0.6316
vn -0.8896 0.3267 -0.3191
vn -0.5585 -0.8273 0.0610
vn -0.1278 -0.9639 -0.2338
vn -0.6595 0.3702 -0.6543
vn 0.8733 0.3849 -0.2986
vn 0.6647 -0.7467 -0.0263
vn 0.5826 -0.8120 0.0347
vn 0.9169 0.3989 -0.0118
vn 0.2910 0.4299 0.8547
vn 0.0396 -0.7196 0.6933
vn 0.0444 -0.8158 0.5767
vn -0.0049 0.4270 0.9043
vn -0.8853 0.3535 0.3022
vn -0.5830 -0.8124 0.0092
vn -0.4232 -0.9042 0.0588
vn -0.9388 0.3444 -0.0087
vn 0.3944 -0.7808 -0.4845
vn 0.0360 -0.9008 -0.4326
vn -0.0304 -0.4434 0.8958
vn -0.0263 -0.7046 0.7091
vn 0.6380 -0.6623 0.3928
vn 0.6314 -0.7750 0.0271
vn -0.8284 -0.5559 -0.0686
vn -0.6311 -0.7757 -0.0001
vn -0.4476 -0.8256 0.3435
vn -0.4175 -0.8019 0.4274
vn 0.5254 -0.7009 -0.4824
vn 0.7429 -0.6693 -0.0087
vn -0.3320 -0.8471 -0.4149
vn -0.3938 -0.8267 -0.4017
vn 0.4947 -0.7076 0.5045
vn 0.0652 -0.6757 0.7343
vn 0.5896 -0.7280 -0.3498
vn 0.5173 -0.7273 -0.4511
vn -0.4533 -0.7622 0.4622
vn -0.6502 -0.7590 0.0348
vn 0.4223 -0.7162 0.5556
vn 0.5580 -0.6571 0.5068
vn -0.4556 -0.7948 -0.4009
vn -0.1290 -0.7556 -0.6422
vn -0.3319 -0.8216 0.4636
vn 0.0528 -0.8603 0.5071
vn -0.0898 -0.4516 -0.8877
vn 0.1054 -0.6803 -0.7254
vn -0.3951 -0.8581 -0.3278
vn -0.3961 -0.9181 0.0150
vn 0.9024 -0.4309 -0.0012
vn 0.7403 -0.6656 0.0944
vn 0.4003 0.5352 -0.7439
vn -0.0519 0.5751 -0.8164
vn -0.2709 -0.9531 -0.1349
vn 0.7799 -0.5871 -0.2169
vn 0.7689 0.4874 0.4137
vn 0.8418 0.5394 0.0187
vn 0.2606 -0.9654 0.0138
vn 0.2521 -0.6374 0.7281
vn -0.4423 0.4641 0.7675
vn -0.0255 0.5202 0.8537
vn -0.1073 -0.9706 0.2153
vn -0.7567 -0.6211 0.2038
vn -0.7857 0.4605 -0.4131
vn -0.8661 0.4997 -0.0159
vn -0.2472 -0.9679 -0.0457
vn -0.2523 -0.6578 -0.7097
vn 0.7776 0.5036 -0.3765
vn 0.6139 0.5337 -0.5816
vn 0.4962 -0.7608 -0.4184
vn 0.2723 -0.6158 -0.7394
vn 0.3955 0.4797 0.7832
vn 0.6050 0.4957 0.6231
vn 0.4132 -0.7963 0.4417
vn 0.6955 -0.6632 0.2765
vn -0.8023 0.4561 0.3851
vn -0.6476 0.4715 0.5986
vn -0.4636 -0.8059 0.3682
vn -0.3047 -0.6985 0.6475
vn -0.4907 0.4908 -0.7199
vn -0.6560 0.4807 -0.5819
vn -0.5200 -0.7733 -0.3627
vn -0.8379 -0.5351 -0.1075
vn -0.1176 -0.7068 -0.6976
vn -0.4374 -0.7852 -0.4384
vn 0.5844 -0.5411 0.6047
vn 0.4982 -0.7362 0.4581
vn 0.7043 -0.6990 -0.1239
vn 0.4359 -0.7800 -0.4490
vn -0.6177 -0.5398 0.5719
vn -0.4583 -0.7504 0.4762
vn 0.0820 -0.7148 0.6945
vn 0.4285 -0.7916 0.4355
vn -0.6047 -0.5276 -0.5966
vn -0.5063 -0.7253 -0.4665
vn -0.1198 -0.7160 0.6877
vn -0.0208 -0.7087 0.7052
vn -0.0048 -0.7713 -0.6364
vn 0.4831 -0.7407 -0.4669
vn -0.6897 -0.7155 -0.1113
vn -0.7029 -0.7109 -0.0225
vn 0.6374 -0.7706 0.0010
vn 0.4595 -0.7295 0.5066
vn 0.0969 -0.7057 -0.7019
vn -0.0117 -0.7002 -0.7139
vn -0.0135 -0.7726 0.6348
vn -0.5321 -0.7197 0.4461
vn 0.7044 -0.7018 0.1066
vn 0.7196 -0.6943 -0.0093
vn -0.6300 -0.7765 -0.0115
vn -0.4475 -0.7358 -0.5084
vn -0.6903 -0.7203 0.0685
vn -0.4401 -0.7986 0.4105
vn 0.5939 -0.5225 -0.6117
vn 0.4723 -0.7126 -0.5187
vn 0.8504 0.4726 -0.2314
vn 0.6160 0.5196 -0.5921
vn 0.1600 -0.9772 -0.1395
vn 0.6791 -0.6275 0.3807
vn 0.2615 0.4713 0.8423
vn 0.6034 0.5179 0.6064
vn 0.1649 -0.9821 0.0906
vn -0.3586 -0.6520 0.6681
vn -0.8482 0.4604 0.2618
vn -0.6065 0.5120 0.6083
vn -0.0937 -0.9899 0.1061
vn -0.6640 -0.6383 -0.3894
vn -0.2423 0.4613 -0.8535
vn -0.6035 0.5092 -0.6137
vn -0.0714 -0.9779 -0.1963
vn 0.3916 -0.6175 -0.6821
vn 0.2678 0.4663 -0.8431
vn 0.0142 0.4733 -0.8808
vn 0.0380 -0.7930 -0.6080
vn -0.3164 -0.6530 -0.6881
vn 0.8404 0.4727 0.2651
vn 0.8762 0.4817 0.0184
vn 0.6052 -0.7960 -0.0014
vn 0.6800 -0.6290 -0.3769
vn -0.2554 0.4687 0.8457
vn 0.0039 0.4804 0.8771
vn 0.0362 -0.8088 0.5870
vn 0.4222 -0.6147 0.6663
vn -0.8509 0.4571 -0.2588
vn -0.8832 0.4690 0.0020
vn -0.5821 -0.8124 -0.0335
vn -0.6685 -0.6653 0.3325
vn -0.5839 -0.6828 -0.4392
vn -0.6298 -0.7767 -0.0101
vn 0.8295 -0.5580 -0.0242
vn 0.6565 -0.7469 -0.1054
vn 0.4360 -0.6635 -0.6080
vn 0.0113 -0.7486 -0.6629
vn 0.0136 -0.5952 0.8034
vn 0.1057 -0.7698 0.6295
vn 0.5958 -0.6861 0.4173
vn 0.6528 -0.7575 -0.0092
vn -0.8091 -0.5872 -0.0257
vn -0.6369 -0.7681 0.0661
vn -0.5761 -0.7009 0.4206
vn -0.5165 -0.6935 0.5023
vn 0.4202 -0.7972 -0.4335
vn 0.6593 -0.7492 0.0637
vn -0.4157 -0.6750 -0.6096
vn -0.5120 -0.6704 -0.5371
vn 0.4215 -0.8114 0.4049
vn -0.0916 -0.7692 0.6324
vn 0.6063 -0.6663 -0.4341
vn 0.5333 -0.6565 -0.5334
vn -0.4041 -0.8221 0.4011
vn -0.6329 -0.7661 -0.1121
vn 0.4478 -0.6964 0.5608
vn 0.5338 -0.6813 0.5008
vn -0.4025 -0.8064 -0.4332
vn 0.0844 -0.7341 -0.6737
vn -0.4328 -0.7064 0.5601
vn 0.0085 -0.7927 0.6095
vn 0.0168 -0.5268 -0.8498
vn -0.0684 -0.7328 -0.6770
vn -0.0175 0.4141 -0.9101
vn -0.3848 0.3681 -0.8464
vn -0.0133 0.3484 -0.9373
vn 0.6446 0.3876 -0.6590
vn 0.3615 0.3699 -0.8559
vn 0.6558 0.3367 -0.6757
vn 0.6529 0.3494 0.6720
vn 0.8641 0.3302 0.3800
vn 0.6662 0.2943 0.6853
vn -0.6718 0.3444 0.6558
vn -0.3869 0.3149 0.8667
vn -0.6772 0.3109 0.6669
vn -0.6603 0.3821 -0.6466
vn -0.8572 0.3516 -0.3762
vn -0.6626 0.3520 -0.6611
vn 0.9234 0.3839 -0.0006
vn 0.8548 0.3532 -0.3802
vn 0.9493 0.3145 -0.0014
vn -0.0206 0.3520 0.9358
vn 0.3576 0.3159 0.8788
vn -0.0167 0.2893 0.9571
vn -0.9264 0.3766 -0.0022
vn -0.8680 0.3285 0.3724
vn -0.9417 0.3363 -0.0036
vn -0.8396 0.3634 0.4037
vn -0.6580 0.3729 0.6542
vn 0.3876 0.3794 0.8401
vn 0.6395 0.3940 0.6602
vn 0.8151 0.4127 -0.4066
vn 0.6433 0.4269 -0.6356
vn -0.8297 0.3871 -0.4021
vn -0.9102 0.4141 0.0011
vn -0.4082 0.3635 0.8374
vn -0.0117 0.4088 0.9126
vn 0.8239 0.3900 0.4113
vn 0.8958 0.4444 0.0028
vn 0.4109 0.4281 -0.8049
vn -0.0088 0.4709 -0.8821
vn -0.4258 0.4122 -0.8055
vn -0.6584 0.4068 -0.6333
vn 0.0120 -0.7855 -0.6187
vn 0.5705 -0.6948 -0.4379
vn 0.0127 -0.7875 0.6161
vn 0.6303 -0.7762 0.0168
vn 0.4667 -0.6849 0.5595
vn -0.6200 -0.7844 0.0169
vn 0.0140 -0.7622 0.6472
vn -0.5537 -0.6938 0.4605
vn 0.0101 -0.7896 -0.6135
vn -0.6064 -0.7949 0.0199
vn -0.4253 -0.7341 -0.5294
vn 0.6331 -0.7740 0.0147
vn 0.6500 -0.4903 -0.5806
vn 0.4587 -0.7114 -0.5324
vn -0.3156 -0.8878 0.3348
vn 0.6284 -0.4595 0.6277
vn 0.5754 -0.6741 0.4632
vn -0.3271 -0.8909 -0.3150
vn -0.5912 -0.4907 0.6401
vn -0.4314 -0.7071 0.5603
vn 0.3454 -0.8833 -0.3171
vn -0.6158 -0.5251 -0.5874
vn -0.5514 -0.7152 -0.4294
vn 0.3364 -0.8803 0.3346
vn 0.0101 -0.9999 0.0031
vn 0.0126 0.9994 0.0315
vn -0.9498 0.0558 0.3080
vn -0.9439 0.0897 -0.3177
vn -0.5934 0.0511 0.8033
vn 0.5852 0.0872 -0.8062
vn 0.9443 0.0827 -0.3187
vn -0.0013 0.1086 -0.9941
vn -0.0001 0.0292 0.9996
vn 0.5918 0.0467 0.8047
vn -0.5851 0.0915 -0.8058
vn 0.9501 0.0487 0.3081
usemtl None
s 1
f 308/1/1 224/2/2 3/3/3 137/4/4
f 307/5/5 178/6/6 7/7/7 124/8/8
f 306/9/9 94/10/10 2/11/11 159/12/12
f 305/13/13 141/14/14 6/15/15 115/16/16
f 304/17/17 202/18/18 9/19/19 218/20/20
f 303/21/21 219/22/22 5/23/23 126/24/24
f 302/25/25 190/26/26 1/27/27 161/28/28
f 301/29/29 96/30/30 8/31/31 175/32/32
f 300/33/33 145/34/34 4/35/35 168/36/36
f 299/37/37 107/38/38 10/39/39 231/40/40
f 298/41/41 144/42/42 18/43/43 212/44/44
f 297/45/45 138/46/46 20/47/47 204/48/48
f 296/49/49 106/50/50 24/51/51 187/52/52
f 295/53/53 152/54/54 28/55/55 238/56/56
f 294/57/57 149/58/58 17/59/59 173/60/60
f 293/61/61 198/62/62 23/63/63 167/64/64
f 292/65/65 165/66/66 27/67/67 82/68/68
f 291/69/69 229/70/70 31/71/71 91/72/72
f 290/73/73 158/74/74 32/75/75 118/76/76
f 289/77/77 197/78/78 34/79/79 199/80/80
f 288/81/81 166/82/82 36/83/83 189/84/84
f 287/85/85 143/86/86 38/87/87 228/88/88
f 286/89/89 242/90/90 33/91/91 139/92/92
f 285/93/93 117/94/94 35/95/95 186/96/96
f 284/97/97 87/98/98 39/99/99 179/100/100
f 283/101/101 215/102/102 37/103/103 90/104/104
f 282/105/105 98/106/106 40/107/107 176/108/108
f 281/109/109 211/110/110 42/111/111 116/112/112
f 280/113/113 97/114/114 44/115/115 105/116/116
f 279/117/117 234/118/118 46/119/119 134/120/120
f 278/121/121 196/122/122 41/123/123 210/124/124
f 277/125/125 169/126/126 43/127/127 185/128/128
f 276/129/129 148/130/130 45/131/131 227/132/132
f 275/133/133 142/134/134 47/135/135 174/136/136
f 274/137/137 194/138/138 48/139/139 151/140/140
f 273/141/141 147/142/142 50/143/143 93/144/144
f 272/145/145 177/146/146 52/147/147 89/148/148
f 271/149/149 220/150/150 53/151/151 155/152/152
f 270/153/153 123/154/154 55/155/155 110/156/156
f 269/157/157 114/158/158 49/159/159 193/160/160
f 268/161/161 104/162/162 51/163/163 172/164/164
f 267/165/165 217/166/166 54/167/167 214/168/168
f 266/169/169 135/170/170 56/171/171 239/172/172
f 265/173/173 207/174/174 58/175/175 132/176/176
f 264/177/177 131/178/178 60/179/179 122/180/180
f 263/181/181 109/182/182 62/183/183 140/184/184
f 262/185/185 230/186/186 63/187/187 237/188/188
f 261/189/189 226/190/190 57/191/191 223/192/192
f 260/193/193 213/194/194 59/195/195 201/196/196
f 259/197/197 188/198/198 61/199/199 241/200/200
f 258/201/201 183/202/202 64/203/203 163/204/204
f 257/205/205 222/206/206 66/207/207 203/208/208
f 256/209/209 121/210/210 68/211/211 156/212/212
f 255/213/213 182/214/214 70/215/215 113/216/216
f 254/217/217 103/218/218 65/219/219 125/220/220
f 253/221/221 157/222/222 67/223/223 86/224/224
f 252/225/225 192/226/226 69/227/227 154/228/228
f 251/229/229 181/230/230 71/231/231 136/232/232
f 72/233/233 112/234/234 153/235/235
f 75/236/236 233/237/237 120/238/238
f 76/239/239 130/240/240 162/241/241
f 78/242/242 102/243/243 150/244/244
f 73/245/245 146/246/246 191/247/247
f 77/248/248 236/249/249 240/250/250
f 79/251/251 101/252/252 225/253/253
f 80/254/254 200/255/255 164/256/256
f 250/257/257 184/258/258 78/242/242 200/255/255
f 249/259/259 206/260/260 76/239/239 101/252/252
f 248/261/261 119/262/262 75/236/236 236/249/249
f 247/263/263 221/264/264 80/254/254 146/246/246
f 246/265/265 100/266/266 79/251/251 102/243/243
f 245/267/267 235/268/268 77/248/248 130/240/240
f 244/269/269 232/270/270 72/233/233 233/237/237
f 243/271/271 129/272/272 73/245/245 112/234/234
f 19/273/273 195/274/274 108/275/275
f 22/276/276 171/277/277 127/278/278
f 26/279/279 83/280/280 205/281/281
f 30/282/282 99/283/283 85/284/284
f 21/285/285 95/286/286 133/287/287
f 25/288/288 170/289/289 209/290/290
f 29/291/291 180/292/292 88/293/293
f 16/294/294 111/295/295 92/296/296
f 92/296/296 108/275/275 81/297/297
f 92/296/296 111/295/295 108/275/275
f 111/295/295 19/273/273 108/275/275
f 88/293/293 85/284/284 81/297/297
f 88/293/293 180/292/292 85/284/284
f 180/292/292 30/282/282 85/284/284
f 209/290/290 205/281/281 81/297/297
f 209/290/290 170/289/289 205/281/281
f 170/289/289 26/279/279 205/281/281
f 133/287/287 127/278/278 81/297/297
f 133/287/287 95/286/286 127/278/278
f 95/286/286 22/276/276 127/278/278
f 85/284/284 92/296/296 81/297/297
f 85/284/284 99/283/283 92/296/296
f 99/283/283 16/294/294 92/296/296
f 205/281/281 88/293/293 81/297/297
f 205/281/281 83/280/280 88/293/293
f 83/280/280 29/291/291 88/293/293
f 127/278/278 209/290/290 81/297/297
f 127/278/278 171/277/277 209/290/290
f 171/277/277 25/288/288 209/290/290
f 108/275/275 133/287/287 81/297/297
f 108/275/275 195/274/274 133/287/287
f 195/274/274 21/285/285 133/287/287
f 232/270/270 243/271/271 112/234/234 72/233/233
f 71/298/231 154/299/228 243/271/271 232/270/270
f 154/299/228 69/300/227 129/272/272 243/271/271
f 119/262/262 244/269/269 233/237/237 75/236/236
f 70/301/215 136/302/232 244/269/269 119/262/262
f 136/302/232 71/298/231 232/270/270 244/269/269
f 206/260/260 245/267/267 130/240/240 76/239/239
f 65/303/219 163/304/204 245/267/267 206/260/260
f 163/304/204 64/305/203 235/268/268 245/267/267
f 184/258/258 246/265/265 102/243/243 78/242/242
f 67/306/223 203/307/208 246/265/265 184/258/258
f 203/307/208 66/308/207 100/266/266 246/265/265
f 129/272/272 247/263/263 146/246/246 73/245/245
f 69/300/227 156/309/212 247/263/263 129/272/272
f 156/309/212 68/310/211 221/264/264 247/263/263
f 235/268/268 248/261/261 236/249/249 77/248/248
f 64/305/203 113/311/216 248/261/261 235/268/268
f 113/311/216 70/301/215 119/262/262 248/261/261
f 100/266/266 249/259/259 101/252/252 79/251/251
f 66/308/207 125/312/220 249/259/259 100/266/266
f 125/312/220 65/303/219 206/260/260 249/259/259
f 221/264/264 250/257/257 200/255/255 80/254/254
f 68/310/211 86/313/224 250/257/257 221/264/264
f 86/313/224 67/306/223 184/258/258 250/257/257
f 164/256/256 150/244/244 74/314/298
f 164/256/256 200/255/255 150/244/244
f 200/255/255 78/242/242 150/244/244
f 225/253/253 162/241/241 74/314/298
f 225/253/253 101/252/252 162/241/241
f 101/252/252 76/239/239 162/241/241
f 240/250/250 120/238/238 74/314/298
f 240/250/250 236/249/249 120/238/238
f 236/249/249 75/236/236 120/238/238
f 191/247/247 164/256/256 74/314/298
f 191/247/247 146/246/246 164/256/256
f 146/246/246 80/254/254 164/256/256
f 150/244/244 225/253/253 74/314/298
f 150/244/244 102/243/243 225/253/253
f 102/243/243 79/251/251 225/253/253
f 162/241/241 240/250/250 74/314/298
f 162/241/241 130/240/240 240/250/250
f 130/240/240 77/248/248 240/250/250
f 120/238/238 153/235/235 74/314/298
f 120/238/238 233/237/237 153/235/235
f 233/237/237 72/233/233 153/235/235
f 153/235/235 191/247/247 74/314/298
f 153/235/235 112/234/234 191/247/247
f 112/234/234 73/245/245 191/247/247
f 182/214/214 251/229/229 136/232/232 70/215/215
f 56/315/171 237/316/188 251/229/229 182/214/214
f 237/316/188 63/317/187 181/230/230 251/229/229
f 181/230/230 252/225/225 154/228/228 71/231/231
f 63/317/187 140/318/184 252/225/225 181/230/230
f 140/318/184 62/319/183 192/226/226 252/225/225
f 121/210/210 253/221/221 86/224/224 68/211/211
f 61/320/199 122/321/180 253/221/221 121/210/210
f 122/321/180 60/322/179 157/222/222 253/221/221
f 222/206/206 254/217/217 125/220/220 66/207/207
f 59/323/195 132/324/176 254/217/217 222/206/206
f 132/324/176 58/325/175 103/218/218 254/217/217
f 183/202/202 255/213/213 113/216/216 64/203/203
f 57/326/191 239/327/172 255/213/213 183/202/202
f 239/327/172 56/315/171 182/214/214 255/213/213
f 192/226/226 256/209/209 156/212/212 69/227/227
f 62/319/183 241/328/200 256/209/209 192/226/226
f 241/328/200 61/320/199 121/210/210 256/209/209
f 157/222/222 257/205/205 203/208/208 67/223/223
f 60/322/179 201/329/196 257/205/205 157/222/222
f 201/329/196 59/323/195 222/206/206 257/205/205
f 103/218/218 258/201/201 163/204/204 65/219/219
f 58/325/175 223/330/192 258/201/201 103/218/218
f 223/330/192 57/326/191 183/202/202 258/201/201
f 109/182/182 259/197/197 241/200/200 62/183/183
f 52/331/147 172/332/164 259/197/197 109/182/182
f 172/332/164 51/333/163 188/198/198 259/197/197
f 131/178/178 260/193/193 201/196/196 60/179/179
f 50/334/143 193/335/160 260/193/193 131/178/178
f 193/335/160 49/336/159 213/194/194 260/193/193
f 207/174/174 261/189/189 223/192/192 58/175/175
f 48/337/139 110/338/156 261/189/189 207/174/174
f 110/338/156 55/339/155 226/190/190 261/189/189
f 135/170/170 262/185/185 237/188/188 56/171/171
f 54/340/167 155/341/152 262/185/185 135/170/170
f 155/341/152 53/342/151 230/186/186 262/185/185
f 230/186/186 263/181/181 140/184/184 63/187/187
f 53/342/151 89/343/148 263/181/181 230/186/186
f 89/343/148 52/331/147 109/182/182 263/181/181
f 188/198/198 264/177/177 122/180/180 61/199/199
f 51/333/163 93/344/144 264/177/177 188/198/198
f 93/344/144 50/334/143 131/178/178 264/177/177
f 213/194/194 265/173/173 132/176/176 59/195/195
f 49/336/159 151/345/140 265/173/173 213/194/194
f 151/345/140 48/337/139 207/174/174 265/173/173
f 226/190/190 266/169/169 239/172/172 57/191/191
f 55/339/155 214/346/168 266/169/169 226/190/190
f 214/346/168 54/340/167 135/170/170 266/169/169
f 123/154/154 267/165/165 214/168/168 55/155/155
f 42/347/111 210/348/124 267/165/165 123/154/154
f 210/348/124 41/349/123 217/166/166 267/165/165
f 177/146/146 268/161/161 172/164/164 52/147/147
f 47/350/135 134/351/120 268/161/161 177/146/146
f 134/351/120 46/352/119 104/162/162 268/161/161
f 147/142/142 269/157/157 193/160/160 50/143/143
f 45/353/131 105/354/116 269/157/157 147/142/142
f 105/354/116 44/355/115 114/158/158 269/157/157
f 194/138/138 270/153/153 110/156/156 48/139/139
f 43/356/127 116/357/112 270/153/153 194/138/138
f 116/357/112 42/347/111 123/154/154 270/153/153
f 217/166/166 271/149/149 155/152/152 54/167/167
f 41/349/123 176/358/108 271/149/149 217/166/166
f 176/358/108 40/359/107 220/150/150 271/149/149
f 220/150/150 272/145/145 89/148/148 53/151/151
f 40/359/107 174/360/136 272/145/145 220/150/150
f 174/360/136 47/350/135 177/146/146 272/145/145
f 104/162/162 273/141/141 93/144/144 51/163/163
f 46/352/119 227/361/132 273/141/141 104/162/162
f 227/361/132 45/353/131 147/142/142 273/141/141
f 114/158/158 274/137/137 151/140/140 49/159/159
f 44/355/115 185/362/128 274/137/137 114/158/158
f 185/362/128 43/356/127 194/138/138 274/137/137
f 98/106/106 275/133/133 174/136/136 40/107/107
f 39/363/99 186/364/96 275/133/133 98/106/106
f 186/364/96 35/365/95 142/134/134 275/133/133
f 234/118/118 276/129/129 227/132/132 46/119/119
f 34/366/79 139/367/92 276/129/129 234/118/118
f 139/367/92 33/368/91 148/130/130 276/129/129
f 97/114/114 277/125/125 185/128/128 44/115/115
f 32/369/75 228/370/88 277/125/125 97/114/114
f 228/370/88 38/371/87 169/126/126 277/125/125
f 211/110/110 278/121/121 210/124/124 42/111/111
f 37/372/103 189/373/84 278/121/121 211/110/110
f 189/373/84 36/374/83 196/122/122 278/121/121
f 142/134/134 279/117/117 134/120/120 47/135/135
f 35/365/95 199/375/80 279/117/117 142/134/134
f 199/375/80 34/366/79 234/118/118 279/117/117
f 148/130/130 280/113/113 105/116/116 45/131/131
f 33/368/91 118/376/76 280/113/113 148/130/130
f 118/376/76 32/369/75 97/114/114 280/113/113
f 169/126/126 281/109/109 116/112/112 43/127/127
f 38/371/87 90/377/104 281/109/109 169/126/126
f 90/377/104 37/372/103 211/110/110 281/109/109
f 196/122/122 282/105/105 176/108/108 41/123/123
f 36/374/83 179/378/100 282/105/105 196/122/122
f 179/378/100 39/363/99 98/106/106 282/105/105
f 143/86/86 283/101/101 90/104/104 38/87/87
f 24/379/51 106/380/50 283/101/101 143/86/86
f 106/380/50 23/381/63 215/102/102 283/101/101
f 166/82/82 284/97/97 179/100/100 36/83/83
f 20/382/47 138/383/46 284/97/97 166/82/82
f 138/383/46 18/384/43 87/98/98 284/97/97
f 87/98/98 285/93/93 186/96/96 39/99/99
f 18/384/43 144/385/42 285/93/93 87/98/98
f 144/385/42 17/386/59 117/94/94 285/93/93
f 197/78/78 286/89/89 139/92/92 34/79/79
f 31/387/71 229/388/70 286/89/89 197/78/78
f 229/388/70 28/389/55 242/90/90 286/89/89
f 158/74/74 287/85/85 228/88/88 32/75/75
f 27/390/67 165/391/66 287/85/85 158/74/74
f 165/391/66 24/379/51 143/86/86 287/85/85
f 215/102/102 288/81/81 189/84/84 37/103/103
f 23/381/63 198/392/62 288/81/81 215/102/102
f 198/392/62 20/382/47 166/82/82 288/81/81
f 117/94/94 289/77/77 199/80/80 35/95/95
f 17/386/59 149/393/58 289/77/77 117/94/94
f 149/393/58 31/387/71 197/78/78 289/77/77
f 242/90/90 290/73/73 118/76/76 33/91/91
f 28/389/55 152/394/54 290/73/73 242/90/90
f 152/394/54 27/390/67 158/74/74 290/73/73
f 180/395/292 291/69/69 91/72/72 30/396/282
f 29/397/291 238/56/56 291/69/69 180/395/292
f 238/56/56 28/55/55 229/70/70 291/69/69
f 170/398/289 292/65/65 82/68/68 26/399/279
f 25/400/288 187/52/52 292/65/65 170/398/289
f 187/52/52 24/51/51 165/66/66 292/65/65
f 95/401/286 293/61/61 167/64/64 22/402/276
f 21/403/285 204/48/48 293/61/61 95/401/286
f 204/48/48 20/47/47 198/62/62 293/61/61
f 99/404/283 294/57/57 173/60/60 16/405/294
f 30/396/282 91/72/72 294/57/57 99/404/283
f 91/72/72 31/71/71 149/58/58 294/57/57
f 83/406/280 295/53/53 238/56/56 29/397/291
f 26/399/279 82/68/68 295/53/53 83/406/280
f 82/68/68 27/67/67 152/54/54 295/53/53
f 171/407/277 296/49/49 187/52/52 25/400/288
f 22/402/276 167/64/64 296/49/49 171/407/277
f 167/64/64 23/63/63 106/50/50 296/49/49
f 195/408/274 297/45/45 204/48/48 21/403/285
f 19/409/273 212/44/44 297/45/45 195/408/274
f 212/44/44 18/43/43 138/46/46 297/45/45
f 111/410/295 298/41/41 212/44/44 19/409/273
f 16/405/294 173/60/60 298/41/41 111/410/295
f 173/60/60 17/59/59 144/42/42 298/41/41
f 202/18/18 299/37/37 231/40/40 9/19/19
f 8/31/31 124/8/8 299/37/37 202/18/18
f 124/8/8 7/7/7 107/38/38 299/37/37
f 160/411/299 300/33/33 168/36/36 13/412/300
f 15/413/301 161/28/28 300/33/33 160/411/299
f 161/28/28 1/27/27 145/34/34 300/33/33
f 216/414/302 301/29/29 175/32/32 11/415/303
f 14/416/304 126/417/24 301/29/29 216/414/302
f 126/417/24 5/418/23 96/30/30 301/29/29
f 128/419/305 302/25/25 161/28/28 15/413/301
f 12/420/306 218/20/20 302/25/25 128/419/305
f 218/20/20 9/19/19 190/26/26 302/25/25
f 84/421/307 303/21/21 126/24/24 14/422/304
f 13/412/300 168/36/36 303/21/21 84/421/307
f 168/36/36 4/35/35 219/22/22 303/21/21
f 208/423/308 304/17/17 218/20/20 12/420/306
f 11/415/303 175/32/32 304/17/17 208/423/308
f 175/32/32 8/31/31 202/18/18 304/17/17
f 219/22/22 305/13/13 115/16/16 5/23/23
f 4/35/35 137/4/4 305/13/13 219/22/22
f 137/4/4 3/3/3 141/14/14 305/13/13
f 190/26/26 306/9/9 159/12/12 1/27/27
f 9/19/19 231/40/40 306/9/9 190/26/26
f 231/40/40 10/39/39 94/10/10 306/9/9
f 96/30/30 307/5/5 124/8/8 8/31/31
f 5/418/23 115/424/16 307/5/5 96/30/30
f 115/424/16 6/425/15 178/6/6 307/5/5
f 145/34/34 308/1/1 137/4/4 4/35/35
f 1/27/27 159/12/12 308/1/1 145/34/34
f 159/12/12 2/11/11 224/2/2 308/1/1
