# Blender v2.78 (sub 0) OBJ File: ''
# www.blender.org
mtllib Pine_Tree_m_05.mtl
o Pine_Tree_m_05
v -1.597310 1.521255 -1.578668
v -0.879285 4.016496 -0.899884
v -0.094652 3.939205 -1.228040
v -0.082585 2.219374 -2.094245
v 0.691053 3.877129 -0.900464
v 1.448616 1.553463 -1.585549
v 1.914966 2.251766 -0.002788
v 1.010609 3.856664 -0.090866
v 0.695919 3.904147 0.713544
v 1.448787 1.614995 1.582196
v -0.080351 2.304621 2.098266
v -0.086670 3.982500 1.041151
v -0.872771 4.048343 0.712980
v -1.593607 1.585421 1.589958
v -2.088429 2.260191 0.006842
v -1.196188 4.056438 -0.092686
v -0.021667 3.130348 1.968606
v -1.439441 3.806447 1.501750
v -1.922947 3.352079 0.021771
v -1.426182 3.889901 -1.569635
v 1.462543 3.591351 -1.777339
v 1.887688 3.009885 0.026248
v 1.443973 3.501417 1.504598
v -0.002278 3.236841 -2.230056
v 0.478218 6.519173 -0.275435
v 0.701127 6.473506 -0.179813
v 0.794959 6.458103 0.056783
v 0.703248 6.483325 0.289194
v 0.480984 6.532432 0.385478
v 0.255979 6.577489 0.289766
v 0.163238 6.591972 0.057195
v 0.253901 6.568405 -0.177167
v 1.350818 4.567450 1.304121
v 0.275018 5.112736 1.903786
v -0.944409 4.776709 1.296235
v -1.418417 5.481280 0.130720
v -0.896829 5.011332 -1.052151
v 0.358134 5.445278 -1.636678
v 1.394063 4.768827 -1.040970
v 2.034873 5.062913 0.141906
v 1.256238 7.841834 -0.271277
v 1.352553 7.824369 -0.039380
v 1.261764 7.864350 0.190888
v 1.039590 7.927601 0.290178
v 0.819097 7.986615 0.189179
v 0.718694 7.998734 -0.041769
v 0.813520 7.964521 -0.273019
v 1.032024 7.896447 -0.371496
v 1.724558 6.264632 0.044387
v 1.482453 7.065874 0.751245
v 0.547234 6.560648 1.287872
v 0.079228 7.410463 0.752155
v -0.663985 6.744908 0.045944
v 0.058277 7.337523 -0.714921
v 1.461804 6.991356 -0.713635
v 0.521165 6.462582 -1.198057
v 1.354733 8.651996 -0.558276
v 1.039747 8.772327 -0.420250
v 2.060750 10.117162 -0.164737
v 1.702590 8.555635 -0.413619
v 1.710385 8.596849 0.255814
v 1.837924 8.523532 -0.077091
v 1.047892 8.813388 0.249077
v 1.365973 8.710128 0.393602
v 0.905946 8.826336 -0.086403
v -0.074237 3.249494 0.047070
v -0.195770 0.888461 0.298944
v -0.143807 3.247148 0.208875
v -0.221294 3.250441 -0.033719
v -0.316076 0.888188 -0.072454
v -0.001103 0.888031 -0.301999
v -0.018731 3.238462 -0.183422
v 0.183526 3.225010 -0.033169
v 0.313349 0.887923 -0.072403
v 0.192980 0.888674 0.298719
v 0.106480 3.231773 0.209104
v 0.344864 0.049746 -0.112351
v 0.212474 0.049825 0.295065
v -0.348367 0.048970 -0.112398
v -0.001658 0.049003 -0.364306
v -0.215949 0.048815 0.295230
v -0.001274 0.452573 -0.335027
v 0.749700 6.465394 -0.062234
v 0.697535 6.673163 -1.007454
v -0.582384 5.238049 -0.872146
v 1.076784 3.731022 -1.344443
v -1.238783 2.807959 1.155874
v -0.018660 3.239490 0.212879
v -0.169900 2.077564 0.254227
v 1.214206 8.776799 0.318932
v 0.736246 3.413652 -2.018721
v -0.299638 7.079242 0.400351
v -1.649880 3.156675 -0.043879
v -0.863817 2.378923 -0.794455
v 1.533570 7.047607 0.002129
v 1.074296 5.001797 0.895526
v -0.272451 5.229558 -1.355279
v 0.207947 6.585131 0.174203
v 1.016151 6.812966 1.027136
v 0.416974 5.987391 -0.951856
v 1.686692 3.299799 -0.881811
v 0.857281 3.866237 -0.498429
v 1.724971 4.914761 -0.452955
v 1.703333 4.813652 0.726539
v 0.981255 8.814255 -0.253709
v -0.078237 2.719470 -1.065465
v 0.030981 7.374465 0.001835
v 0.928655 7.957422 0.241476
v 1.412417 5.764777 0.100607
v 1.683285 1.938799 0.792022
v 1.893579 9.367754 0.047768
v -1.566836 3.695283 -0.036262
v 0.084640 3.231582 -0.111441
v 1.074266 2.706466 -1.247387
v 0.537964 8.042495 -0.571869
v 1.486998 9.489932 -0.126627
v 1.308892 7.843900 0.076507
v 1.082385 5.041263 -0.978700
v -0.288442 0.048884 0.093460
v -0.206821 0.452640 0.298462
v 0.715280 2.396072 -0.798063
v 1.556330 9.478703 0.044243
v -1.192046 5.129809 0.716955
v 0.257422 0.888301 0.114547
v 1.469370 3.053397 -0.047875
v -0.001737 0.049319 0.301754
v 0.961194 2.737402 0.022689
v -1.686134 3.622194 -0.778929
v 1.782053 7.374261 -0.015273
v 1.356711 7.426198 -0.489487
v 0.793106 7.248212 0.784476
v 1.552209 9.457705 -0.296277
v 0.764373 7.982083 -0.158147
v 0.949132 7.617874 0.850396
v 1.714221 9.400495 -0.365292
v 0.288463 6.900441 -0.964083
v -0.720154 3.564501 -1.912233
v -0.482383 4.015846 0.883706
v 0.684885 1.891957 -1.840855
v -0.161222 0.888108 -0.190866
v -0.089194 3.077387 -1.667820
v 0.715357 2.428035 0.844631
v 1.370177 7.476300 0.467166
v -0.065592 6.373912 0.745488
v 0.365360 6.543896 -0.228037
v -0.057282 3.545712 1.508070
v 0.816152 4.839133 1.614763
v 0.686057 1.965404 1.842300
v -0.077115 2.763794 1.115878
v -0.333842 0.452563 -0.093058
v -0.736564 3.468913 1.746959
v -0.841621 1.875304 -1.837403
v 1.581157 7.758374 -0.567872
v -0.321649 5.787999 -0.610885
v 1.069830 3.698719 1.111164
v 0.750771 6.470353 0.173704
v 0.203897 0.453355 0.298263
v 0.985312 8.834742 0.079920
v -0.310211 7.042480 -0.335777
v -1.842346 1.927933 0.800742
v -0.186183 3.249019 0.088777
v -0.861955 2.412195 0.848677
v -0.344627 5.674237 0.792310
v -0.874527 4.974382 0.039733
v -1.244037 2.758849 -1.244923
v -0.001395 0.888574 0.303327
v 1.308936 6.208810 0.750355
v 0.879817 5.107928 -1.349620
v 0.231349 4.834777 1.173350
v -1.844213 1.895782 -0.787107
v 0.149779 2.069904 0.254230
v -1.121871 2.739795 0.027744
v 0.992636 6.726071 -0.963415
v 0.148632 3.228154 0.089175
v 1.328168 6.299860 -0.658793
v 1.043710 5.619817 -0.605265
v 1.677297 3.254376 0.773661
v -0.044191 6.481991 -0.665326
v 0.590352 6.496127 -0.229359
v 0.312132 6.986528 1.027593
v 1.144820 7.868831 -0.323185
v 1.450270 3.421844 -0.032995
v 0.440578 7.660663 -0.490909
v 1.958980 9.334673 -0.121748
v 1.683218 1.907985 -0.795380
v 0.175486 0.049374 -0.243673
v 1.339063 4.737274 0.041726
v 1.775791 8.554935 -0.245720
v 0.367806 6.555179 0.339360
v 0.376380 5.826267 1.144845
v 0.454248 7.709964 0.466852
v 1.151416 7.895874 0.242337
v 0.239293 4.880158 -1.250490
v -1.168187 5.247957 -0.464227
v 0.206898 6.580544 -0.060704
v 0.717114 3.314744 1.748374
v 0.248534 2.066106 -0.052645
v 0.552652 8.100036 0.506652
v 0.775634 7.181105 -0.780817
v 1.610810 6.663914 0.399094
v -0.338337 4.943724 1.610792
v -0.178895 0.048982 -0.243698
v 1.889635 9.346688 -0.292819
v -0.051472 3.578331 -1.735655
v 0.859726 3.879814 0.314111
v 0.158759 0.887973 -0.190838
v 1.719930 9.430254 0.116320
v -0.083904 3.143099 1.576312
v 0.300897 3.907825 -1.070881
v 0.284951 0.049800 0.093398
v -0.122256 3.244589 -0.111723
v 1.595515 7.816793 0.509591
v 1.535073 8.619109 -0.485332
v -0.351074 6.740981 0.044374
v 1.306108 7.832555 -0.156068
v -1.692808 3.580091 0.768642
v -1.158578 3.952303 -1.239061
v -0.838650 1.950089 1.846199
v 0.105144 7.769526 -0.019184
v 0.307361 3.943219 0.883984
v -1.162031 3.925710 1.109385
v -0.587789 5.201671 0.894427
v 1.204547 8.727301 -0.488654
v -0.627951 6.041146 0.095213
v -0.489690 3.977978 -1.070606
v 1.544554 8.668685 0.322311
v 0.767183 7.993217 0.074444
v 1.699146 6.444731 0.051258
v 0.659117 6.519928 1.100211
v 1.076931 2.751839 1.152214
v -0.009948 2.072964 -0.242684
v -1.040945 4.053027 0.312917
v 0.922033 7.930589 -0.324062
v 0.592820 6.507783 0.339070
v 0.930303 7.539042 -0.885710
v -1.044233 4.036977 -0.499070
v 0.330938 0.452978 -0.093012
v -0.268848 2.079084 -0.052949
v -0.260184 0.888323 0.114636
v 1.779670 8.575499 0.087967
v 1.600392 6.626343 -0.335909
v 1.022980 5.523295 0.795984
v 0.202646 2.067917 0.101940
v -0.274818 0.452597 0.104164
v 0.167606 0.452773 -0.217842
v -0.001462 0.453000 0.303088
v -0.170330 0.452565 -0.217867
v 0.271902 0.453173 0.104085
v -0.141555 2.076075 -0.150818
v -0.010059 2.073748 0.257936
v 0.121452 2.069475 -0.150662
v -0.222866 2.078407 0.101785
v 0.732855 7.791090 -0.734006
v 1.256849 7.647995 -0.731983
v 1.693861 7.594419 0.248398
v 0.749728 7.859743 0.683717
v 0.316523 7.907043 -0.296767
v 1.686623 7.564982 -0.292784
v 1.273553 7.717096 0.685198
v 0.323930 7.936031 0.244957
v 1.067092 7.303048 -0.639836
v 0.607107 7.421131 -0.640562
v 0.238128 7.543264 0.235364
v 1.082664 7.362058 0.630512
v 1.449602 7.235804 -0.244691
v 0.231234 7.518425 -0.245557
v 0.622783 7.479731 0.630353
v 1.456392 7.261054 0.235663
v -0.203782 6.612539 -0.312608
v 0.294597 6.446578 0.929139
v 1.510151 6.325776 0.402946
v 1.015055 6.486795 -0.839421
v 0.324751 6.578257 -0.842725
v -0.214506 6.558125 0.397040
v 0.986013 6.363839 0.931590
v 1.519764 6.371469 -0.305848
v 1.234143 5.691538 -0.254400
v -0.480917 5.915576 -0.259951
v 0.013718 5.749862 0.974837
v 1.223776 5.643091 0.450416
v 0.732541 5.803936 -0.784825
v 0.045761 5.888374 -0.787671
v -0.492436 5.858299 0.445862
v 0.701649 5.674253 0.976686
v -0.174857 5.059721 -1.068381
v -0.737795 5.088640 0.470883
v 0.656155 4.917670 1.041191
v 1.217341 4.888654 -0.471979
v -0.735076 5.106995 -0.419064
v -0.181563 5.018590 1.040648
v 1.213247 4.868718 0.473103
v 0.664235 4.960382 -1.122974
v 1.269014 3.559348 0.544590
v 0.517061 3.654283 -1.550875
v -0.609347 3.765946 -1.496874
v -1.373473 3.811228 0.541388
v 0.510623 3.621593 1.318821
v 1.272540 3.575694 -0.693233
v -1.371740 3.824649 -0.641552
v -0.613993 3.736181 1.317938
v -1.453655 2.982693 0.560684
v 0.501092 2.947674 1.373944
v 1.281112 2.879515 -0.652312
v -1.456314 2.957943 -0.649065
v -0.665846 2.975781 1.375794
v 1.282445 2.902351 0.556824
v 0.497099 2.891761 -1.467296
v -0.671165 2.917954 -1.466058
vt 0.5845 0.3383
vt 0.5763 0.3262
vt 0.5832 0.3196
vt 0.5961 0.3277
vt 0.5964 0.3118
vt 0.5833 0.3103
vt 0.5834 0.3010
vt 0.5968 0.2959
vt 0.5580 0.2731
vt 0.5605 0.2871
vt 0.5509 0.2867
vt 0.5420 0.2729
vt 0.5196 0.3099
vt 0.5365 0.3092
vt 0.5362 0.3189
vt 0.5195 0.3252
vt 0.5570 0.3481
vt 0.5598 0.3326
vt 0.5694 0.3328
vt 0.5728 0.3489
vt 0.5854 0.2846
vt 0.5768 0.2943
vt 0.5702 0.2875
vt 0.5740 0.2734
vt 0.5308 0.2838
vt 0.5438 0.2931
vt 0.5367 0.2995
vt 0.5197 0.2946
vt 0.5304 0.3362
vt 0.5432 0.3256
vt 0.5501 0.3324
vt 0.5412 0.3473
vt 0.5136 0.3095
vt 0.5135 0.3259
vt 0.5018 0.3301
vt 0.5021 0.3097
vt 0.5544 0.2699
vt 0.5373 0.2699
vt 0.5314 0.2607
vt 0.5531 0.2603
vt 0.5834 0.3375
vt 0.5970 0.3252
vt 0.6090 0.3281
vt 0.5905 0.3443
vt 0.5250 0.3376
vt 0.5366 0.3494
vt 0.5303 0.3596
vt 0.5160 0.3449
vt 0.5255 0.2815
vt 0.5138 0.2930
vt 0.5023 0.2893
vt 0.5168 0.2750
vt 0.5844 0.2810
vt 0.5715 0.2698
vt 0.5749 0.2599
vt 0.5919 0.2734
vt 0.5971 0.3087
vt 0.5972 0.2922
vt 0.6090 0.2869
vt 0.6090 0.3075
vt 0.5532 0.3496
vt 0.5698 0.3499
vt 0.5720 0.3606
vt 0.5512 0.3601
vt 0.5897 0.3124
vt 0.5898 0.3250
vt 0.5690 0.3171
vt 0.5687 0.3116
vt 0.5548 0.2798
vt 0.5677 0.2797
vt 0.5605 0.2985
vt 0.5550 0.2985
vt 0.5242 0.3113
vt 0.5241 0.2983
vt 0.5422 0.3066
vt 0.5425 0.3120
vt 0.5567 0.3425
vt 0.5432 0.3424
vt 0.5507 0.3246
vt 0.5560 0.3248
vt 0.5786 0.2898
vt 0.5896 0.2999
vt 0.5684 0.3061
vt 0.5645 0.3023
vt 0.5330 0.2891
vt 0.5419 0.2799
vt 0.5495 0.2985
vt 0.5459 0.3026
vt 0.5338 0.3333
vt 0.5243 0.3243
vt 0.5427 0.3175
vt 0.5467 0.3210
vt 0.5800 0.3338
vt 0.5703 0.3426
vt 0.5613 0.3249
vt 0.5652 0.3210
vt 0.5328 0.3359
vt 0.5428 0.3457
vt 0.5353 0.3611
vt 0.5209 0.3468
vt 0.5327 0.2880
vt 0.5228 0.2980
vt 0.5062 0.2921
vt 0.5206 0.2775
vt 0.5807 0.2881
vt 0.5709 0.2781
vt 0.5761 0.2628
vt 0.5904 0.2775
vt 0.5906 0.3121
vt 0.5906 0.2982
vt 0.6048 0.2921
vt 0.6047 0.3124
vt 0.5567 0.3458
vt 0.5707 0.3458
vt 0.5758 0.3612
vt 0.5555 0.3611
vt 0.5228 0.3120
vt 0.5229 0.3260
vt 0.5065 0.3325
vt 0.5064 0.3123
vt 0.5567 0.2781
vt 0.5426 0.2781
vt 0.5350 0.2628
vt 0.5555 0.2628
vt 0.5807 0.3360
vt 0.5906 0.3261
vt 0.6046 0.3327
vt 0.5902 0.3469
vt 0.5774 0.2917
vt 0.5856 0.3000
vt 0.5640 0.3103
vt 0.5626 0.3088
vt 0.5374 0.2918
vt 0.5457 0.2836
vt 0.5569 0.3072
vt 0.5554 0.3087
vt 0.5371 0.3316
vt 0.5289 0.3232
vt 0.5539 0.3146
vt 0.5554 0.3160
vt 0.5773 0.3319
vt 0.5689 0.3403
vt 0.5610 0.3173
vt 0.5624 0.3158
vt 0.5856 0.3117
vt 0.5855 0.3234
vt 0.5638 0.3144
vt 0.5639 0.3123
vt 0.5574 0.2835
vt 0.5691 0.2835
vt 0.5612 0.3072
vt 0.5591 0.3072
vt 0.5290 0.3116
vt 0.5292 0.3000
vt 0.5538 0.3102
vt 0.5538 0.3124
vt 0.5571 0.3402
vt 0.5452 0.3401
vt 0.5569 0.3175
vt 0.5590 0.3174
vt 0.5778 0.3314
vt 0.5869 0.3224
vt 0.6065 0.3332
vt 0.5912 0.3481
vt 0.5342 0.3313
vt 0.5432 0.3402
vt 0.5335 0.3627
vt 0.5185 0.3478
vt 0.5341 0.2876
vt 0.5251 0.2968
vt 0.5030 0.2902
vt 0.5181 0.2749
vt 0.5871 0.3096
vt 0.5872 0.2968
vt 0.6071 0.2902
vt 0.6068 0.3117
vt 0.5559 0.3403
vt 0.5686 0.3404
vt 0.5758 0.3630
vt 0.5547 0.3629
vt 0.5252 0.3095
vt 0.5252 0.3223
vt 0.5035 0.3329
vt 0.5033 0.3115
vt 0.5560 0.2785
vt 0.5431 0.2785
vt 0.5331 0.2595
vt 0.5547 0.2595
vt 0.5781 0.2876
vt 0.5689 0.2785
vt 0.5764 0.2595
vt 0.5918 0.2749
vt 0.4407 0.3302
vt 0.4347 0.3298
vt 0.4386 0.3228
vt 0.4509 0.3215
vt 0.4458 0.3259
vt 0.4437 0.3185
vt 0.4431 0.2981
vt 0.4474 0.3033
vt 0.4398 0.3067
vt 0.4197 0.3082
vt 0.4241 0.3034
vt 0.4281 0.3118
vt 0.4286 0.3295
vt 0.4247 0.3250
vt 0.4326 0.3224
vt 0.4518 0.3085
vt 0.4513 0.3150
vt 0.4442 0.3119
vt 0.4286 0.2985
vt 0.4359 0.2983
vt 0.4326 0.3070
vt 0.4208 0.3205
vt 0.4202 0.3144
vt 0.4287 0.3180
vt 0.4037 0.3125
vt 0.4035 0.2983
vt 0.4381 0.2793
vt 0.4521 0.2798
vt 0.4703 0.3134
vt 0.4700 0.3270
vt 0.4136 0.3366
vt 0.4039 0.3267
vt 0.4138 0.2886
vt 0.4241 0.2789
vt 0.4613 0.2898
vt 0.4705 0.2998
vt 0.4603 0.3367
vt 0.4505 0.3464
vt 0.4369 0.3464
vt 0.4233 0.3465
vt 0.6042 0.2911
vt 0.6042 0.3101
vt 0.5813 0.3013
vt 0.5768 0.3564
vt 0.5574 0.3568
vt 0.5676 0.3340
vt 0.5106 0.3310
vt 0.5106 0.3120
vt 0.5344 0.3213
vt 0.5381 0.2656
vt 0.5575 0.2652
vt 0.5482 0.2886
vt 0.6042 0.3290
vt 0.5905 0.3427
vt 0.5813 0.3203
vt 0.5380 0.3572
vt 0.5243 0.3441
vt 0.5482 0.3343
vt 0.5106 0.2931
vt 0.5243 0.2793
vt 0.5344 0.3023
vt 0.5769 0.2648
vt 0.5906 0.2779
vt 0.5676 0.2882
vt 0.9302 0.9483
vt 0.9301 0.9812
vt 0.9231 0.9812
vt 0.9233 0.9483
vt 0.9714 0.9486
vt 0.9712 0.9818
vt 0.9644 0.9818
vt 0.9645 0.9485
vt 0.9439 0.9484
vt 0.9439 0.9813
vt 0.9370 0.9811
vt 0.9370 0.9484
vt 0.9165 0.9483
vt 0.9162 0.9813
vt 0.9093 0.9814
vt 0.9096 0.9483
vt 0.9579 0.9028
vt 0.9577 0.9153
vt 0.9507 0.9154
vt 0.9510 0.9030
vt 0.9165 0.9030
vt 0.9168 0.9153
vt 0.9099 0.9152
vt 0.9096 0.9027
vt 0.9441 0.9032
vt 0.9439 0.9155
vt 0.9371 0.9156
vt 0.9372 0.9034
vt 0.9717 0.9028
vt 0.9715 0.9153
vt 0.9646 0.9152
vt 0.9648 0.9026
vt 0.9303 0.9033
vt 0.9304 0.9155
vt 0.9236 0.9155
vt 0.9234 0.9032
vt 0.9576 0.9485
vt 0.9576 0.9816
vt 0.9508 0.9815
vt 0.9507 0.9485
vt 0.9302 0.8911
vt 0.9232 0.8910
vt 0.9372 0.8912
vt 0.9718 0.8902
vt 0.9649 0.8900
vt 0.9786 0.8905
vt 0.9786 0.9030
vt 0.9785 0.9154
vt 0.9442 0.8909
vt 0.9512 0.8906
vt 0.9162 0.8906
vt 0.9093 0.8902
vt 0.9581 0.8903
vt 0.9783 0.9486
vt 0.9780 0.9818
vt 0.5583 0.3115
vt 0.4604 0.3626
vt 0.4392 0.3630
vt 0.4180 0.3635
vt 0.4892 0.3324
vt 0.4748 0.3475
vt 0.4612 0.2615
vt 0.4752 0.2763
vt 0.4892 0.2911
vt 0.3874 0.2884
vt 0.4035 0.2738
vt 0.4196 0.2592
vt 0.4025 0.3483
vt 0.3870 0.3330
vt 0.4892 0.3117
vt 0.4404 0.2603
vt 0.3872 0.3107
vt 0.4365 0.3154
vt 0.5673 0.3033
vt 0.5644 0.3004
vt 0.5614 0.2975
vt 0.5573 0.2975
vt 0.5531 0.2975
vt 0.5471 0.3033
vt 0.5470 0.3075
vt 0.5470 0.3117
vt 0.5529 0.3178
vt 0.5572 0.3177
vt 0.5614 0.3177
vt 0.5673 0.3117
vt 0.5673 0.3075
vt 0.5501 0.3004
vt 0.5500 0.3147
vt 0.5644 0.3147
vt 0.5769 0.3633
vt 0.5552 0.3630
vt 0.5336 0.3627
vt 0.5039 0.3318
vt 0.5042 0.3108
vt 0.5045 0.2897
vt 0.5344 0.2599
vt 0.5556 0.2598
vt 0.5769 0.2597
vt 0.6073 0.2896
vt 0.6073 0.3110
vt 0.6073 0.3325
vt 0.5921 0.3479
vt 0.5187 0.3472
vt 0.5194 0.2748
vt 0.5921 0.2747
vt 0.5657 0.3305
vt 0.5712 0.3250
vt 0.5766 0.3195
vt 0.5656 0.2933
vt 0.5579 0.2933
vt 0.5502 0.2933
vt 0.5393 0.3040
vt 0.5393 0.3117
vt 0.5393 0.3194
vt 0.5502 0.3304
vt 0.5580 0.3304
vt 0.5765 0.3119
vt 0.5764 0.3042
vt 0.5710 0.2987
vt 0.5447 0.2986
vt 0.5447 0.3249
vt 0.6106 0.3329
vt 0.5949 0.3467
vt 0.5793 0.3604
vt 0.5357 0.3601
vt 0.5209 0.3456
vt 0.5060 0.3311
vt 0.5060 0.2900
vt 0.5202 0.2756
vt 0.5344 0.2613
vt 0.5748 0.2609
vt 0.5928 0.2773
vt 0.6107 0.2937
vt 0.5575 0.3602
vt 0.5060 0.3105
vt 0.5546 0.2611
vt 0.6107 0.3133
vt 0.5429 0.3391
vt 0.5552 0.3392
vt 0.5675 0.3392
vt 0.5850 0.3222
vt 0.5853 0.3099
vt 0.5855 0.2975
vt 0.5768 0.2886
vt 0.5681 0.2797
vt 0.5432 0.2792
vt 0.5342 0.2879
vt 0.5252 0.2967
vt 0.5251 0.3217
vt 0.5340 0.3304
vt 0.5762 0.3307
vt 0.5556 0.2794
vt 0.5252 0.3092
vt 0.5175 0.3468
vt 0.5323 0.3622
vt 0.5028 0.3314
vt 0.5179 0.2745
vt 0.5027 0.2897
vt 0.5331 0.2592
vt 0.5939 0.2750
vt 0.5777 0.2592
vt 0.6101 0.2909
vt 0.5543 0.3636
vt 0.5762 0.3649
vt 0.5027 0.3106
vt 0.5554 0.2592
vt 0.6096 0.3133
vt 0.6091 0.3358
vt 0.5926 0.3503
vn -0.4035 0.3744 -0.8348
vn -0.5181 -0.6737 -0.5270
vn -0.1049 -0.8711 -0.4798
vn 0.0083 0.4327 -0.9015
vn 0.4182 0.3940 -0.8184
vn 0.4120 -0.7130 -0.5674
vn 0.3760 -0.7735 -0.5102
vn 0.6566 0.4080 -0.6343
vn 0.8168 0.4403 0.3728
vn 0.4616 -0.7073 0.5354
vn 0.3932 -0.7950 0.4619
vn 0.6561 0.4542 0.6027
vn -0.4112 0.4442 0.7960
vn -0.6093 -0.6478 0.4573
vn -0.4677 -0.7839 0.4083
vn -0.6512 0.4257 0.6283
vn -0.8382 0.3691 -0.4016
vn -0.5133 -0.7281 -0.4544
vn -0.4631 -0.7754 -0.4293
vn -0.6573 0.3753 -0.6535
vn 0.8269 0.4093 -0.3856
vn 0.4723 -0.7018 -0.5333
vn 0.4195 -0.9066 -0.0455
vn 0.8816 0.4718 -0.0082
vn 0.4335 0.4613 0.7741
vn 0.4894 -0.7201 0.4919
vn -0.1704 -0.8943 0.4137
vn 0.0145 0.5129 0.8583
vn -0.8247 0.4037 0.3961
vn -0.4961 -0.7310 0.4686
vn -0.4023 -0.9155 -0.0081
vn -0.9025 0.4306 -0.0041
vn -0.0741 -0.8335 -0.5475
vn -0.0852 -0.7844 -0.6144
vn -0.0754 -0.7765 0.6256
vn -0.4352 -0.6666 0.6051
vn 0.5333 -0.8458 0.0147
vn 0.6326 -0.7743 -0.0153
vn -0.6694 -0.7429 -0.0075
vn -0.6727 -0.6578 -0.3388
vn -0.5679 -0.8229 -0.0178
vn -0.2728 -0.9464 0.1730
vn 0.6096 -0.4088 -0.6792
vn 0.5627 -0.7594 -0.3266
vn -0.0937 -0.8271 -0.5542
vn -0.3291 -0.9083 -0.2582
vn 0.5830 -0.4857 0.6514
vn 0.3036 -0.7485 0.5896
vn 0.5628 -0.8254 -0.0445
vn 0.2129 -0.9426 -0.2573
vn -0.7423 -0.3203 0.5885
vn -0.6510 -0.6835 0.3302
vn -0.0836 -0.8861 0.4560
vn 0.1723 -0.9677 0.1842
vn -0.7562 -0.2760 -0.5932
vn -0.4977 -0.5872 -0.6383
vn -0.0452 -0.8941 0.4456
vn -0.0646 -0.8549 0.5147
vn -0.0952 -0.7005 -0.7073
vn 0.3062 -0.6630 -0.6831
vn -0.6002 -0.7996 -0.0163
vn -0.6429 -0.7658 -0.0180
vn 0.5673 -0.8234 0.0140
vn 0.5238 -0.7728 0.3584
vn 0.1949 0.4986 -0.8446
vn 0.0122 0.5150 -0.8571
vn -0.2139 -0.6328 -0.7442
vn -0.7831 -0.1879 -0.5929
vn 0.9301 0.3056 0.2036
vn 0.9513 0.3073 0.0240
vn 0.5425 -0.8400 0.0041
vn 0.5627 -0.5638 -0.6045
vn -0.1153 0.4458 0.8877
vn 0.0548 0.4218 0.9050
vn -0.0781 -0.7636 0.6409
vn 0.5949 -0.5397 0.5957
vn -0.8230 0.5553 -0.1199
vn -0.8365 0.5478 0.0123
vn -0.7580 -0.6514 -0.0334
vn -0.6262 -0.3578 0.6927
vn 0.9360 0.3167 -0.1535
vn 0.6607 0.4813 -0.5760
vn -0.4211 -0.8908 0.1704
vn 0.5304 -0.5758 0.6222
vn 0.2302 0.4002 0.8870
vn 0.6653 0.4101 0.6238
vn -0.2466 -0.9644 -0.0955
vn -0.6953 -0.3822 0.6087
vn -0.8231 0.5489 0.1454
vn -0.5445 0.5851 0.6010
vn -0.0243 -0.9425 -0.3334
vn -0.6387 -0.3134 -0.7027
vn -0.1605 0.5291 -0.8332
vn -0.5609 0.6245 -0.5435
vn -0.1238 -0.9052 0.4066
vn 0.6021 -0.4764 -0.6407
vn -0.5708 -0.5454 -0.6138
vn -0.6148 -0.5325 -0.5818
vn 0.2460 -0.9054 0.3460
vn -0.0847 -0.8158 0.5721
vn 0.4997 -0.6795 -0.5373
vn 0.4697 -0.6600 -0.5863
vn -0.5128 -0.7869 0.3432
vn -0.7719 -0.6338 -0.0493
vn 0.4294 -0.6982 0.5728
vn 0.4985 -0.6862 0.5297
vn -0.4809 -0.7818 -0.3969
vn -0.0692 -0.7479 -0.6602
vn -0.6138 -0.5686 0.5476
vn -0.1094 -0.7593 0.6415
vn -0.1732 -0.4938 -0.8522
vn -0.1369 -0.7768 -0.6147
vn -0.6490 -0.5478 -0.5280
vn -0.7605 -0.6482 -0.0386
vn 0.7238 -0.6900 0.0083
vn 0.5087 -0.8598 -0.0442
vn 0.4197 -0.6681 -0.6145
vn -0.0881 -0.7099 -0.6988
vn -0.1923 -0.5333 0.8238
vn -0.1175 -0.7682 0.6294
vn 0.5401 -0.6989 0.4689
vn 0.5888 -0.8073 -0.0386
vn -0.9180 -0.3966 0.0053
vn -0.7033 -0.7097 -0.0410
vn -0.6956 -0.5528 0.4588
vn -0.6637 -0.5461 0.5112
vn 0.2050 -0.8992 -0.3866
vn 0.4251 -0.9049 -0.0203
vn 0.8626 0.1719 -0.4758
vn 0.7326 0.2010 -0.6503
vn 0.2254 -0.8732 -0.4321
vn -0.2605 -0.3232 -0.9098
vn 0.5509 0.2907 0.7823
vn 0.6999 0.2507 0.6688
vn 0.0912 -0.7862 0.6112
vn 0.6962 -0.7178 0.0090
vn -0.6375 0.5554 0.5340
vn -0.5518 0.5332 0.6413
vn -0.6099 -0.6659 0.4296
vn -0.0767 -0.4774 0.8753
vn -0.4531 0.4850 -0.7480
vn -0.5876 0.5131 -0.6257
vn -0.7051 -0.6592 -0.2615
vn -0.9695 -0.1787 0.1675
vn 0.5653 0.2388 -0.7896
vn 0.0703 0.4315 -0.8994
vn -0.5125 -0.6796 0.5249
vn 0.7732 -0.6168 0.1475
vn 0.8269 0.2180 0.5183
vn 0.9726 0.2315 0.0221
vn -0.8462 -0.3706 0.3829
vn -0.2832 -0.1921 0.9396
vn -0.4454 0.5184 0.7300
vn 0.0647 0.4753 0.8774
vn -0.5142 -0.8276 -0.2251
vn -0.9613 -0.2694 -0.0575
vn -0.6875 0.5401 -0.4853
vn -0.7667 0.6414 0.0265
vn -0.0633 -0.9706 0.2320
vn -0.1842 -0.5818 -0.7922
vn -0.9564 -0.2721 -0.1061
vn -0.9688 -0.2464 0.0276
vn 0.1572 -0.9865 0.0465
vn -0.0567 -0.6987 0.7131
vn -0.0519 -0.6069 -0.7931
vn -0.1409 -0.5632 -0.8142
vn -0.2701 -0.8192 0.5059
vn -0.8884 -0.4095 0.2073
vn 0.6441 -0.7558 0.1180
vn 0.6620 -0.7490 0.0290
vn -0.6940 -0.7189 0.0399
vn -0.3566 -0.5737 -0.7374
vn -0.9529 -0.2554 0.1636
vn -0.6943 -0.4265 0.5797
vn 0.3472 -0.7718 -0.5327
vn -0.0835 -0.7626 -0.6415
vn -0.2423 -0.5473 -0.8011
vn -0.6943 -0.5030 -0.5148
vn 0.3912 -0.6935 0.6050
vn 0.5186 -0.8275 0.2150
vn 0.6412 -0.7653 -0.0568
vn 0.3247 -0.8154 -0.4792
vn -0.7428 -0.2932 0.6019
vn -0.3501 -0.5033 0.7900
vn 0.0050 -0.5286 0.8488
vn 0.3573 -0.7569 0.5472
vn -0.7391 -0.3779 -0.5576
vn -0.8821 -0.4540 -0.1252
vn -0.2587 -0.4438 0.8580
vn -0.1215 -0.4758 0.8711
vn -0.2796 -0.8594 -0.4280
vn 0.4923 -0.8625 -0.1169
vn 0.0696 0.2412 -0.9680
vn -0.2549 0.3608 -0.8971
vn 0.0764 0.2254 -0.9713
vn 0.7112 -0.0121 -0.7029
vn 0.4003 0.0799 -0.9129
vn 0.7095 -0.0493 -0.7030
vn 0.7241 0.0679 0.6863
vn 0.9272 -0.0712 0.3677
vn 0.7220 0.0262 0.6913
vn -0.5209 0.5828 0.6237
vn -0.2318 0.4535 0.8606
vn -0.5013 0.5911 0.6319
vn -0.5372 0.5116 -0.6706
vn -0.7261 0.5850 -0.3614
vn -0.5114 0.5176 -0.6860
vn 0.9957 -0.0925 -0.0077
vn 0.9178 -0.1125 -0.3808
vn 0.9905 -0.1373 -0.0024
vn 0.0857 0.3439 0.9351
vn 0.4090 0.1831 0.8940
vn 0.0910 0.3295 0.9397
vn -0.7771 0.6287 -0.0290
vn -0.7221 0.6205 0.3058
vn -0.7449 0.6664 -0.0318
vn -0.7532 0.6000 0.2696
vn -0.5263 0.5788 0.6229
vn 0.4012 0.2232 0.8884
vn 0.7284 0.1078 0.6767
vn 0.9224 -0.0658 -0.3806
vn 0.7170 0.0234 -0.6967
vn -0.7589 0.5674 -0.3195
vn -0.7966 0.6040 -0.0252
vn -0.2101 0.4494 0.8683
vn 0.0991 0.3513 0.9310
vn 0.9351 -0.0247 0.3536
vn 0.9986 -0.0515 -0.0146
vn 0.4053 0.1130 -0.9072
vn 0.0790 0.2512 -0.9647
vn -0.2556 0.3621 -0.8964
vn -0.5492 0.5086 -0.6631
vn 0.0146 -0.4671 -0.8841
vn -0.0638 -0.6871 -0.7237
vn 0.0103 -0.8996 0.4366
vn 0.8826 -0.4686 0.0372
vn 0.7324 -0.6765 -0.0769
vn -0.4509 -0.8925 0.0132
vn 0.0186 -0.4123 0.9109
vn 0.0874 -0.6457 0.7585
vn 0.0080 -0.9067 -0.4216
vn -0.8792 -0.4750 0.0381
vn -0.7224 -0.6838 0.1029
vn 0.4438 -0.8960 0.0125
vn 0.4670 -0.7658 -0.4421
vn 0.7330 -0.6734 0.0962
vn -0.4301 -0.7967 0.4245
vn 0.4649 -0.7516 0.4679
vn -0.0521 -0.6519 0.7565
vn -0.4468 -0.7979 -0.4047
vn -0.4388 -0.7668 0.4684
vn -0.7234 -0.6861 -0.0772
vn 0.4481 -0.7932 -0.4124
vn -0.4429 -0.7828 -0.4371
vn 0.0920 -0.6841 -0.7235
vn 0.4349 -0.7907 0.4308
vn -0.9513 0.0334 0.3065
vn -0.9516 0.0337 0.3055
vn -0.9531 0.0429 -0.2995
vn -0.9508 0.0428 -0.3067
vn 0.5927 0.0462 -0.8041
vn 0.5940 0.0464 -0.8031
vn 0.9483 0.0575 -0.3121
vn 0.9501 0.0573 -0.3068
vn 0.0010 0.0387 0.9993
vn 0.0000 0.0391 0.9992
vn -0.6032 0.0439 0.7964
vn -0.5880 0.0436 0.8076
vn -0.5902 0.0382 -0.8064
vn -0.5919 0.0372 -0.8052
vn -0.0229 0.0504 -0.9985
vn 0.0016 0.0504 -0.9987
vn 0.9509 0.0224 0.3088
vn 0.9507 0.0358 0.3079
vn 0.5862 0.0327 0.8095
vn 0.5879 0.0112 0.8089
vn -0.5872 0.0622 -0.8070
vn -0.5876 0.0497 -0.8077
vn 0.0020 0.0634 -0.9980
vn 0.0004 0.0755 -0.9971
vn 0.0005 -0.0029 1.0000
vn 0.0007 0.0189 0.9998
vn -0.5840 0.0284 0.8112
vn -0.5875 0.0117 0.8092
vn 0.5877 0.0616 -0.8067
vn 0.5895 0.0540 -0.8059
vn 0.9519 0.0547 -0.3016
vn 0.9503 0.0513 -0.3072
vn -0.9509 0.0243 0.3086
vn -0.9513 0.0288 0.3069
vn -0.9519 0.0450 -0.3032
vn -0.9505 0.0522 -0.3063
vn 0.9511 0.0477 0.3053
vn 0.9514 0.0481 0.3042
vn 0.5721 0.0527 0.8185
vn 0.5888 0.0524 0.8066
vn -0.9511 0.0219 0.3081
vn -0.9460 0.0517 -0.3199
vn -0.5947 0.0096 0.8039
vn 0.5869 0.0611 -0.8073
vn 0.9460 0.0503 -0.3203
vn -0.0006 0.0751 -0.9972
vn 0.0004 -0.0053 1.0000
vn 0.5939 0.0088 0.8045
vn -0.5866 0.0621 -0.8075
vn 0.9511 0.0205 0.3083
vn 0.0016 -1.0000 0.0051
vn 0.4224 0.9049 -0.0525
usemtl None
s 1
f 308/1/1 225/2/2 3/3/3 141/4/4
f 307/5/5 209/6/6 5/7/7 114/8/8
f 306/9/9 205/10/10 9/11/11 230/12/12
f 305/13/13 138/14/14 13/15/15 87/16/16
f 304/17/17 236/18/18 2/19/19 165/20/20
f 303/21/21 102/22/22 8/23/23 125/24/24
f 302/25/25 220/26/26 12/27/27 208/28/28
f 301/29/29 232/30/30 16/31/31 93/32/32
f 300/33/33 146/34/34 17/35/35 151/36/36
f 299/37/37 112/38/38 19/39/39 128/40/40
f 298/41/41 86/42/42 21/43/43 101/44/44
f 297/45/45 155/46/46 23/47/47 196/48/48
f 296/49/49 221/50/50 18/51/51 216/52/52
f 295/53/53 217/54/54 20/55/55 137/56/56
f 294/57/57 204/58/58 24/59/59 91/60/60
f 293/61/61 182/62/62 22/63/63 177/64/64
f 292/65/65 193/66/66 25/67/67 179/68/68
f 291/69/69 187/70/70 27/71/71 156/72/72
f 290/73/73 169/74/74 29/75/75 189/76/76
f 289/77/77 164/78/78 31/79/79 195/80/80
f 288/81/81 118/82/82 26/83/83 83/84/84
f 287/85/85 96/86/86 28/87/87 234/88/88
f 286/89/89 222/90/90 30/91/91 98/92/92
f 285/93/93 85/94/94 32/95/95 145/96/96
f 284/97/97 242/98/98 33/99/99 147/100/100
f 283/101/101 163/102/102 35/103/103 123/104/104
f 282/105/105 154/106/106 37/107/107 97/108/108
f 281/109/109 100/110/110 38/111/111 168/112/112
f 280/113/113 109/114/114 40/115/115 104/116/116
f 279/117/117 190/118/118 34/119/119 201/120/120
f 278/121/121 224/122/122 36/123/123 194/124/124
f 277/125/125 176/126/126 39/127/127 103/128/128
f 276/129/129 175/130/130 41/131/131 215/132/132
f 275/133/133 167/134/134 43/135/135 192/136/136
f 274/137/137 144/138/138 45/139/139 227/140/140
f 273/141/141 178/142/142 47/143/143 233/144/144
f 272/145/145 84/146/146 48/147/147 181/148/148
f 271/149/149 228/150/150 42/151/151 117/152/152
f 270/153/153 229/154/154 44/155/155 108/156/156
f 269/157/157 214/158/158 46/159/159 133/160/160
f 268/161/161 95/162/162 49/163/163 200/164/164
f 267/165/165 131/166/166 51/167/167 180/168/168
f 266/169/169 107/170/170 53/171/171 159/172/172
f 265/173/173 130/174/174 55/175/175 241/176/176
f 264/177/177 143/178/178 50/179/179 99/180/180
f 263/181/181 191/182/182 52/183/183 92/184/184
f 262/185/185 183/186/186 54/187/187 136/188/188
f 261/189/189 199/190/190 56/191/191 173/192/192
f 57/193/193 223/194/194 135/195/195
f 60/196/196 213/197/197 203/198/198
f 61/199/199 240/200/200 111/201/201
f 63/202/202 90/203/203 122/204/204
f 58/205/205 105/206/206 132/207/207
f 62/208/208 188/209/209 184/210/210
f 64/211/211 226/212/212 207/213/213
f 65/214/214 158/215/215 116/216/216
f 260/217/217 198/218/218 63/202/202 158/215/215
f 259/219/219 212/220/220 61/199/199 226/212/212
f 258/221/221 153/222/222 60/196/196 188/209/209
f 257/223/223 219/224/224 65/214/214 105/206/206
f 256/225/225 134/226/226 64/211/211 90/203/203
f 255/227/227 129/228/228 62/208/208 240/200/200
f 254/229/229 235/230/230 57/193/193 213/197/197
f 253/231/231 115/232/232 58/205/205 223/194/194
f 4/233/233 139/234/234 106/235/235
f 7/236/236 110/237/237 127/238/238
f 11/239/239 218/240/240 149/241/241
f 15/242/242 170/243/243 172/244/244
f 6/245/245 185/246/246 121/247/247
f 10/248/248 148/249/249 142/250/250
f 14/251/251 160/252/252 162/253/253
f 1/254/254 152/255/255 94/256/256
f 252/257/257 161/258/258 69/259/259 238/260/260
f 251/261/261 113/262/262 73/263/263 197/264/264
f 250/265/265 88/266/266 68/267/267 89/268/268
f 249/269/269 211/270/270 72/271/271 231/272/272
f 248/273/273 124/274/274 75/275/275 157/276/276
f 247/277/277 140/278/278 71/279/279 82/280/280
f 246/281/281 166/282/282 67/283/283 120/284/284
f 245/285/285 206/286/286 74/287/287 237/288/288
f 244/289/289 239/290/290 70/291/291 150/292/292
f 243/293/293 174/294/294 76/295/295 171/296/296
f 124/274/274 243/293/293 171/296/296 75/275/275
f 74/287/287 197/264/264 243/293/293 124/274/274
f 197/264/264 73/263/263 174/294/294 243/293/293
f 119/297/297 244/289/289 150/292/292 79/298/298
f 81/299/299 120/284/284 244/289/289 119/297/297
f 120/284/284 67/283/283 239/290/290 244/289/289
f 186/300/300 245/285/285 237/288/288 77/301/301
f 80/302/302 82/303/280 245/285/285 186/300/300
f 82/303/280 71/304/279 206/286/286 245/285/285
f 126/305/303 246/281/281 120/284/284 81/299/299
f 78/306/304 157/276/276 246/281/281 126/305/303
f 157/276/276 75/275/275 166/282/282 246/281/281
f 202/307/305 247/277/277 82/280/280 80/308/302
f 79/298/298 150/292/292 247/277/277 202/307/305
f 150/292/292 70/291/291 140/278/278 247/277/277
f 210/309/306 248/273/273 157/276/276 78/306/304
f 77/301/301 237/288/288 248/273/273 210/309/306
f 237/288/288 74/287/287 124/274/274 248/273/273
f 140/278/278 249/269/269 231/272/272 71/279/279
f 70/291/291 238/260/260 249/269/269 140/278/278
f 238/260/260 69/259/259 211/270/270 249/269/269
f 166/282/282 250/265/265 89/268/268 67/283/283
f 75/275/275 171/296/296 250/265/265 166/282/282
f 171/296/296 76/295/295 88/266/266 250/265/265
f 206/286/286 251/261/261 197/264/264 74/287/287
f 71/304/279 231/310/272 251/261/261 206/286/286
f 231/310/272 72/311/271 113/262/262 251/261/261
f 239/290/290 252/257/257 238/260/260 70/291/291
f 67/283/283 89/268/268 252/257/257 239/290/290
f 89/268/268 68/267/267 161/258/258 252/257/257
f 94/256/256 106/235/235 66/312/307
f 94/256/256 152/255/255 106/235/235
f 152/255/255 4/233/233 106/235/235
f 162/253/253 172/244/244 66/312/307
f 162/253/253 160/252/252 172/244/244
f 160/252/252 15/242/242 172/244/244
f 142/250/250 149/241/241 66/312/307
f 142/250/250 148/249/249 149/241/241
f 148/249/249 11/239/239 149/241/241
f 121/247/247 127/238/238 66/312/307
f 121/247/247 185/246/246 127/238/238
f 185/246/246 7/236/236 127/238/238
f 172/244/244 94/256/256 66/312/307
f 172/244/244 170/243/243 94/256/256
f 170/243/243 1/254/254 94/256/256
f 149/241/241 162/253/253 66/312/307
f 149/241/241 218/240/240 162/253/253
f 218/240/240 14/251/251 162/253/253
f 127/238/238 142/250/250 66/312/307
f 127/238/238 110/237/237 142/250/250
f 110/237/237 10/248/248 142/250/250
f 106/235/235 121/247/247 66/312/307
f 106/235/235 139/234/234 121/247/247
f 139/234/234 6/245/245 121/247/247
f 235/230/230 253/231/231 223/194/194 57/193/193
f 56/313/191 136/314/188 253/231/231 235/230/230
f 136/314/188 54/315/187 115/232/232 253/231/231
f 153/222/222 254/229/229 213/197/197 60/196/196
f 55/316/175 173/317/192 254/229/229 153/222/222
f 173/317/192 56/313/191 235/230/230 254/229/229
f 212/220/220 255/227/227 240/200/200 61/199/199
f 50/318/179 200/319/164 255/227/227 212/220/220
f 200/319/164 49/320/163 129/228/228 255/227/227
f 198/218/218 256/225/225 90/203/203 63/202/202
f 52/321/183 180/322/168 256/225/225 198/218/218
f 180/322/168 51/323/167 134/226/226 256/225/225
f 115/232/232 257/223/223 105/206/206 58/205/205
f 54/315/187 159/324/172 257/223/223 115/232/232
f 159/324/172 53/325/171 219/224/224 257/223/223
f 129/228/228 258/221/221 188/209/209 62/208/208
f 49/320/163 241/326/176 258/221/221 129/228/228
f 241/326/176 55/316/175 153/222/222 258/221/221
f 134/226/226 259/219/219 226/212/212 64/211/211
f 51/323/167 99/327/180 259/219/219 134/226/226
f 99/327/180 50/318/179 212/220/220 259/219/219
f 219/224/224 260/217/217 158/215/215 65/214/214
f 53/325/171 92/328/184 260/217/217 219/224/224
f 92/328/184 52/321/183 198/218/218 260/217/217
f 116/216/216 122/204/204 59/329/308
f 116/216/216 158/215/215 122/204/204
f 158/215/215 63/202/202 122/204/204
f 207/213/213 111/201/201 59/329/308
f 207/213/213 226/212/212 111/201/201
f 226/212/212 61/199/199 111/201/201
f 184/210/210 203/198/198 59/329/308
f 184/210/210 188/209/209 203/198/198
f 188/209/209 60/196/196 203/198/198
f 132/207/207 116/216/216 59/329/308
f 132/207/207 105/206/206 116/216/216
f 105/206/206 65/214/214 116/216/216
f 122/204/204 207/213/213 59/329/308
f 122/204/204 90/203/203 207/213/213
f 90/203/203 64/211/211 207/213/213
f 111/201/201 184/210/210 59/329/308
f 111/201/201 240/200/200 184/210/210
f 240/200/200 62/208/208 184/210/210
f 203/198/198 135/195/195 59/329/308
f 203/198/198 213/197/197 135/195/195
f 213/197/197 57/193/193 135/195/195
f 135/195/195 132/207/207 59/329/308
f 135/195/195 223/194/194 132/207/207
f 223/194/194 58/205/205 132/207/207
f 130/174/174 261/189/189 173/192/192 55/175/175
f 41/330/131 181/331/148 261/189/189 130/174/174
f 181/331/148 48/332/147 199/190/190 261/189/189
f 199/190/190 262/185/185 136/188/188 56/191/191
f 48/332/147 233/333/144 262/185/185 199/190/190
f 233/333/144 47/334/143 183/186/186 262/185/185
f 107/170/170 263/181/181 92/184/184 53/171/171
f 46/335/159 227/336/140 263/181/181 107/170/170
f 227/336/140 45/337/139 191/182/182 263/181/181
f 131/166/166 264/177/177 99/180/180 51/167/167
f 44/338/155 192/339/136 264/177/177 131/166/166
f 192/339/136 43/340/135 143/178/178 264/177/177
f 95/162/162 265/173/173 241/176/176 49/163/163
f 42/341/151 215/342/132 265/173/173 95/162/162
f 215/342/132 41/330/131 130/174/174 265/173/173
f 183/186/186 266/169/169 159/172/172 54/187/187
f 47/334/143 133/343/160 266/169/169 183/186/186
f 133/343/160 46/335/159 107/170/170 266/169/169
f 191/182/182 267/165/165 180/168/168 52/183/183
f 45/337/139 108/344/156 267/165/165 191/182/182
f 108/344/156 44/338/155 131/166/166 267/165/165
f 143/178/178 268/161/161 200/164/164 50/179/179
f 43/340/135 117/345/152 268/161/161 143/178/178
f 117/345/152 42/341/151 95/162/162 268/161/161
f 178/142/142 269/157/157 133/160/160 47/143/143
f 37/346/107 194/347/124 269/157/157 178/142/142
f 194/347/124 36/348/123 214/158/158 269/157/157
f 144/138/138 270/153/153 108/156/156 45/139/139
f 35/349/103 201/350/120 270/153/153 144/138/138
f 201/350/120 34/351/119 229/154/154 270/153/153
f 167/134/134 271/149/149 117/152/152 43/135/135
f 33/352/99 104/353/116 271/149/149 167/134/134
f 104/353/116 40/354/115 228/150/150 271/149/149
f 175/130/130 272/145/145 181/148/148 41/131/131
f 39/355/127 168/356/112 272/145/145 175/130/130
f 168/356/112 38/357/111 84/146/146 272/145/145
f 84/146/146 273/141/141 233/144/144 48/147/147
f 38/357/111 97/358/108 273/141/141 84/146/146
f 97/358/108 37/346/107 178/142/142 273/141/141
f 214/158/158 274/137/137 227/140/140 46/159/159
f 36/348/123 123/359/104 274/137/137 214/158/158
f 123/359/104 35/349/103 144/138/138 274/137/137
f 229/154/154 275/133/133 192/136/136 44/155/155
f 34/351/119 147/360/100 275/133/133 229/154/154
f 147/360/100 33/352/99 167/134/134 275/133/133
f 228/150/150 276/129/129 215/132/132 42/151/151
f 40/354/115 103/361/128 276/129/129 228/150/150
f 103/361/128 39/355/127 175/130/130 276/129/129
f 109/114/114 277/125/125 103/128/128 40/115/115
f 27/362/71 83/363/84 277/125/125 109/114/114
f 83/363/84 26/364/83 176/126/126 277/125/125
f 154/106/106 278/121/121 194/124/124 37/107/107
f 32/365/95 195/366/80 278/121/121 154/106/106
f 195/366/80 31/367/79 224/122/122 278/121/121
f 163/102/102 279/117/117 201/120/120 35/103/103
f 30/368/91 189/369/76 279/117/117 163/102/102
f 189/369/76 29/370/75 190/118/118 279/117/117
f 242/98/98 280/113/113 104/116/116 33/99/99
f 28/371/87 156/372/72 280/113/113 242/98/98
f 156/372/72 27/362/71 109/114/114 280/113/113
f 176/126/126 281/109/109 168/112/112 39/127/127
f 26/364/83 179/373/68 281/109/109 176/126/126
f 179/373/68 25/374/67 100/110/110 281/109/109
f 100/110/110 282/105/105 97/108/108 38/111/111
f 25/374/67 145/375/96 282/105/105 100/110/110
f 145/375/96 32/365/95 154/106/106 282/105/105
f 224/122/122 283/101/101 123/104/104 36/123/123
f 31/367/79 98/376/92 283/101/101 224/122/122
f 98/376/92 30/368/91 163/102/102 283/101/101
f 190/118/118 284/97/97 147/100/100 34/119/119
f 29/370/75 234/377/88 284/97/97 190/118/118
f 234/377/88 28/371/87 242/98/98 284/97/97
f 193/66/66 285/93/93 145/96/96 25/67/67
f 24/378/59 137/379/56 285/93/93 193/66/66
f 137/379/56 20/380/55 85/94/94 285/93/93
f 164/78/78 286/89/89 98/92/92 31/79/79
f 19/381/39 216/382/52 286/89/89 164/78/78
f 216/382/52 18/383/51 222/90/90 286/89/89
f 169/74/74 287/85/85 234/88/88 29/75/75
f 17/384/35 196/385/48 287/85/85 169/74/74
f 196/385/48 23/386/47 96/86/86 287/85/85
f 187/70/70 288/81/81 83/84/84 27/71/71
f 22/387/63 101/388/44 288/81/81 187/70/70
f 101/388/44 21/389/43 118/82/82 288/81/81
f 85/94/94 289/77/77 195/80/80 32/95/95
f 20/380/55 128/390/40 289/77/77 85/94/94
f 128/390/40 19/381/39 164/78/78 289/77/77
f 222/90/90 290/73/73 189/76/76 30/91/91
f 18/383/51 151/391/36 290/73/73 222/90/90
f 151/391/36 17/384/35 169/74/74 290/73/73
f 96/86/86 291/69/69 156/72/72 28/87/87
f 23/386/47 177/392/64 291/69/69 96/86/86
f 177/392/64 22/387/63 187/70/70 291/69/69
f 118/82/82 292/65/65 179/68/68 26/83/83
f 21/389/43 91/393/60 292/65/65 118/82/82
f 91/393/60 24/378/59 193/66/66 292/65/65
f 155/46/46 293/61/61 177/64/64 23/47/47
f 9/394/11 205/395/10 293/61/61 155/46/46
f 205/395/10 8/396/23 182/62/62 293/61/61
f 86/42/42 294/57/57 91/60/60 21/43/43
f 5/397/7 209/398/6 294/57/57 86/42/42
f 209/398/6 3/399/3 204/58/58 294/57/57
f 204/58/58 295/53/53 137/56/56 24/59/59
f 3/399/3 225/400/2 295/53/53 204/58/58
f 225/400/2 2/401/19 217/54/54 295/53/53
f 112/38/38 296/49/49 216/52/52 19/39/39
f 16/402/31 232/403/30 296/49/49 112/38/38
f 232/403/30 13/404/15 221/50/50 296/49/49
f 146/34/34 297/45/45 196/48/48 17/35/35
f 12/405/27 220/406/26 297/45/45 146/34/34
f 220/406/26 9/394/11 155/46/46 297/45/45
f 182/62/62 298/41/41 101/44/44 22/63/63
f 8/396/23 102/407/22 298/41/41 182/62/62
f 102/407/22 5/397/7 86/42/42 298/41/41
f 217/54/54 299/37/37 128/40/40 20/55/55
f 2/401/19 236/408/18 299/37/37 217/54/54
f 236/408/18 16/402/31 112/38/38 299/37/37
f 221/50/50 300/33/33 151/36/36 18/51/51
f 13/404/15 138/409/14 300/33/33 221/50/50
f 138/409/14 12/405/27 146/34/34 300/33/33
f 160/410/252 301/29/29 93/32/32 15/411/242
f 14/412/251 87/16/16 301/29/29 160/410/252
f 87/16/16 13/15/15 232/30/30 301/29/29
f 148/413/249 302/25/25 208/28/28 11/414/239
f 10/415/248 230/12/12 302/25/25 148/413/249
f 230/12/12 9/11/11 220/26/26 302/25/25
f 185/416/246 303/21/21 125/24/24 7/417/236
f 6/418/245 114/8/8 303/21/21 185/416/246
f 114/8/8 5/7/7 102/22/22 303/21/21
f 170/419/243 304/17/17 165/20/20 1/420/254
f 15/411/242 93/32/32 304/17/17 170/419/243
f 93/32/32 16/31/31 236/18/18 304/17/17
f 218/421/240 305/13/13 87/16/16 14/412/251
f 11/414/239 208/28/28 305/13/13 218/421/240
f 208/28/28 12/27/27 138/14/14 305/13/13
f 110/422/237 306/9/9 230/12/12 10/415/248
f 7/417/236 125/24/24 306/9/9 110/422/237
f 125/24/24 8/23/23 205/10/10 306/9/9
f 139/423/234 307/5/5 114/8/8 6/418/245
f 4/424/233 141/4/4 307/5/5 139/423/234
f 141/4/4 3/3/3 209/6/6 307/5/5
f 152/425/255 308/1/1 141/4/4 4/424/233
f 1/420/254 165/20/20 308/1/1 152/425/255
f 165/20/20 2/19/19 225/2/2 308/1/1
