# Blender v2.78 (sub 0) OBJ File: ''
# www.blender.org
mtllib Pine_Tree_m_03.mtl
o Pine_Tree_m_03
v -0.165466 0.773422 0.224600
v -0.112147 3.157990 0.173121
v -0.175749 3.160255 -0.032148
v -0.239576 0.773906 -0.071754
v 0.018876 0.774302 -0.233001
v 0.000780 3.166168 -0.156810
v 0.173193 3.154815 -0.027081
v 0.254604 0.762951 -0.032144
v 0.138242 0.768883 0.246992
v 0.102998 3.157680 0.177983
v 0.322237 0.008712 -0.080415
v 0.182540 0.008778 0.281483
v -0.311337 0.009202 -0.116275
v 0.017756 0.009341 -0.329465
v -0.207750 0.008837 0.263349
v -0.841228 1.642895 -1.344734
v -0.694550 3.102283 -0.776262
v -0.055541 3.087637 -0.974286
v 0.361397 1.021043 -1.780605
v 0.601499 3.096670 -0.690653
v 1.272325 1.668537 -0.866656
v 1.679885 1.076486 0.399161
v 0.789779 3.081551 -0.043016
v 0.509591 3.111310 0.609817
v 0.756707 1.722042 1.318189
v -0.469905 1.086418 1.785037
v -0.127721 3.107988 0.805154
v -0.773129 3.126870 0.516543
v -1.347709 1.688960 0.823821
v -1.769904 1.034691 -0.402231
v -0.963609 3.099026 -0.116221
v -0.136589 2.741054 1.573997
v -1.447847 2.176375 0.949788
v -1.573506 2.584529 -0.130987
v -0.906806 2.064551 -1.505787
v 1.471865 2.180388 -1.182252
v 1.549310 2.757311 0.138550
v 0.916487 2.309703 1.443875
v 0.165490 2.583135 -1.802729
v -0.028085 5.254734 -0.208779
v 0.166757 5.258752 -0.126683
v 0.243036 5.264025 0.070671
v 0.161231 5.267833 0.267715
v -0.031870 5.267053 0.344739
v -0.226368 5.264003 0.262015
v -0.303054 5.260870 0.067321
v -0.220472 5.254451 -0.129552
v 1.102192 4.098364 1.171871
v 0.014600 3.587541 1.583846
v -1.045490 4.153871 1.154349
v -1.486339 3.698846 0.073393
v -1.031322 4.242043 -1.013924
v 0.068016 3.708736 -1.455780
v 1.137961 4.172951 -0.996788
v 1.531900 3.587248 0.102359
v 0.198577 6.491234 -0.141478
v 0.280653 6.494476 0.061625
v 0.197566 6.498058 0.264391
v -0.003799 6.496623 0.347204
v -0.204567 6.494064 0.263463
v -0.287073 6.489188 0.060312
v -0.203713 6.487041 -0.142313
v -0.002344 6.487088 -0.225685
v 1.263122 5.692210 0.046632
v 0.926741 5.225949 0.989516
v 0.004585 5.628773 1.314536
v -0.911752 5.189838 0.982156
v -1.249547 5.646257 0.040872
v -0.909711 5.249606 -0.872518
v 0.927031 5.284225 -0.871955
v 0.005806 5.710540 -1.226544
v -0.035135 7.174742 -0.443350
v -0.409908 7.167204 -0.288309
v 0.003351 8.793743 0.147939
v 0.369552 7.176944 -0.286789
v 0.368683 7.187629 0.466771
v 0.524210 7.187819 0.090171
v -0.410641 7.177491 0.465219
v -0.036259 7.189580 0.621527
v -0.564929 7.173961 0.088023
v -0.052360 2.529755 0.037621
v -0.300635 2.092286 1.299373
v -0.908624 1.391019 1.306408
v -0.149217 0.009277 -0.226608
v -0.932976 1.778777 -0.187878
v -1.086239 5.417858 0.514108
v 0.053945 2.832780 -1.391988
v -0.720628 2.100490 0.443845
v -0.484399 3.975743 -1.241753
v 1.237875 2.534161 0.796538
v -1.371608 2.062377 -0.261124
v -0.458478 2.076802 -0.674210
v -1.272674 3.926462 0.616810
v -0.004611 3.157840 0.177973
v 1.477542 1.375873 -0.232046
v 0.138401 0.768601 -0.134522
v -0.084479 4.010020 0.957248
v 0.069263 3.923680 -1.003862
v -1.307012 1.342098 -0.872882
v -0.015980 6.397891 0.974502
v 0.165781 7.200516 0.543317
v -0.222934 7.195470 0.542546
v 0.560550 5.863988 0.625185
v -0.894397 4.479258 0.071286
v -0.129577 5.265539 0.304486
v 0.653266 3.096370 0.285349
v 0.140382 3.156178 0.076243
v 0.160882 1.771772 -0.894050
v -0.617995 5.365572 -0.578841
v 1.323656 3.842470 0.640186
v -0.238559 1.335278 -1.563656
v -0.222007 7.182759 -0.364222
v 1.100671 5.488396 -0.415288
v -0.008098 4.425486 0.964337
v 0.009812 1.977134 -0.194730
v 0.203236 5.265953 0.169656
v -0.803099 2.575614 -1.144640
v -0.796348 2.458816 1.267231
v 0.653214 6.217688 -0.584614
v 0.188484 7.996222 -0.071132
v -0.765933 6.073551 0.050324
v -0.246981 6.491626 0.162370
v 0.887236 4.423746 0.086387
v 0.213827 1.965685 -0.029499
v 0.468252 5.427238 1.157701
v 0.018432 0.380062 -0.282404
v 0.836108 1.800452 0.224553
v -0.012819 0.008805 0.276824
v -0.664842 6.195332 -0.585662
v 0.445411 7.199568 0.278335
v -0.625558 5.324866 0.709688
v 0.097362 6.497371 0.306969
v 0.630864 2.090120 -0.426696
v -0.262858 5.257646 -0.031576
v 0.669384 5.332662 -0.569777
v 0.469005 5.497621 -1.054912
v -0.207595 1.973938 -0.051810
v 0.274929 3.092160 -0.836118
v -1.519513 2.380253 0.412768
v -0.103507 6.487032 -0.185171
v -0.088879 3.163293 -0.096454
v -0.560926 3.659332 -0.816971
v 0.715323 2.703418 1.028958
v -0.376765 3.094941 -0.879346
v -0.205011 0.773682 0.077037
v -0.486080 7.182418 -0.099231
v -0.634212 4.712334 0.709105
v -0.836463 3.720852 0.603816
v -0.832675 3.100600 -0.448127
v -0.205949 7.996942 0.308762
v 0.561212 3.842707 1.384545
v -0.452360 3.117538 0.664434
v -0.015988 7.993037 -0.150371
v -0.454546 5.480206 -1.055173
v 0.606142 3.941080 -1.233162
v -1.085205 5.447912 -0.418444
v -0.556591 5.843553 0.621090
v -0.131054 2.922356 1.190652
v -0.138757 1.972563 0.198901
v -0.263820 0.009018 0.074698
v -0.187336 0.379402 0.244801
v 0.188037 8.002008 0.309530
v 1.100529 5.459102 0.520724
v -0.284093 7.992942 0.118267
v 0.192551 3.109692 0.711550
v 1.039537 2.631081 -0.940393
v 1.239086 2.073864 0.178863
v -0.276492 0.379819 -0.094505
v 0.536435 3.790367 0.855482
v 0.142030 1.407626 1.553453
v 1.219852 1.402705 0.858866
v -1.265707 3.970795 -0.473118
v -0.770406 2.373327 -1.063297
v -0.124730 5.254547 -0.170273
v 0.289545 0.374087 -0.056540
v 0.069788 5.256721 -0.168843
v -0.626556 4.752533 -0.569473
v 0.088440 3.160510 -0.093893
v 0.823114 2.381500 -1.499673
v -1.560081 1.365146 0.209772
v 0.001598 6.104872 -0.724037
v 0.561040 5.889657 -0.505454
v 0.769521 6.099844 0.053752
v -0.666239 6.170334 0.728343
v 0.065132 5.267471 0.307342
v -0.373530 2.323319 -1.663160
v 0.634888 2.416698 0.965874
v -0.887722 5.090692 0.066962
v 1.519247 2.469050 -0.524920
v -0.013801 0.771178 0.238344
v -0.205579 7.991349 -0.071915
v -0.555196 5.869810 -0.506075
v -0.518333 3.870454 1.375758
v 0.632400 4.685645 0.718571
v 0.816717 1.348101 -1.324869
v 0.818860 3.720276 -0.652747
v -1.270593 2.839139 -0.123171
v 0.699685 3.089015 -0.368465
v -1.245438 2.324047 -0.821869
v -0.486445 7.187623 0.276493
v -0.104666 6.495364 0.306503
v 0.198812 0.765845 0.108414
v -0.456191 5.409064 1.153981
v 0.938819 2.382908 -0.780422
v -0.267060 1.805508 0.934557
v 0.652632 6.193645 0.732836
v 0.650834 5.298705 0.718957
v 0.256519 0.008742 0.102121
v 0.364150 2.117620 0.699575
v 0.205997 5.261389 -0.028469
v 0.893785 4.016816 0.105293
v 0.153784 2.049754 -1.381760
v 0.005563 5.038350 0.966765
v 1.341620 3.879887 -0.449939
v 1.171368 2.917280 0.046073
v 0.172783 0.009028 -0.208359
v 0.650702 4.719308 -0.560851
v 0.160986 0.377091 0.265163
v -0.111721 0.774157 -0.154581
v 0.019419 4.481170 -0.830665
v -0.914118 6.398870 0.064086
v 0.000495 6.068914 0.828367
v 0.240269 6.496290 0.163495
v -0.146258 3.159087 0.071195
v -0.016563 8.001080 0.387978
v 0.907670 5.036846 0.082207
v -0.265811 5.262453 0.165122
v 0.392999 2.525902 1.517540
v -0.872311 3.113020 0.201800
v 0.033235 5.094359 -0.841869
v 0.120580 1.970132 0.212535
v -0.014801 6.431704 -0.842107
v 0.166778 7.187605 -0.363461
v -0.935695 3.927473 -0.031927
v 0.900419 6.429015 0.068071
v 0.445846 7.194162 -0.097400
v 0.098599 6.489142 -0.184752
v -1.063068 2.408463 0.671693
v 0.240776 6.492858 -0.040409
v 0.267051 7.999891 0.119350
v -0.246553 6.488090 -0.041488
v -1.113394 2.644176 0.734882
v -0.341667 6.313563 -0.717873
v 0.320981 6.324806 -0.717357
v 0.780552 6.311361 0.402264
v -0.342963 6.284006 0.855405
v -0.793427 6.297067 -0.262584
v 0.780843 6.323445 -0.260066
v 0.320099 6.295734 0.857674
v -0.794132 6.284496 0.397993
v 0.282854 5.997374 -0.618162
v -0.278336 5.987391 -0.618463
v -0.664637 5.958457 0.337245
v 0.282056 5.966405 0.730199
v 0.668659 5.994841 -0.227406
v -0.663932 5.971658 -0.229430
v -0.279593 5.956123 0.728131
v 0.668414 5.981938 0.341037
v -0.756876 5.228295 -0.257610
v -0.311683 5.181492 0.842142
v 0.783137 5.167619 0.402361
v 0.353128 5.213619 -0.709847
v -0.293992 5.230126 -0.714392
v -0.760601 5.207830 0.390036
v 0.329845 5.168420 0.846790
v 0.792453 5.184649 -0.245389
v 0.772864 4.571422 -0.238826
v -0.764462 4.616064 -0.250750
v -0.322828 4.568789 0.840606
v 0.763674 4.554540 0.404246
v 0.336863 4.600346 -0.699753
v -0.305167 4.617005 -0.704073
v -0.768235 4.595856 0.391893
v 0.313785 4.555457 0.845355
v -0.247494 3.791221 -0.915421
v -0.891048 3.824071 0.287855
v 0.227729 3.900469 0.911225
v 0.861203 3.868647 -0.275493
v -0.751499 3.793149 -0.426420
v -0.462766 3.865492 0.783756
v 0.718149 3.903930 0.483282
v 0.446505 3.821836 -0.832452
v 0.947624 2.810646 0.541153
v 0.549934 2.731803 -1.171606
v -0.376873 2.703925 -1.274801
v -1.198383 2.741594 0.308359
v 0.294467 2.813170 1.116139
v 1.111805 2.774233 -0.449510
v -1.041285 2.707103 -0.636589
v -0.625257 2.783371 0.967229
v -1.223338 2.235443 0.206036
v 0.167807 2.254609 1.138849
v 1.095066 2.228343 -0.301580
v -1.076436 2.217752 -0.664897
v -0.684596 2.250469 0.991110
v 0.942429 2.245349 0.575107
v 0.549032 2.216267 -1.086718
v -0.309106 2.211443 -1.228704
v 0.169255 1.967847 0.092310
v -0.234762 0.379619 0.075890
v 0.155864 0.377062 -0.171728
v -0.013349 0.378258 0.257909
v -0.130625 0.379969 -0.190957
v 0.228009 0.375552 0.105402
v -0.100100 1.975593 -0.125112
v -0.009197 1.971362 0.207900
v 0.113195 1.971404 -0.113820
v -0.175287 1.973246 0.074118
vt 0.7997 0.9476
vt 0.7995 0.9769
vt 0.7933 0.9769
vt 0.7936 0.9475
vt 0.8365 0.9477
vt 0.8363 0.9775
vt 0.8302 0.9775
vt 0.8303 0.9477
vt 0.8119 0.9476
vt 0.8119 0.9770
vt 0.8058 0.9769
vt 0.8058 0.9476
vt 0.7874 0.9475
vt 0.7872 0.9770
vt 0.7810 0.9772
vt 0.7812 0.9475
vt 0.8244 0.9068
vt 0.8242 0.9180
vt 0.8180 0.9181
vt 0.8182 0.9070
vt 0.7874 0.9070
vt 0.7876 0.9181
vt 0.7815 0.9179
vt 0.7812 0.9068
vt 0.8120 0.9072
vt 0.8119 0.9182
vt 0.8058 0.9183
vt 0.8059 0.9073
vt 0.8367 0.9068
vt 0.8367 0.9180
vt 0.8304 0.9179
vt 0.8305 0.9067
vt 0.7997 0.9073
vt 0.7998 0.9182
vt 0.7938 0.9182
vt 0.7936 0.9073
vt 0.8242 0.9477
vt 0.8241 0.9773
vt 0.8181 0.9772
vt 0.8181 0.9476
vt 0.5888 0.3405
vt 0.5810 0.3289
vt 0.5876 0.3225
vt 0.6001 0.3303
vt 0.6004 0.3150
vt 0.5877 0.3135
vt 0.5877 0.3045
vt 0.6006 0.2997
vt 0.5632 0.2777
vt 0.5657 0.2911
vt 0.5564 0.2907
vt 0.5478 0.2775
vt 0.5263 0.3131
vt 0.5425 0.3124
vt 0.5423 0.3218
vt 0.5262 0.3278
vt 0.5623 0.3500
vt 0.5650 0.3350
vt 0.5743 0.3352
vt 0.5775 0.3507
vt 0.5896 0.2888
vt 0.5813 0.2980
vt 0.5750 0.2915
vt 0.5786 0.2779
vt 0.5371 0.2879
vt 0.5495 0.2969
vt 0.5427 0.3031
vt 0.5263 0.2984
vt 0.5367 0.3385
vt 0.5490 0.3283
vt 0.5557 0.3348
vt 0.5471 0.3492
vt 0.5205 0.3127
vt 0.5203 0.3285
vt 0.5091 0.3326
vt 0.5094 0.3130
vt 0.5598 0.2745
vt 0.5433 0.2746
vt 0.5376 0.2657
vt 0.5586 0.2653
vt 0.5877 0.3398
vt 0.6008 0.3278
vt 0.6124 0.3307
vt 0.5946 0.3464
vt 0.5315 0.3399
vt 0.5426 0.3512
vt 0.5366 0.3610
vt 0.5229 0.3468
vt 0.5320 0.2857
vt 0.5207 0.2968
vt 0.5096 0.2933
vt 0.5236 0.2795
vt 0.5887 0.2852
vt 0.5763 0.2745
vt 0.5796 0.2649
vt 0.5960 0.2779
vt 0.6010 0.3119
vt 0.6011 0.2960
vt 0.6124 0.2909
vt 0.6124 0.3108
vt 0.5586 0.3514
vt 0.5746 0.3517
vt 0.5768 0.3620
vt 0.5567 0.3615
vt 0.5938 0.3155
vt 0.5940 0.3277
vt 0.5739 0.3200
vt 0.5736 0.3147
vt 0.5602 0.2841
vt 0.5725 0.2840
vt 0.5657 0.3021
vt 0.5604 0.3021
vt 0.5307 0.3144
vt 0.5306 0.3019
vt 0.5480 0.3099
vt 0.5482 0.3151
vt 0.5621 0.3446
vt 0.5490 0.3444
vt 0.5563 0.3273
vt 0.5614 0.3275
vt 0.5831 0.2937
vt 0.5937 0.3034
vt 0.5733 0.3094
vt 0.5695 0.3058
vt 0.5392 0.2930
vt 0.5478 0.2842
vt 0.5551 0.3021
vt 0.5516 0.3060
vt 0.5399 0.3357
vt 0.5308 0.3270
vt 0.5485 0.3204
vt 0.5524 0.3239
vt 0.5846 0.3362
vt 0.5752 0.3447
vt 0.5665 0.3276
vt 0.5702 0.3238
vt 0.5390 0.3382
vt 0.5486 0.3477
vt 0.5414 0.3625
vt 0.5275 0.3487
vt 0.5389 0.2920
vt 0.5293 0.3016
vt 0.5133 0.2959
vt 0.5272 0.2818
vt 0.5852 0.2921
vt 0.5756 0.2824
vt 0.5807 0.2677
vt 0.5946 0.2818
vt 0.5947 0.3152
vt 0.5947 0.3018
vt 0.6084 0.2959
vt 0.6083 0.3155
vt 0.5621 0.3478
vt 0.5756 0.3478
vt 0.5805 0.3626
vt 0.5610 0.3626
vt 0.5294 0.3151
vt 0.5294 0.3286
vt 0.5136 0.3350
vt 0.5135 0.3155
vt 0.5620 0.2824
vt 0.5484 0.2824
vt 0.5411 0.2677
vt 0.5609 0.2677
vt 0.5852 0.3383
vt 0.5947 0.3288
vt 0.6082 0.3351
vt 0.5943 0.3489
vt 0.5819 0.2956
vt 0.5900 0.3035
vt 0.5691 0.3135
vt 0.5677 0.3120
vt 0.5434 0.2956
vt 0.5513 0.2877
vt 0.5622 0.3105
vt 0.5607 0.3119
vt 0.5431 0.3340
vt 0.5352 0.3259
vt 0.5593 0.3176
vt 0.5608 0.3190
vt 0.5819 0.3343
vt 0.5739 0.3425
vt 0.5662 0.3203
vt 0.5676 0.3189
vt 0.5899 0.3148
vt 0.5899 0.3262
vt 0.5689 0.3174
vt 0.5690 0.3155
vt 0.5626 0.2877
vt 0.5739 0.2876
vt 0.5663 0.3106
vt 0.5642 0.3106
vt 0.5353 0.3147
vt 0.5354 0.3035
vt 0.5592 0.3134
vt 0.5592 0.3155
vt 0.5624 0.3423
vt 0.5510 0.3422
vt 0.5622 0.3204
vt 0.5642 0.3203
vt 0.5824 0.3338
vt 0.5912 0.3252
vt 0.6100 0.3356
vt 0.5953 0.3500
vt 0.5404 0.3338
vt 0.5490 0.3424
vt 0.5397 0.3641
vt 0.5252 0.3497
vt 0.5402 0.2916
vt 0.5315 0.3004
vt 0.5103 0.2941
vt 0.5247 0.2793
vt 0.5913 0.3128
vt 0.5914 0.3004
vt 0.6106 0.2941
vt 0.6103 0.3148
vt 0.5613 0.3424
vt 0.5735 0.3425
vt 0.5805 0.3643
vt 0.5601 0.3642
vt 0.5316 0.3128
vt 0.5317 0.3251
vt 0.5107 0.3353
vt 0.5105 0.3147
vt 0.5613 0.2828
vt 0.5489 0.2828
vt 0.5392 0.2645
vt 0.5602 0.2645
vt 0.5826 0.2916
vt 0.5738 0.2828
vt 0.5811 0.2645
vt 0.5958 0.2793
vt 0.4364 0.3308
vt 0.4305 0.3304
vt 0.4344 0.3235
vt 0.4463 0.3223
vt 0.4413 0.3266
vt 0.4394 0.3193
vt 0.4387 0.2997
vt 0.4430 0.3047
vt 0.4355 0.3080
vt 0.4161 0.3094
vt 0.4204 0.3047
vt 0.4243 0.3128
vt 0.4247 0.3300
vt 0.4209 0.3257
vt 0.4286 0.3232
vt 0.4472 0.3097
vt 0.4467 0.3160
vt 0.4398 0.3130
vt 0.4247 0.3000
vt 0.4317 0.2998
vt 0.4286 0.3081
vt 0.4171 0.3213
vt 0.4166 0.3153
vt 0.4248 0.3188
vt 0.4006 0.3136
vt 0.4004 0.2998
vt 0.4339 0.2814
vt 0.4475 0.2819
vt 0.4651 0.3144
vt 0.4649 0.3275
vt 0.4101 0.3369
vt 0.4008 0.3274
vt 0.4104 0.2904
vt 0.4204 0.2810
vt 0.4564 0.2916
vt 0.4653 0.3013
vt 0.4554 0.3370
vt 0.4460 0.3465
vt 0.4327 0.3465
vt 0.4196 0.3465
vt 0.6079 0.2950
vt 0.6079 0.3133
vt 0.5857 0.3048
vt 0.5814 0.3580
vt 0.5627 0.3584
vt 0.5724 0.3364
vt 0.5176 0.3335
vt 0.5176 0.3152
vt 0.5405 0.3241
vt 0.5441 0.2704
vt 0.5628 0.2700
vt 0.5538 0.2925
vt 0.6078 0.3315
vt 0.5946 0.3447
vt 0.5856 0.3231
vt 0.5440 0.3588
vt 0.5308 0.3461
vt 0.5538 0.3368
vt 0.5176 0.2969
vt 0.5308 0.2836
vt 0.5405 0.3058
vt 0.5815 0.2697
vt 0.5947 0.2824
vt 0.5725 0.2922
vt 0.5635 0.3147
vt 0.4555 0.3621
vt 0.4349 0.3626
vt 0.4144 0.3630
vt 0.4834 0.3328
vt 0.4694 0.3475
vt 0.4563 0.2641
vt 0.4699 0.2785
vt 0.4834 0.2929
vt 0.3848 0.2902
vt 0.4004 0.2761
vt 0.4160 0.2619
vt 0.3994 0.3482
vt 0.3844 0.3334
vt 0.4834 0.3128
vt 0.4362 0.2630
vt 0.3846 0.3118
vt 0.4324 0.3163
vt 0.5722 0.3067
vt 0.5694 0.3039
vt 0.5665 0.3011
vt 0.5626 0.3011
vt 0.5586 0.3011
vt 0.5528 0.3068
vt 0.5527 0.3109
vt 0.5527 0.3149
vt 0.5584 0.3207
vt 0.5625 0.3207
vt 0.5666 0.3207
vt 0.5723 0.3148
vt 0.5723 0.3108
vt 0.5557 0.3040
vt 0.5555 0.3178
vt 0.5695 0.3177
vt 0.5815 0.3646
vt 0.5606 0.3643
vt 0.5398 0.3640
vt 0.5111 0.3342
vt 0.5114 0.3139
vt 0.5117 0.2936
vt 0.5405 0.2649
vt 0.5610 0.2648
vt 0.5815 0.2647
vt 0.6108 0.2935
vt 0.6108 0.3142
vt 0.6108 0.3349
vt 0.5962 0.3497
vt 0.5254 0.3491
vt 0.5261 0.2792
vt 0.5962 0.2791
vt 0.5707 0.3330
vt 0.5760 0.3277
vt 0.5812 0.3224
vt 0.5706 0.2971
vt 0.5632 0.2971
vt 0.5558 0.2971
vt 0.5453 0.3074
vt 0.5452 0.3148
vt 0.5452 0.3223
vt 0.5558 0.3329
vt 0.5633 0.3329
vt 0.5811 0.3150
vt 0.5811 0.3076
vt 0.5759 0.3023
vt 0.5505 0.3022
vt 0.5505 0.3276
vt 0.6140 0.3353
vt 0.5990 0.3486
vt 0.5839 0.3619
vt 0.5418 0.3615
vt 0.5275 0.3475
vt 0.5131 0.3335
vt 0.5131 0.2939
vt 0.5268 0.2801
vt 0.5405 0.2663
vt 0.5794 0.2659
vt 0.5968 0.2817
vt 0.6141 0.2975
vt 0.5628 0.3617
vt 0.5131 0.3137
vt 0.5599 0.2661
vt 0.6141 0.3164
vt 0.5487 0.3413
vt 0.5605 0.3414
vt 0.5724 0.3414
vt 0.5893 0.3250
vt 0.5896 0.3130
vt 0.5898 0.3011
vt 0.5814 0.2925
vt 0.5730 0.2840
vt 0.5490 0.2835
vt 0.5404 0.2919
vt 0.5317 0.3004
vt 0.5315 0.3245
vt 0.5401 0.3329
vt 0.5809 0.3332
vt 0.5610 0.2837
vt 0.5316 0.3124
vt 0.5243 0.3487
vt 0.5385 0.3636
vt 0.5101 0.3338
vt 0.5245 0.2790
vt 0.5099 0.2937
vt 0.5392 0.2643
vt 0.5978 0.2796
vt 0.5822 0.2643
vt 0.6135 0.2948
vt 0.5597 0.3649
vt 0.5808 0.3662
vt 0.5100 0.3137
vt 0.5607 0.2643
vt 0.6130 0.3164
vt 0.6126 0.3381
vt 0.5967 0.3521
vt 0.7997 0.8964
vt 0.7934 0.8963
vt 0.8060 0.8964
vt 0.8368 0.8957
vt 0.8307 0.8954
vt 0.8430 0.8959
vt 0.8429 0.9070
vt 0.8429 0.9181
vt 0.8122 0.8961
vt 0.8184 0.8959
vt 0.7872 0.8960
vt 0.7810 0.8956
vt 0.8246 0.8957
vt 0.8426 0.9477
vt 0.8424 0.9774
vn -0.9637 0.0245 0.2659
vn -0.9600 0.0245 0.2790
vn -0.9385 0.0305 -0.3440
vn -0.9357 0.0307 -0.3515
vn 0.6291 0.0265 -0.7769
vn 0.6170 0.0264 -0.7865
vn 0.9580 0.0329 -0.2849
vn 0.9654 0.0332 -0.2587
vn -0.0512 0.0256 0.9984
vn -0.0388 0.0256 0.9989
vn -0.6161 0.0305 0.7871
vn -0.6257 0.0306 0.7794
vn -0.5504 0.0257 -0.8345
vn -0.5619 0.0255 -0.8268
vn 0.0259 0.0317 -0.9992
vn 0.0488 0.0319 -0.9983
vn 0.9266 0.0669 0.3701
vn 0.9261 0.0471 0.3744
vn 0.5270 0.0514 0.8483
vn 0.5346 0.0703 0.8422
vn -0.5343 0.1045 -0.8388
vn -0.5351 0.0645 -0.8423
vn 0.0694 0.0792 -0.9944
vn 0.0645 0.1262 -0.9899
vn -0.0583 0.0495 0.9971
vn -0.0642 0.0376 0.9972
vn -0.6352 0.0528 0.7705
vn -0.6314 0.0746 0.7719
vn 0.6383 0.1024 -0.7630
vn 0.6422 0.0638 -0.7639
vn 0.9701 0.0689 -0.2325
vn 0.9647 0.1030 -0.2422
vn -0.9646 0.0727 0.2533
vn -0.9669 0.0484 0.2507
vn -0.9290 0.0701 -0.3633
vn -0.9260 0.1086 -0.3615
vn 0.9334 0.0278 0.3577
vn 0.9390 0.0277 0.3429
vn 0.5554 0.0323 0.8309
vn 0.5449 0.0323 0.8379
vn -0.2000 0.3427 -0.9179
vn 0.2029 -0.7915 -0.5765
vn 0.1503 -0.8691 -0.4713
vn 0.1371 0.3791 -0.9151
vn 0.4569 0.3688 -0.8095
vn 0.1736 -0.8025 -0.5708
vn 0.2913 -0.9411 -0.1716
vn 0.7402 0.4146 -0.5294
vn 0.8025 0.4140 0.4297
vn 0.6296 -0.7602 0.1605
vn 0.1901 -0.9255 0.3275
vn 0.5306 0.4581 0.7132
vn -0.4656 0.4137 0.7823
vn -0.1206 -0.7935 0.5965
vn -0.2396 -0.9613 0.1362
vn -0.7474 0.4146 0.5192
vn -0.8152 0.3340 -0.4732
vn -0.4736 -0.8753 -0.0982
vn 0.1089 -0.9482 -0.2983
vn -0.5521 0.3576 -0.7532
vn 0.9032 0.3988 -0.1586
vn 0.6475 -0.7562 0.0942
vn 0.5656 -0.8185 0.1014
vn 0.8935 0.4254 0.1435
vn 0.1697 0.4339 0.8848
vn -0.0815 -0.7350 0.6732
vn -0.0192 -0.8311 0.5558
vn -0.1583 0.4487 0.8796
vn -0.9158 0.3625 0.1728
vn -0.5587 -0.8239 -0.0948
vn -0.4091 -0.9125 0.0040
vn -0.9143 0.3720 -0.1603
vn 0.4391 -0.7230 -0.5334
vn 0.0726 -0.8618 -0.5020
vn -0.1650 -0.5042 0.8477
vn -0.0641 -0.7713 0.6332
vn 0.6783 -0.5805 0.4504
vn 0.6913 -0.7165 0.0939
vn -0.7683 -0.6075 -0.2017
vn -0.5350 -0.8411 -0.0793
vn -0.5380 -0.7906 0.2923
vn -0.4966 -0.7568 0.4251
vn 0.5631 -0.7352 -0.3772
vn 0.7009 -0.6905 0.1789
vn -0.2990 -0.8078 -0.5080
vn -0.4049 -0.7780 -0.4804
vn 0.3833 -0.7493 0.5400
vn -0.1190 -0.7045 0.6996
vn 0.6790 -0.6809 -0.2745
vn 0.5939 -0.6746 -0.4383
vn -0.4892 -0.7930 0.3631
vn -0.6094 -0.7811 -0.1360
vn 0.3741 -0.6627 0.6488
vn 0.5552 -0.5848 0.5914
vn -0.3734 -0.8328 -0.4087
vn 0.0253 -0.7807 -0.6244
vn -0.3815 -0.7710 0.5099
vn 0.0073 -0.8135 0.5814
vn 0.0120 -0.5038 -0.8637
vn 0.1537 -0.7426 -0.6519
vn -0.4515 -0.8104 -0.3733
vn -0.4647 -0.8850 -0.0285
vn 0.8603 -0.4910 0.1372
vn 0.6618 -0.7367 0.1390
vn 0.4676 0.4689 -0.7493
vn 0.0313 0.5094 -0.8599
vn -0.0024 -0.9999 -0.0155
vn 0.8662 -0.4984 -0.0376
vn 0.7776 0.4045 0.4814
vn 0.8801 0.4599 0.1179
vn 0.0930 -0.9426 0.3207
vn 0.0583 -0.5477 0.8346
vn -0.5013 0.3844 0.7752
vn -0.1165 0.4363 0.8922
vn -0.3522 -0.9347 0.0484
vn -0.8431 -0.5370 0.0281
vn -0.7757 0.3925 -0.4943
vn -0.8938 0.4312 -0.1230
vn -0.0968 -0.9301 -0.3545
vn -0.0539 -0.5627 -0.8249
vn 0.8540 0.4486 -0.2636
vn 0.6978 0.4798 -0.5318
vn 0.5645 -0.7629 -0.3151
vn 0.2861 -0.6464 -0.7073
vn 0.2906 0.4152 0.8621
vn 0.5622 0.4273 0.7081
vn 0.3010 -0.8065 0.5089
vn 0.6570 -0.7015 0.2761
vn -0.8739 0.4034 0.2712
vn -0.7260 0.4117 0.5509
vn -0.5362 -0.8132 0.2265
vn -0.3483 -0.7786 0.5220
vn -0.4142 0.4405 -0.7965
vn -0.6145 0.4236 -0.6655
vn -0.4093 -0.7866 -0.4623
vn -0.8146 -0.5642 -0.1349
vn -0.0674 -0.6161 -0.7848
vn -0.4782 -0.7321 -0.4851
vn 0.5819 -0.5343 0.6131
vn 0.4954 -0.7688 0.4043
vn 0.7774 -0.6204 -0.1036
vn 0.4726 -0.7239 -0.5026
vn -0.6108 -0.5432 0.5760
vn -0.3993 -0.7844 0.4747
vn 0.0522 -0.6491 0.7589
vn 0.4670 -0.7493 0.4696
vn -0.6087 -0.5232 -0.5964
vn -0.5132 -0.7483 -0.4204
vn -0.0938 -0.6485 0.7554
vn -0.0228 -0.6379 0.7698
vn -0.0035 -0.8319 -0.5550
vn 0.4918 -0.7666 -0.4129
vn -0.7734 -0.6303 -0.0683
vn -0.7841 -0.6199 -0.0293
vn 0.5265 -0.8502 -0.0035
vn 0.4054 -0.7603 0.5074
vn 0.0580 -0.6171 -0.7847
vn -0.0064 -0.6039 -0.7970
vn -0.0170 -0.8530 0.5217
vn -0.5362 -0.7477 0.3916
vn 0.7744 -0.6281 0.0756
vn 0.7898 -0.6132 -0.0151
vn -0.5403 -0.8413 -0.0180
vn -0.3950 -0.7574 -0.5199
vn -0.7713 -0.6364 0.0121
vn -0.4901 -0.7552 0.4353
vn 0.6107 -0.5141 -0.6022
vn 0.4276 -0.7364 -0.5243
vn 0.9006 0.4039 -0.1604
vn 0.6483 0.4726 -0.5969
vn 0.0962 -0.9953 0.0075
vn 0.6313 -0.5967 0.4953
vn 0.1957 0.3976 0.8965
vn 0.6225 0.4636 0.6305
vn 0.0386 -0.9992 -0.0075
vn -0.4714 -0.6247 0.6225
vn -0.8897 0.3957 0.2277
vn -0.6192 0.4566 0.6388
vn 0.0417 -0.9982 0.0425
vn -0.6277 -0.6265 -0.4621
vn -0.2029 0.4052 -0.8914
vn -0.6234 0.4640 -0.6294
vn 0.0162 -0.9963 -0.0848
vn 0.4810 -0.5919 -0.6468
vn 0.2333 0.4091 -0.8822
vn 0.0167 0.4099 -0.9120
vn 0.0443 -0.8064 -0.5897
vn -0.4039 -0.6370 -0.6565
vn 0.8926 0.4010 0.2060
vn 0.9157 0.4011 0.0246
vn 0.5817 -0.8133 0.0136
vn 0.6364 -0.6101 -0.4720
vn -0.1982 0.3959 0.8967
vn -0.0005 0.3966 0.9180
vn 0.0269 -0.8263 0.5626
vn 0.5123 -0.5926 0.6217
vn -0.8922 0.3975 -0.2145
vn -0.9167 0.3995 0.0077
vn -0.5616 -0.8273 -0.0121
vn -0.6336 -0.6345 0.4427
vn -0.5944 -0.6533 -0.4688
vn -0.6505 -0.7595 -0.0082
vn 0.8361 -0.5479 -0.0251
vn 0.6481 -0.7501 -0.1317
vn 0.4692 -0.6320 -0.6168
vn 0.0132 -0.7305 -0.6828
vn 0.0133 -0.5849 0.8110
vn 0.1344 -0.7719 0.6213
vn 0.6071 -0.6526 0.4534
vn 0.6755 -0.7373 -0.0065
vn -0.8154 -0.5783 -0.0266
vn -0.6273 -0.7728 0.0967
vn -0.5866 -0.6705 0.4542
vn -0.5373 -0.6603 0.5247
vn 0.3931 -0.8247 -0.4066
vn 0.6512 -0.7533 0.0921
vn -0.4458 -0.6460 -0.6196
vn -0.5316 -0.6388 -0.5561
vn 0.3958 -0.8362 0.3798
vn -0.1196 -0.7721 0.6241
vn 0.6179 -0.6341 -0.4648
vn 0.5548 -0.6221 -0.5524
vn -0.3758 -0.8479 0.3739
vn -0.6226 -0.7699 -0.1398
vn 0.4840 -0.6620 0.5722
vn 0.5567 -0.6448 0.5237
vn -0.3723 -0.8358 -0.4035
vn 0.1139 -0.7384 -0.6647
vn -0.4650 -0.6752 0.5727
vn 0.0110 -0.7740 0.6331
vn 0.0165 -0.5170 -0.8558
vn -0.0968 -0.7378 -0.6680
vn -0.0190 0.4028 -0.9151
vn -0.3939 0.3562 -0.8473
vn -0.0135 0.3437 -0.9390
vn 0.6489 0.3713 -0.6641
vn 0.3691 0.3592 -0.8572
vn 0.6572 0.3318 -0.6768
vn 0.6570 0.3340 0.6759
vn 0.8646 0.3201 0.3873
vn 0.6674 0.2891 0.6863
vn -0.6763 0.3280 0.6595
vn -0.3952 0.3041 0.8668
vn -0.6784 0.3060 0.6680
vn -0.6651 0.3644 -0.6518
vn -0.8579 0.3401 -0.3851
vn -0.6638 0.3474 -0.6623
vn 0.9276 0.3737 -0.0009
vn 0.8553 0.3430 -0.3883
vn 0.9510 0.3093 -0.0014
vn -0.0219 0.3417 0.9396
vn 0.3647 0.3062 0.8793
vn -0.0170 0.2842 0.9586
vn -0.9308 0.3654 -0.0028
vn -0.8688 0.3172 0.3801
vn -0.9434 0.3316 -0.0036
vn -0.8385 0.3414 0.4247
vn -0.6659 0.3468 0.6606
vn 0.4080 0.3605 0.8388
vn 0.6465 0.3703 0.6670
vn 0.8132 0.3925 -0.4297
vn 0.6507 0.4016 -0.6444
vn -0.8278 0.3645 -0.4265
vn -0.9174 0.3980 -0.0007
vn -0.4311 0.3422 0.8349
vn -0.0133 0.3947 0.9187
vn 0.8226 0.3701 0.4317
vn 0.9024 0.4309 0.0014
vn 0.4325 0.4069 -0.8046
vn -0.0109 0.4554 -0.8902
vn -0.4508 0.3880 -0.8039
vn -0.6669 0.3785 -0.6419
vn 0.1353 -0.7739 -0.6187
vn 0.6839 -0.6761 -0.2740
vn -0.1302 -0.7779 0.6147
vn 0.6281 -0.7636 0.1497
vn 0.2926 -0.6657 0.6864
vn -0.6213 -0.7731 -0.1273
vn -0.1209 -0.7478 0.6528
vn -0.6780 -0.6807 0.2773
vn 0.1551 -0.7797 -0.6066
vn -0.6164 -0.7804 -0.1052
vn -0.2662 -0.7203 -0.6406
vn 0.6233 -0.7649 0.1628
vn 0.7675 -0.4892 -0.4143
vn 0.5276 -0.6750 -0.5158
vn -0.3952 -0.8800 0.2634
vn 0.4702 -0.4658 0.7496
vn 0.5637 -0.6363 0.5266
vn -0.2585 -0.8815 -0.3952
vn -0.7189 -0.5031 0.4797
vn -0.5009 -0.6656 0.5532
vn 0.4260 -0.8734 -0.2361
vn -0.4693 -0.5312 -0.7054
vn -0.5481 -0.6753 -0.4936
vn 0.2555 -0.8725 0.4166
vn 0.0083 -1.0000 0.0029
vn 0.0128 0.9994 0.0317
vn -0.9633 0.0733 0.2581
vn -0.9247 0.1098 -0.3645
vn -0.6302 0.0748 0.7728
vn 0.6334 0.1039 -0.7668
vn 0.9593 0.1047 -0.2624
vn 0.0565 0.1278 -0.9902
vn -0.0518 0.0495 0.9974
vn 0.5478 0.0708 0.8336
vn -0.5376 0.1060 -0.8365
vn 0.9290 0.0674 0.3638
usemtl None
s 1
f 308/1/1 224/2/2 3/3/3 137/4/4
f 307/5/5 178/6/6 7/7/7 124/8/8
f 306/9/9 94/10/10 2/11/11 159/12/12
f 305/13/13 141/14/14 6/15/15 115/16/16
f 304/17/17 202/18/18 9/19/19 218/20/20
f 303/21/21 219/22/22 5/23/23 126/24/24
f 302/25/25 190/26/26 1/27/27 161/28/28
f 301/29/29 96/30/30 8/31/31 175/32/32
f 300/33/33 145/34/34 4/35/35 168/36/36
f 299/37/37 107/38/38 10/39/39 231/40/40
f 298/41/41 144/42/42 18/43/43 212/44/44
f 297/45/45 138/46/46 20/47/47 204/48/48
f 296/49/49 106/50/50 24/51/51 187/52/52
f 295/53/53 152/54/54 28/55/55 238/56/56
f 294/57/57 149/58/58 17/59/59 173/60/60
f 293/61/61 198/62/62 23/63/63 167/64/64
f 292/65/65 165/66/66 27/67/67 82/68/68
f 291/69/69 229/70/70 31/71/71 91/72/72
f 290/73/73 158/74/74 32/75/75 118/76/76
f 289/77/77 197/78/78 34/79/79 199/80/80
f 288/81/81 166/82/82 36/83/83 189/84/84
f 287/85/85 143/86/86 38/87/87 228/88/88
f 286/89/89 242/90/90 33/91/91 139/92/92
f 285/93/93 117/94/94 35/95/95 186/96/96
f 284/97/97 87/98/98 39/99/99 179/100/100
f 283/101/101 215/102/102 37/103/103 90/104/104
f 282/105/105 98/106/106 40/107/107 176/108/108
f 281/109/109 211/110/110 42/111/111 116/112/112
f 280/113/113 97/114/114 44/115/115 105/116/116
f 279/117/117 234/118/118 46/119/119 134/120/120
f 278/121/121 196/122/122 41/123/123 210/124/124
f 277/125/125 169/126/126 43/127/127 185/128/128
f 276/129/129 148/130/130 45/131/131 227/132/132
f 275/133/133 142/134/134 47/135/135 174/136/136
f 274/137/137 194/138/138 48/139/139 151/140/140
f 273/141/141 147/142/142 50/143/143 93/144/144
f 272/145/145 177/146/146 52/147/147 89/148/148
f 271/149/149 220/150/150 53/151/151 155/152/152
f 270/153/153 123/154/154 55/155/155 110/156/156
f 269/157/157 114/158/158 49/159/159 193/160/160
f 268/161/161 104/162/162 51/163/163 172/164/164
f 267/165/165 217/166/166 54/167/167 214/168/168
f 266/169/169 135/170/170 56/171/171 239/172/172
f 265/173/173 207/174/174 58/175/175 132/176/176
f 264/177/177 131/178/178 60/179/179 122/180/180
f 263/181/181 109/182/182 62/183/183 140/184/184
f 262/185/185 230/186/186 63/187/187 237/188/188
f 261/189/189 226/190/190 57/191/191 223/192/192
f 260/193/193 213/194/194 59/195/195 201/196/196
f 259/197/197 188/198/198 61/199/199 241/200/200
f 258/201/201 183/202/202 64/203/203 163/204/204
f 257/205/205 222/206/206 66/207/207 203/208/208
f 256/209/209 121/210/210 68/211/211 156/212/212
f 255/213/213 182/214/214 70/215/215 113/216/216
f 254/217/217 103/218/218 65/219/219 125/220/220
f 253/221/221 157/222/222 67/223/223 86/224/224
f 252/225/225 192/226/226 69/227/227 154/228/228
f 251/229/229 181/230/230 71/231/231 136/232/232
f 72/233/233 112/234/234 153/235/235
f 75/236/236 233/237/237 120/238/238
f 76/239/239 130/240/240 162/241/241
f 78/242/242 102/243/243 150/244/244
f 73/245/245 146/246/246 191/247/247
f 77/248/248 236/249/249 240/250/250
f 79/251/251 101/252/252 225/253/253
f 80/254/254 200/255/255 164/256/256
f 250/257/257 184/258/258 78/242/242 200/255/255
f 249/259/259 206/260/260 76/239/239 101/252/252
f 248/261/261 119/262/262 75/236/236 236/249/249
f 247/263/263 221/264/264 80/254/254 146/246/246
f 246/265/265 100/266/266 79/251/251 102/243/243
f 245/267/267 235/268/268 77/248/248 130/240/240
f 244/269/269 232/270/270 72/233/233 233/237/237
f 243/271/271 129/272/272 73/245/245 112/234/234
f 19/273/273 195/274/274 108/275/275
f 22/276/276 171/277/277 127/278/278
f 26/279/279 83/280/280 205/281/281
f 30/282/282 99/283/283 85/284/284
f 21/285/285 95/286/286 133/287/287
f 25/288/288 170/289/289 209/290/290
f 29/291/291 180/292/292 88/293/293
f 16/294/294 111/295/295 92/296/296
f 92/296/296 108/275/275 81/297/297
f 92/296/296 111/295/295 108/275/275
f 111/295/295 19/273/273 108/275/275
f 88/293/293 85/284/284 81/297/297
f 88/293/293 180/292/292 85/284/284
f 180/292/292 30/282/282 85/284/284
f 209/290/290 205/281/281 81/297/297
f 209/290/290 170/289/289 205/281/281
f 170/289/289 26/279/279 205/281/281
f 133/287/287 127/278/278 81/297/297
f 133/287/287 95/286/286 127/278/278
f 95/286/286 22/276/276 127/278/278
f 85/284/284 92/296/296 81/297/297
f 85/284/284 99/283/283 92/296/296
f 99/283/283 16/294/294 92/296/296
f 205/281/281 88/293/293 81/297/297
f 205/281/281 83/280/280 88/293/293
f 83/280/280 29/291/291 88/293/293
f 127/278/278 209/290/290 81/297/297
f 127/278/278 171/277/277 209/290/290
f 171/277/277 25/288/288 209/290/290
f 108/275/275 133/287/287 81/297/297
f 108/275/275 195/274/274 133/287/287
f 195/274/274 21/285/285 133/287/287
f 232/270/270 243/271/271 112/234/234 72/233/233
f 71/298/231 154/299/228 243/271/271 232/270/270
f 154/299/228 69/300/227 129/272/272 243/271/271
f 119/262/262 244/269/269 233/237/237 75/236/236
f 70/301/215 136/302/232 244/269/269 119/262/262
f 136/302/232 71/298/231 232/270/270 244/269/269
f 206/260/260 245/267/267 130/240/240 76/239/239
f 65/303/219 163/304/204 245/267/267 206/260/260
f 163/304/204 64/305/203 235/268/268 245/267/267
f 184/258/258 246/265/265 102/243/243 78/242/242
f 67/306/223 203/307/208 246/265/265 184/258/258
f 203/307/208 66/308/207 100/266/266 246/265/265
f 129/272/272 247/263/263 146/246/246 73/245/245
f 69/300/227 156/309/212 247/263/263 129/272/272
f 156/309/212 68/310/211 221/264/264 247/263/263
f 235/268/268 248/261/261 236/249/249 77/248/248
f 64/305/203 113/311/216 248/261/261 235/268/268
f 113/311/216 70/301/215 119/262/262 248/261/261
f 100/266/266 249/259/259 101/252/252 79/251/251
f 66/308/207 125/312/220 249/259/259 100/266/266
f 125/312/220 65/303/219 206/260/260 249/259/259
f 221/264/264 250/257/257 200/255/255 80/254/254
f 68/310/211 86/313/224 250/257/257 221/264/264
f 86/313/224 67/306/223 184/258/258 250/257/257
f 164/256/256 150/244/244 74/314/298
f 164/256/256 200/255/255 150/244/244
f 200/255/255 78/242/242 150/244/244
f 225/253/253 162/241/241 74/314/298
f 225/253/253 101/252/252 162/241/241
f 101/252/252 76/239/239 162/241/241
f 240/250/250 120/238/238 74/314/298
f 240/250/250 236/249/249 120/238/238
f 236/249/249 75/236/236 120/238/238
f 191/247/247 164/256/256 74/314/298
f 191/247/247 146/246/246 164/256/256
f 146/246/246 80/254/254 164/256/256
f 150/244/244 225/253/253 74/314/298
f 150/244/244 102/243/243 225/253/253
f 102/243/243 79/251/251 225/253/253
f 162/241/241 240/250/250 74/314/298
f 162/241/241 130/240/240 240/250/250
f 130/240/240 77/248/248 240/250/250
f 120/238/238 153/235/235 74/314/298
f 120/238/238 233/237/237 153/235/235
f 233/237/237 72/233/233 153/235/235
f 153/235/235 191/247/247 74/314/298
f 153/235/235 112/234/234 191/247/247
f 112/234/234 73/245/245 191/247/247
f 182/214/214 251/229/229 136/232/232 70/215/215
f 56/315/171 237/316/188 251/229/229 182/214/214
f 237/316/188 63/317/187 181/230/230 251/229/229
f 181/230/230 252/225/225 154/228/228 71/231/231
f 63/317/187 140/318/184 252/225/225 181/230/230
f 140/318/184 62/319/183 192/226/226 252/225/225
f 121/210/210 253/221/221 86/224/224 68/211/211
f 61/320/199 122/321/180 253/221/221 121/210/210
f 122/321/180 60/322/179 157/222/222 253/221/221
f 222/206/206 254/217/217 125/220/220 66/207/207
f 59/323/195 132/324/176 254/217/217 222/206/206
f 132/324/176 58/325/175 103/218/218 254/217/217
f 183/202/202 255/213/213 113/216/216 64/203/203
f 57/326/191 239/327/172 255/213/213 183/202/202
f 239/327/172 56/315/171 182/214/214 255/213/213
f 192/226/226 256/209/209 156/212/212 69/227/227
f 62/319/183 241/328/200 256/209/209 192/226/226
f 241/328/200 61/320/199 121/210/210 256/209/209
f 157/222/222 257/205/205 203/208/208 67/223/223
f 60/322/179 201/329/196 257/205/205 157/222/222
f 201/329/196 59/323/195 222/206/206 257/205/205
f 103/218/218 258/201/201 163/204/204 65/219/219
f 58/325/175 223/330/192 258/201/201 103/218/218
f 223/330/192 57/326/191 183/202/202 258/201/201
f 109/182/182 259/197/197 241/200/200 62/183/183
f 52/331/147 172/332/164 259/197/197 109/182/182
f 172/332/164 51/333/163 188/198/198 259/197/197
f 131/178/178 260/193/193 201/196/196 60/179/179
f 50/334/143 193/335/160 260/193/193 131/178/178
f 193/335/160 49/336/159 213/194/194 260/193/193
f 207/174/174 261/189/189 223/192/192 58/175/175
f 48/337/139 110/338/156 261/189/189 207/174/174
f 110/338/156 55/339/155 226/190/190 261/189/189
f 135/170/170 262/185/185 237/188/188 56/171/171
f 54/340/167 155/341/152 262/185/185 135/170/170
f 155/341/152 53/342/151 230/186/186 262/185/185
f 230/186/186 263/181/181 140/184/184 63/187/187
f 53/342/151 89/343/148 263/181/181 230/186/186
f 89/343/148 52/331/147 109/182/182 263/181/181
f 188/198/198 264/177/177 122/180/180 61/199/199
f 51/333/163 93/344/144 264/177/177 188/198/198
f 93/344/144 50/334/143 131/178/178 264/177/177
f 213/194/194 265/173/173 132/176/176 59/195/195
f 49/336/159 151/345/140 265/173/173 213/194/194
f 151/345/140 48/337/139 207/174/174 265/173/173
f 226/190/190 266/169/169 239/172/172 57/191/191
f 55/339/155 214/346/168 266/169/169 226/190/190
f 214/346/168 54/340/167 135/170/170 266/169/169
f 123/154/154 267/165/165 214/168/168 55/155/155
f 42/347/111 210/348/124 267/165/165 123/154/154
f 210/348/124 41/349/123 217/166/166 267/165/165
f 177/146/146 268/161/161 172/164/164 52/147/147
f 47/350/135 134/351/120 268/161/161 177/146/146
f 134/351/120 46/352/119 104/162/162 268/161/161
f 147/142/142 269/157/157 193/160/160 50/143/143
f 45/353/131 105/354/116 269/157/157 147/142/142
f 105/354/116 44/355/115 114/158/158 269/157/157
f 194/138/138 270/153/153 110/156/156 48/139/139
f 43/356/127 116/357/112 270/153/153 194/138/138
f 116/357/112 42/347/111 123/154/154 270/153/153
f 217/166/166 271/149/149 155/152/152 54/167/167
f 41/349/123 176/358/108 271/149/149 217/166/166
f 176/358/108 40/359/107 220/150/150 271/149/149
f 220/150/150 272/145/145 89/148/148 53/151/151
f 40/359/107 174/360/136 272/145/145 220/150/150
f 174/360/136 47/350/135 177/146/146 272/145/145
f 104/162/162 273/141/141 93/144/144 51/163/163
f 46/352/119 227/361/132 273/141/141 104/162/162
f 227/361/132 45/353/131 147/142/142 273/141/141
f 114/158/158 274/137/137 151/140/140 49/159/159
f 44/355/115 185/362/128 274/137/137 114/158/158
f 185/362/128 43/356/127 194/138/138 274/137/137
f 98/106/106 275/133/133 174/136/136 40/107/107
f 39/363/99 186/364/96 275/133/133 98/106/106
f 186/364/96 35/365/95 142/134/134 275/133/133
f 234/118/118 276/129/129 227/132/132 46/119/119
f 34/366/79 139/367/92 276/129/129 234/118/118
f 139/367/92 33/368/91 148/130/130 276/129/129
f 97/114/114 277/125/125 185/128/128 44/115/115
f 32/369/75 228/370/88 277/125/125 97/114/114
f 228/370/88 38/371/87 169/126/126 277/125/125
f 211/110/110 278/121/121 210/124/124 42/111/111
f 37/372/103 189/373/84 278/121/121 211/110/110
f 189/373/84 36/374/83 196/122/122 278/121/121
f 142/134/134 279/117/117 134/120/120 47/135/135
f 35/365/95 199/375/80 279/117/117 142/134/134
f 199/375/80 34/366/79 234/118/118 279/117/117
f 148/130/130 280/113/113 105/116/116 45/131/131
f 33/368/91 118/376/76 280/113/113 148/130/130
f 118/376/76 32/369/75 97/114/114 280/113/113
f 169/126/126 281/109/109 116/112/112 43/127/127
f 38/371/87 90/377/104 281/109/109 169/126/126
f 90/377/104 37/372/103 211/110/110 281/109/109
f 196/122/122 282/105/105 176/108/108 41/123/123
f 36/374/83 179/378/100 282/105/105 196/122/122
f 179/378/100 39/363/99 98/106/106 282/105/105
f 143/86/86 283/101/101 90/104/104 38/87/87
f 24/379/51 106/380/50 283/101/101 143/86/86
f 106/380/50 23/381/63 215/102/102 283/101/101
f 166/82/82 284/97/97 179/100/100 36/83/83
f 20/382/47 138/383/46 284/97/97 166/82/82
f 138/383/46 18/384/43 87/98/98 284/97/97
f 87/98/98 285/93/93 186/96/96 39/99/99
f 18/384/43 144/385/42 285/93/93 87/98/98
f 144/385/42 17/386/59 117/94/94 285/93/93
f 197/78/78 286/89/89 139/92/92 34/79/79
f 31/387/71 229/388/70 286/89/89 197/78/78
f 229/388/70 28/389/55 242/90/90 286/89/89
f 158/74/74 287/85/85 228/88/88 32/75/75
f 27/390/67 165/391/66 287/85/85 158/74/74
f 165/391/66 24/379/51 143/86/86 287/85/85
f 215/102/102 288/81/81 189/84/84 37/103/103
f 23/381/63 198/392/62 288/81/81 215/102/102
f 198/392/62 20/382/47 166/82/82 288/81/81
f 117/94/94 289/77/77 199/80/80 35/95/95
f 17/386/59 149/393/58 289/77/77 117/94/94
f 149/393/58 31/387/71 197/78/78 289/77/77
f 242/90/90 290/73/73 118/76/76 33/91/91
f 28/389/55 152/394/54 290/73/73 242/90/90
f 152/394/54 27/390/67 158/74/74 290/73/73
f 180/395/292 291/69/69 91/72/72 30/396/282
f 29/397/291 238/56/56 291/69/69 180/395/292
f 238/56/56 28/55/55 229/70/70 291/69/69
f 170/398/289 292/65/65 82/68/68 26/399/279
f 25/400/288 187/52/52 292/65/65 170/398/289
f 187/52/52 24/51/51 165/66/66 292/65/65
f 95/401/286 293/61/61 167/64/64 22/402/276
f 21/403/285 204/48/48 293/61/61 95/401/286
f 204/48/48 20/47/47 198/62/62 293/61/61
f 99/404/283 294/57/57 173/60/60 16/405/294
f 30/396/282 91/72/72 294/57/57 99/404/283
f 91/72/72 31/71/71 149/58/58 294/57/57
f 83/406/280 295/53/53 238/56/56 29/397/291
f 26/399/279 82/68/68 295/53/53 83/406/280
f 82/68/68 27/67/67 152/54/54 295/53/53
f 171/407/277 296/49/49 187/52/52 25/400/288
f 22/402/276 167/64/64 296/49/49 171/407/277
f 167/64/64 23/63/63 106/50/50 296/49/49
f 195/408/274 297/45/45 204/48/48 21/403/285
f 19/409/273 212/44/44 297/45/45 195/408/274
f 212/44/44 18/43/43 138/46/46 297/45/45
f 111/410/295 298/41/41 212/44/44 19/409/273
f 16/405/294 173/60/60 298/41/41 111/410/295
f 173/60/60 17/59/59 144/42/42 298/41/41
f 202/18/18 299/37/37 231/40/40 9/19/19
f 8/31/31 124/8/8 299/37/37 202/18/18
f 124/8/8 7/7/7 107/38/38 299/37/37
f 160/411/299 300/33/33 168/36/36 13/412/300
f 15/413/301 161/28/28 300/33/33 160/411/299
f 161/28/28 1/27/27 145/34/34 300/33/33
f 216/414/302 301/29/29 175/32/32 11/415/303
f 14/416/304 126/417/24 301/29/29 216/414/302
f 126/417/24 5/418/23 96/30/30 301/29/29
f 128/419/305 302/25/25 161/28/28 15/413/301
f 12/420/306 218/20/20 302/25/25 128/419/305
f 218/20/20 9/19/19 190/26/26 302/25/25
f 84/421/307 303/21/21 126/24/24 14/422/304
f 13/412/300 168/36/36 303/21/21 84/421/307
f 168/36/36 4/35/35 219/22/22 303/21/21
f 208/423/308 304/17/17 218/20/20 12/420/306
f 11/415/303 175/32/32 304/17/17 208/423/308
f 175/32/32 8/31/31 202/18/18 304/17/17
f 219/22/22 305/13/13 115/16/16 5/23/23
f 4/35/35 137/4/4 305/13/13 219/22/22
f 137/4/4 3/3/3 141/14/14 305/13/13
f 190/26/26 306/9/9 159/12/12 1/27/27
f 9/19/19 231/40/40 306/9/9 190/26/26
f 231/40/40 10/39/39 94/10/10 306/9/9
f 96/30/30 307/5/5 124/8/8 8/31/31
f 5/418/23 115/424/16 307/5/5 96/30/30
f 115/424/16 6/425/15 178/6/6 307/5/5
f 145/34/34 308/1/1 137/4/4 4/35/35
f 1/27/27 159/12/12 308/1/1 145/34/34
f 159/12/12 2/11/11 224/2/2 308/1/1
