# Blender v2.78 (sub 0) OBJ File: ''
# www.blender.org
mtllib Pine_Tree_l_01.mtl
o Pine_Tree_l_01
v 1.445046 6.192233 1.445045
v 0.627972 8.464642 0.627971
v 0.033823 8.813810 0.874076
v 0.017571 6.576057 2.036325
v 0.017571 6.576058 -2.001184
v 0.033823 8.813810 -0.806430
v 0.627972 8.464642 -0.560326
v 1.445046 6.192233 -1.409904
v -1.409904 6.192233 -1.409904
v -0.560325 8.464642 -0.560326
v 0.874076 8.813810 0.033823
v 2.036326 6.576057 0.017571
v -2.001184 6.576057 0.017570
v -0.806430 8.813810 0.033823
v -1.409904 6.192233 1.445045
v -0.560325 8.464642 0.627971
v 0.000880 6.454381 2.646805
v 0.000002 9.633477 0.777111
v -0.522756 9.632975 0.562234
v -1.869337 7.037296 1.872135
v 1.871097 7.037297 -1.868299
v 0.522759 9.632975 -0.483281
v 0.737636 9.633477 0.039477
v 2.645767 6.454382 0.001918
v 0.000880 6.454382 -2.642969
v 0.000001 9.633477 -0.698157
v 0.522759 9.632975 0.562234
v 1.871097 7.037296 1.872135
v -1.869337 7.037297 -1.868298
v -0.522756 9.632975 -0.483281
v -2.644007 6.454382 0.001918
v -0.737633 9.633477 0.039477
v 0.001860 5.510085 3.185006
v -2.249969 4.914712 2.252268
v -3.182706 5.510086 0.000440
v -2.249969 4.914713 -2.251390
v 3.186426 5.510086 0.000440
v 2.253689 4.914712 2.252268
v 2.253689 4.914713 -2.251390
v 0.001859 5.510086 -3.184127
v 1.821577 8.084271 1.822615
v 0.472689 11.261362 0.472689
v 0.023653 11.518261 0.664204
v 0.000624 8.702183 2.519560
v 0.000623 8.702183 -2.516235
v 0.023653 11.518261 -0.616898
v 0.472689 11.261362 -0.425383
v 1.821577 8.084271 -1.819290
v -1.820329 8.084271 -1.819290
v -0.425383 11.261362 -0.425383
v 0.664204 11.518261 0.023653
v 2.518522 8.702183 0.001663
v -2.517274 8.702183 0.001663
v -0.616897 11.518261 0.023653
v -1.820329 8.084271 1.822615
v -0.425383 11.261362 0.472689
v 2.428833 9.925644 0.000624
v 0.567190 13.502386 0.000002
v 0.394742 13.738188 0.367318
v 1.542359 10.379553 1.541637
v -1.539668 10.379553 -1.540389
v -0.339890 13.738188 -0.367314
v 0.027426 13.502386 -0.539762
v 0.001345 9.925644 -2.426863
v -2.426142 9.925644 0.000624
v -0.512337 13.502386 0.000002
v 0.394742 13.738188 -0.367314
v 1.542359 10.379553 -1.540389
v -1.539668 10.379553 1.541637
v -0.339890 13.738188 0.367318
v 0.001346 9.925644 2.428111
v 0.027426 13.502386 0.539765
v 2.153884 11.763493 0.000002
v 0.529835 14.705942 0.000002
v 0.372215 14.961462 0.345590
v 1.202472 12.304251 1.201049
v -1.199623 12.304251 -1.201046
v -0.318960 14.961462 -0.345586
v 0.026628 14.705942 -0.503205
v 0.001423 11.763493 -2.152459
v -2.151038 11.763493 0.000002
v -0.476580 14.705942 0.000002
v 0.372215 14.961462 -0.345586
v 1.202472 12.304251 -1.201046
v -1.199623 12.304251 1.201049
v -0.318960 14.961462 0.345589
v 0.001423 11.763493 2.152462
v 0.026628 14.705942 0.503209
v 1.128433 15.228165 0.000002
v 0.266707 17.351398 0.000003
v 0.190561 17.586195 0.177157
v 0.730493 15.641037 0.729714
v -0.728932 15.641037 -0.729710
v -0.163749 17.586195 -0.177152
v 0.013406 17.351398 -0.253299
v 0.000780 15.228165 -1.127651
v -1.126873 15.228165 0.000002
v -0.239896 17.351398 0.000003
v 0.190561 17.586195 -0.177152
v 0.730493 15.641037 -0.729710
v -0.728932 15.641037 0.729714
v -0.163749 17.586195 0.177157
v 0.000780 15.228165 1.127655
v 0.013406 17.351398 0.253305
v 0.325404 17.876551 0.000003
v 0.010566 19.060598 0.000003
v 0.230181 17.957119 0.229890
v -0.229592 17.957119 -0.229884
v 0.000294 17.876551 -0.325107
v -0.324814 17.876551 0.000003
v 0.230181 17.957119 -0.229884
v -0.229592 17.957119 0.229890
v 0.000294 17.876551 0.325112
v 0.000354 16.700163 -0.730168
v -0.515954 16.885309 -0.516306
v -0.729816 16.700163 0.000003
v -0.515954 16.885309 0.516310
v 0.000354 16.700163 0.730173
v 0.516662 16.885309 0.516310
v 0.516662 16.885309 -0.516306
v 0.730524 16.700163 0.000003
v 1.516949 13.625563 0.000002
v 0.332911 16.157116 0.000003
v 0.237237 16.317986 0.221046
v 1.040010 13.904652 1.038883
v -1.037752 13.904652 -1.038879
v -0.204851 16.317986 -0.221042
v 0.016193 16.157116 -0.316715
v 0.001128 13.625563 -1.515819
v -1.514693 13.625563 0.000002
v -0.300524 16.157116 0.000003
v 0.237237 16.317986 -0.221042
v 1.040010 13.904652 -1.038879
v -1.037752 13.904652 1.038882
v -0.204851 16.317986 0.221046
v 0.001128 13.625563 1.515823
v 0.016193 16.157116 0.316720
v 2.227901 4.467146 0.000001
v 0.941980 6.731590 0.000001
v 0.682083 6.726018 0.627447
v 1.583677 4.878990 1.555293
v -1.526909 4.878991 -1.555292
v -0.572809 6.726018 -0.627446
v 0.054637 6.731590 -0.887342
v 0.028383 4.467146 -2.199516
v -2.171134 4.467146 0.000001
v -0.832705 6.731590 0.000001
v 0.682083 6.726018 -0.627445
v 1.583677 4.878991 -1.555292
v -1.526909 4.878990 1.555293
v -0.572809 6.726018 0.627447
v 0.028384 4.467145 2.199517
v 0.054637 6.731590 0.887343
v 2.416698 4.160676 2.413904
v 0.002794 3.592266 3.413776
v -2.411110 4.160676 2.413904
v -3.410983 3.592267 0.000001
v 2.416698 4.160676 -2.413903
v 3.416570 3.592267 0.000001
v 0.002793 3.592267 -3.413776
v -2.411110 4.160676 -2.413903
v 0.074973 5.421024 0.000001
v -0.311562 0.062725 -0.021733
v -0.191413 3.588031 0.031888
v 0.007792 3.510986 -0.219402
v -0.064012 0.059641 -0.327686
v -0.118336 7.084495 -0.045654
v 0.042725 7.183555 -0.233088
v 0.305777 0.062022 0.201437
v 0.264428 3.573534 0.226255
v -0.059107 3.575533 0.312925
v -0.091143 0.062112 0.310511
v 0.178968 7.141482 0.113697
v 0.008144 7.145000 0.159019
v 0.279497 3.611053 -0.094065
v 0.295254 0.063468 -0.183769
v 0.218145 7.193899 -0.134427
v -0.197998 0.061183 -0.183088
v -1.265429 4.776857 -1.304304
v 0.349997 17.247852 0.342942
v 0.012450 10.711170 -1.521820
v 2.017841 10.152599 -0.778165
v -0.638232 9.633225 -0.225232
v 0.000001 8.024136 -1.670561
v 0.794136 13.030424 0.779702
v 0.372502 6.728804 0.767395
v 1.350356 13.225454 0.000002
v 0.279713 3.593696 0.066589
v 0.492047 17.039108 0.000003
v -2.914636 3.899163 1.208898
v -0.942864 15.434601 0.369099
v -1.195956 8.338284 -1.175179
v 1.883441 4.514844 0.000001
v -0.677755 14.436413 -0.691768
v -0.761154 13.627786 -0.775167
v -0.765265 13.030424 0.779702
v 0.349997 17.247852 -0.342938
v 0.042575 5.627676 -1.494875
v 0.103114 17.468796 0.217960
v -0.601715 12.033873 1.705475
v 0.201667 14.833702 -0.429816
v 1.150389 9.663287 1.150389
v -0.029376 1.722799 -0.275807
v 1.016984 14.171589 0.000002
v 0.380831 17.395542 -0.380827
v -0.158545 13.620287 0.459125
v 0.638235 9.633225 0.304185
v -0.132063 3.582972 0.176795
v -1.627338 9.173604 0.020778
v 0.014192 3.973013 -2.869448
v 1.099612 5.837042 -1.057036
v 0.262474 16.792736 0.632817
v 0.204397 7.167631 -0.009412
v 0.014435 12.641449 -1.342747
v 0.012450 10.120075 -1.566523
v -1.172138 8.850405 1.192917
v 0.633169 16.792736 0.262123
v -0.943458 12.066240 0.957895
v 0.042575 5.627675 1.494876
v -0.692990 8.639226 0.334879
v -0.955282 7.365054 -0.955282
v 0.726188 15.698140 0.000003
v 0.705785 14.436413 -0.691768
v 1.766295 6.384145 -0.706775
v -2.014814 4.477143 -2.029006
v 1.099612 5.837042 1.057037
v -0.162589 18.490923 0.000003
v 0.213397 13.620287 -0.459122
v -1.361889 7.742150 0.026355
v 0.104144 3.573762 0.277381
v -0.154167 5.396141 -0.006559
v -0.463156 15.985856 -0.471678
v 2.761664 5.212399 1.143588
v -1.864527 5.498125 -1.864527
v 0.008786 5.996324 2.658049
v -1.141289 5.212399 -2.759365
v 1.145009 5.212399 2.760243
v -0.760831 4.673069 -1.905332
v -1.471490 11.715700 0.000002
v 0.026356 7.742150 -1.361889
v 0.007056 17.039108 0.484994
v 1.933716 4.673068 0.789215
v -0.275055 17.941793 -0.114123
v -0.527951 11.389812 0.250992
v 0.017571 7.620530 -1.735839
v -0.255984 16.237551 0.111890
v -1.876949 4.673068 0.789215
v 0.008523 14.889222 0.919236
v -0.261766 16.792736 -0.632812
v -0.924785 8.393227 2.204309
v 1.466656 5.827924 1.438273
v 1.357184 12.641449 0.000002
v -1.141288 5.212399 2.760243
v -1.876949 4.673068 -0.789214
v -0.624036 15.105890 -0.632558
v 0.231363 17.468796 -0.089705
v 0.008786 5.996325 -2.640478
v -1.566523 10.120075 0.012450
v 1.004529 10.818595 -0.979629
v -1.328314 12.641449 0.000002
v 0.822031 6.728804 -0.317864
v -0.335884 17.247852 0.342942
v 0.927757 14.889222 0.000002
v 0.575257 11.389812 0.250992
v 1.007994 7.365054 1.007993
v 0.705785 14.436413 0.691772
v 0.007056 16.285398 0.695298
v 0.817598 4.673068 1.905332
v 0.369877 15.434601 0.943646
v -0.204552 17.468796 0.089711
v -2.291546 6.745839 -0.947635
v -1.204996 3.899163 2.918538
v 0.313830 0.062745 0.009438
v -0.765265 13.030424 -0.779698
v -0.924785 8.393227 -2.200983
v 0.250992 11.389812 0.575257
v 0.028383 6.137576 -2.034023
v 1.627341 9.173604 0.020778
v -0.403192 14.833702 0.175042
v -1.125490 9.663287 -1.125490
v -1.222277 7.746129 -1.222277
v -0.263228 6.728804 -0.767394
v -0.463156 15.985856 0.471682
v 0.008523 14.889222 -0.919231
v 0.380831 17.395542 0.380832
v 0.014015 13.225454 1.336343
v 0.250992 11.389812 -0.527951
v 0.014015 14.171589 -1.002967
v -0.403192 14.833702 -0.175037
v -0.638232 9.633225 0.304185
v -0.979629 10.818595 1.004529
v 0.014015 14.171589 1.002971
v -0.076973 1.757469 0.315716
v 0.789184 13.627786 -0.775167
v -0.777443 10.152599 2.017119
v 0.950434 6.745839 2.294344
v 1.500360 11.715700 0.000002
v 0.760636 8.639226 -0.267233
v 0.249231 5.464088 -0.113832
v -1.805690 4.514844 0.000001
v 0.641084 15.105890 -0.632558
v -0.203686 11.389812 -0.527951
v 0.264709 9.633225 -0.598757
v -0.212726 0.062418 0.151702
v 0.028384 6.137575 2.034024
v -0.943458 12.066240 -0.957892
v -1.731153 6.384145 0.741916
v 0.822031 6.728804 0.317866
v 0.462919 16.613680 -0.455860
v 2.293306 6.745839 -0.947636
v 0.462919 16.613680 0.455864
v 0.111449 0.062067 0.268582
v -1.409889 5.827924 1.438273
v 0.005479 18.490923 0.168071
v 0.944424 15.434601 0.369099
v 0.038876 4.514843 1.844566
v 0.794136 13.030424 -0.779698
v 0.275996 17.941795 -0.114123
v 0.005479 18.490923 -0.168065
v -0.043062 7.132731 -0.144596
v 0.026337 5.408109 -0.226033
v -0.368317 15.434601 -0.943642
v 0.780135 10.152599 -2.015871
v 1.691341 8.024136 0.020778
v 1.172141 8.850405 1.192917
v 0.201667 14.833702 0.429821
v -2.757944 5.212399 1.143588
v -1.014462 5.837042 1.057037
v 1.706897 12.033873 -0.603137
v -1.195956 8.338284 1.216735
v -0.264707 9.633225 -0.598757
v -0.948674 6.745839 2.294344
v -0.335884 17.247852 -0.342938
v -0.380828 17.395542 0.380832
v 0.275996 17.941793 0.114129
v 0.007056 16.285398 -0.695293
v -1.409889 5.827924 -1.438272
v 0.014193 3.973012 2.869449
v -0.632460 16.792736 -0.262118
v -1.296273 13.765107 0.526794
v 0.114597 17.941793 -0.275523
v 0.789185 13.627786 0.775171
v 1.546720 10.711170 0.012450
v -0.113656 17.941795 -0.275523
v 1.706897 12.033873 0.603141
v -0.203686 11.389812 0.575257
v 1.195959 8.338284 1.216735
v -0.095694 16.237551 -0.272175
v -0.538574 17.262184 0.000003
v 0.000001 17.262184 -0.538573
v 1.882099 5.498125 -1.864527
v 2.922439 3.899163 1.208898
v -2.202022 8.393227 -0.923746
v 2.203270 8.393227 0.927071
v 0.012450 10.711170 1.546719
v -0.601715 12.033873 -1.705472
v 0.288371 16.237551 0.111890
v 1.770981 7.620529 0.017571
v -0.368317 15.434601 0.943646
v 0.817598 4.673069 -1.905332
v 0.288371 16.237551 -0.111885
v -1.296273 13.765107 -0.526790
v 0.012450 10.120075 1.591422
v -0.692990 8.639226 -0.267233
v 0.133986 7.191612 -0.191300
v 0.014015 13.225454 -1.336339
v 0.926033 8.393227 2.204309
v 0.038875 4.514844 -1.844565
v -2.914636 3.899164 -1.208897
v -1.452301 5.627675 0.000001
v -2.291546 6.745839 0.951472
v -1.691338 8.024136 0.020778
v 2.883642 3.973012 0.000001
v 0.456446 14.833702 -0.175037
v -0.255017 1.765085 0.005760
v -2.015150 10.152599 -0.778165
v 0.486550 13.620287 0.185973
v 0.926033 8.393227 -2.200983
v 2.922439 3.899164 -1.208897
v 0.372502 6.728804 -0.767393
v -0.431698 13.620287 0.185973
v 1.414601 7.742150 0.026356
v 0.128081 16.237551 -0.272175
v -1.704050 12.033873 0.603141
v -0.263228 6.728804 0.767395
v 0.014435 11.715700 1.485926
v -0.158545 13.620287 -0.459122
v 1.212800 3.899163 2.918538
v 0.264710 9.633225 0.677710
v -0.267233 8.639226 0.760636
v 0.527920 13.765107 1.297403
v -0.113363 18.526394 0.118845
v 0.604563 12.033873 1.705475
v 1.150389 9.663287 -1.125490
v -2.014814 4.477142 2.029006
v 0.972329 12.066240 -0.957892
v 0.950434 6.745840 -2.290509
v 1.766295 6.384145 0.741916
v -0.632460 16.792736 0.262123
v -0.477935 17.039108 0.000003
v 0.486550 13.620287 -0.185969
v 0.289786 1.775639 -0.139820
v 0.221236 5.417989 0.170686
v 0.575257 11.389812 -0.203686
v 0.638235 9.633225 -0.225232
v -0.267233 8.639226 -0.692990
v -0.955281 7.365054 1.007993
v 0.146389 3.560405 -0.164129
v -0.709141 15.698140 0.000003
v -0.942864 15.434601 -0.369095
v 0.604563 12.033873 -1.705472
v 1.145008 5.212399 -2.759365
v 0.741916 6.384145 -1.731153
v 1.257419 7.746129 -1.222277
v -1.014462 5.837042 -1.057036
v 1.298529 13.765107 0.526794
v -0.076302 17.468796 -0.217955
v -2.757944 5.212399 -1.142709
v 0.007056 17.039108 -0.484989
v -0.760830 4.673068 1.905332
v -0.095694 16.237551 0.272180
v -0.275055 17.941795 0.114129
v 2.043200 4.477143 -2.029006
v 1.537451 5.627675 0.000001
v -0.113656 17.941793 0.275528
v 1.007994 7.365054 -0.955282
v 0.231363 17.468796 0.089711
v -0.113363 18.526394 -0.118839
v 0.173548 18.490923 0.000003
v -0.264706 9.633225 0.677710
v -0.624036 15.105890 0.632562
v 0.026356 7.742150 1.414600
v 0.780135 10.152599 2.017119
v 0.741917 6.384144 1.766295
v 1.466656 5.827924 -1.438272
v 0.000002 9.173604 1.648117
v -0.076302 17.468796 0.217960
v 0.103114 17.468796 -0.217955
v -0.948674 6.745840 -2.290508
v 0.633169 16.792736 -0.262118
v 0.014435 12.641449 1.342750
v -0.525664 13.765107 -1.297399
v -1.704050 12.033873 -0.603137
v -1.125490 9.663287 1.150389
v 1.172141 8.850405 -1.151362
v -0.380828 17.395542 -0.380827
v -0.527951 11.389812 -0.203686
v 1.298529 13.765107 -0.526790
v 0.641084 15.105890 0.632562
v -0.255984 16.237551 -0.111885
v -0.148412 14.833702 -0.429816
v 1.591423 10.120075 0.012450
v 1.882099 5.498124 1.882098
v -0.448806 16.613680 0.455864
v -0.024901 5.421416 0.236362
v -1.204997 3.899164 -2.918537
v 0.456446 14.833702 0.175042
v -0.060768 7.112957 0.060680
v 0.480203 15.985856 0.471682
v 0.008523 15.698140 0.717666
v -0.712757 6.728804 -0.317864
v 0.527921 13.765107 -1.297399
v 0.538577 17.262184 0.000003
v -0.148412 14.833702 0.429821
v -0.096987 3.548303 -0.099034
v 0.972329 12.066240 0.957895
v 1.212799 3.899164 -2.918537
v 2.017841 10.152599 0.779413
v -1.731153 6.384145 -0.706775
v -0.910710 14.889222 0.000002
v -0.761154 13.627786 0.775171
v -2.640478 5.996324 0.008785
v -0.706774 6.384144 1.766295
v -1.735838 7.620529 0.017571
v 0.017571 7.620529 1.770980
v 0.128081 16.237551 0.272180
v 0.262474 16.792736 -0.632812
v -0.688239 16.285398 0.000003
v -0.777444 10.152599 -2.015871
v 0.095093 7.143497 0.144175
v 1.343180 4.776857 1.304305
v 2.043200 4.477142 2.029006
v 2.293306 6.745839 0.951472
v -2.015150 10.152599 0.779413
v 1.343180 4.776857 -1.304304
v -0.677755 14.436413 0.691772
v -0.261766 16.792736 0.632817
v 0.369877 15.434601 -0.943642
v 2.761664 5.212399 -1.142709
v 0.288282 1.756510 0.216436
v 0.124321 18.526394 -0.118839
v -1.864526 5.498124 1.882098
v 0.760636 8.639226 0.334879
v 0.119760 0.061554 -0.267874
v -0.988955 14.171589 0.000002
v 0.000001 17.262184 0.538577
v -0.431698 13.620287 -0.185969
v 0.014435 11.715700 -1.485923
v 0.114597 17.941795 0.275528
v 2.658050 5.996324 0.008786
v -0.706775 6.384145 -1.731153
v -1.322326 13.225454 0.000002
v 2.203270 8.393227 -0.923746
v -1.265429 4.776857 1.304305
v 1.257419 7.746129 1.257418
v 1.195959 8.338284 -1.175180
v -0.979629 10.818595 -0.979629
v 0.334879 8.639226 -0.692990
v 0.008523 15.698140 -0.717662
v -0.712757 6.728804 0.317866
v -1.521821 10.711170 0.012450
v 0.480203 15.985856 -0.471678
v -2.855257 3.973012 0.000001
v 0.944424 15.434601 -0.369095
v 0.702352 16.285398 0.000003
v -2.005640 6.137576 0.000001
v -1.222277 7.746129 1.257418
v 1.933716 4.673068 -0.789214
v -0.525664 13.765107 1.297403
v -2.202022 8.393227 0.927071
v -0.448806 16.613680 -0.455860
v 0.000001 9.173604 -1.606561
v 0.124321 18.526394 0.118845
v 0.000002 8.024136 1.712117
v 2.062407 6.137576 0.000001
v 0.334879 8.639226 0.760636
v -0.204552 17.468796 -0.089705
v -1.172138 8.850405 -1.151362
v 1.004529 10.818595 1.004529
v 0.213397 13.620287 0.459125
v 0.241299 5.441717 0.029031
v 0.297902 1.766776 0.038781
v -0.095063 5.408702 0.118595
v -0.173662 1.761872 0.165675
v 0.140488 5.436873 -0.176459
v 0.133129 1.748912 -0.216066
v 0.099486 5.419413 0.210351
v 0.107946 1.756604 0.274700
v -0.068475 5.401037 -0.120894
v -0.148614 1.743339 -0.140804
v 1.790335 5.982749 -0.729823
v 1.790335 5.982749 0.729825
v 0.758208 5.982749 1.761952
v -0.701440 5.982749 1.761952
v -1.733568 5.982749 0.729825
v -1.733568 5.982749 -0.729824
v -0.701441 5.982750 -1.761951
v 0.758208 5.982750 -1.761951
v 1.536443 7.683329 -0.611567
v 0.646708 7.683329 -1.501301
v -0.611566 7.683329 -1.501301
v -1.501301 7.683329 -0.611566
v -1.501301 7.683329 0.646708
v -0.611566 7.683328 1.536443
v 0.646709 7.683328 1.536443
v 1.536443 7.683329 0.646708
v 1.420371 9.012005 0.615979
v 1.420371 9.012005 -0.574423
v 0.595202 9.012005 -1.399591
v -0.595200 9.012005 -1.399591
v -1.420367 9.012005 -0.574423
v -1.420367 9.012005 0.615979
v -0.595199 9.012005 1.441146
v 0.595203 9.012005 1.441146
v 1.295152 10.764883 -0.489141
v 0.514041 10.764883 -1.270252
v -0.489142 10.764883 -1.270252
v -1.270253 10.764883 -0.489141
v -1.270253 10.764883 0.514041
v -0.489141 10.764883 1.295152
v 0.514041 10.764883 1.295152
v 1.295152 10.764883 0.514041
v 0.406750 12.835938 -1.078374
v -0.377879 12.835938 -1.078374
v -1.063941 12.835938 -0.392312
v -1.063941 12.835938 0.392316
v -0.377879 12.835938 1.078378
v 0.406750 12.835938 1.078378
v 1.092812 12.835938 0.392316
v 1.092812 12.835938 -0.392312
v 0.364699 14.304001 -0.860103
v -0.336668 14.304001 -0.860103
v -0.846090 14.304001 -0.350681
v -0.846090 14.304001 0.350686
v -0.336668 14.304001 0.860107
v 0.364699 14.304001 0.860107
v 0.874120 14.304001 0.350686
v 0.874120 14.304001 -0.350681
v 0.247166 15.841999 -0.603799
v 0.612324 15.841999 -0.238641
v 0.612324 15.841999 0.238645
v 0.247166 15.841999 0.603803
v -0.230120 15.841999 0.603803
v -0.595277 15.841999 0.238645
v -0.595277 15.841999 -0.238641
v -0.230120 15.841999 -0.603799
v 0.181075 17.143480 -0.420116
v -0.166962 17.143480 -0.420116
v -0.413062 17.143480 -0.174016
v -0.413062 17.143480 0.174021
v -0.166962 17.143480 0.420121
v 0.181075 17.143480 0.420121
v 0.427175 17.143480 0.174021
v 0.427175 17.143480 -0.174016
v 2.499822 4.225078 1.029581
v -1.015389 4.225078 -2.485629
v -2.471437 4.225078 -1.029581
v 1.043774 4.225078 -2.485629
v 2.499822 4.225078 -1.029581
v -2.471437 4.225078 1.029581
v -1.015388 4.225077 2.485629
v 1.043774 4.225077 2.485629
v 0.578948 5.732358 1.294920
v -0.493798 5.732358 1.294920
v -1.252345 5.732358 0.536374
v 1.337495 5.732358 -0.536372
v 0.578948 5.732358 -1.294919
v -1.252345 5.732358 -0.536373
v -0.493799 5.732358 -1.294919
v 1.337495 5.732358 0.536374
v 0.329162 14.997557 0.787572
v -0.312115 14.997557 0.787572
v -0.779047 14.997557 0.320641
v 0.796094 14.997557 -0.320636
v 0.329162 14.997557 -0.787568
v -0.779047 14.997557 -0.320636
v -0.312115 14.997557 -0.787568
v 0.796094 14.997557 0.320641
v 0.466536 17.328863 0.193248
v -0.193244 17.328863 0.466537
v -0.466533 17.328863 -0.193242
v 0.466536 17.328863 -0.193242
v 0.193246 17.328863 -0.466532
v 0.193246 17.328863 0.466537
v -0.466533 17.328863 0.193248
v -0.193244 17.328863 -0.466532
v 0.237673 16.449539 0.584426
v -0.223560 16.449539 0.584426
v -0.577368 16.449539 0.230619
v 0.591480 16.449539 -0.230614
v 0.237673 16.449539 -0.584422
v -0.577368 16.449539 -0.230614
v -0.223560 16.449539 -0.584422
v 0.591480 16.449539 0.230619
v 0.404030 13.426620 1.072827
v -0.376000 13.426620 1.072827
v -1.058810 13.426620 0.390017
v 1.086841 13.426620 -0.390013
v 0.404030 13.426620 -1.072823
v -1.058810 13.426620 -0.390013
v -0.376000 13.426620 -1.072823
v 1.086841 13.426620 0.390017
v 0.498680 11.890970 1.240825
v -0.469809 11.890970 1.240825
v -1.226388 11.890970 0.484246
v 1.255259 11.890970 -0.484243
v 0.498680 11.890970 -1.240822
v -1.226388 11.890970 -0.484243
v -0.469810 11.890970 -1.240822
v 1.255259 11.890970 0.484246
v -0.565396 9.891682 1.390921
v -1.366022 9.891682 0.590296
v -1.366022 9.891682 -0.565397
v 1.390922 9.891682 0.590296
v 1.390922 9.891682 -0.565397
v -0.565397 9.891682 -1.366022
v 0.590296 9.891682 -1.366022
v 0.590296 9.891682 1.390921
v 0.959364 5.747224 2.303682
v 0.959364 5.747225 -2.286111
v -0.941791 5.747225 -2.286111
v 2.303683 5.747224 -0.941792
v 2.303683 5.747224 0.959363
v -2.286110 5.747224 -0.941792
v -2.286110 5.747224 0.959363
v -0.941791 5.747224 2.303682
v -1.465103 8.181210 0.627644
v -1.465103 8.181210 -0.586088
v -0.606865 8.181210 -1.444327
v 0.606868 8.181210 1.485881
v 1.465106 8.181210 0.627644
v 0.606867 8.181210 -1.444327
v 1.465106 8.181210 -0.586088
v -0.606864 8.181210 1.485881
v -0.471757 7.553601 1.228907
v -1.176196 7.553601 0.524469
v -1.176196 7.553601 -0.471758
v 1.228908 7.553601 0.524469
v 1.228908 7.553601 -0.471758
v -0.471758 7.553601 -1.176197
v 0.524469 7.553601 -1.176197
v 0.524469 7.553601 1.228907
vt 0.5667 0.2969
vt 0.5622 0.3061
vt 0.5580 0.3058
vt 0.5586 0.2948
vt 0.5644 0.3331
vt 0.5611 0.3232
vt 0.5653 0.3234
vt 0.5727 0.3320
vt 0.5480 0.3321
vt 0.5526 0.3227
vt 0.5569 0.3230
vt 0.5561 0.3342
vt 0.5748 0.3238
vt 0.5655 0.3192
vt 0.5658 0.3149
vt 0.5769 0.3157
vt 0.5759 0.3074
vt 0.5661 0.3106
vt 0.5664 0.3064
vt 0.5748 0.2991
vt 0.5388 0.3216
vt 0.5487 0.3180
vt 0.5484 0.3223
vt 0.5398 0.3299
vt 0.5398 0.3051
vt 0.5493 0.3095
vt 0.5490 0.3138
vt 0.5377 0.3132
vt 0.5503 0.2958
vt 0.5538 0.3055
vt 0.5495 0.3053
vt 0.5419 0.2969
vt 0.5824 0.2873
vt 0.5741 0.3051
vt 0.5690 0.3047
vt 0.5698 0.2835
vt 0.5796 0.3445
vt 0.5731 0.3256
vt 0.5781 0.3256
vt 0.5925 0.3419
vt 0.5542 0.3433
vt 0.5630 0.3251
vt 0.5680 0.3255
vt 0.5668 0.3471
vt 0.5962 0.3293
vt 0.5784 0.3205
vt 0.5787 0.3155
vt 0.6000 0.3167
vt 0.5975 0.3038
vt 0.5789 0.3105
vt 0.5791 0.3054
vt 0.5950 0.2910
vt 0.5391 0.3267
vt 0.5582 0.3196
vt 0.5580 0.3247
vt 0.5417 0.3396
vt 0.5403 0.3012
vt 0.5586 0.3095
vt 0.5583 0.3146
vt 0.5366 0.3137
vt 0.5569 0.2861
vt 0.5640 0.3045
vt 0.5589 0.3044
vt 0.5440 0.2886
vt 0.5433 0.2765
vt 0.5468 0.2862
vt 0.5344 0.2885
vt 0.5268 0.2803
vt 0.5209 0.2961
vt 0.5304 0.3005
vt 0.5264 0.3126
vt 0.5150 0.3120
vt 0.5188 0.3285
vt 0.5288 0.3250
vt 0.5312 0.3375
vt 0.5227 0.3450
vt 0.5953 0.3009
vt 0.5856 0.3041
vt 0.5832 0.2917
vt 0.5914 0.2844
vt 0.5932 0.3332
vt 0.5840 0.3285
vt 0.5880 0.3165
vt 0.5991 0.3174
vt 0.5386 0.3509
vt 0.5432 0.3415
vt 0.5553 0.3454
vt 0.5545 0.3568
vt 0.5709 0.3529
vt 0.5677 0.3429
vt 0.5801 0.3405
vt 0.5874 0.3490
vt 0.5756 0.2785
vt 0.5712 0.2878
vt 0.5592 0.2838
vt 0.5598 0.2727
vt 0.5857 0.2833
vt 0.5776 0.3022
vt 0.5723 0.3020
vt 0.5725 0.2798
vt 0.5848 0.3434
vt 0.5773 0.3238
vt 0.5826 0.3237
vt 0.5983 0.3403
vt 0.5581 0.3430
vt 0.5667 0.3237
vt 0.5720 0.3239
vt 0.5714 0.3465
vt 0.6017 0.3270
vt 0.5827 0.3184
vt 0.5829 0.3131
vt 0.6052 0.3137
vt 0.6021 0.3002
vt 0.5829 0.3078
vt 0.5829 0.3025
vt 0.5990 0.2869
vt 0.5417 0.3260
vt 0.5614 0.3180
vt 0.5614 0.3234
vt 0.5447 0.3395
vt 0.5421 0.2993
vt 0.5616 0.3074
vt 0.5614 0.3127
vt 0.5386 0.3126
vt 0.5591 0.2829
vt 0.5670 0.3020
vt 0.5618 0.3021
vt 0.5457 0.2860
vt 0.5748 0.2850
vt 0.5669 0.3016
vt 0.5625 0.3014
vt 0.5633 0.2817
vt 0.5724 0.3373
vt 0.5661 0.3196
vt 0.5706 0.3197
vt 0.5841 0.3350
vt 0.5491 0.3363
vt 0.5573 0.3192
vt 0.5617 0.3195
vt 0.5606 0.3397
vt 0.5875 0.3234
vt 0.5708 0.3152
vt 0.5710 0.3108
vt 0.5908 0.3119
vt 0.5885 0.3001
vt 0.5712 0.3063
vt 0.5714 0.3019
vt 0.5863 0.2883
vt 0.5353 0.3210
vt 0.5531 0.3144
vt 0.5529 0.3189
vt 0.5376 0.3328
vt 0.5364 0.2977
vt 0.5534 0.3055
vt 0.5532 0.3100
vt 0.5330 0.3092
vt 0.5515 0.2839
vt 0.5581 0.3012
vt 0.5537 0.3011
vt 0.5397 0.2862
vt 0.5748 0.2850
vt 0.5669 0.3016
vt 0.5625 0.3014
vt 0.5633 0.2817
vt 0.5724 0.3373
vt 0.5661 0.3196
vt 0.5706 0.3197
vt 0.5841 0.3350
vt 0.5491 0.3363
vt 0.5573 0.3192
vt 0.5617 0.3195
vt 0.5606 0.3397
vt 0.5875 0.3234
vt 0.5708 0.3152
vt 0.5710 0.3108
vt 0.5908 0.3119
vt 0.5885 0.3001
vt 0.5712 0.3063
vt 0.5714 0.3019
vt 0.5863 0.2883
vt 0.5353 0.3210
vt 0.5531 0.3144
vt 0.5529 0.3189
vt 0.5376 0.3328
vt 0.5364 0.2977
vt 0.5534 0.3055
vt 0.5532 0.3100
vt 0.5330 0.3092
vt 0.5515 0.2839
vt 0.5581 0.3012
vt 0.5537 0.3011
vt 0.5397 0.2862
vt 0.5748 0.2850
vt 0.5669 0.3016
vt 0.5625 0.3014
vt 0.5633 0.2817
vt 0.5724 0.3373
vt 0.5661 0.3196
vt 0.5706 0.3197
vt 0.5841 0.3350
vt 0.5491 0.3363
vt 0.5573 0.3192
vt 0.5617 0.3195
vt 0.5606 0.3397
vt 0.5875 0.3234
vt 0.5708 0.3152
vt 0.5710 0.3108
vt 0.5908 0.3119
vt 0.5885 0.3001
vt 0.5712 0.3063
vt 0.5714 0.3019
vt 0.5863 0.2883
vt 0.5353 0.3210
vt 0.5531 0.3144
vt 0.5529 0.3189
vt 0.5376 0.3328
vt 0.5364 0.2977
vt 0.5534 0.3055
vt 0.5532 0.3100
vt 0.5330 0.3092
vt 0.5515 0.2839
vt 0.5581 0.3012
vt 0.5537 0.3011
vt 0.5397 0.2862
vt 0.6012 0.2748
vt 0.5818 0.2881
vt 0.5826 0.2684
vt 0.5595 0.3598
vt 0.5651 0.3397
vt 0.5786 0.3550
vt 0.5223 0.3468
vt 0.5420 0.3331
vt 0.5409 0.3533
vt 0.5977 0.3502
vt 0.5843 0.3305
vt 0.6041 0.3316
vt 0.6106 0.3130
vt 0.5910 0.3074
vt 0.6059 0.2939
vt 0.5128 0.3085
vt 0.5329 0.3137
vt 0.5175 0.3277
vt 0.5257 0.2713
vt 0.5394 0.2907
vt 0.5192 0.2899
vt 0.5640 0.2619
vt 0.5588 0.2815
vt 0.5448 0.2666
vt 0.5786 0.3550
vt 0.5977 0.3502
vt 0.5977 0.3502
vt 0.5786 0.3550
vt 0.5175 0.3277
vt 0.5223 0.3468
vt 0.5223 0.3468
vt 0.5175 0.3277
vt 0.5448 0.2666
vt 0.5257 0.2713
vt 0.5257 0.2713
vt 0.5448 0.2666
vt 0.6041 0.3316
vt 0.6106 0.3130
vt 0.6106 0.3130
vt 0.6041 0.3316
vt 0.6059 0.2939
vt 0.6012 0.2748
vt 0.6012 0.2748
vt 0.6059 0.2939
vt 0.5409 0.3533
vt 0.5595 0.3598
vt 0.5595 0.3598
vt 0.5409 0.3533
vt 0.5192 0.2899
vt 0.5128 0.3085
vt 0.5128 0.3085
vt 0.5192 0.2899
vt 0.5826 0.2684
vt 0.5640 0.2619
vt 0.5640 0.2619
vt 0.5826 0.2684
vt 0.5748 0.2850
vt 0.5669 0.3016
vt 0.5625 0.3014
vt 0.5633 0.2817
vt 0.5724 0.3373
vt 0.5661 0.3196
vt 0.5706 0.3197
vt 0.5841 0.3350
vt 0.5491 0.3363
vt 0.5573 0.3192
vt 0.5617 0.3195
vt 0.5606 0.3397
vt 0.5875 0.3234
vt 0.5708 0.3152
vt 0.5710 0.3108
vt 0.5908 0.3119
vt 0.5885 0.3001
vt 0.5712 0.3063
vt 0.5714 0.3019
vt 0.5863 0.2883
vt 0.5353 0.3210
vt 0.5531 0.3144
vt 0.5529 0.3189
vt 0.5376 0.3328
vt 0.5364 0.2977
vt 0.5534 0.3055
vt 0.5532 0.3100
vt 0.5330 0.3092
vt 0.5515 0.2839
vt 0.5581 0.3012
vt 0.5537 0.3011
vt 0.5397 0.2862
vt 0.5759 0.2930
vt 0.5719 0.3023
vt 0.5670 0.3022
vt 0.5670 0.2913
vt 0.5754 0.3320
vt 0.5716 0.3223
vt 0.5765 0.3223
vt 0.5843 0.3305
vt 0.5576 0.3317
vt 0.5618 0.3221
vt 0.5667 0.3223
vt 0.5664 0.3334
vt 0.5860 0.3216
vt 0.5766 0.3174
vt 0.5767 0.3124
vt 0.5877 0.3127
vt 0.5863 0.3037
vt 0.5767 0.3074
vt 0.5768 0.3025
vt 0.5848 0.2948
vt 0.5472 0.3210
vt 0.5569 0.3170
vt 0.5569 0.3220
vt 0.5487 0.3300
vt 0.5475 0.3031
vt 0.5571 0.3072
vt 0.5570 0.3121
vt 0.5458 0.3120
vt 0.5581 0.2928
vt 0.5621 0.3022
vt 0.5572 0.3022
vt 0.5492 0.2942
vt 0.5502 0.2738
vt 0.5541 0.2833
vt 0.5412 0.2862
vt 0.5332 0.2782
vt 0.5283 0.2951
vt 0.5379 0.2991
vt 0.5346 0.3120
vt 0.5234 0.3119
vt 0.5278 0.3289
vt 0.5375 0.3250
vt 0.5405 0.3379
vt 0.5322 0.3459
vt 0.6052 0.2962
vt 0.5957 0.3000
vt 0.5928 0.2870
vt 0.6008 0.2792
vt 0.6048 0.3300
vt 0.5954 0.3258
vt 0.5987 0.3129
vt 0.6097 0.3132
vt 0.5491 0.3508
vt 0.5533 0.3413
vt 0.5662 0.3446
vt 0.5660 0.3557
vt 0.5829 0.3513
vt 0.5792 0.3417
vt 0.5921 0.3387
vt 0.5998 0.3469
vt 0.5840 0.2743
vt 0.5799 0.2837
vt 0.5671 0.2804
vt 0.5672 0.2695
vt 0.5885 0.3001
vt 0.5863 0.2883
vt 0.5714 0.3019
vt 0.5712 0.3063
vt 0.5748 0.2850
vt 0.5633 0.2817
vt 0.5625 0.3014
vt 0.5669 0.3016
vt 0.5515 0.2839
vt 0.5397 0.2862
vt 0.5537 0.3011
vt 0.5581 0.3012
vt 0.5364 0.2977
vt 0.5330 0.3092
vt 0.5532 0.3100
vt 0.5534 0.3055
vt 0.5353 0.3210
vt 0.5376 0.3328
vt 0.5529 0.3189
vt 0.5531 0.3144
vt 0.5491 0.3363
vt 0.5606 0.3397
vt 0.5617 0.3195
vt 0.5573 0.3192
vt 0.5724 0.3373
vt 0.5841 0.3350
vt 0.5706 0.3197
vt 0.5661 0.3196
vt 0.5875 0.3234
vt 0.5908 0.3119
vt 0.5710 0.3108
vt 0.5708 0.3152
vt 0.5724 0.3373
vt 0.5606 0.3397
vt 0.5595 0.3598
vt 0.5786 0.3550
vt 0.5491 0.3363
vt 0.5376 0.3328
vt 0.5223 0.3468
vt 0.5409 0.3533
vt 0.5353 0.3210
vt 0.5330 0.3092
vt 0.5128 0.3085
vt 0.5175 0.3277
vt 0.5364 0.2977
vt 0.5397 0.2862
vt 0.5257 0.2713
vt 0.5192 0.2899
vt 0.5515 0.2839
vt 0.5633 0.2817
vt 0.5640 0.2619
vt 0.5448 0.2666
vt 0.5748 0.2850
vt 0.5863 0.2883
vt 0.6012 0.2748
vt 0.5826 0.2684
vt 0.5885 0.3001
vt 0.5908 0.3119
vt 0.6106 0.3130
vt 0.6059 0.2939
vt 0.5875 0.3234
vt 0.5841 0.3350
vt 0.5977 0.3502
vt 0.6041 0.3316
vt 0.5885 0.3001
vt 0.5863 0.2883
vt 0.5714 0.3019
vt 0.5712 0.3063
vt 0.5748 0.2850
vt 0.5633 0.2817
vt 0.5625 0.3014
vt 0.5669 0.3016
vt 0.5515 0.2839
vt 0.5397 0.2862
vt 0.5537 0.3011
vt 0.5581 0.3012
vt 0.5364 0.2977
vt 0.5330 0.3092
vt 0.5532 0.3100
vt 0.5534 0.3055
vt 0.5353 0.3210
vt 0.5376 0.3328
vt 0.5529 0.3189
vt 0.5531 0.3144
vt 0.5491 0.3363
vt 0.5606 0.3397
vt 0.5617 0.3195
vt 0.5573 0.3192
vt 0.5724 0.3373
vt 0.5841 0.3350
vt 0.5706 0.3197
vt 0.5661 0.3196
vt 0.5875 0.3234
vt 0.5908 0.3119
vt 0.5710 0.3108
vt 0.5708 0.3152
vt 0.5885 0.3001
vt 0.5863 0.2883
vt 0.5714 0.3019
vt 0.5712 0.3063
vt 0.5748 0.2850
vt 0.5633 0.2817
vt 0.5625 0.3014
vt 0.5669 0.3016
vt 0.5515 0.2839
vt 0.5397 0.2862
vt 0.5537 0.3011
vt 0.5581 0.3012
vt 0.5364 0.2977
vt 0.5330 0.3092
vt 0.5532 0.3100
vt 0.5534 0.3055
vt 0.5353 0.3210
vt 0.5376 0.3328
vt 0.5529 0.3189
vt 0.5531 0.3144
vt 0.5491 0.3363
vt 0.5606 0.3397
vt 0.5617 0.3195
vt 0.5573 0.3192
vt 0.5724 0.3373
vt 0.5841 0.3350
vt 0.5706 0.3197
vt 0.5661 0.3196
vt 0.5875 0.3234
vt 0.5908 0.3119
vt 0.5710 0.3108
vt 0.5708 0.3152
vt 0.5827 0.2881
vt 0.5734 0.2822
vt 0.5829 0.3025
vt 0.5829 0.3078
vt 0.5612 0.2844
vt 0.5490 0.2867
vt 0.5723 0.3020
vt 0.5776 0.3022
vt 0.5431 0.2960
vt 0.5373 0.3053
vt 0.5618 0.3021
vt 0.5670 0.3020
vt 0.5396 0.3175
vt 0.5418 0.3298
vt 0.5614 0.3127
vt 0.5616 0.3074
vt 0.5511 0.3357
vt 0.5604 0.3416
vt 0.5614 0.3234
vt 0.5614 0.3180
vt 0.5726 0.3393
vt 0.5849 0.3371
vt 0.5720 0.3239
vt 0.5667 0.3237
vt 0.5907 0.3277
vt 0.5966 0.3184
vt 0.5826 0.3237
vt 0.5773 0.3238
vt 0.5943 0.3062
vt 0.5920 0.2940
vt 0.5829 0.3131
vt 0.5827 0.3184
vt 0.5864 0.2874
vt 0.5759 0.2815
vt 0.5791 0.3054
vt 0.5789 0.3105
vt 0.5626 0.2844
vt 0.5493 0.2872
vt 0.5690 0.3047
vt 0.5741 0.3051
vt 0.5433 0.2978
vt 0.5373 0.3084
vt 0.5589 0.3044
vt 0.5640 0.3045
vt 0.5403 0.3217
vt 0.5432 0.3351
vt 0.5583 0.3146
vt 0.5586 0.3095
vt 0.5538 0.3410
vt 0.5644 0.3469
vt 0.5580 0.3247
vt 0.5582 0.3196
vt 0.5777 0.3441
vt 0.5910 0.3412
vt 0.5680 0.3255
vt 0.5630 0.3251
vt 0.5969 0.3306
vt 0.6028 0.3199
vt 0.5781 0.3256
vt 0.5731 0.3256
vt 0.5999 0.3066
vt 0.5969 0.2933
vt 0.5787 0.3155
vt 0.5784 0.3205
vt 0.5901 0.3243
vt 0.5938 0.3122
vt 0.5664 0.3064
vt 0.5661 0.3106
vt 0.5891 0.3017
vt 0.5844 0.2912
vt 0.5580 0.3058
vt 0.5622 0.3061
vt 0.5722 0.2875
vt 0.5601 0.2839
vt 0.5495 0.3053
vt 0.5538 0.3055
vt 0.5496 0.2885
vt 0.5391 0.2933
vt 0.5490 0.3138
vt 0.5493 0.3095
vt 0.5354 0.3054
vt 0.5317 0.3176
vt 0.5484 0.3223
vt 0.5487 0.3180
vt 0.5364 0.3282
vt 0.5411 0.3387
vt 0.5569 0.3230
vt 0.5526 0.3227
vt 0.5533 0.3424
vt 0.5654 0.3460
vt 0.5653 0.3234
vt 0.5611 0.3232
vt 0.5759 0.3413
vt 0.5863 0.3365
vt 0.5658 0.3149
vt 0.5655 0.3192
vt 0.5753 0.3401
vt 0.5651 0.3453
vt 0.5536 0.3682
vt 0.5741 0.3629
vt 0.5527 0.3413
vt 0.5404 0.3374
vt 0.5142 0.3525
vt 0.5339 0.3604
vt 0.5353 0.3271
vt 0.5303 0.3167
vt 0.5036 0.3114
vt 0.5089 0.3320
vt 0.5342 0.3044
vt 0.5381 0.2921
vt 0.5193 0.2720
vt 0.5114 0.2917
vt 0.5485 0.2869
vt 0.5588 0.2818
vt 0.5604 0.2615
vt 0.5398 0.2668
vt 0.5711 0.2858
vt 0.5833 0.2897
vt 0.5997 0.2772
vt 0.5800 0.2693
vt 0.5884 0.3000
vt 0.5935 0.3104
vt 0.6102 0.3182
vt 0.6049 0.2977
vt 0.5896 0.3226
vt 0.5856 0.3350
vt 0.5946 0.3575
vt 0.6024 0.3378
vt 0.5240 0.3539
vt 0.5448 0.3604
vt 0.5240 0.3539
vt 0.5253 0.2702
vt 0.5188 0.2910
vt 0.5253 0.2702
vt 0.6088 0.2715
vt 0.5881 0.2650
vt 0.6088 0.2715
vt 0.5657 0.3669
vt 0.5867 0.3610
vt 0.5657 0.3669
vt 0.5122 0.3118
vt 0.5181 0.3328
vt 0.5122 0.3118
vt 0.5673 0.2585
vt 0.5463 0.2643
vt 0.5673 0.2585
vt 0.6076 0.3551
vt 0.6141 0.3343
vt 0.6076 0.3551
vt 0.6206 0.3135
vt 0.6147 0.2925
vt 0.6206 0.3135
vt 0.8048 0.9140
vt 0.8032 0.9391
vt 0.8010 0.9383
vt 0.8023 0.9136
vt 0.8016 0.9648
vt 0.8000 0.9905
vt 0.7982 0.9912
vt 0.7996 0.9647
vt 0.7894 0.9139
vt 0.7896 0.9391
vt 0.7872 0.9391
vt 0.7867 0.9139
vt 0.7900 0.9647
vt 0.7905 0.9904
vt 0.7893 0.9904
vt 0.7882 0.9648
vt 0.7998 0.9139
vt 0.7988 0.9390
vt 0.7966 0.9397
vt 0.7973 0.9142
vt 0.7978 0.9651
vt 0.7968 0.9912
vt 0.7953 0.9912
vt 0.7959 0.9654
vt 0.8100 0.9147
vt 0.8077 0.9398
vt 0.8055 0.9398
vt 0.8074 0.9145
vt 0.8056 0.9651
vt 0.8035 0.9904
vt 0.8018 0.9898
vt 0.8037 0.9648
vt 0.7947 0.9140
vt 0.7943 0.9394
vt 0.7920 0.9391
vt 0.7922 0.9139
vt 0.7939 0.9651
vt 0.7935 0.9907
vt 0.7917 0.9903
vt 0.7918 0.9647
vt 0.7951 0.8887
vt 0.7923 0.8887
vt 0.7980 0.8887
vt 0.8100 0.9399
vt 0.8076 0.9654
vt 0.8052 0.9910
vt 0.8123 0.8895
vt 0.8093 0.8892
vt 0.8152 0.8898
vt 0.8126 0.9148
vt 0.8008 0.8888
vt 0.8036 0.8888
vt 0.7893 0.8887
vt 0.7863 0.8887
vt 0.8065 0.8890
vt 0.6147 0.2925
vt 0.6206 0.3135
vt 0.6141 0.3343
vt 0.6076 0.3551
vt 0.5463 0.2643
vt 0.5673 0.2585
vt 0.5181 0.3328
vt 0.5122 0.3118
vt 0.5867 0.3610
vt 0.5657 0.3669
vt 0.5881 0.2650
vt 0.6088 0.2715
vt 0.5188 0.2910
vt 0.5253 0.2702
vt 0.5448 0.3604
vt 0.5240 0.3539
vt 0.5935 0.3104
vt 0.6102 0.3182
vt 0.5768 0.3025
vt 0.5767 0.3074
vt 0.5767 0.3124
vt 0.5833 0.2897
vt 0.5997 0.2772
vt 0.5670 0.3022
vt 0.5719 0.3023
vt 0.5768 0.3025
vt 0.5588 0.2818
vt 0.5604 0.2615
vt 0.5572 0.3022
vt 0.5621 0.3022
vt 0.5670 0.3022
vt 0.5381 0.2921
vt 0.5193 0.2720
vt 0.5570 0.3121
vt 0.5571 0.3072
vt 0.5572 0.3022
vt 0.5303 0.3167
vt 0.5036 0.3114
vt 0.5569 0.3220
vt 0.5569 0.3170
vt 0.5570 0.3121
vt 0.5404 0.3374
vt 0.5142 0.3525
vt 0.5667 0.3223
vt 0.5618 0.3221
vt 0.5569 0.3220
vt 0.5651 0.3453
vt 0.5536 0.3682
vt 0.5765 0.3223
vt 0.5716 0.3223
vt 0.5667 0.3223
vt 0.5856 0.3350
vt 0.5946 0.3575
vt 0.5767 0.3124
vt 0.5766 0.3174
vt 0.5765 0.3223
vt 0.5654 0.3460
vt 0.5653 0.3234
vt 0.5656 0.3686
vt 0.5862 0.3634
vt 0.6069 0.3582
vt 0.5411 0.3387
vt 0.5569 0.3230
vt 0.5253 0.3544
vt 0.5454 0.3615
vt 0.5656 0.3686
vt 0.5317 0.3176
vt 0.5484 0.3223
vt 0.5149 0.3129
vt 0.5201 0.3336
vt 0.5253 0.3544
vt 0.5391 0.2933
vt 0.5490 0.3138
vt 0.5292 0.2727
vt 0.5221 0.2928
vt 0.5149 0.3129
vt 0.5601 0.2839
vt 0.5495 0.3053
vt 0.5706 0.2624
vt 0.5499 0.2675
vt 0.5292 0.2727
vt 0.5844 0.2912
vt 0.5580 0.3058
vt 0.6108 0.2766
vt 0.5907 0.2695
vt 0.5706 0.2624
vt 0.5938 0.3122
vt 0.5664 0.3064
vt 0.6212 0.3179
vt 0.6160 0.2973
vt 0.6108 0.2766
vt 0.5863 0.3365
vt 0.5658 0.3149
vt 0.6069 0.3582
vt 0.6141 0.3381
vt 0.6212 0.3179
vt 0.6028 0.3199
vt 0.5781 0.3256
vt 0.6275 0.3142
vt 0.6213 0.2927
vt 0.6152 0.2712
vt 0.5910 0.3412
vt 0.5680 0.3255
vt 0.6139 0.3569
vt 0.6207 0.3356
vt 0.6275 0.3142
vt 0.5644 0.3469
vt 0.5580 0.3247
vt 0.5708 0.3692
vt 0.5924 0.3630
vt 0.6139 0.3569
vt 0.5432 0.3351
vt 0.5583 0.3146
vt 0.5281 0.3556
vt 0.5495 0.3624
vt 0.5708 0.3692
vt 0.5373 0.3084
vt 0.5589 0.3044
vt 0.5158 0.3124
vt 0.5220 0.3340
vt 0.5281 0.3556
vt 0.5493 0.2872
vt 0.5690 0.3047
vt 0.5295 0.2698
vt 0.5227 0.2911
vt 0.5158 0.3124
vt 0.5759 0.2815
vt 0.5791 0.3054
vt 0.5726 0.2576
vt 0.5511 0.2637
vt 0.5295 0.2698
vt 0.5969 0.2933
vt 0.5787 0.3155
vt 0.6152 0.2712
vt 0.5939 0.2644
vt 0.5726 0.2576
vt 0.5966 0.3184
vt 0.5826 0.3237
vt 0.6106 0.3130
vt 0.6059 0.2939
vt 0.6012 0.2748
vt 0.5849 0.3371
vt 0.5720 0.3239
vt 0.5977 0.3502
vt 0.6041 0.3316
vt 0.6106 0.3130
vt 0.5604 0.3416
vt 0.5614 0.3234
vt 0.5595 0.3598
vt 0.5786 0.3550
vt 0.5977 0.3502
vt 0.5418 0.3298
vt 0.5614 0.3127
vt 0.5223 0.3468
vt 0.5409 0.3533
vt 0.5595 0.3598
vt 0.5373 0.3053
vt 0.5618 0.3021
vt 0.5128 0.3085
vt 0.5175 0.3277
vt 0.5223 0.3468
vt 0.5490 0.2867
vt 0.5723 0.3020
vt 0.5257 0.2713
vt 0.5192 0.2899
vt 0.5128 0.3085
vt 0.5734 0.2822
vt 0.5829 0.3025
vt 0.5640 0.2619
vt 0.5448 0.2666
vt 0.5257 0.2713
vt 0.5920 0.2940
vt 0.5829 0.3131
vt 0.6012 0.2748
vt 0.5826 0.2684
vt 0.5640 0.2619
vt 0.5841 0.3350
vt 0.5706 0.3197
vt 0.5977 0.3502
vt 0.6041 0.3316
vt 0.6106 0.3130
vt 0.5606 0.3397
vt 0.5617 0.3195
vt 0.5595 0.3598
vt 0.5786 0.3550
vt 0.5977 0.3502
vt 0.5376 0.3328
vt 0.5529 0.3189
vt 0.5223 0.3468
vt 0.5409 0.3533
vt 0.5595 0.3598
vt 0.5330 0.3092
vt 0.5532 0.3100
vt 0.5128 0.3085
vt 0.5175 0.3277
vt 0.5223 0.3468
vt 0.5397 0.2862
vt 0.5537 0.3011
vt 0.5257 0.2713
vt 0.5192 0.2899
vt 0.5128 0.3085
vt 0.5633 0.2817
vt 0.5625 0.3014
vt 0.5640 0.2619
vt 0.5448 0.2666
vt 0.5257 0.2713
vt 0.5863 0.2883
vt 0.5714 0.3019
vt 0.6012 0.2748
vt 0.5826 0.2684
vt 0.5640 0.2619
vt 0.5908 0.3119
vt 0.5710 0.3108
vt 0.6106 0.3130
vt 0.6059 0.2939
vt 0.6012 0.2748
vt 0.5841 0.3350
vt 0.5706 0.3197
vt 0.5977 0.3502
vt 0.6041 0.3316
vt 0.6106 0.3130
vt 0.5606 0.3397
vt 0.5617 0.3195
vt 0.5595 0.3598
vt 0.5786 0.3550
vt 0.5977 0.3502
vt 0.5376 0.3328
vt 0.5529 0.3189
vt 0.5223 0.3468
vt 0.5409 0.3533
vt 0.5595 0.3598
vt 0.5330 0.3092
vt 0.5532 0.3100
vt 0.5128 0.3085
vt 0.5175 0.3277
vt 0.5223 0.3468
vt 0.5397 0.2862
vt 0.5537 0.3011
vt 0.5257 0.2713
vt 0.5192 0.2899
vt 0.5128 0.3085
vt 0.5633 0.2817
vt 0.5625 0.3014
vt 0.5640 0.2619
vt 0.5448 0.2666
vt 0.5257 0.2713
vt 0.5863 0.2883
vt 0.5714 0.3019
vt 0.6012 0.2748
vt 0.5826 0.2684
vt 0.5640 0.2619
vt 0.5908 0.3119
vt 0.5710 0.3108
vt 0.6106 0.3130
vt 0.6059 0.2939
vt 0.6012 0.2748
vt 0.5908 0.3119
vt 0.6106 0.3130
vt 0.5710 0.3108
vt 0.5708 0.3152
vt 0.5706 0.3197
vt 0.5863 0.2883
vt 0.6012 0.2748
vt 0.5714 0.3019
vt 0.5712 0.3063
vt 0.5710 0.3108
vt 0.5633 0.2817
vt 0.5640 0.2619
vt 0.5625 0.3014
vt 0.5669 0.3016
vt 0.5714 0.3019
vt 0.5397 0.2862
vt 0.5257 0.2713
vt 0.5537 0.3011
vt 0.5581 0.3012
vt 0.5625 0.3014
vt 0.5330 0.3092
vt 0.5128 0.3085
vt 0.5532 0.3100
vt 0.5534 0.3055
vt 0.5537 0.3011
vt 0.5376 0.3328
vt 0.5223 0.3468
vt 0.5529 0.3189
vt 0.5531 0.3144
vt 0.5532 0.3100
vt 0.5606 0.3397
vt 0.5595 0.3598
vt 0.5617 0.3195
vt 0.5573 0.3192
vt 0.5529 0.3189
vt 0.5841 0.3350
vt 0.5977 0.3502
vt 0.5706 0.3197
vt 0.5661 0.3196
vt 0.5617 0.3195
vt 0.5841 0.3350
vt 0.5706 0.3197
vt 0.5977 0.3502
vt 0.6041 0.3316
vt 0.6106 0.3130
vt 0.5606 0.3397
vt 0.5617 0.3195
vt 0.5595 0.3598
vt 0.5786 0.3550
vt 0.5977 0.3502
vt 0.5376 0.3328
vt 0.5529 0.3189
vt 0.5223 0.3468
vt 0.5409 0.3533
vt 0.5595 0.3598
vt 0.5330 0.3092
vt 0.5532 0.3100
vt 0.5128 0.3085
vt 0.5175 0.3277
vt 0.5223 0.3468
vt 0.5397 0.2862
vt 0.5537 0.3011
vt 0.5257 0.2713
vt 0.5192 0.2899
vt 0.5128 0.3085
vt 0.5633 0.2817
vt 0.5625 0.3014
vt 0.5640 0.2619
vt 0.5448 0.2666
vt 0.5257 0.2713
vt 0.5863 0.2883
vt 0.5714 0.3019
vt 0.6012 0.2748
vt 0.5826 0.2684
vt 0.5640 0.2619
vt 0.5908 0.3119
vt 0.5710 0.3108
vt 0.6106 0.3130
vt 0.6059 0.2939
vt 0.6012 0.2748
vt 0.5448 0.2666
vt 0.5257 0.2713
vt 0.5640 0.2619
vt 0.5192 0.2899
vt 0.5128 0.3085
vt 0.5175 0.3277
vt 0.5223 0.3468
vt 0.6059 0.2939
vt 0.6012 0.2748
vt 0.6106 0.3130
vt 0.6041 0.3316
vt 0.5977 0.3502
vt 0.5409 0.3533
vt 0.5595 0.3598
vt 0.5786 0.3550
vt 0.5826 0.2684
vt 0.5397 0.2862
vt 0.5537 0.3011
vt 0.5330 0.3092
vt 0.5532 0.3100
vt 0.5376 0.3328
vt 0.5529 0.3189
vt 0.5863 0.2883
vt 0.5714 0.3019
vt 0.5908 0.3119
vt 0.5710 0.3108
vt 0.5606 0.3397
vt 0.5617 0.3195
vt 0.5841 0.3350
vt 0.5706 0.3197
vt 0.5633 0.2817
vt 0.5625 0.3014
vt 0.5448 0.2666
vt 0.5257 0.2713
vt 0.5640 0.2619
vt 0.5192 0.2899
vt 0.5128 0.3085
vt 0.5175 0.3277
vt 0.5223 0.3468
vt 0.6059 0.2939
vt 0.6012 0.2748
vt 0.6106 0.3130
vt 0.6041 0.3316
vt 0.5977 0.3502
vt 0.5409 0.3533
vt 0.5595 0.3598
vt 0.5786 0.3550
vt 0.5826 0.2684
vt 0.5448 0.2666
vt 0.5257 0.2713
vt 0.5640 0.2619
vt 0.5192 0.2899
vt 0.5128 0.3085
vt 0.5175 0.3277
vt 0.5223 0.3468
vt 0.6059 0.2939
vt 0.6012 0.2748
vt 0.6106 0.3130
vt 0.6041 0.3316
vt 0.5977 0.3502
vt 0.5409 0.3533
vt 0.5595 0.3598
vt 0.5786 0.3550
vt 0.5826 0.2684
vt 0.5448 0.2666
vt 0.5257 0.2713
vt 0.5640 0.2619
vt 0.5192 0.2899
vt 0.5128 0.3085
vt 0.5175 0.3277
vt 0.5223 0.3468
vt 0.6059 0.2939
vt 0.6012 0.2748
vt 0.6106 0.3130
vt 0.6041 0.3316
vt 0.5977 0.3502
vt 0.5409 0.3533
vt 0.5595 0.3598
vt 0.5786 0.3550
vt 0.5826 0.2684
vt 0.5511 0.2637
vt 0.5295 0.2698
vt 0.5726 0.2576
vt 0.5227 0.2911
vt 0.5158 0.3124
vt 0.5220 0.3340
vt 0.5281 0.3556
vt 0.6213 0.2927
vt 0.6152 0.2712
vt 0.6275 0.3142
vt 0.6207 0.3356
vt 0.6139 0.3569
vt 0.5495 0.3624
vt 0.5708 0.3692
vt 0.5924 0.3630
vt 0.5939 0.2644
vt 0.5800 0.2693
vt 0.5604 0.2615
vt 0.5997 0.2772
vt 0.5741 0.3629
vt 0.5946 0.3575
vt 0.5536 0.3682
vt 0.5339 0.3604
vt 0.5142 0.3525
vt 0.6024 0.3378
vt 0.6102 0.3182
vt 0.6049 0.2977
vt 0.5089 0.3320
vt 0.5036 0.3114
vt 0.5114 0.2917
vt 0.5193 0.2720
vt 0.5398 0.2668
vt 0.5499 0.2675
vt 0.5292 0.2727
vt 0.5706 0.2624
vt 0.5221 0.2928
vt 0.5149 0.3129
vt 0.5201 0.3336
vt 0.5253 0.3544
vt 0.6160 0.2973
vt 0.6108 0.2766
vt 0.6212 0.3179
vt 0.6141 0.3381
vt 0.6069 0.3582
vt 0.5454 0.3615
vt 0.5656 0.3686
vt 0.5862 0.3634
vt 0.5907 0.2695
vn 0.4815 0.4278 0.7650
vn 0.4977 -0.8146 0.2978
vn -0.0063 -0.9991 0.0417
vn -0.0005 0.4719 0.8817
vn 0.4825 0.4365 -0.7594
vn 0.4996 -0.8093 -0.3088
vn 0.4447 -0.7745 -0.4499
vn 0.6310 0.4531 -0.6297
vn -0.4831 0.4419 -0.7559
vn -0.5044 -0.8054 -0.3113
vn -0.0059 -0.9985 -0.0550
vn -0.0005 0.4820 -0.8762
vn 0.7614 0.4333 -0.4821
vn 0.3004 -0.8108 -0.5024
vn 0.0417 -0.9991 -0.0063
vn 0.8817 0.4719 -0.0005
vn 0.7650 0.4278 0.4815
vn 0.2978 -0.8146 0.4977
vn 0.4400 -0.7828 0.4400
vn 0.6329 0.4460 0.6329
vn -0.7559 0.4419 -0.4831
vn -0.3113 -0.8054 -0.5044
vn -0.4543 -0.7663 -0.4543
vn -0.6278 0.4601 -0.6278
vn -0.7594 0.4365 0.4825
vn -0.3088 -0.8093 0.4996
vn -0.0550 -0.9985 -0.0059
vn -0.8762 0.4820 -0.0005
vn -0.4821 0.4333 0.7614
vn -0.5024 -0.8108 0.3004
vn -0.4499 -0.7745 0.4447
vn -0.6297 0.4531 0.6310
vn -0.2200 0.5151 0.8284
vn 0.2370 -0.6421 0.7290
vn -0.2629 -0.9272 0.2667
vn -0.5774 0.5771 0.5776
vn 0.8233 0.5251 -0.2155
vn 0.7372 -0.6331 0.2362
vn 0.6536 -0.7569 -0.0053
vn 0.8523 0.5231 0.0006
vn 0.2130 0.5305 -0.8205
vn -0.2419 -0.6279 -0.7397
vn 0.2767 -0.9215 -0.2726
vn 0.5720 0.5881 -0.5718
vn 0.8254 0.5210 0.2173
vn 0.7318 -0.6369 -0.2426
vn 0.2629 -0.9272 0.2667
vn 0.5772 0.5774 0.5775
vn 0.2199 0.5152 0.8284
vn -0.2370 -0.6421 0.7290
vn -0.0000 -0.7637 0.6456
vn -0.0000 0.5153 0.8570
vn -0.2131 0.5304 -0.8205
vn 0.2419 -0.6279 -0.7397
vn -0.0000 -0.7501 -0.6614
vn -0.0000 0.5303 -0.8478
vn -0.8235 0.5247 -0.2157
vn -0.7372 -0.6331 0.2362
vn -0.2767 -0.9215 -0.2726
vn -0.5722 0.5878 -0.5719
vn -0.8256 0.5206 0.2175
vn -0.7318 -0.6369 -0.2426
vn -0.6536 -0.7569 -0.0053
vn -0.8525 0.5227 0.0006
vn -0.4288 0.6716 0.6042
vn -0.4490 0.5652 0.6920
vn -0.5659 0.5989 0.5667
vn -0.5220 0.6740 0.5228
vn -0.6016 0.6741 0.4285
vn -0.6896 0.5682 0.4490
vn -0.7791 0.6269 0.0005
vn -0.6686 0.7436 0.0006
vn -0.5951 0.6806 -0.4274
vn -0.6848 0.5742 -0.4487
vn -0.5624 0.6062 -0.5624
vn -0.5174 0.6817 -0.5173
vn 0.6101 0.6656 0.4297
vn 0.6968 0.5591 0.4493
vn 0.5702 0.5914 0.5702
vn 0.5268 0.6670 0.5269
vn 0.6035 0.6723 -0.4287
vn 0.6920 0.5652 -0.4490
vn 0.7875 0.6164 0.0005
vn 0.6785 0.7346 0.0006
vn -0.4274 0.6807 -0.5949
vn -0.4487 0.5742 -0.6848
vn 0.0005 0.6269 -0.7791
vn 0.0003 0.7440 -0.6681
vn 0.4284 0.6748 -0.6009
vn 0.4490 0.5682 -0.6896
vn 0.5667 0.5989 -0.5659
vn 0.5222 0.6749 -0.5214
vn 0.4297 0.6655 0.6103
vn 0.4493 0.5591 0.6968
vn 0.0005 0.6164 0.7875
vn 0.0003 0.7341 0.6790
vn 0.4835 0.4997 0.7187
vn 0.4239 -0.7698 0.4772
vn -0.0045 -0.9702 0.2422
vn -0.0004 0.5593 0.8290
vn 0.4843 0.5071 -0.7129
vn 0.4327 -0.7629 -0.4804
vn 0.5177 -0.6808 -0.5182
vn 0.6067 0.5148 -0.6057
vn -0.4848 0.5124 -0.7088
vn -0.4394 -0.7585 -0.4812
vn -0.0043 -0.9683 -0.2498
vn -0.0004 0.5682 -0.8229
vn 0.7148 0.5047 -0.4840
vn 0.4781 -0.7654 -0.4307
vn 0.2422 -0.9702 -0.0045
vn 0.8291 0.5591 -0.0005
vn 0.7188 0.4996 0.4835
vn 0.4772 -0.7698 0.4239
vn 0.5124 -0.6892 0.5124
vn 0.6088 0.5087 0.6087
vn -0.7088 0.5125 -0.4848
vn -0.4812 -0.7585 -0.4394
vn -0.5234 -0.6725 -0.5233
vn -0.6034 0.5212 -0.6035
vn -0.7127 0.5074 0.4843
vn -0.4804 -0.7629 0.4327
vn -0.2498 -0.9683 -0.0043
vn -0.8227 0.5684 -0.0005
vn -0.4841 0.5050 0.7146
vn -0.4307 -0.7654 0.4781
vn -0.5182 -0.6808 0.5177
vn -0.6055 0.5152 0.6066
vn 0.8515 0.4282 0.3027
vn 0.3761 -0.8016 0.4648
vn 0.1957 -0.9598 0.2012
vn 0.6310 0.4504 0.6316
vn -0.2989 0.4350 -0.8494
vn -0.4730 -0.7939 -0.3821
vn 0.0010 -0.8700 -0.4931
vn 0.0011 0.4579 -0.8890
vn -0.8483 0.4384 -0.2970
vn -0.3855 -0.7895 -0.4776
vn -0.2088 -0.9566 -0.2034
vn -0.6288 0.4581 -0.6283
vn 0.3009 0.4314 -0.8505
vn 0.4696 -0.7972 -0.3794
vn 0.1957 -0.9598 -0.2012
vn 0.6311 0.4502 -0.6317
vn 0.8515 0.4281 -0.3027
vn 0.3761 -0.8016 -0.4648
vn 0.4835 -0.8754 0.0000
vn 0.8915 0.4530 -0.0001
vn -0.8482 0.4385 0.2970
vn -0.3855 -0.7895 0.4776
vn -0.5027 -0.8644 0.0000
vn -0.8863 0.4631 -0.0001
vn -0.2988 0.4352 0.8493
vn -0.4730 -0.7939 0.3821
vn -0.2088 -0.9566 0.2034
vn -0.6288 0.4583 0.6282
vn 0.3008 0.4316 0.8504
vn 0.4696 -0.7972 0.3794
vn 0.0010 -0.8700 0.4931
vn 0.0011 0.4583 0.8888
vn 0.8311 0.4275 0.3557
vn 0.1975 -0.6012 0.7743
vn 0.0000 0.0000 0.0000
vn 0.6379 0.4298 0.6391
vn -0.3497 0.4363 -0.8291
vn -0.7722 -0.5989 -0.2122
vn 0.0108 -0.8723 -0.4888
vn 0.0021 0.4744 -0.8803
vn -0.8282 0.4399 -0.3472
vn -0.2241 -0.5998 -0.7681
vn -0.6356 0.4398 -0.6345
vn 0.3532 0.4311 -0.8303
vn 0.7701 -0.6025 -0.2097
vn 0.6379 0.4298 -0.6391
vn 0.8311 0.4275 -0.3557
vn 0.1975 -0.6012 -0.7743
vn 0.4688 -0.8833 0.0000
vn 0.8834 0.4686 0.0000
vn -0.8282 0.4399 0.3472
vn -0.2241 -0.5998 0.7681
vn -0.8772 0.4801 0.0000
vn -0.3497 0.4363 0.8291
vn -0.7722 -0.5989 0.2122
vn -0.6356 0.4398 0.6345
vn 0.3532 0.4311 0.8303
vn 0.7701 -0.6025 0.2097
vn 0.0108 -0.8723 0.4888
vn 0.0021 0.4744 0.8803
vn 0.9132 0.3503 0.2084
vn 0.1941 -0.5615 0.8044
vn 0.2109 -0.9513 0.2249
vn 0.6515 0.3857 0.6532
vn -0.2035 0.3561 -0.9120
vn -0.8020 -0.5604 -0.2068
vn 0.0170 -0.8016 -0.5976
vn 0.0010 0.3694 -0.9293
vn -0.9113 0.3598 -0.2003
vn -0.2191 -0.5611 -0.7982
vn -0.2269 -0.9502 -0.2136
vn -0.6510 0.3932 -0.6493
vn 0.2052 0.3540 -0.9125
vn 0.8004 -0.5626 -0.2067
vn 0.2109 -0.9513 -0.2249
vn 0.6515 0.3857 -0.6532
vn 0.9132 0.3503 -0.2084
vn 0.1941 -0.5615 -0.8044
vn 0.5794 -0.8151 0.0000
vn 0.9311 0.3647 0.0000
vn -0.9113 0.3598 0.2003
vn -0.2191 -0.5611 0.7982
vn -0.6150 -0.7885 0.0000
vn -0.9274 0.3740 -0.0000
vn -0.2035 0.3561 0.9120
vn -0.8020 -0.5604 0.2068
vn -0.2269 -0.9502 0.2136
vn -0.6510 0.3932 0.6493
vn 0.2052 0.3540 0.9125
vn 0.8004 -0.5626 0.2067
vn 0.0170 -0.8016 0.5976
vn 0.0010 0.3694 0.9293
vn 0.9542 0.2992 0.0000
vn 0.9661 0.2583 0.0000
vn 0.9187 0.2714 0.2869
vn -0.6723 0.3132 -0.6708
vn -0.6766 0.2922 -0.6759
vn -0.2845 0.2772 -0.9177
vn -0.9524 0.3047 0.0000
vn -0.9618 0.2738 -0.0000
vn -0.9172 0.2802 -0.2831
vn -0.0004 0.3019 -0.9533
vn 0.0010 0.2661 -0.9640
vn 0.2855 0.2744 -0.9182
vn 0.6722 0.3070 -0.6737
vn 0.6784 0.2807 -0.6790
vn 0.9187 0.2714 -0.2869
vn -0.6723 0.3132 0.6708
vn -0.6766 0.2922 0.6759
vn -0.9172 0.2802 0.2831
vn -0.0004 0.3019 0.9533
vn 0.0010 0.2661 0.9640
vn -0.2845 0.2772 0.9177
vn 0.6722 0.3070 0.6737
vn 0.6784 0.2807 0.6790
vn 0.2855 0.2744 0.9182
vn -0.2647 0.3179 -0.9104
vn -0.0001 0.3246 -0.9459
vn 0.0014 -0.8651 -0.5015
vn -0.5732 -0.7686 -0.2841
vn -0.9104 0.3179 0.2647
vn -0.9459 0.3244 -0.0000
vn -0.5063 -0.8624 0.0000
vn -0.2907 -0.7672 0.5717
vn 0.2646 0.3179 0.9104
vn -0.0001 0.3246 0.9459
vn 0.0014 -0.8651 0.5015
vn 0.5753 -0.7677 0.2822
vn 0.2646 0.3179 -0.9104
vn 0.6616 0.3524 -0.6619
vn 0.5382 -0.6651 -0.5177
vn 0.5753 -0.7677 -0.2822
vn 0.9104 0.3180 -0.2646
vn 0.9458 0.3247 0.0000
vn 0.4967 -0.8679 -0.0000
vn 0.2752 -0.7688 -0.5772
vn -0.9104 0.3179 -0.2647
vn -0.6619 0.3525 -0.6616
vn -0.5214 -0.6606 -0.5401
vn -0.2907 -0.7672 -0.5717
vn -0.2647 0.3179 0.9104
vn -0.6619 0.3525 0.6616
vn -0.5214 -0.6606 0.5401
vn -0.5732 -0.7686 0.2841
vn 0.9104 0.3180 0.2646
vn 0.6616 0.3524 0.6619
vn 0.5382 -0.6651 0.5177
vn 0.2752 -0.7688 0.5772
vn 0.8806 0.4021 0.2505
vn 0.2959 -0.6535 0.6967
vn 0.2717 -0.9206 0.2804
vn 0.6357 0.4372 0.6362
vn -0.2476 0.4078 -0.8789
vn -0.6987 -0.6478 -0.3035
vn 0.0076 -0.8577 -0.5141
vn 0.0006 0.4216 -0.9068
vn -0.8778 0.4110 -0.2460
vn -0.3108 -0.6443 -0.6988
vn -0.2862 -0.9170 -0.2777
vn -0.6339 0.4437 -0.6334
vn 0.2489 0.4053 -0.8796
vn 0.6969 -0.6499 -0.3033
vn 0.2717 -0.9206 -0.2804
vn 0.6357 0.4372 -0.6362
vn 0.8806 0.4021 -0.2505
vn 0.2959 -0.6535 -0.6967
vn 0.5015 -0.8651 -0.0000
vn 0.9088 0.4172 0.0000
vn -0.8778 0.4110 0.2460
vn -0.3108 -0.6443 0.6988
vn -0.5264 -0.8502 0.0000
vn -0.9048 0.4259 0.0000
vn -0.2476 0.4078 0.8789
vn -0.6987 -0.6478 0.3035
vn -0.2862 -0.9170 0.2777
vn -0.6339 0.4437 0.6334
vn 0.2489 0.4053 0.8796
vn 0.6969 -0.6499 0.3033
vn 0.0076 -0.8577 0.5141
vn 0.0006 0.4216 0.9068
vn 0.8268 0.5035 0.2507
vn 0.7131 -0.6945 -0.0964
vn 0.3143 -0.8964 0.3125
vn 0.5856 0.5609 0.5851
vn -0.2468 0.5135 -0.8218
vn 0.0937 -0.6852 -0.7223
vn -0.0054 -0.7870 -0.6169
vn 0.0006 0.5146 -0.8574
vn -0.8191 0.5188 -0.2447
vn -0.7255 -0.6814 0.0964
vn -0.3228 -0.8889 -0.3250
vn -0.5798 0.5719 -0.5803
vn 0.2486 0.5089 -0.8242
vn -0.0991 -0.6906 -0.7165
vn 0.3143 -0.8964 -0.3125
vn 0.5856 0.5609 -0.5851
vn 0.8268 0.5035 -0.2507
vn 0.7131 -0.6945 0.0964
vn 0.6086 -0.7935 0.0000
vn 0.8620 0.5069 0.0000
vn -0.8191 0.5188 0.2447
vn -0.7255 -0.6814 -0.0965
vn -0.6250 -0.7806 -0.0000
vn -0.8529 0.5221 -0.0000
vn -0.2468 0.5135 0.8218
vn 0.0937 -0.6852 0.7223
vn -0.3228 -0.8889 0.3250
vn -0.5798 0.5719 0.5803
vn 0.2486 0.5089 0.8242
vn -0.0991 -0.6906 0.7165
vn -0.0054 -0.7870 0.6169
vn 0.0006 0.5146 0.8574
vn 0.0459 0.8042 0.5925
vn 0.1312 0.6761 0.7251
vn -0.0001 0.7112 0.7029
vn 0.0002 0.8082 0.5888
vn -0.0451 0.8052 0.5913
vn -0.1298 0.6785 0.7231
vn -0.4656 0.7518 0.4670
vn -0.3506 0.8680 0.3517
vn -0.5842 0.8106 0.0408
vn -0.7181 0.6844 0.1262
vn -0.6960 0.7180 0.0000
vn -0.5809 0.8140 0.0000
vn 0.5998 0.7986 -0.0503
vn 0.7301 0.6699 -0.1348
vn 0.7100 0.7042 0.0000
vn 0.5970 0.8023 0.0000
vn 0.0459 0.8042 -0.5925
vn 0.1312 0.6761 -0.7251
vn 0.4744 0.7424 -0.4730
vn 0.3596 0.8615 -0.3584
vn -0.5842 0.8106 -0.0408
vn -0.7181 0.6844 -0.1262
vn -0.4656 0.7518 -0.4670
vn -0.3506 0.8680 -0.3517
vn -0.0451 0.8052 -0.5913
vn -0.1298 0.6785 -0.7231
vn -0.0001 0.7112 -0.7029
vn 0.0002 0.8082 -0.5888
vn 0.5998 0.7986 0.0503
vn 0.7301 0.6699 0.1348
vn 0.4744 0.7424 0.4730
vn 0.3596 0.8615 0.3584
vn -0.8549 -0.5185 0.0203
vn -0.8385 -0.5449 -0.0000
vn -0.8549 -0.5185 -0.0203
vn -0.5652 -0.5980 -0.5683
vn -0.0108 -0.5289 -0.8486
vn -0.0008 -0.5555 -0.8315
vn 0.0113 -0.5289 -0.8486
vn 0.5604 -0.6126 -0.5574
vn 0.8423 -0.5390 -0.0020
vn 0.8245 -0.5658 0.0000
vn 0.8423 -0.5390 0.0020
vn 0.5604 -0.6126 0.5574
vn 0.0113 -0.5289 0.8486
vn -0.0008 -0.5555 0.8315
vn -0.0108 -0.5289 0.8486
vn -0.5652 -0.5980 0.5683
vn 0.0011 -0.6420 0.7667
vn 0.4698 -0.7484 0.4683
vn 0.7606 -0.6492 -0.0064
vn 0.7553 -0.6553 -0.0000
vn 0.7606 -0.6492 0.0064
vn 0.4698 -0.7484 -0.4683
vn 0.0011 -0.6420 -0.7667
vn -0.0001 -0.6482 -0.7614
vn -0.0011 -0.6421 -0.7666
vn -0.4760 -0.7384 -0.4776
vn -0.7727 -0.6347 -0.0087
vn -0.7676 -0.6410 -0.0000
vn -0.7727 -0.6347 0.0087
vn -0.4760 -0.7384 0.4776
vn -0.0011 -0.6421 0.7666
vn -0.0001 -0.6482 0.7614
vn -0.7666 -0.6357 0.0909
vn 0.4142 -0.7872 -0.4568
vn 0.6149 -0.7886 -0.0000
vn -0.7560 -0.6546 -0.0000
vn -0.7666 -0.6357 -0.0909
vn 0.4142 -0.7872 0.4568
vn 0.5374 -0.6575 0.5282
vn -0.5064 -0.6974 -0.5072
vn -0.0843 -0.6445 -0.7599
vn 0.4586 -0.7830 0.4203
vn 0.0004 -0.7843 0.6204
vn -0.0011 -0.6641 -0.7476
vn 0.0828 -0.6465 -0.7584
vn -0.4583 -0.7814 0.4236
vn -0.5340 -0.6485 0.5425
vn 0.4981 -0.7104 -0.4973
vn 0.7517 -0.6551 -0.0763
vn -0.4295 -0.7771 0.4600
vn -0.6258 -0.7799 0.0000
vn 0.7393 -0.6733 0.0000
vn 0.7517 -0.6551 0.0763
vn -0.4295 -0.7771 -0.4600
vn -0.5340 -0.6485 -0.5425
vn 0.4981 -0.7104 0.4973
vn 0.0828 -0.6465 0.7584
vn -0.4583 -0.7814 -0.4236
vn 0.0004 -0.7843 -0.6204
vn -0.0011 -0.6641 0.7476
vn -0.0843 -0.6445 0.7599
vn 0.4586 -0.7830 -0.4203
vn 0.5374 -0.6575 -0.5282
vn -0.5064 -0.6974 0.5072
vn -0.7475 -0.6315 0.2058
vn 0.3022 -0.7611 -0.5739
vn -0.7529 -0.6582 -0.0000
vn -0.7475 -0.6315 -0.2058
vn 0.3022 -0.7611 0.5739
vn 0.4901 -0.7242 0.4851
vn -0.5333 -0.6554 -0.5349
vn -0.2010 -0.6368 -0.7443
vn 0.5759 -0.7580 0.3063
vn -0.0020 -0.6643 -0.7474
vn 0.1975 -0.6405 -0.7421
vn -0.5775 -0.7545 0.3117
vn -0.4926 -0.7140 0.4974
vn 0.5279 -0.6666 -0.5264
vn 0.7389 -0.6457 -0.1927
vn -0.3158 -0.7514 0.5794
vn 0.7420 -0.6704 0.0000
vn 0.7389 -0.6457 0.1927
vn -0.3158 -0.7514 -0.5794
vn -0.4926 -0.7140 -0.4974
vn 0.5279 -0.6666 0.5264
vn 0.1975 -0.6405 0.7421
vn -0.5775 -0.7545 -0.3117
vn -0.0020 -0.6643 0.7474
vn -0.2010 -0.6368 0.7443
vn 0.5759 -0.7580 -0.3063
vn 0.4901 -0.7242 -0.4851
vn -0.5333 -0.6554 0.5349
vn -0.5722 -0.7790 -0.2566
vn 0.5301 -0.7607 0.3745
vn 0.5611 -0.6053 0.5647
vn -0.3953 -0.8291 -0.3954
vn -0.2567 -0.7789 -0.5723
vn 0.3734 -0.7598 0.5322
vn -0.0004 -0.7127 0.7015
vn -0.0003 -0.7708 -0.6370
vn 0.2545 -0.7826 -0.5681
vn -0.3737 -0.7572 0.5357
vn -0.5643 -0.5986 0.5685
vn 0.3887 -0.8343 -0.3910
vn 0.5636 -0.7869 -0.2514
vn -0.5400 -0.7529 0.3763
vn -0.7062 -0.7080 0.0016
vn 0.6273 -0.7788 -0.0004
vn 0.5595 -0.7905 0.2493
vn -0.5413 -0.7516 -0.3768
vn -0.5699 -0.5954 -0.5663
vn 0.3843 -0.8395 0.3842
vn 0.2492 -0.7906 0.5594
vn -0.3779 -0.7525 -0.5393
vn -0.0005 -0.7097 -0.7045
vn -0.0003 -0.7790 0.6271
vn -0.2513 -0.7870 0.5634
vn 0.3776 -0.7551 -0.5359
vn 0.5667 -0.6020 -0.5626
vn -0.3908 -0.8345 0.3885
vn -0.5679 -0.7828 0.2544
vn 0.5316 -0.7594 -0.3751
vn 0.6997 -0.7144 0.0017
vn -0.6368 -0.7710 -0.0004
vn -0.3866 -0.7902 -0.4755
vn 0.1163 -0.7023 0.7024
vn 0.0001 -0.8678 -0.4969
vn 0.3867 -0.7901 -0.4757
vn -0.1196 -0.7008 0.7033
vn -0.4817 -0.7334 0.4797
vn 0.4482 -0.7735 -0.4481
vn 0.4743 -0.7911 -0.3863
vn -0.7042 -0.6996 0.1210
vn -0.8798 -0.4753 0.0040
vn 0.4891 -0.8722 -0.0016
vn 0.4631 -0.7988 0.3840
vn -0.7110 -0.6921 -0.1245
vn -0.4850 -0.7278 -0.4849
vn 0.4402 -0.7825 0.4404
vn 0.3837 -0.7997 0.4618
vn -0.1253 -0.6921 -0.7108
vn -0.0049 -0.4720 -0.8816
vn 0.0001 -0.8766 0.4811
vn -0.3836 -0.7998 0.4616
vn 0.1220 -0.6937 -0.7099
vn 0.4824 -0.7297 -0.4845
vn -0.4400 -0.7827 0.4402
vn -0.4629 -0.7990 0.3839
vn 0.7090 -0.6948 -0.1206
vn 0.8775 -0.4795 0.0038
vn -0.4888 -0.8724 -0.0016
vn -0.4741 -0.7912 -0.3863
vn 0.7023 -0.7022 0.1170
vn 0.4790 -0.7354 0.4793
vn -0.4481 -0.7737 -0.4479
vn -0.7073 -0.6592 -0.2552
vn 0.5734 -0.7943 0.2009
vn 0.5906 -0.5670 0.5742
vn -0.4817 -0.7321 -0.4816
vn -0.2551 -0.6594 -0.7072
vn 0.2133 -0.7956 0.5670
vn 0.0060 -0.7776 0.6288
vn -0.0000 -0.6357 -0.7720
vn 0.2534 -0.6645 -0.7030
vn -0.2163 -0.7942 0.5679
vn -0.5792 -0.5622 0.5903
vn 0.4732 -0.7409 -0.4766
vn 0.6965 -0.6727 -0.2497
vn -0.5739 -0.7874 0.2250
vn -0.6359 -0.7718 -0.0003
vn 0.7606 -0.6492 0.0001
vn 0.6924 -0.6775 0.2481
vn -0.5774 -0.7849 -0.2247
vn -0.5812 -0.5536 -0.5965
vn 0.4683 -0.7492 0.4684
vn 0.2482 -0.6773 0.6926
vn -0.2138 -0.7836 -0.5833
vn 0.0056 -0.7688 -0.6395
vn 0.0000 -0.6489 0.7608
vn -0.2498 -0.6725 0.6967
vn 0.2108 -0.7850 -0.5825
vn 0.5927 -0.5583 -0.5805
vn -0.4768 -0.7406 0.4734
vn -0.7032 -0.6642 0.2536
vn 0.5769 -0.7918 -0.2007
vn 0.6326 -0.7745 -0.0000
vn -0.7722 -0.6354 0.0001
vn -0.3574 -0.8045 0.4744
vn -0.0018 -0.8722 0.4892
vn 0.3543 -0.8124 0.4631
vn 0.4245 -0.7997 0.4246
vn 0.4612 -0.8137 0.3538
vn 0.4807 -0.8769 0.0001
vn 0.4611 -0.8138 -0.3538
vn 0.4245 -0.7998 -0.4245
vn 0.3543 -0.8125 -0.4629
vn -0.0018 -0.8723 -0.4890
vn -0.3574 -0.8046 -0.4742
vn -0.4333 -0.7903 -0.4332
vn -0.4763 -0.8032 -0.3579
vn -0.4978 -0.8673 0.0001
vn -0.4764 -0.8031 0.3580
vn -0.4334 -0.7902 0.4333
vn -0.8443 -0.5359 0.0000
vn -0.7992 -0.4965 -0.3387
vn 0.4642 -0.8857 0.0000
vn -0.0033 -0.5429 0.8398
vn -0.3383 -0.5049 0.7941
vn -0.0001 -0.8815 -0.4721
vn 0.8352 -0.5500 -0.0000
vn 0.7883 -0.5142 0.3378
vn -0.4802 -0.8771 0.0000
vn -0.6824 -0.2636 -0.6818
vn -0.3383 -0.5049 -0.7941
vn 0.2459 -0.9370 0.2481
vn -0.6824 -0.2636 0.6818
vn -0.7992 -0.4965 0.3387
vn 0.2459 -0.9370 -0.2481
vn 0.6801 -0.2730 0.6804
vn 0.3383 -0.5057 0.7936
vn -0.2547 -0.9335 -0.2525
vn -0.0033 -0.5429 -0.8398
vn 0.3383 -0.5057 -0.7936
vn -0.0001 -0.8815 0.4721
vn 0.6801 -0.2730 -0.6804
vn 0.7883 -0.5142 -0.3378
vn -0.2547 -0.9335 0.2525
vn -0.7773 0.0371 -0.6280
vn -0.7779 0.0207 -0.6281
vn -0.2332 0.0211 -0.9722
vn -0.2446 0.0368 -0.9689
vn -0.7722 0.0038 -0.6354
vn -0.7576 0.0029 -0.6527
vn -0.0781 -0.0035 -0.9969
vn -0.2120 -0.0017 -0.9773
vn 0.2621 -0.0024 0.9650
vn 0.2594 0.0175 0.9656
vn -0.4026 0.0254 0.9150
vn -0.3804 0.0054 0.9248
vn 0.2579 0.0374 0.9655
vn 0.2568 0.0388 0.9657
vn -0.3425 0.0466 0.9384
vn -0.4022 0.0454 0.9144
vn 0.3896 0.0240 -0.9207
vn 0.4167 0.0094 -0.9090
vn 0.8605 0.0127 -0.5094
vn 0.8358 0.0186 -0.5487
vn 0.4504 -0.0047 -0.8928
vn 0.4700 -0.0048 -0.8827
vn 0.8724 0.0096 -0.4888
vn 0.8825 0.0101 -0.4702
vn -0.8678 0.0158 0.4967
vn -0.8895 0.0249 0.4563
vn -0.9947 0.0256 -0.0999
vn -0.9961 0.0336 -0.0814
vn -0.8828 0.0333 0.4686
vn -0.8668 0.0350 0.4974
vn -0.9924 0.0195 -0.1215
vn -0.9946 0.0200 -0.1015
vn 0.9999 0.0090 0.0068
vn 0.9986 0.0159 0.0503
vn 0.7766 0.0206 0.6297
vn 0.7914 0.0045 0.6112
vn 0.9945 0.0232 0.1019
vn 0.9921 0.0238 0.1231
vn 0.7808 0.0377 0.6236
vn 0.7658 0.0370 0.6420
vn 0.9999 0.0085 -0.0122
vn 0.7997 0.0032 0.6003
vn 0.8227 0.0187 -0.5682
vn -0.8499 0.0143 0.5268
vn -0.9970 0.0333 -0.0694
vn -0.3664 0.0034 0.9305
vn 0.3784 0.0245 -0.9253
vn -0.2528 0.0372 -0.9668
vn 0.2639 -0.0039 0.9645
vn -0.7766 0.0375 -0.6289
vn -0.0076 -1.0000 -0.0000
vn 0.7355 -0.6391 -0.2250
vn 0.5300 -0.6596 -0.5330
vn 0.9119 -0.4103 -0.0129
vn 0.7354 -0.6416 0.2179
vn 0.5305 -0.6630 0.5282
vn 0.2194 -0.6413 0.7352
vn 0.0062 -0.4068 0.9135
vn -0.2218 -0.6322 0.7424
vn -0.5356 -0.6555 0.5325
vn -0.7436 -0.6304 0.2230
vn -0.9174 -0.3978 -0.0123
vn -0.7437 -0.6278 -0.2297
vn -0.5350 -0.6522 -0.5370
vn -0.2283 -0.6280 -0.7440
vn 0.0070 -0.4012 -0.9160
vn 0.2263 -0.6372 -0.7367
vn 0.5779 -0.7298 -0.3653
vn -0.0012 -0.8250 -0.5652
vn 0.5691 -0.5991 -0.5632
vn 0.3588 -0.7342 -0.5763
vn 0.5607 -0.8280 -0.0000
vn 0.3588 -0.7342 0.5763
vn 0.5691 -0.5991 0.5632
vn 0.5779 -0.7298 0.3653
vn -0.0012 -0.8250 0.5652
vn -0.5773 -0.7293 0.3671
vn -0.5681 -0.5901 0.5737
vn -0.3736 -0.7249 0.5788
vn -0.5696 -0.8219 -0.0000
vn -0.3736 -0.7249 -0.5788
vn -0.5681 -0.5901 -0.5737
vn -0.5773 -0.7293 -0.3671
vn 0.0085 1.0000 -0.0000
usemtl None
s 1
f 692/1/1 526/2/2 3/3/3 432/4/4
f 691/5/5 508/6/6 7/7/7 426/8/8
f 690/9/9 406/10/10 6/11/11 240/12/12
f 689/13/13 298/14/14 11/15/15 382/16/16
f 688/17/17 493/18/18 2/19/19 265/20/20
f 687/21/21 364/22/22 10/23/23 221/24/24
f 686/25/25 220/26/26 14/27/27 229/28/28
f 685/29/29 390/30/30 16/31/31 407/32/32
f 684/33/33 430/34/34 19/35/35 330/36/36
f 683/37/37 405/38/38 23/39/39 324/40/40
f 682/41/41 303/42/42 22/43/43 506/44/44
f 681/45/45 207/46/46 27/47/47 347/48/48
f 680/49/49 389/50/50 18/51/51 524/52/52
f 679/53/53 331/54/54 26/55/55 184/56/56
f 678/57/57 183/58/58 30/59/59 192/60/60
f 677/61/61 290/62/62 32/63/63 372/64/64
f 676/65/65 473/66/66 15/67/67 492/68/68
f 675/69/69 307/70/70 13/71/71 472/72/72
f 674/73/73 469/74/74 9/75/75 234/76/76
f 673/77/77 398/78/78 1/79/79 453/80/80
f 672/81/81 224/82/82 12/83/83 500/84/84
f 671/85/85 501/86/86 5/87/87 257/88/88
f 670/89/89 413/90/90 8/91/91 351/92/92
f 669/93/93 434/94/94 4/95/95 235/96/96
f 668/97/97 276/98/98 43/99/99 363/100/100
f 667/101/101 287/102/102 47/103/103 394/104/104
f 666/105/105 302/106/106 46/107/107 215/108/108
f 665/109/109 404/110/110 51/111/111 452/112/112
f 664/113/113 264/114/114 42/115/115 202/116/116
f 663/117/117 447/118/118 50/119/119 280/120/120
f 662/121/121 244/122/122 54/123/123 258/124/124
f 661/125/125 346/126/126 56/127/127 444/128/128
f 660/129/129 377/130/130 59/131/131 466/132/132
f 659/133/133 387/134/134 63/135/135 498/136/136
f 658/137/137 497/138/138 62/139/139 306/140/140
f 657/141/141 228/142/142 67/143/143 396/144/144
f 656/145/145 401/146/146 58/147/147 297/148/148
f 655/149/149 381/150/150 66/151/151 239/152/152
f 654/153/153 206/154/154 70/155/155 218/156/156
f 653/157/157 530/158/158 72/159/159 386/160/160
f 652/161/161 457/162/162 75/163/163 342/164/164
f 651/165/165 451/166/166 79/167/167 366/168/168
f 650/169/169 289/170/170 78/171/163 195/172/171
f 649/173/172 201/174/173 83/175/163 294/176/174
f 648/177/175 374/178/176 74/179/177 187/180/178
f 647/181/179 279/182/180 82/183/163 502/184/181
f 646/185/182 464/186/183 86/187/163 471/188/184
f 645/189/185 326/190/186 88/191/187 286/192/188
f 644/193/189 427/194/190 91/195/191 311/196/192
f 643/197/193 417/198/194 95/199/195 336/200/196
f 642/201/197 527/202/198 94/203/199 521/204/200
f 641/205/201 438/206/202 99/207/203 309/208/204
f 640/209/205 256/210/206 90/211/207 515/212/208
f 639/213/209 270/214/210 98/215/211 478/216/212
f 638/217/213 437/218/214 102/219/215 454/220/216
f 637/221/217 199/222/218 104/223/219 267/224/220
f 105/225/221 429/226/222 335/227/223
f 108/228/224 428/229/225 344/230/226
f 110/231/227 227/232/228 243/233/229
f 109/234/230 319/235/231 341/236/232
f 111/237/233 491/238/234 318/239/235
f 112/240/236 392/241/237 422/242/238
f 113/243/239 314/244/240 425/245/241
f 107/246/242 523/247/243 499/248/244
f 636/249/245 350/250/246 114/251/247 249/252/248
f 635/253/249 349/254/250 116/255/251 399/256/252
f 634/257/253 496/258/254 118/259/255 212/260/256
f 633/261/257 205/262/258 120/263/259 477/264/260
f 632/265/261 463/266/262 121/267/263 440/268/264
f 631/269/265 446/270/266 115/271/267 339/272/268
f 630/273/269 334/274/270 117/275/271 487/276/272
f 629/277/273 285/278/274 119/279/275 217/280/276
f 628/281/277 357/282/278 124/283/279 449/284/280
f 627/285/281 348/286/282 128/287/283 284/288/284
f 626/289/285 450/290/286 127/291/287 255/292/288
f 625/293/289 383/294/290 132/295/291 301/296/292
f 624/297/293 361/298/294 123/299/295 263/300/296
f 623/301/297 246/302/298 131/303/299 470/304/300
f 622/305/301 421/306/302 135/307/303 431/308/304
f 621/309/305 476/310/306 137/311/307 248/312/308
f 620/313/309 308/314/310 140/315/311 226/316/312
f 619/317/313 282/318/314 144/319/315 198/320/316
f 618/321/317 461/322/318 143/323/319 415/324/320
f 617/325/321 380/326/322 148/327/323 211/328/324
f 616/329/325 261/330/326 139/331/327 424/332/328
f 615/333/329 510/334/330 147/335/331 370/336/332
f 614/337/333 385/338/334 151/339/335 328/340/336
f 613/341/337 186/342/338 153/343/339 219/344/340
f 612/345/341 268/346/342 152/347/343 338/348/344
f 611/349/345 420/350/346 150/351/347 395/352/348
f 610/353/349 247/354/350 146/355/351 513/356/352
f 609/357/353 518/358/354 138/359/355 373/360/356
f 608/361/357 360/362/358 149/363/359 423/364/360
f 607/365/361 254/366/362 142/367/363 225/368/364
f 606/369/365 238/370/366 145/371/367 210/372/368
f 605/373/369 242/374/370 141/375/371 482/376/372
f 604/377/373 440/378/264 121/379/263 189/380/374
f 603/381/375 217/382/276 119/383/275 180/384/376
f 602/385/377 212/386/256 118/387/255 241/388/378
f 601/389/379 487/390/272 117/391/271 262/392/380
f 600/393/381 399/394/252 116/395/251 400/396/382
f 599/397/383 339/398/268 115/399/267 333/400/384
f 598/401/385 249/402/248 114/403/247 419/404/386
f 597/405/387 477/406/260 120/407/259 197/408/388
f 596/409/389 348/410/282 127/411/287 232/412/390
f 595/413/391 450/414/286 131/415/299 409/416/392
f 594/417/393 246/418/298 135/419/303 283/420/394
f 593/421/395 421/422/302 137/423/307 460/424/396
f 592/425/397 476/426/306 124/427/279 459/428/398
f 591/429/399 357/430/278 123/431/295 222/432/400
f 590/433/401 361/434/294 132/435/291 512/436/402
f 589/437/403 383/438/290 128/439/283 509/440/404
f 588/441/405 448/442/406 122/443/407 204/444/408
f 587/445/409 416/446/410 125/447/411 266/448/412
f 586/449/413 391/450/414 136/451/415 292/452/416
f 585/453/417 519/454/418 134/455/419 486/456/420
f 584/457/421 340/458/422 130/459/423 495/460/424
f 583/461/425 362/462/426 126/463/427 194/464/428
f 582/465/429 442/466/430 129/467/431 288/468/432
f 581/469/433 462/470/434 133/471/435 223/472/436
f 580/473/437 329/474/438 73/475/163 252/476/439
f 579/477/440 345/478/441 76/479/442 185/480/443
f 578/481/444 393/482/445 87/483/163 441/484/446
f 577/485/447 200/486/448 85/487/449 196/488/450
f 576/489/451 384/490/452 81/491/163 260/492/453
f 575/493/454 443/494/455 77/495/456 274/496/457
f 574/497/458 356/498/459 80/499/163 214/500/460
f 573/501/461 411/502/462 84/503/463 317/504/464
f 572/505/465 468/506/466 60/507/467 529/508/468
f 571/509/469 433/510/470 71/511/471 355/512/472
f 570/513/473 295/514/474 69/515/475 291/516/476
f 569/517/477 484/518/478 65/519/479 511/520/480
f 568/521/481 376/522/482 61/523/483 507/524/484
f 567/525/485 479/526/486 64/527/487 181/528/488
f 566/529/489 323/530/490 68/531/491 259/532/492
f 565/533/493 182/534/494 57/535/495 343/536/496
f 564/537/497 367/538/498 44/539/163 436/540/499
f 563/541/500 250/542/501 55/543/502 216/544/503
f 562/545/504 520/546/505 53/547/506 209/548/507
f 561/549/508 353/550/509 49/551/510 528/552/511
f 560/553/512 275/554/513 45/555/514 522/556/515
f 559/557/516 378/558/517 48/559/518 445/560/519
f 558/561/520 503/562/521 52/563/522 278/564/523
f 557/565/524 354/566/525 41/567/526 325/568/527
f 556/569/528 483/570/529 28/571/530 505/572/531
f 555/573/532 296/574/533 17/575/534 475/576/535
f 554/577/536 332/578/537 20/579/538 517/580/539
f 553/581/540 371/582/541 31/583/542 474/584/543
f 552/585/544 271/586/545 29/587/546 281/588/547
f 551/589/548 439/590/549 25/591/550 245/592/551
f 550/593/552 397/594/553 21/595/554 414/596/555
f 549/597/556 310/598/557 24/599/558 358/600/559
f 548/601/560 380/602/322 144/603/315 277/604/561
f 547/605/562 282/606/314 143/607/319 337/608/563
f 546/609/564 461/610/318 147/611/331 516/612/565
f 545/613/566 510/614/330 151/615/335 313/616/567
f 544/617/568 385/618/334 153/619/339 305/620/569
f 543/621/570 186/622/338 140/623/311 251/624/571
f 542/625/572 308/626/310 139/627/327 525/628/573
f 541/629/574 261/630/326 148/631/323 435/632/575
f 157/633/576 369/634/577 300/635/578
f 155/636/579 272/637/580 316/638/581
f 159/639/582 352/640/583 193/641/584
f 161/642/585 456/643/586 179/644/587
f 156/645/588 190/646/589 504/647/590
f 154/648/591 388/649/592 481/650/593
f 160/651/594 467/652/595 368/653/596
f 158/654/597 379/655/598 485/656/599
f 540/657/600 465/658/601 165/659/602 203/660/603
f 539/661/604 320/662/605 168/663/606 321/664/607
f 538/665/608 230/666/609 171/667/610 293/668/611
f 537/669/612 480/670/613 174/671/614 455/672/615
f 536/673/616 408/674/617 175/675/618 402/676/619
f 535/677/620 365/678/621 177/679/622 299/680/623
f 534/681/624 208/682/625 164/683/626 375/684/627
f 533/685/628 458/686/629 167/687/630 231/688/631
f 532/689/632 188/690/633 170/691/634 490/692/635
f 531/693/636 213/694/637 173/695/638 403/696/639
f 188/690/633 531/693/636 403/696/639 170/691/634
f 175/675/618 299/680/623 531/693/636 188/690/633
f 299/680/623 177/679/622 213/694/637 531/693/636
f 273/697/640 532/689/632 490/692/635 169/698/641
f 176/699/642 402/676/619 532/689/632 273/697/640
f 402/676/619 175/675/618 188/690/633 532/689/632
f 208/682/625 533/685/628 231/688/631 164/683/626
f 171/700/610 455/701/615 533/685/628 208/682/625
f 455/701/615 174/702/614 458/686/629 533/685/628
f 304/703/643 534/681/624 375/684/627 163/704/644
f 172/705/645 293/706/611 534/681/624 304/703/643
f 293/706/611 171/700/610 208/682/625 534/681/624
f 408/674/617 535/677/620 299/680/623 175/675/618
f 165/659/602 321/664/607 535/677/620 408/674/617
f 321/664/607 168/663/606 365/678/621 535/677/620
f 494/707/646 536/673/616 402/676/619 176/699/642
f 166/708/647 203/660/603 536/673/616 494/707/646
f 203/660/603 165/659/602 408/674/617 536/673/616
f 230/666/609 537/669/612 455/672/615 171/667/610
f 170/691/634 403/696/639 537/669/612 230/666/609
f 403/696/639 173/695/638 480/670/613 537/669/612
f 312/709/648 538/665/608 293/668/611 172/710/645
f 169/698/641 490/692/635 538/665/608 312/709/648
f 490/692/635 170/691/634 230/666/609 538/665/608
f 465/658/601 539/661/604 321/664/607 165/659/602
f 164/683/626 231/688/631 539/661/604 465/658/601
f 231/688/631 167/687/630 320/662/605 539/661/604
f 178/711/649 540/657/600 203/660/603 166/708/647
f 163/704/644 375/684/627 540/657/600 178/711/649
f 375/684/627 164/683/626 465/658/601 540/657/600
f 485/656/599 193/712/584 162/713/650
f 485/656/599 379/655/598 193/712/584
f 379/655/598 159/639/582 193/712/584
f 368/653/596 485/714/599 162/715/650
f 368/653/596 467/652/595 485/714/599
f 467/652/595 158/654/597 485/714/599
f 481/650/593 316/716/581 162/717/650
f 481/650/593 388/649/592 316/716/581
f 388/649/592 155/636/579 316/716/581
f 504/647/590 300/718/578 162/719/650
f 504/647/590 190/646/589 300/718/578
f 190/646/589 157/633/576 300/718/578
f 179/644/587 368/720/596 162/721/650
f 179/644/587 456/643/586 368/720/596
f 456/643/586 160/651/594 368/720/596
f 193/641/584 481/722/593 162/723/650
f 193/641/584 352/640/583 481/722/593
f 352/640/583 154/648/591 481/722/593
f 316/638/581 504/724/590 162/725/650
f 316/638/581 272/637/580 504/724/590
f 272/637/580 156/645/588 504/724/590
f 300/635/578 179/726/587 162/727/650
f 300/635/578 369/634/577 179/726/587
f 369/634/577 161/642/585 179/726/587
f 489/728/651 541/629/574 435/632/575 39/729/652
f 37/730/653 525/731/573 541/629/574 489/728/651
f 525/731/573 139/732/327 261/630/326 541/629/574
f 233/733/654 542/625/572 525/628/573 37/734/653
f 38/735/655 251/736/571 542/625/572 233/733/654
f 251/736/571 140/737/311 308/626/310 542/625/572
f 237/738/656 543/621/570 251/624/571 38/739/655
f 33/740/657 305/741/569 543/621/570 237/738/656
f 305/741/569 153/742/339 186/622/338 543/621/570
f 253/743/658 544/617/568 305/620/569 33/744/657
f 34/745/659 313/746/567 544/617/568 253/743/658
f 313/746/567 151/747/335 385/618/334 544/617/568
f 327/748/660 545/613/566 313/616/567 34/749/659
f 35/750/661 516/751/565 545/613/566 327/748/660
f 516/751/565 147/752/331 510/614/330 545/613/566
f 418/753/662 546/609/564 516/612/565 35/754/661
f 36/755/663 337/756/563 546/609/564 418/753/662
f 337/756/563 143/757/319 461/610/318 546/609/564
f 236/758/664 547/605/562 337/608/563 36/759/663
f 40/760/665 277/761/561 547/605/562 236/758/664
f 277/761/561 144/762/315 282/606/314 547/605/562
f 412/763/666 548/601/560 277/604/561 40/764/665
f 39/765/652 435/766/575 548/601/560 412/763/666
f 435/766/575 148/767/323 380/602/322 548/601/560
f 298/768/14 549/597/556 358/600/559 11/769/15
f 7/770/7 414/771/555 549/597/556 298/768/14
f 414/771/555 21/772/554 310/598/557 549/597/556
f 508/773/6 550/593/552 414/596/555 7/774/7
f 6/775/11 245/776/551 550/593/552 508/773/6
f 245/776/551 25/777/550 397/594/553 550/593/552
f 406/778/10 551/589/548 245/592/551 6/779/11
f 10/780/23 281/781/547 551/589/548 406/778/10
f 281/781/547 29/782/546 439/590/549 551/589/548
f 364/783/22 552/585/544 281/588/547 10/784/23
f 14/785/27 474/786/543 552/585/544 364/783/22
f 474/786/543 31/787/542 271/586/545 552/585/544
f 220/788/26 553/581/540 474/584/543 14/789/27
f 16/790/31 517/791/539 553/581/540 220/788/26
f 517/791/539 20/792/538 371/582/541 553/581/540
f 390/793/30 554/577/536 517/580/539 16/794/31
f 3/795/3 475/796/535 554/577/536 390/793/30
f 475/796/535 17/797/534 332/578/537 554/577/536
f 526/798/2 555/573/532 475/576/535 3/799/3
f 2/800/19 505/801/531 555/573/532 526/798/2
f 505/801/531 28/802/530 296/574/533 555/573/532
f 493/803/18 556/569/528 505/572/531 2/804/19
f 11/805/15 358/806/559 556/569/528 493/803/18
f 358/806/559 24/807/558 483/570/529 556/569/528
f 207/808/46 557/565/524 325/568/527 27/809/47
f 23/810/39 278/811/523 557/565/524 207/808/46
f 278/811/523 52/812/522 354/566/525 557/565/524
f 405/813/38 558/561/520 278/564/523 23/814/39
f 22/815/43 445/816/519 558/561/520 405/813/38
f 445/816/519 48/817/518 503/562/521 558/561/520
f 303/818/42 559/557/516 445/560/519 22/819/43
f 26/820/55 522/821/515 559/557/516 303/818/42
f 522/821/515 45/822/514 378/558/517 559/557/516
f 331/823/54 560/553/512 522/556/515 26/824/55
f 30/825/59 528/826/511 560/553/512 331/823/54
f 528/826/511 49/827/510 275/554/513 560/553/512
f 183/828/58 561/549/508 528/552/511 30/829/59
f 32/830/63 209/831/507 561/549/508 183/828/58
f 209/831/507 53/832/506 353/550/509 561/549/508
f 290/833/62 562/545/504 209/548/507 32/834/63
f 19/835/35 216/836/503 562/545/504 290/833/62
f 216/836/503 55/837/502 520/546/505 562/545/504
f 430/838/34 563/541/500 216/544/503 19/839/35
f 18/840/51 436/841/499 563/541/500 430/838/34
f 436/841/499 44/842/163 250/542/501 563/541/500
f 389/843/50 564/537/497 436/540/499 18/844/51
f 27/845/47 325/846/527 564/537/497 389/843/50
f 325/846/527 41/847/526 367/538/498 564/537/497
f 404/848/110 565/533/493 343/536/496 51/849/111
f 47/850/103 259/851/492 565/533/493 404/848/110
f 259/851/492 68/852/491 182/534/494 565/533/493
f 287/853/102 566/529/489 259/532/492 47/854/103
f 46/855/107 181/856/488 566/529/489 287/853/102
f 181/856/488 64/857/487 323/530/490 566/529/489
f 302/858/106 567/525/485 181/528/488 46/859/107
f 50/860/119 507/861/484 567/525/485 302/858/106
f 507/861/484 61/862/483 479/526/486 567/525/485
f 447/863/118 568/521/481 507/524/484 50/864/119
f 54/865/123 511/866/480 568/521/481 447/863/118
f 511/866/480 65/867/479 376/522/482 568/521/481
f 244/868/122 569/517/477 511/520/480 54/869/123
f 56/870/127 291/871/476 569/517/477 244/868/122
f 291/871/476 69/872/475 484/518/478 569/517/477
f 346/873/126 570/513/473 291/516/476 56/874/127
f 43/875/99 355/876/472 570/513/473 346/873/126
f 355/876/472 71/877/471 295/514/474 570/513/473
f 276/878/98 571/509/469 355/512/472 43/879/99
f 42/880/115 529/881/468 571/509/469 276/878/98
f 529/881/468 60/882/467 433/510/470 571/509/469
f 264/883/114 572/505/465 529/508/468 42/884/115
f 51/885/111 343/886/496 572/505/465 264/883/114
f 343/886/496 57/887/495 468/506/466 572/505/465
f 228/888/142 573/501/461 317/504/464 67/889/143
f 63/890/135 214/891/460 573/501/461 228/888/142
f 214/891/460 80/892/163 411/502/462 573/501/461
f 387/893/134 574/497/458 214/500/460 63/894/135
f 62/895/139 274/896/457 574/497/458 387/893/134
f 274/896/457 77/897/456 356/498/459 574/497/458
f 497/898/138 575/493/454 274/496/457 62/899/139
f 66/900/151 260/901/453 575/493/454 497/898/138
f 260/901/453 81/902/163 443/494/455 575/493/454
f 381/903/150 576/489/451 260/492/453 66/904/151
f 70/905/155 196/906/450 576/489/451 381/903/150
f 196/906/450 85/907/449 384/490/452 576/489/451
f 206/908/154 577/485/447 196/488/450 70/909/155
f 72/910/159 441/911/446 577/485/447 206/908/154
f 441/911/446 87/912/163 200/486/448 577/485/447
f 530/913/158 578/481/444 441/484/446 72/914/159
f 59/915/131 185/916/443 578/481/444 530/913/158
f 185/916/443 76/917/442 393/482/445 578/481/444
f 377/918/130 579/477/440 185/480/443 59/919/131
f 58/920/147 252/921/439 579/477/440 377/918/130
f 252/921/439 73/922/163 345/478/441 579/477/440
f 401/923/146 580/473/437 252/476/439 58/924/147
f 67/925/143 317/926/464 580/473/437 401/923/146
f 317/926/464 84/927/463 329/474/438 580/473/437
f 201/928/173 581/469/433 223/472/436 83/929/163
f 79/930/167 288/931/432 581/469/433 201/928/173
f 288/931/432 129/932/431 462/470/434 581/469/433
f 451/933/166 582/465/429 288/468/432 79/934/167
f 78/935/163 194/936/428 582/465/429 451/933/166
f 194/936/428 126/937/427 442/466/430 582/465/429
f 289/938/170 583/461/425 194/464/428 78/939/163
f 82/940/163 495/941/424 583/461/425 289/938/170
f 495/941/424 130/942/423 362/462/426 583/461/425
f 279/943/180 584/457/421 495/460/424 82/944/163
f 86/945/163 486/946/420 584/457/421 279/943/180
f 486/946/420 134/947/419 340/458/422 584/457/421
f 464/948/183 585/453/417 486/456/420 86/949/163
f 88/950/187 292/951/416 585/453/417 464/948/183
f 292/951/416 136/952/415 519/454/418 585/453/417
f 326/953/186 586/449/413 292/452/416 88/954/187
f 75/955/163 266/956/412 586/449/413 326/953/186
f 266/956/412 125/957/411 391/450/414 586/449/413
f 457/958/162 587/445/409 266/448/412 75/959/163
f 74/960/177 204/961/408 587/445/409 457/958/162
f 204/961/408 122/962/407 416/446/410 587/445/409
f 374/963/176 588/441/405 204/444/408 74/964/177
f 83/965/163 223/966/436 588/441/405 374/963/176
f 223/966/436 133/967/435 448/442/406 588/441/405
f 488/968/667 589/437/403 509/440/404 96/969/668
f 100/970/669 512/971/402 589/437/403 488/968/667
f 512/971/402 132/972/291 383/438/290 589/437/403
f 514/973/670 590/433/401 512/436/402 100/974/669
f 89/975/671 222/976/400 590/433/401 514/973/670
f 222/976/400 123/977/295 361/434/294 590/433/401
f 315/978/672 591/429/399 222/432/400 89/979/671
f 92/980/673 459/981/398 591/429/399 315/978/672
f 459/981/398 124/982/279 357/430/278 591/429/399
f 269/983/674 592/425/397 459/428/398 92/984/673
f 103/985/675 460/986/396 592/425/397 269/983/674
f 460/986/396 137/987/307 476/426/306 592/425/397
f 359/988/676 593/421/395 460/424/396 103/989/675
f 101/990/677 283/991/394 593/421/395 359/988/676
f 283/991/394 135/992/303 421/422/302 593/421/395
f 191/993/678 594/417/393 283/420/394 101/994/677
f 97/995/679 409/996/392 594/417/393 191/993/678
f 409/996/392 131/997/299 246/418/298 594/417/393
f 410/998/680 595/413/391 409/416/392 97/999/679
f 93/1000/681 232/1001/390 595/413/391 410/998/680
f 232/1001/390 127/1002/287 450/414/286 595/413/391
f 322/1003/682 596/409/389 232/412/390 93/1004/681
f 96/1005/668 509/1006/404 596/409/389 322/1003/682
f 509/1006/404 128/1007/283 348/410/282 596/409/389
f 438/1008/202 597/405/387 197/408/388 99/1009/203
f 95/1010/195 419/1011/386 597/405/387 438/1008/202
f 419/1011/386 114/1012/247 477/406/260 597/405/387
f 417/1013/194 598/401/385 419/404/386 95/1014/195
f 94/1015/199 333/1016/384 598/401/385 417/1013/194
f 333/1016/384 115/1017/267 249/402/248 598/401/385
f 527/1018/198 599/397/383 333/400/384 94/1019/199
f 98/1020/211 400/1021/382 599/397/383 527/1018/198
f 400/1021/382 116/1022/251 339/398/268 599/397/383
f 270/1023/210 600/393/381 400/396/382 98/1024/211
f 102/1025/215 262/1026/380 600/393/381 270/1023/210
f 262/1026/380 117/1027/271 399/394/252 600/393/381
f 437/1028/214 601/389/379 262/392/380 102/1029/215
f 104/1030/219 241/1031/378 601/389/379 437/1028/214
f 241/1031/378 118/1032/255 487/390/272 601/389/379
f 199/1033/218 602/385/377 241/388/378 104/1034/219
f 91/1035/191 180/1036/376 602/385/377 199/1033/218
f 180/1036/376 119/1037/275 212/386/256 602/385/377
f 427/1038/190 603/381/375 180/384/376 91/1039/191
f 90/1040/207 189/1041/374 603/381/375 427/1038/190
f 189/1041/374 121/1042/263 217/382/276 603/381/375
f 256/1043/206 604/377/373 189/380/374 90/1044/207
f 99/1045/203 197/1046/388 604/377/373 256/1043/206
f 197/1046/388 120/1047/259 440/378/264 604/377/373
f 352/640/583 605/373/369 482/376/372 154/648/591
f 159/639/582 373/360/356 605/373/369 352/640/583
f 373/360/356 138/359/355 242/374/370 605/373/369
f 456/643/586 606/369/365 210/372/368 160/651/594
f 161/642/585 225/368/364 606/369/365 456/643/586
f 225/368/364 142/367/363 238/370/366 606/369/365
f 369/634/577 607/365/361 225/368/364 161/642/585
f 157/633/576 513/356/352 607/365/361 369/634/577
f 513/356/352 146/355/351 254/366/362 607/365/361
f 467/652/595 608/361/357 423/364/360 158/654/597
f 160/651/594 210/372/368 608/361/357 467/652/595
f 210/372/368 145/371/367 360/362/358 608/361/357
f 379/655/598 609/357/353 373/360/356 159/639/582
f 158/654/597 423/364/360 609/357/353 379/655/598
f 423/364/360 149/363/359 518/358/354 609/357/353
f 190/646/589 610/353/349 513/356/352 157/633/576
f 156/645/588 395/352/348 610/353/349 190/646/589
f 395/352/348 150/351/347 247/354/350 610/353/349
f 272/637/580 611/349/345 395/352/348 156/645/588
f 155/636/579 338/348/344 611/349/345 272/637/580
f 338/348/344 152/347/343 420/350/346 611/349/345
f 388/649/592 612/345/341 338/348/344 155/636/579
f 154/648/591 482/376/372 612/345/341 388/649/592
f 482/376/372 141/375/371 268/346/342 612/345/341
f 268/346/342 613/341/337 219/344/340 152/347/343
f 141/375/371 226/316/312 613/341/337 268/346/342
f 226/316/312 140/315/311 186/342/338 613/341/337
f 420/350/346 614/337/333 328/340/336 150/351/347
f 152/347/343 219/344/340 614/337/333 420/350/346
f 219/344/340 153/343/339 385/338/334 614/337/333
f 247/354/350 615/333/329 370/336/332 146/355/351
f 150/351/347 328/340/336 615/333/329 247/354/350
f 328/340/336 151/339/335 510/334/330 615/333/329
f 518/358/354 616/329/325 424/332/328 138/359/355
f 149/363/359 211/328/324 616/329/325 518/358/354
f 211/328/324 148/327/323 261/330/326 616/329/325
f 360/362/358 617/325/321 211/328/324 149/363/359
f 145/371/367 198/320/316 617/325/321 360/362/358
f 198/320/316 144/319/315 380/326/322 617/325/321
f 254/366/362 618/321/317 415/324/320 142/367/363
f 146/355/351 370/336/332 618/321/317 254/366/362
f 370/336/332 147/335/331 461/322/318 618/321/317
f 238/370/366 619/317/313 198/320/316 145/371/367
f 142/367/363 415/324/320 619/317/313 238/370/366
f 415/324/320 143/323/319 282/318/314 619/317/313
f 242/374/370 620/313/309 226/316/312 141/375/371
f 138/359/355 424/332/328 620/313/309 242/374/370
f 424/332/328 139/331/327 308/314/310 620/313/309
f 391/1048/414 621/309/305 248/312/308 136/1049/415
f 125/1050/411 449/284/280 621/309/305 391/1048/414
f 449/284/280 124/283/279 476/310/306 621/309/305
f 519/1051/418 622/305/301 431/308/304 134/1052/419
f 136/1049/415 248/312/308 622/305/301 519/1051/418
f 248/312/308 137/311/307 421/306/302 622/305/301
f 340/1053/422 623/301/297 470/304/300 130/1054/423
f 134/1052/419 431/308/304 623/301/297 340/1053/422
f 431/308/304 135/307/303 246/302/298 623/301/297
f 448/1055/406 624/297/293 263/300/296 122/1056/407
f 133/1057/435 301/296/292 624/297/293 448/1055/406
f 301/296/292 132/295/291 361/298/294 624/297/293
f 462/1058/434 625/293/289 301/296/292 133/1057/435
f 129/1059/431 284/288/284 625/293/289 462/1058/434
f 284/288/284 128/287/283 383/294/290 625/293/289
f 362/1060/426 626/289/285 255/292/288 126/1061/427
f 130/1054/423 470/304/300 626/289/285 362/1060/426
f 470/304/300 131/303/299 450/290/286 626/289/285
f 442/1062/430 627/285/281 284/288/284 129/1059/431
f 126/1061/427 255/292/288 627/285/281 442/1062/430
f 255/292/288 127/291/287 348/286/282 627/285/281
f 416/1063/410 628/281/277 449/284/280 125/1050/411
f 122/1056/407 263/300/296 628/281/277 416/1063/410
f 263/300/296 123/299/295 357/282/278 628/281/277
f 463/266/262 629/277/273 217/280/276 121/267/263
f 105/225/221 335/227/223 629/277/273 463/266/262
f 335/227/223 107/246/242 285/278/274 629/277/273
f 496/258/254 630/273/269 487/276/272 118/259/255
f 113/243/239 425/245/241 630/273/269 496/258/254
f 425/245/241 112/240/236 334/274/270 630/273/269
f 349/254/250 631/269/265 339/272/268 116/255/251
f 110/231/227 243/233/229 631/269/265 349/254/250
f 243/233/229 108/228/224 446/270/266 631/269/265
f 205/262/258 632/265/261 440/268/264 120/263/259
f 111/237/233 318/239/235 632/265/261 205/262/258
f 318/239/235 105/225/221 463/266/262 632/265/261
f 350/250/246 633/261/257 477/264/260 114/251/247
f 109/234/230 341/236/232 633/261/257 350/250/246
f 341/236/232 111/237/233 205/262/258 633/261/257
f 285/278/274 634/257/253 212/260/256 119/279/275
f 107/246/242 499/248/244 634/257/253 285/278/274
f 499/248/244 113/243/239 496/258/254 634/257/253
f 334/274/270 635/253/249 399/256/252 117/275/271
f 112/240/236 422/242/238 635/253/249 334/274/270
f 422/242/238 110/231/227 349/254/250 635/253/249
f 446/270/266 636/249/245 249/252/248 115/271/267
f 108/228/224 344/230/226 636/249/245 446/270/266
f 344/230/226 109/234/230 350/250/246 636/249/245
f 499/248/244 314/1064/240 113/243/239
f 499/248/244 523/247/243 314/1064/240
f 523/247/243 106/1065/683 314/1064/240
f 425/245/241 392/1066/237 112/240/236
f 425/245/241 314/244/240 392/1066/237
f 314/244/240 106/1067/683 392/1066/237
f 422/242/238 227/1068/228 110/231/227
f 422/242/238 392/241/237 227/1068/228
f 392/241/237 106/1069/683 227/1068/228
f 318/239/235 429/1070/222 105/225/221
f 318/239/235 491/238/234 429/1070/222
f 491/238/234 106/1071/683 429/1070/222
f 341/236/232 491/1072/234 111/237/233
f 341/236/232 319/235/231 491/1072/234
f 319/235/231 106/1073/683 491/1072/234
f 243/233/229 428/1074/225 108/228/224
f 243/233/229 227/232/228 428/1074/225
f 227/232/228 106/1075/683 428/1074/225
f 344/230/226 319/1076/231 109/234/230
f 344/230/226 428/229/225 319/1076/231
f 428/229/225 106/1077/683 319/1076/231
f 335/227/223 523/1078/243 107/246/242
f 335/227/223 429/226/222 523/1078/243
f 429/226/222 106/1079/683 523/1078/243
f 269/1080/674 637/221/217 267/224/220 103/1081/675
f 92/1082/673 311/196/192 637/221/217 269/1080/674
f 311/196/192 91/195/191 199/222/218 637/221/217
f 359/1083/676 638/217/213 454/220/216 101/1084/677
f 103/1081/675 267/224/220 638/217/213 359/1083/676
f 267/224/220 104/223/219 437/218/214 638/217/213
f 191/1085/678 639/213/209 478/216/212 97/1086/679
f 101/1084/677 454/220/216 639/213/209 191/1085/678
f 454/220/216 102/219/215 270/214/210 639/213/209
f 514/1087/670 640/209/205 515/212/208 89/1088/671
f 100/1089/669 309/208/204 640/209/205 514/1087/670
f 309/208/204 99/207/203 256/210/206 640/209/205
f 488/1090/667 641/205/201 309/208/204 100/1089/669
f 96/1091/668 336/200/196 641/205/201 488/1090/667
f 336/200/196 95/199/195 438/206/202 641/205/201
f 410/1092/680 642/201/197 521/204/200 93/1093/681
f 97/1086/679 478/216/212 642/201/197 410/1092/680
f 478/216/212 98/215/211 527/202/198 642/201/197
f 322/1094/682 643/197/193 336/200/196 96/1091/668
f 93/1093/681 521/204/200 643/197/193 322/1094/682
f 521/204/200 94/203/199 417/198/194 643/197/193
f 315/1095/672 644/193/189 311/196/192 92/1082/673
f 89/1088/671 515/212/208 644/193/189 315/1095/672
f 515/212/208 90/211/207 427/194/190 644/193/189
f 393/1096/445 645/189/185 286/192/188 87/1097/163
f 76/1098/442 342/164/164 645/189/185 393/1096/445
f 342/164/164 75/163/163 326/190/186 645/189/185
f 200/1099/448 646/185/182 471/188/184 85/1100/449
f 87/1097/163 286/192/188 646/185/182 200/1099/448
f 286/192/188 88/191/187 464/186/183 646/185/182
f 384/1101/452 647/181/179 502/184/181 81/1102/163
f 85/1100/449 471/188/184 647/181/179 384/1101/452
f 471/188/184 86/187/163 279/182/180 647/181/179
f 329/1103/438 648/177/175 187/180/178 73/1104/163
f 84/1105/463 294/176/174 648/177/175 329/1103/438
f 294/176/174 83/175/163 374/178/176 648/177/175
f 411/1106/462 649/173/172 294/176/174 84/1105/463
f 80/1107/163 366/168/168 649/173/172 411/1106/462
f 366/168/168 79/167/167 201/174/173 649/173/172
f 443/1108/455 650/169/169 195/172/171 77/1109/456
f 81/1102/163 502/184/181 650/169/169 443/1108/455
f 502/184/181 82/183/163 289/170/170 650/169/169
f 356/1110/459 651/165/165 366/168/168 80/1107/163
f 77/1109/456 195/172/171 651/165/165 356/1110/459
f 195/172/171 78/171/163 451/166/166 651/165/165
f 345/1111/441 652/161/161 342/164/164 76/1098/442
f 73/1104/163 187/180/178 652/161/161 345/1111/441
f 187/180/178 74/179/177 457/162/162 652/161/161
f 433/1112/470 653/157/157 386/160/160 71/1113/471
f 60/1114/467 466/132/132 653/157/157 433/1112/470
f 466/132/132 59/131/131 530/158/158 653/157/157
f 295/1115/474 654/153/153 218/156/156 69/1116/475
f 71/1113/471 386/160/160 654/153/153 295/1115/474
f 386/160/160 72/159/159 206/154/154 654/153/153
f 484/1117/478 655/149/149 239/152/152 65/1118/479
f 69/1116/475 218/156/156 655/149/149 484/1117/478
f 218/156/156 70/155/155 381/150/150 655/149/149
f 182/1119/494 656/145/145 297/148/148 57/1120/495
f 68/1121/491 396/144/144 656/145/145 182/1119/494
f 396/144/144 67/143/143 401/146/146 656/145/145
f 323/1122/490 657/141/141 396/144/144 68/1121/491
f 64/1123/487 498/136/136 657/141/141 323/1122/490
f 498/136/136 63/135/135 228/142/142 657/141/141
f 376/1124/482 658/137/137 306/140/140 61/1125/483
f 65/1118/479 239/152/152 658/137/137 376/1124/482
f 239/152/152 66/151/151 497/138/138 658/137/137
f 479/1126/486 659/133/133 498/136/136 64/1123/487
f 61/1125/483 306/140/140 659/133/133 479/1126/486
f 306/140/140 62/139/139 387/134/134 659/133/133
f 468/1127/466 660/129/129 466/132/132 60/1114/467
f 57/1120/495 297/148/148 660/129/129 468/1127/466
f 297/148/148 58/147/147 377/130/130 660/129/129
f 250/1128/501 661/125/125 444/128/128 55/1129/502
f 44/1130/163 363/100/100 661/125/125 250/1128/501
f 363/100/100 43/99/99 346/126/126 661/125/125
f 520/1131/505 662/121/121 258/124/124 53/1132/506
f 55/1129/502 444/128/128 662/121/121 520/1131/505
f 444/128/128 56/127/127 244/122/122 662/121/121
f 353/1133/509 663/117/117 280/120/120 49/1134/510
f 53/1132/506 258/124/124 663/117/117 353/1133/509
f 258/124/124 54/123/123 447/118/118 663/117/117
f 354/1135/525 664/113/113 202/116/116 41/1136/526
f 52/1137/522 452/112/112 664/113/113 354/1135/525
f 452/112/112 51/111/111 264/114/114 664/113/113
f 503/1138/521 665/109/109 452/112/112 52/1137/522
f 48/1139/518 394/104/104 665/109/109 503/1138/521
f 394/104/104 47/103/103 404/110/110 665/109/109
f 275/1140/513 666/105/105 215/108/108 45/1141/514
f 49/1134/510 280/120/120 666/105/105 275/1140/513
f 280/120/120 50/119/119 302/106/106 666/105/105
f 378/1142/517 667/101/101 394/104/104 48/1139/518
f 45/1141/514 215/108/108 667/101/101 378/1142/517
f 215/108/108 46/107/107 287/102/102 667/101/101
f 367/1143/498 668/97/97 363/100/100 44/1130/163
f 41/1136/526 202/116/116 668/97/97 367/1143/498
f 202/116/116 42/115/115 276/98/98 668/97/97
f 237/1144/656 669/93/93 235/96/96 33/1145/657
f 38/1146/655 453/80/80 669/93/93 237/1144/656
f 453/80/80 1/79/79 434/94/94 669/93/93
f 412/1147/666 670/89/89 351/92/92 39/1148/652
f 40/1149/665 257/88/88 670/89/89 412/1147/666
f 257/88/88 5/87/87 413/90/90 670/89/89
f 236/1150/664 671/85/85 257/88/88 40/1149/665
f 36/1151/663 234/76/76 671/85/85 236/1150/664
f 234/76/76 9/75/75 501/86/86 671/85/85
f 489/1152/651 672/81/81 500/84/84 37/1153/653
f 39/1148/652 351/92/92 672/81/81 489/1152/651
f 351/92/92 8/91/91 224/82/82 672/81/81
f 233/1154/654 673/77/77 453/80/80 38/1146/655
f 37/1153/653 500/84/84 673/77/77 233/1154/654
f 500/84/84 12/83/83 398/78/78 673/77/77
f 418/1155/662 674/73/73 234/76/76 36/1151/663
f 35/1156/661 472/72/72 674/73/73 418/1155/662
f 472/72/72 13/71/71 469/74/74 674/73/73
f 327/1157/660 675/69/69 472/72/72 35/1156/661
f 34/1158/659 492/68/68 675/69/69 327/1157/660
f 492/68/68 15/67/67 307/70/70 675/69/69
f 253/1159/658 676/65/65 492/68/68 34/1158/659
f 33/1145/657 235/96/96 676/65/65 253/1159/658
f 235/96/96 4/95/95 473/66/66 676/65/65
f 371/1160/541 677/61/61 372/64/64 31/1161/542
f 20/1162/538 330/36/36 677/61/61 371/1160/541
f 330/36/36 19/35/35 290/62/62 677/61/61
f 271/1163/545 678/57/57 192/60/60 29/1164/546
f 31/1161/542 372/64/64 678/57/57 271/1163/545
f 372/64/64 32/63/63 183/58/58 678/57/57
f 439/1165/549 679/53/53 184/56/56 25/1166/550
f 29/1164/546 192/60/60 679/53/53 439/1165/549
f 192/60/60 30/59/59 331/54/54 679/53/53
f 296/1167/533 680/49/49 524/52/52 17/1168/534
f 28/1169/530 347/48/48 680/49/49 296/1167/533
f 347/48/48 27/47/47 389/50/50 680/49/49
f 483/1170/529 681/45/45 347/48/48 28/1169/530
f 24/1171/558 324/40/40 681/45/45 483/1170/529
f 324/40/40 23/39/39 207/46/46 681/45/45
f 397/1172/553 682/41/41 506/44/44 21/1173/554
f 25/1166/550 184/56/56 682/41/41 397/1172/553
f 184/56/56 26/55/55 303/42/42 682/41/41
f 310/1174/557 683/37/37 324/40/40 24/1171/558
f 21/1173/554 506/44/44 683/37/37 310/1174/557
f 506/44/44 22/43/43 405/38/38 683/37/37
f 332/1175/537 684/33/33 330/36/36 20/1162/538
f 17/1168/534 524/52/52 684/33/33 332/1175/537
f 524/52/52 18/51/51 430/34/34 684/33/33
f 473/66/66 685/29/29 407/32/32 15/67/67
f 4/95/95 432/4/4 685/29/29 473/66/66
f 432/4/4 3/3/3 390/30/30 685/29/29
f 307/70/70 686/25/25 229/28/28 13/71/71
f 15/67/67 407/32/32 686/25/25 307/70/70
f 407/32/32 16/31/31 220/26/26 686/25/25
f 469/74/74 687/21/21 221/24/24 9/75/75
f 13/71/71 229/28/28 687/21/21 469/74/74
f 229/28/28 14/27/27 364/22/22 687/21/21
f 398/78/78 688/17/17 265/20/20 1/79/79
f 12/83/83 382/16/16 688/17/17 398/78/78
f 382/16/16 11/15/15 493/18/18 688/17/17
f 224/82/82 689/13/13 382/16/16 12/83/83
f 8/91/91 426/8/8 689/13/13 224/82/82
f 426/8/8 7/7/7 298/14/14 689/13/13
f 501/86/86 690/9/9 240/12/12 5/87/87
f 9/75/75 221/24/24 690/9/9 501/86/86
f 221/24/24 10/23/23 406/10/10 690/9/9
f 413/90/90 691/5/5 426/8/8 8/91/91
f 5/87/87 240/12/12 691/5/5 413/90/90
f 240/12/12 6/11/11 508/6/6 691/5/5
f 434/94/94 692/1/1 432/4/4 4/95/95
f 1/79/79 265/20/20 692/1/1 434/94/94
f 265/20/20 2/19/19 526/2/2 692/1/1
