# Blender v2.78 (sub 0) OBJ File: ''
# www.blender.org
mtllib Pine_Tree_s_04.mtl
o Pine_Tree_s_04
v -0.048982 0.258838 0.076305
v -0.041081 0.739712 0.066730
v -0.067873 0.739693 -0.015491
v -0.079848 0.258851 -0.018685
v 0.000956 0.258861 -0.077394
v 0.002094 0.739447 -0.066342
v 0.072102 0.739312 -0.015552
v 0.081761 0.258853 -0.018686
v 0.050898 0.258839 0.076304
v 0.045424 0.739476 0.066692
v 0.098434 0.005524 -0.032598
v 0.060844 0.005524 0.083094
v -0.098393 0.005524 -0.032598
v 0.000021 0.005524 -0.104099
v -0.060803 0.005523 0.083094
v -0.004043 0.722730 -0.004572
v 0.417345 0.462681 0.503859
v -0.209886 0.528909 0.538809
v -0.337518 0.412266 -0.546397
v 0.270890 0.357653 -0.578299
v -0.613767 0.644131 0.004039
v 0.646322 0.510860 0.021120
v 0.005266 1.478863 -0.062673
v 0.096736 1.475489 -0.060088
v 0.127117 1.476778 0.097305
v 0.031356 1.480325 0.098696
v 0.158051 1.474177 0.017700
v 0.346534 1.077706 0.437129
v -0.138550 1.058284 0.475797
v -0.045441 1.481481 0.017387
v -0.262459 1.090485 -0.365200
v 0.210788 1.099701 -0.366905
v -0.557511 0.906774 0.034200
v 0.213370 1.898279 0.096911
v 0.118139 1.903506 0.098327
v 0.539406 0.953898 0.039842
v 0.182028 1.900566 -0.058049
v 0.243732 1.896480 0.017434
v 0.091029 1.905558 -0.061271
v 0.040915 1.907448 0.017156
v 0.354242 1.439671 0.344961
v -0.028456 1.511911 0.387349
v 0.496753 1.551565 0.010184
v -0.127646 1.555598 -0.312898
v 0.249527 1.492252 -0.321771
v -0.271077 1.705322 0.007396
v 0.092990 2.155557 -0.105971
v 0.271948 2.143698 -0.125916
v 0.318081 2.137531 0.171538
v 0.142956 2.150176 0.172234
v 0.370478 2.136653 0.031738
v 0.295676 2.682394 0.067023
v 0.002919 2.163126 0.031902
v -0.017126 1.732481 -0.186182
v 0.050934 1.477173 -0.062443
v -0.180625 0.559388 -0.289149
v 0.322722 2.147766 -0.046883
v -0.112173 1.811205 0.011927
v 0.282940 1.670098 0.219451
v 0.128217 1.474800 -0.021719
v -0.166587 0.946181 -0.306452
v 0.000021 0.005523 0.085689
v -0.073933 0.502686 -0.017047
v 0.048659 2.166735 -0.036557
v -0.020985 1.847851 -0.213094
v 0.215325 1.697759 -0.188861
v 0.449871 1.014681 0.241601
v 0.136454 1.903063 -0.060763
v -0.417577 0.997212 -0.169248
v -0.021249 1.480210 -0.023224
v 0.000476 0.127478 -0.091312
v 0.261084 1.809656 -0.227784
v 0.152498 1.290305 -0.211662
v 0.235451 1.278878 0.266611
v -0.113466 0.620532 0.280064
v 0.368725 1.727250 0.013437
v 0.392720 1.423594 0.028891
v -0.050712 0.005524 -0.070448
v -0.260073 1.403826 0.025905
v -0.416797 0.587727 0.274366
v -0.040372 0.258856 -0.049315
v 0.285328 2.420001 -0.029881
v 0.273889 0.970866 0.301894
v 0.185155 0.916628 -0.321351
v 0.001536 0.502566 -0.071887
v -0.026091 1.097999 -0.372896
v -0.053696 1.270196 0.286673
v 0.002173 0.739596 0.068542
v 0.143660 1.475442 0.058018
v 0.056179 0.127467 0.080123
v 0.232182 2.151638 0.172495
v 0.196830 1.500379 -0.212898
v 0.045596 1.709550 0.241387
v -0.324433 0.677064 -0.000146
v 0.149129 2.428242 0.049897
v 0.347043 1.214123 0.028909
v 0.104212 0.493578 0.526116
v -0.481060 0.528704 -0.273595
v 0.054643 1.822913 0.283192
v 0.079574 1.478547 0.099106
v 0.139135 0.530359 -0.304768
v 0.050753 0.005524 -0.070448
v -0.056219 0.739708 0.026186
v 0.436413 1.836286 0.020593
v 0.430822 1.495548 0.180002
v 0.166112 1.900878 0.098767
v 0.194472 2.425705 -0.020045
v 0.335318 2.415730 0.049494
v 0.337538 1.779796 0.261275
v -0.154206 1.610550 0.200444
v -0.354676 0.980744 0.258727
v -0.008051 1.480942 0.058588
v 0.077025 0.502494 -0.017078
v 0.213742 1.898475 -0.020851
v 0.090605 0.127475 -0.025830
v -0.065914 0.258844 0.029297
v -0.034151 0.381607 -0.568217
v 0.215617 0.585731 0.262959
v 0.280657 1.488495 0.267836
v -0.330239 1.067081 0.010646
v 0.048223 0.502570 0.071636
v 0.404350 0.995197 0.019445
v 0.067828 0.258846 0.029296
v 0.377531 1.522367 -0.158694
v 0.219800 2.423258 0.120238
v -0.033967 0.739571 -0.042397
v 0.184002 2.157298 -0.115855
v 0.536272 0.486866 0.265313
v 0.000958 0.258838 0.077881
v 0.229681 1.897321 0.057709
v -0.055226 0.127464 0.080123
v 0.078472 1.905535 0.058308
v 0.105940 1.070439 0.463595
v -0.089507 1.006508 0.320034
v 0.336079 0.607247 0.007612
v 0.064753 1.906565 -0.022662
v -0.301693 1.192638 0.026037
v 0.082107 0.005524 0.026050
v -0.010401 1.480631 0.287845
v 0.038173 0.739375 -0.042428
v -0.139332 1.927838 0.019248
v 0.073758 2.164100 0.102547
v -0.045071 0.502689 0.071656
v 0.345804 2.144740 0.102362
v -0.086137 1.497670 -0.213717
v 0.380741 1.025774 -0.166915
v -0.089652 0.127471 -0.025830
v -0.204588 1.632686 -0.155906
v 0.163728 1.473107 0.372211
v 0.462173 0.433918 -0.281060
v 0.042285 0.258857 -0.049315
v -0.128648 1.286834 -0.212368
v 0.060505 0.739390 0.026135
v 0.060055 1.522062 -0.322836
v 0.308702 2.417241 0.120267
v -0.082066 0.005524 0.026050
v 0.390757 1.807923 0.142801
v -0.084093 1.889045 -0.098985
v 0.351892 1.823142 -0.105705
v -0.045661 1.876412 0.153320
v 0.196881 1.799984 0.276405
v 0.119584 1.827835 -0.224406
v -0.036036 1.761374 0.128476
v 0.294652 1.712709 -0.089434
v -0.067872 1.772987 -0.089007
v 0.098620 1.714188 -0.190824
v 0.329060 1.698609 0.117927
v -0.177511 1.450070 -0.096082
v 0.340704 1.455454 0.150189
v 0.164864 1.688474 0.234021
v -0.139087 1.441365 0.159022
v 0.055181 1.500478 -0.217281
v 0.298028 1.461450 -0.093967
v 0.253004 1.251685 -0.093331
v -0.219548 1.239046 -0.095330
v 0.295235 1.245922 0.149576
v 0.136281 1.485778 0.281980
v -0.181522 1.230544 0.158493
v 0.011763 1.290021 -0.215969
v -0.214232 1.038109 0.168114
v 0.298729 0.955890 -0.153404
v -0.253308 1.007395 -0.150332
v 0.092020 1.275757 0.280760
v 0.343930 0.983405 0.163338
v 0.093110 0.987946 0.315843
v 0.008833 0.929717 -0.319345
v 0.064027 0.502530 0.027734
v -0.074115 0.127467 0.027691
v 0.046576 0.127477 -0.059996
v 0.000476 0.127465 0.081884
v -0.045623 0.127475 -0.059996
v 0.075067 0.127471 0.027691
v -0.037066 0.502627 -0.045660
v 0.001576 0.502630 0.073121
v 0.040147 0.502528 -0.045676
v -0.060905 0.502689 0.027760
vt 0.7997 0.9354
vt 0.7997 0.9526
vt 0.7935 0.9526
vt 0.7937 0.9354
vt 0.8365 0.9354
vt 0.8364 0.9528
vt 0.8303 0.9528
vt 0.8303 0.9354
vt 0.8119 0.9354
vt 0.8119 0.9527
vt 0.8058 0.9526
vt 0.8058 0.9354
vt 0.7875 0.9353
vt 0.7873 0.9526
vt 0.7812 0.9526
vt 0.7814 0.9353
vt 0.8244 0.9068
vt 0.8242 0.9180
vt 0.8180 0.9181
vt 0.8182 0.9070
vt 0.7874 0.9070
vt 0.7876 0.9181
vt 0.7815 0.9179
vt 0.7812 0.9068
vt 0.8120 0.9072
vt 0.8119 0.9182
vt 0.8058 0.9183
vt 0.8059 0.9073
vt 0.8367 0.9068
vt 0.8367 0.9180
vt 0.8304 0.9179
vt 0.8305 0.9067
vt 0.7997 0.9073
vt 0.7998 0.9182
vt 0.7938 0.9182
vt 0.7936 0.9073
vt 0.8242 0.9354
vt 0.8241 0.9527
vt 0.8180 0.9527
vt 0.8180 0.9354
vt 0.9266 0.4675
vt 0.9205 0.4774
vt 0.9115 0.4549
vt 0.9532 0.4164
vt 0.9582 0.4090
vt 0.9695 0.4312
vt 0.9268 0.4094
vt 0.9211 0.4005
vt 0.9449 0.4055
vt 0.9624 0.4427
vt 0.9741 0.4444
vt 0.9585 0.4655
vt 0.9152 0.4402
vt 0.9058 0.4412
vt 0.9153 0.4159
vt 0.9613 0.4510
vt 0.9481 0.4449
vt 0.9506 0.4379
vt 0.9668 0.4371
vt 0.9503 0.4676
vt 0.9525 0.4779
vt 0.9323 0.4775
vt 0.9196 0.4248
vt 0.9257 0.4101
vt 0.9330 0.4282
vt 0.9300 0.4351
vt 0.9381 0.4101
vt 0.9505 0.4099
vt 0.9436 0.4281
vt 0.9383 0.4281
vt 0.9183 0.4572
vt 0.9263 0.4739
vt 0.9191 0.4888
vt 0.9065 0.4638
vt 0.9413 0.4678
vt 0.9268 0.4706
vt 0.9341 0.4534
vt 0.9398 0.4527
vt 0.9586 0.4235
vt 0.9471 0.4330
vt 0.9202 0.4550
vt 0.9136 0.4395
vt 0.9270 0.4421
vt 0.9305 0.4477
vt 0.9630 0.4307
vt 0.9561 0.4135
vt 0.9623 0.3999
vt 0.9729 0.4262
vt 0.9182 0.4244
vt 0.9102 0.4405
vt 0.8939 0.4388
vt 0.9064 0.4162
vt 0.9237 0.4265
vt 0.9292 0.4137
vt 0.9401 0.4366
vt 0.9389 0.4392
vt 0.9399 0.4740
vt 0.9535 0.4740
vt 0.9584 0.4889
vt 0.9388 0.4888
vt 0.9412 0.4109
vt 0.9262 0.4083
vt 0.9189 0.3936
vt 0.9406 0.3967
vt 0.9617 0.4610
vt 0.9698 0.4480
vt 0.9836 0.4525
vt 0.9710 0.4707
vt 0.9576 0.4254
vt 0.9634 0.4374
vt 0.9467 0.4406
vt 0.9454 0.4386
vt 0.9587 0.4500
vt 0.9540 0.4627
vt 0.9445 0.4456
vt 0.9456 0.4431
vt 0.9235 0.4539
vt 0.9182 0.4394
vt 0.9376 0.4418
vt 0.9389 0.4442
vt 0.9370 0.4630
vt 0.9514 0.4687
vt 0.9584 0.4906
vt 0.9342 0.4811
vt 0.9405 0.4136
vt 0.9518 0.4136
vt 0.9442 0.4366
vt 0.9421 0.4366
vt 0.9414 0.4656
vt 0.9288 0.4684
vt 0.9401 0.4465
vt 0.9423 0.4460
vt 0.9603 0.4600
vt 0.9692 0.4513
vt 0.9881 0.4617
vt 0.9733 0.4761
vt 0.9475 0.4165
vt 0.9330 0.4104
vt 0.9274 0.3927
vt 0.9523 0.4029
vt 0.9211 0.4184
vt 0.9093 0.4265
vt 0.8879 0.4201
vt 0.9076 0.4064
vt 0.9656 0.4369
vt 0.9621 0.4226
vt 0.9772 0.4131
vt 0.9826 0.4374
vt 0.9159 0.4419
vt 0.9226 0.4572
vt 0.9100 0.4716
vt 0.8989 0.4459
vt 0.9462 0.5892
vt 0.9405 0.5784
vt 0.9472 0.5757
vt 0.9603 0.5827
vt 0.9377 0.5402
vt 0.9533 0.5343
vt 0.9445 0.5520
vt 0.9370 0.5552
vt 0.9488 0.5570
vt 0.9413 0.5604
vt 0.9337 0.5811
vt 0.9283 0.5774
vt 0.9360 0.5749
vt 0.9530 0.5621
vt 0.9501 0.5689
vt 0.9456 0.5654
vt 0.9229 0.5737
vt 0.9262 0.5661
vt 0.9305 0.5712
vt 0.9143 0.5630
vt 0.9221 0.5461
vt 0.9295 0.5585
vt 0.9657 0.5681
vt 0.9193 0.5877
vt 0.9065 0.5798
vt 0.9622 0.5439
vt 0.9711 0.5537
vt 0.9427 0.5722
vt 0.9382 0.5687
vt 0.9621 0.5165
vt 0.9757 0.5308
vt 0.9892 0.5452
vt 0.9322 0.5957
vt 0.9306 0.6104
vt 0.9103 0.5981
vt 0.8901 0.5858
vt 0.9812 0.5674
vt 0.9733 0.5896
vt 0.9338 0.5636
vt 0.9024 0.5598
vt 0.9147 0.5338
vt 0.9384 0.5252
vt 0.9519 0.6000
vt 0.9306 0.4328
vt 0.9329 0.4378
vt 0.9352 0.4429
vt 0.9502 0.4409
vt 0.9486 0.4365
vt 0.9470 0.4320
vt 0.9385 0.4281
vt 0.9345 0.4304
vt 0.9427 0.4301
vt 0.9445 0.4468
vt 0.9474 0.4438
vt 0.9635 0.4798
vt 0.9405 0.4850
vt 0.9176 0.4903
vt 0.9183 0.3908
vt 0.9388 0.3907
vt 0.9594 0.3905
vt 0.9398 0.4448
vt 0.9081 0.4636
vt 0.8987 0.4369
vt 0.9802 0.4341
vt 0.9719 0.4570
vt 0.9698 0.4123
vt 0.9486 0.4592
vt 0.9523 0.4513
vt 0.9560 0.4434
vt 0.9500 0.4271
vt 0.9418 0.4251
vt 0.9336 0.4231
vt 0.9336 0.4591
vt 0.9411 0.4592
vt 0.9085 0.4139
vt 0.9301 0.4326
vt 0.9266 0.4421
vt 0.9530 0.4352
vt 0.9196 0.4878
vt 0.9099 0.4624
vt 0.9001 0.4369
vt 0.9574 0.3918
vt 0.9701 0.4140
vt 0.9829 0.4363
vt 0.9557 0.4650
vt 0.9455 0.4520
vt 0.9660 0.4780
vt 0.9428 0.4829
vt 0.9301 0.4506
vt 0.9183 0.3921
vt 0.9378 0.3920
vt 0.9092 0.4145
vt 0.9345 0.4878
vt 0.9144 0.4873
vt 0.9547 0.4883
vt 0.9744 0.4571
vt 0.9059 0.4169
vt 0.9154 0.3916
vt 0.8964 0.4422
vt 0.9703 0.4672
vt 0.9858 0.4461
vt 0.9392 0.3966
vt 0.9631 0.4016
vt 0.9744 0.4238
vt 0.9054 0.4647
vt 0.7997 0.8964
vt 0.7934 0.8963
vt 0.8060 0.8964
vt 0.8368 0.8957
vt 0.8307 0.8954
vt 0.8430 0.8959
vt 0.8429 0.9070
vt 0.8429 0.9181
vt 0.8122 0.8961
vt 0.8184 0.8959
vt 0.7872 0.8960
vt 0.7810 0.8956
vt 0.8246 0.8957
vt 0.8427 0.9355
vt 0.8426 0.9529
vn -0.9507 0.0217 0.3093
vn -0.9506 0.0219 0.3095
vn -0.9509 0.0251 -0.3085
vn -0.9509 0.0251 -0.3086
vn 0.5874 0.0171 -0.8091
vn 0.5873 0.0170 -0.8092
vn 0.9507 0.0205 -0.3094
vn 0.9508 0.0205 -0.3091
vn -0.0003 0.0170 0.9999
vn 0.0004 0.0203 0.9998
vn -0.5872 0.0255 0.8090
vn -0.5873 0.0251 0.8090
vn -0.5877 0.0200 -0.8088
vn -0.5877 0.0198 -0.8088
vn -0.0004 0.0222 -0.9998
vn -0.0002 0.0224 -0.9997
vn 0.9499 0.0483 0.3087
vn 0.9505 0.0327 0.3091
vn 0.5852 0.0381 0.8100
vn 0.5868 0.0462 0.8084
vn -0.5854 0.0899 -0.8057
vn -0.5871 0.0546 -0.8077
vn 0.0002 0.0650 -0.9979
vn 0.0001 0.1064 -0.9943
vn 0.0000 0.0325 0.9995
vn 0.0059 0.0235 0.9997
vn -0.5845 0.0347 0.8107
vn -0.5837 0.0506 0.8104
vn 0.5857 0.0856 -0.8060
vn 0.5871 0.0510 -0.8079
vn 0.9516 0.0509 -0.3032
vn 0.9483 0.0808 -0.3069
vn -0.9496 0.0553 0.3086
vn -0.9502 0.0385 0.3092
vn -0.9513 0.0568 -0.3031
vn -0.9477 0.0878 -0.3068
vn 0.9510 0.0170 0.3087
vn 0.9510 0.0172 0.3086
vn 0.5879 0.0226 0.8086
vn 0.5850 0.0229 0.8107
vn -0.0822 -0.9932 0.0827
vn -0.2062 -0.9314 -0.3001
vn -0.0006 -0.9431 -0.3326
vn 0.0345 -0.8782 0.4770
vn -0.1745 -0.8679 0.4650
vn 0.1248 -0.9891 0.0787
vn -0.3091 -0.9461 0.0965
vn -0.0009 0.4200 -0.9075
vn -0.0084 -0.8527 -0.5224
vn -0.0507 -0.9067 -0.4186
vn 0.4053 0.4327 -0.8053
vn 0.0818 0.3992 0.9132
vn 0.5013 0.4429 0.7434
vn 0.0114 -0.8969 0.4421
vn 0.1298 -0.8425 0.5227
vn 0.8166 0.4105 0.4059
vn 0.8899 0.4466 -0.0934
vn 0.0376 -0.9821 0.1848
vn 0.1806 -0.7157 0.6746
vn -0.0326 -0.6662 -0.7450
vn -0.4574 -0.7070 -0.5394
vn 0.3296 -0.6488 0.6859
vn 0.0662 -0.8320 0.5508
vn -0.6957 0.4781 -0.5361
vn -0.8286 0.5583 0.0418
vn 0.0638 -0.9761 -0.2078
vn -0.0192 -0.6108 -0.7916
vn 0.7367 0.3773 -0.5612
vn 0.0885 -0.8009 -0.5922
vn -0.6603 0.4486 0.6023
vn -0.3160 0.4595 0.8300
vn 0.1068 -0.8851 0.4530
vn -0.0971 -0.7643 0.6375
vn 0.0025 -0.6328 0.7743
vn 0.3963 -0.7136 0.5777
vn -0.3321 -0.6106 -0.7190
vn 0.0124 -0.8535 -0.5210
vn 0.6458 -0.6231 -0.4413
vn 0.3348 -0.6941 -0.6373
vn -0.2703 -0.6644 0.6968
vn -0.2792 -0.8034 0.5259
vn 0.0520 0.3981 0.9159
vn 0.5517 0.3953 0.7344
vn 0.0910 -0.9833 -0.1577
vn -0.4684 -0.7654 0.4413
vn -0.7748 -0.5973 -0.2074
vn -0.7989 -0.5903 0.1153
vn 0.5675 -0.8204 -0.0707
vn 0.3390 -0.8466 0.4102
vn 0.7047 -0.6572 0.2675
vn 0.7345 -0.6715 -0.0981
vn -0.6878 -0.7255 0.0241
vn -0.3492 -0.7419 -0.5723
vn -0.7245 -0.5435 0.4240
vn -0.3982 -0.6433 0.6539
vn 0.1825 -0.7099 -0.6802
vn 0.1850 -0.8735 -0.4503
vn 0.7878 0.2450 -0.5651
vn 0.4430 0.3334 -0.8322
vn 0.0843 -0.9925 -0.0883
vn 0.4192 -0.9071 -0.0386
vn 0.0029 0.3604 -0.9328
vn -0.4493 0.4748 -0.7568
vn -0.4930 -0.8688 0.0461
vn -0.2464 -0.8616 -0.4437
vn -0.7047 0.4487 0.5496
vn -0.3639 0.4657 0.8067
vn -0.5740 -0.8183 0.0305
vn -0.7124 -0.6987 -0.0661
vn -0.1567 -0.5313 -0.8326
vn -0.4832 -0.5372 -0.6913
vn 0.2983 -0.8531 0.4281
vn -0.1444 -0.8874 0.4377
vn 0.8935 0.2935 0.3398
vn 0.9467 0.2950 -0.1292
vn 0.2444 -0.9631 -0.1124
vn 0.5032 -0.8189 -0.2761
vn -0.7856 0.4792 -0.3914
vn -0.8510 0.5166 0.0947
vn -0.5234 -0.8520 -0.0105
vn -0.7288 -0.6624 0.1737
vn -0.7446 -0.5046 -0.4370
vn -0.8104 -0.5806 0.0786
vn 0.6546 -0.7398 -0.1551
vn 0.4460 -0.8894 -0.1006
vn -0.0716 -0.5557 0.8283
vn 0.2207 -0.6618 0.7165
vn -0.5361 -0.6931 -0.4819
vn -0.2116 -0.8704 -0.4446
vn 0.4839 -0.7174 0.5012
vn 0.5612 -0.8254 -0.0613
vn -0.8837 -0.4650 0.0544
vn -0.7090 -0.7050 -0.0182
vn -0.6596 -0.4941 0.5664
vn -0.3861 -0.5468 0.7429
vn 0.1802 -0.8403 -0.5112
vn 0.3810 -0.9211 -0.0799
vn 0.4646 -0.6533 -0.5978
vn 0.1655 -0.6238 -0.7638
vn -0.4706 -0.7134 0.5191
vn -0.6435 -0.7619 0.0744
vn -0.0117 0.3119 -0.9500
vn -0.0608 0.3272 -0.9430
vn 0.4371 0.2688 -0.8583
vn 0.4397 0.2551 -0.8611
vn 0.1100 0.2708 0.9563
vn 0.5753 0.2339 0.7837
vn 0.5727 0.2092 0.7927
vn 0.0471 0.2286 0.9724
vn 0.9212 0.1324 0.3658
vn 0.5698 0.1814 0.8015
vn -0.4299 0.4245 -0.7968
vn -0.7312 0.4528 -0.5102
vn -0.4478 0.4335 -0.7820
vn 0.9797 0.1705 -0.1050
vn 0.8281 0.1588 -0.5376
vn 0.9848 0.1450 -0.0961
vn -0.8612 0.4989 0.0971
vn -0.6550 0.3520 0.6686
vn -0.8675 0.4840 0.1146
vn -0.6618 0.3861 0.6426
vn -0.3047 0.3670 0.8789
vn -0.3337 0.3262 0.8844
vn 0.7986 0.1729 -0.5765
vn -0.7200 0.4574 -0.5218
vn -0.8560 0.5109 0.0791
vn 0.8994 0.1665 0.4041
vn 0.9741 0.2010 -0.1033
vn 0.4429 0.2878 -0.8491
vn 0.1703 0.9831 0.0670
vn -0.3992 0.4221 -0.8139
vn -0.3462 0.2794 0.8956
vn -0.0136 -0.8669 -0.4984
vn -0.9451 -0.3154 0.0849
vn -0.6825 -0.6159 0.3935
vn -0.4103 -0.5417 0.7336
vn 0.8717 -0.4879 -0.0452
vn 0.6551 -0.7179 -0.2356
vn 0.3628 -0.6473 -0.6703
vn -0.3799 0.4809 -0.7902
vn -0.5171 -0.5939 -0.6164
vn -0.7992 -0.5779 -0.1655
vn 0.4469 -0.5898 0.6726
vn 0.6880 -0.6781 0.2584
vn -0.0352 -0.6937 0.7194
vn -0.0979 -0.7390 -0.6666
vn -0.9498 0.0552 0.3078
vn -0.9441 0.0885 -0.3176
vn -0.5934 0.0499 0.8034
vn 0.5852 0.0865 -0.8063
vn 0.9444 0.0815 -0.3186
vn -0.0012 0.1074 -0.9942
vn -0.0001 0.0286 0.9996
vn 0.5918 0.0454 0.8048
vn -0.5850 0.0909 -0.8059
vn 0.9502 0.0481 0.3080
usemtl None
s 1
f 196/1/1 103/2/2 3/3/3 63/4/4
f 195/5/5 140/6/6 7/7/7 113/8/8
f 194/9/9 88/10/10 2/11/11 143/12/12
f 193/13/13 126/14/14 6/15/15 85/16/16
f 192/17/17 123/18/18 9/19/19 90/20/20
f 191/21/21 81/22/22 5/23/23 71/24/24
f 190/25/25 129/26/26 1/27/27 131/28/28
f 189/29/29 151/30/30 8/31/31 115/32/32
f 188/33/33 116/34/34 4/35/35 147/36/36
f 187/37/37 153/38/38 10/39/39 121/40/40
f 16/41/41 118/42/42 75/43/43
f 16/44/41 56/45/44 101/46/45
f 16/47/41 94/48/46 56/49/44
f 16/50/41 101/51/45 135/52/47
f 16/53/41 75/54/43 94/55/46
f 186/56/48 55/57/49 24/58/50 84/59/51
f 16/60/41 135/61/47 118/62/42
f 185/63/52 83/64/53 25/65/54 100/66/55
f 184/67/56 122/68/57 27/69/58 89/70/59
f 183/71/60 74/72/61 28/73/62 133/74/63
f 182/75/64 120/76/65 30/77/66 70/78/67
f 181/79/68 84/59/51 24/58/50 60/80/69
f 180/81/70 134/82/71 26/83/72 112/84/73
f 179/85/74 152/86/75 31/87/76 86/88/77
f 178/89/78 87/90/79 29/91/80 111/92/81
f 177/93/82 119/94/83 34/95/84 106/96/85
f 176/97/86 96/98/87 36/99/88 67/100/89
f 175/101/90 137/102/91 33/103/92 69/104/93
f 174/105/94 73/106/95 32/107/96 146/108/97
f 173/109/98 92/110/99 37/111/100 114/112/101
f 172/113/102 145/114/103 39/115/104 68/116/105
f 171/117/106 139/118/107 35/119/108 132/120/109
f 170/121/110 59/122/111 41/123/112 149/124/113
f 169/125/114 77/126/115 38/127/116 130/128/117
f 168/129/118 79/130/119 40/131/120 136/132/121
f 167/133/122 76/134/123 43/135/124 105/136/125
f 166/137/126 54/138/127 44/139/128 154/140/129
f 165/141/130 58/142/131 46/143/132 148/144/133
f 164/145/134 66/146/135 45/147/136 124/148/137
f 163/149/138 93/150/139 42/151/140 110/152/141
f 162/153/142 127/154/143 48/155/144 72/156/145
f 161/157/146 109/158/147 49/159/148 91/160/149
f 49/159/148 144/161/150 155/162/151
f 47/163/152 64/164/153 107/165/154
f 51/166/155 57/167/156 108/168/157
f 53/169/158 142/170/159 95/171/160
f 160/172/161 99/173/162 50/174/163 142/170/159
f 49/159/148 155/162/151 91/160/149
f 159/175/164 72/156/145 48/155/144 57/167/156
f 158/176/165 141/177/166 53/169/158 64/164/153
f 157/178/167 104/179/168 51/166/155 144/161/150
f 48/155/144 127/154/143 82/180/169
f 82/180/169 107/165/154 52/181/170
f 82/180/169 127/154/143 107/165/154
f 127/154/143 47/163/152 107/165/154
f 109/158/147 157/178/167 144/161/150 49/159/148
f 41/182/112 105/183/125 157/178/167 109/158/147
f 105/183/125 43/184/124 104/179/168 157/178/167
f 65/185/171 158/176/165 64/164/153 47/163/152
f 44/186/128 148/187/133 158/176/165 65/185/171
f 148/187/133 46/188/132 141/177/166 158/176/165
f 104/179/168 159/175/164 57/167/156 51/166/155
f 43/184/124 124/189/137 159/175/164 104/179/168
f 124/189/137 45/190/136 72/156/145 159/175/164
f 91/160/149 125/191/172 50/174/163
f 91/160/149 155/162/151 125/191/172
f 155/162/151 52/181/170 125/191/172
f 141/177/166 160/172/161 142/170/159 53/169/158
f 46/188/132 110/192/141 160/172/161 141/177/166
f 110/192/141 42/193/140 99/173/162 160/172/161
f 95/171/160 125/191/172 52/181/170
f 95/171/160 142/170/159 125/191/172
f 142/170/159 50/174/163 125/191/172
f 108/168/157 82/180/169 52/181/170
f 108/168/157 57/167/156 82/180/169
f 57/167/156 48/155/144 82/180/169
f 107/165/154 95/171/160 52/181/170
f 107/165/154 64/164/153 95/171/160
f 64/164/153 53/169/158 95/171/160
f 155/162/151 108/168/157 52/181/170
f 155/162/151 144/161/150 108/168/157
f 144/161/150 51/166/155 108/168/157
f 99/173/162 161/157/146 91/160/149 50/174/163
f 42/193/140 149/194/113 161/157/146 99/173/162
f 149/194/113 41/182/112 109/158/147 161/157/146
f 154/195/129 162/153/142 72/156/145 45/190/136
f 44/186/128 65/185/171 162/153/142 154/195/129
f 65/185/171 47/163/152 127/154/143 162/153/142
f 58/142/131 163/149/138 110/152/141 46/143/132
f 40/196/120 132/197/109 163/149/138 58/142/131
f 132/197/109 35/198/108 93/150/139 163/149/138
f 76/134/123 164/145/134 124/148/137 43/135/124
f 38/199/116 114/200/101 164/145/134 76/134/123
f 114/200/101 37/201/100 66/146/135 164/145/134
f 54/138/127 165/141/130 148/144/133 44/139/128
f 39/202/104 136/203/121 165/141/130 54/138/127
f 136/203/121 40/196/120 58/142/131 165/141/130
f 66/146/135 166/137/126 154/140/129 45/147/136
f 37/201/100 68/204/105 166/137/126 66/146/135
f 68/204/105 39/202/104 54/138/127 166/137/126
f 59/122/111 167/133/122 105/136/125 41/123/112
f 34/205/84 130/206/117 167/133/122 59/122/111
f 130/206/117 38/199/116 76/134/123 167/133/122
f 145/114/103 168/129/118 136/132/121 39/115/104
f 31/207/76 69/208/93 168/129/118 145/114/103
f 69/208/93 33/209/92 79/130/119 168/129/118
f 119/94/83 169/125/114 130/128/117 34/95/84
f 28/210/62 67/211/89 169/125/114 119/94/83
f 67/211/89 36/212/88 77/126/115 169/125/114
f 93/150/139 170/121/110 149/124/113 42/151/140
f 35/198/108 106/213/85 170/121/110 93/150/139
f 106/213/85 34/205/84 59/122/111 170/121/110
f 79/130/119 171/117/106 132/120/109 40/131/120
f 33/209/92 111/214/81 171/117/106 79/130/119
f 111/214/81 29/215/80 139/118/107 171/117/106
f 92/110/99 172/113/102 68/116/105 37/111/100
f 32/216/96 86/217/77 172/113/102 92/110/99
f 86/217/77 31/207/76 145/114/103 172/113/102
f 77/126/115 173/109/98 114/112/101 38/127/116
f 36/212/88 146/218/97 173/109/98 77/126/115
f 146/218/97 32/216/96 92/110/99 173/109/98
f 96/98/87 174/105/94 146/108/97 36/99/88
f 27/219/58 60/220/69 174/105/94 96/98/87
f 60/220/69 24/221/50 73/106/95 174/105/94
f 152/86/75 175/101/90 69/104/93 31/87/76
f 23/222/173 70/223/67 175/101/90 152/86/75
f 70/223/67 30/224/66 137/102/91 175/101/90
f 74/72/61 176/97/86 67/100/89 28/73/62
f 25/225/54 89/226/59 176/97/86 74/72/61
f 89/226/59 27/219/58 96/98/87 176/97/86
f 139/118/107 177/93/82 106/96/85 35/119/108
f 29/215/80 133/227/63 177/93/82 139/118/107
f 133/227/63 28/210/62 119/94/83 177/93/82
f 137/102/91 178/89/78 111/92/81 33/103/92
f 30/224/66 112/228/73 178/89/78 137/102/91
f 112/228/73 26/229/72 87/90/79 178/89/78
f 73/106/95 179/85/74 86/88/77 32/107/96
f 24/221/50 55/230/49 179/85/74 73/106/95
f 55/230/49 23/222/173 152/86/75 179/85/74
f 120/76/65 180/81/70 112/84/73 30/77/66
f 21/231/174 80/232/175 180/81/70 120/76/65
f 80/232/175 18/233/176 134/82/71 180/81/70
f 122/68/57 181/79/68 60/80/69 27/69/58
f 22/234/177 150/235/178 181/79/68 122/68/57
f 150/235/178 20/236/179 84/59/51 181/79/68
f 61/237/180 182/75/64 70/78/67 23/238/173
f 19/239/181 98/240/182 182/75/64 61/237/180
f 98/240/182 21/231/174 120/76/65 182/75/64
f 87/90/79 183/71/60 133/74/63 29/91/80
f 26/229/72 100/241/55 183/71/60 87/90/79
f 100/241/55 25/225/54 74/72/61 183/71/60
f 83/64/53 184/67/56 89/70/59 25/65/54
f 17/242/183 128/243/184 184/67/56 83/64/53
f 128/243/184 22/234/177 122/68/57 184/67/56
f 134/82/71 185/63/52 100/66/55 26/83/72
f 18/233/176 97/244/185 185/63/52 134/82/71
f 97/244/185 17/242/183 83/64/53 185/63/52
f 118/62/42 128/245/184 17/246/183
f 118/62/42 135/61/47 128/245/184
f 135/61/47 22/247/177 128/245/184
f 117/248/186 186/56/48 84/59/51 20/236/179
f 19/239/181 61/237/180 186/56/48 117/248/186
f 61/237/180 23/238/173 55/57/49 186/56/48
f 94/55/46 80/249/175 21/250/174
f 94/55/46 75/54/43 80/249/175
f 75/54/43 18/251/176 80/249/175
f 135/52/47 150/252/178 22/247/177
f 135/52/47 101/51/45 150/252/178
f 101/51/45 20/253/179 150/252/178
f 56/49/44 98/254/182 19/255/181
f 56/49/44 94/48/46 98/254/182
f 94/48/46 21/250/174 98/254/182
f 101/46/45 117/256/186 20/253/179
f 101/46/45 56/45/44 117/256/186
f 56/45/44 19/255/181 117/256/186
f 75/43/43 97/257/185 18/251/176
f 75/43/43 118/42/42 97/257/185
f 118/42/42 17/246/183 97/257/185
f 123/18/18 187/37/37 121/40/40 9/19/19
f 8/31/31 113/8/8 187/37/37 123/18/18
f 113/8/8 7/7/7 153/38/38 187/37/37
f 156/258/187 188/33/33 147/36/36 13/259/188
f 15/260/189 131/28/28 188/33/33 156/258/187
f 131/28/28 1/27/27 116/34/34 188/33/33
f 102/261/190 189/29/29 115/32/32 11/262/191
f 14/263/192 71/264/24 189/29/29 102/261/190
f 71/264/24 5/265/23 151/30/30 189/29/29
f 62/266/193 190/25/25 131/28/28 15/260/189
f 12/267/194 90/20/20 190/25/25 62/266/193
f 90/20/20 9/19/19 129/26/26 190/25/25
f 78/268/195 191/21/21 71/24/24 14/269/192
f 13/259/188 147/36/36 191/21/21 78/268/195
f 147/36/36 4/35/35 81/22/22 191/21/21
f 138/270/196 192/17/17 90/20/20 12/267/194
f 11/262/191 115/32/32 192/17/17 138/270/196
f 115/32/32 8/31/31 123/18/18 192/17/17
f 81/22/22 193/13/13 85/16/16 5/23/23
f 4/35/35 63/4/4 193/13/13 81/22/22
f 63/4/4 3/3/3 126/14/14 193/13/13
f 129/26/26 194/9/9 143/12/12 1/27/27
f 9/19/19 121/40/40 194/9/9 129/26/26
f 121/40/40 10/39/39 88/10/10 194/9/9
f 151/30/30 195/5/5 113/8/8 8/31/31
f 5/265/23 85/271/16 195/5/5 151/30/30
f 85/271/16 6/272/15 140/6/6 195/5/5
f 116/34/34 196/1/1 63/4/4 4/35/35
f 1/27/27 143/12/12 196/1/1 116/34/34
f 143/12/12 2/11/11 103/2/2 196/1/1
