# Blender v2.78 (sub 0) OBJ File: ''
# www.blender.org
mtllib Dead_Pine_Tree_crk_OneSided_l_01.mtl
o Dead_Pine_Tree_crk_OneSided_l_01
v -0.117291 3.862242 0.628390
v -0.026990 3.786527 0.808019
v 0.083140 3.865643 0.641315
v 0.005602 4.050921 0.238024
v -0.046470 3.625824 1.104249
v 0.190453 3.593474 1.113159
v -0.281097 3.584279 1.082763
v -0.440677 3.261644 1.638040
v -0.085803 3.313137 1.651693
v -0.510316 2.994246 2.031494
v -0.267051 3.064455 2.101186
v 0.273163 3.279786 1.679145
v 0.053986 2.993092 2.092198
v 0.306285 3.017321 2.072882
v -0.102688 3.167965 1.942744
v -0.120335 2.896199 2.458496
v -0.556026 3.324319 1.348293
v 0.429745 3.342833 1.418963
v 0.213153 5.858612 0.553438
v 0.393799 5.775366 0.650166
v 0.391874 5.869572 0.450064
v 0.092990 6.076528 0.162037
v 0.554653 5.610325 0.910762
v 0.762195 5.585608 0.780479
v 0.341381 5.560129 1.023195
v 0.540681 5.240137 1.583524
v 0.857370 5.307254 1.401985
v 0.699113 4.942307 1.931531
v 0.955382 5.013447 1.866266
v 1.176454 5.275201 1.214073
v 1.219602 4.950159 1.664393
v 1.424769 4.977643 1.506147
v 1.012086 5.143473 1.652106
v 1.268450 4.782223 2.057020
v 0.266439 5.294789 1.396599
v 1.151425 5.343328 0.896614
v 0.234104 5.428810 -0.586604
v 0.170766 5.355399 -0.789261
v 0.031565 5.447477 -0.638877
v 0.046658 5.636989 -0.207829
v 0.236728 5.200760 -1.100061
v -0.006729 5.184284 -1.155191
v 0.469687 5.140656 -1.031598
v 0.718152 4.835908 -1.593686
v 0.361623 4.917385 -1.685179
v 0.844975 4.547933 -1.972303
v 0.615215 4.632310 -2.104450
v -0.003677 4.898293 -1.778593
v 0.278745 4.578453 -2.150187
v 0.018336 4.614325 -2.180905
v 0.424561 4.763528 -1.983981
v 0.519782 4.417282 -2.476575
v 0.783870 4.873932 -1.260580
v -0.210706 4.960741 -1.528290
v -0.578895 6.662634 -0.069968
v -0.753710 6.570826 0.079729
v -0.542670 6.674031 0.158528
v -0.118839 6.901988 -0.037438
v -1.092801 6.389256 0.142544
v -1.040461 6.360424 0.411916
v -1.125035 6.333951 -0.125820
v -1.794724 5.982356 -0.143895
v -1.731699 6.055995 0.260454
v -2.225746 5.653040 -0.119143
v -2.259892 5.732433 0.175230
v -1.664112 6.018471 0.669625
v -2.155980 5.659659 0.532587
v -2.072852 5.688972 0.810866
v -2.057353 5.875706 0.321075
v -2.588027 5.476183 0.425133
v -1.488259 6.040915 -0.355192
v -1.321384 6.091053 0.771461
v 0.216565 3.362819 0.046276
v 0.658600 3.486090 0.065668
v 0.668758 3.467720 0.102721
v 0.217365 3.316623 0.126703
v 0.648442 3.504460 0.102721
v 0.215765 3.409015 0.126703
v 1.114480 3.638403 0.073623
v 1.121032 3.628366 0.094385
v 1.107927 3.648441 0.094385
v -0.089622 4.473621 -0.044580
v -0.461622 4.614453 -0.386842
v -0.443228 4.593465 -0.426697
v -0.031131 4.420842 -0.115450
v -0.425476 4.635441 -0.411746
v -0.029733 4.526398 -0.114273
v -0.854137 4.788466 -0.729300
v -0.844584 4.776999 -0.752265
v -0.833131 4.799934 -0.742620
v -0.046228 5.926235 0.110433
v -0.530459 5.951078 0.402044
v -0.551755 5.933037 0.378429
v -0.080253 5.894641 0.067881
v -0.546157 5.968694 0.374095
v -0.075473 5.957297 0.064099
v 0.089935 6.743069 -0.141860
v 0.540044 6.860312 -0.810832
v 0.562852 6.848433 -0.804240
v 0.138792 6.711988 -0.119350
v 0.558049 6.872810 -0.795810
v 0.136054 6.773704 -0.113663
v -0.293172 0.228180 -0.019194
v -0.185371 3.643606 0.029452
v 0.008561 3.580108 -0.213917
v -0.058358 0.222397 -0.310277
v -0.098795 7.102856 -0.048617
v 0.041950 7.128020 -0.223901
v 0.291712 0.226863 0.193726
v 0.256333 3.634863 0.217826
v -0.053692 3.636270 0.300942
v -0.084745 0.227030 0.296923
v 0.177985 7.094704 0.110966
v 0.017636 7.155078 0.143563
v 0.272063 3.667266 -0.092855
v 0.284028 0.229574 -0.173446
v 0.196353 7.230814 -0.118762
v 0.696577 5.280859 1.491497
v -1.694602 6.044974 0.465389
v 0.130173 5.549068 -0.368448
v 0.750218 5.116818 1.744423
v 0.200220 3.010640 2.066503
v -0.022265 5.479672 0.229373
v -2.091981 5.682954 0.690207
v -1.912081 5.824645 0.751139
v 0.990248 5.082920 1.756680
v 0.562503 5.736112 0.611792
v 0.351584 6.778970 -0.461651
v -1.445425 6.079440 0.724186
v 0.513509 4.702739 -2.046835
v -0.062249 5.906693 0.091147
v -0.854345 4.798526 -0.745208
v 0.203004 5.392694 -0.687123
v 1.214211 5.101863 1.449258
v 0.892582 3.580043 0.097938
v -2.450837 5.592089 0.322129
v -0.480039 3.105877 1.875937
v 0.678806 4.724436 -1.865207
v 0.223491 5.989620 0.283176
v -0.287380 5.938666 0.257589
v 0.358730 4.672122 -2.065044
v 0.036853 5.557669 -0.392533
v -0.059316 5.945533 0.088825
v 0.540936 4.883763 -1.636432
v 0.299233 5.058942 -1.392888
v 1.109542 5.048196 1.661741
v 0.652962 5.605621 0.840570
v -1.101053 6.370136 0.008722
v 0.396277 4.835237 -1.848782
v 0.977120 5.434977 0.982905
v 0.070673 3.617334 1.101544
v 0.572191 6.863982 -0.819738
v 1.123589 3.647209 0.084156
v -1.412542 6.222472 0.201553
v 0.561732 6.869339 -0.822625
v -0.657709 4.691009 -0.600186
v 0.664579 3.475527 0.083244
v -0.315715 6.801021 -0.055284
v 0.350290 5.178280 -1.059125
v 0.245946 3.439749 1.388134
v -0.095284 3.234335 1.810213
v -0.374073 3.424011 1.349541
v -0.213478 4.577541 -0.252978
v 0.302548 5.817620 0.601639
v 0.104781 7.191039 0.123722
v 0.652408 4.984776 -1.173735
v 0.745604 4.594629 -2.016129
v 0.141145 5.984570 0.330805
v -0.178190 3.120314 2.022567
v 0.990777 5.443570 0.855990
v 0.170567 3.124573 1.902196
v 0.042137 3.973460 0.410426
v 0.752363 4.872684 -1.381558
v 0.145458 3.622535 -0.167253
v -0.849872 4.793156 -0.755962
v -0.406955 3.033382 2.048149
v -0.062066 4.506432 -0.076590
v -0.025655 4.473620 -0.120534
v -1.760829 6.027181 0.056244
v 0.127511 3.739328 0.867089
v -0.027273 1.784038 -0.266340
v -0.223089 4.499423 -0.261072
v -1.213076 6.202590 0.620122
v -2.048718 5.846453 0.010065
v -0.050211 3.971920 0.404460
v 0.027277 5.468135 -0.218513
v -0.311147 5.964409 0.218305
v -0.080388 5.925948 0.062441
v 0.282565 1.832881 -0.134845
v -0.072684 1.816612 0.306429
v 0.132747 4.728412 -1.983690
v -0.194912 0.225289 -0.180445
v -0.316636 5.912416 0.222597
v -0.062765 4.440809 -0.077179
v -0.072745 3.825224 0.717661
v 0.279983 1.815986 0.210632
v 0.100389 5.402151 -0.713606
v 1.016153 5.298168 1.305237
v -0.031330 3.081644 2.016571
v 0.111230 0.226947 0.268965
v 0.564056 6.858314 -0.826690
v 0.427989 3.385404 0.115961
v -2.107763 5.769258 0.418840
v -0.665751 6.617434 0.003978
v 0.013311 4.731349 -2.020934
v 0.200825 5.284709 -0.930973
v -2.227317 5.699194 0.002796
v -0.023438 7.180972 -0.143998
v 0.910172 3.553099 0.097938
v 0.639796 5.067320 1.793854
v 0.278730 3.653693 0.063411
v -0.020980 5.046089 -1.461855
v 0.216965 3.334100 0.083244
v -2.158575 5.809047 0.255983
v 0.706150 5.458651 1.156598
v 0.243559 5.520650 -0.109932
v 0.216165 3.391539 0.083244
v 0.423713 5.401563 1.301903
v 0.327022 3.446958 1.298471
v 0.792556 4.669325 -1.824563
v -0.066194 3.468982 1.378093
v 0.105268 7.346085 0.013403
v 0.141265 6.742826 -0.114455
v 0.339857 5.294290 -0.801360
v -0.363291 3.151895 1.886282
v -0.245890 1.822843 0.006409
v 1.323631 5.100092 1.392659
v 0.190305 7.209698 0.004000
v -0.132286 3.642169 0.173425
v 0.558701 4.515184 -2.321216
v 0.445806 5.592916 0.960391
v -0.126718 4.950996 -1.614585
v 0.419266 4.482336 -2.335070
v -0.147128 5.455961 -0.006033
v 0.347595 6.824499 -0.454185
v 1.126657 3.642509 0.093878
v 0.216565 3.362819 0.133194
v -0.161650 3.612777 1.086800
v -0.210284 0.227605 0.152575
v -0.642338 4.721792 -0.587241
v 1.138803 4.886727 1.976875
v -1.910143 5.959594 0.293553
v 0.605411 4.988807 -1.299174
v -0.263949 4.538483 -0.202803
v 0.372014 5.287105 1.459402
v 1.330393 4.971853 1.560735
v 0.422489 3.419593 0.053912
v 0.125289 4.604468 -2.153302
v 0.303954 5.404645 1.246619
v 1.244242 4.850390 1.889479
v 0.467144 5.699936 0.768972
v 0.280819 5.718836 0.774721
v -0.432953 4.614453 -0.420883
v 1.129725 3.637808 0.084156
v -1.059064 6.383346 0.273573
v -0.439488 3.432186 1.245383
v -0.264380 3.293792 1.641549
v 0.110926 6.762153 -0.128474
v -1.927168 5.827093 0.613960
v 0.393096 5.823174 0.549265
v -0.188392 3.733622 0.846846
v 0.289689 3.124417 1.916040
v -0.552164 5.959967 0.396504
v -1.345315 6.162302 -0.255304
v 0.416990 3.453781 0.115961
v -0.908309 6.487837 0.108378
v 0.114572 7.226028 -0.180414
v -0.839074 6.508744 -0.088682
v -0.781979 6.526708 0.271452
v 0.115525 5.199917 -1.119715
v -0.506260 3.312169 1.451291
v -0.180436 2.972841 2.307678
v -0.859708 4.787786 -0.749724
v 0.177700 4.914792 -1.728993
v 0.045898 7.322144 -0.088273
v -1.596512 6.033225 -0.270128
v -2.056498 5.791380 -0.125403
v 0.094735 3.302545 1.661866
v 0.104103 3.634118 0.273992
v -0.121290 5.053375 -1.379564
v 0.020632 5.323710 -0.883748
v 0.120596 0.225985 -0.264636
v -0.299024 6.806272 0.049995
v 1.151826 5.331733 1.014987
v 0.028802 3.826940 0.724212
v -0.039943 7.163073 0.046371
v -0.098110 3.609597 -0.102127
v -0.562116 5.951581 0.385546
v -0.443462 4.626522 -0.397802
v 0.901377 3.566571 0.070071
v -0.035777 3.713722 0.943457
v 0.313684 6.801689 -0.477041
v -0.554847 5.943396 0.398580
v -1.340351 6.194416 0.554719
v 0.942052 5.219641 1.539101
v 0.364537 3.332309 1.509628
v 0.112589 6.723783 -0.131945
v -0.048876 2.932905 2.300519
v -0.453911 4.602385 -0.406602
v 0.658600 3.486090 0.104622
v 0.801253 4.983732 1.894146
v 0.216293 5.478183 0.165728
v -0.647398 6.623208 0.119744
v 0.312834 0.228218 0.011272
v -0.670532 4.706400 -0.569363
v 0.652621 3.496654 0.083244
v -2.402350 5.550555 0.467461
v -1.451367 6.159707 -0.152372
v 0.241299 5.500689 0.029031
v 0.297902 1.825747 0.038781
v -0.095063 5.467674 0.118595
v -0.173662 1.820843 0.165675
v 0.140488 5.495845 -0.176459
v 0.133129 1.807883 -0.216066
v 0.099486 5.478384 0.210351
v 0.107946 1.815575 0.274700
v -0.068475 5.460009 -0.120894
v -0.148614 1.802310 -0.140804
v 0.329497 6.814956 -0.465829
v 0.351548 6.801737 -0.456875
v 0.331818 6.788465 -0.470173
v -0.298316 5.953671 0.238784
v -0.315338 5.938399 0.218425
v -0.301509 5.923421 0.241281
v -0.656365 4.715355 -0.577108
v -0.648905 4.706400 -0.595042
v -0.665308 4.697445 -0.584640
v -0.239566 4.561208 -0.226081
v -0.215793 4.538482 -0.259982
v -0.245158 4.515757 -0.230790
v 0.896260 3.574409 0.083244
v 0.901377 3.566571 0.099458
v 0.906494 3.558733 0.083244
v 0.419289 3.439484 0.083244
v 0.422489 3.419592 0.119346
v 0.425689 3.399702 0.083244
v -0.876453 6.497438 0.004161
v -1.376809 6.215091 0.374306
v -1.908112 5.903309 0.449438
v -2.291588 5.672747 0.368333
v -1.969843 5.916338 0.151775
v -1.431747 6.197807 0.027778
v -0.846003 6.507018 0.196232
v -0.469391 6.719132 0.027257
v 0.276042 5.288559 -0.866431
v 0.142624 5.058389 -1.426049
v 0.264546 4.790450 -1.905561
v 0.464744 4.586652 -2.202837
v 0.534459 4.791687 -1.848546
v 0.449788 5.030080 -1.346774
v 0.105789 5.304250 -0.910371
v 0.115186 5.481505 -0.528874
v 0.370129 5.708588 0.775964
v 0.838571 5.452735 1.071344
v 1.071166 5.169735 1.486876
v 1.126311 4.960269 1.830160
v 0.843049 5.180203 1.633911
v 0.567529 5.436110 1.228117
v 0.520360 5.717802 0.689069
v 0.259086 5.910237 0.431563
v -0.117449 3.723155 0.896416
v 0.086748 3.460282 1.382253
v 0.036197 3.187062 1.845609
v -0.110240 3.021195 2.172630
v -0.227239 3.203985 1.838661
v -0.217222 3.452221 1.363826
v 0.051033 3.726198 0.907212
v -0.012321 3.905459 0.553041
vt 0.6872 0.3490
vt 0.6893 0.3418
vt 0.6914 0.3459
vt 0.6893 0.3562
vt 0.6905 0.3336
vt 0.6939 0.3356
vt 0.6812 0.3121
vt 0.6751 0.3121
vt 0.6723 0.2989
vt 0.6797 0.2989
vt 0.6710 0.2888
vt 0.6768 0.2888
vt 0.7021 0.2989
vt 0.6975 0.2888
vt 0.7033 0.2888
vt 0.6820 0.2909
vt 0.6814 0.2787
vt 0.6843 0.2828
vt 0.6872 0.2763
vt 0.6843 0.2696
vt 0.6691 0.3043
vt 0.6963 0.3253
vt 0.6992 0.3121
vt 0.7024 0.3172
vt 0.6924 0.2909
vt 0.6872 0.2930
vt 0.6872 0.2870
vt 0.6901 0.2828
vt 0.6932 0.3121
vt 0.6872 0.3121
vt 0.6872 0.2989
vt 0.6946 0.2989
vt 0.6839 0.3336
vt 0.6872 0.3315
vt 0.6872 0.3377
vt 0.6851 0.3418
vt 0.9351 0.3490
vt 0.9372 0.3418
vt 0.9393 0.3459
vt 0.9372 0.3562
vt 0.9384 0.3336
vt 0.9418 0.3356
vt 0.9291 0.3121
vt 0.9232 0.3121
vt 0.9203 0.2989
vt 0.9277 0.2989
vt 0.9190 0.2888
vt 0.9248 0.2888
vt 0.9500 0.2989
vt 0.9455 0.2888
vt 0.9513 0.2888
vt 0.9299 0.2909
vt 0.9293 0.2787
vt 0.9322 0.2828
vt 0.9351 0.2763
vt 0.9322 0.2696
vt 0.9171 0.3043
vt 0.9443 0.3253
vt 0.9471 0.3121
vt 0.9503 0.3172
vt 0.9403 0.2909
vt 0.9351 0.2930
vt 0.9351 0.2870
vt 0.9381 0.2828
vt 0.9411 0.3121
vt 0.9351 0.3121
vt 0.9351 0.2989
vt 0.9426 0.2989
vt 0.9318 0.3336
vt 0.9351 0.3315
vt 0.9351 0.3377
vt 0.9331 0.3418
vt 0.9351 0.3490
vt 0.9372 0.3418
vt 0.9393 0.3459
vt 0.9372 0.3562
vt 0.9384 0.3336
vt 0.9418 0.3356
vt 0.9291 0.3121
vt 0.9232 0.3121
vt 0.9203 0.2989
vt 0.9277 0.2989
vt 0.9190 0.2888
vt 0.9248 0.2888
vt 0.9500 0.2989
vt 0.9455 0.2888
vt 0.9513 0.2888
vt 0.9299 0.2909
vt 0.9293 0.2787
vt 0.9322 0.2828
vt 0.9351 0.2763
vt 0.9322 0.2696
vt 0.9171 0.3043
vt 0.9443 0.3253
vt 0.9471 0.3121
vt 0.9503 0.3172
vt 0.9403 0.2909
vt 0.9351 0.2930
vt 0.9351 0.2870
vt 0.9381 0.2828
vt 0.9411 0.3121
vt 0.9351 0.3121
vt 0.9351 0.2989
vt 0.9426 0.2989
vt 0.9318 0.3336
vt 0.9351 0.3315
vt 0.9351 0.3377
vt 0.9331 0.3418
vt 0.8144 0.3490
vt 0.8165 0.3418
vt 0.8186 0.3459
vt 0.8165 0.3562
vt 0.8177 0.3336
vt 0.8210 0.3356
vt 0.8084 0.3121
vt 0.8023 0.3121
vt 0.7995 0.2989
vt 0.8069 0.2989
vt 0.7982 0.2888
vt 0.8040 0.2888
vt 0.8293 0.2989
vt 0.8248 0.2888
vt 0.8305 0.2888
vt 0.8092 0.2909
vt 0.8086 0.2787
vt 0.8115 0.2828
vt 0.8144 0.2763
vt 0.8115 0.2696
vt 0.7964 0.3043
vt 0.8235 0.3253
vt 0.8264 0.3121
vt 0.8296 0.3172
vt 0.8196 0.2909
vt 0.8144 0.2930
vt 0.8144 0.2870
vt 0.8173 0.2828
vt 0.8204 0.3121
vt 0.8144 0.3121
vt 0.8144 0.2989
vt 0.8219 0.2989
vt 0.8110 0.3336
vt 0.8144 0.3315
vt 0.8144 0.3377
vt 0.8123 0.3418
vt 0.9467 0.9178
vt 0.9614 0.9157
vt 0.9617 0.9170
vt 0.9469 0.9202
vt 0.9469 0.9081
vt 0.9612 0.9102
vt 0.9607 0.9115
vt 0.9468 0.9104
vt 0.9467 0.9129
vt 0.9609 0.9129
vt 0.9611 0.9143
vt 0.9466 0.9153
vt 0.9762 0.9152
vt 0.9910 0.9148
vt 0.9911 0.9156
vt 0.9764 0.9163
vt 0.9761 0.9110
vt 0.9909 0.9117
vt 0.9907 0.9124
vt 0.9757 0.9119
vt 0.9758 0.9130
vt 0.9908 0.9132
vt 0.9909 0.9140
vt 0.9760 0.9141
vt 0.8343 0.7909
vt 0.8343 0.7898
vt 0.8353 0.7903
vt 0.9437 0.9357
vt 0.9553 0.9341
vt 0.9555 0.9351
vt 0.9438 0.9376
vt 0.9437 0.9280
vt 0.9551 0.9298
vt 0.9547 0.9308
vt 0.9437 0.9299
vt 0.9436 0.9319
vt 0.9548 0.9319
vt 0.9550 0.9330
vt 0.9435 0.9338
vt 0.9670 0.9337
vt 0.9787 0.9333
vt 0.9788 0.9340
vt 0.9671 0.9346
vt 0.9668 0.9304
vt 0.9786 0.9309
vt 0.9784 0.9315
vt 0.9665 0.9312
vt 0.9667 0.9320
vt 0.9785 0.9321
vt 0.9786 0.9327
vt 0.9668 0.9329
vt 0.8358 0.7919
vt 0.8350 0.7923
vt 0.8350 0.7915
vt 0.9448 0.9590
vt 0.9317 0.9597
vt 0.9315 0.9589
vt 0.9446 0.9577
vt 0.9448 0.9639
vt 0.9317 0.9631
vt 0.9318 0.9623
vt 0.9449 0.9627
vt 0.9449 0.9614
vt 0.9318 0.9614
vt 0.9318 0.9606
vt 0.9449 0.9602
vt 0.8343 0.7885
vt 0.8343 0.7873
vt 0.8353 0.7880
vt 0.9511 0.9474
vt 0.9701 0.9464
vt 0.9703 0.9470
vt 0.9513 0.9485
vt 0.9512 0.9430
vt 0.9701 0.9441
vt 0.9699 0.9447
vt 0.9511 0.9441
vt 0.9510 0.9452
vt 0.9699 0.9453
vt 0.9699 0.9458
vt 0.9510 0.9463
vt 0.8343 0.7943
vt 0.8347 0.7937
vt 0.8351 0.7943
vt 0.9157 0.9188
vt 0.9143 0.9409
vt 0.9123 0.9402
vt 0.9135 0.9184
vt 0.9129 0.9635
vt 0.9115 0.9862
vt 0.9099 0.9868
vt 0.9111 0.9635
vt 0.9022 0.9187
vt 0.9024 0.9409
vt 0.9002 0.9409
vt 0.8998 0.9188
vt 0.9027 0.9634
vt 0.9031 0.9859
vt 0.9020 0.9860
vt 0.9011 0.9635
vt 0.9113 0.9187
vt 0.9104 0.9408
vt 0.9085 0.9414
vt 0.9091 0.9189
vt 0.9095 0.9638
vt 0.9087 0.9868
vt 0.9074 0.9867
vt 0.9080 0.9640
vt 0.9203 0.9194
vt 0.9183 0.9416
vt 0.9163 0.9415
vt 0.9180 0.9192
vt 0.9165 0.9638
vt 0.9146 0.9861
vt 0.9131 0.9855
vt 0.9147 0.9635
vt 0.9068 0.9188
vt 0.9065 0.9411
vt 0.9045 0.9408
vt 0.9046 0.9187
vt 0.9062 0.9637
vt 0.9058 0.9863
vt 0.9042 0.9859
vt 0.9044 0.9633
vt 0.7971 0.8121
vt 0.7971 0.8067
vt 0.8045 0.8036
vt 0.8116 0.8180
vt 0.8044 0.8151
vt 0.8118 0.8066
vt 0.8209 0.8037
vt 0.8163 0.8109
vt 0.8164 0.7994
vt 0.8119 0.7951
vt 0.8045 0.7982
vt 0.7971 0.8014
vt 0.9072 0.8965
vt 0.9047 0.8965
vt 0.9097 0.8965
vt 0.9203 0.9416
vt 0.9182 0.9641
vt 0.9161 0.9866
vt 0.9223 0.8972
vt 0.9197 0.8969
vt 0.9248 0.8975
vt 0.9225 0.9196
vt 0.9122 0.8965
vt 0.9147 0.8966
vt 0.9021 0.8965
vt 0.8994 0.8966
vt 0.9172 0.8967
vt 0.8355 0.7937
vt 0.8359 0.7943
vt 0.8351 0.7930
vt 0.9322 0.9453
vt 0.9320 0.9469
vt 0.9323 0.9436
vt 0.9323 0.9419
vt 0.9323 0.9403
vt 0.9513 0.9419
vt 0.9703 0.9436
vt 0.9322 0.9485
vt 0.9323 0.9501
vt 0.8353 0.7868
vt 0.8363 0.7874
vt 0.8343 0.7862
vt 0.9581 0.9614
vt 0.9581 0.9598
vt 0.9580 0.9631
vt 0.9578 0.9647
vt 0.9577 0.9663
vt 0.9446 0.9651
vt 0.9315 0.9639
vt 0.9579 0.9582
vt 0.9577 0.9565
vt 0.8343 0.7919
vt 0.8343 0.7910
vt 0.8343 0.7928
vt 0.9555 0.9288
vt 0.9671 0.9295
vt 0.9788 0.9303
vt 0.9324 0.9318
vt 0.9321 0.9346
vt 0.9327 0.9291
vt 0.9323 0.9263
vt 0.9320 0.9235
vt 0.9438 0.9261
vt 0.9320 0.9374
vt 0.9320 0.9402
vt 0.8353 0.7893
vt 0.8363 0.7898
vt 0.8343 0.7887
vt 0.9618 0.9090
vt 0.9765 0.9100
vt 0.9912 0.9109
vt 0.9325 0.9129
vt 0.9321 0.9163
vt 0.9329 0.9094
vt 0.9324 0.9059
vt 0.9320 0.9024
vt 0.9469 0.9057
vt 0.9320 0.9198
vt 0.9320 0.9234
vt 0.8077 0.3356
vt 0.8102 0.3459
vt 0.8052 0.3253
vt 0.8098 0.3253
vt 0.8144 0.3253
vt 0.8189 0.3253
vt 0.8202 0.2787
vt 0.8325 0.3040
vt 0.8356 0.3091
vt 0.7992 0.3174
vt 0.7932 0.3096
vt 0.8173 0.2696
vt 0.8144 0.2606
vt 0.8260 0.2787
vt 0.8318 0.2787
vt 0.8027 0.2787
vt 0.7969 0.2787
vt 0.8123 0.3562
vt 0.8144 0.3666
vt 0.9285 0.3356
vt 0.9310 0.3459
vt 0.9260 0.3253
vt 0.9305 0.3253
vt 0.9351 0.3253
vt 0.9397 0.3253
vt 0.9410 0.2787
vt 0.9532 0.3040
vt 0.9564 0.3091
vt 0.9200 0.3174
vt 0.9139 0.3096
vt 0.9381 0.2696
vt 0.9351 0.2606
vt 0.9468 0.2787
vt 0.9526 0.2787
vt 0.9235 0.2787
vt 0.9177 0.2787
vt 0.9331 0.3562
vt 0.9351 0.3666
vt 0.9285 0.3356
vt 0.9310 0.3459
vt 0.9260 0.3253
vt 0.9305 0.3253
vt 0.9351 0.3253
vt 0.9397 0.3253
vt 0.9410 0.2787
vt 0.9532 0.3040
vt 0.9564 0.3091
vt 0.9200 0.3174
vt 0.9139 0.3096
vt 0.9381 0.2696
vt 0.9351 0.2606
vt 0.9468 0.2787
vt 0.9526 0.2787
vt 0.9235 0.2787
vt 0.9177 0.2787
vt 0.9331 0.3562
vt 0.9351 0.3666
vt 0.6805 0.3356
vt 0.6830 0.3459
vt 0.6780 0.3253
vt 0.6826 0.3253
vt 0.6872 0.3253
vt 0.6918 0.3253
vt 0.6930 0.2787
vt 0.7053 0.3040
vt 0.7084 0.3091
vt 0.6720 0.3174
vt 0.6660 0.3096
vt 0.6901 0.2696
vt 0.6872 0.2606
vt 0.6988 0.2787
vt 0.7046 0.2787
vt 0.6755 0.2787
vt 0.6697 0.2787
vt 0.6851 0.3562
vt 0.6872 0.3666
vn -0.0424 0.9063 0.4205
vn 0.0282 0.8938 0.4476
vn 0.0116 0.9008 0.4341
vn -0.0374 0.9078 0.4178
vn 0.0921 0.8738 0.4775
vn 0.1046 0.8737 0.4752
vn -0.1691 0.8679 0.4670
vn -0.3214 0.8566 0.4036
vn -0.2394 0.8650 0.4409
vn -0.1544 0.8784 0.4522
vn -0.3617 0.7991 0.4802
vn -0.2719 0.8436 0.4630
vn 0.1044 0.8480 0.5197
vn 0.0381 0.8140 0.5797
vn -0.0679 0.8233 0.5635
vn -0.1444 0.8872 0.4381
vn -0.1168 0.8766 0.4669
vn 0.0099 0.8766 0.4812
vn 0.2178 0.8602 0.4611
vn 0.2226 0.8833 0.4125
vn -0.4343 0.8279 0.3550
vn 0.1404 0.8716 0.4697
vn 0.2293 0.8664 0.4436
vn 0.3682 0.8420 0.3943
vn 0.1494 0.8196 0.5530
vn 0.0195 0.8776 0.4790
vn 0.1063 0.8606 0.4981
vn 0.2419 0.8063 0.5398
vn 0.0680 0.8717 0.4854
vn -0.0510 0.8716 0.4876
vn -0.0341 0.8766 0.4801
vn 0.0707 0.8542 0.5151
vn -0.1836 0.8695 0.4586
vn -0.0463 0.8791 0.4743
vn -0.0445 0.8856 0.4622
vn -0.1156 0.8915 0.4380
vn 0.1934 0.8828 0.4280
vn 0.2479 0.8786 0.4083
vn 0.2331 0.8812 0.4113
vn 0.1957 0.8837 0.4251
vn 0.3053 0.8726 0.3812
vn 0.3175 0.8696 0.3782
vn 0.0706 0.8742 0.4803
vn -0.0895 0.8532 0.5138
vn 0.0139 0.8458 0.5333
vn 0.0872 0.8654 0.4935
vn -0.0426 0.7473 0.6631
vn 0.0212 0.7950 0.6062
vn 0.3857 0.8378 0.3866
vn 0.3963 0.7657 0.5065
vn 0.2961 0.7765 0.5561
vn 0.1047 0.8488 0.5183
vn 0.1961 0.8109 0.5513
vn 0.2993 0.8151 0.4960
vn 0.4957 0.7805 0.3808
vn 0.4811 0.8046 0.3480
vn -0.1994 0.8200 0.5365
vn 0.3514 0.8826 0.3124
vn 0.4132 0.8820 0.2264
vn 0.4977 0.8607 0.1073
vn 0.4745 0.7790 0.4100
vn 0.2923 0.8501 0.4380
vn 0.3900 0.8168 0.4252
vn 0.5522 0.7386 0.3867
vn 0.3041 0.8867 0.3483
vn 0.1925 0.8855 0.4229
vn 0.2233 0.8727 0.4343
vn 0.3548 0.8473 0.3952
vn 0.0986 0.8600 0.5008
vn 0.2010 0.8751 0.4403
vn 0.2008 0.8753 0.4400
vn 0.1498 0.8725 0.4650
vn 0.1855 0.8986 -0.3977
vn 0.1328 0.8967 -0.4221
vn 0.1455 0.8987 -0.4138
vn 0.1818 0.8995 -0.3972
vn 0.0729 0.8933 -0.4435
vn 0.0620 0.8908 -0.4501
vn 0.3093 0.8846 -0.3491
vn 0.4461 0.8559 -0.2615
vn 0.3862 0.8541 -0.3483
vn 0.3065 0.8768 -0.3705
vn 0.5152 0.7550 -0.4056
vn 0.4310 0.8050 -0.4077
vn 0.0186 0.8627 -0.5054
vn 0.0937 0.7933 -0.6016
vn 0.2000 0.7998 -0.5660
vn 0.3112 0.8615 -0.4012
vn 0.2685 0.8289 -0.4907
vn 0.1564 0.8375 -0.5236
vn -0.0650 0.8111 -0.5813
vn -0.0771 0.8339 -0.5466
vn 0.5393 0.8175 -0.2021
vn -0.0081 0.9045 -0.4264
vn -0.1125 0.9057 -0.4088
vn -0.2569 0.8867 -0.3844
vn -0.0295 0.8089 -0.5872
vn 0.1214 0.8711 -0.4758
vn 0.0422 0.8426 -0.5369
vn -0.1020 0.7722 -0.6271
vn 0.0509 0.9067 -0.4186
vn 0.1826 0.9011 -0.3934
vn 0.1684 0.8900 -0.4236
vn 0.0468 0.8708 -0.4894
vn 0.3034 0.8721 -0.3840
vn 0.1885 0.8914 -0.4122
vn 0.1884 0.8916 -0.4118
vn 0.2422 0.8867 -0.3939
vn -0.4599 0.8875 0.0286
vn -0.4611 0.8831 0.0865
vn -0.4585 0.8858 0.0717
vn -0.4580 0.8884 0.0318
vn -0.4565 0.8770 0.1498
vn -0.4581 0.8739 0.1623
vn -0.4646 0.8793 -0.1048
vn -0.4385 0.8584 -0.2663
vn -0.4939 0.8513 -0.1768
vn -0.4829 0.8706 -0.0940
vn -0.5958 0.7541 -0.2764
vn -0.5651 0.8013 -0.1963
vn -0.4907 0.8423 0.2228
vn -0.6073 0.7716 0.1895
vn -0.6174 0.7827 0.0782
vn -0.5125 0.8543 -0.0867
vn -0.5766 0.8169 -0.0134
vn -0.5620 0.8207 0.1028
vn -0.5255 0.7852 0.3274
vn -0.4894 0.8090 0.3256
vn -0.4205 0.8252 -0.3771
vn -0.4087 0.8863 0.2176
vn -0.3507 0.8850 0.3062
vn -0.2701 0.8625 0.4278
vn -0.5451 0.7839 0.2972
vn -0.5050 0.8551 0.1172
vn -0.5285 0.8218 0.2129
vn -0.5517 0.7435 0.3779
vn -0.4252 0.8907 0.1606
vn -0.4547 0.8901 0.0296
vn -0.4765 0.8775 0.0542
vn -0.4875 0.8520 0.1910
vn -0.4939 0.8653 -0.0861
vn -0.4741 0.8799 0.0313
vn -0.4737 0.8801 0.0312
vn -0.4788 0.8776 -0.0254
vn 0.2614 -0.8348 -0.4846
vn 0.2744 -0.8298 -0.4860
vn 0.3008 -0.8138 0.4972
vn 0.3020 -0.8121 0.4993
vn 0.0591 0.0118 0.9982
vn 0.0377 0.0123 0.9992
vn -0.1974 0.8401 0.5053
vn -0.1566 0.8490 0.5047
vn -0.2067 0.8492 -0.4859
vn -0.2367 0.8412 -0.4861
vn 0.0324 -0.0021 -0.9995
vn 0.0451 0.0091 -0.9989
vn 0.2873 -0.8247 -0.4871
vn 0.9138 -0.2085 -0.3487
vn 0.4484 -0.7416 0.4990
vn 0.3000 -0.8086 0.5061
vn 0.0189 0.0072 0.9998
vn 0.6525 0.3389 0.6778
vn -0.1535 0.8536 0.4978
vn -0.2476 0.8286 0.5021
vn -0.2663 0.8312 -0.4881
vn 0.3994 0.8554 -0.3298
vn 0.1404 0.0525 -0.9887
vn 0.0174 0.0080 -0.9998
vn -0.5121 -0.8348 0.2023
vn -0.5229 -0.8298 0.1949
vn 0.0902 -0.8138 -0.5740
vn 0.0906 -0.8121 -0.5764
vn 0.5978 0.0118 -0.8015
vn 0.6148 0.0123 -0.7886
vn 0.4765 0.8401 -0.2593
vn 0.4449 0.8490 -0.2851
vn -0.1549 0.8492 0.5048
vn -0.1321 0.8412 0.5243
vn -0.6686 -0.0021 0.7436
vn -0.6780 0.0091 0.7350
vn -0.5335 -0.8247 0.1875
vn -0.9235 -0.2084 -0.3219
vn -0.0216 -0.7416 -0.6705
vn 0.0966 -0.8086 -0.5804
vn 0.6296 0.0072 -0.7769
vn -0.0624 0.3389 -0.9388
vn 0.4381 0.8536 -0.2819
vn 0.5128 0.8286 -0.2246
vn -0.1107 0.8312 0.5449
vn -0.5180 0.8554 -0.0050
vn -0.7443 0.0525 0.6658
vn -0.6574 0.0080 0.7535
vn 0.2242 -0.8614 0.4558
vn -0.4665 -0.4771 0.7448
vn -0.4808 -0.8370 -0.2612
vn -0.3248 -0.8679 -0.3757
vn -0.5547 -0.0122 -0.8320
vn -0.9840 0.1018 -0.1465
vn -0.3897 0.8532 -0.3466
vn -0.2692 0.8611 -0.4313
vn 0.2801 0.8720 0.4014
vn -0.3654 0.6739 0.6422
vn 0.3719 0.0226 0.9280
vn 0.5117 0.0129 0.8591
vn -0.3491 -0.8523 -0.3896
vn 0.1303 -0.3946 -0.9096
vn 0.5364 -0.8408 0.0730
vn 0.4966 -0.8577 0.1331
vn 0.8532 -0.0116 0.5215
vn 0.9524 0.1774 -0.2480
vn 0.4083 0.8588 0.3094
vn 0.3795 0.8543 0.3552
vn -0.4684 0.8674 -0.1679
vn -0.0426 0.7737 -0.6321
vn -0.7950 0.0223 -0.6061
vn -0.8290 0.0157 -0.5590
vn -0.7775 0.0356 -0.6278
vn -0.7773 0.0206 -0.6287
vn -0.2362 0.0196 -0.9715
vn -0.2465 0.0345 -0.9685
vn -0.7758 0.0076 -0.6310
vn -0.7186 0.3759 -0.5851
vn -0.2104 0.1691 -0.9629
vn -0.2171 0.0019 -0.9761
vn 0.2619 -0.0021 0.9651
vn 0.2589 0.0176 0.9658
vn -0.3994 0.0248 0.9164
vn -0.3775 0.0049 0.9260
vn 0.2500 0.0401 0.9674
vn 0.3361 0.4003 0.8525
vn -0.4141 0.2943 0.8614
vn -0.4070 0.0499 0.9121
vn 0.3888 0.0229 -0.9210
vn 0.4151 0.0094 -0.9097
vn 0.8613 0.0124 -0.5079
vn 0.8369 0.0171 -0.5472
vn 0.4656 0.0003 -0.8850
vn 0.2018 0.4561 -0.8667
vn 0.8137 0.4027 -0.4193
vn 0.8833 0.0162 -0.4685
vn -0.8662 0.0157 0.4995
vn -0.8863 0.0249 0.4624
vn -0.9946 0.0253 -0.1002
vn -0.9962 0.0318 -0.0814
vn -0.8822 0.0386 0.4694
vn -0.8374 0.3823 0.3906
vn -0.9781 0.1946 -0.0744
vn -0.9948 0.0254 -0.0984
vn 0.9999 0.0086 0.0113
vn 0.9985 0.0158 0.0534
vn 0.7764 0.0199 0.6299
vn 0.7893 0.0039 0.6140
vn 0.9958 0.0254 0.0879
vn 0.9112 0.3044 0.2774
vn 0.7485 0.1292 0.6504
vn 0.7638 0.0381 0.6443
vn 0.1351 0.9399 0.3136
vn -0.3531 0.8719 -0.3394
vn 0.9999 0.0072 -0.0069
vn 0.7965 0.0011 0.6046
vn 0.8234 0.0169 -0.5672
vn -0.8505 0.0133 0.5258
vn -0.9970 0.0313 -0.0709
vn -0.3648 0.0014 0.9311
vn 0.3754 0.0236 -0.9266
vn -0.2541 0.0352 -0.9665
vn 0.2638 -0.0051 0.9646
vn -0.7764 0.0363 -0.6292
vn -0.4758 0.8627 -0.1714
vn -0.8294 -0.0086 -0.5586
vn 0.3609 0.8643 0.3502
vn 0.8524 -0.0141 0.5228
vn 0.4600 -0.8810 0.1109
vn -0.3581 -0.8472 -0.3924
vn 0.2848 0.8700 0.4025
vn 0.5186 0.0383 0.8542
vn -0.2448 0.8795 -0.4081
vn -0.5515 -0.0054 -0.8342
vn -0.3145 -0.8725 -0.3738
vn 0.2308 -0.8578 0.4592
vn -0.1629 0.8447 0.5099
vn -0.6972 -0.1247 0.7059
vn 0.4747 0.8117 -0.3402
vn 0.5918 -0.0141 -0.8059
vn 0.0505 -0.8437 -0.5344
vn -0.5045 -0.8410 0.1953
vn -0.2039 0.8447 -0.4949
vn 0.0786 -0.1247 -0.9891
vn -0.1440 0.8117 0.5660
vn 0.0665 -0.0141 0.9977
vn 0.3056 -0.8437 0.4413
vn 0.2601 -0.8410 -0.4744
vn -0.4992 0.8610 -0.0971
vn -0.4719 0.8816 -0.0123
vn -0.4694 0.8672 -0.1661
vn -0.4805 0.8703 -0.1078
vn -0.4631 0.8858 0.0292
vn -0.4372 0.8840 0.1658
vn -0.5509 0.7559 0.3537
vn -0.3044 0.8630 0.4033
vn -0.2520 0.8563 0.4508
vn -0.4032 0.8225 -0.4012
vn -0.3933 0.8143 -0.4269
vn -0.4652 0.7880 0.4032
vn -0.4587 0.8022 0.3823
vn -0.6245 0.7745 0.1009
vn -0.6303 0.7739 0.0613
vn -0.6093 0.7452 -0.2709
vn -0.6126 0.7365 -0.2867
vn -0.4590 0.8881 0.0250
vn -0.4582 0.8884 0.0283
vn 0.3156 0.8674 -0.3846
vn 0.2276 0.8911 -0.3926
vn 0.3670 0.8699 -0.3295
vn 0.3181 0.8759 -0.3629
vn 0.1862 0.8969 -0.4010
vn 0.0507 0.9005 -0.4319
vn -0.0798 0.7836 -0.6162
vn -0.2206 0.8868 -0.4060
vn -0.2854 0.8811 -0.3772
vn 0.5543 0.8133 -0.1768
vn 0.5736 0.8038 -0.1577
vn -0.1585 0.8158 -0.5562
vn -0.1415 0.8289 -0.5413
vn 0.1818 0.7927 -0.5818
vn 0.2203 0.7905 -0.5714
vn 0.5152 0.7468 -0.4206
vn 0.5308 0.7375 -0.4176
vn 0.1885 0.8989 -0.3955
vn 0.1851 0.8994 -0.3961
vn 0.0902 0.8556 0.5097
vn 0.1595 0.8767 0.4539
vn 0.0151 0.8620 0.5067
vn 0.0735 0.8651 0.4962
vn 0.1952 0.8811 0.4308
vn 0.3132 0.8798 0.3576
vn 0.5293 0.7510 0.3948
vn 0.4871 0.8607 0.1481
vn 0.5126 0.8547 0.0820
vn -0.2281 0.8174 0.5290
vn -0.2557 0.8093 0.5288
vn 0.5448 0.7841 0.2973
vn 0.5229 0.7983 0.2989
vn 0.3198 0.7683 0.5545
vn 0.2850 0.7675 0.5742
vn -0.0326 0.7383 0.6737
vn -0.0461 0.7296 0.6823
vn 0.1897 0.8834 0.4286
vn 0.1925 0.8837 0.4266
vn -0.1958 0.8687 0.4549
vn -0.0979 0.8989 0.4270
vn -0.2352 0.8641 0.4451
vn -0.1853 0.8662 0.4642
vn -0.0488 0.8747 0.4822
vn 0.0889 0.8712 0.4828
vn 0.2293 0.8183 0.5271
vn 0.3462 0.8416 0.4146
vn 0.3971 0.8343 0.3824
vn -0.4463 0.8278 0.3401
vn -0.4719 0.8197 0.3247
vn 0.3076 0.8592 0.4089
vn 0.2867 0.8740 0.3923
vn -0.0400 0.8201 0.5708
vn -0.0857 0.8186 0.5680
vn -0.3659 0.7926 0.4877
vn -0.3766 0.7858 0.4906
vn -0.0468 0.9076 0.4172
vn -0.0421 0.9080 0.4169
usemtl None
s 1
f 368/1/1 285/2/2 3/3/3 172/4/4
f 367/5/5 180/6/6 3/3/3 285/2/2
f 366/7/7 162/8/8 8/9/9 257/10/10
f 8/9/9 137/11/11 225/12/12
f 12/13/13 171/14/14 262/15/15
f 365/16/16 225/12/12 11/17/17 169/18/18
f 364/19/19 169/18/18 11/17/17 272/20/20
f 8/9/9 162/8/8 271/21/21
f 6/22/22 160/23/23 219/24/24
f 363/25/25 161/26/26 15/27/27 199/28/28
f 362/29/29 221/30/30 9/31/31 278/32/32
f 361/33/33 291/34/34 2/35/35 195/36/36
f 360/37/37 260/38/38 21/39/39 139/40/40
f 359/41/41 127/42/42 21/39/39 260/38/38
f 358/43/43 218/44/44 26/45/45 118/46/46
f 26/45/45 210/47/47 121/48/48
f 30/49/49 134/50/50 227/51/51
f 357/52/52 121/48/48 29/53/53 126/54/54
f 356/55/55 126/54/54 29/53/53 241/56/56
f 26/45/45 218/44/44 245/57/57
f 24/58/58 150/59/59 170/60/60
f 355/61/61 295/62/62 33/63/63 146/64/64
f 354/65/65 215/66/66 27/67/67 198/68/68
f 353/69/69 251/70/70 20/71/71 164/72/72
f 352/73/73 197/74/74 39/75/75 142/76/76
f 351/77/77 281/78/78 39/75/75 197/74/74
f 350/79/79 243/80/80 44/81/81 144/82/82
f 44/81/81 220/83/83 138/84/84
f 48/85/85 191/86/86 205/87/87
f 349/88/88 138/84/84 47/89/89 130/90/90
f 348/91/91 130/90/90 47/89/89 230/92/92
f 44/81/81 243/80/80 173/93/93
f 42/94/94 212/95/95 280/96/96
f 347/97/97 149/98/98 51/99/99 141/100/100
f 346/101/101 145/102/102 45/103/103 274/104/104
f 345/105/105 206/106/106 38/107/107 133/108/108
f 344/109/109 303/110/110 57/111/111 283/112/112
f 343/113/113 269/114/114 57/111/111 303/110/110
f 342/115/115 308/116/116 62/117/117 179/118/118
f 62/117/117 277/119/119 184/120/120
f 66/121/121 259/122/122 125/123/123
f 341/124/124 184/120/120 65/125/125 214/126/126
f 340/127/127 214/126/126 65/125/125 136/128/128
f 62/117/117 308/116/116 276/129/129
f 60/130/130 294/131/131 183/132/132
f 339/133/133 242/134/134 69/135/135 203/136/136
f 338/137/137 154/138/138 63/139/139 119/140/140
f 337/141/141 266/142/142 56/143/143 204/144/144
f 336/145/145 157/146/146 75/147/147 202/148/148
f 335/149/149 300/150/150 77/151/151 265/152/152
f 334/153/153 306/154/154 74/155/155 247/156/156
f 333/157/157 254/158/158 80/159/159 209/160/160
f 332/161/161 236/162/162 81/163/163 135/164/164
f 331/165/165 153/166/166 79/167/167 290/168/168
f 81/169/163 236/170/162 153/171/166
f 330/172/169 299/173/170 84/174/171 182/175/172
f 329/176/173 253/177/174 86/178/175 163/179/176
f 328/180/177 289/181/178 83/182/179 244/183/180
f 327/184/181 273/185/182 89/186/183 156/187/184
f 326/188/185 175/189/186 90/190/187 240/191/188
f 325/192/189 132/193/190 88/194/191 305/195/192
f 90/196/187 175/197/186 132/198/190
f 324/199/193 293/200/194 93/201/195 193/202/196
f 323/203/197 288/204/198 95/205/199 187/206/200
f 322/207/201 263/208/202 92/209/203 140/210/204
f 95/211/199 288/212/198 263/213/202
f 321/214/205 201/215/206 99/216/207 128/217/208
f 320/218/209 152/219/210 101/220/211 235/221/212
f 319/222/213 155/223/214 98/224/215 292/225/216
f 101/226/211 152/227/210 155/228/214
f 318/229/217 287/230/218 105/231/219 181/232/220
f 317/233/221 208/234/222 108/235/223 186/236/224
f 316/237/225 279/238/226 111/239/227 190/240/228
f 315/241/229 165/242/230 114/243/231 123/244/232
f 314/245/233 174/246/234 115/247/235 189/248/236
f 313/249/237 267/250/238 117/251/239 216/252/240
f 312/253/241 229/254/242 104/255/243 226/256/244
f 311/257/245 286/258/246 107/259/247 234/260/248
f 310/261/249 211/262/250 110/263/251 196/264/252
f 309/265/253 228/266/254 113/267/255 302/268/256
f 114/269/231 165/270/230 222/271/257
f 107/272/247 286/273/246 275/274/258
f 108/275/223 208/276/222 267/277/238
f 267/277/238 275/274/258 117/278/239
f 267/277/238 208/276/222 275/274/258
f 208/276/222 107/272/247 275/274/258
f 275/274/258 222/271/257 117/278/239
f 275/274/258 286/273/246 222/271/257
f 286/273/246 114/269/231 222/271/257
f 222/271/257 228/279/254 117/278/239
f 222/271/257 165/270/230 228/279/254
f 165/270/230 113/280/255 228/279/254
f 211/262/250 309/265/253 302/268/256 110/263/251
f 115/247/235 216/252/240 309/265/253 211/262/250
f 216/252/240 117/251/239 228/266/254 309/265/253
f 304/281/259 310/261/249 196/264/252 109/282/260
f 116/283/261 189/248/236 310/261/249 304/281/259
f 189/248/236 115/247/235 211/262/250 310/261/249
f 229/254/242 311/257/245 234/260/248 104/255/243
f 111/284/227 123/285/232 311/257/245 229/254/242
f 123/285/232 114/286/231 286/258/246 311/257/245
f 239/287/262 312/253/241 226/256/244 103/288/263
f 112/289/264 190/290/228 312/253/241 239/287/262
f 190/290/228 111/284/227 229/254/242 312/253/241
f 174/246/234 313/249/237 216/252/240 115/247/235
f 105/231/219 186/236/224 313/249/237 174/246/234
f 186/236/224 108/235/223 267/250/238 313/249/237
f 282/291/265 314/245/233 189/248/236 116/283/261
f 106/292/266 181/232/220 314/245/233 282/291/265
f 181/232/220 105/231/219 174/246/234 314/245/233
f 279/238/226 315/241/229 123/244/232 111/239/227
f 110/263/251 302/268/256 315/241/229 279/238/226
f 302/268/256 113/267/255 165/242/230 315/241/229
f 200/293/267 316/237/225 190/240/228 112/294/264
f 109/282/260 196/264/252 316/237/225 200/293/267
f 196/264/252 110/263/251 279/238/226 316/237/225
f 287/230/218 317/233/221 186/236/224 105/231/219
f 104/255/243 234/260/248 317/233/221 287/230/218
f 234/260/248 107/259/247 208/234/222 317/233/221
f 192/295/268 318/229/217 181/232/220 106/292/266
f 103/288/263 226/256/244 318/229/217 192/295/268
f 226/256/244 104/255/243 287/230/218 318/229/217
f 155/228/214 201/296/206 98/297/215
f 155/228/214 152/227/210 201/296/206
f 152/227/210 99/298/207 201/296/206
f 258/299/269 319/222/213 292/225/216 97/300/270
f 102/301/271 235/221/212 319/222/213 258/299/269
f 235/221/212 101/220/211 155/223/214 319/222/213
f 223/302/272 320/218/209 235/221/212 102/301/271
f 100/303/273 128/304/208 320/218/209 223/302/272
f 128/304/208 99/305/207 152/219/210 320/218/209
f 297/306/274 321/214/205 128/217/208 100/307/273
f 97/300/270 292/225/216 321/214/205 297/306/274
f 292/225/216 98/224/215 201/215/206 321/214/205
f 263/213/202 293/308/194 92/309/203
f 263/213/202 288/212/198 293/308/194
f 288/212/198 93/310/195 293/308/194
f 143/311/275 322/207/201 140/210/204 91/312/276
f 96/313/277 187/206/200 322/207/201 143/311/275
f 187/206/200 95/205/199 263/208/202 322/207/201
f 188/314/278 323/203/197 187/206/200 96/313/277
f 94/315/279 193/316/196 323/203/197 188/314/278
f 193/316/196 93/317/195 288/204/198 323/203/197
f 131/318/280 324/199/193 193/202/196 94/319/279
f 91/312/276 140/210/204 324/199/193 131/318/280
f 140/210/204 92/209/203 293/200/194 324/199/193
f 132/198/190 273/320/182 88/321/191
f 132/198/190 175/197/186 273/320/182
f 175/197/186 89/322/183 273/320/182
f 289/181/178 325/192/189 305/195/192 83/182/179
f 86/178/175 240/191/188 325/192/189 289/181/178
f 240/191/188 90/190/187 132/193/190 325/192/189
f 253/177/174 326/188/185 240/191/188 86/178/175
f 84/323/171 156/324/184 326/188/185 253/177/174
f 156/324/184 89/325/183 175/189/186 326/188/185
f 299/173/170 327/184/181 156/187/184 84/174/171
f 83/182/179 305/195/192 327/184/181 299/173/170
f 305/195/192 88/194/191 273/185/182 327/184/181
f 177/326/281 328/180/177 244/183/180 82/327/282
f 87/328/283 163/179/176 328/180/177 177/326/281
f 163/179/176 86/178/175 289/181/178 328/180/177
f 178/329/284 329/176/173 163/179/176 87/328/283
f 85/330/285 182/331/172 329/176/173 178/329/284
f 182/331/172 84/323/171 253/177/174 329/176/173
f 194/332/286 330/172/169 182/175/172 85/333/285
f 82/327/282 244/183/180 330/172/169 194/332/286
f 244/183/180 83/182/179 299/173/170 330/172/169
f 153/171/166 254/334/158 79/335/167
f 153/171/166 236/170/162 254/334/158
f 236/170/162 80/336/159 254/334/158
f 306/154/154 331/165/165 290/168/168 74/155/155
f 77/151/151 135/164/164 331/165/165 306/154/154
f 135/164/164 81/163/163 153/166/166 331/165/165
f 300/150/150 332/161/161 135/164/164 77/151/151
f 75/337/147 209/338/160 332/161/161 300/150/150
f 209/338/160 80/339/159 236/162/162 332/161/161
f 157/146/146 333/157/157 209/160/160 75/147/147
f 74/155/155 290/168/168 333/157/157 157/146/146
f 290/168/168 79/167/167 254/158/158 333/157/157
f 217/340/287 334/153/153 247/156/156 73/341/288
f 78/342/289 265/152/152 334/153/153 217/340/287
f 265/152/152 77/151/151 306/154/154 334/153/153
f 237/343/290 335/149/149 265/152/152 78/342/289
f 76/344/291 202/345/148 335/149/149 237/343/290
f 202/345/148 75/337/147 300/150/150 335/149/149
f 213/346/292 336/145/145 202/148/148 76/347/291
f 73/341/288 247/156/156 336/145/145 213/346/292
f 247/156/156 74/155/155 157/146/146 336/145/145
f 268/348/293 337/141/141 204/144/144 55/349/294
f 61/350/295 148/351/296 337/141/141 268/348/293
f 148/351/296 59/352/297 266/142/142 337/141/141
f 294/131/131 338/137/137 119/140/140 66/121/121
f 60/130/130 255/353/298 338/137/137 294/131/131
f 255/353/298 59/352/297 154/138/138 338/137/137
f 259/122/122 339/133/133 203/136/136 67/354/299
f 66/121/121 119/140/140 339/133/133 259/122/122
f 119/140/140 63/139/139 242/134/134 339/133/133
f 183/132/132 129/355/300 72/356/301
f 183/132/132 294/131/131 129/355/300
f 294/131/131 66/121/121 129/355/300
f 276/129/129 264/357/302 71/358/303
f 276/129/129 308/116/116 264/357/302
f 308/116/116 61/350/295 264/357/302
f 307/359/304 340/127/127 136/128/128 70/360/305
f 67/354/299 203/136/136 340/127/127 307/359/304
f 203/136/136 69/135/135 214/126/126 340/127/127
f 242/134/134 341/124/124 214/126/126 69/135/135
f 63/139/139 179/118/118 341/124/124 242/134/134
f 179/118/118 62/117/117 184/120/120 341/124/124
f 125/123/123 124/361/306 68/362/307
f 125/123/123 259/122/122 124/361/306
f 259/122/122 67/354/299 124/361/306
f 184/120/120 207/363/308 65/125/125
f 184/120/120 277/119/119 207/363/308
f 277/119/119 64/364/309 207/363/308
f 154/138/138 342/115/115 179/118/118 63/139/139
f 59/352/297 148/351/296 342/115/115 154/138/138
f 148/351/296 61/350/295 308/116/116 342/115/115
f 266/142/142 343/113/113 303/110/110 56/143/143
f 59/352/297 255/353/298 343/113/113 266/142/142
f 255/353/298 60/130/130 269/114/114 343/113/113
f 158/365/310 344/109/109 283/112/112 58/366/311
f 55/349/294 204/144/144 344/109/109 158/365/310
f 204/144/144 56/143/143 303/110/110 344/109/109
f 224/367/312 345/105/105 133/108/108 37/368/313
f 43/369/314 159/370/315 345/105/105 224/367/312
f 159/370/315 41/371/316 206/106/106 345/105/105
f 212/95/95 346/101/101 274/104/104 48/85/85
f 42/94/94 270/372/317 346/101/101 212/95/95
f 270/372/317 41/371/316 145/102/102 346/101/101
f 191/86/86 347/97/97 141/100/100 49/373/318
f 48/85/85 274/104/104 347/97/97 191/86/86
f 274/104/104 45/103/103 149/98/98 347/97/97
f 280/96/96 232/374/319 54/375/320
f 280/96/96 212/95/95 232/374/319
f 212/95/95 48/85/85 232/374/319
f 173/93/93 166/376/321 53/377/322
f 173/93/93 243/80/80 166/376/321
f 243/80/80 43/369/314 166/376/321
f 233/378/323 348/91/91 230/92/92 52/379/324
f 49/373/318 141/100/100 348/91/91 233/378/323
f 141/100/100 51/99/99 130/90/90 348/91/91
f 149/98/98 349/88/88 130/90/90 51/99/99
f 45/103/103 144/82/82 349/88/88 149/98/98
f 144/82/82 44/81/81 138/84/84 349/88/88
f 205/87/87 248/380/325 50/381/326
f 205/87/87 191/86/86 248/380/325
f 191/86/86 49/373/318 248/380/325
f 138/84/84 167/382/327 47/89/89
f 138/84/84 220/83/83 167/382/327
f 220/83/83 46/383/328 167/382/327
f 145/102/102 350/79/79 144/82/82 45/103/103
f 41/371/316 159/370/315 350/79/79 145/102/102
f 159/370/315 43/369/314 243/80/80 350/79/79
f 206/106/106 351/77/77 197/74/74 38/107/107
f 41/371/316 270/372/317 351/77/77 206/106/106
f 270/372/317 42/94/94 281/78/78 351/77/77
f 120/384/329 352/73/73 142/76/76 40/385/330
f 37/368/313 133/108/108 352/73/73 120/384/329
f 133/108/108 38/107/107 197/74/74 352/73/73
f 252/386/331 353/69/69 164/72/72 19/387/332
f 25/388/333 231/389/334 353/69/69 252/386/331
f 231/389/334 23/390/335 251/70/70 353/69/69
f 150/59/59 354/65/65 198/68/68 30/49/49
f 24/58/58 147/391/336 354/65/65 150/59/59
f 147/391/336 23/390/335 215/66/66 354/65/65
f 134/50/50 355/61/61 146/64/64 31/392/337
f 30/49/49 198/68/68 355/61/61 134/50/50
f 198/68/68 27/67/67 295/62/62 355/61/61
f 170/60/60 284/393/338 36/394/339
f 170/60/60 150/59/59 284/393/338
f 150/59/59 30/49/49 284/393/338
f 245/57/57 249/395/340 35/396/341
f 245/57/57 218/44/44 249/395/340
f 218/44/44 25/388/333 249/395/340
f 250/397/342 356/55/55 241/56/56 34/398/343
f 31/392/337 146/64/64 356/55/55 250/397/342
f 146/64/64 33/63/63 126/54/54 356/55/55
f 295/62/62 357/52/52 126/54/54 33/63/63
f 27/67/67 118/46/46 357/52/52 295/62/62
f 118/46/46 26/45/45 121/48/48 357/52/52
f 227/51/51 246/399/344 32/400/345
f 227/51/51 134/50/50 246/399/344
f 134/50/50 31/392/337 246/399/344
f 121/48/48 301/401/346 29/53/53
f 121/48/48 210/47/47 301/401/346
f 210/47/47 28/402/347 301/401/346
f 215/66/66 358/43/43 118/46/46 27/67/67
f 23/390/335 231/389/334 358/43/43 215/66/66
f 231/389/334 25/388/333 218/44/44 358/43/43
f 251/70/70 359/41/41 260/38/38 20/71/71
f 23/390/335 147/391/336 359/41/41 251/70/70
f 147/391/336 24/58/58 127/42/42 359/41/41
f 168/403/348 360/37/37 139/40/40 22/404/349
f 19/387/332 164/72/72 360/37/37 168/403/348
f 164/72/72 20/71/71 260/38/38 360/37/37
f 261/405/350 361/33/33 195/36/36 1/406/351
f 7/407/352 238/408/353 361/33/33 261/405/350
f 238/408/353 5/409/354 291/34/34 361/33/33
f 160/23/23 362/29/29 278/32/32 12/13/13
f 6/22/22 151/410/355 362/29/29 160/23/23
f 151/410/355 5/409/354 221/30/30 362/29/29
f 171/14/14 363/25/25 199/28/28 13/411/356
f 12/13/13 278/32/32 363/25/25 171/14/14
f 278/32/32 9/31/31 161/26/26 363/25/25
f 219/24/24 296/412/357 18/413/358
f 219/24/24 160/23/23 296/412/357
f 160/23/23 12/13/13 296/412/357
f 271/21/21 256/414/359 17/415/360
f 271/21/21 162/8/8 256/414/359
f 162/8/8 7/407/352 256/414/359
f 298/416/361 364/19/19 272/20/20 16/417/362
f 13/411/356 199/28/28 364/19/19 298/416/361
f 199/28/28 15/27/27 169/18/18 364/19/19
f 161/26/26 365/16/16 169/18/18 15/27/27
f 9/31/31 257/10/10 365/16/16 161/26/26
f 257/10/10 8/9/9 225/12/12 365/16/16
f 262/15/15 122/418/363 14/419/364
f 262/15/15 171/14/14 122/418/363
f 171/14/14 13/411/356 122/418/363
f 225/12/12 176/420/365 11/17/17
f 225/12/12 137/11/11 176/420/365
f 137/11/11 10/421/366 176/420/365
f 221/30/30 366/7/7 257/10/10 9/31/31
f 5/409/354 238/408/353 366/7/7 221/30/30
f 238/408/353 7/407/352 162/8/8 366/7/7
f 291/34/34 367/5/5 285/2/2 2/35/35
f 5/409/354 151/410/355 367/5/5 291/34/34
f 151/410/355 6/22/22 180/6/6 367/5/5
f 185/422/367 368/1/1 172/4/4 4/423/368
f 1/406/351 195/36/36 368/1/1 185/422/367
f 195/36/36 2/35/35 285/2/2 368/1/1
