# Blender v2.78 (sub 0) OBJ File: ''
# www.blender.org
mtllib Dead_Pine_Tree_OneSided_l_04.mtl
o Dead_Pine_Tree_OneSided_l_04
v -0.061607 5.729329 -0.178927
v -0.399686 6.027028 -0.774029
v -0.421507 6.016387 -0.768726
v -0.107097 5.702598 -0.161930
v -0.072021 5.678161 -0.197207
v -0.407075 6.007492 -0.786863
v -0.050556 7.693796 0.052847
v -0.274513 7.873488 0.441301
v -0.302898 7.861881 0.435738
v -0.097111 7.673154 0.041479
v -0.294372 7.888647 0.422644
v -0.084454 7.720416 0.023432
v -0.208683 7.016488 -0.125806
v -0.180891 10.447088 -0.141189
v -0.074767 10.441366 -0.186241
v 0.004443 6.972852 -0.197444
v 0.114785 6.972308 -0.073858
v 0.000035 10.441474 -0.102799
v -0.056816 10.437986 -0.002783
v -0.000022 6.926709 0.108475
v -0.214734 7.003360 0.057443
v -0.170755 10.446033 -0.029007
v -0.129395 15.607063 0.137136
v -0.167055 15.622656 0.156554
v -0.050550 17.912426 0.384937
v -0.039619 17.887918 0.376915
v -0.113561 15.605064 0.211946
v -0.095637 15.608618 0.175949
v -0.029040 17.938229 0.392946
v -0.034691 17.903250 0.402243
v -0.161330 15.628023 0.195379
v -0.043645 17.964998 0.404489
v 0.096968 0.260871 0.252092
v -0.018356 3.435749 0.172248
v -0.304422 3.381188 0.112868
v -0.243055 0.254190 0.180075
v 0.028289 0.259350 -0.321649
v -0.048168 3.429929 -0.277287
v 0.151890 3.431010 -0.054368
v 0.271738 0.259543 -0.053207
v -0.315148 3.458555 -0.158998
v -0.273748 0.262480 -0.161647
v -0.043949 13.080218 0.106071
v -0.132620 13.106978 0.069858
v -0.078896 13.080172 -0.032170
v -0.018692 13.073335 0.035273
v -0.145219 13.116245 -0.006086
v 0.393068 9.559310 -0.000055
v 0.555952 9.458952 -0.110090
v 0.391569 9.569066 -0.207882
v 0.026950 9.811034 -0.089743
v 0.852292 9.256210 -0.121745
v 0.839577 9.229930 -0.371721
v 0.842470 9.207080 0.124852
v 1.397644 8.824471 0.224702
v 1.398031 8.892989 -0.142736
v 1.746025 8.494823 0.257407
v 1.826251 8.547893 0.006467
v 1.389976 8.854506 -0.515137
v 1.774886 8.490327 -0.332853
v 1.732751 8.523495 -0.583845
v 1.681918 8.691813 -0.154229
v 2.113081 8.290054 -0.176201
v 1.102922 8.919176 0.369273
v 1.104967 8.960589 -0.646098
v -0.425422 8.746469 -0.436455
v -0.620297 8.669755 -0.453807
v -0.544457 8.757311 -0.278466
v -0.181324 8.946514 -0.142062
v -0.866845 8.509510 -0.628570
v -1.005251 8.485419 -0.434432
v -0.720276 8.459877 -0.811499
v -1.111554 8.155993 -1.230731
v -1.319706 8.223995 -0.950178
v -1.382522 7.880821 -1.476465
v -1.583931 7.941695 -1.330832
v -1.533981 8.189897 -0.667232
v -1.748248 7.884660 -1.048821
v -1.859935 7.913703 -0.833404
v -1.556705 8.063904 -1.117756
v -1.927871 7.729762 -1.374476
v -0.798454 8.213058 -1.163326
v -1.387587 8.261107 -0.397240
v 0.568853 6.501274 1.319345
v 0.224932 6.432016 1.459561
v 0.593093 6.152452 1.777068
v 0.688218 6.297924 1.580550
v 0.105948 6.818754 0.901943
v -0.023085 6.527743 1.239132
v 0.914187 6.462375 1.169332
v 0.890906 6.094263 1.599191
v 1.109612 6.127789 1.463743
v 0.340421 6.868417 0.816786
v 0.327620 6.098809 1.798016
v 0.050874 7.174788 0.433697
v 0.216139 7.073347 0.543992
v 0.244741 7.184649 0.352781
v -0.005288 7.429230 0.056845
v 0.569432 6.841852 0.709251
v 0.873733 5.891828 1.975537
v 0.927672 6.569604 0.852575
v -0.099097 13.699173 -0.191268
v -0.188720 13.631482 -0.270984
v -0.225200 13.706141 -0.161145
v -0.102526 13.868974 0.034928
v -0.237141 13.495014 -0.442126
v -0.387119 13.480081 -0.397966
v -0.085715 13.463744 -0.469537
v -0.102477 13.205852 -0.807366
v -0.326062 13.250009 -0.757717
v -0.130844 12.988335 -1.012017
v -0.294934 13.019653 -1.026836
v -0.551042 13.227801 -0.698559
v -0.493581 12.986917 -0.945451
v -0.640228 13.010044 -0.885346
v -0.372619 13.114939 -0.921380
v -0.445696 12.849868 -1.165998
v 0.026898 13.274413 -0.652385
v -0.590510 13.304235 -0.510688
v 0.007593 5.770600 -0.479269
v -0.144587 5.667237 -0.648068
v -0.224584 5.792645 -0.447546
v -0.026620 6.050410 -0.050948
v -0.211268 5.446380 -0.982633
v -0.491107 5.429669 -0.932939
v 0.063773 5.377500 -1.007954
v 0.075084 4.954116 -1.652274
v -0.332967 5.051086 -1.598644
v 0.043593 4.588858 -2.053956
v -0.246135 4.664212 -2.106925
v -0.751370 5.027223 -1.536818
v -0.622353 4.615927 -2.001614
v -0.895805 4.665678 -1.917664
v -0.397602 4.831667 -1.919231
v -0.506222 4.389968 -2.407271
v 0.284457 5.045891 -1.340627
v -0.851568 5.146765 -1.196270
v 0.838212 9.253393 -0.243979
v -0.078614 4.792828 -1.904763
v -0.036464 17.985266 0.407967
v -0.042871 17.946901 0.385636
v 0.604188 9.411354 -0.276341
v -0.134608 0.260915 -0.267961
v -0.011242 5.177116 0.141279
v -1.647238 7.975889 -1.089951
v -1.212334 8.198391 -1.090182
v 0.786654 6.675501 0.805148
v -0.262866 5.188796 0.085680
v -0.030086 17.973413 0.402760
v -0.020865 13.347836 -0.585165
v -1.663335 8.024751 -0.861519
v -1.428964 8.251519 -0.493978
v 0.454765 6.684639 1.068348
v 1.733486 8.518718 -0.482108
v 0.192217 5.175355 -1.219008
v -0.021674 5.198436 -0.235565
v 0.132829 5.199010 -0.062943
v -0.301145 1.726358 -0.163466
v 0.221918 6.853997 0.851791
v 0.394468 6.475848 1.388360
v -0.730569 8.597829 -0.531955
v -0.788075 8.493667 -0.713878
v -0.368743 4.931860 -1.777639
v -0.094925 7.697093 0.030354
v -0.069810 4.635442 -2.061445
v -0.046087 13.075220 -0.001490
v -0.570377 8.614221 -0.607581
v -0.201184 7.766214 0.238783
v -0.007364 5.937606 -0.226142
v -0.072731 7.679657 0.049587
v 1.632913 8.671699 0.125142
v -0.281651 13.372373 -0.600099
v 0.176148 9.709756 -0.048518
v -0.192441 8.758270 -0.136444
v -0.010640 1.711244 -0.307519
v -0.059696 14.344338 0.103205
v -0.108585 16.862247 0.277627
v 1.009158 9.031191 0.269449
v -0.239159 5.841550 -0.493072
v 0.034437 6.640968 1.113216
v -0.111086 6.962934 0.094415
v -0.578496 13.006633 -0.900091
v -0.425589 6.023781 -0.799117
v -0.137863 15.616537 0.205881
v 0.741413 6.490797 1.241580
v 0.041495 1.717026 0.218948
v -1.424677 8.215080 -0.805997
v -0.194864 13.010511 -1.011194
v -1.241394 8.349062 -0.419260
v 0.091176 5.168089 -1.319373
v 0.753964 6.658786 0.923266
v -0.195822 13.102969 -0.930679
v -0.010441 11.785183 -0.038628
v -0.149633 14.371546 0.129153
v 0.051457 4.733555 -1.907547
v -0.064599 16.844667 0.287881
v 1.125468 9.074396 -0.132252
v -0.112268 5.947567 -0.211809
v -0.229602 5.879506 -0.476370
v -1.792102 7.822973 -1.356882
v -0.143768 13.113809 0.031443
v -0.033183 17.935638 0.386916
v -0.207356 13.669421 -0.215580
v 0.429274 6.135249 1.778432
v -1.285457 7.990727 -1.383931
v 0.144324 6.628541 1.176507
v -0.896479 8.309484 -1.027466
v -1.851625 7.788859 -1.242782
v -1.737049 8.021257 -0.775142
v 0.473096 9.514948 -0.159786
v -0.776453 8.309933 -1.027267
v -0.263914 5.237289 -0.141461
v -0.509567 13.372374 -0.471746
v 1.766157 8.530873 0.156988
v -0.331741 8.871083 -0.194094
v -0.305562 7.881609 0.443631
v -0.110795 15.607681 0.154818
v -0.707147 5.256739 -1.102356
v -0.277957 8.866185 -0.265477
v -0.782148 4.654887 -1.933193
v 0.065458 3.428797 -0.176328
v 0.081910 3.435957 0.067781
v 0.024397 5.588900 -0.729036
v 1.014708 6.122961 1.503353
v 1.391438 8.882623 -0.329871
v -0.326762 3.418540 -0.021120
v 0.069810 6.972996 -0.143622
v -0.077868 11.789073 -0.113920
v 1.008732 9.065355 -0.534725
v 0.271722 6.981423 0.665960
v -0.149420 15.614509 0.144481
v 0.606545 9.396022 0.050260
v -0.166512 3.405858 0.157728
v 0.763659 6.004808 1.897870
v -0.499937 4.725320 -1.961807
v -0.046201 17.962915 0.397033
v -0.028179 8.707429 0.047620
v -0.161315 11.809330 -0.078934
v -0.296510 7.874715 0.452186
v 0.067342 6.946601 0.022589
v 1.108262 9.018897 0.192523
v 0.132420 7.124936 0.488576
v -0.386588 12.923085 -1.111889
v -0.073993 5.423476 -0.986549
v -0.155269 13.803717 -0.044349
v -0.438790 13.244528 -0.726754
v 1.619677 8.625028 0.241840
v -0.092463 5.686271 -0.179594
v 0.013224 7.326858 0.212206
v -0.331432 4.754416 -2.013768
v -0.174434 5.568157 -0.797665
v -0.122850 13.073873 -0.937635
v -0.182277 10.446561 -0.084432
v -1.452843 7.917925 -1.410385
v -1.359152 8.037288 -1.300974
v -0.102079 15.606173 0.195685
v -0.081649 13.337077 -0.633926
v -0.126129 5.012742 -1.623409
v -0.107082 14.347150 0.049556
v -1.093530 8.366591 -0.789555
v -0.351989 13.176407 -0.849234
v -0.030017 18.092094 0.412281
v 0.635383 6.390679 1.465266
v 0.067816 6.509796 1.309028
v -0.098292 13.800570 -0.057959
v 2.000742 8.401827 -0.104488
v 1.972925 8.367702 -0.237200
v 0.175471 9.714164 -0.142420
v 1.199815 8.940291 -0.592210
v -0.088609 13.093428 0.092523
v 0.649360 6.230534 1.677215
v 1.606729 8.651582 -0.554330
v -0.158845 14.373849 0.072154
v -0.104062 16.869093 0.303717
v -0.189813 7.805953 0.222066
v 0.085473 7.009736 0.652675
v 0.390137 7.025234 0.525515
v -0.021646 13.260209 -0.703138
v 0.205520 5.031371 -1.442756
v 0.230934 7.129946 0.447458
v -0.703066 4.805166 -1.789313
v -0.105031 6.994573 -0.170788
v -0.285921 0.258335 0.013119
v -0.582262 8.714356 -0.365094
v 0.170323 0.259446 -0.207762
v -0.064465 7.710616 0.037817
v -0.166820 15.626524 0.176099
v -0.571172 13.288106 -0.575191
v -0.463137 12.903315 -1.074971
v 0.209623 0.260207 0.114250
v -0.033130 8.734531 -0.193775
v 0.218759 1.711696 -0.053505
v -0.098236 13.589886 -0.322309
v -0.210378 13.570281 -0.347495
v -0.340471 5.623542 -0.679184
v -0.415814 6.028453 -0.801369
v -0.279459 1.681594 0.151764
v -0.604878 13.094069 -0.817497
v 1.556565 8.783577 -0.149016
v -0.079224 0.257531 0.244019
v -0.550254 4.477357 -2.239820
v -0.160955 7.783525 0.247872
v -0.805832 5.123385 -1.310802
v 0.920382 6.262666 1.397824
v -0.225246 7.014611 -0.033784
v -0.022778 10.439730 -0.049537
v -0.161434 13.486058 -0.451453
v -0.339259 13.070565 -0.974164
v 0.839972 9.241946 -0.000123
v -0.265736 5.859443 -0.464399
v 0.449395 6.865569 0.756847
v -0.085668 5.719957 -0.167664
v -0.403561 4.509556 -2.289462
v 1.200965 8.901422 0.312207
v -0.212933 13.233662 -0.781954
v -0.067354 5.719823 -0.563049
v 1.395928 8.867835 0.042795
v -0.149109 11.803677 0.014096
v -0.638627 5.236557 -1.220937
v -0.346422 5.449343 -0.949326
v 1.728527 8.592834 -0.234655
v -1.271431 8.342976 -0.531676
v -1.801664 7.908396 -0.910744
v 0.688454 9.368011 -0.115315
v -0.757442 8.631258 -0.359300
v 1.755885 8.625142 -0.082449
v -0.906608 8.207160 -1.178188
v 0.293846 6.230420 1.673850
v 1.601530 8.656931 -0.435248
v -0.927747 8.506389 -0.528498
v -0.114299 13.098778 -0.023539
v 0.408092 6.277595 1.641586
v 0.913542 6.549087 0.961931
v -0.542353 5.049167 -1.564554
v -0.837577 4.805594 -1.778136
v 0.100818 7.331314 0.175646
v -0.296408 13.600834 -0.274971
v -0.085300 16.842422 0.264118
v -0.292584 7.886882 0.446128
v 0.473857 9.509989 -0.054178
v -0.188298 3.447278 -0.233599
v -0.130457 10.444227 -0.169647
v 1.033783 6.257261 1.357129
v -0.478076 13.358471 -0.539913
v -0.190985 8.754540 0.009567
v -0.521774 8.708847 -0.445376
v -0.115146 10.442010 -0.009552
v 1.104653 9.048820 -0.460561
v -0.427726 13.051987 -0.934815
v -0.531804 13.097098 -0.831458
v -0.080723 14.345521 0.156576
v -0.032536 10.441421 -0.148852
v -0.062594 5.703862 -0.190805
v -1.451714 8.137367 -1.043693
v 0.781297 6.197877 1.593387
v -0.272186 5.248511 -1.290985
v -0.309399 13.494233 -0.416108
v -0.049891 11.789310 0.045039
v -0.075701 16.849447 0.311890
v 0.056685 8.734654 -0.093329
v -0.185335 5.731025 -0.546929
v -0.422175 6.032316 -0.793191
v -0.026615 13.075715 0.074009
v 0.877182 5.970314 1.821070
v -1.576182 8.008068 -1.218574
v -0.143276 13.665882 -0.230886
v -0.067917 5.576927 -0.766562
v -0.450365 5.250594 -1.257120
v -0.530306 4.881971 -1.771480
v -0.449173 4.606059 -2.139904
v -0.223273 4.880005 -1.830877
v -0.094217 5.216780 -1.305782
v -0.265321 5.595671 -0.739590
v -0.090080 5.844285 -0.372165
v -0.150547 13.579273 -0.337016
v -0.377422 13.369944 -0.571230
v -0.438578 13.144778 -0.834600
v -0.406191 12.980789 -1.030897
v -0.273659 13.149815 -0.884976
v -0.183985 13.359259 -0.617436
v -0.257764 13.585196 -0.311405
v -0.148894 13.741217 -0.129635
v 0.173141 6.994418 0.663724
v 0.337973 7.002803 0.594927
v 0.773015 6.091094 1.758509
v 0.600661 6.679111 0.997993
v 0.113827 7.237786 0.318902
v 0.303278 6.663983 1.122114
v 0.770919 6.339106 1.422520
v 0.519831 6.350066 1.544657
v -0.648195 8.605093 -0.575996
v -1.179836 8.361738 -0.663717
v -1.546550 8.091516 -0.947846
v -1.727026 7.891075 -1.234222
v -1.398381 8.101322 -1.165190
v -0.997242 8.345107 -0.906065
v -0.749402 8.614311 -0.441669
v -0.417466 8.797633 -0.309763
v 0.649491 9.380866 -0.025881
v 1.115676 9.068926 -0.292196
v 1.568175 8.732553 -0.289136
v 1.876631 8.487190 -0.165240
v 1.585995 8.743397 -0.013475
v 1.117976 9.053961 0.026600
v 0.648216 9.389162 -0.202581
v 0.311523 9.621634 -0.100688
v -0.033119 18.089745 0.405982
v -0.134682 14.360609 0.057468
v -0.122026 11.799486 -0.101599
v -0.066596 14.344065 0.132428
v -0.025006 11.786716 0.006501
v -0.157977 14.374389 0.100499
v -0.160863 11.807602 -0.032307
v -0.081175 14.344898 0.073998
v -0.040386 11.786360 -0.079961
v -0.115549 14.358445 0.146253
v -0.100343 11.796408 0.035018
v -0.147570 5.219333 -0.200823
v -0.163668 1.720319 -0.253088
v 0.073345 5.187899 0.046229
v 0.147174 1.715650 0.092695
v -0.278647 5.214721 -0.026719
v -0.309110 1.703310 -0.003414
v 0.067474 5.198096 -0.158490
v 0.118474 1.710634 -0.193387
v -0.141470 5.180600 0.126792
v -0.123861 1.698004 0.203417
v -0.090088 16.859596 0.309336
v -0.073894 16.842810 0.274830
v -0.107918 16.866936 0.290843
v -0.068631 16.846525 0.300887
v -0.097718 16.852009 0.269337
v -0.112116 8.729935 0.037494
v 0.019291 8.734801 -0.149704
v -0.201708 8.758749 -0.062906
v 0.022040 8.719587 -0.018587
v -0.115555 8.746353 -0.172657
v -0.173615 7.796696 0.234707
v -0.197867 7.786259 0.229228
v -0.180470 7.772738 0.244786
v -0.254014 5.848507 -0.478898
v -0.232230 5.860602 -0.486115
v -0.248252 5.871389 -0.468828
vt 0.9677 0.9081
vt 0.9611 0.9081
vt 0.9611 0.9079
vt 0.9677 0.9077
vt 0.9676 0.9088
vt 0.9611 0.9085
vt 0.9612 0.9083
vt 0.9676 0.9085
vt 0.9610 0.9265
vt 0.9611 0.9263
vt 0.9612 0.9265
vt 0.9676 0.9073
vt 0.9611 0.9077
vt 0.9610 0.9075
vt 0.9676 0.9069
vt 0.9656 0.9124
vt 0.9701 0.9121
vt 0.9702 0.9124
vt 0.9657 0.9128
vt 0.9656 0.9106
vt 0.9701 0.9109
vt 0.9701 0.9112
vt 0.9656 0.9110
vt 0.9656 0.9115
vt 0.9701 0.9115
vt 0.9701 0.9118
vt 0.9656 0.9119
vt 0.9610 0.9240
vt 0.9612 0.9238
vt 0.9613 0.9240
vt 0.9420 0.9137
vt 0.9416 0.9400
vt 0.9404 0.9400
vt 0.9405 0.9135
vt 0.9506 0.9137
vt 0.9488 0.9403
vt 0.9476 0.9402
vt 0.9492 0.9133
vt 0.9448 0.9140
vt 0.9440 0.9401
vt 0.9428 0.9400
vt 0.9435 0.9139
vt 0.9392 0.9135
vt 0.9392 0.9400
vt 0.9380 0.9400
vt 0.9380 0.9135
vt 0.9477 0.9137
vt 0.9464 0.9402
vt 0.9452 0.9401
vt 0.9462 0.9140
vt 0.9575 0.9422
vt 0.9579 0.9428
vt 0.9582 0.9610
vt 0.9579 0.9603
vt 0.9602 0.9421
vt 0.9607 0.9424
vt 0.9603 0.9596
vt 0.9599 0.9600
vt 0.9583 0.9431
vt 0.9586 0.9433
vt 0.9590 0.9614
vt 0.9586 0.9612
vt 0.9563 0.9420
vt 0.9570 0.9416
vt 0.9576 0.9596
vt 0.9573 0.9597
vt 0.9592 0.9426
vt 0.9597 0.9418
vt 0.9596 0.9604
vt 0.9593 0.9609
vt 0.9276 0.9121
vt 0.9259 0.9375
vt 0.9236 0.9367
vt 0.9250 0.9116
vt 0.9242 0.9636
vt 0.9225 0.9898
vt 0.9207 0.9905
vt 0.9222 0.9636
vt 0.9118 0.9120
vt 0.9120 0.9376
vt 0.9095 0.9376
vt 0.9090 0.9120
vt 0.9125 0.9636
vt 0.9130 0.9895
vt 0.9117 0.9896
vt 0.9106 0.9636
vt 0.9224 0.9119
vt 0.9214 0.9374
vt 0.9191 0.9382
vt 0.9198 0.9123
vt 0.9203 0.9640
vt 0.9193 0.9905
vt 0.9178 0.9904
vt 0.9184 0.9643
vt 0.9327 0.9128
vt 0.9304 0.9383
vt 0.9282 0.9383
vt 0.9302 0.9126
vt 0.9283 0.9640
vt 0.9261 0.9896
vt 0.9244 0.9890
vt 0.9263 0.9636
vt 0.9172 0.9121
vt 0.9168 0.9378
vt 0.9145 0.9375
vt 0.9146 0.9119
vt 0.9164 0.9639
vt 0.9160 0.9900
vt 0.9142 0.9895
vt 0.9144 0.9635
vt 0.9452 0.9590
vt 0.9462 0.9589
vt 0.9448 0.9776
vt 0.9439 0.9778
vt 0.9590 0.9055
vt 0.9598 0.9049
vt 0.9598 0.9232
vt 0.9590 0.9243
vt 0.9396 0.9587
vt 0.9405 0.9587
vt 0.9407 0.9774
vt 0.9400 0.9774
vt 0.9552 0.9054
vt 0.9561 0.9051
vt 0.9564 0.9236
vt 0.9553 0.9244
vt 0.9433 0.9590
vt 0.9441 0.9590
vt 0.9431 0.9780
vt 0.9425 0.9780
vt 0.9578 0.9060
vt 0.9582 0.9061
vt 0.9583 0.9253
vt 0.9579 0.9250
vt 0.9471 0.9589
vt 0.9480 0.9590
vt 0.9460 0.9776
vt 0.9454 0.9776
vt 0.9604 0.9053
vt 0.9610 0.9058
vt 0.9610 0.9252
vt 0.9604 0.9242
vt 0.9414 0.9589
vt 0.9424 0.9590
vt 0.9419 0.9781
vt 0.9413 0.9778
vt 0.9567 0.9055
vt 0.9573 0.9060
vt 0.9576 0.9247
vt 0.9570 0.9241
vt 0.9616 0.9223
vt 0.9618 0.9220
vt 0.9622 0.9228
vt 0.9620 0.9232
vt 0.9610 0.9228
vt 0.9610 0.9223
vt 0.9614 0.9232
vt 0.8144 0.3490
vt 0.8165 0.3418
vt 0.8186 0.3459
vt 0.8165 0.3562
vt 0.8177 0.3336
vt 0.8210 0.3356
vt 0.8084 0.3121
vt 0.8023 0.3121
vt 0.7995 0.2989
vt 0.8069 0.2989
vt 0.7982 0.2888
vt 0.8040 0.2888
vt 0.8293 0.2989
vt 0.8248 0.2888
vt 0.8305 0.2888
vt 0.8092 0.2909
vt 0.8086 0.2787
vt 0.8115 0.2828
vt 0.8144 0.2763
vt 0.8115 0.2696
vt 0.7964 0.3043
vt 0.8235 0.3253
vt 0.8264 0.3121
vt 0.8296 0.3172
vt 0.8196 0.2909
vt 0.8144 0.2930
vt 0.8144 0.2870
vt 0.8173 0.2828
vt 0.8204 0.3121
vt 0.8144 0.3121
vt 0.8144 0.2989
vt 0.8219 0.2989
vt 0.8110 0.3336
vt 0.8144 0.3315
vt 0.8144 0.3377
vt 0.8123 0.3418
vt 0.6872 0.3490
vt 0.6893 0.3418
vt 0.6914 0.3459
vt 0.6893 0.3562
vt 0.6905 0.3336
vt 0.6939 0.3356
vt 0.6812 0.3121
vt 0.6751 0.3121
vt 0.6723 0.2989
vt 0.6797 0.2989
vt 0.6710 0.2888
vt 0.6768 0.2888
vt 0.7021 0.2989
vt 0.6975 0.2888
vt 0.7033 0.2888
vt 0.6820 0.2909
vt 0.6814 0.2787
vt 0.6843 0.2828
vt 0.6872 0.2763
vt 0.6843 0.2696
vt 0.6691 0.3043
vt 0.6963 0.3253
vt 0.6992 0.3121
vt 0.7024 0.3172
vt 0.6924 0.2909
vt 0.6872 0.2930
vt 0.6872 0.2870
vt 0.6901 0.2828
vt 0.6932 0.3121
vt 0.6872 0.3121
vt 0.6872 0.2989
vt 0.6946 0.2989
vt 0.6839 0.3336
vt 0.6872 0.3315
vt 0.6872 0.3377
vt 0.6851 0.3418
vt 0.8092 0.2909
vt 0.8040 0.2888
vt 0.8086 0.2787
vt 0.8115 0.2828
vt 0.7995 0.2989
vt 0.8023 0.3121
vt 0.7964 0.3043
vt 0.8196 0.2909
vt 0.8144 0.2930
vt 0.8144 0.2870
vt 0.8173 0.2828
vt 0.8293 0.2989
vt 0.8248 0.2888
vt 0.8305 0.2888
vt 0.8084 0.3121
vt 0.8069 0.2989
vt 0.7982 0.2888
vt 0.8144 0.3490
vt 0.8165 0.3418
vt 0.8186 0.3459
vt 0.8165 0.3562
vt 0.8204 0.3121
vt 0.8144 0.3121
vt 0.8144 0.2989
vt 0.8219 0.2989
vt 0.8144 0.2763
vt 0.8115 0.2696
vt 0.8177 0.3336
vt 0.8210 0.3356
vt 0.8235 0.3253
vt 0.8264 0.3121
vt 0.8296 0.3172
vt 0.8110 0.3336
vt 0.8144 0.3315
vt 0.8144 0.3377
vt 0.8123 0.3418
vt 0.9351 0.3490
vt 0.9372 0.3418
vt 0.9393 0.3459
vt 0.9372 0.3562
vt 0.9384 0.3336
vt 0.9418 0.3356
vt 0.9291 0.3121
vt 0.9232 0.3121
vt 0.9203 0.2989
vt 0.9277 0.2989
vt 0.9190 0.2888
vt 0.9248 0.2888
vt 0.9500 0.2989
vt 0.9455 0.2888
vt 0.9513 0.2888
vt 0.9299 0.2909
vt 0.9293 0.2787
vt 0.9322 0.2828
vt 0.9351 0.2763
vt 0.9322 0.2696
vt 0.9171 0.3043
vt 0.9443 0.3253
vt 0.9471 0.3121
vt 0.9503 0.3172
vt 0.9403 0.2909
vt 0.9351 0.2930
vt 0.9351 0.2870
vt 0.9381 0.2828
vt 0.9411 0.3121
vt 0.9351 0.3121
vt 0.9351 0.2989
vt 0.9426 0.2989
vt 0.9318 0.3336
vt 0.9351 0.3315
vt 0.9351 0.3377
vt 0.9331 0.3418
vt 0.9351 0.3490
vt 0.9372 0.3418
vt 0.9393 0.3459
vt 0.9372 0.3562
vt 0.9384 0.3336
vt 0.9418 0.3356
vt 0.9291 0.3121
vt 0.9232 0.3121
vt 0.9203 0.2989
vt 0.9277 0.2989
vt 0.9190 0.2888
vt 0.9248 0.2888
vt 0.9500 0.2989
vt 0.9455 0.2888
vt 0.9513 0.2888
vt 0.9299 0.2909
vt 0.9293 0.2787
vt 0.9322 0.2828
vt 0.9351 0.2763
vt 0.9322 0.2696
vt 0.9171 0.3043
vt 0.9443 0.3253
vt 0.9471 0.3121
vt 0.9503 0.3172
vt 0.9403 0.2909
vt 0.9351 0.2930
vt 0.9351 0.2870
vt 0.9381 0.2828
vt 0.9411 0.3121
vt 0.9351 0.3121
vt 0.9351 0.2989
vt 0.9426 0.2989
vt 0.9318 0.3336
vt 0.9351 0.3315
vt 0.9351 0.3377
vt 0.9331 0.3418
vt 0.9285 0.3356
vt 0.9310 0.3459
vt 0.9260 0.3253
vt 0.9305 0.3253
vt 0.9351 0.3253
vt 0.9397 0.3253
vt 0.9410 0.2787
vt 0.9532 0.3040
vt 0.9564 0.3091
vt 0.9200 0.3174
vt 0.9139 0.3096
vt 0.9381 0.2696
vt 0.9351 0.2606
vt 0.9468 0.2787
vt 0.9526 0.2787
vt 0.9235 0.2787
vt 0.9177 0.2787
vt 0.9331 0.3562
vt 0.9351 0.3666
vt 0.9285 0.3356
vt 0.9310 0.3459
vt 0.9260 0.3253
vt 0.9305 0.3253
vt 0.9351 0.3253
vt 0.9397 0.3253
vt 0.9410 0.2787
vt 0.9532 0.3040
vt 0.9564 0.3091
vt 0.9200 0.3174
vt 0.9139 0.3096
vt 0.9381 0.2696
vt 0.9351 0.2606
vt 0.9468 0.2787
vt 0.9526 0.2787
vt 0.9235 0.2787
vt 0.9177 0.2787
vt 0.9331 0.3562
vt 0.9351 0.3666
vt 0.8077 0.3356
vt 0.8102 0.3459
vt 0.8052 0.3253
vt 0.8098 0.3253
vt 0.8144 0.3253
vt 0.8325 0.3040
vt 0.8356 0.3091
vt 0.8189 0.3253
vt 0.8173 0.2696
vt 0.8144 0.2606
vt 0.8202 0.2787
vt 0.8123 0.3562
vt 0.8144 0.3666
vt 0.8027 0.2787
vt 0.7969 0.2787
vt 0.8260 0.2787
vt 0.8318 0.2787
vt 0.7992 0.3174
vt 0.7932 0.3096
vt 0.6805 0.3356
vt 0.6830 0.3459
vt 0.6780 0.3253
vt 0.6826 0.3253
vt 0.6872 0.3253
vt 0.6918 0.3253
vt 0.6930 0.2787
vt 0.7053 0.3040
vt 0.7084 0.3091
vt 0.6720 0.3174
vt 0.6660 0.3096
vt 0.6901 0.2696
vt 0.6872 0.2606
vt 0.6988 0.2787
vt 0.7046 0.2787
vt 0.6755 0.2787
vt 0.6697 0.2787
vt 0.6851 0.3562
vt 0.6872 0.3666
vt 0.8077 0.3356
vt 0.8102 0.3459
vt 0.8052 0.3253
vt 0.8098 0.3253
vt 0.8144 0.3253
vt 0.8189 0.3253
vt 0.8202 0.2787
vt 0.8325 0.3040
vt 0.8356 0.3091
vt 0.7992 0.3174
vt 0.7932 0.3096
vt 0.8173 0.2696
vt 0.8144 0.2606
vt 0.8260 0.2787
vt 0.8318 0.2787
vt 0.8027 0.2787
vt 0.7969 0.2787
vt 0.8123 0.3562
vt 0.8144 0.3666
vt 0.9614 0.9226
vt 0.9617 0.9235
vt 0.9610 0.9217
vt 0.9613 0.9215
vt 0.9615 0.9213
vt 0.9558 0.8865
vt 0.9564 0.8868
vt 0.9570 0.8872
vt 0.9598 0.8865
vt 0.9604 0.8864
vt 0.9610 0.8864
vt 0.9499 0.9404
vt 0.9576 0.8871
vt 0.9582 0.8870
vt 0.9542 0.9058
vt 0.9542 0.9252
vt 0.9543 0.8864
vt 0.9550 0.8864
vt 0.9387 0.9587
vt 0.9393 0.9774
vt 0.9590 0.8867
vt 0.9177 0.8864
vt 0.9148 0.8864
vt 0.9206 0.8864
vt 0.9327 0.9384
vt 0.9302 0.9643
vt 0.9278 0.9902
vt 0.9351 0.8872
vt 0.9321 0.8869
vt 0.9380 0.8875
vt 0.9354 0.9129
vt 0.9234 0.8864
vt 0.9263 0.8865
vt 0.9117 0.8864
vt 0.9086 0.8864
vt 0.9292 0.8867
vt 0.9556 0.9425
vt 0.9570 0.9598
vt 0.9489 0.8871
vt 0.9471 0.8879
vt 0.9508 0.8864
vt 0.9392 0.8870
vt 0.9380 0.8870
vt 0.9405 0.8870
vt 0.9456 0.8879
vt 0.9442 0.8879
vt 0.9525 0.8870
vt 0.9542 0.8876
vt 0.9520 0.9140
vt 0.9424 0.8874
vt 0.9614 0.9238
vt 0.9616 0.9240
vt 0.9613 0.9235
vt 0.9610 0.9115
vt 0.9610 0.9121
vt 0.9610 0.9109
vt 0.9611 0.9103
vt 0.9612 0.9098
vt 0.9657 0.9102
vt 0.9702 0.9106
vt 0.9611 0.9126
vt 0.9612 0.9132
vt 0.9742 0.9069
vt 0.9741 0.9064
vt 0.9743 0.9075
vt 0.9613 0.9263
vt 0.9614 0.9265
vt 0.9612 0.9262
vt 0.9741 0.9092
vt 0.9741 0.9086
vt 0.9741 0.9098
vt 0.9676 0.9092
vt 0.9610 0.9086
vt 0.9742 0.9081
vn -0.2616 0.7983 0.5425
vn -0.4660 0.8837 -0.0433
vn -0.9035 0.0319 0.4275
vn -0.8864 0.0162 0.4627
vn 0.8669 -0.0000 -0.4985
vn 0.2891 0.3606 -0.8868
vn 0.5865 0.8098 0.0172
vn 0.6039 0.7955 0.0501
vn -0.6179 -0.7811 -0.0902
vn -0.7679 -0.1664 -0.6186
vn 0.2278 -0.7522 -0.6183
vn 0.2470 -0.7770 -0.5791
vn 0.2326 -0.8208 0.5217
vn -0.1359 -0.2178 0.9665
vn -0.6931 -0.7028 0.1601
vn -0.6389 -0.7681 0.0426
vn -0.8788 0.0489 -0.4747
vn -0.8896 0.3673 0.2713
vn -0.3082 0.8699 -0.3850
vn -0.2586 0.8375 -0.4814
vn 0.6146 0.7888 -0.0023
vn 0.1488 0.8317 0.5349
vn 0.7945 0.0144 0.6071
vn 0.8559 -0.0317 0.5162
vn -0.3433 -0.0019 -0.9392
vn -0.3713 0.0239 -0.9282
vn 0.2182 0.0307 -0.9754
vn 0.2222 0.0087 -0.9750
vn 0.8535 0.0329 0.5200
vn 0.8737 0.0071 0.4864
vn 0.3960 0.0018 0.9182
vn 0.3906 0.0360 0.9199
vn -0.9998 0.0123 0.0170
vn -0.9971 0.0117 0.0748
vn -0.8427 0.0206 -0.5380
vn -0.8133 0.0042 -0.5818
vn 0.7457 0.0207 -0.6660
vn 0.7435 0.0304 -0.6680
vn 0.9930 0.0228 -0.1161
vn 0.9966 0.0321 -0.0759
vn -0.2210 0.0289 0.9749
vn -0.2423 -0.0014 0.9702
vn -0.7639 0.0060 0.6453
vn -0.7685 0.0251 0.6393
vn -0.4253 0.1122 -0.8981
vn -0.8778 0.0926 -0.4701
vn -0.8894 0.0977 -0.4467
vn -0.3836 0.1694 -0.9078
vn 0.9036 -0.0649 0.4235
vn 0.9878 -0.0137 -0.1553
vn 0.9904 -0.0019 -0.1379
vn 0.8512 -0.0350 0.5237
vn -0.9836 0.0343 0.1772
vn -0.7442 -0.0218 0.6676
vn -0.7215 -0.0025 0.6924
vn -0.9936 0.0975 -0.0571
vn 0.7562 0.0398 -0.6531
vn 0.2193 0.0929 -0.9712
vn 0.2191 0.0969 -0.9709
vn 0.5963 0.0891 -0.7978
vn -0.3227 -0.0672 0.9441
vn 0.3734 -0.0896 0.9233
vn 0.4006 -0.0921 0.9116
vn 0.0773 -0.0458 0.9960
vn -0.2075 0.0222 0.9780
vn -0.2164 0.0197 0.9761
vn -0.7616 0.0109 0.6479
vn -0.7514 0.0012 0.6598
vn -0.2159 0.0234 0.9761
vn -0.2195 0.0266 0.9752
vn -0.7715 0.0298 0.6355
vn -0.7665 0.0290 0.6415
vn 0.7417 0.0300 -0.6700
vn 0.7437 0.0181 -0.6683
vn 0.9980 0.0253 -0.0583
vn 0.9956 0.0407 -0.0840
vn 0.7458 0.0059 -0.6661
vn 0.7473 0.0121 -0.6644
vn 0.9981 0.0213 -0.0579
vn 0.9986 0.0092 -0.0518
vn -0.9977 -0.0135 0.0657
vn -0.9990 0.0087 0.0432
vn -0.8460 0.0144 -0.5330
vn -0.8654 -0.0094 -0.5010
vn -0.9995 0.0287 0.0132
vn -0.9997 0.0214 -0.0088
vn -0.7984 0.0163 -0.6019
vn -0.8172 0.0302 -0.5756
vn 0.8375 0.0406 0.5449
vn 0.8144 0.0251 0.5797
vn 0.3523 0.0231 0.9356
vn 0.3771 0.0368 0.9255
vn 0.8198 0.0104 0.5725
vn 0.8392 0.0218 0.5434
vn 0.3786 0.0254 0.9252
vn 0.3619 0.0166 0.9321
vn -0.4410 0.0006 -0.8975
vn -0.4047 0.0147 -0.9144
vn 0.2021 0.0193 -0.9792
vn 0.1907 0.0187 -0.9815
vn -0.3606 0.0244 -0.9324
vn -0.3326 0.0104 -0.9430
vn 0.2287 0.0128 -0.9734
vn 0.2199 0.0178 -0.9754
vn -0.3021 -0.0339 0.9527
vn 0.3900 -0.0378 0.9201
vn 0.3820 -0.0337 0.9236
vn -0.3635 -0.0428 0.9306
vn -0.3774 -0.0490 0.9248
vn 0.3575 -0.0297 0.9334
vn 0.3397 -0.0582 0.9387
vn -0.3559 -0.0585 0.9327
vn 0.7451 0.0408 -0.6657
vn 0.2372 0.0565 -0.9698
vn 0.2597 0.0651 -0.9635
vn 0.7473 0.0515 -0.6625
vn 0.7490 0.0599 -0.6598
vn 0.2518 0.0696 -0.9653
vn 0.2195 0.0794 -0.9724
vn 0.7499 0.0510 -0.6596
vn -0.9921 0.0088 0.1254
vn -0.7645 -0.0145 0.6445
vn -0.7722 -0.0294 0.6346
vn -0.9887 -0.0072 0.1499
vn -0.9880 -0.0178 0.1535
vn -0.7725 -0.0404 0.6338
vn -0.7689 -0.0300 0.6386
vn -0.9890 0.0100 0.1476
vn 0.9036 -0.0182 0.4279
vn 0.9876 0.0146 -0.1564
vn 0.9806 0.0288 -0.1941
vn 0.9280 -0.0033 0.3725
vn 0.9256 0.0094 0.3785
vn 0.9799 0.0409 -0.1955
vn 0.9847 0.0136 -0.1736
vn 0.9066 -0.0275 0.4210
vn -0.3703 0.0537 -0.9274
vn -0.8620 0.0379 -0.5055
vn -0.8666 0.0295 -0.4982
vn -0.3568 0.0565 -0.9325
vn -0.3813 0.0562 -0.9228
vn -0.8751 0.0239 -0.4834
vn -0.8782 0.0581 -0.4748
vn -0.4152 0.0826 -0.9060
vn -0.3714 0.5310 -0.7616
vn 0.5566 0.8301 0.0350
vn 0.5647 0.8250 -0.0227
vn 0.5607 0.8279 -0.0117
vn 0.5550 0.8313 0.0307
vn 0.5689 0.8181 -0.0844
vn 0.5708 0.8152 -0.0984
vn 0.5413 0.8237 0.1689
vn 0.4919 0.8086 0.3229
vn 0.5569 0.7940 0.2439
vn 0.5593 0.8129 0.1621
vn 0.6287 0.6926 0.3535
vn 0.6168 0.7380 0.2735
vn 0.6095 0.7775 -0.1552
vn 0.7071 0.6992 -0.1056
vn 0.7049 0.7093 0.0036
vn 0.5893 0.7929 0.1547
vn 0.6561 0.7483 0.0974
vn 0.6594 0.7515 -0.0206
vn 0.6537 0.7179 -0.2392
vn 0.6219 0.7421 -0.2499
vn 0.4588 0.7820 0.4219
vn 0.5330 0.8306 -0.1612
vn 0.4913 0.8330 -0.2545
vn 0.4280 0.8198 -0.3804
vn 0.6641 0.7168 -0.2126
vn 0.6097 0.7912 -0.0473
vn 0.6433 0.7534 -0.1365
vn 0.6791 0.6758 -0.2865
vn 0.5424 0.8339 -0.1024
vn 0.5523 0.8330 0.0328
vn 0.5748 0.8182 0.0110
vn 0.6004 0.7900 -0.1242
vn 0.5706 0.8070 0.1525
vn 0.5703 0.8207 0.0344
vn 0.5698 0.8211 0.0344
vn 0.5655 0.8196 0.0918
vn -0.3381 0.8866 -0.3156
vn -0.3802 0.8830 -0.2752
vn -0.3701 0.8854 -0.2813
vn -0.3393 0.8877 -0.3112
vn -0.4218 0.8772 -0.2293
vn -0.4322 0.8746 -0.2196
vn -0.2448 0.8774 -0.4126
vn -0.1131 0.8555 -0.5053
vn -0.2139 0.8489 -0.4833
vn -0.2641 0.8688 -0.4189
vn -0.2128 0.7553 -0.6199
vn -0.2481 0.7998 -0.5466
vn -0.5008 0.8420 -0.2005
vn -0.5545 0.7746 -0.3040
vn -0.4851 0.7834 -0.3885
vn -0.2940 0.8523 -0.4325
vn -0.3857 0.8160 -0.4306
vn -0.4602 0.8206 -0.3390
vn -0.5926 0.7885 -0.1647
vn -0.5719 0.8091 -0.1353
vn -0.0292 0.8245 -0.5651
vn -0.4395 0.8863 -0.1460
vn -0.4635 0.8849 -0.0467
vn -0.4920 0.8659 0.0906
vn -0.5845 0.7883 -0.1921
vn -0.4338 0.8547 -0.2852
vn -0.5182 0.8216 -0.2374
vn -0.6454 0.7499 -0.1452
vn -0.4105 0.8901 -0.1981
vn -0.3357 0.8891 -0.3111
vn -0.3681 0.8771 -0.3084
vn -0.4736 0.8531 -0.2188
vn -0.2793 0.8642 -0.4185
vn -0.3501 0.8789 -0.3241
vn -0.3496 0.8792 -0.3238
vn -0.3113 0.8768 -0.3666
vn 0.0798 0.7929 0.6041
vn -0.0197 0.7380 0.6745
vn 0.1582 0.7483 0.6442
vn 0.2687 0.7515 0.6025
vn -0.0150 0.7940 0.6078
vn -0.1127 0.8086 0.5775
vn -0.2168 0.7820 0.5844
vn 0.4481 0.7168 0.5342
vn 0.2746 0.7912 0.5464
vn 0.3698 0.7534 0.5438
vn 0.5222 0.6758 0.5201
vn 0.3743 0.7775 0.5054
vn 0.3654 0.6992 0.6145
vn 0.2635 0.7093 0.6538
vn 0.0486 0.8237 0.5650
vn 0.0617 0.8129 0.5791
vn -0.0893 0.6926 0.7158
vn 0.1783 0.8301 0.5284
vn 0.2348 0.8250 0.5141
vn 0.2231 0.8279 0.5146
vn 0.1816 0.8313 0.5253
vn 0.3000 0.8339 0.4633
vn 0.1787 0.8330 0.5236
vn 0.2074 0.8182 0.5362
vn 0.3422 0.7900 0.5087
vn 0.4688 0.7179 0.5146
vn 0.4668 0.7421 0.4811
vn 0.2934 0.8181 0.4946
vn 0.3071 0.8152 0.4911
vn 0.3509 0.8306 0.4323
vn 0.4215 0.8330 0.3584
vn 0.5141 0.8198 0.2522
vn 0.0748 0.8070 0.5858
vn 0.1840 0.8207 0.5409
vn 0.1838 0.8211 0.5404
vn 0.1291 0.8196 0.5582
vn -0.0980 0.7979 -0.5948
vn -0.1560 0.7928 -0.5893
vn -0.1444 0.7958 -0.5881
vn -0.1018 0.7992 -0.5924
vn -0.2169 0.7860 -0.5789
vn -0.2310 0.7831 -0.5774
vn 0.0359 0.7915 -0.6102
vn 0.1973 0.7781 -0.5963
vn 0.1057 0.7605 -0.6407
vn 0.0253 0.7798 -0.6255
vn 0.1967 0.6546 -0.7299
vn 0.1211 0.7011 -0.7027
vn -0.2949 0.7437 -0.6000
vn -0.2683 0.6598 -0.7019
vn -0.1615 0.6693 -0.7252
vn 0.0114 0.7582 -0.6519
vn -0.0593 0.7104 -0.7013
vn -0.1750 0.7142 -0.6777
vn -0.3864 0.6823 -0.6206
vn -0.3897 0.7083 -0.5886
vn 0.3013 0.7528 -0.5853
vn -0.2836 0.8010 -0.5272
vn -0.3650 0.8063 -0.4655
vn -0.4730 0.7974 -0.3746
vn -0.3628 0.6805 -0.6366
vn -0.1900 0.7567 -0.6255
vn -0.2842 0.7176 -0.6358
vn -0.4380 0.6392 -0.6321
vn -0.2285 0.8033 -0.5499
vn -0.0991 0.8011 -0.5903
vn -0.1254 0.7852 -0.6064
vn -0.2627 0.7565 -0.5990
vn 0.0134 0.7733 -0.6339
vn -0.1016 0.7878 -0.6075
vn -0.1015 0.7882 -0.6070
vn -0.0447 0.7866 -0.6158
vn 0.0056 0.8399 -0.5428
vn -0.0528 0.8377 -0.5436
vn -0.0413 0.8400 -0.5410
vn 0.0017 0.8412 -0.5407
vn -0.1148 0.8338 -0.5400
vn -0.1291 0.8316 -0.5402
vn 0.1398 0.8268 -0.5448
vn 0.2980 0.8034 -0.5156
vn 0.2108 0.7940 -0.5702
vn 0.1304 0.8168 -0.5620
vn 0.3053 0.6892 -0.6571
vn 0.2298 0.7381 -0.6344
vn -0.1921 0.7975 -0.5720
vn -0.1591 0.7191 -0.6764
vn -0.0502 0.7240 -0.6879
vn 0.1183 0.7979 -0.5911
vn 0.0509 0.7575 -0.6508
vn -0.0663 0.7664 -0.6390
vn -0.2839 0.7429 -0.6062
vn -0.2893 0.7669 -0.5729
vn 0.3989 0.7714 -0.4958
vn -0.1858 0.8491 -0.4945
vn -0.2728 0.8549 -0.4412
vn -0.3902 0.8463 -0.3627
vn -0.2589 0.7408 -0.6198
vn -0.0846 0.8061 -0.5857
vn -0.1790 0.7733 -0.6083
vn -0.3360 0.7037 -0.6260
vn -0.1285 0.8498 -0.5112
vn 0.0041 0.8428 -0.5382
vn -0.0210 0.8296 -0.5580
vn -0.1596 0.8083 -0.5667
vn 0.1191 0.8116 -0.5720
vn 0.0028 0.8308 -0.5565
vn 0.0030 0.8312 -0.5560
vn 0.0602 0.8269 -0.5590
vn 0.1322 0.8067 -0.5759
vn 0.0504 0.8313 -0.5536
vn 0.2014 0.8123 -0.5473
vn 0.1401 0.8170 -0.5594
vn 0.0049 0.8377 -0.5460
vn -0.1304 0.8426 -0.5225
vn -0.3165 0.7121 -0.6267
vn -0.3622 0.8414 -0.4010
vn -0.4201 0.8416 -0.3395
vn 0.4254 0.7699 -0.4758
vn 0.4576 0.7598 -0.4618
vn -0.3680 0.7506 -0.5489
vn -0.3510 0.7635 -0.5421
vn -0.0768 0.7146 -0.6953
vn -0.0283 0.7117 -0.7019
vn 0.2985 0.6776 -0.6721
vn 0.3180 0.6657 -0.6750
vn 0.0101 0.8404 -0.5418
vn 0.0060 0.8411 -0.5409
vn 0.0262 0.7689 -0.6389
vn -0.0540 0.7908 -0.6097
vn 0.0976 0.7799 -0.6182
vn 0.0352 0.7806 -0.6240
vn -0.0989 0.7955 -0.5978
vn -0.2311 0.7953 -0.5604
vn -0.4191 0.6485 -0.6355
vn -0.4488 0.7913 -0.4153
vn -0.5000 0.7930 -0.3482
vn 0.3298 0.7540 -0.5681
vn 0.3638 0.7466 -0.5570
vn -0.4645 0.6898 -0.5553
vn -0.4477 0.7040 -0.5513
vn -0.1882 0.6580 -0.7291
vn -0.1406 0.6571 -0.7405
vn 0.1890 0.6416 -0.7434
vn 0.2088 0.6305 -0.7475
vn -0.0935 0.7988 -0.5943
vn -0.0975 0.7993 -0.5930
vn 0.0630 0.8027 0.5930
vn 0.1374 0.8235 0.5504
vn -0.0108 0.8122 0.5833
vn 0.0516 0.8136 0.5791
vn 0.1797 0.8279 0.5314
vn 0.4966 0.8158 0.2964
vn 0.5366 0.8141 0.2221
vn 0.3044 0.8264 0.4737
vn 0.5356 0.7223 0.4375
vn 0.5182 0.7361 0.4354
vn 0.5040 0.6852 0.5258
vn 0.1737 0.8309 0.5286
vn 0.1775 0.8313 0.5266
vn -0.0794 0.6804 0.7285
vn -0.0981 0.6695 0.7363
vn 0.2906 0.6984 0.6541
vn 0.2454 0.6978 0.6729
vn -0.2476 0.7821 0.5719
vn -0.2829 0.7739 0.5666
vn -0.2731 0.8601 -0.4309
vn -0.3142 0.8803 -0.3555
vn -0.2036 0.8648 -0.4589
vn -0.2553 0.8690 -0.4239
vn -0.3409 0.8848 -0.3176
vn -0.4201 0.8839 -0.2053
vn -0.6316 0.7588 -0.1588
vn -0.4993 0.8653 0.0435
vn -0.4971 0.8582 0.1276
vn 0.0036 0.8218 -0.5698
vn 0.0359 0.8113 -0.5835
vn -0.6116 0.7885 -0.0644
vn -0.5943 0.8012 -0.0705
vn -0.5097 0.7740 -0.3757
vn -0.4800 0.7731 -0.4147
vn -0.2288 0.7449 -0.6267
vn -0.2175 0.7339 -0.6435
vn -0.3342 0.8873 -0.3180
vn -0.3364 0.8877 -0.3144
vn 0.5727 0.8027 0.1661
vn 0.5614 0.8235 0.0812
vn 0.5358 0.8122 0.2308
vn 0.5556 0.8136 0.1714
vn 0.5598 0.8279 0.0348
vn 0.5536 0.8264 -0.1024
vn 0.6775 0.6852 -0.2675
vn 0.4623 0.8158 -0.3475
vn 0.4087 0.8141 -0.4127
vn 0.4356 0.7821 0.4457
vn 0.4174 0.7739 0.4763
vn 0.6076 0.7223 -0.3302
vn 0.5991 0.7361 -0.3149
vn 0.7154 0.6984 -0.0214
vn 0.7157 0.6978 0.0276
vn 0.6443 0.6804 0.3492
vn 0.6444 0.6695 0.3695
vn 0.5550 0.8309 0.0393
vn 0.5547 0.8313 0.0350
vn -0.2098 0.8829 -0.4201
vn -0.4531 -0.0028 -0.8915
vn 0.1928 0.0172 -0.9811
vn -0.8737 -0.0140 -0.4863
vn 0.8542 0.0417 0.5183
vn 0.3980 0.0373 0.9166
vn 0.9943 0.0410 -0.0984
vn -0.9964 -0.0175 0.0825
vn -0.7436 -0.0019 0.6686
vn 0.7417 0.0304 -0.6701
vn -0.2062 0.0182 0.9783
vn 0.6193 0.7852 -0.0037
vn 0.8653 -0.0115 0.5012
vn -0.2230 0.8494 -0.4784
vn -0.8749 0.0551 -0.4811
vn -0.6297 -0.7758 0.0393
vn 0.2427 -0.8186 0.5206
vn -0.6246 -0.7767 -0.0813
vn 0.2089 -0.7995 -0.5632
vn -0.8887 -0.0067 0.4583
vn 0.8674 -0.0034 -0.4976
vn 0.5924 0.8029 0.0668
vn -0.2702 0.7924 0.5469
usemtl None
s 1
f 443/1/1 362/2/2 3/3/3 310/4/4
f 442/5/5 296/6/6 2/7/7 199/8/8
f 2/9/7 296/10/6 362/11/2
f 441/12/9 183/13/10 6/14/11 179/15/12
f 440/16/13 239/17/14 9/18/15 168/19/16
f 439/20/17 216/21/18 11/22/19 275/23/20
f 438/24/21 339/25/22 8/26/23 302/27/24
f 11/28/19 216/29/18 339/30/22
f 437/31/25 342/32/26 15/33/27 291/34/28
f 436/35/29 306/36/30 19/37/31 237/38/32
f 435/39/33 253/40/34 14/41/35 174/42/36
f 434/43/37 352/44/38 18/45/39 360/46/40
f 433/47/41 347/48/42 22/49/43 345/50/44
f 432/51/45 177/52/46 25/53/47 141/54/48
f 431/55/49 196/56/50 29/57/51 149/58/52
f 430/59/53 274/60/54 32/61/55 236/62/56
f 429/63/57 338/64/58 26/65/59 202/66/60
f 428/67/61 359/68/62 30/69/63 140/70/64
f 427/71/65 233/72/66 35/73/67 297/74/68
f 426/75/69 181/76/70 21/77/71 148/78/72
f 425/79/73 221/80/74 39/81/75 292/82/76
f 424/83/77 227/84/78 17/85/79 157/86/80
f 423/87/81 226/88/82 41/89/83 158/90/84
f 422/91/85 305/92/86 13/93/87 212/94/88
f 421/95/89 222/96/90 34/97/91 186/98/92
f 420/99/93 240/100/94 20/101/95 144/102/96
f 419/103/97 341/104/98 38/105/99 175/106/100
f 418/107/101 282/108/102 16/109/103 156/110/104
f 417/111/105 358/112/106 43/113/107 270/114/108
f 416/115/109 351/116/110 27/117/111 184/118/112
f 415/119/113 228/120/114 45/121/115 166/122/116
f 414/123/117 259/124/118 23/125/119 217/126/120
f 413/127/121 318/128/122 44/129/123 201/130/124
f 412/131/125 194/132/126 31/133/127 287/134/128
f 411/135/129 193/136/130 46/137/131 363/138/132
f 410/139/133 176/140/134 28/141/135 256/142/136
f 409/143/137 238/144/138 47/145/139 331/146/140
f 408/147/141 273/148/142 24/149/143 231/150/144
f 407/151/145 141/152/48 25/153/47 236/154/56
f 30/155/63 149/156/52 140/157/64
f 406/158/146 210/159/147 50/160/148 268/161/149
f 405/162/150 142/163/151 50/160/148 210/159/147
f 404/164/152 241/165/153 55/166/154 317/167/155
f 55/166/154 247/168/156 171/169/157
f 59/170/158 329/171/159 272/172/160
f 403/173/161 171/169/157 58/174/162 326/175/163
f 402/176/164 326/175/163 58/174/162 266/177/165
f 55/166/154 241/165/153 314/178/166
f 53/179/167 348/180/168 229/181/169
f 401/182/170 299/183/171 62/184/172 321/185/173
f 400/186/174 197/187/175 56/188/176 225/189/177
f 399/190/178 324/191/179 49/192/180 340/193/181
f 398/194/182 284/195/183 68/196/184 215/197/185
f 397/198/186 325/199/187 68/196/184 284/195/183
f 396/200/188 207/201/189 73/202/190 146/203/191
f 73/202/190 205/204/192 255/205/193
f 77/206/194 151/207/195 209/208/196
f 395/209/197 255/205/193 76/210/198 365/211/199
f 394/212/200 365/211/199 76/210/198 200/213/201
f 73/202/190 207/201/189 327/214/202
f 71/215/203 322/216/204 189/217/205
f 393/218/206 354/219/207 80/220/208 145/221/209
f 392/222/210 260/223/211 74/224/212 187/225/213
f 391/226/214 161/227/215 67/228/216 346/229/217
f 390/230/218 332/231/219 86/232/220 271/233/221
f 85/234/222 206/235/223 264/236/224
f 389/237/225 263/238/226 87/239/227 355/240/228
f 90/241/229 304/242/230 343/243/231
f 388/244/232 206/235/223 85/234/222 160/245/233
f 85/234/222 328/246/234 332/231/219
f 387/247/235 280/248/236 97/249/237 336/250/238
f 386/251/239 153/252/240 84/253/241 185/254/242
f 385/255/243 271/233/221 86/232/220 234/256/244
f 384/257/245 277/258/246 97/249/237 280/248/236
f 99/259/247 191/260/248 147/261/249
f 383/262/250 230/263/251 96/264/252 242/265/253
f 382/266/254 203/267/255 104/268/256 245/269/257
f 381/270/258 337/271/259 104/268/256 203/267/255
f 380/272/260 257/273/261 109/274/262 315/275/263
f 109/274/262 252/276/264 192/277/265
f 113/278/266 350/279/267 298/280/268
f 379/281/269 192/277/265 112/282/270 308/283/271
f 378/284/272 308/283/271 112/282/270 243/285/273
f 109/274/262 257/273/261 278/286/274
f 107/287/275 344/288/276 213/289/277
f 377/290/278 261/291/279 116/292/280 349/293/281
f 376/294/282 172/295/283 110/296/284 246/297/285
f 375/298/286 294/299/287 103/300/288 366/301/289
f 374/302/290 361/303/291 122/304/292 198/305/293
f 373/306/294 295/307/295 122/304/292 361/303/291
f 372/308/296 190/309/297 127/310/298 258/311/299
f 127/310/298 195/312/300 139/313/301
f 131/314/302 281/315/303 335/316/304
f 371/317/305 139/313/301 130/318/306 250/319/307
f 370/320/308 250/319/307 130/318/306 313/321/309
f 127/310/298 190/309/297 279/322/310
f 125/323/311 319/324/312 218/325/313
f 369/326/314 163/327/315 134/328/316 235/329/317
f 368/330/318 356/331/319 128/332/320 334/333/321
f 367/334/322 251/335/323 121/336/324 316/337/325
f 223/338/326 367/334/322 316/337/325 120/339/327
f 126/340/328 244/341/329 367/334/322 223/338/326
f 244/341/329 124/342/330 251/335/323 367/334/322
f 319/324/312 368/330/318 334/333/321 131/314/302
f 125/323/311 320/343/331 368/330/318 319/324/312
f 320/343/331 124/342/330 356/331/319 368/330/318
f 281/315/303 369/326/314 235/329/317 132/344/332
f 131/314/302 334/333/321 369/326/314 281/315/303
f 334/333/321 128/332/320 163/327/315 369/326/314
f 218/325/313 303/345/333 137/346/334
f 218/325/313 319/324/312 303/345/333
f 319/324/312 131/314/302 303/345/333
f 279/322/310 155/347/335 136/348/336
f 279/322/310 190/309/297 155/347/335
f 190/309/297 126/340/328 155/347/335
f 301/349/337 370/320/308 313/321/309 135/350/338
f 132/344/332 235/329/317 370/320/308 301/349/337
f 235/329/317 134/328/316 250/319/307 370/320/308
f 163/327/315 371/317/305 250/319/307 134/328/316
f 128/332/320 258/311/299 371/317/305 163/327/315
f 258/311/299 127/310/298 139/313/301 371/317/305
f 335/316/304 220/351/339 133/352/340
f 335/316/304 281/315/303 220/351/339
f 281/315/303 132/344/332 220/351/339
f 139/313/301 165/353/341 130/318/306
f 139/313/301 195/312/300 165/353/341
f 195/312/300 129/354/342 165/353/341
f 356/331/319 372/308/296 258/311/299 128/332/320
f 124/342/330 244/341/329 372/308/296 356/331/319
f 244/341/329 126/340/328 190/309/297 372/308/296
f 251/335/323 373/306/294 361/303/291 121/336/324
f 124/342/330 320/343/331 373/306/294 251/335/323
f 320/343/331 125/323/311 295/307/295 373/306/294
f 169/355/343 374/302/290 198/305/293 123/356/344
f 120/339/327 316/337/325 374/302/290 169/355/343
f 316/337/325 121/336/324 361/303/291 374/302/290
f 293/357/345 375/298/286 366/301/289 102/358/346
f 108/359/347 307/360/348 375/298/286 293/357/345
f 307/360/348 106/361/349 294/299/287 375/298/286
f 344/288/276 376/294/282 246/297/285 113/278/266
f 107/287/275 357/362/350 376/294/282 344/288/276
f 357/362/350 106/361/349 172/295/283 376/294/282
f 350/279/267 377/290/278 349/293/281 114/363/351
f 113/278/266 246/297/285 377/290/278 350/279/267
f 246/297/285 110/296/284 261/291/279 377/290/278
f 213/289/277 288/364/352 119/365/353
f 213/289/277 344/288/276 288/364/352
f 344/288/276 113/278/266 288/364/352
f 278/286/274 150/366/354 118/367/355
f 278/286/274 257/273/261 150/366/354
f 257/273/261 108/359/347 150/366/354
f 289/368/356 378/284/272 243/285/273 117/369/357
f 114/363/351 349/293/281 378/284/272 289/368/356
f 349/293/281 116/292/280 308/283/271 378/284/272
f 261/291/279 379/281/269 308/283/271 116/292/280
f 110/296/284 315/275/263 379/281/269 261/291/279
f 315/275/263 109/274/262 192/277/265 379/281/269
f 298/280/268 182/370/358 115/371/359
f 298/280/268 350/279/267 182/370/358
f 350/279/267 114/363/351 182/370/358
f 192/277/265 188/372/360 112/282/270
f 192/277/265 252/276/264 188/372/360
f 252/276/264 111/373/361 188/372/360
f 172/295/283 380/272/260 315/275/263 110/296/284
f 106/361/349 307/360/348 380/272/260 172/295/283
f 307/360/348 108/359/347 257/273/261 380/272/260
f 294/299/287 381/270/258 203/267/255 103/300/288
f 106/361/349 357/362/350 381/270/258 294/299/287
f 357/362/350 107/287/275 337/271/259 381/270/258
f 265/374/362 382/266/254 245/269/257 105/375/363
f 102/358/346 366/301/289 382/266/254 265/374/362
f 366/301/289 103/300/288 203/267/255 382/266/254
f 276/376/364 383/262/250 242/265/253 95/377/365
f 88/378/366 159/379/367 383/262/250 276/376/364
f 159/379/367 93/380/368 230/263/251 383/262/250
f 147/261/249 333/381/369 101/382/370
f 147/261/249 191/260/248 333/381/369
f 191/260/248 90/241/229 333/381/369
f 230/263/251 384/257/245 280/248/236 96/264/252
f 93/380/368 311/383/371 384/257/245 230/263/251
f 311/383/371 99/259/247 277/258/246 384/257/245
f 364/384/372 385/255/243 234/256/244 100/385/373
f 91/386/374 355/240/228 385/255/243 364/384/372
f 355/240/228 87/239/227 271/233/221 385/255/243
f 191/260/248 386/251/239 185/254/242 90/241/229
f 99/259/247 311/383/371 386/251/239 191/260/248
f 311/383/371 93/380/368 153/252/240 386/251/239
f 249/387/375 387/247/235 336/250/238 98/388/376
f 95/377/365 242/265/253 387/247/235 249/387/375
f 242/265/253 96/264/252 280/248/236 387/247/235
f 332/231/219 204/389/377 86/232/220
f 332/231/219 328/246/234 204/389/377
f 328/246/234 94/390/378 204/389/377
f 153/252/240 388/244/232 160/245/233 84/253/241
f 93/380/368 159/379/367 388/244/232 153/252/240
f 159/379/367 88/378/366 206/235/223 388/244/232
f 343/243/231 224/391/379 92/392/380
f 343/243/231 304/242/230 224/391/379
f 304/242/230 91/386/374 224/391/379
f 304/242/230 389/237/225 355/240/228 91/386/374
f 90/241/229 185/254/242 389/237/225 304/242/230
f 185/254/242 84/253/241 263/238/226 389/237/225
f 264/236/224 180/393/381 89/394/382
f 264/236/224 206/235/223 180/393/381
f 206/235/223 88/378/366 180/393/381
f 263/238/226 390/230/218 271/233/221 87/239/227
f 84/253/241 160/245/233 390/230/218 263/238/226
f 160/245/233 85/234/222 332/231/219 390/230/218
f 167/395/383 391/226/214 346/229/217 66/396/384
f 72/397/385 162/398/386 391/226/214 167/395/383
f 162/398/386 70/399/387 161/227/215 391/226/214
f 322/216/204 392/222/210 187/225/213 77/206/194
f 71/215/203 330/400/388 392/222/210 322/216/204
f 330/400/388 70/399/387 260/223/211 392/222/210
f 151/207/195 393/218/206 145/221/209 78/401/389
f 77/206/194 187/225/213 393/218/206 151/207/195
f 187/225/213 74/224/212 354/219/207 393/218/206
f 189/217/205 152/402/390 83/403/391
f 189/217/205 322/216/204 152/402/390
f 322/216/204 77/206/194 152/402/390
f 327/214/202 211/404/392 82/405/393
f 327/214/202 207/201/189 211/404/392
f 207/201/189 72/397/385 211/404/392
f 208/406/394 394/212/200 200/213/201 81/407/395
f 78/401/389 145/221/209 394/212/200 208/406/394
f 145/221/209 80/220/208 365/211/199 394/212/200
f 354/219/207 395/209/197 365/211/199 80/220/208
f 74/224/212 146/203/191 395/209/197 354/219/207
f 146/203/191 73/202/190 255/205/193 395/209/197
f 209/208/196 323/408/396 79/409/397
f 209/208/196 151/207/195 323/408/396
f 151/207/195 78/401/389 323/408/396
f 255/205/193 254/410/398 76/210/198
f 255/205/193 205/204/192 254/410/398
f 205/204/192 75/411/399 254/410/398
f 260/223/211 396/200/188 146/203/191 74/224/212
f 70/399/387 162/398/386 396/200/188 260/223/211
f 162/398/386 72/397/385 207/201/189 396/200/188
f 161/227/215 397/198/186 284/195/183 67/228/216
f 70/399/387 330/400/388 397/198/186 161/227/215
f 330/400/388 71/215/203 325/199/187 397/198/186
f 219/412/400 398/194/182 215/197/185 69/413/401
f 66/396/384 346/229/217 398/194/182 219/412/400
f 346/229/217 67/228/216 284/195/183 398/194/182
f 232/414/402 399/190/178 340/193/181 48/415/403
f 54/416/404 309/417/405 399/190/178 232/414/402
f 309/417/405 52/418/406 324/191/179 399/190/178
f 348/180/168 400/186/174 225/189/177 59/170/158
f 53/179/167 138/419/407 400/186/174 348/180/168
f 138/419/407 52/418/406 197/187/175 400/186/174
f 329/171/159 401/182/170 321/185/173 60/420/408
f 59/170/158 225/189/177 401/182/170 329/171/159
f 225/189/177 56/188/176 299/183/171 401/182/170
f 229/181/169 269/421/409 65/422/410
f 229/181/169 348/180/168 269/421/409
f 348/180/168 59/170/158 269/421/409
f 314/178/166 178/423/411 64/424/412
f 314/178/166 241/165/153 178/423/411
f 241/165/153 54/416/404 178/423/411
f 267/425/413 402/176/164 266/177/165 63/426/414
f 60/420/408 321/185/173 402/176/164 267/425/413
f 321/185/173 62/184/172 326/175/163 402/176/164
f 299/183/171 403/173/161 326/175/163 62/184/172
f 56/188/176 317/167/155 403/173/161 299/183/171
f 317/167/155 55/166/154 171/169/157 403/173/161
f 272/172/160 154/427/415 61/428/416
f 272/172/160 329/171/159 154/427/415
f 329/171/159 60/420/408 154/427/415
f 171/169/157 214/429/417 58/174/162
f 171/169/157 247/168/156 214/429/417
f 247/168/156 57/430/418 214/429/417
f 197/187/175 404/164/152 317/167/155 56/188/176
f 52/418/406 309/417/405 404/164/152 197/187/175
f 309/417/405 54/416/404 241/165/153 404/164/152
f 324/191/179 405/162/150 210/159/147 49/192/180
f 52/418/406 138/419/407 405/162/150 324/191/179
f 138/419/407 53/179/167 142/163/151 405/162/150
f 173/431/419 406/158/146 268/161/149 51/432/420
f 48/415/403 340/193/181 406/158/146 173/431/419
f 340/193/181 49/192/180 210/159/147 406/158/146
f 140/157/64 262/433/421 32/434/55
f 140/157/64 149/156/52 262/433/421
f 149/156/52 29/435/51 262/433/421
f 262/433/421 407/151/145 236/154/56 32/434/55
f 29/435/51 202/436/60 407/151/145 262/433/421
f 202/436/60 26/437/59 141/152/48 407/151/145
f 259/124/118 408/147/141 231/150/144 23/125/119
f 45/438/115 331/439/140 408/147/141 259/124/118
f 331/439/140 47/440/139 273/148/142 408/147/141
f 228/120/114 409/143/137 331/146/140 45/121/115
f 15/33/27 342/32/26 409/143/137 228/120/114
f 342/32/26 14/41/35 238/144/138 409/143/137
f 351/116/110 410/139/133 256/142/136 27/117/111
f 43/441/107 363/442/132 410/139/133 351/116/110
f 363/442/132 46/443/131 176/140/134 410/139/133
f 358/112/106 411/135/129 363/138/132 43/113/107
f 19/37/31 306/36/30 411/135/129 358/112/106
f 306/36/30 18/444/39 193/136/130 411/135/129
f 273/148/142 412/131/125 287/134/128 24/149/143
f 47/440/139 201/445/124 412/131/125 273/148/142
f 201/445/124 44/446/123 194/132/126 412/131/125
f 238/144/138 413/127/121 201/130/124 47/145/139
f 14/41/35 253/40/34 413/127/121 238/144/138
f 253/40/34 22/49/43 318/128/122 413/127/121
f 176/447/134 414/123/117 217/126/120 28/448/135
f 46/449/131 166/450/116 414/123/117 176/447/134
f 166/450/116 45/438/115 259/124/118 414/123/117
f 193/451/130 415/119/113 166/122/116 46/452/131
f 18/45/39 352/44/38 415/119/113 193/451/130
f 352/44/38 15/33/27 228/120/114 415/119/113
f 194/132/126 416/115/109 184/118/112 31/133/127
f 44/446/123 270/453/108 416/115/109 194/132/126
f 270/453/108 43/441/107 351/116/110 416/115/109
f 318/128/122 417/111/105 270/114/108 44/129/123
f 22/49/43 347/48/42 417/111/105 318/128/122
f 347/48/42 19/37/31 358/112/106 417/111/105
f 341/104/98 418/107/101 156/110/104 38/105/99
f 41/89/83 212/94/88 418/107/101 341/104/98
f 212/94/88 13/93/87 282/108/102 418/107/101
f 143/454/422 419/103/97 175/106/100 37/455/423
f 42/456/424 158/90/84 419/103/97 143/454/422
f 158/90/84 41/89/83 341/104/98 419/103/97
f 222/96/90 420/99/93 144/102/96 34/97/91
f 39/457/75 157/458/80 420/99/93 222/96/90
f 157/458/80 17/459/79 240/100/94 420/99/93
f 290/460/425 421/95/89 186/98/92 33/461/426
f 40/462/427 292/463/76 421/95/89 290/460/425
f 292/463/76 39/457/75 222/96/90 421/95/89
f 226/88/82 422/91/85 212/94/88 41/89/83
f 35/73/67 148/78/72 422/91/85 226/88/82
f 148/78/72 21/77/71 305/92/86 422/91/85
f 283/464/428 423/87/81 158/90/84 42/456/424
f 36/465/429 297/74/68 423/87/81 283/464/428
f 297/74/68 35/73/67 226/88/82 423/87/81
f 221/80/74 424/83/77 157/86/80 39/81/75
f 38/105/99 156/110/104 424/83/77 221/80/74
f 156/110/104 16/109/103 227/84/78 424/83/77
f 285/466/430 425/79/73 292/82/76 40/467/427
f 37/455/423 175/106/100 425/79/73 285/466/430
f 175/106/100 38/105/99 221/80/74 425/79/73
f 233/72/66 426/75/69 148/78/72 35/73/67
f 34/97/91 144/102/96 426/75/69 233/72/66
f 144/102/96 20/101/95 181/76/70 426/75/69
f 300/468/431 427/71/65 297/74/68 36/465/429
f 33/461/426 186/98/92 427/71/65 300/468/431
f 186/98/92 34/97/91 233/72/66 427/71/65
f 274/60/54 428/67/61 140/70/64 32/61/55
f 31/133/127 184/118/112 428/67/61 274/60/54
f 184/118/112 27/117/111 359/68/62 428/67/61
f 196/469/50 429/63/57 202/66/60 29/470/51
f 28/448/135 217/126/120 429/63/57 196/469/50
f 217/126/120 23/125/119 338/64/58 429/63/57
f 177/52/46 430/59/53 236/62/56 25/53/47
f 24/149/143 287/134/128 430/59/53 177/52/46
f 287/134/128 31/133/127 274/60/54 430/59/53
f 359/68/62 431/55/49 149/58/52 30/69/63
f 27/117/111 256/142/136 431/55/49 359/68/62
f 256/142/136 28/141/135 196/56/50 431/55/49
f 338/64/58 432/51/45 141/54/48 26/65/59
f 23/125/119 231/150/144 432/51/45 338/64/58
f 231/150/144 24/149/143 177/52/46 432/51/45
f 181/471/70 433/47/41 345/50/44 21/472/71
f 20/473/95 237/38/32 433/47/41 181/471/70
f 237/38/32 19/37/31 347/48/42 433/47/41
f 227/474/78 434/43/37 360/46/40 17/475/79
f 16/476/103 291/34/28 434/43/37 227/474/78
f 291/34/28 15/33/27 352/44/38 434/43/37
f 305/477/86 435/39/33 174/42/36 13/478/87
f 21/472/71 345/50/44 435/39/33 305/477/86
f 345/50/44 22/49/43 253/40/34 435/39/33
f 240/479/94 436/35/29 237/38/32 20/473/95
f 17/480/79 360/481/40 436/35/29 240/479/94
f 360/481/40 18/444/39 306/36/30 436/35/29
f 282/482/102 437/31/25 291/34/28 16/476/103
f 13/478/87 174/42/36 437/31/25 282/482/102
f 174/42/36 14/41/35 342/32/26 437/31/25
f 339/30/22 239/483/14 8/484/23
f 339/30/22 216/29/18 239/483/14
f 216/29/18 9/485/15 239/483/14
f 286/486/432 438/24/21 302/27/24 7/487/433
f 12/488/434 275/23/20 438/24/21 286/486/432
f 275/23/20 11/22/19 339/25/22 438/24/21
f 164/489/435 439/20/17 275/23/20 12/488/434
f 10/490/436 168/491/16 439/20/17 164/489/435
f 168/491/16 9/492/15 216/21/18 439/20/17
f 170/493/437 440/16/13 168/19/16 10/494/436
f 7/487/433 302/27/24 440/16/13 170/493/437
f 302/27/24 8/26/23 239/17/14 440/16/13
f 248/495/438 441/12/9 179/15/12 5/496/439
f 4/497/440 310/4/4 441/12/9 248/495/438
f 310/4/4 3/3/3 183/13/10 441/12/9
f 362/11/2 183/498/10 3/499/3
f 362/11/2 296/10/6 183/498/10
f 296/10/6 6/500/11 183/498/10
f 353/501/441 442/5/5 199/8/8 1/502/442
f 5/503/439 179/504/12 442/5/5 353/501/441
f 179/504/12 6/505/11 296/6/6 442/5/5
f 312/506/443 443/1/1 310/4/4 4/497/440
f 1/502/442 199/8/8 443/1/1 312/506/443
f 199/8/8 2/7/7 362/2/2 443/1/1
