# Blender v2.78 (sub 0) OBJ File: ''
# www.blender.org
mtllib Dead_Pine_Tree_OneSided_l_03.mtl
o Dead_Pine_Tree_OneSided_l_03
v 0.213869 5.962531 0.024547
v 0.888140 6.258302 -0.006220
v 0.893048 6.247411 -0.028277
v 0.219016 5.937832 -0.020169
v 0.233589 5.915291 0.023587
v 0.902515 6.238211 -0.006978
v -0.000495 9.575537 0.081092
v -0.371897 9.752730 0.321350
v -0.394110 9.741254 0.303596
v -0.034275 9.556305 0.051750
v -0.380892 9.767704 0.296131
v -0.015954 9.600348 0.042135
v 0.234595 2.967745 0.166918
v 0.508596 3.153057 0.561843
v 0.490678 3.139686 0.586322
v 0.204847 2.945446 0.204200
v 0.481528 3.168508 0.573180
v 0.192828 2.993384 0.186169
v -0.079327 4.094172 -0.184949
v -0.597238 4.397060 -0.621127
v -0.591605 4.386253 -0.643023
v -0.064098 4.068388 -0.226644
v -0.579180 4.406372 -0.635836
v -0.046357 4.115621 -0.217948
v 0.212988 7.292980 -0.132812
v 0.216939 10.848498 -0.098256
v 0.208346 10.840849 0.019932
v 0.181782 7.250809 0.091650
v 0.015973 7.247647 0.135674
v 0.098047 10.840992 0.049436
v 0.032585 10.836329 -0.048939
v -0.093649 7.207201 -0.051760
v 0.049025 7.276862 -0.221856
v 0.110325 10.847087 -0.141236
v 0.140863 16.202457 -0.076208
v 0.137557 16.259863 -0.139112
v 0.036310 18.581402 -0.055985
v 0.041386 18.523354 -0.026693
v 0.029827 16.193008 -0.106079
v 0.093939 16.211945 -0.065512
v 0.011113 18.595844 -0.020902
v -0.013252 18.555967 -0.042173
v 0.080474 16.283594 -0.157860
v -0.000058 18.657883 -0.059042
v -0.265128 0.348747 -0.029858
v -0.147742 3.571131 -0.095200
v 0.037987 3.524363 -0.326725
v -0.047792 0.339816 -0.300364
v 0.275350 0.346713 0.168756
v 0.272749 3.569310 0.084172
v -0.018124 3.570000 0.162234
v -0.073032 0.346971 0.263939
v 0.289107 3.595314 -0.211952
v 0.271118 0.350898 -0.173319
v 0.003578 13.596099 -0.052019
v 0.077107 13.630033 -0.116891
v 0.146780 13.597740 -0.018701
v 0.059281 13.592010 0.004352
v 0.153586 13.636077 -0.092941
v 0.406407 4.705716 0.442192
v 0.626199 4.599937 0.456421
v 0.549253 4.719700 0.257835
v 0.158975 4.971428 0.122579
v 0.910835 4.365828 0.659209
v 1.081008 4.338037 0.426208
v 0.730176 4.304438 0.877322
v 1.165254 3.876662 1.345740
v 1.414024 3.965742 1.018750
v 1.455415 3.525253 1.609938
v 1.698399 3.572251 1.458986
v 1.670863 3.919457 0.687745
v 1.902431 3.518400 1.113513
v 2.019483 3.565210 0.864970
v 1.686971 3.731405 1.212463
v 2.074091 3.304248 1.480017
v 0.802425 3.992227 1.260612
v 1.499140 4.053229 0.377597
v -0.394815 6.596459 0.153356
v -0.479458 6.497260 0.325985
v -0.293531 6.607633 0.333396
v -0.054796 6.841706 0.065708
v -0.737517 6.280529 0.484612
v -0.605003 6.254671 0.702888
v -0.852410 6.227907 0.261293
v -1.374731 5.832751 0.448196
v -1.194868 5.909570 0.764925
v -1.682341 5.511303 0.588189
v -1.643307 5.548816 0.839097
v -1.011638 5.866442 1.087205
v -1.430027 5.500470 1.123102
v -1.268208 5.542135 1.304678
v -1.441514 5.693040 0.917118
v -1.783464 5.302130 1.133749
v -1.183445 5.945016 0.183300
v -0.702487 5.992941 1.055754
v 0.218616 8.777084 0.482346
v 0.378262 8.680272 0.590634
v 0.409958 8.786762 0.405591
v 0.176487 9.014836 0.129817
v 0.501334 8.469564 0.870870
v 0.734595 8.441803 0.768978
v 0.265414 8.418688 0.956219
v 0.381821 8.035236 1.504974
v 0.718641 8.109245 1.367158
v 0.479988 7.720992 1.833821
v 0.733244 7.758352 1.827397
v 1.061417 8.063562 1.229100
v 1.042111 7.706772 1.654707
v 1.242905 7.745688 1.517698
v 0.836847 7.898497 1.635260
v 1.006317 7.515850 2.009481
v 0.144914 8.142746 1.278880
v 1.070841 8.183628 0.916801
v -0.337713 9.293539 -0.328046
v -0.525121 9.225730 -0.280124
v -0.397372 9.306757 -0.141808
v -0.027555 9.473771 -0.138339
v -0.828880 9.068099 -0.366242
v -0.900827 9.046062 -0.135005
v -0.753763 9.014115 -0.591067
v -1.269156 8.724435 -0.849691
v -1.364747 8.800965 -0.518941
v -1.606343 8.473345 -0.985884
v -1.750477 8.524854 -0.796897
v -1.479502 8.765322 -0.186368
v -1.820544 8.477402 -0.467996
v -1.838794 8.511833 -0.237472
v -1.656838 8.641572 -0.601196
v -2.078884 8.336195 -0.714719
v -0.948798 8.783552 -0.881709
v -1.244999 8.842999 0.013685
v 0.507790 10.717482 -0.146391
v 0.591656 10.662579 -0.278369
v 0.438315 10.724600 -0.288645
v 0.217442 10.857751 -0.085839
v 0.819973 10.538406 -0.396091
v 0.733151 10.516158 -0.571081
v 0.902711 10.499063 -0.222188
v 1.353371 10.272738 -0.355979
v 1.222993 10.328213 -0.603441
v 1.630854 10.074224 -0.462067
v 1.608496 10.112637 -0.653604
v 1.104780 10.293081 -0.861378
v 1.466446 10.067820 -0.884272
v 1.347661 10.090971 -1.029479
v 1.442371 10.202480 -0.716874
v 1.757704 9.960024 -0.883014
v 1.183129 10.319652 -0.158851
v 0.854650 10.350609 -0.847974
v -0.077488 12.616843 0.184035
v -0.047904 12.546946 0.323420
v 0.061400 12.630009 0.243779
v 0.076455 12.798380 -0.021073
v -0.123110 12.388725 0.533110
v 0.051790 12.375895 0.601638
v -0.288288 12.344089 0.454639
v -0.501123 12.052850 0.800379
v -0.257042 12.117932 0.904120
v -0.611244 11.816921 1.022391
v -0.477692 11.850265 1.150881
v -0.005941 12.095229 1.010885
v -0.225986 11.823227 1.222011
v -0.051784 11.859424 1.255373
v -0.328461 11.959844 1.104976
v -0.423013 11.674275 1.387699
v -0.509860 12.131468 0.559587
v 0.157564 12.190586 0.853557
v 0.209332 14.863749 0.021595
v 0.281412 14.827628 0.022734
v 0.253603 14.867815 -0.041399
v 0.124242 14.953176 -0.079613
v 0.377109 14.748573 0.084881
v 0.429397 14.738770 0.005383
v 0.320643 14.729023 0.159546
v 0.469014 14.584908 0.306699
v 0.546378 14.613360 0.195107
v 0.566847 14.467037 0.388883
v 0.644827 14.481414 0.335366
v 0.625594 14.597109 0.081926
v 0.706371 14.462974 0.218236
v 0.741318 14.478099 0.134522
v 0.638079 14.534305 0.254446
v 0.767505 14.390909 0.336139
v 0.348734 14.625123 0.284441
v 0.564879 14.642580 -0.017482
v 0.212828 6.037451 -0.605047
v 0.125168 5.945452 -0.780141
v 0.007808 6.048471 -0.630410
v 0.079229 6.267023 -0.269056
v 0.152762 5.742639 -1.091323
v -0.101337 5.716249 -1.116039
v 0.400917 5.689819 -1.052985
v 0.564276 5.319892 -1.601043
v 0.202237 5.396316 -1.641749
v 0.637006 5.014039 -1.945593
v 0.411951 5.055378 -2.061898
v -0.165505 5.352902 -1.688433
v 0.057100 5.004732 -2.061926
v -0.185391 5.043835 -2.038262
v 0.228202 5.193111 -1.939936
v 0.260251 4.820888 -2.360760
v 0.662479 5.418708 -1.284886
v -0.325117 5.466290 -1.415977
v -0.057193 16.144766 -0.136737
v -0.101741 16.121021 -0.101941
v -0.051664 16.147455 -0.078434
v 0.047323 16.204142 -0.119911
v -0.192587 16.068428 -0.090900
v -0.184501 16.060329 -0.019072
v -0.197781 16.053886 -0.161957
v -0.364902 15.958109 -0.174293
v -0.353125 15.978914 -0.071547
v -0.469298 15.877037 -0.173798
v -0.487231 15.889595 -0.104430
v -0.344520 15.965879 0.033062
v -0.466618 15.873863 -0.006216
v -0.444839 15.883613 0.059516
v -0.440286 15.926007 -0.060840
v -0.564347 15.827143 -0.044515
v -0.281886 15.981698 -0.220530
v -0.257806 15.993233 0.060855
v 0.154415 14.920461 -0.039907
v -0.285117 11.892881 1.160199
v -0.112789 11.944566 1.137487
v 0.452686 7.833123 1.727642
v 0.303372 3.586371 -0.062461
v 0.214244 9.106142 -0.112383
v -0.009238 18.674982 -0.046959
v -0.396489 11.910400 1.132783
v -0.559128 11.842046 1.059543
v -1.184042 8.912494 -0.136483
v 0.008707 17.500645 -0.075731
v -0.405844 12.200965 0.610384
v 0.060597 9.081434 0.093288
v 0.289327 5.880050 -0.816141
v 1.458054 10.136911 -0.792491
v 0.166741 10.847794 -0.127844
v 0.137104 5.857072 -0.915029
v -1.099966 5.899637 0.925543
v 0.514713 4.654060 0.449749
v 1.377187 10.087944 -0.969022
v -0.628614 9.188583 -0.149344
v -1.582648 5.625783 0.547384
v -0.130059 12.115132 0.955610
v -1.735958 5.402573 1.028340
v -1.111421 6.034515 0.327088
v 0.156797 13.617670 -0.055826
v 0.147229 14.954000 -0.119584
v -0.004320 18.648933 -0.030692
v -0.573747 11.901035 0.952991
v 1.447732 3.703343 1.432434
v -0.853071 9.068299 -0.250517
v 0.789417 4.545845 0.347265
v -0.028743 9.578739 0.041905
v 0.901743 10.409587 -0.727018
v -0.215840 1.784430 -0.064018
v 0.590873 14.478805 0.366423
v 1.530771 3.561911 1.545267
v -0.002163 5.405282 0.147641
v 0.075268 12.737516 0.079309
v 0.786273 7.992402 1.521024
v 0.269436 8.932137 0.229869
v -0.215700 9.647036 0.177156
v 0.585232 14.609550 0.137452
v 0.385162 14.658447 0.236821
v 0.022581 12.258444 -0.047966
v 0.090302 17.488152 -0.052937
v -0.017564 9.560818 0.069976
v 0.273448 5.729397 -1.062507
v -0.796288 5.973588 1.054712
v -1.650081 5.371157 1.126879
v 0.984224 4.366926 0.538904
v 0.024606 13.592634 -0.020240
v 0.796265 7.835298 1.729434
v 0.373602 3.060308 0.362789
v 0.173756 14.922238 -0.067428
v -0.140324 6.756828 0.171018
v 0.171494 3.558058 -0.290755
v 0.036687 18.614721 -0.039256
v -0.611453 4.411082 -0.659059
v -0.434481 15.919153 -0.142199
v -0.102632 3.574011 0.046225
v -1.187590 5.654510 1.229967
v 0.145361 14.904528 -0.051008
v 0.569054 6.075045 0.009395
v 0.928790 7.804928 1.649356
v -0.619285 4.407177 -0.652864
v 0.769423 10.536291 -0.477190
v -0.430164 9.260547 -0.304850
v 0.930036 6.258642 -0.018205
v 0.579666 10.630346 -0.412164
v 0.081343 9.101872 -0.178063
v -0.157250 5.542965 -1.391860
v 1.348472 10.259163 -0.668179
v 1.522670 10.163045 -0.693390
v -1.813439 8.506215 -0.316621
v -0.471425 15.886220 -0.148966
v 0.743500 14.415930 0.292123
v 0.381881 8.457512 0.903786
v 0.287909 1.793753 -0.198720
v -0.120547 5.383667 -0.076483
v 0.579657 14.635849 0.014309
v 1.226643 10.317902 -0.221047
v 1.074450 7.865042 1.459658
v 0.102216 7.249784 0.130639
v -0.190175 12.253130 0.718888
v 0.221526 8.127453 1.339501
v -1.072786 6.043787 0.219701
v 0.311789 0.348806 -0.000533
v 0.550244 6.112189 0.010343
v -0.098259 5.039152 -2.027483
v 0.547133 8.084073 1.434617
v 0.723987 14.427845 0.336704
v 0.225006 5.406111 0.087046
v -0.076406 16.134563 -0.089916
v -0.110810 11.853830 1.229982
v -1.097208 8.934336 -0.442704
v -1.538568 5.671330 0.645944
v 1.958774 3.559267 0.943321
v 0.346416 14.743814 0.119495
v -0.184574 6.751947 0.092361
v 0.111230 16.278921 -0.153459
v 0.154154 5.101146 -1.999511
v 0.263969 14.802665 0.082650
v 1.648356 9.996142 -0.881609
v -0.966529 6.094776 0.624975
v 0.284072 1.779681 0.130496
v 0.309340 5.131269 -2.004515
v -0.444373 11.746145 1.304020
v 0.927761 10.346897 -0.843010
v 1.300000 10.168073 -0.892007
v 0.852602 10.527767 -0.306876
v -0.033728 7.239223 -0.148156
v 0.217333 5.283808 -1.812667
v -0.505192 11.937030 0.990333
v -1.656124 5.542705 0.672518
v -0.069867 3.544256 -0.226243
v 0.078327 14.906779 -0.034326
v 0.624712 5.405983 -1.375638
v 0.431625 8.588471 0.712085
v 0.105020 13.592826 -0.002107
v -0.404591 9.762960 0.312759
v 0.007664 12.589413 0.283323
v 1.379656 4.138606 0.527988
v 0.536631 14.509088 0.361479
v -0.298268 12.030218 1.019283
v 0.549402 10.690776 -0.211243
v 0.508554 3.168876 0.587007
v -0.031283 5.897285 -0.855804
v 0.251366 8.614554 0.699938
v 0.587661 4.661201 0.355602
v 1.285997 10.309165 -0.476686
v 0.702764 14.519382 0.118981
v 0.688311 10.619212 -0.189707
v 0.079946 12.254074 0.026193
v -0.260074 16.015228 0.012970
v 0.027988 5.742593 -1.092872
v 0.322894 14.793185 0.049662
v 0.118806 13.635990 -0.110429
v -0.445100 6.446743 0.495660
v -0.185488 16.067945 -0.056261
v 0.385079 14.619418 0.287776
v 0.598940 14.569525 0.229214
v 0.913919 8.261262 0.978654
v 1.786714 3.627329 1.173380
v -0.192107 16.064726 -0.126064
v -0.113968 16.107914 -0.054083
v 0.170044 5.992538 -0.691568
v -0.501155 12.120628 0.630959
v 1.162799 4.165491 0.839244
v -0.311370 4.262687 -0.427441
v -0.202015 0.347859 0.138215
v 0.123648 0.345357 -0.272014
v 0.528323 14.671211 0.034051
v -0.062725 4.110479 -0.197697
v 0.193562 2.969662 0.199352
v 0.385305 5.369876 -1.618296
v -0.063264 12.582689 0.252813
v 0.819572 10.409419 -0.750079
v -0.339521 4.245716 -0.401121
v -0.400661 9.756389 0.323911
v -0.447188 15.882471 0.034737
v 0.690656 10.608399 -0.329431
v 0.048688 12.513941 0.407580
v -0.460631 9.267298 -0.209742
v 0.228089 5.921067 -0.001738
v -0.403036 15.949711 -0.065467
v 1.704846 10.024132 -0.800183
v -1.532808 8.610271 -0.843118
v 0.566718 5.513759 -1.213323
v 1.161587 7.741576 1.550318
v 1.570385 3.835900 1.130055
v 0.080862 14.963153 -0.140752
v 0.193326 9.082488 0.057955
v -0.268305 5.450666 -1.491492
v 1.702425 3.659805 1.327482
v 0.210070 7.271766 -0.018511
v -0.304895 15.979315 -0.204596
v -0.065529 5.159416 -1.902311
v 0.912226 3.976807 1.275995
v -0.890158 8.865434 -0.777804
v -1.643823 8.506631 -0.912582
v -0.051157 7.223537 0.050639
v -0.079229 16.133192 -0.119690
v 0.246215 4.874199 0.247481
v 0.131609 3.567420 0.145764
v 0.610964 8.469099 0.811891
v 0.550585 8.629689 0.579909
v 0.040249 17.571270 -0.112266
v 1.269787 10.162008 -0.971268
v -0.385255 6.553690 0.330186
v -0.003223 18.813492 -0.033327
v 0.185913 4.884389 -2.246548
v -0.027261 9.055296 -0.048331
v 0.316012 4.917061 -2.255412
v 0.041511 12.242678 0.803956
v -0.786139 6.069554 0.908197
v -0.186030 0.344281 -0.189372
v 0.064715 10.841709 -0.100546
v -0.198301 9.685925 0.167733
v -0.122614 16.103708 -0.145257
v -0.453719 15.900589 -0.036797
v 0.399421 14.748688 0.044076
v 1.819361 3.696706 0.904943
v 0.308622 4.880308 0.166937
v 0.017424 18.653187 -0.057219
v 0.644579 14.510448 0.292044
v -0.035540 12.392185 0.559553
v 0.297048 8.729792 0.536125
v 0.669769 14.499469 0.239894
v -0.007753 1.750149 -0.323565
v 0.223657 2.951142 0.185435
v 0.065345 5.998166 -0.704520
v -0.168505 12.493355 0.314152
v 1.539896 10.146603 -0.430645
v 0.185841 8.927909 0.263403
v 1.285548 3.934526 1.182637
v -0.463996 15.909801 -0.079441
v -0.166722 9.413779 -0.133600
v -0.004416 9.592635 0.063096
v -0.140658 9.408004 -0.214965
v 0.506427 14.603551 0.251110
v 0.333201 14.809029 -0.015860
v 0.179071 12.258335 -0.000288
v 1.159979 10.319011 -0.731604
v 0.347306 3.040630 0.396862
v 0.244862 14.846102 0.022337
v -0.664465 6.281206 0.585774
v 0.251134 5.443837 -0.175334
v 0.057916 16.198664 -0.083247
v 0.676710 14.522526 0.150968
v 2.006522 3.378428 1.343043
v 0.016530 14.896507 -0.081868
v -0.613747 4.415586 -0.649614
v 0.555933 7.877971 1.696086
v 0.120570 16.206482 -0.066549
v 0.609702 5.123552 -1.836184
v 0.114543 12.255085 0.769422
v -1.418006 8.793576 -0.350298
v 0.143094 16.228790 -0.107177
v 0.138719 7.291189 -0.193715
v 0.927792 6.263218 -0.008772
v 0.177536 5.569222 -1.366941
v 0.102835 12.175376 0.894918
v 1.124631 10.387195 -0.267905
v 0.327483 10.806718 -0.103572
v 0.185827 12.278559 -0.091873
v -0.184810 9.663979 0.203137
v -0.358097 15.971804 -0.123667
v -1.311253 5.537386 1.228162
v 0.503508 5.508355 -1.308643
v 1.089362 10.383404 -0.187686
v -1.961282 8.415420 -0.745543
v 0.566820 7.752038 1.818341
v 0.016754 5.386086 -1.661622
v 0.342800 14.661446 0.241019
v 0.297130 10.809830 -0.165721
v 0.195410 8.239212 1.172292
v 0.555791 6.092556 -0.026494
v -0.412688 15.914745 0.018186
v 0.213943 5.955521 -0.001052
v -0.240446 5.553826 -1.318556
v -1.498736 8.564745 -0.938476
v -0.080470 12.478020 0.414310
v -1.130357 8.914925 -0.045628
v -0.990308 8.870590 -0.736422
v 0.610147 8.289139 1.119379
v -1.336528 5.789419 0.852075
v -0.174085 5.151273 -1.924076
v -1.980257 8.383795 -0.623631
v 1.940457 3.413959 1.475041
v 0.035104 13.612837 -0.087598
v -1.719952 8.600742 -0.225137
v 1.356478 4.152793 0.405131
v 0.221304 10.844674 -0.038708
v -1.306040 8.836339 -0.053137
v 1.539627 4.033880 0.476025
v -0.436979 6.547984 0.238243
v -0.050114 1.779908 0.221196
v -0.141126 16.098093 -0.097148
v -0.349801 11.726156 1.323570
v 0.113123 0.346842 0.252858
v 0.044869 5.395963 -0.278528
v 0.058042 10.838661 0.004972
v -0.040443 11.941059 1.174721
v -0.234621 16.016869 0.031580
v 1.540099 3.955629 0.849867
v 0.049850 16.238018 -0.134339
v -1.233273 5.928475 0.267371
v -0.781644 9.052472 -0.473489
v -1.539185 5.627851 0.889026
v -1.284000 5.883047 0.603324
v -0.785727 6.267826 0.370221
v -0.591286 6.402847 0.394755
v 1.902973 3.688196 0.811905
v -0.527300 15.843100 -0.030797
v 1.021780 10.433155 -0.499918
v -0.535319 9.167912 -0.440583
v -0.282353 15.990171 0.049681
v -0.380313 12.094044 0.849879
v -0.201823 12.376423 0.488024
v -0.656846 9.156961 -0.317439
v 0.889941 8.097939 1.294581
v 0.394762 8.734735 0.496928
v -0.603488 6.429268 0.214113
v 0.749591 4.497931 0.544292
v -0.431288 12.205850 0.530481
v 1.365807 3.650873 1.522154
v -0.394753 9.767992 0.320552
v 0.046089 6.187911 -0.404158
v 0.461868 14.680868 0.140075
v 0.026134 18.588516 -0.021913
v 0.512664 3.156234 0.592887
v -0.537091 15.852993 -0.066259
v 0.267470 14.848181 -0.009833
v 0.908278 7.614818 1.946706
v -1.441569 5.598969 1.010072
v 0.566035 4.523977 0.635563
v -1.531715 8.713337 -0.566208
v -0.051585 4.091669 -0.227942
v 0.500693 3.163013 0.597848
v 1.057509 8.166147 1.009795
v 0.813201 4.350184 0.759626
v 0.562518 14.526071 0.330674
v 1.179569 7.855997 1.425974
v 0.095800 12.273039 -0.123436
v 0.055294 17.497047 -0.044738
v 0.722502 14.476369 0.161294
v -0.328012 4.225529 -0.436202
v 0.135660 6.183096 -0.393077
v 1.505695 10.181589 -0.505904
v -0.347588 15.975586 -0.018999
v 0.085675 17.548281 -0.098836
v 1.017006 7.582086 1.875334
v 0.917853 4.094590 1.121319
v -0.075472 4.076033 -0.203902
v -0.435701 15.906271 -0.172782
v 0.503985 5.169427 -1.857420
v 0.014590 12.731766 0.053207
v 1.611186 10.099789 -0.526211
v -0.678214 6.084219 0.931650
v 0.010743 16.183659 -0.102620
v -1.235087 5.662930 1.129979
v -0.412283 15.912342 0.049552
v 0.518839 14.676174 -0.006069
v -1.735048 8.561423 -0.544989
v 0.951268 8.273852 0.874726
v 0.224443 5.939065 0.030754
v -0.277470 16.006794 -0.175023
v -0.272974 16.023605 -0.081209
v 0.008327 16.182482 -0.128092
v -1.708201 8.590218 -0.689577
v 0.553449 5.046186 -1.973330
v 0.155442 10.840919 0.043062
v 0.335627 3.082976 0.379665
v 0.513923 10.694414 -0.283890
v -1.312475 8.773450 -0.685423
v 0.923604 6.267036 -0.017863
v -0.254847 16.007137 -0.198282
v 0.215050 2.985771 0.172500
v -1.040858 8.781313 -0.863300
v 0.296547 8.231019 1.224761
v 0.788894 4.101576 1.127901
v -1.679192 8.606010 -0.321957
v -0.132839 16.100538 -0.123584
v -0.266660 16.022129 -0.035667
v -0.403600 15.936428 -0.025106
v -0.500240 15.873421 -0.052729
v -0.415034 15.939967 -0.103573
v -0.275302 16.017925 -0.126799
v -0.128049 16.102867 -0.073072
v -0.029066 16.161545 -0.110702
v 0.222135 5.867077 -0.867062
v 0.015713 5.565609 -1.379213
v 0.077960 5.237221 -1.842502
v 0.242688 4.996283 -2.142570
v 0.357239 5.246845 -1.823454
v 0.336175 5.548382 -1.339569
v 0.044512 5.876625 -0.889036
v 0.102771 6.102231 -0.530965
v 0.292345 14.797345 0.069341
v 0.494149 14.679579 0.088924
v 0.632678 14.552005 0.188250
v 0.700402 14.458702 0.293360
v 0.577700 14.555466 0.276922
v 0.424949 14.673218 0.187388
v 0.330701 14.800871 0.014765
v 0.204785 14.888840 -0.027164
v -0.131016 12.484304 0.363430
v -0.078552 12.254723 0.760344
v -0.204497 11.999194 1.067712
v -0.372705 11.809475 1.240960
v -0.397690 11.998867 0.997733
v -0.295644 12.234147 0.666959
v -0.010688 12.495710 0.415191
v 0.012726 12.669531 0.155465
v 0.694245 10.612977 -0.254479
v 0.963093 10.428684 -0.609454
v 1.314117 10.224098 -0.772027
v 1.595390 10.072345 -0.798120
v 1.416461 10.234591 -0.583741
v 1.071688 10.417556 -0.387100
v 0.634053 10.619145 -0.377724
v 0.409211 10.757734 -0.184502
v -0.595976 9.161192 -0.387601
v -1.138435 8.932348 -0.294549
v -1.589592 8.672763 -0.442967
v -1.862084 8.477964 -0.655332
v -1.520052 8.679609 -0.698979
v -1.045183 8.911687 -0.585652
v -0.647663 9.172645 -0.226251
v -0.282537 9.346661 -0.210998
v 0.334402 8.600019 0.711579
v 0.757233 8.284712 1.051761
v 0.921571 7.944705 1.478613
v 0.918995 7.696695 1.814600
v 0.668808 7.955667 1.597247
v 0.458152 8.269585 1.171734
v 0.500174 8.608404 0.645081
v 0.279889 8.843387 0.365966
v -0.603824 6.414453 0.298115
v -0.879880 6.091644 0.762204
v -1.275628 5.742427 0.980792
v -1.604906 5.487238 1.021810
v -1.427017 5.751122 0.745297
v -1.038194 6.074178 0.480789
v -0.516074 6.424134 0.454097
v -0.272417 6.665192 0.199089
v 0.654096 4.509171 0.599418
v 1.267918 4.162745 0.689072
v 1.679263 3.784143 1.011116
v 1.873770 3.505860 1.340095
v 1.499945 3.792675 1.271572
v 1.044639 4.140887 0.977236
v 0.777853 4.521286 0.439696
v 0.398408 4.781055 0.293659
v 0.013594 18.808088 -0.033096
v 0.151544 14.928461 -0.085056
v 0.190087 12.268827 -0.045856
v 0.042033 14.899024 -0.055026
v 0.044214 12.255548 -0.006728
v 0.116882 14.963639 -0.135411
v 0.144098 12.277266 -0.114460
v 0.114423 14.904271 -0.037978
v 0.131626 12.255180 0.019675
v 0.043427 14.929573 -0.114067
v 0.053201 12.265627 -0.090002
v 0.255634 5.426939 -0.042394
v 0.311671 1.788747 -0.032741
v -0.077364 5.394254 0.046274
v -0.155177 1.783892 0.092883
v 0.155831 5.422143 -0.245829
v 0.148546 1.771062 -0.285040
v 0.115239 5.404858 0.137112
v 0.123614 1.778677 0.200818
v -0.051042 5.386665 -0.190820
v -0.130380 1.765545 -0.210530
v 0.020666 17.536825 -0.095764
v 0.074953 17.490227 -0.045720
v 0.064171 17.565441 -0.108951
v 0.029293 17.496330 -0.058434
v 0.091145 17.516569 -0.075639
v 0.017963 9.077180 -0.121600
v 0.129754 9.082240 0.088299
v 0.153203 9.107141 -0.157462
v 0.006871 9.066422 0.029182
v 0.214458 9.094252 -0.025952
v -0.325205 4.256887 -0.412227
v -0.317833 4.243958 -0.434697
v -0.335865 4.233088 -0.417839
v 0.355299 3.074547 0.368826
v 0.338457 3.061943 0.390649
v 0.362780 3.047423 0.379841
v -0.189294 9.677567 0.186211
v -0.209079 9.666716 0.169570
v -0.200438 9.652657 0.192246
v 0.563563 6.081141 -0.010319
v 0.560010 6.093716 0.013276
v 0.551515 6.104933 -0.009712
vt 0.8479 0.9092
vt 0.8417 0.9092
vt 0.8417 0.9090
vt 0.8479 0.9088
vt 0.8479 0.9099
vt 0.8417 0.9095
vt 0.8417 0.9094
vt 0.8479 0.9095
vt 0.8416 0.9267
vt 0.8417 0.9266
vt 0.8418 0.9267
vt 0.8479 0.9085
vt 0.8417 0.9088
vt 0.8416 0.9086
vt 0.8478 0.9081
vt 0.8460 0.9132
vt 0.8503 0.9130
vt 0.8504 0.9133
vt 0.8461 0.9136
vt 0.8460 0.9116
vt 0.8503 0.9118
vt 0.8502 0.9121
vt 0.8459 0.9120
vt 0.8459 0.9124
vt 0.8502 0.9124
vt 0.8502 0.9127
vt 0.8459 0.9129
vt 0.8416 0.9243
vt 0.8418 0.9241
vt 0.8419 0.9243
vt 0.8460 0.9148
vt 0.8417 0.9151
vt 0.8416 0.9148
vt 0.8459 0.9144
vt 0.8460 0.9165
vt 0.8417 0.9162
vt 0.8417 0.9160
vt 0.8460 0.9161
vt 0.8460 0.9157
vt 0.8417 0.9157
vt 0.8417 0.9154
vt 0.8461 0.9153
vt 0.8416 0.9249
vt 0.8416 0.9246
vt 0.8419 0.9248
vt 0.8479 0.9034
vt 0.8541 0.9030
vt 0.8542 0.9032
vt 0.8479 0.9037
vt 0.8479 0.9019
vt 0.8541 0.9023
vt 0.8540 0.9025
vt 0.8478 0.9023
vt 0.8478 0.9027
vt 0.8540 0.9027
vt 0.8541 0.9029
vt 0.8478 0.9030
vt 0.8416 0.9263
vt 0.8417 0.9261
vt 0.8418 0.9263
vt 0.8235 0.9145
vt 0.8232 0.9395
vt 0.8220 0.9395
vt 0.8220 0.9143
vt 0.8317 0.9145
vt 0.8299 0.9398
vt 0.8288 0.9397
vt 0.8304 0.9141
vt 0.8262 0.9148
vt 0.8254 0.9395
vt 0.8243 0.9395
vt 0.8249 0.9147
vt 0.8209 0.9143
vt 0.8209 0.9395
vt 0.8197 0.9395
vt 0.8197 0.9143
vt 0.8289 0.9145
vt 0.8277 0.9396
vt 0.8265 0.9396
vt 0.8275 0.9148
vt 0.8382 0.9416
vt 0.8386 0.9423
vt 0.8389 0.9595
vt 0.8386 0.9588
vt 0.8408 0.9415
vt 0.8413 0.9418
vt 0.8409 0.9581
vt 0.8406 0.9585
vt 0.8390 0.9425
vt 0.8393 0.9427
vt 0.8397 0.9598
vt 0.8393 0.9597
vt 0.8371 0.9414
vt 0.8377 0.9410
vt 0.8383 0.9581
vt 0.8380 0.9582
vt 0.8398 0.9419
vt 0.8404 0.9412
vt 0.8402 0.9589
vt 0.8399 0.9593
vt 0.8098 0.9130
vt 0.8082 0.9372
vt 0.8060 0.9364
vt 0.8073 0.9125
vt 0.8066 0.9620
vt 0.8051 0.9868
vt 0.8033 0.9874
vt 0.8047 0.9619
vt 0.7949 0.9129
vt 0.7951 0.9372
vt 0.7927 0.9372
vt 0.7923 0.9129
vt 0.7955 0.9618
vt 0.7959 0.9865
vt 0.7947 0.9866
vt 0.7937 0.9619
vt 0.8049 0.9129
vt 0.8039 0.9371
vt 0.8018 0.9378
vt 0.8025 0.9132
vt 0.8029 0.9622
vt 0.8019 0.9874
vt 0.8005 0.9874
vt 0.8011 0.9626
vt 0.8147 0.9136
vt 0.8126 0.9380
vt 0.8104 0.9379
vt 0.8123 0.9135
vt 0.8105 0.9623
vt 0.8084 0.9866
vt 0.8068 0.9861
vt 0.8086 0.9620
vt 0.8000 0.9130
vt 0.7996 0.9374
vt 0.7974 0.9371
vt 0.7975 0.9129
vt 0.7992 0.9622
vt 0.7988 0.9870
vt 0.7971 0.9865
vt 0.7973 0.9618
vt 0.8265 0.9576
vt 0.8275 0.9575
vt 0.8261 0.9753
vt 0.8253 0.9755
vt 0.8397 0.9067
vt 0.8404 0.9061
vt 0.8405 0.9235
vt 0.8397 0.9245
vt 0.8212 0.9572
vt 0.8221 0.9572
vt 0.8223 0.9750
vt 0.8216 0.9750
vt 0.8360 0.9067
vt 0.8369 0.9063
vt 0.8372 0.9239
vt 0.8361 0.9247
vt 0.8247 0.9576
vt 0.8255 0.9576
vt 0.8246 0.9756
vt 0.8240 0.9757
vt 0.8385 0.9072
vt 0.8390 0.9074
vt 0.8390 0.9256
vt 0.8387 0.9253
vt 0.8283 0.9575
vt 0.8292 0.9575
vt 0.8273 0.9752
vt 0.8267 0.9753
vt 0.8410 0.9066
vt 0.8416 0.9070
vt 0.8416 0.9254
vt 0.8411 0.9245
vt 0.8230 0.9574
vt 0.8239 0.9576
vt 0.8234 0.9757
vt 0.8228 0.9754
vt 0.8375 0.9067
vt 0.8381 0.9072
vt 0.8384 0.9250
vt 0.8378 0.9245
vt 0.8422 0.9227
vt 0.8424 0.9225
vt 0.8427 0.9231
vt 0.8425 0.9234
vt 0.8416 0.9231
vt 0.8416 0.9226
vt 0.8419 0.9234
vt 0.6872 0.3490
vt 0.6893 0.3418
vt 0.6914 0.3459
vt 0.6893 0.3562
vt 0.6905 0.3336
vt 0.6939 0.3356
vt 0.6812 0.3121
vt 0.6751 0.3121
vt 0.6723 0.2989
vt 0.6797 0.2989
vt 0.6710 0.2888
vt 0.6768 0.2888
vt 0.7021 0.2989
vt 0.6975 0.2888
vt 0.7033 0.2888
vt 0.6820 0.2909
vt 0.6814 0.2787
vt 0.6843 0.2828
vt 0.6872 0.2763
vt 0.6843 0.2696
vt 0.6691 0.3043
vt 0.6963 0.3253
vt 0.6992 0.3121
vt 0.7024 0.3172
vt 0.6924 0.2909
vt 0.6872 0.2930
vt 0.6872 0.2870
vt 0.6901 0.2828
vt 0.6932 0.3121
vt 0.6872 0.3121
vt 0.6872 0.2989
vt 0.6946 0.2989
vt 0.6839 0.3336
vt 0.6872 0.3315
vt 0.6872 0.3377
vt 0.6851 0.3418
vt 0.9351 0.3490
vt 0.9372 0.3418
vt 0.9393 0.3459
vt 0.9372 0.3562
vt 0.9384 0.3336
vt 0.9418 0.3356
vt 0.9291 0.3121
vt 0.9232 0.3121
vt 0.9203 0.2989
vt 0.9277 0.2989
vt 0.9190 0.2888
vt 0.9248 0.2888
vt 0.9500 0.2989
vt 0.9455 0.2888
vt 0.9513 0.2888
vt 0.9299 0.2909
vt 0.9293 0.2787
vt 0.9322 0.2828
vt 0.9351 0.2763
vt 0.9322 0.2696
vt 0.9171 0.3043
vt 0.9443 0.3253
vt 0.9471 0.3121
vt 0.9503 0.3172
vt 0.9403 0.2909
vt 0.9351 0.2930
vt 0.9351 0.2870
vt 0.9381 0.2828
vt 0.9411 0.3121
vt 0.9351 0.3121
vt 0.9351 0.2989
vt 0.9426 0.2989
vt 0.9318 0.3336
vt 0.9351 0.3315
vt 0.9351 0.3377
vt 0.9331 0.3418
vt 0.8144 0.3490
vt 0.8165 0.3418
vt 0.8186 0.3459
vt 0.8165 0.3562
vt 0.8177 0.3336
vt 0.8210 0.3356
vt 0.8084 0.3121
vt 0.8023 0.3121
vt 0.7995 0.2989
vt 0.8069 0.2989
vt 0.7982 0.2888
vt 0.8040 0.2888
vt 0.8293 0.2989
vt 0.8248 0.2888
vt 0.8305 0.2888
vt 0.8092 0.2909
vt 0.8086 0.2787
vt 0.8115 0.2828
vt 0.8144 0.2763
vt 0.8115 0.2696
vt 0.7964 0.3043
vt 0.8235 0.3253
vt 0.8264 0.3121
vt 0.8296 0.3172
vt 0.8196 0.2909
vt 0.8144 0.2930
vt 0.8144 0.2870
vt 0.8173 0.2828
vt 0.8204 0.3121
vt 0.8144 0.3121
vt 0.8144 0.2989
vt 0.8219 0.2989
vt 0.8110 0.3336
vt 0.8144 0.3315
vt 0.8144 0.3377
vt 0.8123 0.3418
vt 0.6872 0.3490
vt 0.6893 0.3418
vt 0.6914 0.3459
vt 0.6893 0.3562
vt 0.6905 0.3336
vt 0.6939 0.3356
vt 0.6812 0.3121
vt 0.6751 0.3121
vt 0.6723 0.2989
vt 0.6797 0.2989
vt 0.6710 0.2888
vt 0.6768 0.2888
vt 0.7021 0.2989
vt 0.6975 0.2888
vt 0.7033 0.2888
vt 0.6820 0.2909
vt 0.6814 0.2787
vt 0.6843 0.2828
vt 0.6872 0.2763
vt 0.6843 0.2696
vt 0.6691 0.3043
vt 0.6963 0.3253
vt 0.6992 0.3121
vt 0.7024 0.3172
vt 0.6924 0.2909
vt 0.6872 0.2930
vt 0.6872 0.2870
vt 0.6901 0.2828
vt 0.6932 0.3121
vt 0.6872 0.3121
vt 0.6872 0.2989
vt 0.6946 0.2989
vt 0.6839 0.3336
vt 0.6872 0.3315
vt 0.6872 0.3377
vt 0.6851 0.3418
vt 0.8144 0.3490
vt 0.8165 0.3418
vt 0.8186 0.3459
vt 0.8165 0.3562
vt 0.8177 0.3336
vt 0.8210 0.3356
vt 0.8084 0.3121
vt 0.8023 0.3121
vt 0.7995 0.2989
vt 0.8069 0.2989
vt 0.7982 0.2888
vt 0.8040 0.2888
vt 0.8293 0.2989
vt 0.8248 0.2888
vt 0.8305 0.2888
vt 0.8092 0.2909
vt 0.8086 0.2787
vt 0.8115 0.2828
vt 0.8144 0.2763
vt 0.8115 0.2696
vt 0.7964 0.3043
vt 0.8235 0.3253
vt 0.8264 0.3121
vt 0.8296 0.3172
vt 0.8196 0.2909
vt 0.8144 0.2930
vt 0.8144 0.2870
vt 0.8173 0.2828
vt 0.8204 0.3121
vt 0.8144 0.3121
vt 0.8144 0.2989
vt 0.8219 0.2989
vt 0.8110 0.3336
vt 0.8144 0.3315
vt 0.8144 0.3377
vt 0.8123 0.3418
vt 0.6872 0.3490
vt 0.6893 0.3418
vt 0.6914 0.3459
vt 0.6893 0.3562
vt 0.6905 0.3336
vt 0.6939 0.3356
vt 0.6812 0.3121
vt 0.6751 0.3121
vt 0.6723 0.2989
vt 0.6797 0.2989
vt 0.6710 0.2888
vt 0.6768 0.2888
vt 0.7021 0.2989
vt 0.6975 0.2888
vt 0.7033 0.2888
vt 0.6820 0.2909
vt 0.6814 0.2787
vt 0.6843 0.2828
vt 0.6872 0.2763
vt 0.6843 0.2696
vt 0.6691 0.3043
vt 0.6963 0.3253
vt 0.6992 0.3121
vt 0.7024 0.3172
vt 0.6924 0.2909
vt 0.6872 0.2930
vt 0.6872 0.2870
vt 0.6901 0.2828
vt 0.6932 0.3121
vt 0.6872 0.3121
vt 0.6872 0.2989
vt 0.6946 0.2989
vt 0.6839 0.3336
vt 0.6872 0.3315
vt 0.6872 0.3377
vt 0.6851 0.3418
vt 0.9351 0.3490
vt 0.9372 0.3418
vt 0.9393 0.3459
vt 0.9372 0.3562
vt 0.9384 0.3336
vt 0.9418 0.3356
vt 0.9291 0.3121
vt 0.9232 0.3121
vt 0.9203 0.2989
vt 0.9277 0.2989
vt 0.9190 0.2888
vt 0.9248 0.2888
vt 0.9500 0.2989
vt 0.9455 0.2888
vt 0.9513 0.2888
vt 0.9299 0.2909
vt 0.9293 0.2787
vt 0.9322 0.2828
vt 0.9351 0.2763
vt 0.9322 0.2696
vt 0.9171 0.3043
vt 0.9443 0.3253
vt 0.9471 0.3121
vt 0.9503 0.3172
vt 0.9403 0.2909
vt 0.9351 0.2930
vt 0.9351 0.2870
vt 0.9381 0.2828
vt 0.9411 0.3121
vt 0.9351 0.3121
vt 0.9351 0.2989
vt 0.9426 0.2989
vt 0.9318 0.3336
vt 0.9351 0.3315
vt 0.9351 0.3377
vt 0.9331 0.3418
vt 0.9351 0.3490
vt 0.9372 0.3418
vt 0.9393 0.3459
vt 0.9372 0.3562
vt 0.9384 0.3336
vt 0.9418 0.3356
vt 0.9291 0.3121
vt 0.9232 0.3121
vt 0.9203 0.2989
vt 0.9277 0.2989
vt 0.9190 0.2888
vt 0.9248 0.2888
vt 0.9500 0.2989
vt 0.9455 0.2888
vt 0.9513 0.2888
vt 0.9299 0.2909
vt 0.9293 0.2787
vt 0.9322 0.2828
vt 0.9351 0.2763
vt 0.9322 0.2696
vt 0.9171 0.3043
vt 0.9443 0.3253
vt 0.9471 0.3121
vt 0.9503 0.3172
vt 0.9403 0.2909
vt 0.9351 0.2930
vt 0.9351 0.2870
vt 0.9381 0.2828
vt 0.9411 0.3121
vt 0.9351 0.3121
vt 0.9351 0.2989
vt 0.9426 0.2989
vt 0.9318 0.3336
vt 0.9351 0.3315
vt 0.9351 0.3377
vt 0.9331 0.3418
vt 0.9351 0.3490
vt 0.9372 0.3418
vt 0.9393 0.3459
vt 0.9372 0.3562
vt 0.9384 0.3336
vt 0.9418 0.3356
vt 0.9291 0.3121
vt 0.9232 0.3121
vt 0.9203 0.2989
vt 0.9277 0.2989
vt 0.9190 0.2888
vt 0.9248 0.2888
vt 0.9500 0.2989
vt 0.9455 0.2888
vt 0.9513 0.2888
vt 0.9299 0.2909
vt 0.9293 0.2787
vt 0.9322 0.2828
vt 0.9351 0.2763
vt 0.9322 0.2696
vt 0.9171 0.3043
vt 0.9443 0.3253
vt 0.9471 0.3121
vt 0.9503 0.3172
vt 0.9403 0.2909
vt 0.9351 0.2930
vt 0.9351 0.2870
vt 0.9381 0.2828
vt 0.9411 0.3121
vt 0.9351 0.3121
vt 0.9351 0.2989
vt 0.9426 0.2989
vt 0.9318 0.3336
vt 0.9351 0.3315
vt 0.9351 0.3377
vt 0.9331 0.3418
vt 0.9285 0.3356
vt 0.9310 0.3459
vt 0.9260 0.3253
vt 0.9305 0.3253
vt 0.9351 0.3253
vt 0.9397 0.3253
vt 0.9410 0.2787
vt 0.9532 0.3040
vt 0.9564 0.3091
vt 0.9200 0.3174
vt 0.9139 0.3096
vt 0.9381 0.2696
vt 0.9351 0.2606
vt 0.9468 0.2787
vt 0.9526 0.2787
vt 0.9235 0.2787
vt 0.9177 0.2787
vt 0.9331 0.3562
vt 0.9351 0.3666
vt 0.9285 0.3356
vt 0.9310 0.3459
vt 0.9260 0.3253
vt 0.9305 0.3253
vt 0.9351 0.3253
vt 0.9397 0.3253
vt 0.9410 0.2787
vt 0.9532 0.3040
vt 0.9564 0.3091
vt 0.9200 0.3174
vt 0.9139 0.3096
vt 0.9381 0.2696
vt 0.9351 0.2606
vt 0.9468 0.2787
vt 0.9526 0.2787
vt 0.9235 0.2787
vt 0.9177 0.2787
vt 0.9331 0.3562
vt 0.9351 0.3666
vt 0.9285 0.3356
vt 0.9310 0.3459
vt 0.9260 0.3253
vt 0.9305 0.3253
vt 0.9351 0.3253
vt 0.9397 0.3253
vt 0.9410 0.2787
vt 0.9532 0.3040
vt 0.9564 0.3091
vt 0.9200 0.3174
vt 0.9139 0.3096
vt 0.9381 0.2696
vt 0.9351 0.2606
vt 0.9468 0.2787
vt 0.9526 0.2787
vt 0.9235 0.2787
vt 0.9177 0.2787
vt 0.9331 0.3562
vt 0.9351 0.3666
vt 0.6805 0.3356
vt 0.6830 0.3459
vt 0.6780 0.3253
vt 0.6826 0.3253
vt 0.6872 0.3253
vt 0.6918 0.3253
vt 0.6930 0.2787
vt 0.7053 0.3040
vt 0.7084 0.3091
vt 0.6720 0.3174
vt 0.6660 0.3096
vt 0.6901 0.2696
vt 0.6872 0.2606
vt 0.6988 0.2787
vt 0.7046 0.2787
vt 0.6755 0.2787
vt 0.6697 0.2787
vt 0.6851 0.3562
vt 0.6872 0.3666
vt 0.8077 0.3356
vt 0.8102 0.3459
vt 0.8052 0.3253
vt 0.8098 0.3253
vt 0.8144 0.3253
vt 0.8189 0.3253
vt 0.8202 0.2787
vt 0.8325 0.3040
vt 0.8356 0.3091
vt 0.7992 0.3174
vt 0.7932 0.3096
vt 0.8173 0.2696
vt 0.8144 0.2606
vt 0.8260 0.2787
vt 0.8318 0.2787
vt 0.8027 0.2787
vt 0.7969 0.2787
vt 0.8123 0.3562
vt 0.8144 0.3666
vt 0.6805 0.3356
vt 0.6830 0.3459
vt 0.6780 0.3253
vt 0.6826 0.3253
vt 0.6872 0.3253
vt 0.6918 0.3253
vt 0.6930 0.2787
vt 0.7053 0.3040
vt 0.7084 0.3091
vt 0.6720 0.3174
vt 0.6660 0.3096
vt 0.6901 0.2696
vt 0.6872 0.2606
vt 0.6988 0.2787
vt 0.7046 0.2787
vt 0.6755 0.2787
vt 0.6697 0.2787
vt 0.6851 0.3562
vt 0.6872 0.3666
vt 0.8077 0.3356
vt 0.8102 0.3459
vt 0.8052 0.3253
vt 0.8098 0.3253
vt 0.8144 0.3253
vt 0.8189 0.3253
vt 0.8202 0.2787
vt 0.8325 0.3040
vt 0.8356 0.3091
vt 0.7992 0.3174
vt 0.7932 0.3096
vt 0.8173 0.2696
vt 0.8144 0.2606
vt 0.8260 0.2787
vt 0.8318 0.2787
vt 0.8027 0.2787
vt 0.7969 0.2787
vt 0.8123 0.3562
vt 0.8144 0.3666
vt 0.9285 0.3356
vt 0.9310 0.3459
vt 0.9260 0.3253
vt 0.9305 0.3253
vt 0.9351 0.3253
vt 0.9397 0.3253
vt 0.9410 0.2787
vt 0.9532 0.3040
vt 0.9564 0.3091
vt 0.9200 0.3174
vt 0.9139 0.3096
vt 0.9381 0.2696
vt 0.9351 0.2606
vt 0.9468 0.2787
vt 0.9526 0.2787
vt 0.9235 0.2787
vt 0.9177 0.2787
vt 0.9331 0.3562
vt 0.9351 0.3666
vt 0.6805 0.3356
vt 0.6830 0.3459
vt 0.6780 0.3253
vt 0.6826 0.3253
vt 0.6872 0.3253
vt 0.6918 0.3253
vt 0.6930 0.2787
vt 0.7053 0.3040
vt 0.7084 0.3091
vt 0.6720 0.3174
vt 0.6660 0.3096
vt 0.6901 0.2696
vt 0.6872 0.2606
vt 0.6988 0.2787
vt 0.7046 0.2787
vt 0.6755 0.2787
vt 0.6697 0.2787
vt 0.6851 0.3562
vt 0.6872 0.3666
vt 0.8419 0.9230
vt 0.8422 0.9238
vt 0.8416 0.9221
vt 0.8419 0.9219
vt 0.8421 0.9218
vt 0.8366 0.8887
vt 0.8371 0.8890
vt 0.8377 0.8893
vt 0.8404 0.8887
vt 0.8410 0.8887
vt 0.8416 0.8886
vt 0.8311 0.9399
vt 0.8383 0.8892
vt 0.8389 0.8891
vt 0.8352 0.9071
vt 0.8351 0.9255
vt 0.8352 0.8886
vt 0.8359 0.8887
vt 0.8203 0.9572
vt 0.8209 0.9750
vt 0.8397 0.8889
vt 0.8004 0.8886
vt 0.7977 0.8886
vt 0.8031 0.8886
vt 0.8147 0.9380
vt 0.8124 0.9626
vt 0.8101 0.9872
vt 0.8169 0.8893
vt 0.8141 0.8890
vt 0.8197 0.8896
vt 0.8172 0.9138
vt 0.8059 0.8887
vt 0.8086 0.8887
vt 0.7947 0.8886
vt 0.7918 0.8886
vt 0.8113 0.8888
vt 0.8364 0.9419
vt 0.8377 0.9583
vt 0.8302 0.8893
vt 0.8284 0.8900
vt 0.8319 0.8886
vt 0.8209 0.8892
vt 0.8197 0.8892
vt 0.8221 0.8891
vt 0.8270 0.8900
vt 0.8256 0.8900
vt 0.8335 0.8892
vt 0.8351 0.8898
vt 0.8331 0.9148
vt 0.8239 0.8895
vt 0.8419 0.9261
vt 0.8420 0.9263
vt 0.8418 0.9260
vt 0.8417 0.9026
vt 0.8416 0.9032
vt 0.8417 0.9021
vt 0.8417 0.9016
vt 0.8417 0.9010
vt 0.8479 0.9016
vt 0.8542 0.9021
vt 0.8417 0.9037
vt 0.8417 0.9043
vt 0.8419 0.9245
vt 0.8421 0.9247
vt 0.8416 0.9244
vt 0.8504 0.9157
vt 0.8504 0.9151
vt 0.8503 0.9162
vt 0.8503 0.9167
vt 0.8502 0.9173
vt 0.8459 0.9169
vt 0.8416 0.9165
vt 0.8503 0.9146
vt 0.8502 0.9141
vt 0.8420 0.9241
vt 0.8422 0.9243
vt 0.8419 0.9239
vt 0.8416 0.9124
vt 0.8416 0.9130
vt 0.8416 0.9119
vt 0.8417 0.9114
vt 0.8417 0.9108
vt 0.8461 0.9112
vt 0.8504 0.9116
vt 0.8417 0.9135
vt 0.8417 0.9140
vt 0.8541 0.9081
vt 0.8541 0.9076
vt 0.8542 0.9086
vt 0.8419 0.9266
vt 0.8420 0.9267
vt 0.8418 0.9264
vt 0.8541 0.9102
vt 0.8541 0.9097
vt 0.8541 0.9108
vt 0.8478 0.9102
vt 0.8416 0.9097
vt 0.8541 0.9092
vn -0.3657 0.7985 -0.4782
vn 0.2362 0.8837 -0.4041
vn 0.0131 0.0256 -0.9996
vn -0.0137 0.0158 -0.9998
vn 0.0525 -0.0005 0.9986
vn 0.6539 0.3404 0.6756
vn -0.2940 0.8047 0.5158
vn -0.3198 0.7953 0.5151
vn 0.3600 -0.7815 -0.5096
vn 0.8918 -0.1979 -0.4069
vn 0.4303 -0.7624 0.4834
vn 0.4033 -0.7781 0.4816
vn -0.0338 -0.8210 0.5699
vn -0.5645 -0.2364 0.7909
vn -0.6526 -0.7291 -0.2061
vn -0.5862 -0.7686 -0.2562
vn -0.5632 0.0482 -0.8249
vn -0.9194 0.3507 -0.1782
vn -0.0680 0.8600 -0.5058
vn -0.0068 0.8374 -0.5465
vn 0.5469 0.7889 0.2803
vn -0.1010 0.8329 0.5441
vn 0.4606 -0.0015 0.8876
vn 0.5247 -0.0314 0.8507
vn 0.5840 -0.8117 -0.0134
vn 0.8186 -0.2375 0.5230
vn -0.1655 -0.7496 0.6408
vn -0.2178 -0.7882 0.5756
vn -0.8001 0.0190 0.5996
vn -0.1432 0.3231 0.9355
vn -0.5161 0.8490 0.1133
vn -0.5591 0.8274 0.0534
vn 0.2433 0.8078 -0.5368
vn 0.5345 0.8392 0.0999
vn 0.8664 0.0260 -0.4987
vn 0.8273 -0.0027 -0.5618
vn -0.6293 -0.7460 0.2180
vn -0.9566 -0.1765 -0.2319
vn -0.0608 -0.7994 -0.5977
vn -0.0415 -0.8147 -0.5784
vn 0.5850 -0.0731 -0.8077
vn -0.0725 0.2844 -0.9560
vn 0.5827 0.7681 -0.2656
vn 0.6019 0.7590 -0.2483
vn 0.0152 0.8344 0.5509
vn -0.4036 0.9083 0.1102
vn -0.6357 0.0977 0.7657
vn -0.6154 0.0882 0.7833
vn 0.9931 -0.0021 0.1168
vn 0.9960 0.0099 0.0885
vn 0.7717 0.0159 0.6357
vn 0.7732 0.0074 0.6341
vn -0.8518 0.0324 0.5228
vn -0.8298 0.0146 0.5579
vn -0.9978 0.0152 -0.0645
vn -0.9970 0.0352 -0.0688
vn 0.4357 0.0127 -0.9000
vn 0.3849 0.0131 -0.9229
vn 0.8605 0.0121 -0.5093
vn 0.8886 0.0036 -0.4587
vn 0.2560 0.0193 0.9665
vn 0.2592 0.0202 0.9656
vn -0.3508 0.0206 0.9362
vn -0.3892 0.0308 0.9206
vn -0.7699 0.0295 -0.6374
vn -0.7562 0.0133 -0.6542
vn -0.2348 0.0157 -0.9719
vn -0.2275 0.0253 -0.9735
vn 0.9980 0.0456 -0.0440
vn 0.8110 0.0574 -0.5822
vn 0.7792 0.0719 -0.6226
vn 0.9905 0.1305 0.0439
vn -0.5644 -0.0326 0.8248
vn -0.2293 -0.0262 0.9730
vn -0.2462 -0.0009 0.9692
vn -0.7541 0.0250 0.6563
vn 0.2823 0.0508 -0.9580
vn -0.3049 0.0319 -0.9518
vn -0.3267 0.0802 -0.9417
vn 0.4860 0.1250 -0.8650
vn 0.2193 -0.0099 0.9756
vn 0.8118 0.0219 0.5835
vn 0.8084 0.0282 0.5880
vn 0.4418 0.0498 0.8957
vn -0.7520 0.0044 -0.6591
vn -0.9890 -0.0231 0.1458
vn -0.9880 -0.0219 0.1531
vn -0.9695 0.0566 -0.2384
vn -0.7780 0.0215 -0.6279
vn -0.7715 0.0198 -0.6359
vn -0.2364 0.0110 -0.9716
vn -0.2500 0.0005 -0.9682
vn -0.7729 0.0237 -0.6341
vn -0.7717 0.0266 -0.6354
vn -0.2246 0.0292 -0.9740
vn -0.2300 0.0280 -0.9728
vn 0.2620 0.0289 0.9646
vn 0.2593 0.0182 0.9656
vn -0.3969 0.0245 0.9175
vn -0.3735 0.0389 0.9268
vn 0.2559 0.0068 0.9667
vn 0.2532 0.0122 0.9673
vn -0.4068 0.0206 0.9133
vn -0.4079 0.0096 0.9130
vn 0.3912 -0.0131 -0.9202
vn 0.4118 0.0088 -0.9112
vn 0.8593 0.0136 -0.5113
vn 0.8388 -0.0096 -0.5444
vn 0.4382 0.0277 -0.8985
vn 0.4567 0.0214 -0.8894
vn 0.8995 0.0159 -0.4367
vn 0.8845 0.0285 -0.4657
vn -0.8636 0.0395 0.5026
vn -0.8829 0.0250 0.4689
vn -0.9939 0.0228 -0.1078
vn -0.9960 0.0351 -0.0827
vn -0.8812 0.0114 0.4726
vn -0.8669 0.0218 0.4980
vn -0.9963 0.0253 -0.0825
vn -0.9949 0.0172 -0.0994
vn 0.9999 0.0005 0.0163
vn 0.9984 0.0147 0.0547
vn 0.7811 0.0188 0.6241
vn 0.7875 0.0176 0.6160
vn 0.9948 0.0233 0.0990
vn 0.9920 0.0104 0.1262
vn 0.7707 0.0121 0.6371
vn 0.7730 0.0170 0.6342
vn -0.7185 -0.0048 -0.6955
vn -0.9977 -0.0088 -0.0670
vn -0.9992 -0.0006 -0.0409
vn -0.6806 -0.0089 -0.7326
vn -0.6831 -0.0089 -0.7303
vn -0.9998 0.0110 0.0187
vn -0.9958 -0.0030 0.0918
vn -0.7179 -0.0041 -0.6961
vn 0.2577 0.0203 0.9660
vn 0.7594 0.0259 0.6501
vn 0.7517 0.0239 0.6591
vn 0.2530 0.0228 0.9672
vn 0.2489 0.0230 0.9682
vn 0.7751 0.0161 0.6317
vn 0.8109 0.0152 0.5850
vn 0.2467 0.0075 0.9691
vn 0.3374 0.0116 -0.9413
vn -0.2350 0.0044 -0.9720
vn -0.2292 -0.0080 -0.9733
vn 0.3124 -0.0048 -0.9499
vn 0.3085 -0.0142 -0.9511
vn -0.2334 -0.0143 -0.9723
vn -0.2540 0.0111 -0.9671
vn 0.3172 0.0202 -0.9481
vn -0.7887 -0.0034 0.6148
vn -0.3033 0.0105 0.9528
vn -0.2505 0.0206 0.9679
vn -0.7185 0.0115 0.6954
vn -0.6282 0.0264 0.7776
vn -0.2125 0.0277 0.9768
vn -0.2058 -0.0025 0.9786
vn -0.5640 -0.0005 0.8258
vn 0.9963 0.0240 0.0829
vn 0.8389 0.0204 -0.5439
vn 0.8286 0.0042 -0.5598
vn 0.9970 0.0154 0.0756
vn 0.9997 0.0053 0.0235
vn 0.8177 -0.0054 -0.5756
vn 0.8159 0.0234 -0.5777
vn 0.9995 0.0221 -0.0208
vn 0.7446 0.6643 0.0655
vn 0.4013 0.8359 0.3744
vn 0.4430 0.8326 0.3325
vn 0.4370 0.8349 0.3346
vn 0.4032 0.8375 0.3688
vn 0.4833 0.8264 0.2889
vn 0.4942 0.8246 0.2755
vn 0.3059 0.8270 0.4717
vn 0.1770 0.8088 0.5608
vn 0.2714 0.7962 0.5407
vn 0.3223 0.8168 0.4785
vn 0.2636 0.7022 0.6614
vn 0.3009 0.7433 0.5975
vn 0.5645 0.7860 0.2523
vn 0.6068 0.7149 0.3474
vn 0.5437 0.7198 0.4316
vn 0.3570 0.7968 0.4874
vn 0.4373 0.7552 0.4883
vn 0.5141 0.7604 0.3969
vn 0.6392 0.7323 0.2348
vn 0.6298 0.7506 0.1998
vn 0.1022 0.7843 0.6119
vn 0.5059 0.8383 0.2033
vn 0.5313 0.8398 0.1117
vn 0.5547 0.8319 -0.0171
vn 0.6316 0.7341 0.2496
vn 0.4956 0.7989 0.3408
vn 0.5760 0.7625 0.2947
vn 0.6863 0.6967 0.2088
vn 0.4778 0.8403 0.2563
vn 0.4001 0.8385 0.3698
vn 0.4309 0.8254 0.3648
vn 0.5346 0.8006 0.2706
vn 0.3403 0.8124 0.4736
vn 0.4130 0.8264 0.3827
vn 0.4124 0.8269 0.3822
vn 0.3717 0.8256 0.4245
vn -0.5202 0.8191 0.2418
vn -0.4976 0.8152 0.2964
vn -0.4973 0.8177 0.2901
vn -0.5158 0.8207 0.2458
vn -0.4729 0.8085 0.3503
vn -0.4647 0.8065 0.3654
vn -0.5728 0.8114 0.1159
vn -0.6047 0.7956 -0.0377
vn -0.6224 0.7807 0.0569
vn -0.5852 0.8007 0.1283
vn -0.7284 0.6852 0.0011
vn -0.6848 0.7261 0.0610
vn -0.4696 0.7663 0.4385
vn -0.5719 0.6928 0.4393
vn -0.6253 0.6982 0.3486
vn -0.6064 0.7796 0.1564
vn -0.6372 0.7358 0.2292
vn -0.5828 0.7401 0.3355
vn -0.4811 0.7109 0.5130
vn -0.4456 0.7300 0.5183
vn -0.6223 0.7724 -0.1269
vn -0.4030 0.8209 0.4045
vn -0.3284 0.8230 0.4634
vn -0.2185 0.8163 0.5347
vn -0.4918 0.7126 0.5003
vn -0.5248 0.7799 0.3410
vn -0.5126 0.7419 0.4322
vn -0.4745 0.6744 0.5658
vn -0.4411 0.8230 0.3581
vn -0.5156 0.8218 0.2425
vn -0.5226 0.8078 0.2726
vn -0.4753 0.7815 0.4042
vn -0.5875 0.7958 0.1466
vn -0.5322 0.8092 0.2491
vn -0.5315 0.8097 0.2488
vn -0.5547 0.8089 0.1948
vn 0.1711 0.8298 0.5312
vn 0.2282 0.8256 0.5161
vn 0.2220 0.8280 0.5149
vn 0.1756 0.8313 0.5274
vn 0.2849 0.8185 0.4988
vn 0.3010 0.8165 0.4927
vn 0.0394 0.8228 0.5670
vn -0.1171 0.8071 0.5787
vn -0.0256 0.7928 0.6089
vn 0.0501 0.8123 0.5811
vn -0.0949 0.6993 0.7085
vn -0.0298 0.7395 0.6724
vn 0.3728 0.7766 0.5079
vn 0.3601 0.7051 0.6109
vn 0.2632 0.7113 0.6518
vn 0.0751 0.7918 0.6062
vn 0.1433 0.7488 0.6472
vn 0.2558 0.7523 0.6071
vn 0.4452 0.7216 0.5303
vn 0.4550 0.7400 0.4954
vn -0.2079 0.7841 0.5848
vn 0.3478 0.8298 0.4364
vn 0.4160 0.8306 0.3702
vn 0.5011 0.8219 0.2708
vn 0.4311 0.7235 0.5391
vn 0.2688 0.7910 0.5496
vn 0.3609 0.7530 0.5502
vn 0.4983 0.6851 0.5313
vn 0.2968 0.8324 0.4680
vn 0.1724 0.8324 0.5267
vn 0.2013 0.8187 0.5378
vn 0.3380 0.7918 0.5088
vn 0.0679 0.8075 0.5859
vn 0.1768 0.8201 0.5442
vn 0.1765 0.8206 0.5435
vn 0.1200 0.8201 0.5595
vn -0.3966 0.8980 -0.1908
vn -0.4221 0.8961 -0.1374
vn -0.4169 0.8979 -0.1413
vn -0.3963 0.8993 -0.1848
vn -0.4463 0.8910 -0.0831
vn -0.4522 0.8894 -0.0669
vn -0.3405 0.8860 -0.3148
vn -0.2515 0.8608 -0.4425
vn -0.3348 0.8568 -0.3923
vn -0.3593 0.8781 -0.3159
vn -0.3789 0.7713 -0.5115
vn -0.3876 0.8114 -0.4375
vn -0.5151 0.8568 -0.0226
vn -0.5949 0.7976 -0.1001
vn -0.5630 0.8018 -0.2005
vn -0.3972 0.8626 -0.3134
vn -0.4777 0.8298 -0.2885
vn -0.5188 0.8365 -0.1765
vn -0.5859 0.8102 0.0172
vn -0.5632 0.8249 0.0476
vn -0.2013 0.8322 -0.5166
vn -0.4377 0.8991 0.0055
vn -0.4310 0.8967 0.1003
vn -0.4114 0.8822 0.2291
vn -0.5834 0.8122 0.0008
vn -0.4783 0.8687 -0.1287
vn -0.5428 0.8378 -0.0594
vn -0.6257 0.7780 0.0564
vn -0.4286 0.9019 -0.0538
vn -0.3936 0.9001 -0.1868
vn -0.4224 0.8899 -0.1721
vn -0.4914 0.8695 -0.0494
vn -0.3751 0.8752 -0.3054
vn -0.4114 0.8904 -0.1950
vn -0.4106 0.8908 -0.1948
vn -0.3866 0.8882 -0.2483
vn 0.3986 0.9049 -0.1494
vn 0.3802 0.9018 -0.2056
vn 0.3791 0.9036 -0.1992
vn 0.3943 0.9061 -0.1535
vn 0.3602 0.8955 -0.2615
vn 0.3533 0.8935 -0.2772
vn 0.4441 0.8957 -0.0208
vn 0.4687 0.8733 0.1333
vn 0.4941 0.8685 0.0394
vn 0.4587 0.8880 -0.0330
vn 0.6103 0.7863 0.0963
vn 0.5645 0.8246 0.0363
vn 0.3689 0.8602 -0.3522
vn 0.4814 0.8034 -0.3505
vn 0.5276 0.8100 -0.2561
vn 0.4846 0.8726 -0.0608
vn 0.5263 0.8397 -0.1339
vn 0.4784 0.8438 -0.2433
vn 0.3935 0.8130 -0.4292
vn 0.3558 0.8268 -0.4357
vn 0.4842 0.8463 0.2219
vn 0.2927 0.9012 -0.3196
vn 0.2223 0.8964 -0.3834
vn 0.1194 0.8785 -0.4626
vn 0.4030 0.8154 -0.4157
vn 0.4153 0.8745 -0.2503
vn 0.4148 0.8422 -0.3445
vn 0.3959 0.7800 -0.4846
vn 0.3270 0.9055 -0.2705
vn 0.3937 0.9069 -0.1502
vn 0.4046 0.8965 -0.1806
vn 0.3700 0.8734 -0.3167
vn 0.4628 0.8850 -0.0514
vn 0.4124 0.8975 -0.1565
vn 0.4117 0.8979 -0.1561
vn 0.4314 0.8965 -0.1008
vn -0.2909 0.8182 0.4959
vn -0.2397 0.8163 0.5256
vn -0.2433 0.8186 0.5203
vn -0.2850 0.8200 0.4963
vn -0.1872 0.8115 0.5536
vn -0.1714 0.8101 0.5606
vn -0.4088 0.8061 0.4279
vn -0.5268 0.7853 0.3254
vn -0.4830 0.7729 0.4115
vn -0.4108 0.7956 0.4454
vn -0.5983 0.6743 0.4329
vn -0.5286 0.7176 0.4534
vn -0.1298 0.7720 0.6222
vn -0.2085 0.6971 0.6860
vn -0.3061 0.6991 0.6462
vn -0.4100 0.7750 0.4809
vn -0.3890 0.7329 0.5581
vn -0.2815 0.7412 0.6094
vn -0.0922 0.7186 0.6893
vn -0.0613 0.7384 0.6716
vn -0.5942 0.7593 0.2655
vn -0.0991 0.8266 0.5540
vn -0.0042 0.8315 0.5555
vn 0.1265 0.8285 0.5456
vn -0.1084 0.7199 0.6856
vn -0.2333 0.7819 0.5781
vn -0.1671 0.7468 0.6437
vn -0.0538 0.6838 0.7277
vn -0.1576 0.8267 0.5402
vn -0.2869 0.8210 0.4936
vn -0.2737 0.8079 0.5219
vn -0.1556 0.7861 0.5982
vn -0.4014 0.7912 0.4614
vn -0.2956 0.8084 0.5091
vn -0.2954 0.8089 0.5084
vn -0.3465 0.8062 0.4796
vn 0.4326 0.8277 0.3574
vn 0.4721 0.8239 0.3136
vn 0.4663 0.8263 0.3159
vn 0.4342 0.8293 0.3518
vn 0.5102 0.8172 0.2682
vn 0.5204 0.8152 0.2542
vn 0.3416 0.8200 0.4592
vn 0.2168 0.8036 0.5543
vn 0.3100 0.7896 0.5296
vn 0.3582 0.8095 0.4651
vn 0.3064 0.6952 0.6503
vn 0.3412 0.7359 0.5848
vn 0.5888 0.7755 0.2276
vn 0.6345 0.7034 0.3204
vn 0.5755 0.7091 0.4075
vn 0.3930 0.7889 0.4724
vn 0.4725 0.7460 0.4693
vn 0.5449 0.7502 0.3744
vn 0.6618 0.7207 0.2065
vn 0.6510 0.7394 0.1720
vn 0.1441 0.7802 0.6087
vn 0.5289 0.8290 0.1816
vn 0.5500 0.8304 0.0889
vn 0.5671 0.8227 -0.0408
vn 0.6549 0.7225 0.2216
vn 0.5245 0.7893 0.3193
vn 0.6020 0.7517 0.2694
vn 0.7069 0.6845 0.1781
vn 0.5033 0.8313 0.2359
vn 0.4311 0.8304 0.3530
vn 0.4615 0.8167 0.3464
vn 0.5601 0.7906 0.2474
vn 0.3758 0.8048 0.4594
vn 0.4444 0.8180 0.3651
vn 0.4438 0.8185 0.3648
vn 0.4051 0.8177 0.4089
vn 0.1103 0.8442 -0.5246
vn 0.0530 0.8406 -0.5391
vn 0.0579 0.8429 -0.5350
vn 0.1045 0.8457 -0.5234
vn -0.0050 0.8340 -0.5517
vn -0.0220 0.8321 -0.5542
vn 0.2428 0.8359 -0.4923
vn 0.3853 0.8180 -0.4271
vn 0.3199 0.8059 -0.4982
vn 0.2403 0.8259 -0.5100
vn 0.4285 0.7135 -0.5544
vn 0.3542 0.7540 -0.5533
vn -0.0775 0.7937 -0.6033
vn -0.0168 0.7243 -0.6893
vn 0.0878 0.7299 -0.6778
vn 0.2305 0.8063 -0.5447
vn 0.1906 0.7654 -0.6147
vn 0.0728 0.7698 -0.6341
vn -0.1302 0.7404 -0.6595
vn -0.1557 0.7581 -0.6332
vn 0.4676 0.7937 -0.3892
vn -0.0902 0.8449 -0.5273
vn -0.1820 0.8453 -0.5024
vn -0.3046 0.8357 -0.4569
vn -0.1136 0.7423 -0.6604
vn 0.0336 0.8074 -0.5891
vn -0.0467 0.7709 -0.6352
vn -0.1763 0.7048 -0.6872
vn -0.0303 0.8474 -0.5301
vn 0.1070 0.8467 -0.5212
vn 0.0870 0.8337 -0.5453
vn -0.0467 0.8084 -0.5868
vn 0.2270 0.8216 -0.5230
vn 0.1116 0.8349 -0.5390
vn 0.1115 0.8354 -0.5382
vn 0.1686 0.8343 -0.5248
vn -0.4889 0.8723 0.0061
vn -0.4911 0.8687 0.0652
vn -0.4880 0.8708 0.0595
vn -0.4864 0.8736 0.0114
vn -0.4914 0.8620 0.1245
vn -0.4903 0.8600 0.1416
vn -0.4861 0.8642 -0.1303
vn -0.4538 0.8448 -0.2834
vn -0.5099 0.8356 -0.2044
vn -0.5034 0.8551 -0.1240
vn -0.5929 0.7478 -0.2987
vn -0.5738 0.7872 -0.2262
vn -0.5285 0.8235 0.2063
vn -0.6291 0.7596 0.1651
vn -0.6399 0.7661 0.0604
vn -0.5362 0.8373 -0.1071
vn -0.5983 0.7995 -0.0533
vn -0.5919 0.8033 0.0659
vn -0.5750 0.7725 0.2696
vn -0.5430 0.7885 0.2889
vn -0.4356 0.8197 -0.3720
vn -0.4488 0.8704 0.2025
vn -0.4050 0.8681 0.2869
vn -0.3350 0.8545 0.3970
vn -0.5793 0.7747 0.2536
vn -0.5375 0.8379 0.0947
vn -0.5674 0.8028 0.1829
vn -0.5941 0.7378 0.3205
vn -0.4642 0.8739 0.1446
vn -0.4847 0.8746 0.0086
vn -0.5048 0.8626 0.0332
vn -0.5182 0.8377 0.1726
vn -0.5135 0.8513 -0.1083
vn -0.5037 0.8638 0.0079
vn -0.5030 0.8643 0.0079
vn -0.5021 0.8633 -0.0508
vn -0.5156 0.8477 -0.1251
vn -0.4980 0.8660 -0.0462
vn -0.4864 0.8521 -0.1935
vn -0.5006 0.8563 -0.1273
vn -0.4926 0.8702 0.0066
vn -0.4753 0.8686 0.1402
vn -0.5953 0.7419 0.3086
vn -0.3775 0.8514 0.3640
vn -0.3055 0.8444 0.4400
vn -0.4120 0.8186 -0.4001
vn -0.3916 0.8054 -0.4449
vn -0.5250 0.7674 0.3680
vn -0.5155 0.7779 0.3594
vn -0.6503 0.7542 0.0909
vn -0.6567 0.7537 0.0275
vn -0.6127 0.7346 -0.2915
vn -0.6166 0.7197 -0.3191
vn -0.4875 0.8731 0.0001
vn -0.4865 0.8737 0.0057
vn 0.2438 0.8178 -0.5213
vn 0.1632 0.8372 -0.5220
vn 0.3044 0.8236 -0.4785
vn 0.2429 0.8272 -0.5067
vn 0.1106 0.8419 -0.5282
vn -0.0237 0.8415 -0.5397
vn -0.1644 0.7088 -0.6860
vn -0.2634 0.8303 -0.4912
vn -0.3530 0.8275 -0.4367
vn 0.4900 0.7939 -0.3601
vn 0.5293 0.7817 -0.3299
vn -0.2371 0.7383 -0.6314
vn -0.2305 0.7493 -0.6209
vn 0.0601 0.7176 -0.6938
vn 0.1234 0.7166 -0.6865
vn 0.4255 0.6992 -0.5745
vn 0.4530 0.6841 -0.5717
vn 0.1157 0.8451 -0.5220
vn 0.1101 0.8457 -0.5222
vn 0.3664 0.8010 0.4734
vn 0.4052 0.8207 0.4028
vn 0.3002 0.8080 0.5070
vn 0.3541 0.8109 0.4659
vn 0.4355 0.8253 0.3594
vn 0.5086 0.8251 0.2461
vn 0.7004 0.6885 0.1882
vn 0.5779 0.8161 0.0115
vn 0.5717 0.8152 -0.0931
vn 0.1079 0.7812 0.6149
vn 0.0625 0.7697 0.6353
vn 0.6870 0.7199 0.0989
vn 0.6749 0.7311 0.1000
vn 0.6023 0.6964 0.3903
vn 0.5661 0.6953 0.4428
vn 0.3252 0.6803 0.6568
vn 0.3095 0.6652 0.6795
vn 0.4277 0.8287 0.3611
vn 0.4305 0.8293 0.3562
vn -0.4169 0.7869 0.4550
vn -0.3406 0.8093 0.4785
vn -0.4636 0.7920 0.3972
vn -0.4124 0.7969 0.4415
vn -0.2921 0.8158 0.4992
vn -0.1663 0.8202 0.5474
vn -0.0651 0.6874 0.7234
vn 0.0778 0.8201 0.5669
vn 0.1789 0.8229 0.5393
vn -0.6077 0.7597 0.2313
vn -0.6365 0.7472 0.1911
vn 0.0183 0.7218 0.6919
vn 0.0143 0.7329 0.6802
vn -0.2832 0.6872 0.6689
vn -0.3420 0.6841 0.6443
vn -0.6003 0.6594 0.4526
vn -0.6252 0.6433 0.4419
vn -0.2954 0.8190 0.4919
vn -0.2901 0.8199 0.4937
vn 0.4709 0.8814 -0.0365
vn 0.4258 0.8989 -0.1037
vn 0.4672 0.8833 0.0379
vn 0.4571 0.8889 -0.0290
vn 0.4021 0.9030 -0.1512
vn 0.3393 0.9010 -0.2704
vn 0.4008 0.7841 -0.4738
vn 0.1708 0.8783 -0.4466
vn 0.0775 0.8666 -0.4929
vn 0.4720 0.8435 0.2564
vn 0.4695 0.8285 0.3051
vn 0.3127 0.8050 -0.5042
vn 0.3062 0.8147 -0.4925
vn 0.5274 0.7991 -0.2886
vn 0.5556 0.7986 -0.2314
vn 0.6271 0.7746 0.0823
vn 0.6413 0.7599 0.1062
vn 0.3993 0.9056 -0.1433
vn 0.3963 0.9061 -0.1482
vn -0.3706 0.8713 -0.3217
vn -0.3846 0.8907 -0.2424
vn -0.3165 0.8722 -0.3729
vn -0.3555 0.8790 -0.3178
vn -0.4003 0.8961 -0.1918
vn -0.4374 0.8971 -0.0623
vn -0.6218 0.7819 0.0451
vn -0.4375 0.8806 0.1820
vn -0.4019 0.8717 0.2803
vn -0.1686 0.8292 -0.5330
vn -0.1330 0.8136 -0.5661
vn -0.5793 0.8051 0.1274
vn -0.5665 0.8148 0.1232
vn -0.5853 0.7914 -0.1766
vn -0.5660 0.7895 -0.2374
vn -0.4006 0.7594 -0.5127
vn -0.3943 0.7440 -0.5395
vn -0.3928 0.8986 -0.1956
vn -0.3941 0.8992 -0.1901
vn 0.0523 0.8039 0.5925
vn 0.1234 0.8230 0.5544
vn -0.0214 0.8111 0.5845
vn 0.0462 0.8137 0.5794
vn 0.1726 0.8274 0.5345
vn 0.2956 0.8263 0.4795
vn 0.4874 0.6892 0.5361
vn 0.4816 0.8157 0.3206
vn 0.5335 0.8141 0.2295
vn -0.2415 0.7852 0.5703
vn -0.2907 0.7739 0.5627
vn 0.5250 0.7200 0.4539
vn 0.5143 0.7312 0.4481
vn 0.2950 0.6985 0.6520
vn 0.2360 0.6978 0.6763
vn -0.0828 0.6845 0.7243
vn -0.1084 0.6695 0.7349
vn 0.1651 0.8308 0.5316
vn 0.1702 0.8313 0.5291
vn -0.5960 0.7920 0.1320
vn -0.5493 0.8119 0.1976
vn -0.5980 0.7994 0.0579
vn -0.5841 0.8021 0.1243
vn -0.5232 0.8166 0.2437
vn -0.4525 0.8166 0.3584
vn -0.4807 0.6784 0.5556
vn -0.2703 0.8091 0.5218
vn -0.1732 0.8093 0.5613
vn -0.6123 0.7738 -0.1622
vn -0.6110 0.7627 -0.2121
vn -0.3949 0.7107 0.5822
vn -0.3908 0.7221 0.5708
vn -0.6211 0.6854 0.3801
vn -0.6529 0.6843 0.3248
vn -0.7422 0.6701 0.0151
vn -0.7557 0.6549 -0.0089
vn -0.5214 0.8201 0.2359
vn -0.5182 0.8207 0.2406
vn 0.3302 0.8085 0.4871
vn 0.3720 0.8286 0.4185
vn 0.2624 0.8144 0.5175
vn 0.3182 0.8181 0.4790
vn 0.4043 0.8336 0.3765
vn 0.4826 0.8342 0.2668
vn 0.6792 0.7007 0.2185
vn 0.5631 0.8256 0.0357
vn 0.5619 0.8243 -0.0691
vn 0.0657 0.7847 0.6163
vn 0.0196 0.7726 0.6346
vn 0.6696 0.7315 0.1286
vn 0.6572 0.7426 0.1290
vn 0.5715 0.7075 0.4157
vn 0.5329 0.7060 0.4664
vn 0.2823 0.6877 0.6689
vn 0.2658 0.6724 0.6908
vn 0.3963 0.8368 0.3777
vn 0.3994 0.8375 0.3730
vn -0.1154 0.9921 0.0490
vn 1.0000 -0.0038 0.0052
vn 0.7859 0.0155 0.6181
vn 0.8292 -0.0155 -0.5587
vn -0.8486 0.0406 0.5275
vn -0.9975 0.0354 -0.0616
vn -0.3610 0.0393 0.9317
vn 0.3739 -0.0184 -0.9273
vn -0.2604 -0.0036 -0.9655
vn 0.2618 0.0292 0.9647
vn -0.7792 0.0169 -0.6265
vn 0.0074 0.8276 0.5613
vn -0.6185 0.0665 0.7829
vn 0.6000 0.7666 -0.2288
vn 0.5863 -0.0773 -0.8064
vn -0.0670 -0.8336 -0.5483
vn -0.6317 -0.7400 0.2310
vn 0.2433 0.8036 -0.5431
vn 0.8161 0.0158 -0.5777
vn -0.5443 0.8386 0.0221
vn -0.8060 0.0274 0.5913
vn -0.2188 -0.7964 0.5638
vn 0.5882 -0.8083 -0.0266
vn 0.5530 0.7845 0.2805
vn 0.5415 -0.0131 0.8406
vn 0.0241 0.8476 -0.5301
vn -0.5544 0.0565 -0.8304
vn -0.5746 -0.7771 -0.2568
vn -0.0207 -0.8181 0.5748
vn 0.3537 -0.7764 -0.5217
vn 0.4044 -0.7998 0.4436
vn -0.0108 -0.0059 -0.9999
vn 0.0508 -0.0046 0.9987
vn -0.3306 0.8016 0.4982
vn -0.3661 0.7907 -0.4906
usemtl None
s 1
f 699/1/1 578/2/2 3/3/3 479/4/4
f 698/5/5 462/6/6 2/7/7 310/8/8
f 2/9/7 462/10/6 578/11/2
f 697/12/9 290/13/10 6/14/11 285/15/12
f 696/16/13 381/17/14 9/18/15 263/19/16
f 695/20/17 342/21/18 11/22/19 420/23/20
f 694/24/21 529/25/22 8/26/23 468/27/24
f 11/28/19 342/29/18 529/30/22
f 693/31/25 533/32/26 15/33/27 446/34/28
f 692/35/29 541/36/30 17/37/31 575/38/32
f 691/39/33 348/40/34 14/41/35 275/42/36
f 17/43/31 541/44/30 348/45/34
f 690/46/37 287/47/38 21/48/39 549/49/40
f 689/50/41 280/51/42 23/52/43 371/53/44
f 688/54/45 454/55/46 20/56/47 380/57/48
f 23/58/43 280/59/42 454/60/46
f 687/61/49 495/62/50 27/63/51 394/64/52
f 686/65/53 504/66/54 31/67/55 414/68/56
f 685/69/57 237/70/58 26/71/59 227/72/60
f 684/73/61 574/74/62 30/75/63 234/76/64
f 683/77/65 419/78/66 34/79/67 292/80/68
f 682/81/69 553/82/70 37/83/71 279/84/72
f 681/85/73 547/86/74 41/87/75 249/88/76
f 680/89/77 409/90/78 44/91/79 426/92/80
f 679/93/81 267/94/82 38/95/83 532/96/84
f 678/97/85 232/98/86 42/99/87 228/100/88
f 677/101/89 337/102/90 47/103/91 431/104/92
f 676/105/93 333/106/94 33/107/95 503/108/96
f 675/109/97 406/110/98 51/111/99 499/112/100
f 674/113/101 305/114/102 29/115/103 259/116/104
f 673/117/105 278/118/106 53/119/107 300/120/108
f 672/121/109 461/122/110 25/123/111 449/124/112
f 671/125/113 282/126/114 46/127/115 256/128/116
f 670/129/117 403/130/118 32/131/119 301/132/120
f 669/133/121 226/134/122 50/135/123 327/136/124
f 668/137/125 397/138/126 28/139/127 314/140/128
f 667/141/129 266/142/130 55/143/131 492/144/132
f 666/145/133 453/146/134 39/147/135 508/148/136
f 665/149/137 444/150/138 57/151/139 341/152/140
f 664/153/141 284/154/142 35/155/143 456/156/144
f 663/157/145 546/158/146 56/159/147 359/160/148
f 662/161/149 393/162/150 43/163/151 322/164/152
f 661/165/153 355/166/154 58/167/155 273/168/156
f 660/169/157 338/170/158 40/171/159 450/172/160
f 659/173/161 467/174/162 59/175/163 247/176/164
f 658/177/165 248/178/166 36/179/167 460/180/168
f 657/181/169 279/182/72 37/183/71 426/184/80
f 42/185/87 249/186/76 228/187/88
f 656/188/170 351/189/171 62/190/172 425/191/173
f 655/192/174 253/193/175 62/190/172 351/189/171
f 654/194/176 555/195/177 67/196/178 437/197/179
f 67/196/178 528/198/180 251/199/181
f 71/200/182 424/201/183 515/202/184
f 653/203/185 251/199/181 70/204/186 396/205/187
f 652/206/188 396/205/187 70/204/186 491/207/189
f 67/196/178 555/195/177 400/208/190
f 65/209/191 344/210/192 494/211/193
f 651/212/194 392/213/195 74/214/196 365/215/197
f 650/216/198 370/217/199 68/218/200 507/219/201
f 649/220/202 526/221/203 61/222/204 240/223/205
f 648/224/206 411/225/207 80/226/208 277/227/209
f 647/228/210 360/229/211 80/226/208 411/225/207
f 646/230/212 246/231/213 85/232/214 512/233/215
f 85/232/214 243/234/216 318/235/217
f 89/236/218 563/237/219 283/238/220
f 645/239/221 318/235/217 88/240/222 511/241/223
f 644/242/224 511/241/223 88/240/222 245/243/225
f 85/232/214 246/231/213 509/244/226
f 83/245/227 417/246/228 561/247/229
f 643/248/230 488/249/231 92/250/232 537/251/233
f 642/252/234 326/253/235 86/254/236 239/255/237
f 641/256/238 514/257/239 79/258/240 498/259/241
f 640/260/242 524/261/243 98/262/244 262/263/245
f 639/264/246 408/265/247 98/262/244 524/261/243
f 638/266/248 582/267/249 103/268/250 312/269/251
f 103/268/250 225/270/252 455/271/253
f 107/272/254 304/273/255 545/274/256
f 637/275/257 455/271/253 106/276/258 274/277/259
f 636/278/260 274/277/259 106/276/258 536/279/261
f 103/268/250 582/267/249 307/280/262
f 101/281/263 364/282/264 567/283/265
f 635/284/266 261/285/267 110/286/268 286/287/269
f 634/288/270 487/289/271 104/290/272 523/291/273
f 633/292/274 340/293/275 97/294/276 429/295/277
f 632/296/278 385/297/279 116/298/280 439/299/281
f 631/300/282 242/301/283 116/298/280 385/297/279
f 630/302/284 486/303/285 121/304/286 577/305/287
f 121/304/286 483/306/288 389/307/289
f 125/308/290 584/309/291 493/310/292
f 629/311/293 389/307/289 124/312/294 572/313/295
f 628/314/296 572/313/295 124/312/294 473/315/297
f 121/304/286 486/303/285 581/316/298
f 119/317/299 231/318/300 485/319/301
f 627/320/302 539/321/303 128/322/304 566/323/305
f 626/324/306 317/325/307 122/326/308 459/327/309
f 625/328/310 522/329/311 115/330/312 289/331/313
f 624/332/314 576/333/315 134/334/316 477/335/317
f 623/336/318 291/337/319 134/334/316 576/333/315
f 622/338/320 465/339/321 139/340/322 352/341/323
f 139/340/322 435/342/324 551/343/325
f 143/344/326 331/345/327 410/346/328
f 621/347/329 551/343/325 142/348/330 295/349/331
f 620/350/332 295/349/331 142/348/330 388/351/333
f 139/340/322 465/339/321 303/352/334
f 137/353/335 255/354/336 379/355/337
f 619/356/338 294/357/339 146/358/340 236/359/341
f 618/360/342 517/361/343 140/362/344 445/363/345
f 617/364/346 383/365/347 133/366/348 347/367/349
f 616/368/350 343/369/351 152/370/352 260/371/353
f 615/372/354 384/373/355 152/370/352 343/369/351
f 614/374/356 233/375/357 157/376/358 520/377/359
f 157/376/358 250/378/360 335/379/361
f 161/380/362 224/381/363 505/382/364
f 613/383/365 335/379/361 160/384/366 229/385/367
f 612/386/368 229/385/367 160/384/366 329/387/369
f 157/376/358 233/375/357 369/388/370
f 155/389/371 416/390/372 458/391/373
f 611/392/374 346/393/375 164/394/376 223/395/377
f 610/396/378 306/397/379 158/398/380 244/399/381
f 609/400/382 484/401/383 151/402/384 378/403/385
f 608/404/386 535/405/387 170/406/388 276/407/389
f 607/408/390 443/409/391 170/406/388 535/405/387
f 606/410/392 265/411/393 175/412/394 442/413/395
f 175/412/394 345/414/396 544/415/397
f 179/416/398 451/417/399 353/418/400
f 605/419/401 544/415/397 178/420/402 427/421/403
f 604/422/404 427/421/403 178/420/402 313/423/405
f 175/412/394 265/411/393 362/424/406
f 173/425/407 374/426/408 565/427/409
f 603/428/410 363/429/411 182/430/412 430/431/413
f 602/432/414 531/433/415 176/434/416 264/435/417
f 601/436/418 358/437/419 169/438/420 447/439/421
f 600/440/422 433/441/423 188/442/424 530/443/425
f 599/444/426 349/445/427 188/442/424 433/441/423
f 598/446/428 471/447/429 193/448/430 377/449/431
f 193/448/430 457/450/432 558/451/433
f 197/452/434 399/453/435 489/454/436
f 597/455/437 558/451/433 196/456/438 328/457/439
f 596/458/440 328/457/439 196/456/438 415/459/441
f 193/448/430 471/447/429 339/460/442
f 191/461/443 293/462/444 482/463/445
f 595/464/446 334/465/447 200/466/448 323/467/449
f 594/468/450 463/469/451 194/470/452 475/471/453
f 593/472/454 238/473/455 187/474/456 368/475/457
f 592/476/458 315/477/459 206/478/460 562/479/461
f 591/480/462 367/481/463 206/478/460 315/477/459
f 590/482/464 569/483/465 211/484/466 469/485/467
f 211/484/466 557/486/468 281/487/469
f 215/488/470 480/489/471 564/490/472
f 589/491/473 281/487/469 214/492/474 438/493/475
f 588/494/476 438/493/475 214/492/474 534/495/477
f 211/484/466 569/483/465 398/496/478
f 209/497/479 356/498/480 506/499/481
f 587/500/482 387/501/483 218/502/484 422/503/485
f 586/504/486 570/505/487 212/506/488 552/507/489
f 585/508/490 500/509/491 205/510/492 404/511/493
f 421/512/494 585/508/490 404/511/493 204/513/495
f 210/514/496 366/515/497 585/508/490 421/512/494
f 366/515/497 208/516/498 500/509/491 585/508/490
f 356/498/480 586/504/486 552/507/489 215/488/470
f 209/497/479 361/517/499 586/504/486 356/498/480
f 361/517/499 208/516/498 570/505/487 586/504/486
f 480/489/471 587/500/482 422/503/485 216/518/500
f 215/488/470 552/507/489 587/500/482 480/489/471
f 552/507/489 212/506/488 387/501/483 587/500/482
f 506/499/481 519/519/501 221/520/502
f 506/499/481 356/498/480 519/519/501
f 356/498/480 215/488/470 519/519/501
f 398/496/478 579/521/503 220/522/504
f 398/496/478 569/483/465 579/521/503
f 569/483/465 210/514/496 579/521/503
f 516/523/505 588/494/476 534/495/477 219/524/506
f 216/518/500 422/503/485 588/494/476 516/523/505
f 422/503/485 218/502/484 438/493/475 588/494/476
f 387/501/483 589/491/473 438/493/475 218/502/484
f 212/506/488 469/485/467 589/491/473 387/501/483
f 469/485/467 211/484/466 281/487/469 589/491/473
f 564/490/472 382/525/507 217/526/508
f 564/490/472 480/489/471 382/525/507
f 480/489/471 216/518/500 382/525/507
f 281/487/469 297/527/509 214/492/474
f 281/487/469 557/486/468 297/527/509
f 557/486/468 213/528/510 297/527/509
f 570/505/487 590/482/464 469/485/467 212/506/488
f 208/516/498 366/515/497 590/482/464 570/505/487
f 366/515/497 210/514/496 569/483/465 590/482/464
f 500/509/491 591/480/462 315/477/459 205/510/492
f 208/516/498 361/517/499 591/480/462 500/509/491
f 361/517/499 209/497/479 367/481/463 591/480/462
f 571/529/511 592/476/458 562/479/461 207/530/512
f 204/513/495 404/511/493 592/476/458 571/529/511
f 404/511/493 205/510/492 315/477/459 592/476/458
f 235/531/513 593/472/454 368/475/457 186/532/514
f 192/533/515 269/534/516 593/472/454 235/531/513
f 269/534/516 190/535/517 238/473/455 593/472/454
f 293/462/444 594/468/450 475/471/453 197/452/434
f 191/461/443 357/536/518 594/468/450 293/462/444
f 357/536/518 190/535/517 463/469/451 594/468/450
f 399/453/435 595/464/446 323/467/449 198/537/519
f 197/452/434 475/471/453 595/464/446 399/453/435
f 475/471/453 194/470/452 334/465/447 595/464/446
f 482/463/445 395/538/520 203/539/521
f 482/463/445 293/462/444 395/538/520
f 293/462/444 197/452/434 395/538/520
f 339/460/442 390/540/522 202/541/523
f 339/460/442 471/447/429 390/540/522
f 471/447/429 192/533/515 390/540/522
f 413/542/524 596/458/440 415/459/441 201/543/525
f 198/537/519 323/467/449 596/458/440 413/542/524
f 323/467/449 200/466/448 328/457/439 596/458/440
f 334/465/447 597/455/437 328/457/439 200/466/448
f 194/470/452 377/449/431 597/455/437 334/465/447
f 377/449/431 193/448/430 558/451/433 597/455/437
f 489/454/436 311/544/526 199/545/527
f 489/454/436 399/453/435 311/544/526
f 399/453/435 198/537/519 311/544/526
f 558/451/433 573/546/528 196/456/438
f 558/451/433 457/450/432 573/546/528
f 457/450/432 195/547/529 573/546/528
f 463/469/451 598/446/428 377/449/431 194/470/452
f 190/535/517 269/534/516 598/446/428 463/469/451
f 269/534/516 192/533/515 471/447/429 598/446/428
f 238/473/455 599/444/426 433/441/423 187/474/456
f 190/535/517 357/536/518 599/444/426 238/473/455
f 357/536/518 191/461/443 349/445/427 599/444/426
f 550/548/530 600/440/422 530/443/425 189/549/531
f 186/532/514 368/475/457 600/440/422 550/548/530
f 368/475/457 187/474/456 433/441/423 600/440/422
f 324/550/532 601/436/418 447/439/421 168/551/533
f 174/552/534 320/553/535 601/436/418 324/550/532
f 320/553/535 172/554/536 358/437/419 601/436/418
f 374/426/408 602/432/414 264/435/417 179/416/398
f 173/425/407 423/555/537 602/432/414 374/426/408
f 423/555/537 172/554/536 531/433/415 602/432/414
f 451/417/399 603/428/410 430/431/413 180/556/538
f 179/416/398 264/435/417 603/428/410 451/417/399
f 264/435/417 176/434/416 363/429/411 603/428/410
f 565/427/409 302/557/539 185/558/540
f 565/427/409 374/426/408 302/557/539
f 374/426/408 179/416/398 302/557/539
f 362/424/406 476/559/541 184/560/542
f 362/424/406 265/411/393 476/559/541
f 265/411/393 174/552/534 476/559/541
f 298/561/543 604/422/404 313/423/405 183/562/544
f 180/556/538 430/431/413 604/422/404 298/561/543
f 430/431/413 182/430/412 427/421/403 604/422/404
f 363/429/411 605/419/401 427/421/403 182/430/412
f 176/434/416 442/413/395 605/419/401 363/429/411
f 442/413/395 175/412/394 544/415/397 605/419/401
f 353/418/400 548/563/545 181/564/546
f 353/418/400 451/417/399 548/563/545
f 451/417/399 180/556/538 548/563/545
f 544/415/397 257/565/547 178/420/402
f 544/415/397 345/414/396 257/565/547
f 345/414/396 177/566/548 257/565/547
f 531/433/415 606/410/392 442/413/395 176/434/416
f 172/554/536 320/553/535 606/410/392 531/433/415
f 320/553/535 174/552/534 265/411/393 606/410/392
f 358/437/419 607/408/390 535/405/387 169/438/420
f 172/554/536 423/555/537 607/408/390 358/437/419
f 423/555/537 173/425/407 443/409/391 607/408/390
f 222/567/549 608/404/386 276/407/389 171/568/550
f 168/551/533 447/439/421 608/404/386 222/567/549
f 447/439/421 169/438/420 535/405/387 608/404/386
f 434/569/551 609/400/382 378/403/385 150/570/552
f 156/571/553 521/572/554 609/400/382 434/569/551
f 521/572/554 154/573/555 484/401/383 609/400/382
f 416/390/372 610/396/378 244/399/381 161/380/362
f 155/389/371 428/574/556 610/396/378 416/390/372
f 428/574/556 154/573/555 306/397/379 610/396/378
f 224/381/363 611/392/374 223/395/377 162/575/557
f 161/380/362 244/399/381 611/392/374 224/381/363
f 244/399/381 158/398/380 346/393/375 611/392/374
f 458/391/373 464/576/558 167/577/559
f 458/391/373 416/390/372 464/576/558
f 416/390/372 161/380/362 464/576/558
f 369/388/370 527/578/560 166/579/561
f 369/388/370 233/375/357 527/578/560
f 233/375/357 156/571/553 527/578/560
f 501/580/562 612/386/368 329/387/369 165/581/563
f 162/575/557 223/395/377 612/386/368 501/580/562
f 223/395/377 164/394/376 229/385/367 612/386/368
f 346/393/375 613/383/365 229/385/367 164/394/376
f 158/398/380 520/377/359 613/383/365 346/393/375
f 520/377/359 157/376/358 335/379/361 613/383/365
f 505/382/364 316/582/564 163/583/565
f 505/382/364 224/381/363 316/582/564
f 224/381/363 162/575/557 316/582/564
f 335/379/361 230/584/566 160/384/366
f 335/379/361 250/378/360 230/584/566
f 250/378/360 159/585/567 230/584/566
f 306/397/379 614/374/356 520/377/359 158/398/380
f 154/573/555 521/572/554 614/374/356 306/397/379
f 521/572/554 156/571/553 233/375/357 614/374/356
f 484/401/383 615/372/354 343/369/351 151/402/384
f 154/573/555 428/574/556 615/372/354 484/401/383
f 428/574/556 155/389/371 384/373/355 615/372/354
f 559/586/568 616/368/350 260/371/353 153/587/569
f 150/570/552 378/403/385 616/368/350 559/586/568
f 378/403/385 151/402/384 343/369/351 616/368/350
f 354/588/570 617/364/346 347/367/349 132/589/571
f 138/590/572 332/591/573 617/364/346 354/588/570
f 332/591/573 136/592/574 383/365/347 617/364/346
f 255/354/336 618/360/342 445/363/345 143/344/326
f 137/353/335 288/593/575 618/360/342 255/354/336
f 288/593/575 136/592/574 517/361/343 618/360/342
f 331/345/327 619/356/338 236/359/341 144/594/576
f 143/344/326 445/363/345 619/356/338 331/345/327
f 445/363/345 140/362/344 294/357/339 619/356/338
f 379/355/337 330/595/577 149/596/578
f 379/355/337 255/354/336 330/595/577
f 255/354/336 143/344/326 330/595/577
f 303/352/334 472/597/579 148/598/580
f 303/352/334 465/339/321 472/597/579
f 465/339/321 138/590/572 472/597/579
f 325/599/581 620/350/332 388/351/333 147/600/582
f 144/594/576 236/359/341 620/350/332 325/599/581
f 236/359/341 146/358/340 295/349/331 620/350/332
f 294/357/339 621/347/329 295/349/331 146/358/340
f 140/362/344 352/341/323 621/347/329 294/357/339
f 352/341/323 139/340/322 551/343/325 621/347/329
f 410/346/328 241/601/583 145/602/584
f 410/346/328 331/345/327 241/601/583
f 331/345/327 144/594/576 241/601/583
f 551/343/325 560/603/585 142/348/330
f 551/343/325 435/342/324 560/603/585
f 435/342/324 141/604/586 560/603/585
f 517/361/343 622/338/320 352/341/323 140/362/344
f 136/592/574 332/591/573 622/338/320 517/361/343
f 332/591/573 138/590/572 465/339/321 622/338/320
f 383/365/347 623/336/318 576/333/315 133/366/348
f 136/592/574 288/593/575 623/336/318 383/365/347
f 288/593/575 137/353/335 291/337/319 623/336/318
f 466/605/587 624/332/314 477/335/317 135/606/588
f 132/589/571 347/367/349 624/332/314 466/605/587
f 347/367/349 133/366/348 576/333/315 624/332/314
f 518/607/589 625/328/310 289/331/313 114/608/590
f 120/609/591 510/610/592 625/328/310 518/607/589
f 510/610/592 118/611/593 522/329/311 625/328/310
f 231/318/300 626/324/306 459/327/309 125/308/290
f 119/317/299 252/612/594 626/324/306 231/318/300
f 252/612/594 118/611/593 317/325/307 626/324/306
f 584/309/291 627/320/302 566/323/305 126/613/595
f 125/308/290 459/327/309 627/320/302 584/309/291
f 459/327/309 122/326/308 539/321/303 627/320/302
f 485/319/301 496/614/596 131/615/597
f 485/319/301 231/318/300 496/614/596
f 231/318/300 125/308/290 496/614/596
f 581/316/298 401/616/598 130/617/599
f 581/316/298 486/303/285 401/616/598
f 486/303/285 120/609/591 401/616/598
f 490/618/600 628/314/296 473/315/297 129/619/601
f 126/613/595 566/323/305 628/314/296 490/618/600
f 566/323/305 128/322/304 572/313/295 628/314/296
f 539/321/303 629/311/293 572/313/295 128/322/304
f 122/326/308 577/305/287 629/311/293 539/321/303
f 577/305/287 121/304/286 389/307/289 629/311/293
f 493/310/292 296/620/602 127/621/603
f 493/310/292 584/309/291 296/620/602
f 584/309/291 126/613/595 296/620/602
f 389/307/289 402/622/604 124/312/294
f 389/307/289 483/306/288 402/622/604
f 483/306/288 123/623/605 402/622/604
f 317/325/307 630/302/284 577/305/287 122/326/308
f 118/611/593 510/610/592 630/302/284 317/325/307
f 510/610/592 120/609/591 486/303/285 630/302/284
f 522/329/311 631/300/282 385/297/279 115/330/312
f 118/611/593 252/612/594 631/300/282 522/329/311
f 252/612/594 119/317/299 242/301/283 631/300/282
f 441/624/606 632/296/278 439/299/281 117/625/607
f 114/608/590 289/331/313 632/296/278 441/624/606
f 289/331/313 115/330/312 385/297/279 632/296/278
f 350/626/608 633/292/274 429/295/277 96/627/609
f 102/628/610 299/629/611 633/292/274 350/626/608
f 299/629/611 100/630/612 340/293/275 633/292/274
f 364/282/264 634/288/270 523/291/273 107/272/254
f 101/281/263 407/631/613 634/288/270 364/282/264
f 407/631/613 100/630/612 487/289/271 634/288/270
f 304/273/255 635/284/266 286/287/269 108/632/614
f 107/272/254 523/291/273 635/284/266 304/273/255
f 523/291/273 104/290/272 261/285/267 635/284/266
f 567/283/265 542/633/615 113/634/616
f 567/283/265 364/282/264 542/633/615
f 364/282/264 107/272/254 542/633/615
f 307/280/262 478/635/617 112/636/618
f 307/280/262 582/267/249 478/635/617
f 582/267/249 102/628/610 478/635/617
f 554/637/619 636/278/260 536/279/261 111/638/620
f 108/632/614 286/287/269 636/278/260 554/637/619
f 286/287/269 110/286/268 274/277/259 636/278/260
f 261/285/267 637/275/257 274/277/259 110/286/268
f 104/290/272 312/269/251 637/275/257 261/285/267
f 312/269/251 103/268/250 455/271/253 637/275/257
f 545/274/256 391/639/621 109/640/622
f 545/274/256 304/273/255 391/639/621
f 304/273/255 108/632/614 391/639/621
f 455/271/253 474/641/623 106/276/258
f 455/271/253 225/270/252 474/641/623
f 225/270/252 105/642/624 474/641/623
f 487/289/271 638/266/248 312/269/251 104/290/272
f 100/630/612 299/629/611 638/266/248 487/289/271
f 299/629/611 102/628/610 582/267/249 638/266/248
f 340/293/275 639/264/246 524/261/243 97/294/276
f 100/630/612 407/631/613 639/264/246 340/293/275
f 407/631/613 101/281/263 408/265/247 639/264/246
f 436/643/625 640/260/242 262/263/245 99/644/626
f 96/627/609 429/295/277 640/260/242 436/643/625
f 429/295/277 97/294/276 524/261/243 640/260/242
f 525/645/627 641/256/238 498/259/241 78/646/628
f 84/647/629 513/648/630 641/256/238 525/645/627
f 513/648/630 82/649/631 514/257/239 641/256/238
f 417/246/228 642/252/234 239/255/237 89/236/218
f 83/245/227 448/650/632 642/252/234 417/246/228
f 448/650/632 82/649/631 326/253/235 642/252/234
f 563/237/219 643/248/230 537/251/233 90/651/633
f 89/236/218 239/255/237 643/248/230 563/237/219
f 239/255/237 86/254/236 488/249/231 643/248/230
f 561/247/229 270/652/634 95/653/635
f 561/247/229 417/246/228 270/652/634
f 417/246/228 89/236/218 270/652/634
f 509/244/226 308/654/636 94/655/637
f 509/244/226 246/231/213 308/654/636
f 246/231/213 84/647/629 308/654/636
f 271/656/638 644/242/224 245/243/225 93/657/639
f 90/651/633 537/251/233 644/242/224 271/656/638
f 537/251/233 92/250/232 511/241/223 644/242/224
f 488/249/231 645/239/221 511/241/223 92/250/232
f 86/254/236 512/233/215 645/239/221 488/249/231
f 512/233/215 85/232/214 318/235/217 645/239/221
f 283/238/220 470/658/640 91/659/641
f 283/238/220 563/237/219 470/658/640
f 563/237/219 90/651/633 470/658/640
f 318/235/217 336/660/642 88/240/222
f 318/235/217 243/234/216 336/660/642
f 243/234/216 87/661/643 336/660/642
f 326/253/235 646/230/212 512/233/215 86/254/236
f 82/649/631 513/648/630 646/230/212 326/253/235
f 513/648/630 84/647/629 246/231/213 646/230/212
f 514/257/239 647/228/210 411/225/207 79/258/240
f 82/649/631 448/650/632 647/228/210 514/257/239
f 448/650/632 83/245/227 360/229/211 647/228/210
f 321/662/644 648/224/206 277/227/209 81/663/645
f 78/646/628 498/259/241 648/224/206 321/662/644
f 498/259/241 79/258/240 411/225/207 648/224/206
f 538/664/646 649/220/202 240/223/205 60/665/647
f 66/666/648 543/667/649 649/220/202 538/664/646
f 543/667/649 64/668/650 526/221/203 649/220/202
f 344/210/192 650/216/198 507/219/201 71/200/182
f 65/209/191 272/669/651 650/216/198 344/210/192
f 272/669/651 64/668/650 370/217/199 650/216/198
f 424/201/183 651/212/194 365/215/197 72/670/652
f 71/200/182 507/219/201 651/212/194 424/201/183
f 507/219/201 68/218/200 392/213/195 651/212/194
f 494/211/193 497/671/653 77/672/654
f 494/211/193 344/210/192 497/671/653
f 344/210/192 71/200/182 497/671/653
f 400/208/190 583/673/655 76/674/656
f 400/208/190 555/195/177 583/673/655
f 555/195/177 66/666/648 583/673/655
f 452/675/657 652/206/188 491/207/189 75/676/658
f 72/670/652 365/215/197 652/206/188 452/675/657
f 365/215/197 74/214/196 396/205/187 652/206/188
f 392/213/195 653/203/185 396/205/187 74/214/196
f 68/218/200 437/197/179 653/203/185 392/213/195
f 437/197/179 67/196/178 251/199/181 653/203/185
f 515/202/184 319/677/659 73/678/660
f 515/202/184 424/201/183 319/677/659
f 424/201/183 72/670/652 319/677/659
f 251/199/181 258/679/661 70/204/186
f 251/199/181 528/198/180 258/679/661
f 528/198/180 69/680/662 258/679/661
f 370/217/199 654/194/176 437/197/179 68/218/200
f 64/668/650 543/667/649 654/194/176 370/217/199
f 543/667/649 66/666/648 555/195/177 654/194/176
f 526/221/203 655/192/174 351/189/171 61/222/204
f 64/668/650 272/669/651 655/192/174 526/221/203
f 272/669/651 65/209/191 253/193/175 655/192/174
f 405/681/663 656/188/170 425/191/173 63/682/664
f 60/665/647 240/223/205 656/188/170 405/681/663
f 240/223/205 61/222/204 351/189/171 656/188/170
f 228/187/88 412/683/665 44/684/79
f 228/187/88 249/186/76 412/683/665
f 249/186/76 41/685/75 412/683/665
f 412/683/665 657/181/169 426/184/80 44/684/79
f 41/685/75 532/686/84 657/181/169 412/683/665
f 532/686/84 38/687/83 279/182/72 657/181/169
f 284/154/142 658/177/165 460/180/168 35/155/143
f 57/688/139 247/689/164 658/177/165 284/154/142
f 247/689/164 59/690/163 248/178/166 658/177/165
f 444/150/138 659/173/161 247/176/164 57/151/139
f 27/63/51 495/62/50 659/173/161 444/150/138
f 495/62/50 26/71/59 467/174/162 659/173/161
f 453/146/134 660/169/157 450/172/160 39/147/135
f 55/691/131 273/692/156 660/169/157 453/146/134
f 273/692/156 58/693/155 338/170/158 660/169/157
f 266/142/130 661/165/153 273/168/156 55/143/131
f 31/67/55 504/66/54 661/165/153 266/142/130
f 504/66/54 30/694/63 355/166/154 661/165/153
f 248/178/166 662/161/149 322/164/152 36/179/167
f 59/690/163 359/695/148 662/161/149 248/178/166
f 359/695/148 56/696/147 393/162/150 662/161/149
f 467/174/162 663/157/145 359/160/148 59/175/163
f 26/71/59 237/70/58 663/157/145 467/174/162
f 237/70/58 34/79/67 546/158/146 663/157/145
f 338/697/158 664/153/141 456/156/144 40/698/159
f 58/699/155 341/700/140 664/153/141 338/697/158
f 341/700/140 57/688/139 284/154/142 664/153/141
f 355/701/154 665/149/137 341/152/140 58/702/155
f 30/75/63 574/74/62 665/149/137 355/701/154
f 574/74/62 27/63/51 444/150/138 665/149/137
f 393/162/150 666/145/133 508/148/136 43/163/151
f 56/696/147 492/703/132 666/145/133 393/162/150
f 492/703/132 55/691/131 453/146/134 666/145/133
f 546/158/146 667/141/129 492/144/132 56/159/147
f 34/79/67 419/78/66 667/141/129 546/158/146
f 419/78/66 31/67/55 266/142/130 667/141/129
f 226/134/122 668/137/125 314/140/128 50/135/123
f 53/119/107 449/124/112 668/137/125 226/134/122
f 449/124/112 25/123/111 397/138/126 668/137/125
f 309/704/666 669/133/121 327/136/124 49/705/667
f 54/706/668 300/120/108 669/133/121 309/704/666
f 300/120/108 53/119/107 226/134/122 669/133/121
f 282/126/114 670/129/117 301/132/120 46/127/115
f 51/707/99 259/708/104 670/129/117 282/126/114
f 259/708/104 29/709/103 403/130/118 670/129/117
f 372/710/669 671/125/113 256/128/116 45/711/670
f 52/712/671 499/713/100 671/125/113 372/710/669
f 499/713/100 51/707/99 282/126/114 671/125/113
f 278/118/106 672/121/109 449/124/112 53/119/107
f 47/103/91 503/108/96 672/121/109 278/118/106
f 503/108/96 33/107/95 461/122/110 672/121/109
f 373/714/672 673/117/105 300/120/108 54/706/668
f 48/715/673 431/104/92 673/117/105 373/714/672
f 431/104/92 47/103/91 278/118/106 673/117/105
f 406/110/98 674/113/101 259/116/104 51/111/99
f 50/135/123 314/140/128 674/113/101 406/110/98
f 314/140/128 28/139/127 305/114/102 674/113/101
f 502/716/674 675/109/97 499/112/100 52/717/671
f 49/705/667 327/136/124 675/109/97 502/716/674
f 327/136/124 50/135/123 406/110/98 675/109/97
f 337/102/90 676/105/93 503/108/96 47/103/91
f 46/127/115 301/132/120 676/105/93 337/102/90
f 301/132/120 32/131/119 333/106/94 676/105/93
f 418/718/675 677/101/89 431/104/92 48/715/673
f 45/711/670 256/128/116 677/101/89 418/718/675
f 256/128/116 46/127/115 337/102/90 677/101/89
f 409/90/78 678/97/85 228/100/88 44/91/79
f 43/163/151 508/148/136 678/97/85 409/90/78
f 508/148/136 39/147/135 232/98/86 678/97/85
f 547/719/74 679/93/81 532/96/84 41/720/75
f 40/698/159 456/156/144 679/93/81 547/719/74
f 456/156/144 35/155/143 267/94/82 679/93/81
f 553/82/70 680/89/77 426/92/80 37/83/71
f 36/179/167 322/164/152 680/89/77 553/82/70
f 322/164/152 43/163/151 409/90/78 680/89/77
f 232/98/86 681/85/73 249/88/76 42/99/87
f 39/147/135 450/172/160 681/85/73 232/98/86
f 450/172/160 40/171/159 547/86/74 681/85/73
f 267/94/82 682/81/69 279/84/72 38/95/83
f 35/155/143 460/180/168 682/81/69 267/94/82
f 460/180/168 36/179/167 553/82/70 682/81/69
f 333/721/94 683/77/65 292/80/68 33/722/95
f 32/723/119 414/68/56 683/77/65 333/721/94
f 414/68/56 31/67/55 419/78/66 683/77/65
f 305/724/102 684/73/61 234/76/64 29/725/103
f 28/726/127 394/64/52 684/73/61 305/724/102
f 394/64/52 27/63/51 574/74/62 684/73/61
f 461/727/110 685/69/57 227/72/60 25/728/111
f 33/722/95 292/80/68 685/69/57 461/727/110
f 292/80/68 34/79/67 237/70/58 685/69/57
f 403/729/118 686/65/53 414/68/56 32/723/119
f 29/730/103 234/731/64 686/65/53 403/729/118
f 234/731/64 30/694/63 504/66/54 686/65/53
f 397/732/126 687/61/49 394/64/52 28/726/127
f 25/728/111 227/72/60 687/61/49 397/732/126
f 227/72/60 26/71/59 495/62/50 687/61/49
f 454/60/46 287/733/38 20/734/47
f 454/60/46 280/59/42 287/733/38
f 280/59/42 21/735/39 287/733/38
f 375/736/676 688/54/45 380/57/48 19/737/677
f 24/738/678 371/53/44 688/54/45 375/736/676
f 371/53/44 23/52/43 454/55/46 688/54/45
f 540/739/679 689/50/41 371/53/44 24/738/678
f 22/740/680 549/741/40 689/50/41 540/739/679
f 549/741/40 21/742/39 280/51/42 689/50/41
f 556/743/681 690/46/37 549/49/40 22/744/680
f 19/737/677 380/57/48 690/46/37 556/743/681
f 380/57/48 20/56/47 287/47/38 690/46/37
f 348/45/34 533/745/26 14/746/35
f 348/45/34 541/44/30 533/745/26
f 541/44/30 15/747/27 533/745/26
f 580/748/682 691/39/33 275/42/36 13/749/683
f 18/750/684 575/38/32 691/39/33 580/748/682
f 575/38/32 17/37/31 348/40/34 691/39/33
f 376/751/685 692/35/29 575/38/32 18/750/684
f 16/752/686 446/753/28 692/35/29 376/751/685
f 446/753/28 15/754/27 541/36/30 692/35/29
f 432/755/687 693/31/25 446/34/28 16/756/686
f 13/749/683 275/42/36 693/31/25 432/755/687
f 275/42/36 14/41/35 533/32/26 693/31/25
f 529/30/22 381/757/14 8/758/23
f 529/30/22 342/29/18 381/757/14
f 342/29/18 9/759/15 381/757/14
f 440/760/688 694/24/21 468/27/24 7/761/689
f 12/762/690 420/23/20 694/24/21 440/760/688
f 420/23/20 11/22/19 529/25/22 694/24/21
f 254/763/691 695/20/17 420/23/20 12/762/690
f 10/764/692 263/765/16 695/20/17 254/763/691
f 263/765/16 9/766/15 342/21/18 695/20/17
f 268/767/693 696/16/13 263/19/16 10/768/692
f 7/761/689 468/27/24 696/16/13 268/767/693
f 468/27/24 8/26/23 381/17/14 696/16/13
f 386/769/694 697/12/9 285/15/12 5/770/695
f 4/771/696 479/4/4 697/12/9 386/769/694
f 479/4/4 3/3/3 290/13/10 697/12/9
f 578/11/2 290/772/10 3/773/3
f 578/11/2 462/10/6 290/772/10
f 462/10/6 6/774/11 290/772/10
f 568/775/697 698/5/5 310/8/8 1/776/698
f 5/777/695 285/778/12 698/5/5 568/775/697
f 285/778/12 6/779/11 462/6/6 698/5/5
f 481/780/699 699/1/1 479/4/4 4/771/696
f 1/776/698 310/8/8 699/1/1 481/780/699
f 310/8/8 2/7/7 578/2/2 699/1/1
