# Blender v2.78 (sub 0) OBJ File: ''
# www.blender.org
mtllib Pine_Tree_OneSided_l_04.mtl
o Pine_Tree_OneSided_l_04
v 2.109136 3.683701 1.975436
v 0.562309 6.891669 0.596395
v -0.024142 6.968182 0.883340
v 0.011959 4.165881 2.969804
v -0.324419 4.166378 -2.949949
v -0.134116 6.965708 -0.822121
v 0.482529 6.892448 -0.607696
v 1.875987 3.684198 -2.210360
v -2.324722 3.683069 -1.960003
v -0.708011 6.884117 -0.534684
v 0.770106 6.973816 -0.021001
v 2.811583 4.167208 -0.166983
v -3.123427 4.164858 0.186722
v -0.922373 6.958341 0.081190
v -2.091988 3.683030 2.225694
v -0.633664 6.887442 0.668479
v 2.593686 5.865071 -0.187891
v 0.580877 8.802385 -0.043439
v 0.370482 9.050456 0.482891
v 1.763186 6.118959 1.761382
v -2.190259 6.120797 -1.695849
v -0.702717 9.046210 -0.466917
v -0.199887 8.799903 -0.735017
v -0.371593 5.866372 -2.781081
v -2.982495 5.430000 0.165974
v -0.892695 8.754322 0.047201
v 0.304316 9.075573 -0.525297
v 1.479741 6.387790 -1.902231
v -1.956592 5.842675 2.024845
v -0.641860 9.020077 0.548406
v 0.019663 5.428668 2.791281
v -0.107834 8.756897 0.742324
v 1.371037 7.436302 -1.717000
v 0.156973 11.400034 -0.469478
v 0.340548 11.632385 -0.050796
v 2.015622 7.922031 -0.122119
v -2.235320 8.142379 0.096455
v -0.823937 11.638096 0.016457
v -0.703994 11.408264 -0.419327
v -1.900840 7.620709 -1.535075
v -1.687226 7.812998 1.724276
v -0.644011 11.428424 0.441285
v -0.281128 11.623322 -0.602893
v -0.240722 7.913866 -2.149926
v -0.009743 8.152851 2.100001
v -0.205724 11.647499 0.565873
v 1.554572 7.631214 1.571110
v 0.209578 11.420399 0.393287
v 1.061670 9.721927 -1.480757
v 0.100265 12.841140 -0.443585
v 0.239847 13.086589 -0.047911
v 1.375773 10.162768 -0.089405
v -1.883017 10.095428 0.122075
v -0.803315 13.061289 0.016844
v -0.701162 12.823307 -0.394509
v -1.710607 9.671300 -1.300926
v -1.526129 9.557859 1.474279
v -0.645891 12.813560 0.407682
v -0.317531 13.079089 -0.538846
v -0.362770 10.196043 -1.615130
v -0.144610 10.062840 1.647798
v -0.246092 13.068949 0.507765
v 1.245862 9.607142 1.294322
v 0.152059 12.831152 0.357480
v 0.362020 13.818408 -0.791308
v -0.363247 15.754850 -0.221274
v -0.296838 15.945837 -0.018321
v 0.605154 14.125122 -0.048511
v -1.322827 13.939672 0.073334
v -0.854311 15.914845 0.015450
v -0.771273 15.732047 -0.196555
v -1.106109 13.679726 -0.698783
v -0.998712 13.582609 0.771157
v -0.745207 15.723209 0.211329
v -0.593602 15.935972 -0.280584
v -0.431474 14.096424 -0.956554
v -0.286229 13.968338 0.981378
v -0.557551 15.924712 0.277713
v 0.466192 13.720576 0.677548
v -0.337541 15.745932 0.186490
v -0.417776 16.357471 -0.233422
v -0.773151 17.256922 0.001959
v -0.316408 16.428535 -0.012180
v -0.959749 16.409115 0.025524
v -0.872701 16.343834 -0.206769
v -0.846083 16.347446 0.247796
v -0.656898 16.416283 -0.314761
v -0.619262 16.421400 0.328105
v -0.391154 16.361092 0.221144
v -1.011598 15.210968 -0.453707
v -1.200440 15.366570 0.039551
v -0.961477 15.254629 0.522176
v -0.470641 15.391685 0.692035
v 0.020588 15.245834 0.469045
v 0.188520 15.354717 -0.035616
v -0.541310 15.329870 -0.688100
v -0.029558 15.202087 -0.506835
v 0.665046 11.580672 -1.032669
v -0.173842 14.442821 -0.276788
v -0.070148 14.585719 -0.029768
v 1.096606 11.878769 -0.082749
v -1.633785 12.079102 0.044885
v -0.784447 14.590302 0.009207
v -0.685760 14.447075 -0.248988
v -1.317578 11.729071 -0.940646
v -1.206308 11.916206 1.037984
v -0.656215 14.465837 0.261862
v -0.448091 14.575249 -0.367012
v -0.346333 11.850548 -1.383886
v -0.190449 12.109909 1.346016
v -0.406461 14.601080 0.346451
v 0.773474 11.769176 0.945104
v -0.144612 14.461734 0.233967
v -0.208122 0.258732 0.202840
v -0.185961 3.842653 0.171929
v -0.239967 3.775703 -0.153615
v -0.269351 0.247925 -0.160567
v -0.234364 8.090679 0.059906
v -0.276669 8.193104 -0.171500
v 0.332083 0.249678 -0.087637
v 0.279389 3.838114 -0.048401
v 0.119564 3.838468 0.257735
v 0.160835 0.248807 0.257828
v 0.063047 8.156754 -0.055953
v -0.016334 8.150927 0.105704
v 0.043754 3.874235 -0.280793
v 0.056459 0.255109 -0.324583
v -0.095211 8.218078 -0.237324
v -0.398141 13.223470 -0.886420
v -0.108228 3.823016 -0.236292
v -0.211406 6.133179 0.115534
v -0.664308 13.770172 0.922948
v -2.171223 7.882771 -0.771297
v 2.164882 6.138906 -1.091637
v -2.048926 5.578953 0.135464
v -0.194829 8.215505 -0.223605
v 0.147802 1.854004 0.268541
v -0.202738 15.724319 -0.384171
v 0.158437 15.052406 -0.032973
v 0.718170 11.195722 0.841293
v -0.037056 3.844271 0.236919
v -1.219584 13.346624 0.026787
v -1.326746 6.002539 -2.369819
v -0.111277 14.514612 -0.158468
v -0.338347 6.928179 0.804178
v -1.377627 5.267794 1.465320
v 0.040411 8.154839 0.034950
v -0.037597 15.849590 -0.025038
v -0.096127 14.524088 0.105993
v 0.526816 13.977873 -0.447888
v -1.540835 9.910107 0.056256
v 2.603141 3.925475 0.953672
v -1.092751 15.845547 0.033576
v 0.187681 12.964309 -0.254283
v 0.583177 6.139593 -2.474838
v -0.998286 5.622641 2.546196
v -1.460687 7.606669 -1.091288
v 0.826099 3.925305 -2.723076
v -1.112316 15.311534 0.295771
v -1.321751 9.494829 -0.991646
v -1.541442 11.905998 -0.474655
v -0.820882 8.900135 -0.217898
v -0.791336 15.269114 -0.602015
v -0.900734 7.992420 2.012151
v -0.285668 7.312188 -1.786519
v -0.724517 12.021675 1.257583
v 0.523109 13.243067 -0.057510
v -0.593527 16.864475 -0.126274
v 2.480658 3.925720 -1.254779
v -0.572122 14.511001 -0.318696
v -0.232439 5.583548 -1.910463
v -0.162863 15.748847 0.358512
v -0.742026 12.936980 0.220862
v 1.192900 9.796589 -0.088046
v -0.433964 6.924923 -0.705211
v 0.943564 11.721950 -0.590411
v -0.686741 15.833860 -0.247426
v -0.891744 9.806525 1.638653
v 1.197210 5.270811 -1.427395
v 0.008131 14.771308 -0.514803
v 1.078387 7.607903 1.134799
v 0.118649 13.843691 0.872827
v -1.203818 13.755075 0.450285
v 1.789202 7.669944 -0.983263
v 0.177166 3.860647 -0.179887
v 0.214291 12.959343 0.161128
v 2.314744 6.000864 0.814615
v -2.866869 3.923943 -0.936086
v -0.822098 15.823112 -0.093773
v 0.833342 7.893817 1.931268
v -0.006228 5.584560 1.951135
v 0.325037 11.943460 1.208330
v 0.405812 9.962920 -1.625558
v -1.102910 9.935926 -1.527679
v 1.888303 7.775413 0.779435
v 0.777697 9.396568 -1.109774
v -0.789253 8.887073 0.308573
v -0.721988 16.881004 -0.170015
v -0.771361 16.438711 -0.256199
v -1.874380 9.884338 -0.645988
v -0.920003 16.434790 -0.089080
v 0.581959 13.925494 0.336838
v 1.615596 7.312775 -0.119361
v 1.126703 3.924770 2.608618
v -0.259579 6.154530 -0.164286
v -0.273580 8.137309 -0.054635
v 0.616846 9.832699 1.540712
v -0.126725 8.114636 0.100121
v -0.027316 6.218907 -0.259396
v -0.233146 3.805341 0.010229
v -0.654608 15.823855 0.253823
v -0.797640 13.888801 -0.871094
v -2.053791 7.986637 0.973813
v 0.942060 5.765373 2.406304
v 0.901253 7.755783 -1.224393
v -0.210146 15.320086 0.611651
v -0.273789 15.264335 -0.630006
v -0.367682 16.453232 0.102452
v -0.840241 16.855295 -0.111615
v -1.349773 11.601101 0.070519
v -0.055583 11.511752 -0.555207
v 0.218042 3.835897 0.115887
v 1.355615 5.270114 1.302081
v -0.004809 8.187252 -0.155998
v 0.169216 6.166424 -0.050090
v -0.578751 16.864775 0.120497
v -0.475196 15.845518 -0.260230
v -0.501702 11.515631 -0.529280
v -0.782987 11.522802 -0.208027
v -2.744573 3.923927 1.272316
v 0.254087 12.999065 -0.662950
v -0.548012 16.445707 -0.269318
v -0.514971 15.032881 -0.624037
v -1.223301 11.224684 -0.864519
v -1.482648 12.005206 0.574184
v -2.721967 5.767070 -0.797758
v -1.090317 3.924439 2.740671
v 0.464584 8.939101 -0.295092
v -0.258471 1.818700 -0.158898
v -0.028940 0.253744 0.264359
v 0.060296 8.937838 -0.653371
v -0.461991 8.922966 -0.623113
v -0.537061 15.864980 0.529438
v -1.963087 7.066879 0.106277
v -0.122597 0.251443 -0.270977
v 0.812580 11.647949 -0.068324
v -1.390733 3.924744 -2.590974
v -0.271962 0.254060 0.026410
v 0.694529 6.932974 0.297306
v -0.746356 14.518326 -0.123784
v -0.382916 8.888395 0.668622
v -0.535243 14.533348 0.315390
v 0.652786 6.933603 -0.327318
v 0.183015 6.929035 -0.743172
v -0.948794 15.721792 -0.342743
v -0.380808 16.451735 -0.120760
v 1.288234 9.946510 -0.851202
v -1.312474 7.453378 1.301617
v -0.259946 9.787832 -1.390371
v 0.217923 0.252240 -0.230491
v -0.537092 16.887718 -0.005888
v -0.431137 11.537895 0.522661
v -0.040311 7.067500 1.792158
v -0.876850 14.635529 0.498125
v 1.388397 9.883869 0.659021
v 0.597982 11.259413 -0.981169
v -0.842878 6.920673 -0.236362
v 0.277479 0.248764 0.098580
v 1.000621 11.821993 0.457904
v -0.865616 11.786110 -1.225085
v -0.808622 15.818710 0.117689
v 0.266913 11.516558 -0.268930
v -0.307061 14.509148 -0.333133
v -0.906878 16.436285 0.134131
v -0.307883 15.846216 0.087305
v -0.443242 15.835471 0.240958
v 0.073945 14.717071 0.437961
v -0.341495 11.660697 -1.082010
v 0.050215 6.166065 0.181845
v -0.908935 15.746269 0.399942
v -0.321180 15.850658 -0.124097
v -0.452124 12.941154 0.476253
v 0.010838 11.534111 0.497692
v 0.137274 15.300555 0.228169
v -0.012711 13.962756 -0.920551
v -1.774084 9.822519 0.864298
v 1.813728 5.588145 -0.095393
v 0.323760 13.104227 0.598442
v -0.423266 14.962553 0.636659
v -0.102315 12.960226 -0.509683
v -1.260932 13.807016 -0.335105
v -1.182022 9.602991 1.101055
v 0.498842 8.926544 0.227723
v -0.516325 16.449322 0.269570
v -0.518168 12.950987 -0.484320
v -0.770762 12.941814 -0.195237
v -0.199377 1.865116 0.195475
v -0.038397 12.950260 0.450202
v -0.751897 11.532911 0.237722
v -0.298104 13.367741 0.855693
v 0.110838 15.277449 -0.286133
v -0.739676 16.442327 0.282689
v -1.138736 15.288482 -0.218533
v -0.825466 16.855598 0.135155
v -1.101137 11.161824 0.958601
v 0.281953 6.929783 0.766784
v -1.010455 13.076536 -0.602225
v -0.105960 9.920252 1.344436
v -0.593306 15.830319 -0.520899
v -0.727708 15.324812 0.639645
v -1.532961 5.266096 -1.263616
v 0.055821 1.874162 -0.309556
v -0.270340 14.531569 0.300905
v 0.185674 11.707060 -1.273814
v -0.944546 14.689347 -0.455272
v -0.731049 14.527725 0.140725
v -0.939124 13.180901 0.659667
v -0.885983 16.874710 0.014847
v 0.293860 11.526763 0.177778
v 0.897761 9.506216 0.999155
v -2.602528 5.623348 1.143367
v -0.804457 6.922552 0.387695
v 0.319775 1.854785 -0.069929
v -0.701087 16.881432 0.178975
v -1.096657 14.943043 0.045595
v -0.195850 11.588798 1.084198
v 0.617344 7.665569 -2.036428
v -1.135063 7.765776 -1.937957
v 0.142000 8.903772 0.634707
v 0.082974 6.194840 -0.165898
v 0.204464 1.866652 -0.206531
v -0.083040 6.149165 0.166226
v -0.029702 1.861405 0.255811
v -0.151841 6.189460 -0.228582
v -0.112442 1.845427 -0.254421
v 0.125394 6.165422 0.075265
v 0.254703 1.853018 0.109972
v -0.252357 6.140217 -0.023404
v -0.251474 1.840264 0.020802
v 0.452247 13.173039 0.281948
v 0.027348 13.237514 0.754618
v -0.629880 13.277512 0.786486
v -0.060693 13.108103 -0.803474
v -0.718869 13.148556 -0.771890
v -1.106848 13.266466 0.357455
v -1.143899 13.212162 -0.299219
v 0.416143 13.118280 -0.374440
v -0.103436 15.786785 -0.212611
v -0.341964 15.807494 0.460617
v -1.017575 15.796072 0.224765
v -0.391848 15.776775 -0.469964
v -0.779049 15.775482 -0.448463
v -0.082734 15.799516 0.172842
v -0.729173 15.806173 0.482118
v -1.038267 15.783369 -0.160688
v 0.137038 14.885855 0.212071
v -0.162297 14.839581 0.556893
v -0.659458 14.797012 0.588385
v -0.243954 14.904137 -0.590391
v -0.742190 14.861330 -0.559260
v -1.006220 14.786893 0.283987
v -1.041515 14.815063 -0.214439
v 0.102818 14.914266 -0.285992
v 0.801344 11.421606 0.410074
v 0.289225 11.391479 0.995457
v -0.671934 11.373839 1.057453
v 0.151748 11.461573 -1.067621
v -0.810539 11.443457 -1.006000
v -1.258055 11.379749 0.542580
v -1.322571 11.413076 -0.420612
v 0.737957 11.455409 -0.552743
v 1.091081 9.651088 0.478606
v 0.422090 9.713964 1.214480
v -0.665936 9.765158 1.267406
v 0.280881 9.588661 -1.295818
v -0.818383 9.640703 -1.233618
v -1.402844 9.759773 0.605768
v -1.477105 9.702786 -0.489662
v 1.028058 9.593250 -0.626097
v 0.542030 7.334572 1.520506
v -0.690601 7.255517 1.607409
v -1.695890 7.255210 0.725970
v 1.314733 7.539003 -0.693364
v 0.321736 7.538716 -1.564105
v -1.771424 7.333602 -0.507828
v -0.894368 7.462753 -1.496466
v 1.406793 7.463704 0.521169
v -0.714332 5.426309 1.772424
v -1.774515 5.423240 0.830005
v -1.854873 5.422308 -0.586224
v 1.648835 5.429224 0.625489
v 1.566722 5.429661 -0.791048
v -0.912349 5.424834 -1.648092
v 0.504557 5.427170 -1.733124
v 0.704328 5.427276 1.687701
vt 0.9553 0.4130
vt 0.9477 0.4295
vt 0.9430 0.4291
vt 0.9438 0.4096
vt 0.9528 0.4658
vt 0.9467 0.4484
vt 0.9514 0.4484
vt 0.9647 0.4635
vt 0.9294 0.4647
vt 0.9374 0.4480
vt 0.9421 0.4483
vt 0.9410 0.4682
vt 0.9681 0.4518
vt 0.9517 0.4437
vt 0.9520 0.4391
vt 0.9715 0.4402
vt 0.9692 0.4284
vt 0.9521 0.4345
vt 0.9523 0.4298
vt 0.9669 0.4165
vt 0.9154 0.4493
vt 0.9330 0.4429
vt 0.9328 0.4476
vt 0.9178 0.4613
vt 0.9166 0.4259
vt 0.9334 0.4336
vt 0.9331 0.4382
vt 0.9131 0.4374
vt 0.9319 0.4119
vt 0.9384 0.4290
vt 0.9337 0.4289
vt 0.9200 0.4143
vt 0.9585 0.4094
vt 0.9510 0.4269
vt 0.9461 0.4266
vt 0.9462 0.4061
vt 0.9576 0.4649
vt 0.9506 0.4467
vt 0.9555 0.4467
vt 0.9699 0.4620
vt 0.9330 0.4645
vt 0.9409 0.4466
vt 0.9458 0.4468
vt 0.9453 0.4677
vt 0.9732 0.4497
vt 0.9556 0.4418
vt 0.9558 0.4369
vt 0.9764 0.4374
vt 0.9735 0.4250
vt 0.9558 0.4320
vt 0.9558 0.4271
vt 0.9707 0.4126
vt 0.9178 0.4488
vt 0.9360 0.4414
vt 0.9360 0.4464
vt 0.9207 0.4612
vt 0.9182 0.4241
vt 0.9361 0.4316
vt 0.9360 0.4365
vt 0.9150 0.4363
vt 0.9338 0.4090
vt 0.9412 0.4266
vt 0.9363 0.4267
vt 0.9215 0.4118
vt 0.9484 0.4110
vt 0.9412 0.4263
vt 0.9371 0.4261
vt 0.9377 0.4078
vt 0.9462 0.4592
vt 0.9404 0.4429
vt 0.9445 0.4430
vt 0.9570 0.4570
vt 0.9247 0.4582
vt 0.9322 0.4426
vt 0.9363 0.4428
vt 0.9353 0.4613
vt 0.9600 0.4464
vt 0.9447 0.4389
vt 0.9448 0.4348
vt 0.9631 0.4358
vt 0.9610 0.4249
vt 0.9450 0.4307
vt 0.9452 0.4266
vt 0.9590 0.4140
vt 0.9119 0.4442
vt 0.9283 0.4381
vt 0.9281 0.4423
vt 0.9140 0.4552
vt 0.9129 0.4227
vt 0.9287 0.4299
vt 0.9285 0.4340
vt 0.9099 0.4333
vt 0.9269 0.4100
vt 0.9330 0.4259
vt 0.9289 0.4258
vt 0.9160 0.4121
vt 0.9484 0.4110
vt 0.9412 0.4263
vt 0.9371 0.4261
vt 0.9377 0.4078
vt 0.9462 0.4592
vt 0.9404 0.4429
vt 0.9445 0.4430
vt 0.9570 0.4570
vt 0.9247 0.4582
vt 0.9322 0.4426
vt 0.9363 0.4428
vt 0.9353 0.4613
vt 0.9600 0.4464
vt 0.9447 0.4389
vt 0.9448 0.4348
vt 0.9631 0.4358
vt 0.9610 0.4249
vt 0.9450 0.4307
vt 0.9452 0.4266
vt 0.9590 0.4140
vt 0.9119 0.4442
vt 0.9283 0.4381
vt 0.9281 0.4423
vt 0.9140 0.4552
vt 0.9129 0.4227
vt 0.9287 0.4299
vt 0.9285 0.4340
vt 0.9099 0.4333
vt 0.9269 0.4100
vt 0.9330 0.4259
vt 0.9289 0.4258
vt 0.9160 0.4121
vt 0.9484 0.4110
vt 0.9412 0.4263
vt 0.9371 0.4261
vt 0.9377 0.4078
vt 0.9462 0.4592
vt 0.9404 0.4429
vt 0.9445 0.4430
vt 0.9570 0.4570
vt 0.9247 0.4582
vt 0.9322 0.4426
vt 0.9363 0.4428
vt 0.9353 0.4613
vt 0.9600 0.4464
vt 0.9447 0.4389
vt 0.9448 0.4348
vt 0.9631 0.4358
vt 0.9610 0.4249
vt 0.9450 0.4307
vt 0.9452 0.4266
vt 0.9590 0.4140
vt 0.9119 0.4442
vt 0.9283 0.4381
vt 0.9281 0.4423
vt 0.9140 0.4552
vt 0.9129 0.4227
vt 0.9287 0.4299
vt 0.9285 0.4340
vt 0.9099 0.4333
vt 0.9269 0.4100
vt 0.9330 0.4259
vt 0.9289 0.4258
vt 0.9160 0.4121
vt 0.9727 0.4015
vt 0.9549 0.4138
vt 0.9555 0.3956
vt 0.9343 0.4799
vt 0.9394 0.4614
vt 0.9519 0.4755
vt 0.9000 0.4680
vt 0.9181 0.4554
vt 0.9172 0.4739
vt 0.9695 0.4711
vt 0.9571 0.4530
vt 0.9755 0.4539
vt 0.9814 0.4368
vt 0.9633 0.4317
vt 0.9771 0.4191
vt 0.8912 0.4327
vt 0.9096 0.4375
vt 0.8956 0.4503
vt 0.9031 0.3984
vt 0.9158 0.4162
vt 0.8972 0.4155
vt 0.9384 0.3896
vt 0.9337 0.4077
vt 0.9208 0.3940
vt 0.9519 0.4755
vt 0.9695 0.4711
vt 0.9695 0.4711
vt 0.9519 0.4755
vt 0.8956 0.4503
vt 0.9000 0.4680
vt 0.9000 0.4680
vt 0.8956 0.4503
vt 0.9208 0.3940
vt 0.9031 0.3984
vt 0.9031 0.3984
vt 0.9208 0.3940
vt 0.9755 0.4539
vt 0.9814 0.4368
vt 0.9814 0.4368
vt 0.9755 0.4539
vt 0.9771 0.4191
vt 0.9727 0.4015
vt 0.9727 0.4015
vt 0.9771 0.4191
vt 0.9172 0.4739
vt 0.9343 0.4799
vt 0.9343 0.4799
vt 0.9172 0.4739
vt 0.8972 0.4155
vt 0.8912 0.4327
vt 0.8912 0.4327
vt 0.8972 0.4155
vt 0.9555 0.3956
vt 0.9384 0.3896
vt 0.9384 0.3896
vt 0.9555 0.3956
vt 0.9484 0.4110
vt 0.9412 0.4263
vt 0.9371 0.4261
vt 0.9377 0.4078
vt 0.9462 0.4592
vt 0.9404 0.4429
vt 0.9445 0.4430
vt 0.9570 0.4570
vt 0.9247 0.4582
vt 0.9322 0.4426
vt 0.9363 0.4428
vt 0.9353 0.4613
vt 0.9600 0.4464
vt 0.9447 0.4389
vt 0.9448 0.4348
vt 0.9631 0.4358
vt 0.9610 0.4249
vt 0.9450 0.4307
vt 0.9452 0.4266
vt 0.9590 0.4140
vt 0.9119 0.4442
vt 0.9283 0.4381
vt 0.9281 0.4423
vt 0.9140 0.4552
vt 0.9129 0.4227
vt 0.9287 0.4299
vt 0.9285 0.4340
vt 0.9099 0.4333
vt 0.9269 0.4100
vt 0.9330 0.4259
vt 0.9289 0.4258
vt 0.9160 0.4121
vt 0.8048 0.9140
vt 0.8032 0.9391
vt 0.8010 0.9383
vt 0.8023 0.9136
vt 0.8016 0.9648
vt 0.8000 0.9905
vt 0.7982 0.9912
vt 0.7996 0.9647
vt 0.7894 0.9139
vt 0.7896 0.9391
vt 0.7872 0.9391
vt 0.7867 0.9139
vt 0.7900 0.9647
vt 0.7905 0.9904
vt 0.7893 0.9904
vt 0.7882 0.9648
vt 0.7998 0.9139
vt 0.7988 0.9390
vt 0.7966 0.9397
vt 0.7973 0.9142
vt 0.7978 0.9651
vt 0.7968 0.9912
vt 0.7953 0.9912
vt 0.7959 0.9654
vt 0.8100 0.9147
vt 0.8077 0.9398
vt 0.8055 0.9398
vt 0.8074 0.9145
vt 0.8056 0.9651
vt 0.8035 0.9904
vt 0.8018 0.9898
vt 0.8037 0.9648
vt 0.7947 0.9140
vt 0.7943 0.9394
vt 0.7920 0.9391
vt 0.7922 0.9139
vt 0.7939 0.9651
vt 0.7935 0.9907
vt 0.7917 0.9903
vt 0.7918 0.9647
vt 0.7951 0.8887
vt 0.7923 0.8887
vt 0.7980 0.8887
vt 0.8100 0.9399
vt 0.8076 0.9654
vt 0.8052 0.9910
vt 0.8123 0.8895
vt 0.8093 0.8892
vt 0.8152 0.8898
vt 0.8126 0.9148
vt 0.8008 0.8888
vt 0.8036 0.8888
vt 0.7893 0.8887
vt 0.7863 0.8887
vt 0.8065 0.8890
vt 0.9208 0.3940
vt 0.9031 0.3984
vt 0.9384 0.3896
vt 0.8972 0.4155
vt 0.8912 0.4327
vt 0.8956 0.4503
vt 0.9000 0.4680
vt 0.9771 0.4191
vt 0.9727 0.4015
vt 0.9814 0.4368
vt 0.9755 0.4539
vt 0.9695 0.4711
vt 0.9172 0.4739
vt 0.9343 0.4799
vt 0.9519 0.4755
vt 0.9555 0.3956
vt 0.9160 0.4121
vt 0.9289 0.4258
vt 0.9099 0.4333
vt 0.9285 0.4340
vt 0.9140 0.4552
vt 0.9281 0.4423
vt 0.9590 0.4140
vt 0.9452 0.4266
vt 0.9631 0.4358
vt 0.9448 0.4348
vt 0.9353 0.4613
vt 0.9363 0.4428
vt 0.9570 0.4570
vt 0.9445 0.4430
vt 0.9377 0.4078
vt 0.9371 0.4261
vt 0.9208 0.3940
vt 0.9031 0.3984
vt 0.9384 0.3896
vt 0.8972 0.4155
vt 0.8912 0.4327
vt 0.8956 0.4503
vt 0.9000 0.4680
vt 0.9771 0.4191
vt 0.9727 0.4015
vt 0.9814 0.4368
vt 0.9755 0.4539
vt 0.9695 0.4711
vt 0.9172 0.4739
vt 0.9343 0.4799
vt 0.9519 0.4755
vt 0.9555 0.3956
vt 0.9208 0.3940
vt 0.9031 0.3984
vt 0.9384 0.3896
vt 0.8972 0.4155
vt 0.8912 0.4327
vt 0.8956 0.4503
vt 0.9000 0.4680
vt 0.9771 0.4191
vt 0.9727 0.4015
vt 0.9814 0.4368
vt 0.9755 0.4539
vt 0.9695 0.4711
vt 0.9172 0.4739
vt 0.9343 0.4799
vt 0.9519 0.4755
vt 0.9555 0.3956
vt 0.9208 0.3940
vt 0.9031 0.3984
vt 0.9384 0.3896
vt 0.8972 0.4155
vt 0.8912 0.4327
vt 0.8956 0.4503
vt 0.9000 0.4680
vt 0.9771 0.4191
vt 0.9727 0.4015
vt 0.9814 0.4368
vt 0.9755 0.4539
vt 0.9695 0.4711
vt 0.9172 0.4739
vt 0.9343 0.4799
vt 0.9519 0.4755
vt 0.9555 0.3956
vt 0.9265 0.3913
vt 0.9066 0.3969
vt 0.9464 0.3857
vt 0.9003 0.4165
vt 0.8940 0.4362
vt 0.8996 0.4561
vt 0.9053 0.4760
vt 0.9913 0.4180
vt 0.9857 0.3982
vt 0.9969 0.4379
vt 0.9906 0.4576
vt 0.9844 0.4773
vt 0.9250 0.4823
vt 0.9447 0.4886
vt 0.9646 0.4829
vt 0.9661 0.3920
vt 0.9254 0.3949
vt 0.9063 0.3996
vt 0.9445 0.3901
vt 0.8997 0.4182
vt 0.8931 0.4367
vt 0.8979 0.4558
vt 0.9027 0.4749
vt 0.9863 0.4223
vt 0.9815 0.4032
vt 0.9911 0.4413
vt 0.9845 0.4599
vt 0.9780 0.4785
vt 0.9213 0.4815
vt 0.9399 0.4881
vt 0.9589 0.4833
vt 0.9630 0.3967
vn 0.4521 0.5513 0.7011
vn 0.4445 0.5560 0.7023
vn 0.0480 0.6053 0.7945
vn 0.0414 0.5982 0.8003
vn 0.3646 0.5619 -0.7425
vn 0.3561 0.5666 -0.7431
vn 0.5501 0.5608 -0.6188
vn 0.5525 0.5561 -0.6209
vn -0.4648 0.5690 -0.6784
vn -0.4555 0.5737 -0.6808
vn -0.0501 0.6148 -0.7871
vn -0.0551 0.6077 -0.7922
vn 0.6995 0.5572 -0.4474
vn 0.7003 0.5616 -0.4406
vn 0.7998 0.5984 -0.0479
vn 0.8052 0.5912 -0.0472
vn 0.7518 0.5506 0.3627
vn 0.7527 0.5554 0.3535
vn 0.6248 0.5519 0.5523
vn 0.6264 0.5470 0.5554
vn -0.7244 0.5730 -0.3833
vn -0.7272 0.5781 -0.3702
vn -0.6165 0.5683 -0.5449
vn -0.6172 0.5638 -0.5488
vn -0.6784 0.5699 0.4637
vn -0.6818 0.5749 0.4523
vn -0.7786 0.6258 0.0468
vn -0.7842 0.6189 0.0444
vn -0.3790 0.5627 0.7346
vn -0.3680 0.5676 0.7365
vn -0.5479 0.5641 0.6178
vn -0.5502 0.5594 0.6200
vn 0.8116 0.5423 0.2172
vn 0.8169 0.5417 0.1980
vn 0.5977 0.5671 0.5667
vn 0.5891 0.5567 0.5857
vn -0.3155 0.5506 -0.7729
vn -0.2924 0.5494 -0.7827
vn -0.0698 0.5662 -0.8213
vn -0.0746 0.5656 -0.8213
vn -0.8411 0.5277 -0.1189
vn -0.8426 0.5276 -0.1081
vn -0.6338 0.5768 -0.5154
vn -0.6537 0.5662 -0.5022
vn 0.1758 0.5563 -0.8122
vn 0.1611 0.5554 -0.8159
vn 0.5365 0.5858 -0.6074
vn 0.5383 0.5756 -0.6155
vn 0.7840 0.5516 -0.2846
vn 0.7899 0.5507 -0.2698
vn 0.8279 0.5598 -0.0353
vn 0.8286 0.5588 -0.0334
vn -0.8108 0.5167 0.2749
vn -0.8171 0.5160 0.2572
vn -0.8464 0.5269 0.0772
vn -0.8461 0.5267 0.0819
vn -0.1707 0.5119 0.8419
vn -0.1560 0.5118 0.8448
vn -0.5507 0.5527 0.6255
vn -0.5548 0.5426 0.6307
vn 0.2360 0.5193 0.8214
vn 0.2278 0.5195 0.8235
vn 0.0344 0.5202 0.8533
vn 0.0312 0.5196 0.8538
vn 0.7865 0.3961 -0.4738
vn 0.7847 0.3970 -0.4760
vn 0.9009 0.4286 -0.0681
vn 0.9037 0.4216 -0.0744
vn -0.8641 0.3776 -0.3329
vn -0.8631 0.3778 -0.3352
vn -0.6830 0.3948 -0.6145
vn -0.6797 0.3922 -0.6198
vn -0.8296 0.3851 0.4043
vn -0.8249 0.3851 0.4139
vn -0.9178 0.3939 0.0494
vn -0.9212 0.3871 0.0398
vn -0.4193 0.3778 -0.8255
vn -0.4289 0.3779 -0.8205
vn -0.0412 0.4017 -0.9148
vn -0.0254 0.3952 -0.9182
vn 0.3725 0.3867 -0.8436
vn 0.3725 0.3877 -0.8432
vn 0.6057 0.4011 -0.6872
vn 0.6077 0.3990 -0.6867
vn -0.3178 0.3998 0.8597
vn -0.3272 0.3997 0.8563
vn -0.6115 0.4129 0.6749
vn -0.6127 0.4102 0.6755
vn 0.4444 0.4106 0.7962
vn 0.4482 0.4108 0.7939
vn 0.0573 0.4227 0.9045
vn 0.0701 0.4161 0.9066
vn 0.8456 0.4107 0.3411
vn 0.8427 0.4113 0.3473
vn 0.6804 0.4252 0.5969
vn 0.6818 0.4229 0.5969
vn 0.8468 0.3803 -0.3718
vn 0.8430 0.3782 -0.3826
vn 0.9221 0.3834 -0.0517
vn 0.9250 0.3773 -0.0446
vn -0.8916 0.3600 -0.2748
vn -0.8883 0.3583 -0.2874
vn -0.6970 0.3899 -0.6019
vn -0.6986 0.3874 -0.6016
vn -0.8337 0.3603 0.4184
vn -0.8303 0.3588 0.4265
vn -0.9282 0.3652 0.0705
vn -0.9302 0.3587 0.0778
vn -0.3982 0.3661 -0.8411
vn -0.4070 0.3638 -0.8379
vn -0.0656 0.3721 -0.9259
vn -0.0701 0.3656 -0.9281
vn 0.2647 0.3736 -0.8890
vn 0.2755 0.3717 -0.8865
vn 0.6038 0.4076 -0.6850
vn 0.6051 0.4049 -0.6855
vn -0.3028 0.3665 0.8798
vn -0.3130 0.3646 0.8770
vn -0.6086 0.3860 0.6933
vn -0.6078 0.3838 0.6952
vn 0.3925 0.3742 0.8402
vn 0.4018 0.3728 0.8364
vn 0.0518 0.3767 0.9249
vn 0.0493 0.3703 0.9276
vn 0.8789 0.3800 0.2883
vn 0.8776 0.3781 0.2949
vn 0.6843 0.4033 0.6076
vn 0.6840 0.4008 0.6095
vn 0.7619 0.4264 -0.4876
vn 0.7589 0.4238 -0.4944
vn 0.8846 0.4644 -0.0424
vn 0.8885 0.4580 -0.0272
vn -0.8887 0.2379 -0.3919
vn -0.8866 0.2356 -0.3981
vn -0.7406 0.2658 -0.6171
vn -0.7432 0.2649 -0.6144
vn -0.8019 0.2390 0.5476
vn -0.8034 0.2379 0.5459
vn -0.9644 0.2545 0.0721
vn -0.9647 0.2475 0.0894
vn -0.5371 0.2825 -0.7948
vn -0.5388 0.2807 -0.7943
vn -0.1011 0.3579 -0.9283
vn -0.0902 0.3522 -0.9316
vn 0.3697 0.3847 -0.8458
vn 0.3750 0.3822 -0.8446
vn 0.5900 0.4172 -0.6913
vn 0.5895 0.4168 -0.6920
vn -0.4543 0.2755 0.8472
vn -0.4566 0.2744 0.8463
vn -0.6450 0.2595 0.7188
vn -0.6442 0.2593 0.7196
vn 0.4981 0.3844 0.7773
vn 0.5015 0.3830 0.7758
vn 0.0132 0.3608 0.9325
vn 0.0292 0.3558 0.9341
vn 0.7937 0.4216 0.4386
vn 0.7936 0.4204 0.4399
vn 0.6644 0.4094 0.6253
vn 0.6630 0.4091 0.6269
vn 0.6102 0.3705 -0.7002
vn 0.5879 0.4240 -0.6890
vn 0.7835 0.3913 -0.4828
vn -0.9789 0.1975 0.0528
vn -0.9712 0.2311 0.0580
vn -0.9068 0.1682 -0.3866
vn -0.6512 0.2302 0.7232
vn -0.6510 0.2569 0.7143
vn -0.8572 0.1794 0.4827
vn -0.7289 0.2118 -0.6511
vn -0.7332 0.2379 -0.6370
vn -0.4904 0.2207 -0.8431
vn -0.0571 0.3097 -0.9491
vn -0.0714 0.3553 -0.9320
vn 0.3766 0.3358 -0.8634
vn 0.0515 0.3335 0.9414
vn 0.0375 0.3809 0.9239
vn -0.3886 0.2444 0.8884
vn 0.6857 0.3890 0.6152
vn 0.6608 0.4410 0.6073
vn 0.4707 0.3582 0.8063
vn 0.8995 0.4330 -0.0583
vn 0.8692 0.4917 -0.0529
vn 0.8333 0.4028 0.3786
vn -0.8892 0.2141 -0.4043
vn -0.7209 0.2333 -0.6526
vn -0.7073 0.2380 -0.6657
vn -0.8765 0.2193 -0.4286
vn -0.3900 0.2745 0.8789
vn -0.6498 0.2504 0.7177
vn -0.6435 0.2543 0.7220
vn -0.3961 0.2765 0.8756
vn 0.8352 0.4032 0.3740
vn 0.6875 0.3916 0.6116
vn 0.6982 0.3921 0.5990
vn 0.8332 0.4017 0.3800
vn -0.4908 0.2534 -0.8336
vn -0.0537 0.3221 -0.9452
vn -0.0273 0.3239 -0.9457
vn -0.4934 0.2560 -0.8313
vn 0.3862 0.3478 -0.8544
vn 0.6103 0.3734 -0.6987
vn 0.6158 0.3736 -0.6937
vn 0.4089 0.3498 -0.8428
vn -0.8477 0.2228 0.4815
vn -0.9727 0.2277 0.0442
vn -0.9725 0.2308 0.0312
vn -0.8398 0.2279 0.4928
vn 0.4730 0.3676 0.8007
vn 0.0515 0.3431 0.9379
vn 0.0747 0.3440 0.9360
vn 0.4948 0.3693 0.7866
vn 0.7797 0.3919 -0.4884
vn 0.9010 0.4293 -0.0634
vn 0.9023 0.4248 -0.0738
vn 0.7719 0.3897 -0.5023
vn 0.7864 0.3707 -0.4942
vn 0.7892 0.3727 -0.4881
vn 0.9099 0.4083 -0.0731
vn 0.9114 0.4026 -0.0852
vn -0.8546 0.3123 -0.4149
vn -0.8543 0.3134 -0.4147
vn -0.6909 0.3241 -0.6462
vn -0.6862 0.3222 -0.6521
vn -0.8305 0.3220 0.4545
vn -0.8258 0.3226 0.4625
vn -0.9402 0.3384 0.0373
vn -0.9433 0.3313 0.0215
vn -0.4624 0.3217 -0.8263
vn -0.4703 0.3220 -0.8216
vn -0.0501 0.3618 -0.9309
vn -0.0276 0.3565 -0.9339
vn 0.4048 0.3516 -0.8441
vn 0.3979 0.3532 -0.8467
vn 0.6177 0.3666 -0.6958
vn 0.6193 0.3644 -0.6955
vn -0.3673 0.3478 0.8626
vn -0.3734 0.3482 0.8598
vn -0.6307 0.3459 0.6947
vn -0.6320 0.3436 0.6947
vn 0.4833 0.3834 0.7870
vn 0.4775 0.3849 0.7898
vn 0.0460 0.3910 0.9192
vn 0.0683 0.3857 0.9201
vn 0.8553 0.3889 0.3425
vn 0.8542 0.3900 0.3439
vn 0.6998 0.3966 0.5941
vn 0.7056 0.3942 0.5888
vn -0.9864 0.0100 0.1639
vn -0.9865 0.0020 0.1639
vn -0.8854 0.0021 -0.4647
vn -0.8888 0.0103 -0.4581
vn -0.9857 -0.0062 0.1684
vn -0.9907 -0.0073 0.1356
vn -0.8101 -0.0098 -0.5862
vn -0.8820 -0.0094 -0.4711
vn 0.8914 0.0108 0.4531
vn 0.8876 0.0293 0.4596
vn 0.4143 0.0266 0.9098
vn 0.4386 0.0072 0.8986
vn 0.8886 0.0465 0.4564
vn 0.8922 0.0494 0.4489
vn 0.4634 0.0475 0.8849
vn 0.4059 0.0441 0.9129
vn -0.4327 0.0095 -0.9015
vn -0.4102 0.0026 -0.9120
vn 0.1882 0.0151 -0.9820
vn 0.1466 0.0141 -0.9891
vn -0.3820 -0.0038 -0.9242
vn -0.3519 -0.0032 -0.9360
vn 0.2144 0.0168 -0.9766
vn 0.2361 0.0171 -0.9716
vn -0.2056 0.0055 0.9786
vn -0.2459 0.0165 0.9691
vn -0.7396 0.0097 0.6730
vn -0.7259 0.0101 0.6877
vn -0.2444 0.0261 0.9693
vn -0.2110 0.0290 0.9770
vn -0.7485 0.0095 0.6631
vn -0.7378 0.0095 0.6750
vn 0.6757 0.0164 -0.7370
vn 0.7038 0.0261 -0.7099
vn 0.9876 0.0331 -0.1537
vn 0.9847 0.0167 -0.1734
vn 0.7315 0.0345 -0.6810
vn 0.7313 0.0356 -0.6811
vn 0.9793 0.0495 -0.1962
vn 0.9872 0.0478 -0.1523
vn 0.6641 0.0136 -0.7475
vn 0.9828 0.0125 -0.1840
vn 0.1299 0.0126 -0.9914
vn -0.1727 0.0023 0.9850
vn -0.7133 0.0086 0.7008
vn 0.4601 0.0025 0.8879
vn -0.4449 0.0095 -0.8955
vn -0.8894 0.0104 -0.4570
vn 0.8945 0.0064 0.4471
vn -0.9869 0.0101 0.1613
vn 0.8605 0.3870 0.3312
vn 0.7219 0.3929 0.5696
vn 0.9126 0.3955 -0.1034
vn 0.4966 0.3819 0.7794
vn 0.0950 0.3789 0.9206
vn -0.3542 0.3464 0.8686
vn -0.6297 0.3423 0.6973
vn 0.4136 0.3500 -0.8405
vn 0.6222 0.3631 -0.6936
vn 0.0017 0.3502 -0.9367
vn -0.4442 0.3206 -0.8366
vn -0.6684 0.3214 -0.6708
vn -0.8375 0.3197 0.4432
vn -0.9466 0.3223 0.0031
vn -0.8516 0.3105 -0.4222
vn 0.7841 0.3686 -0.4994
vn -0.1415 0.9899 -0.0053
vn 0.7914 0.4208 0.4435
vn 0.6584 0.4085 0.6321
vn 0.8943 0.4472 -0.0139
vn 0.4940 0.3835 0.7803
vn 0.0311 0.3448 0.9382
vn -0.4509 0.2751 0.8492
vn -0.6376 0.2598 0.7253
vn 0.3665 0.3837 -0.8476
vn 0.5969 0.4174 -0.6852
vn -0.0909 0.3404 -0.9359
vn -0.5382 0.2814 -0.7945
vn -0.7494 0.2639 -0.6073
vn -0.7982 0.2387 0.5531
vn -0.9662 0.2357 0.1046
vn -0.8939 0.2364 -0.3808
vn 0.7678 0.4262 -0.4783
vn 0.8798 0.3783 0.2879
vn 0.6765 0.3996 0.6186
vn 0.9290 0.3679 -0.0397
vn 0.3858 0.3722 0.8442
vn 0.0504 0.3608 0.9313
vn -0.2957 0.3648 0.8829
vn -0.6029 0.3829 0.6999
vn 0.2582 0.3713 -0.8919
vn 0.6107 0.4037 -0.6812
vn -0.0702 0.3559 -0.9319
vn -0.3936 0.3641 -0.8441
vn -0.7068 0.3862 -0.5927
vn -0.8351 0.3588 0.4171
vn -0.9334 0.3489 0.0836
vn -0.8960 0.3577 -0.2631
vn 0.8523 0.3779 -0.3617
vn 0.8504 0.4086 0.3314
vn 0.6929 0.4216 0.5849
vn 0.9068 0.4130 -0.0842
vn 0.4476 0.4088 0.7953
vn 0.0824 0.4075 0.9095
vn -0.3063 0.3976 0.8649
vn -0.6105 0.4087 0.6785
vn 0.3770 0.3850 -0.8424
vn 0.6111 0.3978 -0.6843
vn -0.0097 0.3869 -0.9221
vn -0.4056 0.3757 -0.8333
vn -0.6659 0.3906 -0.6356
vn -0.8354 0.3825 0.3946
vn -0.9252 0.3782 0.0304
vn -0.8634 0.3755 -0.3370
vn 0.7877 0.3943 -0.4733
vn 0.2374 0.5179 0.8218
vn 0.0211 0.5192 0.8544
vn 0.5791 0.5445 0.6068
vn -0.1863 0.5107 0.8393
vn -0.5586 0.5314 0.6368
vn -0.8051 0.5157 0.2931
vn -0.8453 0.5263 0.0921
vn 0.7811 0.5501 -0.2953
vn 0.8295 0.5580 -0.0214
vn 0.5434 0.5634 -0.6224
vn 0.1864 0.5548 -0.8108
vn -0.0894 0.5651 -0.8201
vn -0.8413 0.5266 -0.1217
vn -0.6743 0.5538 -0.4885
vn -0.3418 0.5488 -0.7629
vn 0.8065 0.5401 0.2406
vn -0.3979 0.5587 0.7277
vn -0.5518 0.5564 0.6212
vn 0.0358 0.5911 0.8058
vn -0.6702 0.5652 0.4809
vn -0.7895 0.6123 0.0432
vn -0.7175 0.5684 -0.4025
vn -0.6180 0.5609 -0.5509
vn 0.7464 0.5464 0.3799
vn 0.6273 0.5438 0.5575
vn 0.8104 0.5839 -0.0480
vn 0.6927 0.5534 -0.4626
vn 0.5536 0.5530 -0.6226
vn -0.4810 0.5649 -0.6705
vn -0.0588 0.6007 -0.7973
vn 0.3804 0.5576 -0.7378
vn 0.4665 0.5470 0.6951
usemtl None
s 1
f 395/1/1 306/2/2 3/3/3 191/4/4
f 394/5/5 254/6/6 7/7/7 179/8/8
f 393/9/9 175/10/10 6/11/11 171/12/12
f 392/13/13 253/14/14 11/15/15 287/16/16
f 391/17/17 249/18/18 2/19/19 223/20/20
f 390/21/21 267/22/22 10/23/23 311/24/24
f 389/25/25 322/26/26 14/27/27 135/28/28
f 388/29/29 145/30/30 16/31/31 146/32/32
f 387/33/33 293/34/34 19/35/35 181/36/36
f 386/37/37 242/38/38 23/39/39 165/40/40
f 385/41/41 162/42/42 22/43/43 157/44/44
f 384/45/45 241/46/46 27/47/47 215/48/48
f 383/49/49 238/50/50 18/51/51 203/52/52
f 382/53/53 197/54/54 26/55/55 244/56/56
f 381/57/57 251/58/58 30/59/59 258/60/60
f 380/61/61 329/62/62 32/63/63 263/64/64
f 379/65/65 272/66/66 35/67/67 174/68/68
f 378/69/69 229/70/70 39/71/71 160/72/72
f 377/73/73 299/74/74 38/75/75 151/76/76
f 376/77/77 228/78/78 43/79/79 259/80/80
f 375/81/81 221/82/82 34/83/83 196/84/84
f 374/85/85 262/86/86 42/87/87 292/88/88
f 373/89/89 283/90/90 46/91/91 308/92/92
f 372/93/93 319/94/94 48/95/95 320/96/96
f 371/97/97 154/98/98 51/99/99 246/100/100
f 370/101/101 296/102/102 55/103/103 234/104/104
f 369/105/105 173/106/106 54/107/107 220/108/108
f 368/109/109 295/110/110 59/111/111 278/112/112
f 367/113/113 290/114/114 50/115/115 266/116/116
f 366/117/117 282/118/118 58/119/119 305/120/120
f 365/121/121 298/122/122 62/123/123 326/124/124
f 364/125/125 186/126/126 64/127/127 140/128/128
f 363/129/129 281/130/130 67/131/131 139/132/132
f 362/133/133 189/134/134 71/135/135 315/136/136
f 361/137/137 271/138/138 70/139/139 325/140/140
f 360/141/141 177/142/142 75/143/143 233/144/144
f 359/145/145 227/146/146 66/147/147 180/148/148
f 358/149/149 211/150/150 74/151/151 264/152/152
f 357/153/153 276/154/154 78/155/155 289/156/156
f 356/157/157 275/158/158 80/159/159 277/160/160
f 81/161/161 168/162/162 256/163/163
f 84/164/164 318/165/165 201/166/166
f 86/167/167 304/168/168 274/169/169
f 85/170/170 219/171/171 199/172/172
f 87/173/173 198/174/174 232/175/175
f 88/176/176 324/177/177 302/178/178
f 89/179/179 226/180/180 294/181/181
f 83/182/182 261/183/183 218/184/184
f 355/185/185 255/186/186 90/187/187 303/188/188
f 354/189/189 280/190/190 92/191/191 310/192/192
f 353/193/193 172/194/194 94/195/195 284/196/196
f 352/197/197 309/198/198 96/199/199 163/200/200
f 351/201/201 138/202/202 97/203/203 217/204/204
f 350/205/205 153/206/206 91/207/207 159/208/208
f 349/209/209 243/210/210 93/211/211 216/212/212
f 348/213/213 148/214/214 95/215/215 301/216/216
f 347/217/217 144/218/218 100/219/219 167/220/220
f 346/221/221 250/222/222 104/223/223 307/224/224
f 345/225/225 316/226/226 103/227/227 142/228/228
f 344/229/229 170/230/230 108/231/231 129/232/232
f 343/233/233 273/234/234 99/235/235 231/236/236
f 342/237/237 252/238/238 107/239/239 317/240/240
f 341/241/241 313/242/242 111/243/243 300/244/244
f 340/245/245 149/246/246 113/247/247 288/248/248
f 339/249/249 210/250/250 116/251/251 239/252/252
f 338/253/253 206/254/254 119/255/255 205/256/256
f 337/257/257 222/258/258 122/259/259 137/260/260
f 336/261/261 147/262/262 125/263/263 279/264/264
f 335/265/265 130/266/266 126/267/267 312/268/268
f 334/269/269 136/270/270 128/271/271 209/272/272
f 333/273/273 141/274/274 115/275/275 297/276/276
f 332/277/277 208/278/278 118/279/279 131/280/280
f 331/281/281 185/282/282 121/283/283 323/284/284
f 330/285/285 224/286/286 124/287/287 225/288/288
f 185/282/282 330/285/285 225/288/288 121/283/283
f 126/267/267 209/272/272 330/285/285 185/282/282
f 209/272/272 128/271/271 224/286/286 330/285/285
f 260/289/289 331/281/281 323/284/284 120/290/290
f 127/291/291 312/268/268 331/281/281 260/289/289
f 312/268/268 126/267/267 185/282/282 331/281/281
f 141/274/274 332/277/277 131/280/280 115/275/275
f 122/292/259 279/293/264 332/277/277 141/274/274
f 279/293/264 125/294/263 208/278/278 332/277/277
f 240/295/292 333/273/273 297/276/276 114/296/293
f 123/297/294 137/298/260 333/273/273 240/295/292
f 137/298/260 122/292/259 141/274/274 333/273/273
f 130/266/266 334/269/269 209/272/272 126/267/267
f 116/251/251 205/256/256 334/269/269 130/266/266
f 205/256/256 119/255/255 136/270/270 334/269/269
f 245/299/295 335/265/265 312/268/268 127/291/291
f 117/300/296 239/252/252 335/265/265 245/299/295
f 239/252/252 116/251/251 130/266/266 335/265/265
f 222/258/258 336/261/261 279/264/264 122/259/259
f 121/283/283 225/288/288 336/261/261 222/258/258
f 225/288/288 124/287/287 147/262/262 336/261/261
f 268/301/297 337/257/257 137/260/260 123/302/294
f 120/290/290 323/284/284 337/257/257 268/301/297
f 323/284/284 121/283/283 222/258/258 337/257/257
f 210/250/250 338/253/253 205/256/256 116/251/251
f 115/275/275 131/280/280 338/253/253 210/250/250
f 131/280/280 118/279/279 206/254/254 338/253/253
f 248/303/298 339/249/249 239/252/252 117/300/296
f 114/296/293 297/276/276 339/249/249 248/303/298
f 297/276/276 115/275/275 210/250/250 339/249/249
f 269/304/299 340/245/245 288/248/248 112/305/300
f 101/306/301 167/220/220 340/245/245 269/304/299
f 167/220/220 100/219/219 149/246/246 340/245/245
f 192/307/302 341/241/241 300/244/244 110/308/303
f 112/305/300 288/248/248 341/241/241 192/307/302
f 288/248/248 113/247/247 313/242/242 341/241/241
f 166/309/304 342/237/237 317/240/240 106/310/305
f 110/308/303 300/244/244 342/237/237 166/309/304
f 300/244/244 111/243/243 252/238/238 342/237/237
f 314/311/306 343/233/233 231/236/236 98/312/307
f 109/313/308 129/232/232 343/233/233 314/311/306
f 129/232/232 108/231/231 273/234/234 343/233/233
f 270/314/309 344/229/229 129/232/232 109/313/308
f 105/315/310 307/224/224 344/229/229 270/314/309
f 307/224/224 104/223/223 170/230/230 344/229/229
f 235/316/311 345/225/225 142/228/228 102/317/312
f 106/310/305 317/240/240 345/225/225 235/316/311
f 317/240/240 107/239/239 316/226/226 345/225/225
f 161/318/313 346/221/221 307/224/224 105/315/310
f 102/317/312 142/228/228 346/221/221 161/318/313
f 142/228/228 103/227/227 250/222/222 346/221/221
f 176/319/314 347/217/217 167/220/220 101/306/301
f 98/312/307 231/236/236 347/217/217 176/319/314
f 231/236/236 99/235/235 144/218/218 347/217/217
f 138/202/202 348/213/213 301/216/216 97/203/203
f 81/161/161 256/163/163 348/213/213 138/202/202
f 256/163/163 83/182/182 148/214/214 348/213/213
f 172/194/194 349/209/209 216/212/212 94/195/195
f 89/179/179 294/181/181 349/209/209 172/194/194
f 294/181/181 88/176/176 243/210/210 349/209/209
f 280/190/190 350/205/205 159/208/208 92/191/191
f 86/167/167 274/169/169 350/205/205 280/190/190
f 274/169/169 84/164/164 153/206/206 350/205/205
f 309/198/198 351/201/201 217/204/204 96/199/199
f 87/173/173 232/175/175 351/201/201 309/198/198
f 232/175/175 81/161/161 138/202/202 351/201/201
f 255/186/186 352/197/197 163/200/200 90/187/187
f 85/170/170 199/172/172 352/197/197 255/186/186
f 199/172/172 87/173/173 309/198/198 352/197/197
f 148/214/214 353/193/193 284/196/196 95/215/215
f 83/182/182 218/184/184 353/193/193 148/214/214
f 218/184/184 89/179/179 172/194/194 353/193/193
f 243/210/210 354/189/189 310/192/192 93/211/211
f 88/176/176 302/178/178 354/189/189 243/210/210
f 302/178/178 86/167/167 280/190/190 354/189/189
f 153/206/206 355/185/185 303/188/188 91/207/207
f 84/164/164 201/166/166 355/185/185 153/206/206
f 201/166/166 85/170/170 255/186/186 355/185/185
f 218/184/184 226/320/180 89/179/179
f 218/184/184 261/183/183 226/320/180
f 261/183/183 82/321/315 226/320/180
f 294/181/181 324/322/177 88/176/176
f 294/181/181 226/180/180 324/322/177
f 226/180/180 82/323/315 324/322/177
f 302/178/178 304/324/168 86/167/167
f 302/178/178 324/177/177 304/324/168
f 324/177/177 82/325/315 304/324/168
f 232/175/175 168/326/162 81/161/161
f 232/175/175 198/174/174 168/326/162
f 198/174/174 82/327/315 168/326/162
f 199/172/172 198/328/174 87/173/173
f 199/172/172 219/171/171 198/328/174
f 219/171/171 82/329/315 198/328/174
f 274/169/169 318/330/165 84/164/164
f 274/169/169 304/168/168 318/330/165
f 304/168/168 82/331/315 318/330/165
f 201/166/166 219/332/171 85/170/170
f 201/166/166 318/165/165 219/332/171
f 318/165/165 82/333/315 219/332/171
f 256/163/163 261/334/183 83/182/182
f 256/163/163 168/162/162 261/334/183
f 168/162/162 82/335/315 261/334/183
f 202/336/316 356/157/157 277/160/160 79/337/317
f 68/338/318 139/132/132 356/157/157 202/336/316
f 139/132/132 67/131/131 275/158/158 356/157/157
f 182/339/319 357/153/153 289/156/156 77/340/320
f 79/337/317 277/160/160 357/153/153 182/339/319
f 277/160/160 80/159/159 276/154/154 357/153/153
f 132/341/321 358/149/149 264/152/152 73/342/322
f 77/340/320 289/156/156 358/149/149 132/341/321
f 289/156/156 78/155/155 211/150/150 358/149/149
f 285/343/323 359/145/145 180/148/148 65/344/324
f 76/345/325 233/144/144 359/145/145 285/343/323
f 233/144/144 75/143/143 227/146/146 359/145/145
f 212/346/326 360/141/141 233/144/144 76/345/325
f 72/347/327 315/136/136 360/141/141 212/346/326
f 315/136/136 71/135/135 177/142/142 360/141/141
f 183/348/328 361/137/137 325/140/140 69/349/329
f 73/342/322 264/152/152 361/137/137 183/348/328
f 264/152/152 74/151/151 271/138/138 361/137/137
f 291/350/330 362/133/133 315/136/136 72/347/327
f 69/349/329 325/140/140 362/133/133 291/350/330
f 325/140/140 70/139/139 189/134/134 362/133/133
f 150/351/331 363/129/129 139/132/132 68/338/318
f 65/344/324 180/148/148 363/129/129 150/351/331
f 180/148/148 66/147/147 281/130/130 363/129/129
f 265/352/332 364/125/125 140/128/128 63/353/333
f 52/354/334 246/100/100 364/125/125 265/352/332
f 246/100/100 51/99/99 186/126/126 364/125/125
f 207/355/335 365/121/121 326/124/124 61/356/336
f 63/353/333 140/128/128 365/121/121 207/355/335
f 140/128/128 64/127/127 298/122/122 365/121/121
f 178/357/337 366/117/117 305/120/120 57/358/338
f 61/356/336 326/124/124 366/117/117 178/357/337
f 326/124/124 62/123/123 282/118/118 366/117/117
f 193/359/339 367/113/113 266/116/116 49/360/340
f 60/361/341 278/112/112 367/113/113 193/359/339
f 278/112/112 59/111/111 290/114/114 367/113/113
f 194/362/342 368/109/109 278/112/112 60/361/341
f 56/363/343 234/104/104 368/109/109 194/362/342
f 234/104/104 55/103/103 295/110/110 368/109/109
f 286/364/344 369/105/105 220/108/108 53/365/345
f 57/358/338 305/120/120 369/105/105 286/364/344
f 305/120/120 58/119/119 173/106/106 369/105/105
f 200/366/346 370/101/101 234/104/104 56/363/343
f 53/365/345 220/108/108 370/101/101 200/366/346
f 220/108/108 54/107/107 296/102/102 370/101/101
f 257/367/347 371/97/97 246/100/100 52/354/334
f 49/360/340 266/116/116 371/97/97 257/367/347
f 266/116/116 50/115/115 154/98/98 371/97/97
f 195/368/348 372/93/93 320/96/96 47/369/349
f 36/370/350 174/68/68 372/93/93 195/368/348
f 174/68/68 35/67/67 319/94/94 372/93/93
f 190/371/351 373/89/89 308/92/92 45/372/352
f 47/369/349 320/96/96 373/89/89 190/371/351
f 320/96/96 48/95/95 283/90/90 373/89/89
f 164/373/353 374/85/85 292/88/88 41/374/354
f 45/372/352 308/92/92 374/85/85 164/373/353
f 308/92/92 46/91/91 262/86/86 374/85/85
f 327/375/355 375/81/81 196/84/84 33/376/356
f 44/377/357 259/80/80 375/81/81 327/375/355
f 259/80/80 43/79/79 221/82/82 375/81/81
f 328/378/358 376/77/77 259/80/80 44/377/357
f 40/379/359 160/72/72 376/77/77 328/378/358
f 160/72/72 39/71/71 228/78/78 376/77/77
f 213/380/360 377/73/73 151/76/76 37/381/361
f 41/374/354 292/88/88 377/73/73 213/380/360
f 292/88/88 42/87/87 299/74/74 377/73/73
f 133/382/362 378/69/69 160/72/72 40/379/359
f 37/381/361 151/76/76 378/69/69 133/382/362
f 151/76/76 38/75/75 229/70/70 378/69/69
f 184/383/363 379/65/65 174/68/68 36/370/350
f 33/376/356 196/84/84 379/65/65 184/383/363
f 196/84/84 34/83/83 272/66/66 379/65/65
f 214/384/364 380/61/61 263/64/64 31/385/365
f 20/386/366 181/36/36 380/61/61 214/384/364
f 181/36/36 19/35/35 329/62/62 380/61/61
f 156/387/367 381/57/57 258/60/60 29/388/368
f 31/385/365 263/64/64 381/57/57 156/387/367
f 263/64/64 32/63/63 251/58/58 381/57/57
f 321/389/369 382/53/53 244/56/56 25/390/370
f 29/388/368 258/60/60 382/53/53 321/389/369
f 258/60/60 30/59/59 197/54/54 382/53/53
f 134/391/371 383/49/49 203/52/52 17/392/372
f 28/393/373 215/48/48 383/49/49 134/391/371
f 215/48/48 27/47/47 238/50/50 383/49/49
f 155/394/374 384/45/45 215/48/48 28/393/373
f 24/395/375 165/40/40 384/45/45 155/394/374
f 165/40/40 23/39/39 241/46/46 384/45/45
f 236/396/376 385/41/41 157/44/44 21/397/377
f 25/390/370 244/56/56 385/41/41 236/396/376
f 244/56/56 26/55/55 162/42/42 385/41/41
f 143/398/378 386/37/37 165/40/40 24/395/375
f 21/397/377 157/44/44 386/37/37 143/398/378
f 157/44/44 22/43/43 242/38/38 386/37/37
f 187/399/379 387/33/33 181/36/36 20/386/366
f 17/392/372 203/52/52 387/33/33 187/399/379
f 203/52/52 18/51/51 293/34/34 387/33/33
f 237/400/380 388/29/29 146/32/32 15/401/381
f 4/402/382 191/4/4 388/29/29 237/400/380
f 191/4/4 3/3/3 145/30/30 388/29/29
f 230/403/383 389/25/25 135/28/28 13/404/384
f 15/401/381 146/32/32 389/25/25 230/403/383
f 146/32/32 16/31/31 322/26/26 389/25/25
f 188/405/385 390/21/21 311/24/24 9/406/386
f 13/404/384 135/28/28 390/21/21 188/405/385
f 135/28/28 14/27/27 267/22/22 390/21/21
f 152/407/387 391/17/17 223/20/20 1/408/388
f 12/409/389 287/16/16 391/17/17 152/407/387
f 287/16/16 11/15/15 249/18/18 391/17/17
f 169/410/390 392/13/13 287/16/16 12/409/389
f 8/411/391 179/8/8 392/13/13 169/410/390
f 179/8/8 7/7/7 253/14/14 392/13/13
f 247/412/392 393/9/9 171/12/12 5/413/393
f 9/406/386 311/24/24 393/9/9 247/412/392
f 311/24/24 10/23/23 175/10/10 393/9/9
f 158/414/394 394/5/5 179/8/8 8/411/391
f 5/413/393 171/12/12 394/5/5 158/414/394
f 171/12/12 6/11/11 254/6/6 394/5/5
f 204/415/395 395/1/1 191/4/4 4/402/382
f 1/408/388 223/20/20 395/1/1 204/415/395
f 223/20/20 2/19/19 306/2/2 395/1/1
