# Blender v2.78 (sub 0) OBJ File: ''
# www.blender.org
mtllib Pine_Tree_OneSided_l_02.mtl
o Pine_Tree_OneSided_l_02
v 1.407919 3.812232 1.407918
v 0.631047 5.905141 0.631046
v 0.033530 6.177677 0.878545
v 0.017571 4.107850 1.983819
v 0.017571 4.108423 -1.948678
v 0.033530 6.178965 -0.811486
v 0.631047 5.905968 -0.563987
v 1.407919 3.812532 -1.372778
v -1.372777 3.812654 -1.372778
v -0.563986 5.906511 -0.563987
v 0.878546 6.177900 0.033530
v 1.983820 4.108024 0.017571
v -1.948678 4.108248 0.017570
v -0.811485 6.178741 0.033529
v -1.372776 3.812352 1.407918
v -0.563986 5.905684 0.631046
v 0.000002 4.218565 2.447137
v 0.000002 6.995486 0.843030
v -0.569421 7.054276 0.607167
v -1.727692 4.565509 1.731503
v 1.727695 4.566012 -1.723884
v 0.569424 7.055684 -0.531678
v 0.805287 6.996465 0.037745
v 2.443329 4.218825 0.003810
v 0.000001 4.218728 -2.439518
v 0.000001 6.996991 -0.767540
v 0.569424 7.054619 0.607167
v 1.727695 4.565897 1.731503
v -1.727692 4.565625 -1.723884
v -0.569421 7.055342 -0.531678
v -2.443326 4.218468 0.003810
v -0.805284 6.996011 0.037745
v 0.001612 3.076363 3.034086
v -2.142672 2.723773 2.145895
v -3.030863 3.076400 0.001611
v -2.142672 2.723798 -2.142674
v 3.034087 3.076382 0.001611
v 2.145896 2.723764 2.145895
v 2.145896 2.723790 -2.142674
v 0.001612 3.076419 -3.030865
v 1.677659 5.814661 1.677658
v 0.528435 8.801881 0.528434
v 0.022616 9.046242 0.731874
v 0.002284 6.236656 2.332154
v 0.002283 6.236773 -2.327588
v 0.022616 9.047322 -0.686644
v 0.528435 8.802619 -0.483203
v 1.677659 5.814740 -1.673092
v -1.673092 5.814113 -1.673092
v -0.483203 8.802942 -0.483203
v 0.731875 9.046558 0.022615
v 2.332155 6.237245 0.002283
v -2.327588 6.236184 0.002283
v -0.686643 9.047005 0.022615
v -1.673092 5.814034 1.677658
v -0.483203 8.802203 0.528434
v 2.211012 7.740505 0.000001
v 0.644464 11.257698 0.000002
v 0.444781 11.456689 0.418560
v 1.443368 8.085657 1.440721
v -1.438073 8.084610 -1.440719
v -0.392335 11.457151 -0.418557
v 0.026223 11.258018 -0.618239
v 0.002647 7.739776 -2.208363
v -2.205717 7.739045 0.000001
v -0.592017 11.258340 0.000002
v 0.444781 11.456691 -0.418557
v 1.443368 8.085657 -1.440719
v -1.438073 8.084610 1.440721
v -0.392335 11.457151 0.418560
v 0.002648 7.739775 2.208365
v 0.026223 11.258018 0.618242
v 1.937827 9.709959 0.000001
v 0.606728 12.599372 0.000002
v 0.402450 12.824542 0.376992
v 1.149994 10.131430 1.147424
v -1.144852 10.130238 -1.147421
v -0.351531 12.825020 -0.376989
v 0.025460 12.599686 -0.581266
v 0.002570 9.709023 -1.935255
v -1.932686 9.708091 0.000001
v -0.555809 12.600001 0.000002
v 0.402450 12.824542 -0.376989
v 1.149994 10.131430 -1.147421
v -1.144852 10.130238 1.147424
v -0.351531 12.825020 0.376992
v 0.002570 9.709023 1.935257
v 0.025460 12.599686 0.581270
v 1.029866 13.484278 0.000002
v 0.309136 15.389237 0.000002
v 0.215174 15.568808 0.202358
v 0.682017 13.781419 0.680724
v -0.679427 13.780273 -0.680720
v -0.189538 15.568742 -0.202353
v 0.012818 15.389185 -0.296316
v 0.001295 13.483439 -1.028569
v -1.027276 13.482601 0.000002
v -0.283501 15.389134 0.000002
v 0.215174 15.568808 -0.202353
v 0.682017 13.781419 -0.680720
v -0.679427 13.780273 0.680724
v -0.189538 15.568742 0.202358
v 0.001295 13.483439 1.028572
v 0.012818 15.389185 0.296321
v 0.322428 16.003628 0.000003
v 0.008512 16.866501 0.000003
v 0.228227 16.066607 0.227422
v -0.226611 16.066118 -0.227417
v 0.000808 16.003286 -0.321618
v -0.320811 16.002945 0.000003
v 0.228227 16.066607 -0.227417
v -0.226611 16.066118 0.227422
v 0.000808 16.003286 0.321622
v 0.000001 14.925561 -0.684681
v -0.484142 15.045066 -0.484142
v -0.684682 14.924895 0.000002
v -0.484142 15.045068 0.484146
v 0.000001 14.925561 0.684685
v 0.484145 15.046020 0.484146
v 0.484145 15.046020 -0.484142
v 0.684685 14.926226 0.000002
v 1.389570 11.737896 0.000002
v 0.387921 14.153389 0.000002
v 0.275342 14.277100 0.259861
v 0.960333 11.942151 0.958771
v -0.957205 11.940833 -0.958767
v -0.244375 14.277092 -0.259857
v 0.015483 14.153383 -0.372436
v 0.001564 11.736968 -1.388004
v -1.386443 11.736037 0.000002
v -0.356955 14.153378 0.000002
v 0.275342 14.277100 -0.259857
v 0.960333 11.942151 -0.958767
v -0.957205 11.940833 0.958770
v -0.244375 14.277092 0.259860
v 0.001564 11.736968 1.388008
v 0.015483 14.153383 0.372440
v -0.274783 0.337520 -0.016656
v -0.179329 3.717813 0.027015
v 0.009330 3.665919 -0.208432
v -0.052705 0.328427 -0.292868
v -0.104740 7.629578 -0.039812
v 0.041174 7.720036 -0.214715
v 0.277646 0.335420 0.186015
v 0.248237 3.715273 0.209398
v -0.048276 3.716325 0.288959
v -0.078348 0.335686 0.283335
v 0.177002 7.687280 0.108236
v 0.005828 7.680564 0.153664
v 0.264628 3.745551 -0.091645
v 0.272803 0.339708 -0.163123
v 0.208894 7.742872 -0.122691
v -0.716824 7.025681 -0.259174
v 0.000001 5.593179 -1.626572
v 1.945422 7.913123 -0.750728
v 0.121431 0.334068 -0.261398
v 1.299117 11.131264 0.000002
v -1.164850 5.825168 -1.144074
v -0.908209 13.631392 0.355913
v -0.019629 5.876336 0.222383
v -0.752647 11.501035 -0.766661
v 0.271684 1.831270 0.204829
v 0.222189 12.712105 -0.499006
v 0.118141 15.478996 0.259347
v -0.580731 9.919618 1.646644
v 1.119321 7.284144 1.119320
v 0.134799 7.741596 -0.189445
v -0.191537 11.357594 0.538875
v 0.716827 7.025536 0.334664
v 0.370926 15.510576 -0.370922
v 0.095642 7.684841 0.152447
v 0.256616 14.985805 0.619526
v 0.012450 7.666176 -1.527537
v -0.924916 9.790571 0.939353
v 0.619526 14.986156 0.256617
v -0.722981 6.042226 0.346887
v -0.929750 4.916811 -0.929751
v 1.766296 3.960274 -0.706775
v -0.025170 1.799059 -0.256874
v 0.243983 11.357344 -0.538872
v -0.171177 16.493994 0.000003
v -1.325782 5.214462 0.026355
v 0.008786 3.511320 2.589144
v -1.815804 3.160097 -1.815805
v 2.742549 2.900073 1.136944
v -1.133722 2.900109 -2.739327
v 1.136946 2.900064 2.742548
v -1.423831 9.478994 0.000002
v 0.026356 5.214672 -1.325783
v -0.191825 0.332974 -0.177802
v -0.267803 16.097713 -0.111460
v -0.609895 8.924609 0.285868
v -0.312754 14.215240 0.134939
v 0.008523 12.933299 0.893634
v -0.256614 14.985299 -0.619522
v -0.890156 6.025342 2.126715
v -1.133721 2.900068 2.742548
v -0.608781 13.120833 -0.617303
v 0.008786 3.511598 -2.571574
v 0.272162 15.479021 -0.105321
v -1.527537 7.665712 0.012449
v 0.982462 4.915882 0.982461
v 0.655126 8.924193 0.285868
v 0.902156 12.933772 0.000002
v 0.144526 3.703933 -0.170378
v 0.007056 14.419053 0.673739
v -0.246526 15.478941 0.105325
v 0.357205 13.632444 0.909505
v -2.213382 4.392039 -0.913003
v 0.211350 5.876808 0.160771
v -0.890156 6.025440 -2.122149
v 0.285869 8.924027 0.655126
v 0.111011 0.335553 0.269347
v -0.473548 12.712534 0.196731
v -1.094421 7.284407 -1.094422
v 0.311839 0.337564 0.013106
v 0.014015 11.130948 1.285103
v 0.370926 15.510576 0.370927
v 0.008523 12.933299 -0.893630
v 0.285869 8.924994 -0.609895
v -0.716824 7.025116 0.334664
v -0.473548 12.712534 -0.196727
v 0.780678 11.501394 -0.766661
v -0.748082 7.912174 1.942775
v 0.916815 4.392245 2.217192
v 1.452702 9.479410 0.000002
v 0.790042 6.041921 -0.279828
v 0.625828 13.121507 -0.617303
v -0.240637 8.925166 -0.609895
v 0.296920 7.026382 -0.679080
v -0.924916 9.790571 -0.939350
v -1.731153 3.960304 0.741915
v -0.099234 3.688323 -0.105221
v 0.453519 14.692377 -0.446460
v 2.213385 4.392426 -0.913004
v 0.453519 14.692377 0.446464
v 0.004794 16.494183 0.175974
v 0.910798 13.632893 0.355913
v 0.270388 16.098286 -0.111460
v 0.004794 16.494183 -0.175969
v -0.354616 13.631841 -0.909502
v 1.647351 5.592960 0.020777
v 0.753377 7.912735 -1.942773
v 0.222189 12.712105 0.499009
v -2.739325 2.900086 1.136944
v 0.275345 1.847116 -0.129869
v 1.649214 9.920748 -0.583300
v -1.164850 5.824570 1.185629
v -0.296918 7.026201 -0.679080
v -0.916812 4.392024 2.217192
v 0.270388 16.098286 0.111465
v 0.007056 14.419053 -0.673735
v -0.370923 15.509825 0.370927
v -0.207843 0.336603 0.153448
v -0.619523 14.984945 -0.256613
v -1.245340 11.838385 0.506342
v 0.112755 16.098122 -0.269093
v 0.780678 11.501394 0.766664
v -0.240637 8.924198 0.655126
v 1.649214 9.920748 0.583302
v 1.164853 5.824944 1.185629
v -0.110170 16.097879 -0.269093
v 0.000001 15.404883 -0.524565
v -0.119454 14.215240 -0.328235
v 1.833376 3.160051 -1.815805
v -0.524566 15.404356 0.000002
v 2.126717 6.025984 0.894723
v -2.122149 6.025117 -0.890156
v -0.580731 9.919618 -1.646642
v 0.343720 14.215239 0.134939
v -0.354616 13.631841 0.909505
v 0.343720 14.215239 -0.134934
v -0.722981 6.042657 -0.279828
v 0.012450 7.665567 1.552435
v -1.245340 11.838385 -0.506339
v 0.014015 11.130948 -1.285100
v 0.894724 6.025661 2.126715
v -0.068395 1.831605 0.297141
v -1.647348 5.592554 0.020777
v -2.213382 4.391982 0.920623
v 0.524467 12.711934 -0.196727
v 0.894723 6.025760 -2.122149
v -1.940127 7.911786 -0.750728
v 0.565097 11.357172 0.217761
v -0.512650 11.357766 0.217761
v 1.378494 5.213907 0.026355
v 0.150419 14.215239 -0.328235
v -1.644073 9.919110 0.583302
v 0.014435 9.479203 1.438267
v -0.191537 11.357594 -0.538872
v 0.296921 7.025016 0.754570
v -0.279827 6.041653 0.790041
v 0.507905 11.839581 1.246905
v 0.585872 9.920239 1.646644
v 1.119321 7.284558 -1.094422
v -0.119636 16.512743 0.124433
v 0.916815 4.392384 -2.209574
v 1.766296 3.960125 0.741916
v 0.953787 9.790869 -0.939350
v -0.619523 14.984945 0.256617
v 0.565097 11.357172 -0.217758
v 0.716827 7.026103 -0.259174
v -0.279827 6.042777 -0.722982
v 0.655126 8.924582 -0.240638
v 0.028217 5.870116 -0.210992
v -0.929750 4.916225 0.982461
v -0.908209 13.631392 -0.355909
v 0.585872 9.920239 -1.646642
v 1.136945 2.900104 -2.739327
v 0.741916 3.960489 -1.731154
v -0.046238 7.670248 -0.141633
v -0.092505 15.478966 -0.259342
v 1.248467 11.840075 0.506343
v -2.739325 2.900099 -1.133723
v 0.237888 5.923530 -0.106032
v -0.119454 14.215240 0.328239
v -0.267803 16.097713 0.111465
v 0.209010 7.714850 -0.004606
v -0.236763 1.836923 0.007058
v -0.110170 16.097879 0.269097
v 0.982462 4.916467 -0.929751
v 0.272162 15.479021 0.105325
v -0.296917 7.024836 0.754570
v -0.119636 16.512745 -0.124428
v 0.180766 16.494375 0.000003
v -0.608781 13.120832 0.617306
v 0.026356 5.213699 1.378493
v 0.277747 3.734543 0.060234
v 0.753378 7.912734 1.942775
v 0.741917 3.960031 1.766294
v 0.118141 15.478996 -0.259342
v -0.916812 4.392163 -2.209573
v -0.092505 15.478966 0.259347
v -0.132510 3.720578 0.170055
v 0.619526 14.986156 -0.256613
v -1.094421 7.283993 1.119320
v -1.644073 9.919110 -0.583300
v -0.504777 11.838881 -1.246902
v -0.609895 8.924999 -0.240638
v -0.370924 15.509827 -0.370922
v 1.248467 11.840075 -0.506339
v 0.625828 13.121507 0.617307
v -0.312754 14.215240 -0.134934
v 1.552436 7.666029 0.012449
v -0.171269 12.712364 -0.499006
v 1.833376 3.159913 1.833375
v -0.439406 14.691763 0.446464
v 0.524467 12.711934 0.196731
v 0.507905 11.839581 -1.246902
v -0.171269 12.712364 0.499009
v 0.524569 15.405407 0.000002
v 0.953787 9.790869 0.939353
v 0.104061 3.713503 0.270604
v 1.945422 7.913123 0.750731
v -1.731153 3.960453 -0.706775
v -0.752647 11.501035 0.766664
v -0.706774 3.960091 1.766294
v -0.885109 12.932824 0.000002
v -2.571573 3.511505 0.008785
v 0.150419 14.215239 0.328239
v 0.256616 14.985805 -0.619522
v -0.666681 14.418601 0.000002
v -0.748082 7.912175 -1.942773
v 2.213385 4.392369 0.920623
v -1.940127 7.911786 0.750731
v 0.357205 13.632444 -0.909502
v 2.742549 2.900086 -1.133723
v -0.256614 14.985299 0.619526
v -1.815803 3.159958 1.833374
v 0.129225 16.513014 -0.124428
v 0.790042 6.041490 0.346887
v -0.512650 11.357766 -0.217758
v 0.000001 15.404881 0.524569
v 0.014435 9.479203 -1.438265
v 0.112755 16.098120 0.269097
v -0.706775 3.960549 -1.731154
v 2.589145 3.511413 0.008786
v 2.126717 6.026023 -0.890156
v -1.271087 11.130630 0.000002
v 1.164853 5.825542 -1.144075
v -0.140090 5.847018 -0.005507
v 0.346888 6.042494 -0.722982
v 0.680793 14.419504 0.000002
v 0.910798 13.632893 -0.355909
v -0.504777 11.838881 1.246905
v -2.122149 6.025078 0.894723
v -0.439406 14.691765 -0.446460
v -0.065055 7.648798 0.067919
v 0.129225 16.513014 0.124433
v 0.000002 5.592334 1.668126
v 0.346888 6.041369 0.790041
v -0.246526 15.478941 -0.105321
v 0.243983 11.357344 0.538875
v 0.241299 5.902149 0.029031
v 0.297902 1.841258 0.038781
v -0.095063 5.861079 0.118595
v -0.173662 1.836019 0.165675
v 0.140488 5.899725 -0.176459
v 0.133129 1.822187 -0.216066
v 0.099486 5.875769 0.210351
v 0.107946 1.830289 0.274700
v -0.068475 5.855086 -0.120894
v -0.148614 1.816220 -0.140804
v 0.329162 13.027411 0.787572
v -0.312115 13.027060 0.787572
v -0.779047 13.026812 0.320640
v 0.796094 13.027657 -0.320637
v 0.329162 13.027411 -0.787568
v -0.779047 13.026812 -0.320637
v -0.312115 13.027060 -0.787568
v 0.796094 13.027657 0.320641
v 0.466536 15.458012 0.193247
v -0.193244 15.457345 0.466537
v -0.466533 15.457071 -0.193242
v 0.466536 15.458010 -0.193242
v 0.193246 15.457737 -0.466532
v 0.193246 15.457737 0.466537
v -0.466533 15.457073 0.193247
v -0.193244 15.457345 -0.466532
v 0.237673 14.555719 0.584426
v -0.223560 14.555404 0.584426
v -0.577368 14.555166 0.230619
v 0.591480 14.555957 -0.230615
v 0.237673 14.555719 -0.584422
v -0.577368 14.555166 -0.230615
v -0.223560 14.555404 -0.584422
v 0.591480 14.555957 0.230619
v 0.404030 11.316172 1.072827
v -0.376000 11.315990 1.072827
v -1.058810 11.315822 0.390017
v 1.086841 11.316339 -0.390013
v 0.404030 11.316172 -1.072824
v -1.058810 11.315822 -0.390013
v -0.376000 11.315990 -1.072824
v 1.086841 11.316339 0.390017
v 0.498680 9.635039 1.240825
v -0.469809 9.634884 1.240825
v -1.226388 9.634775 0.484246
v 1.255259 9.635147 -0.484243
v 0.498680 9.635039 -1.240822
v -1.226388 9.634775 -0.484243
v -0.469809 9.634884 -1.240822
v 1.255259 9.635147 0.484246
v -0.565396 7.474770 1.390921
v -1.366022 7.474844 0.590295
v -1.366022 7.475058 -0.565397
v 1.390922 7.475089 0.590295
v 1.390922 7.475303 -0.565397
v -0.565397 7.475303 -1.366022
v 0.590296 7.475376 -1.366022
v 0.590296 7.474844 1.390921
v 0.959364 3.335612 2.303681
v 0.959364 3.335830 -2.286111
v -0.941791 3.335853 -2.286111
v 2.303683 3.335729 -0.941792
v 2.303683 3.335661 0.959362
v -2.286110 3.335802 -0.941792
v -2.286110 3.335734 0.959362
v -0.941791 3.335634 2.303681
v -1.465103 5.708549 0.627643
v -1.465103 5.708860 -0.586089
v -0.606865 5.709182 -1.444327
v 0.606868 5.708630 1.485881
v 1.465106 5.708952 0.627643
v 0.606867 5.709383 -1.444327
v 1.465106 5.709264 -0.586089
v -0.606864 5.708430 1.485881
v -0.471757 5.064947 1.228907
v -1.176196 5.065351 0.524468
v -1.176196 5.065650 -0.471758
v 1.228908 5.064881 0.524469
v 1.228908 5.065180 -0.471758
v -0.471758 5.065762 -1.176197
v 0.524469 5.065585 -1.176197
v 0.524469 5.064771 1.228907
vt 0.9409 0.4219
vt 0.9367 0.4304
vt 0.9328 0.4301
vt 0.9334 0.4200
vt 0.9388 0.4553
vt 0.9357 0.4462
vt 0.9396 0.4464
vt 0.9464 0.4543
vt 0.9236 0.4543
vt 0.9279 0.4457
vt 0.9318 0.4460
vt 0.9311 0.4563
vt 0.9483 0.4468
vt 0.9398 0.4424
vt 0.9401 0.4385
vt 0.9503 0.4392
vt 0.9493 0.4316
vt 0.9403 0.4346
vt 0.9406 0.4307
vt 0.9483 0.4239
vt 0.9151 0.4447
vt 0.9243 0.4415
vt 0.9240 0.4454
vt 0.9161 0.4524
vt 0.9161 0.4295
vt 0.9248 0.4336
vt 0.9246 0.4376
vt 0.9141 0.4370
vt 0.9258 0.4209
vt 0.9290 0.4299
vt 0.9251 0.4297
vt 0.9181 0.4219
vt 0.9553 0.4130
vt 0.9477 0.4295
vt 0.9430 0.4291
vt 0.9438 0.4096
vt 0.9528 0.4658
vt 0.9467 0.4484
vt 0.9514 0.4484
vt 0.9647 0.4635
vt 0.9294 0.4647
vt 0.9374 0.4480
vt 0.9421 0.4483
vt 0.9410 0.4682
vt 0.9681 0.4518
vt 0.9517 0.4437
vt 0.9520 0.4391
vt 0.9715 0.4402
vt 0.9692 0.4284
vt 0.9521 0.4345
vt 0.9523 0.4298
vt 0.9669 0.4165
vt 0.9154 0.4493
vt 0.9330 0.4429
vt 0.9328 0.4476
vt 0.9178 0.4613
vt 0.9166 0.4259
vt 0.9334 0.4336
vt 0.9331 0.4382
vt 0.9131 0.4374
vt 0.9319 0.4119
vt 0.9384 0.4290
vt 0.9337 0.4289
vt 0.9200 0.4143
vt 0.9193 0.4031
vt 0.9225 0.4120
vt 0.9111 0.4142
vt 0.9042 0.4066
vt 0.8987 0.4212
vt 0.9074 0.4253
vt 0.9037 0.4364
vt 0.8932 0.4358
vt 0.8968 0.4510
vt 0.9060 0.4478
vt 0.9082 0.4593
vt 0.9003 0.4663
vt 0.9672 0.4256
vt 0.9583 0.4286
vt 0.9561 0.4171
vt 0.9637 0.4104
vt 0.9653 0.4554
vt 0.9568 0.4511
vt 0.9605 0.4400
vt 0.9707 0.4408
vt 0.9150 0.4717
vt 0.9193 0.4630
vt 0.9304 0.4667
vt 0.9296 0.4772
vt 0.9448 0.4736
vt 0.9418 0.4645
vt 0.9532 0.4622
vt 0.9599 0.4700
vt 0.9491 0.4050
vt 0.9451 0.4135
vt 0.9340 0.4098
vt 0.9345 0.3995
vt 0.9585 0.4094
vt 0.9510 0.4269
vt 0.9461 0.4266
vt 0.9462 0.4061
vt 0.9576 0.4649
vt 0.9506 0.4467
vt 0.9555 0.4467
vt 0.9699 0.4620
vt 0.9330 0.4645
vt 0.9409 0.4466
vt 0.9458 0.4468
vt 0.9453 0.4677
vt 0.9732 0.4497
vt 0.9556 0.4418
vt 0.9558 0.4369
vt 0.9764 0.4374
vt 0.9735 0.4250
vt 0.9558 0.4320
vt 0.9558 0.4271
vt 0.9707 0.4126
vt 0.9178 0.4488
vt 0.9360 0.4414
vt 0.9360 0.4464
vt 0.9207 0.4612
vt 0.9182 0.4241
vt 0.9361 0.4316
vt 0.9360 0.4365
vt 0.9150 0.4363
vt 0.9338 0.4090
vt 0.9412 0.4266
vt 0.9363 0.4267
vt 0.9215 0.4118
vt 0.9484 0.4110
vt 0.9412 0.4263
vt 0.9371 0.4261
vt 0.9377 0.4078
vt 0.9462 0.4592
vt 0.9404 0.4429
vt 0.9445 0.4430
vt 0.9570 0.4570
vt 0.9247 0.4582
vt 0.9322 0.4426
vt 0.9363 0.4428
vt 0.9353 0.4613
vt 0.9600 0.4464
vt 0.9447 0.4389
vt 0.9448 0.4348
vt 0.9631 0.4358
vt 0.9610 0.4249
vt 0.9450 0.4307
vt 0.9452 0.4266
vt 0.9590 0.4140
vt 0.9119 0.4442
vt 0.9283 0.4381
vt 0.9281 0.4423
vt 0.9140 0.4552
vt 0.9129 0.4227
vt 0.9287 0.4299
vt 0.9285 0.4340
vt 0.9099 0.4333
vt 0.9269 0.4100
vt 0.9330 0.4259
vt 0.9289 0.4258
vt 0.9160 0.4121
vt 0.9484 0.4110
vt 0.9412 0.4263
vt 0.9371 0.4261
vt 0.9377 0.4078
vt 0.9462 0.4592
vt 0.9404 0.4429
vt 0.9445 0.4430
vt 0.9570 0.4570
vt 0.9247 0.4582
vt 0.9322 0.4426
vt 0.9363 0.4428
vt 0.9353 0.4613
vt 0.9600 0.4464
vt 0.9447 0.4389
vt 0.9448 0.4348
vt 0.9631 0.4358
vt 0.9610 0.4249
vt 0.9450 0.4307
vt 0.9452 0.4266
vt 0.9590 0.4140
vt 0.9119 0.4442
vt 0.9283 0.4381
vt 0.9281 0.4423
vt 0.9140 0.4552
vt 0.9129 0.4227
vt 0.9287 0.4299
vt 0.9285 0.4340
vt 0.9099 0.4333
vt 0.9269 0.4100
vt 0.9330 0.4259
vt 0.9289 0.4258
vt 0.9160 0.4121
vt 0.9484 0.4110
vt 0.9412 0.4263
vt 0.9371 0.4261
vt 0.9377 0.4078
vt 0.9462 0.4592
vt 0.9404 0.4429
vt 0.9445 0.4430
vt 0.9570 0.4570
vt 0.9247 0.4582
vt 0.9322 0.4426
vt 0.9363 0.4428
vt 0.9353 0.4613
vt 0.9600 0.4464
vt 0.9447 0.4389
vt 0.9448 0.4348
vt 0.9631 0.4358
vt 0.9610 0.4249
vt 0.9450 0.4307
vt 0.9452 0.4266
vt 0.9590 0.4140
vt 0.9119 0.4442
vt 0.9283 0.4381
vt 0.9281 0.4423
vt 0.9140 0.4552
vt 0.9129 0.4227
vt 0.9287 0.4299
vt 0.9285 0.4340
vt 0.9099 0.4333
vt 0.9269 0.4100
vt 0.9330 0.4259
vt 0.9289 0.4258
vt 0.9160 0.4121
vt 0.9727 0.4015
vt 0.9549 0.4138
vt 0.9555 0.3956
vt 0.9343 0.4799
vt 0.9394 0.4614
vt 0.9519 0.4755
vt 0.9000 0.4680
vt 0.9181 0.4554
vt 0.9172 0.4739
vt 0.9695 0.4711
vt 0.9571 0.4530
vt 0.9755 0.4539
vt 0.9814 0.4368
vt 0.9633 0.4317
vt 0.9771 0.4191
vt 0.8912 0.4327
vt 0.9096 0.4375
vt 0.8956 0.4503
vt 0.9031 0.3984
vt 0.9158 0.4162
vt 0.8972 0.4155
vt 0.9384 0.3896
vt 0.9337 0.4077
vt 0.9208 0.3940
vt 0.9519 0.4755
vt 0.9695 0.4711
vt 0.9695 0.4711
vt 0.9519 0.4755
vt 0.8956 0.4503
vt 0.9000 0.4680
vt 0.9000 0.4680
vt 0.8956 0.4503
vt 0.9208 0.3940
vt 0.9031 0.3984
vt 0.9031 0.3984
vt 0.9208 0.3940
vt 0.9755 0.4539
vt 0.9814 0.4368
vt 0.9814 0.4368
vt 0.9755 0.4539
vt 0.9771 0.4191
vt 0.9727 0.4015
vt 0.9727 0.4015
vt 0.9771 0.4191
vt 0.9172 0.4739
vt 0.9343 0.4799
vt 0.9343 0.4799
vt 0.9172 0.4739
vt 0.8972 0.4155
vt 0.8912 0.4327
vt 0.8912 0.4327
vt 0.8972 0.4155
vt 0.9555 0.3956
vt 0.9384 0.3896
vt 0.9384 0.3896
vt 0.9555 0.3956
vt 0.9484 0.4110
vt 0.9412 0.4263
vt 0.9371 0.4261
vt 0.9377 0.4078
vt 0.9462 0.4592
vt 0.9404 0.4429
vt 0.9445 0.4430
vt 0.9570 0.4570
vt 0.9247 0.4582
vt 0.9322 0.4426
vt 0.9363 0.4428
vt 0.9353 0.4613
vt 0.9600 0.4464
vt 0.9447 0.4389
vt 0.9448 0.4348
vt 0.9631 0.4358
vt 0.9610 0.4249
vt 0.9450 0.4307
vt 0.9452 0.4266
vt 0.9590 0.4140
vt 0.9119 0.4442
vt 0.9283 0.4381
vt 0.9281 0.4423
vt 0.9140 0.4552
vt 0.9129 0.4227
vt 0.9287 0.4299
vt 0.9285 0.4340
vt 0.9099 0.4333
vt 0.9269 0.4100
vt 0.9330 0.4259
vt 0.9289 0.4258
vt 0.9160 0.4121
vt 0.8048 0.9140
vt 0.8032 0.9391
vt 0.8010 0.9383
vt 0.8023 0.9136
vt 0.8016 0.9648
vt 0.8000 0.9905
vt 0.7982 0.9912
vt 0.7996 0.9647
vt 0.7894 0.9139
vt 0.7896 0.9391
vt 0.7872 0.9391
vt 0.7867 0.9139
vt 0.7900 0.9647
vt 0.7905 0.9904
vt 0.7893 0.9904
vt 0.7882 0.9648
vt 0.7998 0.9139
vt 0.7988 0.9390
vt 0.7966 0.9397
vt 0.7973 0.9142
vt 0.7978 0.9651
vt 0.7968 0.9912
vt 0.7953 0.9912
vt 0.7959 0.9654
vt 0.8100 0.9147
vt 0.8077 0.9398
vt 0.8055 0.9398
vt 0.8074 0.9145
vt 0.8056 0.9651
vt 0.8035 0.9904
vt 0.8018 0.9898
vt 0.8037 0.9648
vt 0.7947 0.9140
vt 0.7943 0.9394
vt 0.7920 0.9391
vt 0.7922 0.9139
vt 0.7939 0.9651
vt 0.7935 0.9907
vt 0.7917 0.9903
vt 0.7918 0.9647
vt 0.7951 0.8887
vt 0.7923 0.8887
vt 0.7980 0.8887
vt 0.8100 0.9399
vt 0.8076 0.9654
vt 0.8052 0.9910
vt 0.8123 0.8895
vt 0.8093 0.8892
vt 0.8152 0.8898
vt 0.8126 0.9148
vt 0.8008 0.8888
vt 0.8036 0.8888
vt 0.7893 0.8887
vt 0.7863 0.8887
vt 0.8065 0.8890
vt 0.9208 0.3940
vt 0.9031 0.3984
vt 0.9384 0.3896
vt 0.8972 0.4155
vt 0.8912 0.4327
vt 0.8956 0.4503
vt 0.9000 0.4680
vt 0.9771 0.4191
vt 0.9727 0.4015
vt 0.9814 0.4368
vt 0.9755 0.4539
vt 0.9695 0.4711
vt 0.9172 0.4739
vt 0.9343 0.4799
vt 0.9519 0.4755
vt 0.9555 0.3956
vt 0.9160 0.4121
vt 0.9289 0.4258
vt 0.9099 0.4333
vt 0.9285 0.4340
vt 0.9140 0.4552
vt 0.9281 0.4423
vt 0.9590 0.4140
vt 0.9452 0.4266
vt 0.9631 0.4358
vt 0.9448 0.4348
vt 0.9353 0.4613
vt 0.9363 0.4428
vt 0.9570 0.4570
vt 0.9445 0.4430
vt 0.9377 0.4078
vt 0.9371 0.4261
vt 0.9208 0.3940
vt 0.9031 0.3984
vt 0.9384 0.3896
vt 0.8972 0.4155
vt 0.8912 0.4327
vt 0.8956 0.4503
vt 0.9000 0.4680
vt 0.9771 0.4191
vt 0.9727 0.4015
vt 0.9814 0.4368
vt 0.9755 0.4539
vt 0.9695 0.4711
vt 0.9172 0.4739
vt 0.9343 0.4799
vt 0.9519 0.4755
vt 0.9555 0.3956
vt 0.9208 0.3940
vt 0.9031 0.3984
vt 0.9384 0.3896
vt 0.8972 0.4155
vt 0.8912 0.4327
vt 0.8956 0.4503
vt 0.9000 0.4680
vt 0.9771 0.4191
vt 0.9727 0.4015
vt 0.9814 0.4368
vt 0.9755 0.4539
vt 0.9695 0.4711
vt 0.9172 0.4739
vt 0.9343 0.4799
vt 0.9519 0.4755
vt 0.9555 0.3956
vt 0.9208 0.3940
vt 0.9031 0.3984
vt 0.9384 0.3896
vt 0.8972 0.4155
vt 0.8912 0.4327
vt 0.8956 0.4503
vt 0.9000 0.4680
vt 0.9771 0.4191
vt 0.9727 0.4015
vt 0.9814 0.4368
vt 0.9755 0.4539
vt 0.9695 0.4711
vt 0.9172 0.4739
vt 0.9343 0.4799
vt 0.9519 0.4755
vt 0.9555 0.3956
vt 0.9265 0.3913
vt 0.9066 0.3969
vt 0.9464 0.3857
vt 0.9003 0.4165
vt 0.8940 0.4362
vt 0.8996 0.4561
vt 0.9053 0.4760
vt 0.9913 0.4180
vt 0.9857 0.3982
vt 0.9969 0.4379
vt 0.9906 0.4576
vt 0.9844 0.4773
vt 0.9250 0.4823
vt 0.9447 0.4886
vt 0.9646 0.4829
vt 0.9661 0.3920
vt 0.9532 0.3965
vt 0.9350 0.3893
vt 0.9713 0.4037
vt 0.9477 0.4827
vt 0.9666 0.4778
vt 0.9288 0.4877
vt 0.9107 0.4804
vt 0.8925 0.4732
vt 0.9738 0.4597
vt 0.9810 0.4415
vt 0.9762 0.4226
vt 0.8876 0.4542
vt 0.8827 0.4353
vt 0.8900 0.4171
vt 0.8972 0.3990
vt 0.9161 0.3941
vt 0.9254 0.3949
vt 0.9063 0.3996
vt 0.9445 0.3901
vt 0.8997 0.4182
vt 0.8931 0.4367
vt 0.8979 0.4558
vt 0.9027 0.4749
vt 0.9863 0.4223
vt 0.9815 0.4032
vt 0.9911 0.4413
vt 0.9845 0.4599
vt 0.9780 0.4785
vt 0.9213 0.4815
vt 0.9399 0.4881
vt 0.9589 0.4833
vt 0.9630 0.3967
vn 0.4551 0.4482 0.7694
vn 0.4564 0.4329 0.7774
vn 0.0015 0.4679 0.8838
vn -0.0002 0.4781 0.8783
vn 0.4557 0.4572 -0.7637
vn 0.4580 0.4417 -0.7715
vn 0.6343 0.4443 -0.6327
vn 0.6267 0.4646 -0.6256
vn -0.4557 0.4626 -0.7605
vn -0.4578 0.4469 -0.7686
vn 0.0015 0.4782 -0.8782
vn -0.0002 0.4886 -0.8725
vn 0.7662 0.4536 -0.4552
vn 0.7745 0.4381 -0.4562
vn 0.8838 0.4679 0.0015
vn 0.8783 0.4781 -0.0002
vn 0.7694 0.4482 0.4552
vn 0.7773 0.4329 0.4565
vn 0.6359 0.4372 0.6360
vn 0.6288 0.4572 0.6289
vn -0.7605 0.4626 -0.4557
vn -0.7686 0.4469 -0.4577
vn -0.6310 0.4514 -0.6309
vn -0.6235 0.4718 -0.6234
vn -0.7637 0.4573 0.4557
vn -0.7715 0.4417 0.4580
vn -0.8782 0.4782 0.0015
vn -0.8725 0.4886 -0.0002
vn -0.4552 0.4537 0.7662
vn -0.4562 0.4381 0.7745
vn -0.6327 0.4443 0.6343
vn -0.6256 0.4646 0.6267
vn -0.2490 0.5100 0.8234
vn -0.2569 0.5154 0.8175
vn -0.5877 0.5535 0.5901
vn -0.5926 0.5455 0.5927
vn 0.8184 0.5198 -0.2448
vn 0.8126 0.5252 -0.2526
vn 0.8546 0.5193 0.0016
vn 0.8581 0.5134 0.0005
vn 0.2430 0.5251 -0.8156
vn 0.2515 0.5304 -0.8096
vn 0.5849 0.5644 -0.5825
vn 0.5876 0.5565 -0.5874
vn 0.8206 0.5153 0.2472
vn 0.8145 0.5207 0.2558
vn 0.5877 0.5535 0.5901
vn 0.5925 0.5455 0.5927
vn 0.2488 0.5100 0.8234
vn 0.2567 0.5154 0.8176
vn -0.0001 0.5117 0.8592
vn -0.0001 0.5057 0.8627
vn -0.2432 0.5251 -0.8156
vn -0.2516 0.5304 -0.8095
vn -0.0001 0.5268 -0.8500
vn -0.0001 0.5211 -0.8535
vn -0.8184 0.5198 -0.2448
vn -0.8126 0.5252 -0.2525
vn -0.5850 0.5644 -0.5825
vn -0.5876 0.5565 -0.5874
vn -0.8206 0.5153 0.2471
vn -0.8145 0.5207 0.2558
vn -0.8546 0.5193 0.0016
vn -0.8581 0.5134 0.0005
vn -0.3798 0.7013 0.6033
vn -0.4178 0.5831 0.6968
vn -0.5628 0.6048 0.5635
vn -0.4993 0.7077 0.4999
vn -0.5997 0.7046 0.3794
vn -0.6938 0.5866 0.4178
vn -0.7829 0.6221 0.0004
vn -0.6712 0.7413 0.0003
vn -0.5942 0.7101 -0.3778
vn -0.6894 0.5923 -0.4170
vn -0.5591 0.6122 -0.5591
vn -0.4945 0.7149 -0.4944
vn 0.6090 0.6955 0.3814
vn 0.7011 0.5773 0.4186
vn 0.5672 0.5972 0.5672
vn 0.5048 0.7002 0.5048
vn 0.6034 0.7012 -0.3798
vn 0.6968 0.5830 -0.4178
vn 0.7914 0.6113 0.0004
vn 0.6820 0.7314 0.0003
vn -0.3778 0.7101 -0.5942
vn -0.4171 0.5922 -0.6894
vn 0.0004 0.6221 -0.7830
vn 0.0003 0.7412 -0.6712
vn 0.3794 0.7045 -0.5998
vn 0.4178 0.5866 -0.6938
vn 0.5635 0.6047 -0.5628
vn 0.4999 0.7076 -0.4994
vn 0.3813 0.6955 0.6090
vn 0.4185 0.5773 0.7011
vn 0.0004 0.6114 0.7913
vn 0.0003 0.7314 0.6819
vn 0.4523 0.4733 0.7559
vn 0.4579 0.4753 0.7513
vn 0.0014 0.5186 0.8550
vn -0.0005 0.5081 0.8613
vn 0.4530 0.4811 -0.7505
vn 0.4593 0.4830 -0.7455
vn 0.6200 0.4823 -0.6188
vn 0.6204 0.4806 -0.6197
vn -0.4532 0.4858 -0.7474
vn -0.4593 0.4877 -0.7424
vn 0.0014 0.5277 -0.8494
vn -0.0005 0.5173 -0.8558
vn 0.7528 0.4781 -0.4525
vn 0.7482 0.4801 -0.4579
vn 0.8550 0.5186 0.0014
vn 0.8613 0.5081 -0.0004
vn 0.7558 0.4733 0.4525
vn 0.7512 0.4753 0.4581
vn 0.6218 0.4760 0.6219
vn 0.6224 0.4743 0.6226
vn -0.7475 0.4858 -0.4531
vn -0.7425 0.4877 -0.4591
vn -0.6171 0.4884 -0.6170
vn -0.6177 0.4869 -0.6176
vn -0.7505 0.4811 0.4531
vn -0.7455 0.4829 0.4593
vn -0.8494 0.5277 0.0014
vn -0.8558 0.5172 -0.0003
vn -0.4526 0.4780 0.7528
vn -0.4580 0.4801 0.7482
vn -0.6188 0.4822 0.6201
vn -0.6197 0.4806 0.6204
vn 0.8608 0.3913 0.3254
vn 0.8618 0.3925 0.3214
vn 0.6458 0.4088 0.6448
vn 0.6473 0.4015 0.6479
vn -0.3222 0.3979 -0.8590
vn -0.3177 0.3991 -0.8601
vn 0.0012 0.4120 -0.9112
vn 0.0005 0.4085 -0.9127
vn -0.8581 0.4010 -0.3208
vn -0.8591 0.4022 -0.3166
vn -0.6424 0.4163 -0.6434
vn -0.6455 0.4090 -0.6450
vn 0.3240 0.3943 -0.8600
vn 0.3203 0.3955 -0.8608
vn 0.6458 0.4088 -0.6448
vn 0.6473 0.4015 -0.6479
vn 0.8608 0.3913 -0.3254
vn 0.8618 0.3925 -0.3214
vn 0.9134 0.4071 -0.0000
vn 0.9149 0.4036 -0.0000
vn -0.8581 0.4010 0.3208
vn -0.8591 0.4022 0.3166
vn -0.9090 0.4169 0.0000
vn -0.9105 0.4135 0.0000
vn -0.3222 0.3979 0.8590
vn -0.3177 0.3991 0.8601
vn -0.6424 0.4163 0.6434
vn -0.6455 0.4090 0.6450
vn 0.3240 0.3943 0.8600
vn 0.3203 0.3955 0.8608
vn 0.0012 0.4120 0.9112
vn 0.0005 0.4085 0.9127
vn 0.8428 0.3881 0.3729
vn 0.8462 0.3872 0.3661
vn 0.6507 0.3929 0.6498
vn 0.6519 0.3858 0.6528
vn -0.3680 0.3964 -0.8411
vn -0.3605 0.3955 -0.8447
vn 0.0018 0.4209 -0.9071
vn 0.0012 0.4173 -0.9088
vn -0.8404 0.3996 -0.3661
vn -0.8439 0.3988 -0.3589
vn -0.6469 0.4023 -0.6479
vn -0.6500 0.3951 -0.6491
vn 0.3710 0.3913 -0.8422
vn 0.3646 0.3905 -0.8454
vn 0.6507 0.3929 -0.6498
vn 0.6519 0.3858 -0.6528
vn 0.8428 0.3881 -0.3729
vn 0.8462 0.3872 -0.3661
vn 0.9097 0.4152 0.0000
vn 0.9114 0.4115 0.0000
vn -0.8404 0.3996 0.3661
vn -0.8439 0.3988 0.3589
vn -0.9045 0.4265 0.0000
vn -0.9061 0.4230 0.0000
vn -0.3680 0.3964 0.8411
vn -0.3605 0.3955 0.8447
vn -0.6469 0.4023 0.6479
vn -0.6500 0.3951 0.6491
vn 0.3710 0.3913 0.8422
vn 0.3646 0.3905 0.8454
vn 0.0018 0.4209 0.9071
vn 0.0012 0.4173 0.9088
vn 0.9042 0.3436 0.2537
vn 0.9049 0.3428 0.2523
vn 0.6565 0.3733 0.6555
vn 0.6575 0.3656 0.6588
vn -0.2497 0.3496 -0.9030
vn -0.2474 0.3487 -0.9040
vn 0.0005 0.3544 -0.9351
vn 0.0003 0.3534 -0.9355
vn -0.9024 0.3530 -0.2471
vn -0.9034 0.3521 -0.2449
vn -0.6533 0.3807 -0.6544
vn -0.6568 0.3729 -0.6554
vn 0.2511 0.3470 -0.9036
vn 0.2498 0.3462 -0.9043
vn 0.6565 0.3733 -0.6555
vn 0.6575 0.3656 -0.6588
vn 0.9042 0.3436 -0.2537
vn 0.9049 0.3428 -0.2523
vn 0.9369 0.3497 0.0000
vn 0.9372 0.3487 0.0000
vn -0.9024 0.3530 0.2471
vn -0.9034 0.3521 0.2449
vn -0.9333 0.3590 0.0000
vn -0.9337 0.3582 0.0000
vn -0.2497 0.3496 0.9030
vn -0.2474 0.3487 0.9040
vn -0.6533 0.3807 0.6544
vn -0.6568 0.3729 0.6554
vn 0.2512 0.3470 0.9036
vn 0.2498 0.3462 0.9043
vn 0.0005 0.3544 0.9351
vn 0.0003 0.3534 0.9355
vn 0.9517 0.3070 -0.0000
vn 0.9350 0.3547 0.0000
vn 0.9080 0.2934 0.2990
vn -0.6680 0.3311 -0.6665
vn -0.6510 0.3912 -0.6505
vn -0.2969 0.3000 -0.9066
vn -0.9498 0.3128 -0.0000
vn -0.9295 0.3688 0.0000
vn -0.9061 0.3033 -0.2951
vn -0.0007 0.3099 -0.9508
vn 0.0003 0.3618 -0.9323
vn 0.2972 0.2967 -0.9075
vn 0.6678 0.3258 -0.6693
vn 0.6536 0.3810 -0.6540
vn 0.9080 0.2934 -0.2990
vn -0.6679 0.3311 0.6665
vn -0.6510 0.3912 0.6505
vn -0.9061 0.3033 0.2951
vn -0.0007 0.3099 0.9508
vn 0.0003 0.3618 0.9323
vn -0.2969 0.3000 0.9066
vn 0.6678 0.3258 0.6693
vn 0.6536 0.3810 0.6540
vn 0.2972 0.2967 0.9075
vn -0.2894 0.3196 -0.9023
vn -0.0004 0.3216 -0.9469
vn -0.0004 0.3233 -0.9463
vn -0.2747 0.3210 -0.9063
vn -0.9023 0.3200 0.2889
vn -0.9467 0.3221 -0.0000
vn -0.9463 0.3232 -0.0000
vn -0.9065 0.3210 0.2743
vn 0.2889 0.3192 0.9026
vn -0.0004 0.3216 0.9469
vn -0.0004 0.3233 0.9463
vn 0.2740 0.3211 0.9065
vn 0.2889 0.3192 -0.9026
vn 0.6651 0.3383 -0.6658
vn 0.6653 0.3379 -0.6658
vn 0.2740 0.3211 -0.9065
vn 0.9025 0.3188 -0.2894
vn 0.9471 0.3211 -0.0000
vn 0.9463 0.3234 -0.0000
vn 0.9064 0.3212 -0.2745
vn -0.9023 0.3200 -0.2889
vn -0.6655 0.3393 -0.6648
vn -0.6658 0.3377 -0.6653
vn -0.9065 0.3210 -0.2743
vn -0.2894 0.3196 0.9023
vn -0.6655 0.3393 0.6648
vn -0.6658 0.3377 0.6653
vn -0.2747 0.3211 0.9063
vn 0.9025 0.3188 0.2894
vn 0.6651 0.3383 0.6658
vn 0.6653 0.3379 0.6658
vn 0.9064 0.3212 0.2745
vn 0.8822 0.3761 0.2832
vn 0.8820 0.3779 0.2817
vn 0.6474 0.4037 0.6464
vn 0.6490 0.3962 0.6495
vn -0.2809 0.3818 -0.8806
vn -0.2788 0.3834 -0.8805
vn 0.0007 0.3884 -0.9215
vn 0.0002 0.3855 -0.9227
vn -0.8797 0.3847 -0.2795
vn -0.8796 0.3863 -0.2776
vn -0.6444 0.4101 -0.6454
vn -0.6476 0.4026 -0.6470
vn 0.2818 0.3791 -0.8814
vn 0.2805 0.3808 -0.8811
vn 0.6474 0.4037 -0.6464
vn 0.6490 0.3962 -0.6495
vn 0.8822 0.3761 -0.2832
vn 0.8820 0.3779 -0.2817
vn 0.9233 0.3841 0.0000
vn 0.9245 0.3812 0.0000
vn -0.8797 0.3847 0.2795
vn -0.8796 0.3863 0.2776
vn -0.9197 0.3927 0.0000
vn -0.9209 0.3899 0.0000
vn -0.2809 0.3818 0.8806
vn -0.2788 0.3834 0.8805
vn -0.6444 0.4101 0.6454
vn -0.6476 0.4026 0.6470
vn 0.2818 0.3791 0.8814
vn 0.2805 0.3808 0.8811
vn 0.0007 0.3884 0.9215
vn 0.0002 0.3855 0.9227
vn -0.7776 0.0333 -0.6279
vn -0.7764 0.0194 -0.6299
vn -0.2394 0.0177 -0.9708
vn -0.2484 0.0316 -0.9681
vn -0.7734 0.0051 -0.6339
vn -0.7457 0.0031 -0.6663
vn -0.1007 -0.0028 -0.9949
vn -0.2249 -0.0004 -0.9744
vn 0.2617 -0.0018 0.9652
vn 0.2582 0.0152 0.9660
vn -0.3965 0.0211 0.9178
vn -0.3746 0.0042 0.9272
vn 0.2554 0.0310 0.9663
vn 0.2593 0.0339 0.9652
vn -0.3618 0.0380 0.9315
vn -0.4102 0.0356 0.9113
vn 0.3876 0.0211 -0.9216
vn 0.4130 0.0092 -0.9107
vn 0.8621 0.0110 -0.5066
vn 0.8379 0.0153 -0.5457
vn 0.4433 -0.0021 -0.8964
vn 0.4743 -0.0025 -0.8804
vn 0.8805 0.0082 -0.4739
vn 0.8873 0.0085 -0.4610
vn -0.8644 0.0150 0.5026
vn -0.8830 0.0222 0.4688
vn -0.9946 0.0230 -0.1008
vn -0.9962 0.0293 -0.0816
vn -0.8834 0.0276 0.4678
vn -0.8683 0.0296 0.4952
vn -0.9924 0.0167 -0.1222
vn -0.9946 0.0173 -0.1028
vn 0.9998 0.0079 0.0165
vn 0.9983 0.0139 0.0565
vn 0.7766 0.0168 0.6298
vn 0.7871 0.0030 0.6168
vn 0.9948 0.0189 0.0996
vn 0.9948 0.0199 0.1001
vn 0.7968 0.0303 0.6035
vn 0.7736 0.0286 0.6331
vn 1.0000 0.0056 -0.0005
vn 0.7932 -0.0012 0.6089
vn 0.8243 0.0148 -0.5659
vn -0.8510 0.0118 0.5250
vn -0.9970 0.0287 -0.0725
vn -0.3632 -0.0008 0.9317
vn 0.3709 0.0223 -0.9284
vn -0.2554 0.0327 -0.9663
vn 0.2640 -0.0064 0.9645
vn -0.7755 0.0345 -0.6304
vn 0.2842 0.3768 0.8816
vn -0.0008 0.3838 0.9234
vn 0.6512 0.3873 0.6527
vn -0.2844 0.3795 0.8804
vn -0.6507 0.3938 0.6492
vn -0.8798 0.3824 0.2825
vn -0.9216 0.3881 0.0000
vn 0.8822 0.3738 -0.2862
vn 0.9252 0.3794 0.0000
vn 0.6512 0.3873 -0.6527
vn 0.2842 0.3768 -0.8816
vn -0.0008 0.3838 -0.9234
vn -0.8798 0.3824 -0.2825
vn -0.6507 0.3938 -0.6492
vn -0.2844 0.3795 -0.8804
vn 0.8822 0.3738 0.2862
vn 0.0083 1.0000 0.0000
vn 0.2513 0.3459 0.9040
vn -0.0007 0.3530 0.9356
vn 0.6605 0.3532 0.6626
vn -0.2511 0.3485 0.9030
vn -0.6606 0.3605 0.6585
vn -0.9025 0.3520 0.2481
vn -0.9338 0.3578 0.0000
vn 0.9045 0.3424 -0.2543
vn 0.9374 0.3482 0.0000
vn 0.6605 0.3532 -0.6626
vn 0.2513 0.3459 -0.9040
vn -0.0007 0.3530 -0.9356
vn -0.9025 0.3520 -0.2481
vn -0.6606 0.3605 -0.6585
vn -0.2511 0.3485 -0.9030
vn 0.9045 0.3424 0.2543
vn 0.3735 0.3889 0.8422
vn -0.0010 0.4156 0.9096
vn 0.6547 0.3755 0.6561
vn -0.3719 0.3939 0.8405
vn -0.6533 0.3849 0.6519
vn -0.8402 0.3973 0.3692
vn -0.9069 0.4213 0.0000
vn 0.8425 0.3856 -0.3762
vn 0.9122 0.4097 0.0000
vn 0.6547 0.3755 -0.6561
vn 0.3735 0.3889 -0.8422
vn -0.0010 0.4156 -0.9096
vn -0.8402 0.3973 -0.3692
vn -0.6533 0.3849 -0.6519
vn -0.3719 0.3939 -0.8405
vn 0.8425 0.3856 0.3762
vn 0.3261 0.3918 0.8603
vn -0.0008 0.4065 0.9136
vn 0.6497 0.3925 0.6510
vn -0.3256 0.3954 0.8589
vn -0.6487 0.4000 0.6474
vn -0.8582 0.3985 0.3236
vn -0.9114 0.4115 0.0000
vn 0.8610 0.3887 -0.3281
vn 0.9158 0.4015 0.0000
vn 0.6497 0.3925 -0.6510
vn 0.3261 0.3918 -0.8603
vn -0.0008 0.4065 -0.9136
vn -0.8582 0.3985 -0.3236
vn -0.6487 0.4000 -0.6474
vn -0.3256 0.3954 -0.8589
vn 0.8610 0.3887 0.3281
vn -0.4492 0.4759 0.7561
vn -0.6208 0.4797 0.6201
vn -0.0016 0.4958 0.8684
vn -0.7547 0.4790 0.4483
vn -0.8631 0.5051 -0.0014
vn -0.7513 0.4837 -0.4489
vn -0.6181 0.4860 -0.6179
vn 0.7595 0.4711 0.4485
vn 0.6228 0.4733 0.6230
vn 0.8684 0.4958 -0.0014
vn 0.7561 0.4759 -0.4492
vn 0.6201 0.4797 -0.6208
vn -0.4491 0.4838 -0.7512
vn -0.0016 0.5051 -0.8630
vn 0.4482 0.4791 -0.7547
vn 0.4483 0.4711 0.7596
vn 0.3749 0.7148 0.5904
vn -0.0020 0.7441 0.6680
vn 0.4928 0.7171 0.4928
vn 0.3722 0.7236 -0.5813
vn 0.4870 0.7245 -0.4878
vn -0.0019 0.7539 -0.6570
vn -0.3714 0.7293 -0.5746
vn -0.4820 0.7317 -0.4820
vn 0.5837 0.7206 -0.3742
vn 0.6681 0.7441 -0.0020
vn 0.5904 0.7147 0.3750
vn -0.5746 0.7293 -0.3714
vn -0.6569 0.7540 -0.0019
vn -0.5812 0.7237 0.3721
vn -0.4877 0.7246 0.4870
vn -0.3742 0.7206 0.5837
vn -0.8287 0.5106 0.2291
vn -0.8605 0.5095 -0.0006
vn -0.5974 0.5375 0.5951
vn -0.8262 0.5149 -0.2286
vn -0.5901 0.5487 -0.5923
vn -0.2257 0.5203 -0.8236
vn -0.0001 0.5172 -0.8559
vn 0.2321 0.5050 0.8313
vn -0.0001 0.5016 0.8651
vn 0.5974 0.5375 0.5952
vn 0.8287 0.5106 0.2291
vn 0.8605 0.5095 -0.0006
vn 0.2256 0.5203 -0.8236
vn 0.5900 0.5487 -0.5923
vn 0.8262 0.5149 -0.2286
vn -0.2322 0.5050 0.8313
usemtl None
s 1
f 475/1/1 391/2/2 3/3/3 327/4/4
f 474/5/5 382/6/6 7/7/7 321/8/8
f 473/9/9 303/10/10 6/11/11 189/12/12
f 472/13/13 227/14/14 11/15/15 286/16/16
f 471/17/17 371/18/18 2/19/19 202/20/20
f 470/21/21 273/22/22 10/23/23 177/24/24
f 469/25/25 176/26/26 14/27/27 182/28/28
f 468/29/29 292/30/30 16/31/31 306/32/32
f 467/33/33 323/34/34 19/35/35 248/36/36
f 466/37/37 302/38/38 23/39/39 242/40/40
f 465/41/41 230/42/42 22/43/43 380/44/44
f 464/45/45 169/46/46 27/47/47 261/48/48
f 463/49/49 291/50/50 18/51/51 390/52/52
f 462/53/53 249/54/54 26/55/55 154/56/56
f 461/57/57 153/58/58 30/59/59 158/60/60
f 460/61/61 221/62/62 32/63/63 279/64/64
f 459/65/65 357/66/66 15/67/67 369/68/68
f 458/69/69 232/70/70 13/71/71 359/72/72
f 457/73/73 355/74/74 9/75/75 184/76/76
f 456/77/77 298/78/78 1/79/79 346/80/80
f 455/81/81 178/82/82 12/83/83 377/84/84
f 454/85/85 376/86/86 5/87/87 199/88/88
f 453/89/89 310/90/90 8/91/91 265/92/92
f 452/93/93 330/94/94 4/95/95 183/96/96
f 451/97/97 212/98/98 43/99/99 274/100/100
f 450/101/101 220/102/102 47/103/103 295/104/104
f 449/105/105 229/106/106 46/107/107 173/108/108
f 448/109/109 304/110/110 51/111/111 344/112/112
f 447/113/113 203/114/114 42/115/115 166/116/116
f 446/117/117 339/118/118 50/119/119 215/120/120
f 445/121/121 192/122/122 54/123/123 201/124/124
f 444/125/125 259/126/126 56/127/127 336/128/128
f 443/129/129 284/130/130 59/131/131 352/132/132
f 442/133/133 290/134/134 63/135/135 374/136/136
f 441/137/137 372/138/138 62/139/139 231/140/140
f 440/141/141 180/142/142 67/143/143 299/144/144
f 439/145/145 301/146/146 58/147/147 226/148/148
f 438/149/149 285/150/150 66/151/151 188/152/152
f 437/153/153 168/154/154 70/155/155 174/156/156
f 436/157/157 393/158/158 72/159/159 289/160/160
f 435/161/161 348/162/162 75/163/163 258/164/164
f 434/165/165 345/166/166 79/167/167 276/168/168
f 433/169/169 222/170/170 78/171/171 161/172/172
f 432/173/173 163/174/174 83/175/175 223/176/176
f 431/177/177 281/178/178 74/179/179 157/180/180
f 430/181/181 214/182/182 82/183/183 379/184/184
f 429/185/185 350/186/186 86/187/187 356/188/188
f 428/189/189 244/190/190 88/191/191 217/192/192
f 427/193/193 322/194/194 91/195/195 236/196/196
f 426/197/197 312/198/198 95/199/199 252/200/200
f 425/201/201 392/202/202 94/203/203 387/204/204
f 424/205/205 331/206/206 99/207/207 234/208/208
f 423/209/209 200/210/210 90/211/211 383/212/212
f 422/213/213 207/214/214 98/215/215 362/216/216
f 421/217/217 333/218/218 102/219/219 347/220/220
f 420/221/221 164/222/222 104/223/223 206/224/224
f 105/225/225 325/226/226 251/227/227
f 108/228/228 324/229/229 262/230/230
f 110/231/231 181/232/232 191/233/233
f 109/234/234 240/235/235 257/236/236
f 111/237/237 370/238/238 239/239/239
f 112/240/240 296/241/241 317/242/242
f 113/243/243 237/244/244 320/245/245
f 107/246/246 389/247/247 375/248/248
f 419/249/249 263/250/250 114/251/251 195/252/252
f 418/253/253 266/254/254 116/255/255 300/256/256
f 417/257/257 373/258/258 118/259/259 172/260/260
f 416/261/261 170/262/262 120/263/263 361/264/264
f 415/265/265 351/266/266 121/267/267 335/268/268
f 414/269/269 340/270/270 115/271/271 255/272/272
f 413/273/273 253/274/274 117/275/275 368/276/276
f 412/277/277 218/278/278 119/279/279 175/280/280
f 411/281/281 270/282/282 124/283/283 342/284/284
f 410/285/285 264/286/286 128/287/287 219/288/288
f 409/289/289 343/290/290 127/291/291 198/292/292
f 408/293/293 287/294/294 132/295/295 228/296/296
f 407/297/297 272/298/298 123/299/299 204/300/300
f 406/301/301 193/302/302 131/303/303 358/304/304
f 405/305/305 316/306/306 135/307/307 326/308/308
f 404/309/309 360/310/310 137/311/311 194/312/312
f 403/313/313 233/314/314 140/315/315 179/316/316
f 402/317/317 311/318/318 143/319/319 305/320/320
f 401/321/321 353/322/322 146/323/323 278/324/324
f 400/325/325 171/326/326 149/327/327 160/328/328
f 399/329/329 205/330/330 150/331/331 246/332/332
f 398/333/333 167/334/334 152/335/335 315/336/336
f 397/337/337 334/338/338 139/339/339 319/340/340
f 396/341/341 388/342/342 142/343/343 381/344/344
f 395/345/345 328/346/346 145/347/347 162/348/348
f 394/349/349 318/350/350 148/351/351 210/352/352
f 328/346/346 394/349/349 210/352/352 145/347/347
f 150/331/331 315/336/336 394/349/349 328/346/346
f 315/336/336 152/335/335 318/350/350 394/349/349
f 216/353/353 395/345/345 162/348/348 144/354/354
f 151/355/355 246/332/332 395/345/345 216/353/353
f 246/332/332 150/331/331 328/346/346 395/345/345
f 334/338/338 396/341/341 381/344/344 139/339/339
f 146/356/323 160/357/328 396/341/341 334/338/338
f 160/357/328 149/358/327 388/342/342 396/341/341
f 254/359/356 397/337/337 319/340/340 138/360/357
f 147/361/358 278/362/324 397/337/337 254/359/356
f 278/362/324 146/356/323 334/338/338 397/337/337
f 205/330/330 398/333/333 315/336/336 150/331/331
f 140/315/315 305/320/320 398/333/333 205/330/330
f 305/320/320 143/319/319 167/334/334 398/333/333
f 156/363/359 399/329/329 246/332/332 151/355/355
f 141/364/360 179/316/316 399/329/329 156/363/359
f 179/316/316 140/315/315 205/330/330 399/329/329
f 353/322/322 400/325/325 160/328/328 146/323/323
f 145/347/347 210/352/352 400/325/325 353/322/322
f 210/352/352 148/351/351 171/326/326 400/325/325
f 213/365/361 401/321/321 278/324/324 147/366/358
f 144/354/354 162/348/348 401/321/321 213/365/361
f 162/348/348 145/347/347 353/322/322 401/321/321
f 233/314/314 402/317/317 305/320/320 140/315/315
f 139/339/339 381/344/344 402/317/317 233/314/314
f 381/344/344 142/343/343 311/318/318 402/317/317
f 190/367/362 403/313/313 179/316/316 141/364/360
f 138/360/357 319/340/340 403/313/313 190/367/362
f 319/340/340 139/339/339 233/314/314 403/313/313
f 293/368/363 404/309/309 194/312/312 136/369/364
f 125/370/365 342/284/284 404/309/309 293/368/363
f 342/284/284 124/283/283 360/310/310 404/309/309
f 385/371/366 405/305/305 326/308/308 134/372/367
f 136/369/364 194/312/312 405/305/305 385/371/366
f 194/312/312 137/311/311 316/306/306 405/305/305
f 256/373/368 406/301/301 358/304/304 130/374/369
f 134/372/367 326/308/308 406/301/301 256/373/368
f 326/308/308 135/307/307 193/302/302 406/301/301
f 341/375/370 407/297/297 204/300/300 122/376/371
f 133/377/372 228/296/296 407/297/297 341/375/370
f 228/296/296 132/295/295 272/298/298 407/297/297
f 349/378/373 408/293/293 228/296/296 133/377/372
f 129/379/374 219/288/288 408/293/293 349/378/373
f 219/288/288 128/287/287 287/294/294 408/293/293
f 275/380/375 409/289/289 198/292/292 126/381/376
f 130/374/369 358/304/304 409/289/289 275/380/375
f 358/304/304 131/303/303 343/290/290 409/289/289
f 338/382/377 410/285/285 219/288/288 129/379/374
f 126/381/376 198/292/292 410/285/285 338/382/377
f 198/292/292 127/291/291 264/286/286 410/285/285
f 313/383/378 411/281/281 342/284/284 125/370/365
f 122/376/371 204/300/300 411/281/281 313/383/378
f 204/300/300 123/299/299 270/282/282 411/281/281
f 351/266/266 412/277/277 175/280/280 121/267/267
f 105/225/225 251/227/227 412/277/277 351/266/266
f 251/227/227 107/246/246 218/278/278 412/277/277
f 373/258/258 413/273/273 368/276/276 118/259/259
f 113/243/243 320/245/245 413/273/273 373/258/258
f 320/245/245 112/240/240 253/274/274 413/273/273
f 266/254/254 414/269/269 255/272/272 116/255/255
f 110/231/231 191/233/233 414/269/269 266/254/254
f 191/233/233 108/228/228 340/270/270 414/269/269
f 170/262/262 415/265/265 335/268/268 120/263/263
f 111/237/237 239/239/239 415/265/265 170/262/262
f 239/239/239 105/225/225 351/266/266 415/265/265
f 263/250/250 416/261/261 361/264/264 114/251/251
f 109/234/234 257/236/236 416/261/261 263/250/250
f 257/236/236 111/237/237 170/262/262 416/261/261
f 218/278/278 417/257/257 172/260/260 119/279/279
f 107/246/246 375/248/248 417/257/257 218/278/278
f 375/248/248 113/243/243 373/258/258 417/257/257
f 253/274/274 418/253/253 300/256/256 117/275/275
f 112/240/240 317/242/242 418/253/253 253/274/274
f 317/242/242 110/231/231 266/254/254 418/253/253
f 340/270/270 419/249/249 195/252/252 115/271/271
f 108/228/228 262/230/230 419/249/249 340/270/270
f 262/230/230 109/234/234 263/250/250 419/249/249
f 375/248/248 237/384/244 113/243/243
f 375/248/248 389/247/247 237/384/244
f 389/247/247 106/385/379 237/384/244
f 320/245/245 296/386/241 112/240/240
f 320/245/245 237/244/244 296/386/241
f 237/244/244 106/387/379 296/386/241
f 317/242/242 181/388/232 110/231/231
f 317/242/242 296/241/241 181/388/232
f 296/241/241 106/389/379 181/388/232
f 239/239/239 325/390/226 105/225/225
f 239/239/239 370/238/238 325/390/226
f 370/238/238 106/391/379 325/390/226
f 257/236/236 370/392/238 111/237/237
f 257/236/236 240/235/235 370/392/238
f 240/235/235 106/393/379 370/392/238
f 191/233/233 324/394/229 108/228/228
f 191/233/233 181/232/232 324/394/229
f 181/232/232 106/395/379 324/394/229
f 262/230/230 240/396/235 109/234/234
f 262/230/230 324/229/229 240/396/235
f 324/229/229 106/397/379 240/396/235
f 251/227/227 389/398/247 107/246/246
f 251/227/227 325/226/226 389/398/247
f 325/226/226 106/399/379 389/398/247
f 208/400/380 420/221/221 206/224/224 103/401/381
f 92/402/382 236/196/196 420/221/221 208/400/380
f 236/196/196 91/195/195 164/222/222 420/221/221
f 271/403/383 421/217/217 347/220/220 101/404/384
f 103/401/381 206/224/224 421/217/217 271/403/383
f 206/224/224 104/223/223 333/218/218 421/217/217
f 159/405/385 422/213/213 362/216/216 97/406/386
f 101/404/384 347/220/220 422/213/213 159/405/385
f 347/220/220 102/219/219 207/214/214 422/213/213
f 384/407/387 423/209/209 383/212/212 89/408/388
f 100/409/389 234/208/208 423/209/209 384/407/387
f 234/208/208 99/207/207 200/210/210 423/209/209
f 366/410/390 424/205/205 234/208/208 100/409/389
f 96/411/391 252/200/200 424/205/205 366/410/390
f 252/200/200 95/199/199 331/206/206 424/205/205
f 307/412/392 425/201/201 387/204/204 93/413/393
f 97/406/386 362/216/216 425/201/201 307/412/392
f 362/216/216 98/215/215 392/202/202 425/201/201
f 241/414/394 426/197/197 252/200/200 96/411/391
f 93/413/393 387/204/204 426/197/197 241/414/394
f 387/204/204 94/203/203 312/198/198 426/197/197
f 238/415/395 427/193/193 236/196/196 92/402/382
f 89/408/388 383/212/212 427/193/193 238/415/395
f 383/212/212 90/211/211 322/194/194 427/193/193
f 294/416/396 428/189/189 217/192/192 87/417/397
f 76/418/398 258/164/164 428/189/189 294/416/396
f 258/164/164 75/163/163 244/190/190 428/189/189
f 165/419/399 429/185/185 356/188/188 85/420/400
f 87/417/397 217/192/192 429/185/185 165/419/399
f 217/192/192 88/191/191 350/186/186 429/185/185
f 288/421/401 430/181/181 379/184/184 81/422/402
f 85/420/400 356/188/188 430/181/181 288/421/401
f 356/188/188 86/187/187 214/182/182 430/181/181
f 247/423/403 431/177/177 157/180/180 73/424/404
f 84/425/405 223/176/176 431/177/177 247/423/403
f 223/176/176 83/175/175 281/178/178 431/177/177
f 308/426/406 432/173/173 223/176/176 84/425/405
f 80/427/407 276/168/168 432/173/173 308/426/406
f 276/168/168 79/167/167 163/174/174 432/173/173
f 337/428/408 433/169/169 161/172/172 77/429/409
f 81/422/402 379/184/184 433/169/169 337/428/408
f 379/184/184 82/183/183 222/170/170 433/169/169
f 269/430/410 434/165/165 276/168/168 80/427/407
f 77/429/409 161/172/172 434/165/165 269/430/410
f 161/172/172 78/171/171 345/166/166 434/165/165
f 260/431/411 435/161/161 258/164/164 76/418/398
f 73/424/404 157/180/180 435/161/161 260/431/411
f 157/180/180 74/179/179 348/162/162 435/161/161
f 329/432/412 436/157/157 289/160/160 71/433/413
f 60/434/414 352/132/132 436/157/157 329/432/412
f 352/132/132 59/131/131 393/158/158 436/157/157
f 224/435/415 437/153/153 174/156/156 69/436/416
f 71/433/413 289/160/160 437/153/153 224/435/415
f 289/160/160 72/159/159 168/154/154 437/153/153
f 365/437/417 438/149/149 188/152/152 65/438/418
f 69/436/416 174/156/156 438/149/149 365/437/417
f 174/156/156 70/155/155 285/150/150 438/149/149
f 155/439/419 439/145/145 226/148/148 57/440/420
f 68/441/421 299/144/144 439/145/145 155/439/419
f 299/144/144 67/143/143 301/146/146 439/145/145
f 243/442/422 440/141/141 299/144/144 68/441/421
f 64/443/423 374/136/136 440/141/141 243/442/422
f 374/136/136 63/135/135 180/142/142 440/141/141
f 283/444/424 441/137/137 231/140/140 61/445/425
f 65/438/418 188/152/152 441/137/137 283/444/424
f 188/152/152 66/151/151 372/138/138 441/137/137
f 363/446/426 442/133/133 374/136/136 64/443/423
f 61/445/425 231/140/140 442/133/133 363/446/426
f 231/140/140 62/139/139 290/134/134 442/133/133
f 354/447/427 443/129/129 352/132/132 60/434/414
f 57/440/420 226/148/148 443/129/129 354/447/427
f 226/148/148 58/147/147 284/130/130 443/129/129
f 196/448/428 444/125/125 336/128/128 55/449/429
f 44/450/430 274/100/100 444/125/125 196/448/428
f 274/100/100 43/99/99 259/126/126 444/125/125
f 386/451/431 445/121/121 201/124/124 53/452/432
f 55/449/429 336/128/128 445/121/121 386/451/431
f 336/128/128 56/127/127 192/122/122 445/121/121
f 268/453/433 446/117/117 215/120/120 49/454/434
f 53/452/432 201/124/124 446/117/117 268/453/433
f 201/124/124 54/123/123 339/118/118 446/117/117
f 267/455/435 447/113/113 166/116/116 41/456/436
f 52/457/437 344/112/112 447/113/113 267/455/435
f 344/112/112 51/111/111 203/114/114 447/113/113
f 378/458/438 448/109/109 344/112/112 52/457/437
f 48/459/439 295/104/104 448/109/109 378/458/438
f 295/104/104 47/103/103 304/110/110 448/109/109
f 211/460/440 449/105/105 173/108/108 45/461/441
f 49/454/434 215/120/120 449/105/105 211/460/440
f 215/120/120 50/119/119 229/106/106 449/105/105
f 282/462/442 450/101/101 295/104/104 48/459/439
f 45/461/441 173/108/108 450/101/101 282/462/442
f 173/108/108 46/107/107 220/102/102 450/101/101
f 277/463/443 451/97/97 274/100/100 44/450/430
f 41/456/436 166/116/116 451/97/97 277/463/443
f 166/116/116 42/115/115 212/98/98 451/97/97
f 187/464/444 452/93/93 183/96/96 33/465/445
f 38/466/446 346/80/80 452/93/93 187/464/444
f 346/80/80 1/79/79 330/94/94 452/93/93
f 309/467/447 453/89/89 265/92/92 39/468/448
f 40/469/449 199/88/88 453/89/89 309/467/447
f 199/88/88 5/87/87 310/90/90 453/89/89
f 186/470/450 454/85/85 199/88/88 40/469/449
f 36/471/451 184/76/76 454/85/85 186/470/450
f 184/76/76 9/75/75 376/86/86 454/85/85
f 367/472/452 455/81/81 377/84/84 37/473/453
f 39/468/448 265/92/92 455/81/81 367/472/452
f 265/92/92 8/91/91 178/82/82 455/81/81
f 185/474/454 456/77/77 346/80/80 38/466/446
f 37/473/453 377/84/84 456/77/77 185/474/454
f 377/84/84 12/83/83 298/78/78 456/77/77
f 314/475/455 457/73/73 184/76/76 36/471/451
f 35/476/456 359/72/72 457/73/73 314/475/455
f 359/72/72 13/71/71 355/74/74 457/73/73
f 245/477/457 458/69/69 359/72/72 35/476/456
f 34/478/458 369/68/68 458/69/69 245/477/457
f 369/68/68 15/67/67 232/70/70 458/69/69
f 197/479/459 459/65/65 369/68/68 34/478/458
f 33/465/445 183/96/96 459/65/65 197/479/459
f 183/96/96 4/95/95 357/66/66 459/65/65
f 280/480/460 460/61/61 279/64/64 31/481/461
f 20/482/462 248/36/36 460/61/61 280/480/460
f 248/36/36 19/35/35 221/62/62 460/61/61
f 209/483/463 461/57/57 158/60/60 29/484/464
f 31/481/461 279/64/64 461/57/57 209/483/463
f 279/64/64 32/63/63 153/58/58 461/57/57
f 332/485/465 462/53/53 154/56/56 25/486/466
f 29/484/464 158/60/60 462/53/53 332/485/465
f 158/60/60 30/59/59 249/54/54 462/53/53
f 225/487/467 463/49/49 390/52/52 17/488/468
f 28/489/469 261/48/48 463/49/49 225/487/467
f 261/48/48 27/47/47 291/50/50 463/49/49
f 364/490/470 464/45/45 261/48/48 28/489/469
f 24/491/471 242/40/40 464/45/45 364/490/470
f 242/40/40 23/39/39 169/46/46 464/45/45
f 297/492/472 465/41/41 380/44/44 21/493/473
f 25/486/466 154/56/56 465/41/41 297/492/472
f 154/56/56 26/55/55 230/42/42 465/41/41
f 235/494/474 466/37/37 242/40/40 24/491/471
f 21/493/473 380/44/44 466/37/37 235/494/474
f 380/44/44 22/43/43 302/38/38 466/37/37
f 250/495/475 467/33/33 248/36/36 20/482/462
f 17/488/468 390/52/52 467/33/33 250/495/475
f 390/52/52 18/51/51 323/34/34 467/33/33
f 357/66/66 468/29/29 306/32/32 15/67/67
f 4/95/95 327/4/4 468/29/29 357/66/66
f 327/4/4 3/3/3 292/30/30 468/29/29
f 232/70/70 469/25/25 182/28/28 13/71/71
f 15/67/67 306/32/32 469/25/25 232/70/70
f 306/32/32 16/31/31 176/26/26 469/25/25
f 355/74/74 470/21/21 177/24/24 9/75/75
f 13/71/71 182/28/28 470/21/21 355/74/74
f 182/28/28 14/27/27 273/22/22 470/21/21
f 298/78/78 471/17/17 202/20/20 1/79/79
f 12/83/83 286/16/16 471/17/17 298/78/78
f 286/16/16 11/15/15 371/18/18 471/17/17
f 178/82/82 472/13/13 286/16/16 12/83/83
f 8/91/91 321/8/8 472/13/13 178/82/82
f 321/8/8 7/7/7 227/14/14 472/13/13
f 376/86/86 473/9/9 189/12/12 5/87/87
f 9/75/75 177/24/24 473/9/9 376/86/86
f 177/24/24 10/23/23 303/10/10 473/9/9
f 310/90/90 474/5/5 321/8/8 8/91/91
f 5/87/87 189/12/12 474/5/5 310/90/90
f 189/12/12 6/11/11 382/6/6 474/5/5
f 330/94/94 475/1/1 327/4/4 4/95/95
f 1/79/79 202/20/20 475/1/1 330/94/94
f 202/20/20 2/19/19 391/2/2 475/1/1
