# Blender v2.78 (sub 0) OBJ File: ''
# www.blender.org
mtllib Pine_Tree_OneSided_m_03.mtl
o Pine_Tree_OneSided_m_03
v -0.153479 0.855599 0.210359
v -0.105644 2.998320 0.163213
v -0.164006 3.000590 -0.029453
v -0.223470 0.856379 -0.065270
v 0.016755 0.856443 -0.216033
v 0.001747 3.004678 -0.144948
v 0.162493 2.995482 -0.022337
v 0.236392 0.847128 -0.030493
v 0.129423 0.851640 0.230250
v 0.095671 2.997396 0.168634
v 0.287800 0.057993 -0.069561
v 0.162678 0.058432 0.253601
v -0.277367 0.059150 -0.102091
v 0.016184 0.059283 -0.291858
v -0.185622 0.058821 0.236382
v -0.818788 1.647973 -1.281139
v -0.677775 3.008214 -0.779058
v -0.026396 2.947188 -0.992970
v 0.314688 1.245849 -1.642853
v 0.609850 3.003374 -0.674365
v 1.201236 1.670906 -0.837308
v 1.536927 1.295057 0.346239
v 0.815665 2.945563 -0.012508
v 0.499201 3.019275 0.621799
v 0.725110 1.719101 1.247883
v -0.424441 1.306332 1.628876
v -0.152754 2.969575 0.836277
v -0.777265 3.031602 0.511052
v -1.286689 1.690994 0.790659
v -1.631262 1.258965 -0.365611
v -0.985584 2.959386 -0.138572
v 1.299717 2.460216 -1.062622
v 0.171094 2.699040 -1.633155
v -0.015332 5.081549 -0.300518
v 0.243958 5.051559 -0.186576
v 0.837261 2.574959 1.284532
v 1.414038 2.855957 0.134514
v 0.314194 5.103280 0.075275
v 0.199420 5.069514 0.336249
v -1.283155 2.456091 0.872969
v -0.148430 2.842759 1.441057
v -0.039359 5.104874 0.410883
v -0.298832 5.056246 0.295901
v -0.831956 2.355278 -1.338488
v -1.433620 2.700214 -0.138774
v -0.372556 5.086986 0.053629
v -0.254884 5.039104 -0.212213
v 1.396577 3.857041 0.097673
v 1.032177 4.249779 -0.898611
v 0.251538 6.339440 -0.188417
v 0.350441 6.296037 0.064620
v 0.015685 3.856053 1.447841
v 0.999809 4.182207 1.069095
v 0.248088 6.340719 0.315026
v -0.002554 6.298504 0.415984
v -1.348553 3.954365 0.072074
v -0.949459 4.234157 1.053022
v -0.250694 6.341365 0.313007
v -0.353378 6.299613 0.061423
v 0.061813 3.963471 -1.316025
v -0.934275 4.312514 -0.914384
v -0.248961 6.340909 -0.190383
v 0.002568 6.297924 -0.293763
v -0.029502 7.185010 -0.438317
v -0.403993 7.154014 -0.285364
v -0.002419 8.463493 0.135870
v 0.367444 7.164271 -0.284020
v 0.366680 7.170526 0.466851
v 0.520689 7.195520 0.090926
v -0.404741 7.159872 0.465120
v -0.030541 7.193672 0.618016
v -0.556182 7.181096 0.088760
v -1.162659 5.682405 0.046005
v -0.842128 5.382190 0.909249
v 0.002158 5.667851 1.228548
v 0.852800 5.414889 0.915618
v 1.172959 5.724975 0.051299
v 0.853175 5.466404 -0.797741
v -0.840371 5.434922 -0.798707
v 0.003370 5.740388 -1.130858
v -0.291990 2.125084 1.251401
v 0.006283 5.066308 0.941735
v -0.887044 1.499390 1.276796
v -0.146711 0.059251 -0.221802
v -1.050906 5.558493 -0.399571
v 0.631694 6.216138 0.711783
v 0.195552 7.892223 0.315807
v 0.883136 5.065353 0.081445
v -0.016598 7.882669 -0.168933
v -0.301245 7.882684 0.114214
v 0.532687 4.016955 1.317696
v 0.288827 5.077429 -0.059749
v -0.492465 4.042873 1.309425
v -1.326230 2.095987 -0.254637
v 0.872477 3.990101 0.105007
v 0.311275 6.317763 -0.066175
v 1.256740 4.016650 0.610583
v -0.005229 2.997888 0.182007
v 0.137609 0.851619 -0.136211
v 1.441537 1.483062 -0.245280
v -0.548353 3.686522 -0.787080
v -1.289346 1.452188 -0.854278
v -1.179575 2.523376 -0.769473
v 0.144275 2.995976 0.078409
v 0.689144 2.981881 0.321901
v -0.250898 1.445357 -1.535324
v -0.889489 6.376748 0.064827
v 0.032485 5.120456 -0.815314
v 0.009144 1.976390 -0.179327
v -0.173154 5.080663 0.363213
v 0.774697 2.577313 -1.411505
v -0.443082 5.522890 1.118803
v -0.015049 6.375783 0.950359
v 0.198968 1.966491 -0.025663
v -0.460550 4.141123 -1.176333
v -0.130901 6.320109 0.374858
v -0.218484 7.880999 -0.086240
v 0.017243 0.379745 -0.261720
v -0.644929 6.217842 -0.566130
v -0.012890 0.058612 0.274274
v 1.062457 5.570130 0.506932
v -0.312322 6.320480 0.191490
v -0.323423 5.062922 -0.083367
v -0.139113 5.059924 -0.266172
v -0.214215 7.256047 0.536076
v 0.165205 7.261227 0.536906
v -0.193289 1.974036 -0.046425
v 0.785089 3.745852 -0.632532
v 0.574929 4.108721 -1.168241
v 0.309001 2.975341 -0.865980
v 0.075452 3.899704 -0.977271
v 0.875916 6.406171 0.068691
v -0.090391 3.003176 -0.100317
v -0.127434 6.319128 -0.252451
v -0.205013 0.856110 0.076621
v -0.367313 2.977529 -0.922083
v -0.863526 2.983317 -0.475517
v 1.433578 2.659864 -0.491237
v -0.482148 3.001550 0.705423
v 1.273630 4.051534 -0.424603
v -0.017205 7.891148 0.398496
v 0.631525 5.271958 0.699640
v -0.803808 3.746216 0.589897
v 0.309534 6.318588 0.194139
v -0.129237 1.972510 0.187052
v 0.436804 7.261703 0.277983
v -0.259903 0.058980 0.074859
v 0.266569 5.086612 0.209867
v -0.174385 0.379307 0.228857
v 0.450412 5.540284 1.122345
v 0.437192 7.258158 -0.090507
v -0.213334 7.247805 -0.351165
v -1.436652 2.576382 0.396920
v 0.280860 7.890023 0.115358
v 0.187533 2.994801 0.765033
v -0.257295 0.379814 -0.086938
v -0.345443 5.071759 0.178790
v 1.193991 2.107221 0.170247
v -0.013888 6.408675 -0.816628
v 1.195715 1.508817 0.828312
v 0.148081 1.514418 1.512664
v -0.754517 2.340841 -1.039454
v 0.166112 7.252777 -0.350486
v 0.269568 0.374541 -0.051756
v -0.752377 2.650321 1.204298
v 0.091778 3.000204 -0.096579
v -0.311437 6.320040 -0.068795
v -1.530331 1.474751 0.211313
v 0.131327 6.318518 -0.251453
v 0.523440 3.813255 0.823098
v 0.632277 6.239472 -0.564986
v 0.618562 2.382577 0.943587
v -0.013283 0.853786 0.237231
v 1.169730 2.721248 0.756697
v -1.051899 5.530622 0.500599
v 0.789064 1.457194 -1.307457
v 0.649615 5.305334 -0.550915
v 0.748595 2.973623 -0.357881
v 0.371424 2.713494 1.439003
v -0.646245 6.193648 0.707541
v 0.118314 5.066360 -0.253398
v -0.441480 5.588834 -1.014752
v 0.451182 5.605500 -1.014457
v 0.198775 0.848909 0.106458
v 0.914921 2.350038 -0.762765
v 0.196016 7.886142 -0.085418
v 0.252675 0.058193 0.102563
v 1.062619 5.597271 -0.396486
v -0.861324 5.116760 0.066808
v 0.146862 2.083339 -1.335905
v -0.091241 3.984019 0.934785
v 0.170502 0.058643 -0.203421
v 0.127004 6.319884 0.375884
v 0.150005 0.377053 0.248072
v -0.112466 0.856764 -0.155288
v 0.084033 5.087444 0.383446
v -1.202316 4.136549 -0.446424
v -0.150172 2.999221 0.071589
v -0.607258 5.298218 0.690532
v -0.916345 2.996135 0.200759
v -0.912277 3.903147 -0.039572
v 0.112281 1.970024 0.199758
v -0.471561 7.249516 0.276094
v -0.471198 7.246179 -0.092245
v -0.218881 7.886912 0.314999
v -1.040739 2.374590 0.656728
v -1.208880 4.095181 0.588582
v -0.599051 5.337664 -0.559840
v -0.355875 2.522517 -1.564670
v -0.341667 6.313563 -0.717873
v 0.320981 6.324806 -0.717357
v 0.780552 6.311360 0.402264
v -0.342963 6.284006 0.855405
v -0.793427 6.297067 -0.262584
v 0.780843 6.323445 -0.260066
v 0.320099 6.295734 0.857674
v -0.794132 6.284496 0.397992
v -0.756876 5.228295 -0.257610
v -0.311683 5.181492 0.842142
v 0.783137 5.167619 0.402361
v 0.353128 5.213619 -0.709847
v -0.293992 5.230126 -0.714392
v -0.760601 5.207830 0.390036
v 0.329846 5.168420 0.846790
v 0.792453 5.184649 -0.245389
v -0.247494 3.791221 -0.915421
v -0.891047 3.824071 0.287855
v 0.227729 3.900469 0.911225
v 0.861203 3.868647 -0.275493
v -0.751499 3.793149 -0.426420
v -0.462766 3.865492 0.783756
v 0.718149 3.903930 0.483282
v 0.446505 3.821836 -0.832452
v -1.223338 2.235443 0.206036
v 0.167807 2.254609 1.138849
v 1.095066 2.228343 -0.301580
v -1.076436 2.217752 -0.664897
v -0.684596 2.250469 0.991110
v 0.942429 2.245349 0.575107
v 0.549032 2.216267 -1.086718
v -0.309106 2.211443 -1.228704
v 0.169255 1.967847 0.092310
v -0.234762 0.379619 0.075890
v 0.155864 0.377062 -0.171728
v -0.013349 0.378258 0.257909
v -0.130625 0.379969 -0.190957
v 0.228009 0.375552 0.105402
v -0.100100 1.975593 -0.125112
v -0.009197 1.971362 0.207900
v 0.113195 1.971404 -0.113820
v -0.175287 1.973246 0.074118
vt 0.7997 0.9476
vt 0.7995 0.9769
vt 0.7933 0.9769
vt 0.7936 0.9475
vt 0.8365 0.9477
vt 0.8363 0.9775
vt 0.8302 0.9775
vt 0.8303 0.9477
vt 0.8119 0.9476
vt 0.8119 0.9770
vt 0.8058 0.9769
vt 0.8058 0.9476
vt 0.7874 0.9475
vt 0.7872 0.9770
vt 0.7810 0.9772
vt 0.7812 0.9475
vt 0.8244 0.9068
vt 0.8242 0.9180
vt 0.8180 0.9181
vt 0.8182 0.9070
vt 0.7874 0.9070
vt 0.7876 0.9181
vt 0.7815 0.9179
vt 0.7812 0.9068
vt 0.8120 0.9072
vt 0.8119 0.9182
vt 0.8058 0.9183
vt 0.8059 0.9073
vt 0.8367 0.9068
vt 0.8367 0.9180
vt 0.8304 0.9179
vt 0.8305 0.9067
vt 0.7997 0.9073
vt 0.7998 0.9182
vt 0.7938 0.9182
vt 0.7936 0.9073
vt 0.8242 0.9477
vt 0.8241 0.9773
vt 0.8181 0.9772
vt 0.8181 0.9476
vt 0.5888 0.3405
vt 0.5810 0.3289
vt 0.5876 0.3225
vt 0.6001 0.3303
vt 0.6004 0.3150
vt 0.5877 0.3135
vt 0.5877 0.3045
vt 0.6006 0.2997
vt 0.5632 0.2777
vt 0.5657 0.2911
vt 0.5564 0.2907
vt 0.5478 0.2775
vt 0.5263 0.3131
vt 0.5425 0.3124
vt 0.5423 0.3218
vt 0.5262 0.3278
vt 0.5623 0.3500
vt 0.5650 0.3350
vt 0.5743 0.3352
vt 0.5775 0.3507
vt 0.5896 0.2888
vt 0.5813 0.2980
vt 0.5750 0.2915
vt 0.5786 0.2779
vt 0.5371 0.2879
vt 0.5495 0.2969
vt 0.5427 0.3031
vt 0.5263 0.2984
vt 0.5367 0.3385
vt 0.5490 0.3283
vt 0.5557 0.3348
vt 0.5471 0.3492
vt 0.5938 0.3155
vt 0.5940 0.3277
vt 0.5739 0.3200
vt 0.5736 0.3147
vt 0.5602 0.2841
vt 0.5725 0.2840
vt 0.5657 0.3021
vt 0.5604 0.3021
vt 0.5307 0.3144
vt 0.5306 0.3019
vt 0.5480 0.3099
vt 0.5482 0.3151
vt 0.5621 0.3446
vt 0.5490 0.3444
vt 0.5563 0.3273
vt 0.5614 0.3275
vt 0.5831 0.2937
vt 0.5937 0.3034
vt 0.5733 0.3094
vt 0.5695 0.3058
vt 0.5392 0.2930
vt 0.5478 0.2842
vt 0.5551 0.3021
vt 0.5516 0.3060
vt 0.5399 0.3357
vt 0.5308 0.3270
vt 0.5485 0.3204
vt 0.5524 0.3239
vt 0.5846 0.3362
vt 0.5752 0.3447
vt 0.5665 0.3276
vt 0.5702 0.3238
vt 0.5819 0.2956
vt 0.5900 0.3035
vt 0.5691 0.3135
vt 0.5677 0.3120
vt 0.5434 0.2956
vt 0.5513 0.2877
vt 0.5622 0.3105
vt 0.5607 0.3119
vt 0.5431 0.3340
vt 0.5352 0.3259
vt 0.5593 0.3176
vt 0.5608 0.3190
vt 0.5819 0.3343
vt 0.5739 0.3425
vt 0.5662 0.3203
vt 0.5676 0.3189
vt 0.5899 0.3148
vt 0.5899 0.3262
vt 0.5689 0.3174
vt 0.5690 0.3155
vt 0.5626 0.2877
vt 0.5739 0.2876
vt 0.5663 0.3106
vt 0.5642 0.3106
vt 0.5353 0.3147
vt 0.5354 0.3035
vt 0.5592 0.3134
vt 0.5592 0.3155
vt 0.5624 0.3423
vt 0.5510 0.3422
vt 0.5622 0.3204
vt 0.5642 0.3203
vt 0.4364 0.3308
vt 0.4305 0.3304
vt 0.4344 0.3235
vt 0.4463 0.3223
vt 0.4413 0.3266
vt 0.4394 0.3193
vt 0.4387 0.2997
vt 0.4430 0.3047
vt 0.4355 0.3080
vt 0.4161 0.3094
vt 0.4204 0.3047
vt 0.4243 0.3128
vt 0.4247 0.3300
vt 0.4209 0.3257
vt 0.4286 0.3232
vt 0.4472 0.3097
vt 0.4467 0.3160
vt 0.4398 0.3130
vt 0.4247 0.3000
vt 0.4317 0.2998
vt 0.4286 0.3081
vt 0.4171 0.3213
vt 0.4166 0.3153
vt 0.4248 0.3188
vt 0.4006 0.3136
vt 0.4004 0.2998
vt 0.4339 0.2814
vt 0.4475 0.2819
vt 0.4651 0.3144
vt 0.4649 0.3275
vt 0.4101 0.3369
vt 0.4008 0.3274
vt 0.4104 0.2904
vt 0.4204 0.2810
vt 0.4564 0.2916
vt 0.4653 0.3013
vt 0.4554 0.3370
vt 0.4460 0.3465
vt 0.4327 0.3465
vt 0.4196 0.3465
vt 0.4555 0.3621
vt 0.4349 0.3626
vt 0.4144 0.3630
vt 0.4834 0.3328
vt 0.4694 0.3475
vt 0.4563 0.2641
vt 0.4699 0.2785
vt 0.4834 0.2929
vt 0.3848 0.2902
vt 0.4004 0.2761
vt 0.4160 0.2619
vt 0.3994 0.3482
vt 0.3844 0.3334
vt 0.4834 0.3128
vt 0.4362 0.2630
vt 0.3846 0.3118
vt 0.4324 0.3163
vt 0.5815 0.3646
vt 0.5606 0.3643
vt 0.5398 0.3640
vt 0.5111 0.3342
vt 0.5114 0.3139
vt 0.5117 0.2936
vt 0.5405 0.2649
vt 0.5610 0.2648
vt 0.5815 0.2647
vt 0.6108 0.2935
vt 0.6108 0.3142
vt 0.6108 0.3349
vt 0.5962 0.3497
vt 0.5254 0.3491
vt 0.5261 0.2792
vt 0.5962 0.2791
vt 0.6140 0.3353
vt 0.5990 0.3486
vt 0.5839 0.3619
vt 0.5418 0.3615
vt 0.5275 0.3475
vt 0.5131 0.3335
vt 0.5131 0.2939
vt 0.5268 0.2801
vt 0.5405 0.2663
vt 0.5794 0.2659
vt 0.5968 0.2817
vt 0.6141 0.2975
vt 0.5628 0.3617
vt 0.5131 0.3137
vt 0.5599 0.2661
vt 0.6141 0.3164
vt 0.5243 0.3487
vt 0.5385 0.3636
vt 0.5101 0.3338
vt 0.5245 0.2790
vt 0.5099 0.2937
vt 0.5392 0.2643
vt 0.5978 0.2796
vt 0.5822 0.2643
vt 0.6135 0.2948
vt 0.5597 0.3649
vt 0.5808 0.3662
vt 0.5100 0.3137
vt 0.5607 0.2643
vt 0.6130 0.3164
vt 0.6126 0.3381
vt 0.5967 0.3521
vt 0.7997 0.8964
vt 0.7934 0.8963
vt 0.8060 0.8964
vt 0.8368 0.8957
vt 0.8307 0.8954
vt 0.8430 0.8959
vt 0.8429 0.9070
vt 0.8429 0.9181
vt 0.8122 0.8961
vt 0.8184 0.8959
vt 0.7872 0.8960
vt 0.7810 0.8956
vt 0.8246 0.8957
vt 0.8426 0.9477
vt 0.8424 0.9774
vn -0.9638 0.0263 0.2654
vn -0.9609 0.0263 0.2757
vn -0.9380 0.0301 -0.3454
vn -0.9356 0.0307 -0.3517
vn 0.6293 0.0288 -0.7766
vn 0.6160 0.0282 -0.7872
vn 0.9594 0.0325 -0.2801
vn 0.9652 0.0330 -0.2595
vn -0.0511 0.0270 0.9983
vn -0.0406 0.0275 0.9988
vn -0.6181 0.0301 0.7855
vn -0.6259 0.0299 0.7793
vn -0.5495 0.0280 -0.8350
vn -0.5584 0.0273 -0.8291
vn 0.0306 0.0312 -0.9990
vn 0.0499 0.0322 -0.9982
vn 0.9274 0.0563 0.3699
vn 0.9270 0.0428 0.3725
vn 0.5305 0.0432 0.8466
vn 0.5345 0.0524 0.8436
vn -0.5353 0.0892 -0.8399
vn -0.5363 0.0561 -0.8422
vn 0.0675 0.0647 -0.9956
vn 0.0655 0.1017 -0.9927
vn -0.0590 0.0408 0.9974
vn -0.0629 0.0349 0.9974
vn -0.6346 0.0438 0.7716
vn -0.6322 0.0558 0.7728
vn 0.6383 0.0872 -0.7648
vn 0.6409 0.0557 -0.7656
vn 0.9690 0.0568 -0.2404
vn 0.9663 0.0814 -0.2444
vn -0.9652 0.0610 0.2541
vn -0.9666 0.0432 0.2527
vn -0.9302 0.0572 -0.3627
vn -0.9284 0.0857 -0.3615
vn 0.9334 0.0293 0.3576
vn 0.9379 0.0295 0.3458
vn 0.5533 0.0320 0.8323
vn 0.5447 0.0317 0.8381
vn -0.2065 0.3474 -0.9147
vn -0.2407 0.3530 -0.9042
vn 0.0879 0.3778 -0.9217
vn 0.1443 0.3761 -0.9153
vn 0.4661 0.3757 -0.8010
vn 0.4296 0.3785 -0.8199
vn 0.7044 0.4064 -0.5819
vn 0.7454 0.4035 -0.5306
vn 0.7935 0.4198 0.4407
vn 0.8102 0.4223 0.4065
vn 0.5776 0.4497 0.6813
vn 0.5333 0.4459 0.7189
vn -0.4750 0.4176 0.7746
vn -0.4380 0.4221 0.7937
vn -0.7208 0.4123 0.5573
vn -0.7526 0.4040 0.5200
vn -0.8087 0.3395 -0.4804
vn -0.8298 0.3433 -0.4399
vn -0.6032 0.3525 -0.7154
vn -0.5545 0.3482 -0.7558
vn 0.8996 0.4019 -0.1708
vn 0.8890 0.4077 -0.2083
vn 0.9011 0.4235 0.0926
vn 0.8944 0.4222 0.1476
vn 0.1804 0.4368 0.8813
vn 0.2163 0.4433 0.8699
vn -0.1053 0.4484 0.8876
vn -0.1595 0.4442 0.8816
vn -0.9129 0.3670 0.1789
vn -0.9022 0.3751 0.2128
vn -0.9223 0.3712 -0.1072
vn -0.9161 0.3662 -0.1632
vn 0.4597 0.4686 -0.7544
vn 0.0491 0.4922 -0.8691
vn 0.0358 0.4961 -0.8675
vn 0.4436 0.4717 -0.7620
vn 0.7826 0.4051 0.4726
vn 0.8876 0.4425 0.1280
vn 0.8862 0.4472 0.1213
vn 0.7907 0.4084 0.4560
vn -0.4968 0.3849 0.7778
vn -0.1409 0.4192 0.8969
vn -0.1168 0.4243 0.8979
vn -0.4775 0.3882 0.7882
vn -0.7809 0.3925 -0.4860
vn -0.8977 0.4150 -0.1481
vn -0.9002 0.4195 -0.1171
vn -0.7901 0.3950 -0.4687
vn 0.8592 0.4470 -0.2490
vn 0.6975 0.4696 -0.5413
vn 0.6881 0.4741 -0.5493
vn 0.8557 0.4490 -0.2574
vn 0.2712 0.4142 0.8688
vn 0.5766 0.4173 0.7024
vn 0.5900 0.4213 0.6888
vn 0.2827 0.4163 0.8642
vn -0.8802 0.4022 0.2519
vn -0.7226 0.4010 0.5631
vn -0.7039 0.4043 0.5840
vn -0.8751 0.4040 0.2664
vn -0.3887 0.4424 -0.8082
vn -0.6227 0.4157 -0.6629
vn -0.6328 0.4181 -0.6517
vn -0.3882 0.4449 -0.8071
vn 0.8937 0.4061 -0.1908
vn 0.6583 0.4512 -0.6026
vn 0.6497 0.4562 -0.6081
vn 0.8873 0.4109 -0.2097
vn 0.2253 0.3997 0.8885
vn 0.6294 0.4429 0.6385
vn 0.6279 0.4477 0.6366
vn 0.2388 0.4039 0.8831
vn -0.8820 0.3970 0.2541
vn -0.6264 0.4356 0.6464
vn -0.6301 0.4405 0.6395
vn -0.8778 0.4006 0.2627
vn -0.2307 0.4062 -0.8842
vn -0.6311 0.4417 -0.6376
vn -0.6323 0.4469 -0.6329
vn -0.2448 0.4104 -0.8784
vn 0.2620 0.4109 -0.8732
vn 0.0168 0.4054 -0.9140
vn 0.0109 0.4095 -0.9122
vn 0.2694 0.4146 -0.8692
vn 0.8838 0.4032 0.2374
vn 0.9168 0.3987 0.0243
vn 0.9152 0.4025 0.0183
vn 0.8790 0.4071 0.2481
vn -0.2275 0.3974 0.8890
vn 0.0002 0.3934 0.9193
vn -0.0023 0.3974 0.9176
vn -0.2433 0.4017 0.8828
vn -0.8846 0.3987 -0.2421
vn -0.9188 0.3945 0.0075
vn -0.9170 0.3988 0.0039
vn -0.8792 0.4029 -0.2542
vn -0.0140 0.4010 -0.9160
vn -0.3918 0.3613 -0.8462
vn -0.0105 0.4156 -0.9095
vn 0.6483 0.3743 -0.6630
vn 0.3689 0.3618 -0.8561
vn 0.6346 0.4061 -0.6575
vn 0.6541 0.3383 0.6765
vn 0.8630 0.3242 0.3874
vn 0.6466 0.3693 0.6675
vn -0.6748 0.3290 0.6606
vn -0.3923 0.3098 0.8661
vn -0.6588 0.3812 0.6485
vn -0.6659 0.3647 -0.6509
vn -0.8566 0.3458 -0.3830
vn -0.6430 0.4170 -0.6424
vn 0.9279 0.3728 -0.0004
vn 0.8538 0.3468 -0.3882
vn 0.9209 0.3899 -0.0019
vn -0.0168 0.3418 0.9396
vn 0.3638 0.3096 0.8785
vn -0.0139 0.3639 0.9313
vn -0.9321 0.3621 -0.0021
vn -0.8673 0.3233 0.3784
vn -0.9151 0.4031 -0.0040
vn -0.8478 0.3370 0.4094
vn -0.6693 0.3373 0.6620
vn 0.3934 0.3523 0.8492
vn 0.6498 0.3595 0.6697
vn 0.8259 0.3853 -0.4115
vn 0.6518 0.3926 -0.6489
vn -0.8393 0.3593 -0.4079
vn -0.9280 0.3726 0.0010
vn -0.4158 0.3369 0.8447
vn -0.0126 0.3679 0.9298
vn 0.8331 0.3636 0.4168
vn 0.9159 0.4014 0.0029
vn 0.4135 0.3993 -0.8183
vn -0.0099 0.4258 -0.9048
vn -0.4309 0.3835 -0.8168
vn -0.6680 0.3707 -0.6452
vn -0.0060 0.4284 -0.9036
vn -0.4632 0.3818 -0.7998
vn -0.6692 0.3702 -0.6443
vn 0.6542 0.3942 -0.6455
vn 0.4495 0.4005 -0.7985
vn 0.6486 0.3614 0.6699
vn 0.8168 0.3648 0.4469
vn 0.9145 0.4046 0.0055
vn -0.6669 0.3371 0.6646
vn -0.4430 0.3371 0.8307
vn -0.0090 0.3705 0.9288
vn -0.8252 0.3593 -0.4357
vn -0.9285 0.3714 0.0034
vn 0.8106 0.3878 -0.4388
vn 0.4243 0.3553 0.8329
vn -0.8330 0.3356 0.4398
vn 0.0100 0.9996 0.0273
vn -0.6321 0.4355 -0.6409
vn -0.8936 0.3947 -0.2137
vn -0.9199 0.3920 0.0134
vn -0.6161 0.4298 0.6601
vn -0.1949 0.3935 0.8984
vn 0.0041 0.3911 0.9203
vn 0.6310 0.4372 0.6409
vn 0.8914 0.3996 0.2137
vn 0.9176 0.3964 0.0299
vn 0.6732 0.4452 -0.5904
vn 0.2426 0.4073 -0.8805
vn 0.0235 0.4029 -0.9149
vn -0.2008 0.4027 -0.8931
vn -0.8889 0.3935 0.2344
vn 0.1991 0.3958 0.8965
vn 0.9024 0.4017 -0.1559
vn 0.0505 0.4872 -0.8718
vn -0.4065 0.4382 -0.8017
vn -0.6154 0.4144 -0.6705
vn -0.8958 0.4097 -0.1721
vn -0.8793 0.4001 0.2583
vn -0.7368 0.3992 0.5458
vn -0.1625 0.4131 0.8961
vn 0.2836 0.4120 0.8659
vn 0.5712 0.4148 0.7083
vn 0.8902 0.4367 0.1301
vn 0.8549 0.4458 -0.2654
vn 0.6918 0.4673 -0.5506
vn -0.7671 0.3914 -0.5083
vn -0.5241 0.3825 0.7609
vn 0.7697 0.4024 0.4955
vn 0.4816 0.4658 -0.7424
vn -0.9240 0.3599 0.1294
vn -0.9096 0.3628 -0.2025
vn -0.7795 0.3940 0.4869
vn 0.1261 0.4323 0.8929
vn -0.1963 0.4413 0.8756
vn 0.4949 0.4396 0.7496
vn 0.9093 0.3991 -0.1179
vn 0.8876 0.4214 0.1858
vn 0.7751 0.3975 -0.4910
vn -0.7975 0.3380 -0.4998
vn -0.5135 0.3411 -0.7874
vn -0.4886 0.4158 0.7670
vn 0.7867 0.4180 0.4542
vn 0.4805 0.3738 -0.7933
vn 0.1881 0.3755 -0.9075
vn -0.1537 0.3447 -0.9260
vn -0.9648 0.0622 0.2555
vn -0.9269 0.0892 -0.3646
vn -0.6319 0.0542 0.7731
vn 0.6326 0.0928 -0.7689
vn 0.9615 0.0844 -0.2614
vn 0.0589 0.1076 -0.9924
vn -0.0534 0.0383 0.9978
vn 0.5457 0.0503 0.8364
vn -0.5370 0.0950 -0.8382
vn 0.9307 0.0564 0.3615
usemtl None
s 1
f 251/1/1 198/2/2 3/3/3 127/4/4
f 250/5/5 166/6/6 7/7/7 114/8/8
f 249/9/9 98/10/10 2/11/11 145/12/12
f 248/13/13 133/14/14 6/15/15 109/16/16
f 247/17/17 184/18/18 9/19/19 194/20/20
f 246/21/21 195/22/22 5/23/23 118/24/24
f 245/25/25 173/26/26 1/27/27 149/28/28
f 244/29/29 99/30/30 8/31/31 164/32/32
f 243/33/33 135/34/34 4/35/35 156/36/36
f 242/37/37 104/38/38 10/39/39 202/40/40
f 241/41/41 136/42/42 18/43/43 190/44/44
f 240/45/45 130/46/46 20/47/47 185/48/48
f 239/49/49 105/50/50 24/51/51 172/52/52
f 238/53/53 139/54/54 28/55/55 206/56/56
f 237/57/57 137/58/58 17/59/59 162/60/60
f 236/61/61 178/62/62 23/63/63 158/64/64
f 235/65/65 155/66/66 27/67/67 81/68/68
f 234/69/69 200/70/70 31/71/71 94/72/72
f 233/73/73 131/74/74 34/75/75 181/76/76
f 232/77/77 95/78/78 38/79/79 148/80/80
f 231/81/81 191/82/82 42/83/83 110/84/84
f 230/85/85 201/86/86 46/87/87 123/88/88
f 229/89/89 128/90/90 35/91/91 92/92/92
f 228/93/93 170/94/94 39/95/95 196/96/96
f 227/97/97 143/98/98 43/99/99 157/100/100
f 226/101/101 101/102/102 47/103/103 124/104/104
f 225/105/105 177/106/106 50/107/107 96/108/108
f 224/109/109 142/110/110 54/111/111 193/112/112
f 223/113/113 199/114/114 58/115/115 122/116/116
f 222/117/117 208/118/118 62/119/119 134/120/120
f 221/121/121 108/122/122 63/123/123 169/124/124
f 220/125/125 88/126/126 51/127/127 144/128/128
f 219/129/129 82/130/130 55/131/131 116/132/132
f 218/133/133 189/134/134 59/135/135 167/136/136
f 64/137/137 152/138/138 89/139/139
f 67/140/140 163/141/141 186/142/142
f 68/143/143 146/144/144 87/145/145
f 70/146/146 125/147/147 205/148/148
f 65/149/149 204/150/150 117/151/151
f 69/152/152 151/153/153 154/154/154
f 71/155/155 126/156/156 141/157/157
f 72/158/158 203/159/159 90/160/160
f 217/161/161 180/162/162 70/146/146 203/159/159
f 216/163/163 86/164/164 68/143/143 126/156/156
f 215/165/165 171/166/166 67/140/140 151/153/153
f 214/167/167 107/168/168 72/158/158 204/150/150
f 213/169/169 113/170/170 71/155/155 125/147/147
f 212/171/171 132/172/172 69/152/152 146/144/144
f 211/173/173 159/174/174 64/137/137 163/141/141
f 210/175/175 119/176/176 65/149/149 152/138/138
f 159/174/174 210/175/175 152/138/138 64/137/137
f 80/177/177 182/178/178 210/175/175 159/174/174
f 182/178/178 79/179/179 119/176/176 210/175/175
f 171/166/166 211/173/173 163/141/141 67/140/140
f 78/180/180 183/181/181 211/173/173 171/166/166
f 183/181/181 80/177/177 159/174/174 211/173/173
f 86/164/164 212/171/171 146/144/144 68/143/143
f 76/182/182 121/183/183 212/171/171 86/164/164
f 121/183/183 77/184/184 132/172/172 212/171/171
f 180/162/162 213/169/169 125/147/147 70/146/146
f 74/185/185 112/186/186 213/169/169 180/162/162
f 112/186/186 75/187/187 113/170/170 213/169/169
f 119/176/176 214/167/167 204/150/150 65/149/149
f 79/179/179 85/188/188 214/167/167 119/176/176
f 85/188/188 73/189/189 107/168/168 214/167/167
f 132/172/172 215/165/165 151/153/153 69/152/152
f 77/184/184 188/190/190 215/165/165 132/172/172
f 188/190/190 78/180/180 171/166/166 215/165/165
f 113/170/170 216/163/163 126/156/156 71/155/155
f 75/187/187 150/191/191 216/163/163 113/170/170
f 150/191/191 76/182/182 86/164/164 216/163/163
f 107/168/168 217/161/161 203/159/159 72/158/158
f 73/189/189 175/192/192 217/161/161 107/168/168
f 175/192/192 74/185/185 180/162/162 217/161/161
f 90/160/160 205/148/148 66/193/193
f 90/160/160 203/159/159 205/148/148
f 203/159/159 70/146/146 205/148/148
f 141/157/157 87/145/145 66/193/193
f 141/157/157 126/156/156 87/145/145
f 126/156/156 68/143/143 87/145/145
f 154/154/154 186/142/142 66/193/193
f 154/154/154 151/153/153 186/142/142
f 151/153/153 67/140/140 186/142/142
f 117/151/151 90/160/160 66/193/193
f 117/151/151 204/150/150 90/160/160
f 204/150/150 72/158/158 90/160/160
f 205/148/148 141/157/157 66/193/193
f 205/148/148 125/147/147 141/157/157
f 125/147/147 71/155/155 141/157/157
f 87/145/145 154/154/154 66/193/193
f 87/145/145 146/144/144 154/154/154
f 146/144/144 69/152/152 154/154/154
f 186/142/142 89/139/139 66/193/193
f 186/142/142 163/141/141 89/139/139
f 163/141/141 64/137/137 89/139/139
f 89/139/139 117/151/151 66/193/193
f 89/139/139 152/138/138 117/151/151
f 152/138/138 65/149/149 117/151/151
f 208/118/118 218/133/133 167/136/136 62/119/119
f 61/194/194 197/195/195 218/133/133 208/118/118
f 197/195/195 56/196/196 189/134/134 218/133/133
f 199/114/114 219/129/129 116/132/132 58/115/115
f 57/197/197 93/198/198 219/129/129 199/114/114
f 93/198/198 52/199/199 82/130/130 219/129/129
f 142/110/110 220/125/125 144/128/128 54/111/111
f 53/200/200 97/201/201 220/125/125 142/110/110
f 97/201/201 48/202/202 88/126/126 220/125/125
f 177/106/106 221/121/121 169/124/124 50/107/107
f 49/203/203 129/204/204 221/121/121 177/106/106
f 129/204/204 60/205/205 108/122/122 221/121/121
f 108/122/122 222/117/117 134/120/120 63/123/123
f 60/205/205 115/206/206 222/117/117 108/122/122
f 115/206/206 61/194/194 208/118/118 222/117/117
f 189/134/134 223/113/113 122/116/116 59/135/135
f 56/196/196 207/207/207 223/113/113 189/134/134
f 207/207/207 57/197/197 199/114/114 223/113/113
f 82/130/130 224/109/109 193/112/112 55/131/131
f 52/199/199 91/208/208 224/109/109 82/130/130
f 91/208/208 53/200/200 142/110/110 224/109/109
f 88/126/126 225/105/105 96/108/108 51/127/127
f 48/202/202 140/209/209 225/105/105 88/126/126
f 140/209/209 49/203/203 177/106/106 225/105/105
f 131/74/74 226/101/101 124/104/104 34/75/75
f 33/210/210 209/211/211 226/101/101 131/74/74
f 209/211/211 44/212/212 101/102/102 226/101/101
f 201/86/86 227/97/97 157/100/100 46/87/87
f 45/213/213 153/214/214 227/97/97 201/86/86
f 153/214/214 40/215/215 143/98/98 227/97/97
f 191/82/82 228/93/93 196/96/96 42/83/83
f 41/216/216 179/217/217 228/93/93 191/82/82
f 179/217/217 36/218/218 170/94/94 228/93/93
f 95/78/78 229/89/89 92/92/92 38/79/79
f 37/219/219 138/220/220 229/89/89 95/78/78
f 138/220/220 32/221/221 128/90/90 229/89/89
f 101/102/102 230/85/85 123/88/88 47/103/103
f 44/212/212 103/222/222 230/85/85 101/102/102
f 103/222/222 45/213/213 201/86/86 230/85/85
f 143/98/98 231/81/81 110/84/84 43/99/99
f 40/215/215 165/223/223 231/81/81 143/98/98
f 165/223/223 41/216/216 191/82/82 231/81/81
f 170/94/94 232/77/77 148/80/80 39/95/95
f 36/218/218 174/224/224 232/77/77 170/94/94
f 174/224/224 37/219/219 95/78/78 232/77/77
f 128/90/90 233/73/73 181/76/76 35/91/91
f 32/221/221 111/225/225 233/73/73 128/90/90
f 111/225/225 33/210/210 131/74/74 233/73/73
f 168/226/226 234/69/69 94/72/72 30/227/227
f 29/228/228 206/56/56 234/69/69 168/226/226
f 206/56/56 28/55/55 200/70/70 234/69/69
f 161/229/229 235/65/65 81/68/68 26/230/230
f 25/231/231 172/52/52 235/65/65 161/229/229
f 172/52/52 24/51/51 155/66/66 235/65/65
f 100/232/232 236/61/61 158/64/64 22/233/233
f 21/234/234 185/48/48 236/61/61 100/232/232
f 185/48/48 20/47/47 178/62/62 236/61/61
f 102/235/235 237/57/57 162/60/60 16/236/236
f 30/227/227 94/72/72 237/57/57 102/235/235
f 94/72/72 31/71/71 137/58/58 237/57/57
f 83/237/237 238/53/53 206/56/56 29/228/228
f 26/230/230 81/68/68 238/53/53 83/237/237
f 81/68/68 27/67/67 139/54/54 238/53/53
f 160/238/238 239/49/49 172/52/52 25/231/231
f 22/233/233 158/64/64 239/49/49 160/238/238
f 158/64/64 23/63/63 105/50/50 239/49/49
f 176/239/239 240/45/45 185/48/48 21/234/234
f 19/240/240 190/44/44 240/45/45 176/239/239
f 190/44/44 18/43/43 130/46/46 240/45/45
f 106/241/241 241/41/41 190/44/44 19/240/240
f 16/236/236 162/60/60 241/41/41 106/241/241
f 162/60/60 17/59/59 136/42/42 241/41/41
f 184/18/18 242/37/37 202/40/40 9/19/19
f 8/31/31 114/8/8 242/37/37 184/18/18
f 114/8/8 7/7/7 104/38/38 242/37/37
f 147/242/242 243/33/33 156/36/36 13/243/243
f 15/244/244 149/28/28 243/33/33 147/242/242
f 149/28/28 1/27/27 135/34/34 243/33/33
f 192/245/245 244/29/29 164/32/32 11/246/246
f 14/247/247 118/248/24 244/29/29 192/245/245
f 118/248/24 5/249/23 99/30/30 244/29/29
f 120/250/248 245/25/25 149/28/28 15/244/244
f 12/251/249 194/20/20 245/25/25 120/250/248
f 194/20/20 9/19/19 173/26/26 245/25/25
f 84/252/250 246/21/21 118/24/24 14/253/247
f 13/243/243 156/36/36 246/21/21 84/252/250
f 156/36/36 4/35/35 195/22/22 246/21/21
f 187/254/251 247/17/17 194/20/20 12/251/249
f 11/246/246 164/32/32 247/17/17 187/254/251
f 164/32/32 8/31/31 184/18/18 247/17/17
f 195/22/22 248/13/13 109/16/16 5/23/23
f 4/35/35 127/4/4 248/13/13 195/22/22
f 127/4/4 3/3/3 133/14/14 248/13/13
f 173/26/26 249/9/9 145/12/12 1/27/27
f 9/19/19 202/40/40 249/9/9 173/26/26
f 202/40/40 10/39/39 98/10/10 249/9/9
f 99/30/30 250/5/5 114/8/8 8/31/31
f 5/249/23 109/255/16 250/5/5 99/30/30
f 109/255/16 6/256/15 166/6/6 250/5/5
f 135/34/34 251/1/1 127/4/4 4/35/35
f 1/27/27 145/12/12 251/1/1 135/34/34
f 145/12/12 2/11/11 198/2/2 251/1/1
