# Blender v2.78 (sub 0) OBJ File: ''
# www.blender.org
mtllib Pine_Tree_OneSided_m_10.mtl
o Pine_Tree_OneSided_m_10
v -0.088874 0.544922 0.138839
v -0.064888 1.996492 0.110178
v -0.108627 1.996424 -0.023765
v -0.145009 0.544941 -0.033885
v 0.001923 0.544920 -0.140641
v 0.005380 1.995696 -0.106652
v 0.119516 1.995312 -0.023939
v 0.148863 0.544888 -0.033896
v 0.092748 0.544889 0.138832
v 0.076101 1.995806 0.110069
v 0.174351 0.032922 -0.057051
v 0.107801 0.032920 0.147766
v -0.174105 0.032921 -0.057051
v 0.000123 0.032923 -0.183635
v -0.107555 0.032919 0.147766
v 0.722827 0.938676 0.838139
v 0.396232 1.848819 0.446934
v -0.217137 1.854947 0.521541
v -0.289464 0.924773 0.914491
v 1.088101 0.633514 -0.002738
v 0.593223 1.812271 -0.060878
v -1.131712 0.604577 0.009593
v -0.707177 1.824837 -0.050707
v -0.388241 1.841229 -0.553935
v -0.567403 0.885357 -0.830758
v 0.425020 0.883778 -0.839876
v 0.219543 1.834337 -0.576391
v -0.586251 1.405438 -0.958553
v -0.013931 3.232044 -0.153900
v 0.197483 3.220102 -0.153607
v 0.484627 1.307493 -1.004640
v -0.359857 1.607078 0.942594
v 0.740061 1.491463 0.891502
v 0.261426 3.234122 0.211321
v 0.041673 3.247923 0.216422
v 1.143355 1.545781 0.028036
v 0.334098 3.239039 0.034218
v -1.063349 1.776854 0.007728
v -0.119266 3.267252 0.031534
v -0.238045 2.582041 0.833305
v 0.626207 2.616398 0.775244
v 0.412254 4.062283 0.206119
v 0.205798 4.067241 0.211534
v 0.959349 2.432585 0.073530
v 0.389210 2.655886 -0.637570
v 0.346922 4.066978 -0.128960
v 0.481719 4.042018 0.036355
v -0.456703 2.637017 -0.635989
v 0.148079 4.072980 -0.133876
v -0.946745 2.353476 0.068861
v 0.037046 4.051392 0.034923
v -0.205137 3.533305 -0.554018
v 0.182334 4.618900 -0.197781
v 0.515389 4.593948 -0.229464
v 0.468451 3.419088 -0.569434
v -0.027543 3.455864 0.684668
v 0.653893 3.328062 0.620654
v 0.601902 4.579651 0.324296
v 0.274376 4.606516 0.328678
v 0.703360 4.586574 0.060448
v 0.538642 5.480687 0.117452
v 0.022288 4.642759 0.061947
v -0.461933 3.763481 0.022798
v 0.905490 3.495768 0.021655
v 0.492341 3.965698 -0.418120
v -0.585494 1.833254 -0.321477
v 0.235754 0.960268 0.941752
v -0.085553 1.837331 -0.599833
v 0.327094 1.361881 -0.720740
v 0.000123 0.032920 0.163232
v -0.126947 1.296686 -0.028491
v 0.730665 3.232487 0.055050
v 0.000911 0.243874 -0.165876
v -0.035775 2.669544 -0.691164
v 0.409394 5.085156 0.226696
v 0.153221 4.669034 0.198167
v 0.508391 2.360747 0.560016
v -0.483551 1.366589 -0.704037
v -0.096082 0.032922 -0.132856
v -0.375066 3.666080 -0.290682
v 0.870638 1.426555 -0.523077
v -0.893363 1.602977 -0.509392
v 0.806666 0.744554 -0.452834
v -0.077065 0.544931 -0.094864
v -0.772869 1.712544 0.514905
v 0.750193 2.395939 0.033126
v -0.770351 0.750954 0.496474
v 0.361314 5.089899 -0.043570
v 0.311867 4.064647 0.217947
v 0.003729 1.296294 -0.123463
v -0.245605 4.174644 0.039050
v -0.645203 2.453576 0.480713
v 0.005620 1.996172 0.119892
v 0.102296 0.243853 0.146153
v -0.494260 1.840569 0.255426
v -0.940456 1.207854 -0.022133
v -0.280014 3.625036 0.378143
v 0.618365 4.635499 -0.083281
v -0.029250 4.037292 -0.393204
v 0.100233 1.852250 0.521473
v 0.633434 3.910916 0.485300
v -0.075829 3.249946 -0.065797
v 0.202018 1.537522 0.985802
v 0.822003 3.411361 0.340460
v -0.073655 0.909496 -0.897835
v 0.634359 5.070619 0.089623
v 0.370859 3.364113 -0.391175
v 0.967692 0.774889 0.445786
v 0.096328 0.032923 -0.132856
v -0.096054 1.996515 0.046233
v 0.124621 3.461387 -0.605442
v 0.113035 4.059780 0.127728
v 0.154231 3.240989 0.222657
v 0.134474 1.296077 -0.028588
v 0.536049 5.078767 -0.058597
v 0.164955 0.243869 -0.046691
v -0.125876 0.544930 0.055380
v 0.106512 4.674891 -0.065074
v -0.017366 3.326997 0.531721
v -0.046814 3.257897 0.128324
v -0.918735 0.730516 -0.444493
v 0.568924 1.397383 0.653019
v 0.455967 4.051681 0.125502
v 0.847615 2.515582 0.449142
v -0.157761 3.358092 -0.392810
v 0.345388 2.260182 -0.590860
v 0.084634 1.296336 0.125022
v -0.468905 3.196648 0.051124
v 0.129740 0.544888 0.055371
v 0.209562 2.618635 0.860947
v 0.357994 4.652140 -0.213093
v 0.306316 3.236297 0.126869
v 0.855151 1.216399 -0.031603
v -0.057380 1.996073 -0.073106
v 0.816576 4.006351 0.038822
v 0.448050 4.639475 0.330117
v 0.110434 3.990905 0.522543
v 0.001937 0.544904 0.148230
v -0.100473 0.243848 0.146153
v 0.661713 4.628692 0.196688
v 0.421169 4.054115 -0.050622
v -0.306216 2.315650 -0.566117
v 0.272340 3.229307 -0.063866
v 0.155786 0.032921 0.050136
v 0.721863 3.461070 -0.296939
v 0.319813 3.370633 0.700782
v 1.009606 1.524839 0.498086
v 0.068187 1.995455 -0.073203
v -0.604631 2.528175 0.019873
v -0.076926 1.296712 0.125082
v 0.082872 4.062683 -0.054277
v -0.762053 2.483979 -0.313347
v -0.057445 1.329671 -1.059658
v 0.433483 1.822716 -0.336714
v 0.528034 1.830319 0.207689
v -0.163132 0.243861 -0.046691
v 0.525054 3.341809 0.497829
v 0.080915 0.544905 -0.094869
v 0.279462 5.094396 0.092290
v 0.581142 5.073546 0.226753
v 0.107110 1.995516 0.046076
v 0.719127 2.536087 -0.308910
v -0.255256 1.393452 0.733202
v 0.246907 4.069985 -0.140183
v -0.163090 2.426600 0.590288
v 0.091241 3.226047 -0.162199
v -0.155539 0.032920 0.050136
v -0.079604 1.373413 -0.748834
v 0.747546 3.957928 0.273189
v -0.160875 4.113120 -0.189365
v 0.673193 3.987044 -0.202221
v -0.087353 4.088953 0.293311
v 0.376647 3.942739 0.528782
v 0.228773 3.996022 -0.429305
v -0.339590 3.273331 -0.183812
v 0.651791 3.283631 0.287322
v -0.266084 3.256678 0.304221
v 0.105566 3.369764 -0.415673
v 0.570148 3.295101 -0.179766
v 0.260715 3.341641 0.539447
v -0.409841 2.485221 0.321614
v 0.571489 2.327931 -0.293472
v -0.484596 2.426461 -0.287595
v 0.657961 2.380568 0.312478
v 0.178124 2.389255 0.604230
v 0.016898 2.277858 -0.610929
v -0.632306 1.295761 0.375950
v 0.620074 1.283635 -0.394774
v -0.752115 1.281885 -0.382985
v 0.747863 1.302604 0.326737
v 0.167994 1.406259 0.731612
v 0.117509 1.296191 0.050797
v -0.141786 0.243854 0.052975
v 0.089103 0.243872 -0.114776
v 0.000911 0.243849 0.156651
v -0.087280 0.243868 -0.114776
v 0.143609 0.243861 0.052975
v -0.066529 1.296495 -0.082739
v 0.003859 1.296531 0.133412
v 0.074014 1.296168 -0.082791
v -0.109891 1.296720 0.050882
vt 0.7997 0.9476
vt 0.7995 0.9769
vt 0.7933 0.9769
vt 0.7936 0.9475
vt 0.8365 0.9477
vt 0.8363 0.9775
vt 0.8302 0.9775
vt 0.8303 0.9477
vt 0.8119 0.9476
vt 0.8119 0.9770
vt 0.8058 0.9769
vt 0.8058 0.9476
vt 0.7874 0.9475
vt 0.7872 0.9770
vt 0.7810 0.9772
vt 0.7812 0.9475
vt 0.8244 0.9068
vt 0.8242 0.9180
vt 0.8180 0.9181
vt 0.8182 0.9070
vt 0.7874 0.9070
vt 0.7876 0.9181
vt 0.7815 0.9179
vt 0.7812 0.9068
vt 0.8120 0.9072
vt 0.8119 0.9182
vt 0.8058 0.9183
vt 0.8059 0.9073
vt 0.8367 0.9068
vt 0.8367 0.9180
vt 0.8304 0.9179
vt 0.8305 0.9067
vt 0.7997 0.9073
vt 0.7998 0.9182
vt 0.7938 0.9182
vt 0.7936 0.9073
vt 0.8242 0.9477
vt 0.8241 0.9773
vt 0.8181 0.9772
vt 0.8181 0.9476
vt 0.9176 0.4208
vt 0.9279 0.4283
vt 0.9215 0.4399
vt 0.9096 0.4381
vt 0.9411 0.4036
vt 0.9437 0.4171
vt 0.9343 0.4167
vt 0.9257 0.4034
vt 0.9419 0.4726
vt 0.9439 0.4596
vt 0.9544 0.4583
vt 0.9589 0.4698
vt 0.9649 0.4194
vt 0.9587 0.4261
vt 0.9530 0.4175
vt 0.9566 0.4038
vt 0.9172 0.4568
vt 0.9275 0.4505
vt 0.9335 0.4610
vt 0.9248 0.4754
vt 0.9613 0.4510
vt 0.9481 0.4449
vt 0.9506 0.4379
vt 0.9668 0.4371
vt 0.9196 0.4248
vt 0.9257 0.4101
vt 0.9330 0.4282
vt 0.9300 0.4351
vt 0.9381 0.4101
vt 0.9505 0.4099
vt 0.9436 0.4281
vt 0.9383 0.4281
vt 0.9413 0.4678
vt 0.9268 0.4706
vt 0.9341 0.4534
vt 0.9398 0.4527
vt 0.9586 0.4235
vt 0.9471 0.4330
vt 0.9202 0.4550
vt 0.9136 0.4395
vt 0.9270 0.4421
vt 0.9305 0.4477
vt 0.9237 0.4265
vt 0.9292 0.4137
vt 0.9401 0.4366
vt 0.9389 0.4392
vt 0.9576 0.4254
vt 0.9634 0.4374
vt 0.9467 0.4406
vt 0.9454 0.4386
vt 0.9587 0.4500
vt 0.9540 0.4627
vt 0.9445 0.4456
vt 0.9456 0.4431
vt 0.9235 0.4539
vt 0.9182 0.4394
vt 0.9376 0.4418
vt 0.9389 0.4442
vt 0.9405 0.4136
vt 0.9518 0.4136
vt 0.9442 0.4366
vt 0.9421 0.4366
vt 0.9414 0.4656
vt 0.9288 0.4684
vt 0.9401 0.4465
vt 0.9423 0.4460
vt 0.9462 0.5892
vt 0.9405 0.5784
vt 0.9472 0.5757
vt 0.9603 0.5827
vt 0.9377 0.5402
vt 0.9533 0.5343
vt 0.9445 0.5520
vt 0.9370 0.5552
vt 0.9488 0.5570
vt 0.9413 0.5604
vt 0.9337 0.5811
vt 0.9283 0.5774
vt 0.9360 0.5749
vt 0.9530 0.5621
vt 0.9501 0.5689
vt 0.9456 0.5654
vt 0.9229 0.5737
vt 0.9262 0.5661
vt 0.9305 0.5712
vt 0.9143 0.5630
vt 0.9221 0.5461
vt 0.9295 0.5585
vt 0.9657 0.5681
vt 0.9193 0.5877
vt 0.9065 0.5798
vt 0.9622 0.5439
vt 0.9711 0.5537
vt 0.9427 0.5722
vt 0.9660 0.4524
vt 0.9732 0.4351
vt 0.9820 0.4353
vt 0.9726 0.4583
vt 0.9633 0.4813
vt 0.9594 0.4466
vt 0.9644 0.4348
vt 0.9382 0.5687
vt 0.9621 0.5165
vt 0.9757 0.5308
vt 0.9892 0.5452
vt 0.9322 0.5957
vt 0.9306 0.6104
vt 0.9103 0.5981
vt 0.8901 0.5858
vt 0.9812 0.5674
vt 0.9733 0.5896
vt 0.9338 0.5636
vt 0.9024 0.5598
vt 0.9147 0.5338
vt 0.9384 0.5252
vt 0.9519 0.6000
vt 0.9635 0.4798
vt 0.9405 0.4850
vt 0.9176 0.4903
vt 0.9183 0.3908
vt 0.9388 0.3907
vt 0.9594 0.3905
vt 0.9081 0.4636
vt 0.8987 0.4369
vt 0.9802 0.4341
vt 0.9719 0.4570
vt 0.9698 0.4123
vt 0.9085 0.4139
vt 0.9196 0.4878
vt 0.9099 0.4624
vt 0.9001 0.4369
vt 0.9574 0.3918
vt 0.9701 0.4140
vt 0.9829 0.4363
vt 0.9557 0.4650
vt 0.9455 0.4520
vt 0.9660 0.4780
vt 0.9428 0.4829
vt 0.9183 0.3921
vt 0.9378 0.3920
vt 0.9092 0.4145
vt 0.9744 0.4571
vt 0.9069 0.4631
vt 0.9162 0.4898
vt 0.8976 0.4364
vt 0.9711 0.4127
vt 0.9602 0.3901
vt 0.9397 0.4855
vt 0.9386 0.3901
vt 0.9170 0.3901
vt 0.9073 0.4132
vt 0.7997 0.8964
vt 0.7934 0.8963
vt 0.8060 0.8964
vt 0.8368 0.8957
vt 0.8307 0.8954
vt 0.8430 0.8959
vt 0.8429 0.9070
vt 0.8429 0.9181
vt 0.8122 0.8961
vt 0.8184 0.8959
vt 0.7872 0.8960
vt 0.7810 0.8956
vt 0.8246 0.8957
vt 0.8426 0.9477
vt 0.8424 0.9774
vn -0.9506 0.0224 0.3097
vn -0.9505 0.0227 0.3100
vn -0.9511 0.0248 -0.3078
vn -0.9509 0.0250 -0.3084
vn 0.5873 0.0181 -0.8092
vn 0.5869 0.0179 -0.8094
vn 0.9506 0.0202 -0.3097
vn 0.9507 0.0203 -0.3093
vn 0.0001 0.0174 0.9998
vn 0.0005 0.0212 0.9998
vn -0.5872 0.0252 0.8091
vn -0.5870 0.0246 0.8092
vn -0.5878 0.0210 -0.8088
vn -0.5880 0.0207 -0.8086
vn -0.0013 0.0219 -0.9998
vn -0.0003 0.0224 -0.9998
vn 0.9501 0.0410 0.3092
vn 0.9505 0.0293 0.3095
vn 0.5860 0.0333 0.8096
vn 0.5867 0.0355 0.8090
vn -0.5862 0.0785 -0.8064
vn -0.5875 0.0474 -0.8078
vn 0.0001 0.0537 -0.9986
vn 0.0001 0.0895 -0.9960
vn 0.0001 0.0277 0.9996
vn 0.0062 0.0232 0.9997
vn -0.5855 0.0298 0.8102
vn -0.5837 0.0397 0.8110
vn 0.5864 0.0743 -0.8066
vn 0.5875 0.0439 -0.8080
vn 0.9513 0.0423 -0.3052
vn 0.9495 0.0662 -0.3067
vn -0.9498 0.0478 0.3092
vn -0.9502 0.0349 0.3097
vn -0.9511 0.0479 -0.3050
vn -0.9490 0.0730 -0.3066
vn 0.9510 0.0177 0.3086
vn 0.9511 0.0181 0.3084
vn 0.5875 0.0223 0.8089
vn 0.5851 0.0221 0.8107
vn 0.0863 0.4280 0.8997
vn 0.0923 0.4400 0.8933
vn -0.3809 0.4038 0.8318
vn -0.3784 0.3902 0.8394
vn 0.8706 0.4189 0.2582
vn 0.8612 0.4299 0.2711
vn 0.5446 0.4930 0.6785
vn 0.5623 0.4814 0.6723
vn -0.8240 0.3005 -0.4803
vn -0.8126 0.3122 -0.4921
vn -0.4641 0.3347 -0.8201
vn -0.4748 0.3225 -0.8188
vn 0.7809 0.3256 -0.5330
vn 0.7721 0.3346 -0.5402
vn 0.9050 0.3912 -0.1673
vn 0.9108 0.3816 -0.1575
vn -0.7401 0.3167 0.5933
vn -0.7329 0.3279 0.5962
vn -0.9318 0.3536 0.0818
vn -0.9379 0.3364 0.0846
vn 0.0033 0.4243 -0.9055
vn 0.0083 0.4269 -0.9042
vn 0.4231 0.4281 -0.7986
vn 0.4103 0.4230 -0.8079
vn 0.0785 0.4060 0.9105
vn 0.4946 0.4356 0.7521
vn 0.4914 0.4431 0.7498
vn 0.0703 0.4096 0.9096
vn 0.8176 0.4163 0.3977
vn 0.8947 0.4323 -0.1120
vn 0.8902 0.4389 -0.1222
vn 0.8209 0.4200 0.3870
vn -0.7020 0.4835 -0.5229
vn -0.8409 0.5394 0.0440
vn -0.8330 0.5470 0.0835
vn -0.7042 0.4881 -0.5156
vn 0.7361 0.3822 -0.5587
vn 0.7346 0.3852 -0.5585
vn -0.6651 0.4537 0.5930
vn -0.3206 0.4495 0.8338
vn -0.3264 0.4562 0.8279
vn -0.6579 0.4567 0.5988
vn 0.0483 0.3981 0.9161
vn 0.5504 0.3801 0.7434
vn 0.5513 0.3873 0.7390
vn 0.0479 0.4018 0.9145
vn 0.7869 0.2467 -0.5657
vn 0.4502 0.3167 -0.8349
vn 0.4586 0.3215 -0.8284
vn 0.7806 0.2508 -0.5725
vn 0.0025 0.3605 -0.9328
vn -0.4627 0.4623 -0.7564
vn -0.4046 0.4589 -0.7910
vn 0.0175 0.3621 -0.9320
vn -0.7057 0.4499 0.5474
vn -0.3829 0.4522 0.8056
vn -0.3522 0.4555 0.8176
vn -0.6920 0.4521 0.5629
vn 0.8918 0.2955 0.3427
vn 0.9496 0.2819 -0.1372
vn 0.9445 0.2880 -0.1581
vn 0.8922 0.2991 0.3385
vn -0.7880 0.4808 -0.3845
vn -0.8566 0.5046 0.1079
vn -0.8517 0.5125 0.1093
vn -0.7758 0.4834 -0.4056
vn -0.0053 0.3104 -0.9506
vn -0.0475 0.3352 -0.9409
vn 0.4389 0.2642 -0.8588
vn 0.4405 0.2449 -0.8637
vn 0.1055 0.2668 0.9579
vn 0.5692 0.2218 0.7917
vn 0.5655 0.2097 0.7976
vn 0.0515 0.2354 0.9705
vn 0.9179 0.1417 0.3705
vn 0.5622 0.2389 0.7917
vn -0.4231 0.4207 -0.8025
vn -0.7357 0.4626 -0.4947
vn -0.4366 0.4773 -0.7626
vn 0.9788 0.1687 -0.1157
vn 0.8201 0.1700 -0.5464
vn 0.9743 0.2016 -0.1003
vn -0.8652 0.4902 0.1057
vn -0.6611 0.3620 0.6572
vn -0.8439 0.5232 0.1187
vn -0.6694 0.3823 0.6370
vn -0.3173 0.3509 0.8810
vn -0.3372 0.3278 0.8825
vn 0.7996 0.1704 -0.5758
vn -0.7348 0.4548 -0.5032
vn -0.8689 0.4857 0.0956
vn 0.9022 0.1628 0.3995
vn 0.9768 0.1807 -0.1148
vn 0.4388 0.3293 -0.8361
vn -0.0185 0.2988 -0.9541
vn 0.4411 0.3304 -0.8344
vn 0.4950 0.3200 -0.8078
vn -0.0118 0.2870 -0.9579
vn -0.5220 0.3108 -0.7943
vn -0.0258 0.3107 -0.9502
vn 0.4153 0.3428 -0.8426
vn 0.1648 0.9842 0.0641
vn 0.5321 0.2247 0.8163
vn 0.8850 0.1635 0.4359
vn 0.9791 0.1785 -0.0978
vn -0.3988 0.4108 -0.8199
vn -0.3456 0.3972 -0.8501
vn -0.7190 0.4490 -0.5305
vn -0.8741 0.4795 0.0773
vn 0.7814 0.1694 -0.6007
vn 0.4088 0.2435 -0.8795
vn -0.3449 0.3299 0.8787
vn -0.6652 0.3817 0.6417
vn -0.2549 0.3428 0.9041
vn 0.1318 0.2647 0.9553
vn 0.0140 0.3032 -0.9528
vn -0.5495 0.4688 -0.6916
vn -0.8086 0.4797 -0.3406
vn -0.8580 0.5001 0.1169
vn 0.5610 0.3719 0.7396
vn 0.8963 0.2908 0.3347
vn 0.9535 0.2783 -0.1157
vn -0.7255 0.4493 0.5213
vn -0.4428 0.4511 0.7749
vn 0.4569 0.3097 -0.8338
vn -0.0229 0.3609 -0.9323
vn 0.7995 0.2426 -0.5495
vn 0.0394 0.3950 0.9178
vn -0.8467 0.5320 -0.0097
vn -0.6681 0.4503 0.5923
vn -0.2970 0.4430 0.8459
vn 0.8969 0.4254 -0.1211
vn 0.7305 0.3792 -0.5679
vn 0.3788 0.4206 -0.8244
vn -0.3792 0.4737 -0.7949
vn -0.3887 0.4809 -0.7860
vn -0.3380 0.4654 -0.8180
vn -0.6871 0.4783 -0.5469
vn 0.4972 0.4303 0.7534
vn 0.8124 0.4130 0.4116
vn 0.0904 0.4027 0.9109
vn 0.0018 0.4218 -0.9067
vn -0.7549 0.3050 0.5806
vn -0.9404 0.3258 0.0976
vn -0.4118 0.3731 0.8314
vn 0.7960 0.3188 -0.5145
vn 0.9148 0.3756 -0.1482
vn -0.8448 0.2885 -0.4506
vn 0.8846 0.4061 0.2292
vn 0.6168 0.4697 0.6316
vn 0.0829 0.4164 0.9054
vn -0.9507 0.0480 0.3062
vn -0.9455 0.0760 -0.3168
vn -0.5929 0.0373 0.8044
vn 0.5845 0.0793 -0.8075
vn 0.9457 0.0689 -0.3176
vn -0.0011 0.0950 -0.9955
vn -0.0003 0.0213 0.9998
vn 0.5916 0.0328 0.8056
vn -0.5847 0.0837 -0.8069
vn 0.9510 0.0409 0.3065
usemtl None
s 1
f 201/1/1 110/2/2 3/3/3 71/4/4
f 200/5/5 148/6/6 7/7/7 114/8/8
f 199/9/9 93/10/10 2/11/11 150/12/12
f 198/13/13 134/14/14 6/15/15 90/16/16
f 197/17/17 129/18/18 9/19/19 94/20/20
f 196/21/21 84/22/22 5/23/23 73/24/24
f 195/25/25 138/26/26 1/27/27 139/28/28
f 194/29/29 158/30/30 8/31/31 116/32/32
f 193/33/33 117/34/34 4/35/35 156/36/36
f 192/37/37 161/38/38 10/39/39 127/40/40
f 191/41/41 100/42/42 18/43/43 163/44/44
f 190/45/45 155/46/46 17/47/47 122/48/48
f 189/49/49 66/50/50 24/51/51 78/52/52
f 188/53/53 154/54/54 21/55/55 133/56/56
f 187/57/57 95/58/58 23/59/59 96/60/60
f 186/61/61 166/62/62 30/63/63 126/64/64
f 185/65/65 77/66/66 34/67/67 113/68/68
f 184/69/69 86/70/70 37/71/71 132/72/72
f 183/73/73 149/74/74 39/75/75 102/76/76
f 182/77/77 126/64/64 30/63/63 143/78/78
f 181/79/79 165/80/80 35/81/81 120/82/82
f 180/83/83 157/84/84 42/85/85 89/86/86
f 179/87/87 107/88/88 46/89/89 141/90/90
f 178/91/91 125/92/92 49/93/93 164/94/94
f 177/95/95 119/96/96 43/97/97 112/98/98
f 176/99/99 72/100/100 47/101/101 123/102/102
f 175/103/103 128/104/104 51/105/105 151/106/106
f 174/107/107 131/108/108 54/109/109 65/110/110
f 173/111/111 101/112/112 58/113/113 136/114/114
f 58/113/113 140/115/115 160/116/116
f 53/117/117 118/118/118 88/119/119
f 60/120/120 98/121/121 106/122/122
f 62/123/123 76/124/124 159/125/125
f 172/126/126 137/127/127 59/128/128 76/124/124
f 58/113/113 160/116/116 136/114/114
f 171/129/129 65/110/110 54/109/109 98/121/121
f 170/130/130 91/131/131 62/123/123 118/118/118
f 169/132/132 135/133/133 60/120/120 140/115/115
f 54/109/109 131/108/108 115/134/134
f 168/135/135 69/136/136 26/137/137 105/138/138
f 78/52/52 168/135/135 105/138/138 25/139/139
f 24/51/51 68/140/140 168/135/135 78/52/52
f 68/140/140 27/141/141 69/136/136 168/135/135
f 115/134/134 88/119/119 61/142/142
f 115/134/134 131/108/108 88/119/119
f 131/108/108 53/117/117 88/119/119
f 101/112/112 169/132/132 140/115/115 58/113/113
f 57/143/143 104/144/144 169/132/132 101/112/112
f 104/144/144 64/145/145 135/133/133 169/132/132
f 99/146/146 170/130/130 118/118/118 53/117/117
f 52/147/147 80/148/148 170/130/130 99/146/146
f 80/148/148 63/149/149 91/131/131 170/130/130
f 135/133/133 171/129/129 98/121/121 60/120/120
f 64/145/145 145/150/150 171/129/129 135/133/133
f 145/150/150 55/151/151 65/110/110 171/129/129
f 136/114/114 75/152/152 59/128/128
f 136/114/114 160/116/116 75/152/152
f 160/116/116 61/142/142 75/152/152
f 91/131/131 172/126/126 76/124/124 62/123/123
f 63/149/149 97/153/153 172/126/126 91/131/131
f 97/153/153 56/154/154 137/127/127 172/126/126
f 159/125/125 75/152/152 61/142/142
f 159/125/125 76/124/124 75/152/152
f 76/124/124 59/128/128 75/152/152
f 106/122/122 115/134/134 61/142/142
f 106/122/122 98/121/121 115/134/134
f 98/121/121 54/109/109 115/134/134
f 88/119/119 159/125/125 61/142/142
f 88/119/119 118/118/118 159/125/125
f 118/118/118 62/123/123 159/125/125
f 160/116/116 106/122/122 61/142/142
f 160/116/116 140/115/115 106/122/122
f 140/115/115 60/120/120 106/122/122
f 137/127/127 173/111/111 136/114/114 59/128/128
f 56/154/154 146/155/155 173/111/111 137/127/127
f 146/155/155 57/143/143 101/112/112 173/111/111
f 111/156/156 174/107/107 65/110/110 55/151/151
f 52/147/147 99/146/146 174/107/107 111/156/156
f 99/146/146 53/117/117 131/108/108 174/107/107
f 125/92/92 175/103/103 151/106/106 49/93/93
f 48/157/157 152/158/158 175/103/103 125/92/92
f 152/158/158 50/159/159 128/104/104 175/103/103
f 157/84/84 176/99/99 123/102/102 42/85/85
f 41/160/160 124/161/161 176/99/99 157/84/84
f 124/161/161 44/162/162 72/100/100 176/99/99
f 128/104/104 177/95/95 112/98/98 51/105/105
f 50/159/159 92/163/163 177/95/95 128/104/104
f 92/163/163 40/164/164 119/96/96 177/95/95
f 107/88/88 178/91/91 164/94/94 46/89/89
f 45/165/165 74/166/166 178/91/91 107/88/88
f 74/166/166 48/157/157 125/92/92 178/91/91
f 72/100/100 179/87/87 141/90/90 47/101/101
f 44/162/162 162/167/167 179/87/87 72/100/100
f 162/167/167 45/165/165 107/88/88 179/87/87
f 119/96/96 180/83/83 89/86/86 43/97/97
f 40/164/164 130/168/168 180/83/83 119/96/96
f 130/168/168 41/160/160 157/84/84 180/83/83
f 149/74/74 181/79/79 120/82/82 39/75/75
f 38/169/169 85/170/170 181/79/79 149/74/74
f 85/170/170 32/171/171 165/80/80 181/79/79
f 86/70/70 182/77/77 143/78/78 37/71/71
f 36/172/172 81/173/173 182/77/77 86/70/70
f 81/173/173 31/174/174 126/64/64 182/77/77
f 142/175/175 183/73/73 102/76/76 29/176/176
f 28/177/177 82/178/178 183/73/73 142/175/175
f 82/178/178 38/169/169 149/74/74 183/73/73
f 77/66/66 184/69/69 132/72/72 34/67/67
f 33/179/179 147/180/180 184/69/69 77/66/66
f 147/180/180 36/172/172 86/70/70 184/69/69
f 165/80/80 185/65/65 113/68/68 35/81/81
f 32/171/171 103/181/181 185/65/65 165/80/80
f 103/181/181 33/179/179 77/66/66 185/65/65
f 153/182/182 186/61/61 126/64/64 31/174/174
f 28/177/177 142/175/175 186/61/61 153/182/182
f 142/175/175 29/176/176 166/62/62 186/61/61
f 87/183/183 187/57/57 96/60/60 22/184/184
f 19/185/185 163/44/44 187/57/57 87/183/183
f 163/44/44 18/43/43 95/58/58 187/57/57
f 83/186/186 188/53/53 133/56/56 20/187/187
f 26/137/137 69/136/136 188/53/53 83/186/186
f 69/136/136 27/141/141 154/54/54 188/53/53
f 121/188/188 189/49/49 78/52/52 25/139/139
f 22/184/184 96/60/60 189/49/49 121/188/188
f 96/60/60 23/59/59 66/50/50 189/49/49
f 108/189/189 190/45/45 122/48/48 16/190/190
f 20/187/187 133/56/56 190/45/45 108/189/189
f 133/56/56 21/55/55 155/46/46 190/45/45
f 67/191/191 191/41/41 163/44/44 19/185/185
f 16/190/190 122/48/48 191/41/41 67/191/191
f 122/48/48 17/47/47 100/42/42 191/41/41
f 129/18/18 192/37/37 127/40/40 9/19/19
f 8/31/31 114/8/8 192/37/37 129/18/18
f 114/8/8 7/7/7 161/38/38 192/37/37
f 167/192/192 193/33/33 156/36/36 13/193/193
f 15/194/194 139/28/28 193/33/33 167/192/192
f 139/28/28 1/27/27 117/34/34 193/33/33
f 109/195/195 194/29/29 116/32/32 11/196/196
f 14/197/197 73/198/24 194/29/29 109/195/195
f 73/198/24 5/199/23 158/30/30 194/29/29
f 70/200/198 195/25/25 139/28/28 15/194/194
f 12/201/199 94/20/20 195/25/25 70/200/198
f 94/20/20 9/19/19 138/26/26 195/25/25
f 79/202/200 196/21/21 73/24/24 14/203/197
f 13/193/193 156/36/36 196/21/21 79/202/200
f 156/36/36 4/35/35 84/22/22 196/21/21
f 144/204/201 197/17/17 94/20/20 12/201/199
f 11/196/196 116/32/32 197/17/17 144/204/201
f 116/32/32 8/31/31 129/18/18 197/17/17
f 84/22/22 198/13/13 90/16/16 5/23/23
f 4/35/35 71/4/4 198/13/13 84/22/22
f 71/4/4 3/3/3 134/14/14 198/13/13
f 138/26/26 199/9/9 150/12/12 1/27/27
f 9/19/19 127/40/40 199/9/9 138/26/26
f 127/40/40 10/39/39 93/10/10 199/9/9
f 158/30/30 200/5/5 114/8/8 8/31/31
f 5/199/23 90/205/16 200/5/5 158/30/30
f 90/205/16 6/206/15 148/6/6 200/5/5
f 117/34/34 201/1/1 71/4/4 4/35/35
f 1/27/27 150/12/12 201/1/1 117/34/34
f 150/12/12 2/11/11 110/2/2 201/1/1
