# Blender v2.78 (sub 0) OBJ File: ''
# www.blender.org
mtllib Pine_Tree_OneSided_m_07.mtl
o Pine_Tree_OneSided_m_07
v -0.078946 0.502470 0.123171
v -0.063227 1.773148 0.102981
v -0.101809 1.772855 -0.015410
v -0.128586 0.502466 -0.029577
v 0.001360 0.502429 -0.123970
v -0.000972 1.772125 -0.088440
v 0.099933 1.771972 -0.015185
v 0.131310 0.502410 -0.029559
v 0.081679 0.502435 0.123182
v 0.061457 1.772611 0.103120
v 0.152576 0.036580 -0.049695
v 0.094349 0.036578 0.129507
v -0.152302 0.036579 -0.049695
v 0.000137 0.036581 -0.160449
v -0.094075 0.036577 0.129507
v 0.368687 0.645588 0.858076
v 0.205651 1.751467 0.516939
v -0.364138 1.793478 0.455163
v -0.569859 0.901800 0.763648
v 0.973033 0.900257 0.001215
v 0.522596 1.778075 -0.032373
v -1.126721 0.645840 -0.006669
v -0.663552 1.753976 -0.046960
v -0.365646 1.780522 -0.547916
v -0.498163 0.900501 -0.812901
v 0.415019 0.644324 -0.773148
v 0.188367 1.738788 -0.476822
v -0.472831 1.319193 -0.952146
v -0.188471 2.976959 -0.222248
v 0.075454 3.010329 -0.145889
v 0.473935 1.556324 -0.865537
v -0.581524 1.319508 0.858036
v 0.381616 1.556635 0.864277
v 0.150127 3.013448 0.375707
v -0.121275 2.980110 0.314687
v 1.041352 1.319270 0.025360
v 0.220628 2.977720 0.057803
v -0.981731 1.556570 -0.006696
v -0.245297 3.012781 0.038874
v -0.451672 2.405928 0.737683
v 0.398831 2.179776 0.836671
v 0.168387 3.706727 0.372138
v -0.094838 3.737906 0.299321
v 0.931381 2.413583 0.064251
v 0.472830 2.247933 -0.699180
v 0.093082 3.710835 -0.138965
v 0.228186 3.738299 0.056084
v -0.378251 2.413186 -0.663303
v -0.164683 3.734372 -0.200357
v -0.937420 2.179420 0.055838
v -0.232631 3.703124 0.039308
v -0.311613 3.078381 -0.518248
v -0.183020 4.226584 -0.176181
v 0.106280 4.247706 -0.114740
v 0.297301 3.251105 -0.424139
v -0.332333 3.078773 0.589790
v 0.291870 3.251498 0.604461
v 0.159289 4.251541 0.366261
v -0.143804 4.230412 0.322616
v 0.303368 4.248570 0.069700
v -0.000320 4.994487 0.089430
v -0.280705 4.244828 0.063705
v -0.591924 3.245295 0.027975
v 0.758695 3.130867 0.052812
v 0.208255 3.712804 -0.283778
v -0.549987 1.767357 -0.322817
v -0.102668 0.773694 0.887882
v -0.091213 1.759019 -0.551513
v 0.307247 1.182332 -0.636870
v 0.000137 0.036577 0.146692
v -0.115410 1.166542 -0.022065
v 0.593484 3.083098 0.058059
v 0.000820 0.219486 -0.146550
v 0.053044 2.334366 -0.754312
v -0.071129 4.664080 0.212003
v -0.212943 4.289569 0.193107
v 0.271301 2.293529 0.634228
v -0.437109 1.349576 -0.697035
v -0.086184 0.036580 -0.118975
v -0.492027 3.161838 -0.277470
v 0.837955 1.437797 -0.455590
v -0.792200 1.437881 -0.525916
v 0.765943 0.772291 -0.425447
v -0.069749 0.502449 -0.085218
v -0.853451 1.438039 0.473367
v 0.647955 2.140017 0.040370
v -0.923381 0.773820 0.411594
v -0.097303 4.661725 -0.044659
v 0.040942 3.722474 0.358438
v 0.000215 1.166136 -0.105939
v -0.455795 3.709115 0.044602
v -0.764218 2.292674 0.426144
v -0.000880 1.772928 0.113908
v 0.090456 0.219468 0.129322
v -0.549661 1.774503 0.222586
v -0.916238 1.190870 -0.025917
v -0.504576 3.162034 0.335175
v 0.205760 4.300055 -0.023738
v -0.258960 3.601628 -0.368373
v -0.080272 1.773118 0.531557
v 0.233432 3.715017 0.504659
v -0.229754 2.994835 -0.105158
v -0.115347 1.438071 0.943153
v 0.578699 3.193991 0.351291
v -0.037598 0.772413 -0.867928
v 0.151591 4.671940 0.084940
v 0.288538 2.973184 -0.429391
v 0.741978 0.772923 0.471445
v 0.086457 0.036581 -0.118975
v -0.092866 1.773067 0.047128
v -0.018125 3.161934 -0.520140
v -0.173392 3.720514 0.174310
v 0.018673 2.996931 0.367607
v 0.115877 1.166045 -0.021937
v 0.053963 4.664504 -0.019061
v 0.145855 0.219482 -0.041176
v -0.113693 0.502467 0.050023
v -0.233107 4.287569 -0.058379
v -0.278490 3.080016 0.526558
v -0.192582 2.996570 0.181604
v -0.882277 0.773171 -0.447325
v 0.293017 1.189457 0.706139
v 0.211851 3.722710 0.222624
v 0.729024 2.292874 0.494148
v -0.276587 3.080881 -0.443156
v 0.279962 2.291775 -0.515611
v 0.071736 1.166397 0.113852
v -0.599623 2.933173 0.048112
v 0.116422 0.502422 0.050037
v -0.028844 2.292852 0.857327
v -0.040346 4.288548 -0.144567
v 0.198608 2.995620 0.225103
v 0.769344 1.348202 -0.018595
v -0.057791 1.772482 -0.060717
v 0.559043 3.641451 0.059003
v 0.008226 4.292555 0.349002
v -0.249563 3.603836 0.473884
v 0.001367 0.502451 0.133615
v -0.088816 0.219464 0.129322
v 0.234169 4.302062 0.218345
v 0.169634 3.724590 -0.050519
v -0.338034 2.139586 -0.603453
v 0.156664 2.993907 -0.052981
v 0.139806 0.036579 0.045216
v 0.581020 3.193794 -0.206980
v -0.032995 3.162327 0.650775
v 0.787832 1.437952 0.488566
v 0.055873 1.771977 -0.060588
v -0.625579 2.293156 0.017353
v -0.071208 1.166699 0.113773
v -0.211825 3.718568 -0.094155
v -0.723539 2.292497 -0.333251
v -0.003973 1.437758 -1.000286
v 0.391898 1.757677 -0.274724
v 0.402513 1.764632 0.262943
v -0.144214 0.219475 -0.041176
v 0.289279 2.935192 0.619563
v 0.072470 0.502421 -0.085209
v -0.148519 4.662010 0.075382
v 0.086199 4.666863 0.232525
v 0.091046 1.772256 0.047336
v 0.770233 2.334564 -0.358096
v -0.473624 1.356871 0.621405
v -0.039708 3.722408 -0.183170
v -0.359615 2.141360 0.598227
v -0.060443 2.993483 -0.197241
v -0.139533 0.036578 0.045216
v -0.064406 1.265716 -0.709721
v 0.424441 3.679648 0.293923
v -0.379415 3.655262 -0.179374
v 0.410366 3.678469 -0.124368
v -0.375051 3.656439 0.272037
v -0.012746 3.658195 0.518742
v -0.031185 3.655838 -0.350961
v -0.467682 3.005533 -0.213703
v 0.470437 3.007792 0.358386
v -0.468805 3.006594 0.300227
v 0.006668 3.028387 -0.468741
v 0.469933 3.029577 -0.204308
v 0.006049 3.007663 0.607882
v -0.523016 2.217304 0.327486
v 0.497309 2.215852 -0.254286
v -0.510977 2.216358 -0.315537
v 0.493220 2.216786 0.356835
v -0.048337 2.217501 0.655380
v -0.032208 2.215620 -0.598763
v -0.736521 1.274161 0.317090
v 0.578920 1.264984 -0.350086
v -0.716132 1.270264 -0.385071
v 0.572245 1.268777 0.367194
v -0.091470 1.273406 0.709719
v 0.102652 1.166208 0.048833
v -0.127607 0.219468 0.047677
v 0.080193 0.219485 -0.103299
v 0.000820 0.219465 0.140986
v -0.078552 0.219481 -0.103299
v 0.129248 0.219475 0.047677
v -0.063066 1.166337 -0.071522
v 0.000266 1.166565 0.123103
v 0.063511 1.166065 -0.071452
v -0.102153 1.166645 0.048720
vt 0.7997 0.9476
vt 0.7995 0.9769
vt 0.7933 0.9769
vt 0.7936 0.9475
vt 0.8365 0.9477
vt 0.8363 0.9775
vt 0.8302 0.9775
vt 0.8303 0.9477
vt 0.8119 0.9476
vt 0.8119 0.9770
vt 0.8058 0.9769
vt 0.8058 0.9476
vt 0.7874 0.9475
vt 0.7872 0.9770
vt 0.7810 0.9772
vt 0.7812 0.9475
vt 0.8244 0.9068
vt 0.8242 0.9180
vt 0.8180 0.9181
vt 0.8182 0.9070
vt 0.7874 0.9070
vt 0.7876 0.9181
vt 0.7815 0.9179
vt 0.7812 0.9068
vt 0.8120 0.9072
vt 0.8119 0.9182
vt 0.8058 0.9183
vt 0.8059 0.9073
vt 0.8367 0.9068
vt 0.8367 0.9180
vt 0.8304 0.9179
vt 0.8305 0.9067
vt 0.7997 0.9073
vt 0.7998 0.9182
vt 0.7938 0.9182
vt 0.7936 0.9073
vt 0.8242 0.9477
vt 0.8241 0.9773
vt 0.8181 0.9772
vt 0.8181 0.9476
vt 0.5398 0.3069
vt 0.5512 0.3068
vt 0.5460 0.3172
vt 0.5326 0.3216
vt 0.5642 0.2846
vt 0.5671 0.2936
vt 0.5564 0.2964
vt 0.5470 0.2922
vt 0.5681 0.3432
vt 0.5696 0.3317
vt 0.5808 0.3294
vt 0.5864 0.3381
vt 0.5905 0.2927
vt 0.5836 0.2994
vt 0.5778 0.2907
vt 0.5814 0.2771
vt 0.5412 0.3349
vt 0.5522 0.3256
vt 0.5584 0.3339
vt 0.5498 0.3483
vt 0.5879 0.3223
vt 0.5734 0.3175
vt 0.5756 0.3110
vt 0.5932 0.3104
vt 0.5420 0.3094
vt 0.5476 0.2973
vt 0.5562 0.3055
vt 0.5534 0.3113
vt 0.5615 0.2903
vt 0.5753 0.2832
vt 0.5684 0.3013
vt 0.5623 0.3034
vt 0.5673 0.3389
vt 0.5518 0.3435
vt 0.5590 0.3264
vt 0.5651 0.3252
vt 0.5842 0.2968
vt 0.5720 0.3061
vt 0.5441 0.3325
vt 0.5364 0.3214
vt 0.5507 0.3170
vt 0.5548 0.3217
vt 0.5460 0.3104
vt 0.5515 0.3000
vt 0.5643 0.3115
vt 0.5625 0.3133
vt 0.5831 0.2986
vt 0.5896 0.3104
vt 0.5716 0.3137
vt 0.5704 0.3117
vt 0.5852 0.3211
vt 0.5808 0.3318
vt 0.5698 0.3182
vt 0.5707 0.3159
vt 0.5472 0.3310
vt 0.5405 0.3207
vt 0.5607 0.3150
vt 0.5628 0.3173
vt 0.5641 0.2934
vt 0.5767 0.2868
vt 0.5691 0.3097
vt 0.5667 0.3106
vt 0.5673 0.3366
vt 0.5538 0.3413
vt 0.5650 0.3196
vt 0.5674 0.3189
vt 0.4461 0.3380
vt 0.4393 0.3253
vt 0.4447 0.3228
vt 0.4574 0.3318
vt 0.4245 0.2885
vt 0.4367 0.2831
vt 0.4354 0.2995
vt 0.4295 0.3022
vt 0.4424 0.3026
vt 0.4356 0.3066
vt 0.4339 0.3278
vt 0.4279 0.3238
vt 0.4348 0.3208
vt 0.4495 0.3058
vt 0.4471 0.3143
vt 0.4426 0.3098
vt 0.4218 0.3197
vt 0.4227 0.3124
vt 0.4288 0.3167
vt 0.4095 0.3104
vt 0.4123 0.2937
vt 0.4237 0.3050
vt 0.4618 0.3138
vt 0.4207 0.3356
vt 0.4067 0.3270
vt 0.4515 0.2894
vt 0.4663 0.2957
vt 0.4402 0.3183
vt 0.5930 0.3232
vt 0.5996 0.3083
vt 0.6096 0.3084
vt 0.6008 0.3277
vt 0.5920 0.3469
vt 0.5852 0.3188
vt 0.5895 0.3082
vt 0.4358 0.3138
vt 0.4381 0.2668
vt 0.4606 0.2762
vt 0.4830 0.2856
vt 0.4348 0.3442
vt 0.4356 0.3605
vt 0.4136 0.3474
vt 0.3916 0.3343
vt 0.4765 0.3133
vt 0.4701 0.3409
vt 0.4297 0.3094
vt 0.3963 0.3084
vt 0.4009 0.2825
vt 0.4195 0.2746
vt 0.4528 0.3507
vt 0.5918 0.3454
vt 0.5672 0.3543
vt 0.5426 0.3631
vt 0.5386 0.2885
vt 0.5614 0.2762
vt 0.5842 0.2639
vt 0.5314 0.3448
vt 0.5203 0.3265
vt 0.6076 0.3071
vt 0.5997 0.3263
vt 0.5959 0.2855
vt 0.5294 0.3075
vt 0.5446 0.3606
vt 0.5333 0.3432
vt 0.5221 0.3259
vt 0.5822 0.2651
vt 0.5964 0.2874
vt 0.6107 0.3097
vt 0.5827 0.3342
vt 0.5711 0.3240
vt 0.5944 0.3444
vt 0.5695 0.3525
vt 0.5390 0.2891
vt 0.5606 0.2771
vt 0.5306 0.3075
vt 0.6026 0.3271
vt 0.5303 0.3443
vt 0.5413 0.3626
vt 0.5192 0.3260
vt 0.5973 0.2860
vt 0.5850 0.2635
vt 0.5667 0.3547
vt 0.5613 0.2757
vt 0.5377 0.2879
vt 0.5285 0.3070
vt 0.7997 0.8964
vt 0.7934 0.8963
vt 0.8060 0.8964
vt 0.8368 0.8957
vt 0.8307 0.8954
vt 0.8430 0.8959
vt 0.8429 0.9070
vt 0.8429 0.9181
vt 0.8122 0.8961
vt 0.8184 0.8959
vt 0.7872 0.8960
vt 0.7810 0.8956
vt 0.8246 0.8957
vt 0.8426 0.9477
vt 0.8424 0.9774
vn -0.9508 0.0175 0.3094
vn -0.9506 0.0178 0.3099
vn -0.9515 0.0220 -0.3068
vn -0.9508 0.0222 -0.3089
vn 0.5875 0.0245 -0.8088
vn 0.5874 0.0243 -0.8090
vn 0.9511 0.0257 -0.3078
vn 0.9508 0.0257 -0.3089
vn -0.0005 0.0167 0.9999
vn -0.0013 0.0176 0.9998
vn -0.5879 0.0194 0.8087
vn -0.5875 0.0188 0.8090
vn -0.5870 0.0223 -0.8093
vn -0.5874 0.0220 -0.8090
vn -0.0012 0.0261 -0.9997
vn 0.0004 0.0266 -0.9996
vn 0.9501 0.0390 0.3094
vn 0.9504 0.0304 0.3096
vn 0.5864 0.0280 0.8096
vn 0.5870 0.0318 0.8090
vn -0.5864 0.0752 -0.8065
vn -0.5872 0.0463 -0.8081
vn 0.0007 0.0538 -0.9986
vn 0.0003 0.0850 -0.9964
vn 0.0001 0.0220 0.9998
vn -0.0000 0.0209 0.9998
vn -0.5857 0.0282 0.8100
vn -0.5866 0.0351 0.8092
vn 0.5867 0.0719 -0.8066
vn 0.5876 0.0462 -0.8078
vn 0.9511 0.0437 -0.3058
vn 0.9497 0.0626 -0.3069
vn -0.9499 0.0444 0.3094
vn -0.9503 0.0307 0.3098
vn -0.9510 0.0440 -0.3061
vn -0.9493 0.0680 -0.3069
vn 0.9508 0.0209 0.3090
vn 0.9505 0.0214 0.3099
vn 0.5849 0.0216 0.8108
vn 0.5872 0.0209 0.8092
vn -0.0334 0.3338 0.9420
vn -0.0533 0.3487 0.9357
vn -0.4860 0.3970 0.7785
vn -0.4789 0.3829 0.7900
vn 0.7439 0.3662 0.5590
vn 0.7598 0.3830 0.5254
vn 0.4183 0.3603 0.8338
vn 0.4086 0.3418 0.8463
vn -0.8031 0.3262 -0.4987
vn -0.8031 0.3402 -0.4893
vn -0.3998 0.3526 -0.8461
vn -0.3965 0.3327 -0.8556
vn 0.7086 0.3560 -0.6092
vn 0.7072 0.3702 -0.6023
vn 0.8875 0.4579 -0.0516
vn 0.8976 0.4398 -0.0289
vn -0.8058 0.3787 0.4552
vn -0.8007 0.3912 0.4536
vn -0.9171 0.3982 -0.0195
vn -0.9237 0.3823 -0.0250
vn 0.0283 0.4517 -0.8917
vn 0.0777 0.4592 -0.8849
vn 0.4850 0.4944 -0.7213
vn 0.4706 0.4887 -0.7346
vn -0.1359 0.3497 0.9269
vn 0.4326 0.3774 0.8188
vn 0.4677 0.3959 0.7903
vn -0.1593 0.3557 0.9209
vn 0.8276 0.3758 0.4169
vn 0.8988 0.4384 0.0020
vn 0.8930 0.4454 -0.0644
vn 0.8577 0.3794 0.3471
vn -0.7949 0.4045 -0.4522
vn -0.8953 0.4455 0.0048
vn -0.8914 0.4506 0.0492
vn -0.8221 0.4117 -0.3933
vn 0.7940 0.4466 -0.4124
vn 0.7817 0.4524 -0.4293
vn -0.7887 0.4097 0.4584
vn -0.5166 0.3939 0.7602
vn -0.5440 0.4023 0.7364
vn -0.7932 0.4152 0.4455
vn -0.0770 0.3294 0.9411
vn 0.4196 0.3455 0.8394
vn 0.4569 0.3648 0.8113
vn -0.1218 0.3387 0.9330
vn 0.7252 0.4252 -0.5416
vn 0.4450 0.4159 -0.7931
vn 0.4625 0.4217 -0.7799
vn 0.7187 0.4298 -0.5465
vn 0.0948 0.3773 -0.9212
vn -0.4407 0.3860 -0.8104
vn -0.4392 0.4031 -0.8029
vn 0.1375 0.3817 -0.9140
vn -0.8113 0.4007 0.4256
vn -0.5122 0.3908 0.7648
vn -0.5363 0.3989 0.7438
vn -0.8143 0.4048 0.4159
vn 0.7848 0.3699 0.4972
vn 0.8883 0.4587 -0.0241
vn 0.8806 0.4648 -0.0927
vn 0.8271 0.3831 0.4114
vn -0.8282 0.3654 -0.4249
vn -0.9107 0.4132 -0.0027
vn -0.9072 0.4185 0.0430
vn -0.8507 0.3693 -0.3742
vn 0.0989 0.3118 -0.9450
vn 0.1546 0.2820 -0.9469
vn 0.4180 0.3011 -0.8571
vn 0.4139 0.3342 -0.8468
vn -0.1168 0.2531 0.9604
vn 0.4048 0.2840 0.8692
vn 0.4244 0.3142 0.8492
vn -0.1418 0.2816 0.9490
vn 0.8419 0.3116 0.4405
vn 0.4381 0.4133 0.7983
vn -0.4323 0.3281 -0.8399
vn -0.8640 0.3000 -0.4045
vn -0.4367 0.3997 -0.8059
vn 0.9214 0.3656 -0.1321
vn 0.6692 0.2970 -0.6812
vn 0.9070 0.3904 -0.1581
vn -0.9531 0.3002 0.0388
vn -0.8424 0.2743 0.4638
vn -0.9293 0.3659 0.0513
vn -0.8425 0.2697 0.4663
vn -0.5420 0.2752 0.7940
vn -0.5532 0.2848 0.7828
vn 0.6936 0.3376 -0.6363
vn -0.8401 0.2787 -0.4653
vn -0.9553 0.2954 0.0083
vn 0.7975 0.3032 0.5216
vn 0.9240 0.3767 -0.0661
vn 0.4358 0.3156 -0.8429
vn 0.1345 0.3023 -0.9437
vn 0.4539 0.3244 -0.8299
vn 0.4596 0.3177 -0.8294
vn 0.1554 0.2923 -0.9436
vn -0.3987 0.3112 -0.8627
vn 0.1371 0.3157 -0.9389
vn 0.4541 0.3349 -0.8256
vn -0.0000 0.9999 -0.0152
vn 0.3897 0.2693 0.8807
vn 0.7890 0.3013 0.5355
vn 0.9264 0.3748 -0.0371
vn -0.4316 0.3150 -0.8453
vn -0.4224 0.3099 -0.8518
vn -0.8103 0.2744 -0.5178
vn -0.9570 0.2898 -0.0151
vn 0.7264 0.3417 -0.5963
vn 0.4116 0.3386 -0.8461
vn -0.5278 0.3570 0.7707
vn -0.8309 0.2662 0.4887
vn -0.5395 0.2712 0.7971
vn -0.1325 0.2484 0.9596
vn 0.0472 0.3111 -0.9492
vn -0.4462 0.3682 -0.8156
vn -0.8172 0.3620 -0.4485
vn -0.9118 0.4100 -0.0215
vn 0.4075 0.3344 0.8498
vn 0.7312 0.3582 0.5806
vn 0.8916 0.4517 0.0325
vn -0.8227 0.3979 0.4060
vn -0.4945 0.3818 0.7808
vn 0.4437 0.4127 -0.7955
vn 0.0801 0.3742 -0.9239
vn 0.7235 0.4206 -0.5474
vn -0.0218 0.3202 0.9471
vn -0.8979 0.4397 -0.0219
vn -0.7735 0.4040 0.4883
vn -0.5102 0.3893 0.7669
vn 0.9004 0.4345 0.0243
vn 0.8114 0.4411 -0.3833
vn 0.4571 0.4825 -0.7472
vn -0.4487 0.4399 -0.7779
vn -0.4565 0.4552 -0.7645
vn -0.4426 0.4316 -0.7860
vn -0.7604 0.4004 -0.5113
vn 0.4124 0.3581 0.8377
vn 0.8093 0.3733 0.4534
vn -0.1376 0.3454 0.9283
vn -0.0353 0.4447 -0.8950
vn -0.8220 0.3672 0.4353
vn -0.9277 0.3728 -0.0211
vn -0.4753 0.3673 0.7995
vn 0.6991 0.3411 -0.6284
vn 0.9066 0.4219 -0.0060
vn -0.8142 0.3157 -0.4873
vn 0.7193 0.3486 0.6009
vn 0.4088 0.3300 0.8509
vn 0.0033 0.3186 0.9479
vn -0.9511 0.0448 0.3057
vn -0.9459 0.0711 -0.3164
vn -0.5927 0.0324 0.8047
vn 0.5843 0.0762 -0.8080
vn 0.9462 0.0641 -0.3172
vn -0.0010 0.0902 -0.9959
vn -0.0004 0.0181 0.9998
vn 0.5914 0.0280 0.8059
vn -0.5846 0.0805 -0.8073
vn 0.9513 0.0377 0.3060
usemtl None
s 1
f 201/1/1 110/2/2 3/3/3 71/4/4
f 200/5/5 148/6/6 7/7/7 114/8/8
f 199/9/9 93/10/10 2/11/11 150/12/12
f 198/13/13 134/14/14 6/15/15 90/16/16
f 197/17/17 129/18/18 9/19/19 94/20/20
f 196/21/21 84/22/22 5/23/23 73/24/24
f 195/25/25 138/26/26 1/27/27 139/28/28
f 194/29/29 158/30/30 8/31/31 116/32/32
f 193/33/33 117/34/34 4/35/35 156/36/36
f 192/37/37 161/38/38 10/39/39 127/40/40
f 191/41/41 100/42/42 18/43/43 163/44/44
f 190/45/45 155/46/46 17/47/47 122/48/48
f 189/49/49 66/50/50 24/51/51 78/52/52
f 188/53/53 154/54/54 21/55/55 133/56/56
f 187/57/57 95/58/58 23/59/59 96/60/60
f 186/61/61 166/62/62 30/63/63 126/64/64
f 185/65/65 77/66/66 34/67/67 113/68/68
f 184/69/69 86/70/70 37/71/71 132/72/72
f 183/73/73 149/74/74 39/75/75 102/76/76
f 182/77/77 126/64/64 30/63/63 143/78/78
f 181/79/79 165/80/80 35/81/81 120/82/82
f 180/83/83 157/84/84 42/85/85 89/86/86
f 179/87/87 107/88/88 46/89/89 141/90/90
f 178/91/91 125/92/92 49/93/93 164/94/94
f 177/95/95 119/96/96 43/97/97 112/98/98
f 176/99/99 72/100/100 47/101/101 123/102/102
f 175/103/103 128/104/104 51/105/105 151/106/106
f 174/107/107 131/108/108 54/109/109 65/110/110
f 173/111/111 101/112/112 58/113/113 136/114/114
f 58/113/113 140/115/115 160/116/116
f 53/117/117 118/118/118 88/119/119
f 60/120/120 98/121/121 106/122/122
f 62/123/123 76/124/124 159/125/125
f 172/126/126 137/127/127 59/128/128 76/124/124
f 58/113/113 160/116/116 136/114/114
f 171/129/129 65/110/110 54/109/109 98/121/121
f 170/130/130 91/131/131 62/123/123 118/118/118
f 169/132/132 135/133/133 60/120/120 140/115/115
f 54/109/109 131/108/108 115/134/134
f 168/135/135 69/136/136 26/137/137 105/138/138
f 78/52/52 168/135/135 105/138/138 25/139/139
f 24/51/51 68/140/140 168/135/135 78/52/52
f 68/140/140 27/141/141 69/136/136 168/135/135
f 115/134/134 88/119/119 61/142/142
f 115/134/134 131/108/108 88/119/119
f 131/108/108 53/117/117 88/119/119
f 101/112/112 169/132/132 140/115/115 58/113/113
f 57/143/143 104/144/144 169/132/132 101/112/112
f 104/144/144 64/145/145 135/133/133 169/132/132
f 99/146/146 170/130/130 118/118/118 53/117/117
f 52/147/147 80/148/148 170/130/130 99/146/146
f 80/148/148 63/149/149 91/131/131 170/130/130
f 135/133/133 171/129/129 98/121/121 60/120/120
f 64/145/145 145/150/150 171/129/129 135/133/133
f 145/150/150 55/151/151 65/110/110 171/129/129
f 136/114/114 75/152/152 59/128/128
f 136/114/114 160/116/116 75/152/152
f 160/116/116 61/142/142 75/152/152
f 91/131/131 172/126/126 76/124/124 62/123/123
f 63/149/149 97/153/153 172/126/126 91/131/131
f 97/153/153 56/154/154 137/127/127 172/126/126
f 159/125/125 75/152/152 61/142/142
f 159/125/125 76/124/124 75/152/152
f 76/124/124 59/128/128 75/152/152
f 106/122/122 115/134/134 61/142/142
f 106/122/122 98/121/121 115/134/134
f 98/121/121 54/109/109 115/134/134
f 88/119/119 159/125/125 61/142/142
f 88/119/119 118/118/118 159/125/125
f 118/118/118 62/123/123 159/125/125
f 160/116/116 106/122/122 61/142/142
f 160/116/116 140/115/115 106/122/122
f 140/115/115 60/120/120 106/122/122
f 137/127/127 173/111/111 136/114/114 59/128/128
f 56/154/154 146/155/155 173/111/111 137/127/127
f 146/155/155 57/143/143 101/112/112 173/111/111
f 111/156/156 174/107/107 65/110/110 55/151/151
f 52/147/147 99/146/146 174/107/107 111/156/156
f 99/146/146 53/117/117 131/108/108 174/107/107
f 125/92/92 175/103/103 151/106/106 49/93/93
f 48/157/157 152/158/158 175/103/103 125/92/92
f 152/158/158 50/159/159 128/104/104 175/103/103
f 157/84/84 176/99/99 123/102/102 42/85/85
f 41/160/160 124/161/161 176/99/99 157/84/84
f 124/161/161 44/162/162 72/100/100 176/99/99
f 128/104/104 177/95/95 112/98/98 51/105/105
f 50/159/159 92/163/163 177/95/95 128/104/104
f 92/163/163 40/164/164 119/96/96 177/95/95
f 107/88/88 178/91/91 164/94/94 46/89/89
f 45/165/165 74/166/166 178/91/91 107/88/88
f 74/166/166 48/157/157 125/92/92 178/91/91
f 72/100/100 179/87/87 141/90/90 47/101/101
f 44/162/162 162/167/167 179/87/87 72/100/100
f 162/167/167 45/165/165 107/88/88 179/87/87
f 119/96/96 180/83/83 89/86/86 43/97/97
f 40/164/164 130/168/168 180/83/83 119/96/96
f 130/168/168 41/160/160 157/84/84 180/83/83
f 149/74/74 181/79/79 120/82/82 39/75/75
f 38/169/169 85/170/170 181/79/79 149/74/74
f 85/170/170 32/171/171 165/80/80 181/79/79
f 86/70/70 182/77/77 143/78/78 37/71/71
f 36/172/172 81/173/173 182/77/77 86/70/70
f 81/173/173 31/174/174 126/64/64 182/77/77
f 142/175/175 183/73/73 102/76/76 29/176/176
f 28/177/177 82/178/178 183/73/73 142/175/175
f 82/178/178 38/169/169 149/74/74 183/73/73
f 77/66/66 184/69/69 132/72/72 34/67/67
f 33/179/179 147/180/180 184/69/69 77/66/66
f 147/180/180 36/172/172 86/70/70 184/69/69
f 165/80/80 185/65/65 113/68/68 35/81/81
f 32/171/171 103/181/181 185/65/65 165/80/80
f 103/181/181 33/179/179 77/66/66 185/65/65
f 153/182/182 186/61/61 126/64/64 31/174/174
f 28/177/177 142/175/175 186/61/61 153/182/182
f 142/175/175 29/176/176 166/62/62 186/61/61
f 87/183/183 187/57/57 96/60/60 22/184/184
f 19/185/185 163/44/44 187/57/57 87/183/183
f 163/44/44 18/43/43 95/58/58 187/57/57
f 83/186/186 188/53/53 133/56/56 20/187/187
f 26/137/137 69/136/136 188/53/53 83/186/186
f 69/136/136 27/141/141 154/54/54 188/53/53
f 121/188/188 189/49/49 78/52/52 25/139/139
f 22/184/184 96/60/60 189/49/49 121/188/188
f 96/60/60 23/59/59 66/50/50 189/49/49
f 108/189/189 190/45/45 122/48/48 16/190/190
f 20/187/187 133/56/56 190/45/45 108/189/189
f 133/56/56 21/55/55 155/46/46 190/45/45
f 67/191/191 191/41/41 163/44/44 19/185/185
f 16/190/190 122/48/48 191/41/41 67/191/191
f 122/48/48 17/47/47 100/42/42 191/41/41
f 129/18/18 192/37/37 127/40/40 9/19/19
f 8/31/31 114/8/8 192/37/37 129/18/18
f 114/8/8 7/7/7 161/38/38 192/37/37
f 167/192/192 193/33/33 156/36/36 13/193/193
f 15/194/194 139/28/28 193/33/33 167/192/192
f 139/28/28 1/27/27 117/34/34 193/33/33
f 109/195/195 194/29/29 116/32/32 11/196/196
f 14/197/197 73/198/24 194/29/29 109/195/195
f 73/198/24 5/199/23 158/30/30 194/29/29
f 70/200/198 195/25/25 139/28/28 15/194/194
f 12/201/199 94/20/20 195/25/25 70/200/198
f 94/20/20 9/19/19 138/26/26 195/25/25
f 79/202/200 196/21/21 73/24/24 14/203/197
f 13/193/193 156/36/36 196/21/21 79/202/200
f 156/36/36 4/35/35 84/22/22 196/21/21
f 144/204/201 197/17/17 94/20/20 12/201/199
f 11/196/196 116/32/32 197/17/17 144/204/201
f 116/32/32 8/31/31 129/18/18 197/17/17
f 84/22/22 198/13/13 90/16/16 5/23/23
f 4/35/35 71/4/4 198/13/13 84/22/22
f 71/4/4 3/3/3 134/14/14 198/13/13
f 138/26/26 199/9/9 150/12/12 1/27/27
f 9/19/19 127/40/40 199/9/9 138/26/26
f 127/40/40 10/39/39 93/10/10 199/9/9
f 158/30/30 200/5/5 114/8/8 8/31/31
f 5/199/23 90/205/16 200/5/5 158/30/30
f 90/205/16 6/206/15 148/6/6 200/5/5
f 117/34/34 201/1/1 71/4/4 4/35/35
f 1/27/27 150/12/12 201/1/1 117/34/34
f 150/12/12 2/11/11 110/2/2 201/1/1
