# Blender v2.78 (sub 0) OBJ File: ''
# www.blender.org
mtllib Pine_Tree_OneSided_s_02.mtl
o Pine_Tree_OneSided_s_02
v -0.044660 0.275771 0.069572
v -0.038695 0.753939 0.061409
v -0.062764 0.753522 -0.012380
v -0.072768 0.275721 -0.016894
v 0.000794 0.275704 -0.070339
v 0.000051 0.753121 -0.058010
v 0.062772 0.753540 -0.012179
v 0.074338 0.275753 -0.016870
v 0.046250 0.275761 0.069577
v 0.038851 0.753824 0.061474
v 0.084415 0.026032 -0.027323
v 0.052209 0.026030 0.071799
v -0.084221 0.026028 -0.027323
v 0.000097 0.026032 -0.088584
v -0.052014 0.026029 0.071799
v -0.379828 0.506653 -0.530448
v -0.128636 1.603090 -0.140794
v 0.044151 1.618514 -0.113647
v 0.230967 0.593346 -0.597971
v -0.289807 0.482129 0.604819
v 0.342627 0.583830 0.534459
v 0.106171 1.619339 0.230320
v -0.072679 1.599813 0.208039
v 0.645929 0.467895 -0.071904
v 0.150707 1.592102 0.023958
v -0.624437 0.653194 0.099365
v -0.164759 1.629576 0.034759
v -0.430238 1.182564 0.372008
v 0.105021 1.079677 0.610077
v 0.083296 2.099697 0.237973
v -0.082006 2.126402 0.174036
v 0.582817 1.268929 0.227334
v 0.461605 1.131529 -0.346134
v 0.084355 2.106196 -0.086642
v 0.152180 2.137234 0.059453
v -0.097527 1.191376 -0.504675
v -0.082380 2.123375 -0.139404
v -0.582312 1.002436 -0.159399
v -0.154917 2.088439 -0.002949
v -0.154641 1.757655 -0.390994
v -0.104799 2.509307 -0.115417
v 0.069516 2.525131 -0.071971
v 0.240131 1.819291 -0.251828
v -0.287519 1.758300 0.334183
v 0.129448 1.817380 0.398948
v 0.088743 2.525915 0.217378
v -0.095005 2.512782 0.189203
v 0.187026 2.518718 0.048219
v -0.000707 3.005164 0.051321
v -0.168788 2.527747 0.029017
v -0.371947 1.875025 -0.057434
v 0.491267 1.720478 0.101824
v -0.086737 0.547674 -0.638872
v -0.404394 1.149204 0.069313
v 0.000097 0.026029 0.084028
v -0.068170 0.531609 -0.014441
v -0.203652 2.092348 0.275021
v -0.290607 1.820150 -0.258612
v -0.128266 2.105681 -0.081135
v 0.000471 0.125960 -0.082118
v -0.385619 1.088121 -0.374192
v 0.280613 1.612898 -0.223604
v 0.411145 1.023655 -0.026644
v -0.049250 0.026030 -0.067847
v -0.137709 2.562634 -0.043154
v -0.571584 1.087359 0.111537
v -0.512923 0.570782 0.397575
v -0.040354 0.275712 -0.049626
v 0.362749 2.075942 0.076270
v -0.092181 1.664239 -0.331981
v -0.367996 1.820696 0.156445
v 0.161242 2.140309 -0.172324
v 0.000449 0.531376 -0.064295
v 0.000091 0.753924 0.070184
v -0.042216 2.802552 0.124762
v -0.125501 1.614652 0.125095
v 0.050745 0.125950 0.072610
v -0.089540 2.800980 0.042635
v 0.019856 1.610134 0.235718
v -0.045208 1.611229 -0.137011
v 0.589091 1.209116 -0.074413
v -0.561301 0.586109 -0.242456
v 0.562386 0.525068 0.260457
v 0.113401 2.139645 0.323605
v 0.049444 0.026032 -0.067847
v -0.059059 0.753772 0.027222
v 0.124840 2.121936 -0.020216
v -0.058057 2.800528 -0.028257
v 0.068999 0.531639 -0.014318
v 0.103831 1.604661 -0.051319
v 0.081816 0.125959 -0.023017
v -0.065779 0.275744 0.028634
v 0.037487 1.786955 -0.364598
v 0.138186 1.605337 0.133234
v -0.261606 1.048621 -0.347116
v 0.090001 2.808179 0.050087
v 0.127639 2.118568 0.154933
v 0.003690 2.113054 0.222584
v 0.042836 0.531785 0.066215
v -0.284653 2.171698 -0.016874
v -0.131184 2.564632 0.109767
v 0.127711 2.567605 -0.013465
v 0.067359 0.275757 0.028649
v -0.137859 2.090098 -0.272449
v 0.384748 1.175557 0.472228
v 0.414601 1.767714 -0.082945
v -0.001870 2.114496 -0.122898
v 0.026447 0.528420 0.639232
v -0.036507 0.753260 -0.042298
v 0.000795 0.275766 0.077003
v 0.231036 1.107634 0.393879
v -0.049804 0.125947 0.072610
v -0.001361 2.563856 0.206222
v -0.183789 1.131019 0.548212
v 0.032046 2.803577 -0.014906
v -0.187093 1.033921 0.416472
v 0.079943 0.026031 0.026017
v 0.139767 2.567890 0.131876
v 0.206519 1.165340 -0.484159
v 0.036560 0.753284 -0.042171
v -0.380216 1.536321 -0.084261
v -0.041911 0.531859 0.066181
v -0.125506 2.107607 0.089198
v -0.262609 1.662361 0.278330
v -0.080876 0.125942 -0.023018
v -0.019943 2.561574 -0.092040
v -0.156210 1.616423 -0.063082
v 0.041932 0.275731 -0.049614
v 0.059131 0.753705 0.027376
v -0.100625 1.786201 0.408906
v 0.141116 1.111706 -0.365427
v 0.353878 1.766414 0.275502
v 0.051071 2.804448 0.135448
v 0.378229 1.711323 0.145201
v 0.096111 1.581785 0.437154
v 0.497580 0.528995 -0.377616
v -0.079748 0.026028 0.026017
v 0.260444 2.107128 0.212018
v -0.226635 2.132173 -0.161531
v 0.285392 2.107647 -0.053957
v -0.263278 2.133552 0.138022
v -0.053143 2.115200 0.322112
v 0.008447 2.114340 -0.243415
v -0.256943 1.596901 -0.227664
v 0.256194 1.647063 0.313581
v -0.348545 1.597483 0.100367
v 0.102325 1.639918 -0.303528
v 0.356965 1.665526 -0.047314
v -0.090049 1.622036 0.385398
v -0.319212 1.092717 0.261335
v 0.300705 1.066828 -0.214468
v -0.358755 1.101266 -0.152769
v 0.350286 1.065202 0.196845
v 0.023152 1.069277 0.437475
v -0.065972 1.079451 -0.387942
v 0.062569 0.531721 0.028120
v -0.073234 0.125944 0.027361
v 0.046022 0.125961 -0.059282
v 0.000471 0.125949 0.080911
v -0.045081 0.125951 -0.059283
v 0.074175 0.125954 0.027362
v -0.037975 0.531469 -0.045036
v 0.000467 0.531838 0.073191
v 0.038838 0.531492 -0.044965
v -0.061697 0.531749 0.028033
vt 0.7997 0.9381
vt 0.7997 0.9580
vt 0.7935 0.9580
vt 0.7937 0.9381
vt 0.8365 0.9381
vt 0.8364 0.9582
vt 0.8303 0.9582
vt 0.8303 0.9381
vt 0.8119 0.9381
vt 0.8119 0.9581
vt 0.8058 0.9580
vt 0.8058 0.9381
vt 0.7875 0.9380
vt 0.7873 0.9580
vt 0.7812 0.9580
vt 0.7814 0.9380
vt 0.8244 0.9068
vt 0.8242 0.9180
vt 0.8180 0.9181
vt 0.8182 0.9070
vt 0.7874 0.9070
vt 0.7876 0.9181
vt 0.7815 0.9179
vt 0.7812 0.9068
vt 0.8120 0.9072
vt 0.8119 0.9182
vt 0.8058 0.9183
vt 0.8059 0.9073
vt 0.8367 0.9068
vt 0.8367 0.9180
vt 0.8304 0.9179
vt 0.8305 0.9067
vt 0.7997 0.9073
vt 0.7998 0.9182
vt 0.7938 0.9182
vt 0.7936 0.9073
vt 0.8242 0.9381
vt 0.8241 0.9582
vt 0.8180 0.9581
vt 0.8180 0.9381
vt 0.9605 0.4482
vt 0.9453 0.4433
vt 0.9476 0.4365
vt 0.9659 0.4358
vt 0.9124 0.4347
vt 0.9183 0.4222
vt 0.9273 0.4307
vt 0.9244 0.4367
vt 0.9327 0.4148
vt 0.9472 0.4074
vt 0.9400 0.4263
vt 0.9337 0.4285
vt 0.9388 0.4655
vt 0.9226 0.4704
vt 0.9302 0.4525
vt 0.9366 0.4512
vt 0.9566 0.4216
vt 0.9438 0.4314
vt 0.9146 0.4589
vt 0.9066 0.4473
vt 0.9215 0.4427
vt 0.9259 0.4476
vt 0.9166 0.4358
vt 0.9223 0.4250
vt 0.9358 0.4370
vt 0.9339 0.4388
vt 0.9554 0.4235
vt 0.9621 0.4358
vt 0.9433 0.4393
vt 0.9420 0.4372
vt 0.9575 0.4470
vt 0.9529 0.4582
vt 0.9414 0.4440
vt 0.9424 0.4417
vt 0.9178 0.4574
vt 0.9109 0.4466
vt 0.9319 0.4406
vt 0.9341 0.4430
vt 0.9354 0.4180
vt 0.9486 0.4111
vt 0.9407 0.4351
vt 0.9383 0.4360
vt 0.9388 0.4632
vt 0.9247 0.4682
vt 0.9364 0.4454
vt 0.9389 0.4447
vt 0.9481 0.5934
vt 0.9405 0.5793
vt 0.9465 0.5766
vt 0.9605 0.5866
vt 0.9243 0.5385
vt 0.9378 0.5326
vt 0.9363 0.5507
vt 0.9298 0.5538
vt 0.9441 0.5542
vt 0.9366 0.5586
vt 0.9346 0.5821
vt 0.9279 0.5776
vt 0.9357 0.5743
vt 0.9519 0.5577
vt 0.9492 0.5671
vt 0.9444 0.5621
vt 0.9212 0.5731
vt 0.9223 0.5649
vt 0.9290 0.5698
vt 0.9077 0.5628
vt 0.9108 0.5444
vt 0.9234 0.5568
vt 0.9654 0.5665
vt 0.9201 0.5907
vt 0.9045 0.5812
vt 0.9541 0.5395
vt 0.9704 0.5465
vt 0.9417 0.5716
vt 0.9368 0.5665
vt 0.9393 0.5145
vt 0.9640 0.5249
vt 0.9888 0.5352
vt 0.9356 0.6002
vt 0.9366 0.6183
vt 0.9123 0.6038
vt 0.8879 0.5893
vt 0.9816 0.5659
vt 0.9745 0.5966
vt 0.9301 0.5617
vt 0.8930 0.5606
vt 0.8982 0.5319
vt 0.9187 0.5232
vt 0.9556 0.6075
vt 0.9644 0.4724
vt 0.9387 0.4816
vt 0.9130 0.4909
vt 0.9088 0.4129
vt 0.9326 0.4000
vt 0.9565 0.3872
vt 0.9014 0.4718
vt 0.8898 0.4526
vt 0.9809 0.4323
vt 0.9726 0.4524
vt 0.9687 0.4097
vt 0.8993 0.4327
vt 0.9151 0.4883
vt 0.9033 0.4701
vt 0.8916 0.4520
vt 0.9544 0.3885
vt 0.9693 0.4118
vt 0.9842 0.4350
vt 0.9550 0.4606
vt 0.9429 0.4500
vt 0.9671 0.4713
vt 0.9411 0.4798
vt 0.9093 0.4136
vt 0.9319 0.4011
vt 0.9004 0.4328
vt 0.9757 0.4532
vt 0.7997 0.8964
vt 0.7934 0.8963
vt 0.8060 0.8964
vt 0.8368 0.8957
vt 0.8307 0.8954
vt 0.8430 0.8959
vt 0.8429 0.9070
vt 0.8429 0.9181
vt 0.8122 0.8961
vt 0.8184 0.8959
vt 0.7872 0.8960
vt 0.7810 0.8956
vt 0.8246 0.8957
vt 0.8427 0.9382
vt 0.8425 0.9583
vn -0.9507 0.0170 0.3096
vn -0.9504 0.0180 0.3104
vn -0.9517 0.0200 -0.3064
vn -0.9511 0.0200 -0.3083
vn 0.5889 0.0218 -0.8079
vn 0.5897 0.0217 -0.8073
vn 0.9515 0.0236 -0.3067
vn 0.9511 0.0232 -0.3081
vn -0.0003 0.0170 0.9999
vn -0.0009 0.0190 0.9998
vn -0.5872 0.0199 0.8092
vn -0.5874 0.0184 0.8091
vn -0.5876 0.0198 -0.8089
vn -0.5882 0.0194 -0.8084
vn 0.0009 0.0224 -0.9997
vn 0.0009 0.0230 -0.9997
vn 0.9502 0.0366 0.3096
vn 0.9504 0.0295 0.3098
vn 0.5864 0.0263 0.8096
vn 0.5871 0.0277 0.8090
vn -0.5866 0.0731 -0.8066
vn -0.5876 0.0453 -0.8079
vn 0.0008 0.0516 -0.9987
vn 0.0003 0.0813 -0.9967
vn 0.0001 0.0196 0.9998
vn 0.0001 0.0204 0.9998
vn -0.5858 0.0269 0.8100
vn -0.5868 0.0311 0.8091
vn 0.5869 0.0696 -0.8066
vn 0.5882 0.0450 -0.8074
vn 0.9512 0.0417 -0.3057
vn 0.9498 0.0586 -0.3072
vn -0.9499 0.0421 0.3096
vn -0.9502 0.0302 0.3101
vn -0.9511 0.0423 -0.3060
vn -0.9495 0.0642 -0.3072
vn 0.9509 0.0199 0.3090
vn 0.9507 0.0213 0.3095
vn 0.5862 0.0218 0.8099
vn 0.5873 0.0201 0.8091
vn -0.0928 0.4183 -0.9035
vn -0.0339 0.4265 -0.9038
vn 0.4151 0.4602 -0.7848
vn 0.3902 0.4518 -0.8023
vn -0.0086 0.3447 0.9387
vn 0.5407 0.3729 0.7540
vn 0.5402 0.3924 0.7444
vn -0.0451 0.3514 0.9352
vn 0.8783 0.3691 0.3037
vn 0.9056 0.4087 -0.1132
vn 0.8973 0.4185 -0.1404
vn 0.8892 0.3743 0.2633
vn -0.8435 0.3883 -0.3712
vn -0.8965 0.4290 0.1107
vn -0.8907 0.4385 0.1200
vn -0.8560 0.3973 -0.3307
vn 0.7570 0.4185 -0.5019
vn 0.7518 0.4242 -0.5048
vn -0.7217 0.4003 0.5648
vn -0.4045 0.3787 0.8325
vn -0.4592 0.3892 0.7985
vn -0.7380 0.4081 0.5374
vn -0.3114 0.3467 0.8848
vn 0.1549 0.3601 0.9200
vn 0.2598 0.3760 0.8894
vn -0.3051 0.3537 0.8842
vn 0.8376 0.4327 -0.3335
vn 0.6221 0.4186 -0.6617
vn 0.5997 0.4245 -0.6784
vn 0.8213 0.4339 -0.3705
vn 0.2972 0.3853 -0.8736
vn -0.2378 0.3809 -0.8935
vn -0.2685 0.3961 -0.8781
vn 0.2933 0.3908 -0.8725
vn -0.9052 0.3862 0.1776
vn -0.6999 0.3904 0.5981
vn -0.6711 0.3980 0.6254
vn -0.8936 0.3922 0.2185
vn 0.5967 0.3862 0.7034
vn 0.8573 0.4652 0.2206
vn 0.8757 0.4716 0.1039
vn 0.6781 0.4028 0.6148
vn -0.7013 0.3521 -0.6199
vn -0.8876 0.3844 -0.2539
vn -0.9077 0.3891 -0.1569
vn -0.7450 0.3525 -0.5663
vn 0.2377 0.3343 -0.9120
vn 0.2040 0.2816 -0.9376
vn 0.4878 0.2904 -0.8232
vn 0.5301 0.3256 -0.7830
vn -0.1815 0.2624 0.9477
vn 0.3163 0.2733 0.9085
vn 0.3753 0.2919 0.8798
vn -0.1577 0.2730 0.9490
vn 0.8125 0.2961 0.5022
vn 0.4435 0.3939 0.8051
vn -0.3619 0.3460 -0.8656
vn -0.8432 0.2993 -0.4465
vn -0.4454 0.3863 -0.8077
vn 0.9366 0.3468 -0.0505
vn 0.7180 0.2783 -0.6380
vn 0.9154 0.3773 -0.1402
vn -0.9536 0.2995 -0.0299
vn -0.8694 0.2742 0.4111
vn -0.9338 0.3548 0.0462
vn -0.8937 0.2984 0.3351
vn -0.6179 0.2992 0.7271
vn -0.5912 0.2925 0.7516
vn 0.7756 0.3226 -0.5426
vn -0.7809 0.3132 -0.5405
vn -0.9441 0.3122 -0.1058
vn 0.7208 0.2972 0.6262
vn 0.9311 0.3599 0.0596
vn 0.4382 0.3114 -0.8433
vn -0.0014 0.9999 -0.0129
vn 0.2879 0.2618 0.9212
vn 0.7031 0.2979 0.6457
vn 0.9261 0.3596 0.1143
vn -0.3044 0.3554 -0.8838
vn -0.2396 0.3568 -0.9029
vn -0.7195 0.3186 -0.6171
vn -0.9354 0.3139 -0.1629
vn 0.8211 0.3309 -0.4650
vn 0.5637 0.3340 -0.7554
vn -0.5210 0.3457 0.7804
vn -0.8928 0.3007 0.3353
vn -0.6237 0.2984 0.7224
vn -0.2171 0.2613 0.9405
vn 0.2313 0.3406 -0.9113
vn -0.2260 0.3631 -0.9040
vn -0.6812 0.3498 -0.6431
vn -0.8748 0.3811 -0.2990
vn 0.0973 0.3498 0.9318
vn 0.4956 0.3754 0.7832
vn 0.8362 0.4555 0.3054
vn -0.9183 0.3838 0.0973
vn -0.7267 0.3807 0.5718
vn 0.6331 0.4145 -0.6537
vn 0.3174 0.3819 -0.8680
vn 0.8440 0.4296 -0.3210
vn -0.3081 0.3394 0.8887
vn -0.9016 0.4184 0.1098
vn -0.6847 0.3933 0.6136
vn -0.3690 0.3715 0.8519
vn 0.9095 0.4026 -0.1031
vn 0.7699 0.4127 -0.4867
vn 0.3734 0.4428 -0.8152
vn -0.5465 0.4057 -0.7326
vn -0.5359 0.4230 -0.7306
vn -0.5452 0.3953 -0.7393
vn -0.8239 0.3810 -0.4196
vn 0.5416 0.3534 0.7628
vn 0.8758 0.3647 0.3163
vn 0.0060 0.3389 0.9408
vn -0.1535 0.4114 -0.8984
vn -0.9515 0.0401 0.3049
vn -0.9466 0.0645 -0.3159
vn -0.5924 0.0258 0.8052
vn 0.5840 0.0715 -0.8086
vn 0.9468 0.0575 -0.3167
vn -0.0010 0.0836 -0.9965
vn -0.0005 0.0134 0.9999
vn 0.5912 0.0213 0.8062
vn -0.5845 0.0759 -0.8079
vn 0.9517 0.0330 0.3052
usemtl None
s 1
f 165/1/1 86/2/2 3/3/3 56/4/4
f 164/5/5 120/6/6 7/7/7 89/8/8
f 163/9/9 74/10/10 2/11/11 122/12/12
f 162/13/13 109/14/14 6/15/15 73/16/16
f 161/17/17 103/18/18 9/19/19 77/20/20
f 160/21/21 68/22/22 5/23/23 60/24/24
f 159/25/25 110/26/26 1/27/27 112/28/28
f 158/29/29 128/30/30 8/31/31 91/32/32
f 157/33/33 92/34/34 4/35/35 125/36/36
f 156/37/37 129/38/38 10/39/39 99/40/40
f 155/41/41 80/42/42 18/43/43 131/44/44
f 154/45/45 111/46/46 22/47/47 79/48/48
f 153/49/49 63/50/50 25/51/51 94/52/52
f 152/53/53 54/54/54 27/55/55 127/56/56
f 151/57/57 131/44/44 18/43/43 90/58/58
f 150/59/59 116/60/60 23/61/61 76/62/62
f 149/63/63 135/64/64 30/65/65 98/66/66
f 148/67/67 62/68/68 34/69/69 87/70/70
f 147/71/71 70/72/72 37/73/73 107/74/74
f 146/75/75 124/76/76 31/77/77 123/78/78
f 145/79/79 134/80/80 35/81/81 97/82/82
f 144/83/83 121/84/84 39/85/85 59/86/86
f 143/87/87 126/88/88 42/89/89 72/90/90
f 142/91/91 84/92/92 46/93/93 113/94/94
f 46/93/93 118/95/95 133/96/96
f 41/97/97 65/98/98 88/99/99
f 48/100/100 102/101/101 96/102/102
f 50/103/103 101/104/104 78/105/105
f 141/106/106 57/107/107 47/108/108 101/104/104
f 46/93/93 133/96/96 113/94/94
f 140/109/109 72/90/90 42/89/89 102/101/101
f 139/110/110 100/111/111 50/103/103 65/98/98
f 138/112/112 69/113/113 48/100/100 118/95/95
f 42/89/89 126/88/88 115/114/114
f 115/114/114 88/99/99 49/115/115
f 115/114/114 126/88/88 88/99/99
f 126/88/88 41/97/97 88/99/99
f 84/92/92 138/112/112 118/95/95 46/93/93
f 45/116/116 132/117/117 138/112/112 84/92/92
f 132/117/117 52/118/118 69/113/113 138/112/112
f 104/119/119 139/110/110 65/98/98 41/97/97
f 40/120/120 58/121/121 139/110/110 104/119/119
f 58/121/121 51/122/122 100/111/111 139/110/110
f 69/113/113 140/109/109 102/101/101 48/100/100
f 52/118/118 106/123/123 140/109/109 69/113/113
f 106/123/123 43/124/124 72/90/90 140/109/109
f 113/94/94 75/125/125 47/108/108
f 113/94/94 133/96/96 75/125/125
f 133/96/96 49/115/115 75/125/125
f 100/111/111 141/106/106 101/104/104 50/103/103
f 51/122/122 71/126/126 141/106/106 100/111/111
f 71/126/126 44/127/127 57/107/107 141/106/106
f 78/105/105 75/125/125 49/115/115
f 78/105/105 101/104/104 75/125/125
f 101/104/104 47/108/108 75/125/125
f 96/102/102 115/114/114 49/115/115
f 96/102/102 102/101/101 115/114/114
f 102/101/101 42/89/89 115/114/114
f 88/99/99 78/105/105 49/115/115
f 88/99/99 65/98/98 78/105/105
f 65/98/98 50/103/103 78/105/105
f 133/96/96 96/102/102 49/115/115
f 133/96/96 118/95/95 96/102/102
f 118/95/95 48/100/100 96/102/102
f 57/107/107 142/91/91 113/94/94 47/108/108
f 44/127/127 130/128/128 142/91/91 57/107/107
f 130/128/128 45/116/116 84/92/92 142/91/91
f 93/129/129 143/87/87 72/90/90 43/124/124
f 40/120/120 104/119/119 143/87/87 93/129/129
f 104/119/119 41/97/97 126/88/88 143/87/87
f 70/72/72 144/83/83 59/86/86 37/73/73
f 36/130/130 61/131/131 144/83/83 70/72/72
f 61/131/131 38/132/132 121/84/84 144/83/83
f 135/64/64 145/79/79 97/82/82 30/65/65
f 29/133/133 105/134/134 145/79/79 135/64/64
f 105/134/134 32/135/135 134/80/80 145/79/79
f 121/84/84 146/75/75 123/78/78 39/85/85
f 38/132/132 66/136/136 146/75/75 121/84/84
f 66/136/136 28/137/137 124/76/76 146/75/75
f 62/68/68 147/71/71 107/74/74 34/69/69
f 33/138/138 119/139/139 147/71/71 62/68/68
f 119/139/139 36/130/130 70/72/72 147/71/71
f 134/80/80 148/67/67 87/70/70 35/81/81
f 32/135/135 81/140/140 148/67/67 134/80/80
f 81/140/140 33/138/138 62/68/68 148/67/67
f 124/76/76 149/63/63 98/66/66 31/77/77
f 28/137/137 114/141/141 149/63/63 124/76/76
f 114/141/141 29/133/133 135/64/64 149/63/63
f 54/54/54 150/59/59 76/62/62 27/55/55
f 26/142/142 67/143/143 150/59/59 54/54/54
f 67/143/143 20/144/144 116/60/60 150/59/59
f 63/50/50 151/57/57 90/58/58 25/51/51
f 24/145/145 136/146/146 151/57/57 63/50/50
f 136/146/146 19/147/147 131/44/44 151/57/57
f 95/148/148 152/53/53 127/56/56 17/149/149
f 16/150/150 82/151/151 152/53/53 95/148/148
f 82/151/151 26/142/142 54/54/54 152/53/53
f 111/46/46 153/49/49 94/52/52 22/47/47
f 21/152/152 83/153/153 153/49/49 111/46/46
f 83/153/153 24/145/145 63/50/50 153/49/49
f 116/60/60 154/45/45 79/48/48 23/61/61
f 20/144/144 108/154/154 154/45/45 116/60/60
f 108/154/154 21/152/152 111/46/46 154/45/45
f 53/155/155 155/41/41 131/44/44 19/147/147
f 16/150/150 95/148/148 155/41/41 53/155/155
f 95/148/148 17/149/149 80/42/42 155/41/41
f 103/18/18 156/37/37 99/40/40 9/19/19
f 8/31/31 89/8/8 156/37/37 103/18/18
f 89/8/8 7/7/7 129/38/38 156/37/37
f 137/156/156 157/33/33 125/36/36 13/157/157
f 15/158/158 112/28/28 157/33/33 137/156/156
f 112/28/28 1/27/27 92/34/34 157/33/33
f 85/159/159 158/29/29 91/32/32 11/160/160
f 14/161/161 60/162/24 158/29/29 85/159/159
f 60/162/24 5/163/23 128/30/30 158/29/29
f 55/164/162 159/25/25 112/28/28 15/158/158
f 12/165/163 77/20/20 159/25/25 55/164/162
f 77/20/20 9/19/19 110/26/26 159/25/25
f 64/166/164 160/21/21 60/24/24 14/167/161
f 13/157/157 125/36/36 160/21/21 64/166/164
f 125/36/36 4/35/35 68/22/22 160/21/21
f 117/168/165 161/17/17 77/20/20 12/165/163
f 11/160/160 91/32/32 161/17/17 117/168/165
f 91/32/32 8/31/31 103/18/18 161/17/17
f 68/22/22 162/13/13 73/16/16 5/23/23
f 4/35/35 56/4/4 162/13/13 68/22/22
f 56/4/4 3/3/3 109/14/14 162/13/13
f 110/26/26 163/9/9 122/12/12 1/27/27
f 9/19/19 99/40/40 163/9/9 110/26/26
f 99/40/40 10/39/39 74/10/10 163/9/9
f 128/30/30 164/5/5 89/8/8 8/31/31
f 5/163/23 73/169/16 164/5/5 128/30/30
f 73/169/16 6/170/15 120/6/6 164/5/5
f 92/34/34 165/1/1 56/4/4 4/35/35
f 1/27/27 122/12/12 165/1/1 92/34/34
f 122/12/12 2/11/11 86/2/2 165/1/1
