# Blender v2.78 (sub 0) OBJ File: ''
# www.blender.org
mtllib Pine_Tree_OneSided_m_05.mtl
o Pine_Tree_OneSided_m_05
v -1.471089 1.803283 -1.462741
v -0.644698 4.134284 -0.774715
v 0.022952 4.138031 -1.045065
v -0.072247 2.252514 -1.970504
v 0.692436 4.037870 -0.773819
v 1.336702 1.820935 -1.468824
v 1.804021 2.280829 -0.009386
v 0.955024 4.082628 -0.086404
v 0.696207 4.063073 0.600532
v 1.337276 1.877808 1.452139
v -0.069730 2.332189 1.960396
v 0.029095 4.176517 0.872025
v -0.639643 4.162746 0.600658
v -1.467599 1.862534 1.459011
v -1.954652 2.293758 -0.000725
v -0.906421 4.225512 -0.086970
v 1.345446 3.718785 -1.581520
v 0.034954 3.529207 -2.029197
v 0.446682 6.304523 -0.384286
v 0.739297 6.297759 -0.273455
v 1.329336 3.639798 1.358433
v 1.762037 3.316606 0.006100
v 0.846137 6.237865 0.054088
v 0.740359 6.302415 0.354411
v -1.263016 3.913121 1.355696
v 0.017334 3.432305 1.805130
v 0.448725 6.312618 0.466724
v 0.159843 6.406543 0.354790
v -1.251140 3.986997 -1.415727
v -1.718814 3.640713 0.017576
v 0.047807 6.377814 0.054078
v 0.158385 6.401672 -0.255983
v 1.908329 5.179680 0.128826
v 1.365811 5.032163 -0.957026
v 1.256186 7.640619 -0.311865
v 1.385864 7.655464 -0.027842
v 0.315078 5.226261 1.724567
v 1.325572 4.848579 1.199951
v 1.257907 7.645905 0.253800
v 0.992524 7.748758 0.379861
v -1.219046 5.557045 0.118330
v -0.784105 5.053481 1.192714
v 0.712625 7.766935 0.251693
v 0.597114 7.836947 -0.030801
v 0.387567 5.521560 -1.481835
v -0.740405 5.263675 -0.966892
v 0.711183 7.764402 -0.314217
v 0.991887 7.745284 -0.439038
v 1.350472 8.617447 -0.558340
v 1.051740 8.768725 -0.413297
v 1.923112 9.831599 -0.148334
v 1.700091 8.562372 -0.407445
v 1.707949 8.602093 0.250288
v 1.832521 8.495678 -0.075637
v 1.059894 8.808240 0.244467
v 1.361590 8.673106 0.398042
v 0.897660 8.784355 -0.083690
v -0.468377 6.965113 0.033921
v 0.114612 7.388491 0.713666
v 0.631468 6.790767 1.162676
v 1.451318 7.064408 0.713282
v 1.702205 6.511825 0.033339
v 1.432451 6.995133 -0.680009
v 0.095479 7.320490 -0.681374
v 0.606924 6.698009 -1.095913
v -0.181248 0.963603 0.276378
v -0.136118 3.093343 0.199227
v -0.209522 3.096195 -0.030262
v -0.291984 0.963542 -0.065672
v -0.002029 0.962785 -0.277068
v -0.017603 3.085899 -0.171890
v 0.174088 3.074777 -0.029803
v 0.287508 0.962072 -0.065611
v 0.176719 0.963010 0.276216
v 0.101012 3.080368 0.199417
v 0.311694 0.102447 -0.099646
v 0.191974 0.102538 0.268829
v -0.315105 0.101752 -0.099676
v -0.001620 0.101843 -0.327497
v -0.195379 0.101719 0.268962
v 1.855592 9.270588 0.062124
v 0.232535 4.861378 1.146934
v 0.655364 6.497044 1.066331
v -1.067634 2.998282 1.044537
v 1.428634 9.398891 -0.121297
v -0.190981 3.095892 0.090478
v -0.311647 0.452567 -0.085836
v 1.501549 9.387058 0.058430
v 1.046450 4.980133 0.867923
v -1.445517 3.275041 -0.043822
v -0.846981 4.999004 0.036976
v 0.841885 5.031020 1.534323
v 1.497230 9.364966 -0.299729
v 0.858406 4.056706 -0.444972
v 1.622129 3.469700 0.737188
v 0.642589 7.803711 -0.177527
v 1.669192 9.304100 -0.372262
v 1.130141 7.696657 0.328857
v 0.535316 8.003911 -0.560602
v 0.174456 0.102142 -0.240294
v -0.177775 0.101774 -0.240319
v 1.651496 2.079700 0.764965
v 0.804364 6.267735 0.209018
v 1.029088 2.914581 -1.136019
v 0.231283 2.066623 -0.047003
v 1.686864 5.003931 0.687889
v -0.044520 6.399532 0.729052
v 0.713075 3.528461 1.660259
v 1.332442 7.644403 -0.174780
v 0.139110 2.070089 0.239411
v 1.630920 3.512233 -0.829479
v 1.393904 3.195374 -0.047908
v 1.050108 6.925622 0.988496
v 0.597515 6.299725 -0.340437
v 0.283244 0.102565 0.094796
v 1.662405 6.425560 0.050718
v -0.225279 7.187181 0.382471
v -0.023311 6.504613 -0.647840
v -0.319585 4.171911 0.772047
v 0.675092 2.036798 -1.804708
v 1.054140 5.017975 -0.942550
v -0.124781 3.091737 -0.116837
v -0.009968 2.072926 -0.224343
v -0.024826 3.209652 -1.523258
v 0.961601 7.651894 0.817295
v 0.676579 2.108421 1.791103
v 1.707087 5.098534 -0.436917
v 1.566643 8.713579 0.312178
v 1.615400 6.742472 -0.331900
v -0.001292 0.452592 -0.311654
v -0.814184 2.024865 -1.801496
v 0.730955 3.621041 -1.905511
v -1.568342 3.782434 0.732515
v 0.299783 6.361033 0.422344
v 0.155920 0.962408 -0.189524
v 1.027362 6.840585 -0.938419
v -1.792342 2.078919 0.773162
v 1.797816 8.625425 0.080353
v 0.847989 7.759937 0.327763
v 1.926032 9.235268 -0.116154
v -1.072002 2.953817 -1.133402
v -0.251566 2.078716 -0.047277
v 0.901483 5.282704 -1.291398
v -0.017535 3.087000 0.218773
v 1.296797 6.235939 0.733781
v -1.794299 2.047536 -0.775356
v 1.793977 8.605786 -0.243364
v 1.247108 8.815882 0.309216
v -0.562234 5.172138 0.866768
v 0.342812 7.011842 -0.939272
v -0.257922 0.963560 0.112310
v 0.599235 6.306878 0.422122
v -0.647584 3.765637 -1.805050
v 1.763739 7.415241 -0.016654
v 0.308760 0.452977 -0.085804
v 1.314374 4.765482 0.033515
v -0.662909 3.676147 1.658953
v -0.556968 5.207191 -0.846529
v 1.851426 9.248435 -0.296095
v 1.675195 9.335398 0.134292
v 0.943179 7.575047 -0.855247
v -0.235494 7.151237 -0.332312
v 1.651289 2.049720 -0.783086
v -0.001701 0.102124 0.301929
v 1.557341 8.666379 -0.479814
v -1.562107 3.821877 -0.732385
v 1.333439 7.647623 0.118002
v -1.050152 5.421368 -0.447689
v 0.643454 7.805554 0.115374
v 0.091956 6.392111 -0.105743
v 0.253403 0.962555 0.112246
v 1.237643 8.768780 -0.482771
v 1.559330 7.728077 -0.556803
v 0.803762 6.265075 -0.114478
v -0.322763 6.709933 0.043943
v 1.316048 6.325647 -0.641607
v -0.286660 0.101693 0.094860
v -0.193121 0.452672 0.279544
v 0.860357 4.069672 0.271968
v 0.365715 7.096111 0.988699
v -0.159240 2.077267 0.239393
v 0.372190 4.086110 -0.945081
v -0.020453 3.269413 1.431704
v 0.240369 4.906069 -1.219609
v -1.072467 5.310696 0.678705
v -0.258794 5.133218 1.530515
v 0.549496 8.059712 0.498211
v -0.810948 2.097891 1.794782
v 0.692024 6.645110 -0.974265
v 0.377366 4.119233 0.771964
v 1.573212 7.784670 0.501055
v -0.325506 4.136843 -0.945607
v 0.148048 7.799848 -0.020525
v 0.092751 6.394846 0.209250
v 1.020742 8.870695 0.073306
v -0.197105 5.400971 -1.296793
v 1.031257 2.956096 1.040972
v 0.155698 3.076385 0.090845
v -0.807790 4.197549 0.271736
v 0.089455 3.079568 -0.116571
v 0.846607 7.755542 -0.388656
v 1.128628 7.690886 -0.387443
v -0.810486 4.182638 -0.445813
v 1.016740 8.851155 -0.250406
v 0.190198 0.453302 0.279378
v -0.160169 0.963153 -0.189564
v -0.002266 0.963337 0.298776
v 1.625457 6.779184 0.381826
v 0.297870 6.353806 -0.331711
v 0.202646 2.067917 0.101940
v -0.274818 0.452597 0.104164
v 0.167606 0.452773 -0.217842
v -0.001462 0.453000 0.303088
v -0.170330 0.452565 -0.217867
v 0.271902 0.453173 0.104085
v -0.141555 2.076075 -0.150818
v -0.010059 2.073748 0.257936
v 0.121452 2.069475 -0.150662
v -0.222866 2.078407 0.101785
v 0.732855 7.791090 -0.734006
v 1.256849 7.647995 -0.731983
v 1.693861 7.594419 0.248398
v 0.749728 7.859743 0.683717
v 0.316523 7.907043 -0.296767
v 1.686623 7.564982 -0.292784
v 1.273553 7.717096 0.685198
v 0.323930 7.936031 0.244957
v -0.203782 6.612539 -0.312608
v 0.294597 6.446578 0.929139
v 1.510151 6.325776 0.402946
v 1.015055 6.486795 -0.839421
v 0.324751 6.578257 -0.842725
v -0.214506 6.558125 0.397040
v 0.986013 6.363838 0.931590
v 1.519764 6.371469 -0.305848
v -0.174857 5.059721 -1.068381
v -0.737795 5.088640 0.470883
v 0.656155 4.917670 1.041191
v 1.217341 4.888654 -0.471979
v -0.735076 5.106995 -0.419064
v -0.181563 5.018591 1.040648
v 1.213247 4.868718 0.473103
v 0.664235 4.960382 -1.122974
v -1.300066 3.138234 0.522449
v 0.526972 3.113827 1.281533
v 1.254847 3.053213 -0.614029
v -1.302392 3.115087 -0.610584
v -0.565266 3.134901 1.283415
v 1.255926 3.074686 0.518466
v 0.523641 3.061454 -1.374894
v -0.569845 3.080854 -1.373551
vt 0.5845 0.3383
vt 0.5763 0.3262
vt 0.5832 0.3196
vt 0.5961 0.3277
vt 0.5964 0.3118
vt 0.5833 0.3103
vt 0.5834 0.3010
vt 0.5968 0.2959
vt 0.5580 0.2731
vt 0.5605 0.2871
vt 0.5509 0.2867
vt 0.5420 0.2729
vt 0.5196 0.3099
vt 0.5365 0.3092
vt 0.5362 0.3189
vt 0.5195 0.3252
vt 0.5570 0.3481
vt 0.5598 0.3326
vt 0.5694 0.3328
vt 0.5728 0.3489
vt 0.5854 0.2846
vt 0.5768 0.2943
vt 0.5702 0.2875
vt 0.5740 0.2734
vt 0.5308 0.2838
vt 0.5438 0.2931
vt 0.5367 0.2995
vt 0.5197 0.2946
vt 0.5304 0.3362
vt 0.5432 0.3256
vt 0.5501 0.3324
vt 0.5412 0.3473
vt 0.5897 0.3124
vt 0.5898 0.3250
vt 0.5690 0.3171
vt 0.5687 0.3116
vt 0.5548 0.2798
vt 0.5677 0.2797
vt 0.5605 0.2985
vt 0.5550 0.2985
vt 0.5242 0.3113
vt 0.5241 0.2983
vt 0.5422 0.3066
vt 0.5425 0.3120
vt 0.5567 0.3425
vt 0.5432 0.3424
vt 0.5507 0.3246
vt 0.5560 0.3248
vt 0.5786 0.2898
vt 0.5896 0.2999
vt 0.5684 0.3061
vt 0.5645 0.3023
vt 0.5330 0.2891
vt 0.5419 0.2799
vt 0.5495 0.2985
vt 0.5459 0.3026
vt 0.5338 0.3333
vt 0.5243 0.3243
vt 0.5427 0.3175
vt 0.5467 0.3210
vt 0.5800 0.3338
vt 0.5703 0.3426
vt 0.5613 0.3249
vt 0.5652 0.3210
vt 0.5774 0.2917
vt 0.5856 0.3000
vt 0.5640 0.3103
vt 0.5626 0.3088
vt 0.5374 0.2918
vt 0.5457 0.2836
vt 0.5569 0.3072
vt 0.5554 0.3087
vt 0.5371 0.3316
vt 0.5289 0.3232
vt 0.5539 0.3146
vt 0.5554 0.3160
vt 0.5773 0.3319
vt 0.5689 0.3403
vt 0.5610 0.3173
vt 0.5624 0.3158
vt 0.5856 0.3117
vt 0.5855 0.3234
vt 0.5638 0.3144
vt 0.5639 0.3123
vt 0.5574 0.2835
vt 0.5691 0.2835
vt 0.5612 0.3072
vt 0.5591 0.3072
vt 0.5290 0.3116
vt 0.5292 0.3000
vt 0.5538 0.3102
vt 0.5538 0.3124
vt 0.5571 0.3402
vt 0.5452 0.3401
vt 0.5569 0.3175
vt 0.5590 0.3174
vt 0.4407 0.3302
vt 0.4347 0.3298
vt 0.4386 0.3228
vt 0.4509 0.3215
vt 0.4458 0.3259
vt 0.4437 0.3185
vt 0.4431 0.2981
vt 0.4474 0.3033
vt 0.4398 0.3067
vt 0.4197 0.3082
vt 0.4241 0.3034
vt 0.4281 0.3118
vt 0.4286 0.3295
vt 0.4247 0.3250
vt 0.4326 0.3224
vt 0.4518 0.3085
vt 0.4513 0.3150
vt 0.4442 0.3119
vt 0.4286 0.2985
vt 0.4359 0.2983
vt 0.4326 0.3070
vt 0.4208 0.3205
vt 0.4202 0.3144
vt 0.4287 0.3180
vt 0.4037 0.3125
vt 0.4035 0.2983
vt 0.4381 0.2793
vt 0.4521 0.2798
vt 0.4703 0.3134
vt 0.4700 0.3270
vt 0.4136 0.3366
vt 0.4039 0.3267
vt 0.4138 0.2886
vt 0.4241 0.2789
vt 0.4613 0.2898
vt 0.4705 0.2998
vt 0.4603 0.3367
vt 0.4505 0.3464
vt 0.4369 0.3464
vt 0.4233 0.3465
vt 0.9302 0.9483
vt 0.9301 0.9812
vt 0.9231 0.9812
vt 0.9233 0.9483
vt 0.9714 0.9486
vt 0.9712 0.9818
vt 0.9644 0.9818
vt 0.9645 0.9485
vt 0.9439 0.9484
vt 0.9439 0.9813
vt 0.9370 0.9811
vt 0.9370 0.9484
vt 0.9165 0.9483
vt 0.9162 0.9813
vt 0.9093 0.9814
vt 0.9096 0.9483
vt 0.9579 0.9028
vt 0.9577 0.9153
vt 0.9507 0.9154
vt 0.9510 0.9030
vt 0.9165 0.9030
vt 0.9168 0.9153
vt 0.9099 0.9152
vt 0.9096 0.9027
vt 0.9441 0.9032
vt 0.9439 0.9155
vt 0.9371 0.9156
vt 0.9372 0.9034
vt 0.9717 0.9028
vt 0.9715 0.9153
vt 0.9646 0.9152
vt 0.9648 0.9026
vt 0.9303 0.9033
vt 0.9304 0.9155
vt 0.9236 0.9155
vt 0.9234 0.9032
vt 0.9576 0.9485
vt 0.9576 0.9816
vt 0.9508 0.9815
vt 0.9507 0.9485
vt 0.9302 0.8911
vt 0.9232 0.8910
vt 0.9372 0.8912
vt 0.9718 0.8902
vt 0.9649 0.8900
vt 0.9786 0.8905
vt 0.9786 0.9030
vt 0.9785 0.9154
vt 0.9442 0.8909
vt 0.9512 0.8906
vt 0.9162 0.8906
vt 0.9093 0.8902
vt 0.9581 0.8903
vt 0.9783 0.9486
vt 0.9780 0.9818
vt 0.4604 0.3626
vt 0.4392 0.3630
vt 0.4180 0.3635
vt 0.4892 0.3324
vt 0.4748 0.3475
vt 0.4612 0.2615
vt 0.4752 0.2763
vt 0.4892 0.2911
vt 0.3874 0.2884
vt 0.4035 0.2738
vt 0.4196 0.2592
vt 0.4025 0.3483
vt 0.3870 0.3330
vt 0.4892 0.3117
vt 0.4404 0.2603
vt 0.3872 0.3107
vt 0.4365 0.3154
vt 0.5769 0.3633
vt 0.5552 0.3630
vt 0.5336 0.3627
vt 0.5039 0.3318
vt 0.5042 0.3108
vt 0.5045 0.2897
vt 0.5344 0.2599
vt 0.5556 0.2598
vt 0.5769 0.2597
vt 0.6073 0.2896
vt 0.6073 0.3110
vt 0.6073 0.3325
vt 0.5921 0.3479
vt 0.5187 0.3472
vt 0.5194 0.2748
vt 0.5921 0.2747
vt 0.6106 0.3329
vt 0.5949 0.3467
vt 0.5793 0.3604
vt 0.5357 0.3601
vt 0.5209 0.3456
vt 0.5060 0.3311
vt 0.5060 0.2900
vt 0.5202 0.2756
vt 0.5344 0.2613
vt 0.5748 0.2609
vt 0.5928 0.2773
vt 0.6107 0.2937
vt 0.5575 0.3602
vt 0.5060 0.3105
vt 0.5546 0.2611
vt 0.6107 0.3133
vt 0.5175 0.3468
vt 0.5323 0.3622
vt 0.5028 0.3314
vt 0.5179 0.2745
vt 0.5027 0.2897
vt 0.5331 0.2592
vt 0.5939 0.2750
vt 0.5777 0.2592
vt 0.6101 0.2909
vt 0.5543 0.3636
vt 0.5762 0.3649
vt 0.5027 0.3106
vt 0.5554 0.2592
vt 0.6096 0.3133
vt 0.6091 0.3358
vt 0.5926 0.3503
vn -0.3982 0.4190 -0.8160
vn -0.3778 0.4253 -0.8224
vn 0.0106 0.4451 -0.8954
vn 0.0063 0.4380 -0.8990
vn 0.4085 0.4001 -0.8204
vn 0.4008 0.4070 -0.8208
vn 0.6613 0.4046 -0.6317
vn 0.6633 0.3971 -0.6344
vn 0.8332 0.4168 0.3633
vn 0.8363 0.4228 0.3491
vn 0.6630 0.4446 0.6023
vn 0.6626 0.4378 0.6077
vn -0.4031 0.4768 0.7811
vn -0.3805 0.4835 0.7883
vn -0.6303 0.4740 0.6149
vn -0.6348 0.4673 0.6153
vn -0.8093 0.4313 -0.3988
vn -0.8113 0.4384 -0.3869
vn -0.6360 0.4312 -0.6401
vn -0.6414 0.4242 -0.6393
vn 0.8394 0.3910 -0.3775
vn 0.8410 0.3977 -0.3669
vn 0.9020 0.4316 -0.0126
vn 0.9055 0.4244 -0.0074
vn 0.4212 0.4557 0.7842
vn 0.4122 0.4628 0.7848
vn 0.0155 0.5109 0.8595
vn 0.0106 0.5040 0.8636
vn -0.7990 0.4597 0.3878
vn -0.8020 0.4660 0.3738
vn -0.8763 0.4817 -0.0099
vn -0.8801 0.4748 -0.0058
vn 0.2349 0.4945 -0.8368
vn 0.0090 0.5126 -0.8586
vn 0.0219 0.5145 -0.8572
vn 0.2514 0.4965 -0.8308
vn 0.9234 0.3087 0.2279
vn 0.9527 0.3034 0.0187
vn 0.9513 0.3077 0.0188
vn 0.9208 0.3125 0.2335
vn -0.1452 0.4533 0.8794
vn 0.0528 0.4189 0.9065
vn 0.0583 0.4219 0.9048
vn -0.1525 0.4581 0.8757
vn -0.8159 0.5582 -0.1509
vn -0.8372 0.5467 0.0108
vn -0.8351 0.5499 0.0101
vn -0.8103 0.5623 -0.1654
vn 0.9305 0.3215 -0.1757
vn 0.6793 0.4529 -0.5774
vn 0.6923 0.4552 -0.5599
vn 0.9272 0.3261 -0.1843
vn 0.2587 0.3987 0.8799
vn 0.6720 0.3876 0.6310
vn 0.6729 0.3932 0.6265
vn 0.2749 0.4008 0.8740
vn -0.8153 0.5505 0.1798
vn -0.5566 0.5637 0.6103
vn -0.5523 0.5690 0.6093
vn -0.8102 0.5539 0.1917
vn -0.1925 0.5344 -0.8230
vn -0.5762 0.6033 -0.5513
vn -0.5769 0.6088 -0.5445
vn -0.1915 0.5369 -0.8216
vn 0.8756 0.1715 -0.4516
vn 0.7329 0.1968 -0.6513
vn 0.7309 0.2019 -0.6519
vn 0.8788 0.1748 -0.4440
vn 0.5246 0.3003 0.7966
vn 0.6985 0.2489 0.6709
vn 0.7109 0.2493 0.6576
vn 0.5215 0.3042 0.7972
vn -0.6562 0.5618 0.5038
vn -0.5521 0.5332 0.6410
vn -0.5503 0.5363 0.6400
vn -0.6645 0.5681 0.4855
vn -0.4255 0.4799 -0.7673
vn -0.5899 0.5115 -0.6248
vn -0.5761 0.5119 -0.6372
vn -0.4020 0.4800 -0.7797
vn 0.5407 0.2465 -0.8043
vn 0.0625 0.4093 -0.9103
vn 0.0803 0.4105 -0.9083
vn 0.5320 0.2528 -0.8081
vn 0.8430 0.2149 0.4930
vn 0.9778 0.2079 0.0245
vn 0.9771 0.2128 0.0051
vn 0.8546 0.2167 0.4719
vn -0.4158 0.5153 0.7494
vn 0.0571 0.4575 0.8874
vn 0.0756 0.4581 0.8857
vn -0.3959 0.5159 0.7596
vn -0.7022 0.5472 -0.4556
vn -0.7809 0.6240 0.0303
vn -0.7782 0.6279 0.0117
vn -0.7025 0.5506 -0.4508
vn 0.0732 0.2407 -0.9678
vn -0.2515 0.3696 -0.8945
vn 0.1010 0.2881 -0.9523
vn 0.7093 -0.0126 -0.7048
vn 0.4068 0.0833 -0.9097
vn 0.7192 0.0277 -0.6942
vn 0.7225 0.0679 0.6880
vn 0.9248 -0.0646 0.3749
vn 0.7323 0.1026 0.6732
vn -0.5266 0.5788 0.6227
vn -0.2295 0.4607 0.8574
vn -0.4666 0.6389 0.6117
vn -0.5435 0.5090 -0.6675
vn -0.7223 0.5935 -0.3550
vn -0.4774 0.5653 -0.6727
vn 0.9963 -0.0855 -0.0089
vn 0.9151 -0.1066 -0.3889
vn 0.9985 -0.0538 -0.0077
vn 0.0908 0.3433 0.9348
vn 0.4160 0.1859 0.8902
vn 0.1156 0.3908 0.9132
vn -0.7827 0.6217 -0.0274
vn -0.7172 0.6296 0.2986
vn -0.7057 0.7076 -0.0348
vn -0.7464 0.5997 0.2884
vn -0.5375 0.5672 0.6240
vn 0.4159 0.2116 0.8845
vn 0.7263 0.0863 0.6819
vn 0.9188 -0.0710 -0.3884
vn 0.7137 0.0036 -0.7004
vn -0.7529 0.5652 -0.3373
vn -0.7982 0.6019 -0.0236
vn -0.2271 0.4528 0.8622
vn 0.0937 0.3462 0.9335
vn 0.9310 -0.0288 0.3638
vn 0.9979 -0.0642 -0.0125
vn 0.4147 0.1039 -0.9040
vn 0.0728 0.2442 -0.9670
vn -0.2683 0.3653 -0.8914
vn -0.5591 0.4965 -0.6640
vn -0.9512 0.0341 0.3067
vn -0.9517 0.0356 0.3048
vn -0.9528 0.0415 -0.3007
vn -0.9507 0.0405 -0.3073
vn 0.5924 0.0475 -0.8042
vn 0.5904 0.0484 -0.8057
vn 0.9491 0.0561 -0.3100
vn 0.9504 0.0547 -0.3062
vn 0.0011 0.0389 0.9992
vn -0.0044 0.0412 0.9991
vn -0.6007 0.0425 0.7984
vn -0.5888 0.0406 0.8073
vn -0.5899 0.0385 -0.8066
vn -0.5943 0.0392 -0.8033
vn -0.0170 0.0490 -0.9987
vn 0.0016 0.0485 -0.9988
vn 0.9508 0.0197 0.3092
vn 0.9505 0.0381 0.3084
vn 0.5873 0.0335 0.8087
vn 0.5878 0.0066 0.8089
vn -0.5878 0.0540 -0.8072
vn -0.5888 0.0474 -0.8069
vn 0.0015 0.0578 -0.9983
vn 0.0006 0.0635 -0.9980
vn 0.0005 -0.0037 1.0000
vn 0.0008 0.0227 0.9997
vn -0.5859 0.0284 0.8099
vn -0.5871 0.0060 0.8095
vn 0.5883 0.0544 -0.8068
vn 0.5900 0.0526 -0.8057
vn 0.9513 0.0522 -0.3037
vn 0.9509 0.0427 -0.3066
vn -0.9508 0.0212 0.3092
vn -0.9515 0.0297 0.3063
vn -0.9514 0.0411 -0.3051
vn -0.9516 0.0420 -0.3046
vn 0.9510 0.0482 0.3055
vn 0.9506 0.0500 0.3064
vn 0.5773 0.0513 0.8149
vn 0.5895 0.0492 0.8062
vn -0.9521 0.0109 0.3056
vn -0.9473 0.0363 -0.3182
vn -0.5937 -0.0058 0.8047
vn 0.5859 0.0502 -0.8088
vn 0.9473 0.0349 -0.3185
vn -0.0004 0.0598 -0.9982
vn 0.0002 -0.0163 0.9999
vn 0.5930 -0.0066 0.8052
vn -0.5858 0.0512 -0.8088
vn 0.9521 0.0096 0.3058
vn 0.0481 0.2527 -0.9664
vn -0.2424 0.3522 -0.9040
vn -0.5781 0.4951 -0.6486
vn 0.7064 0.0067 -0.7078
vn 0.3730 0.1214 -0.9199
vn 0.7156 0.0923 0.6923
vn 0.9427 -0.0320 0.3322
vn 0.9980 -0.0623 -0.0114
vn -0.5509 0.5629 0.6162
vn -0.1946 0.4401 0.8766
vn 0.0733 0.3531 0.9327
vn -0.7720 0.5687 -0.2840
vn -0.8006 0.5989 -0.0202
vn 0.9311 -0.0706 -0.3578
vn 0.3694 0.2323 0.8998
vn -0.7653 0.5972 0.2402
vn 0.4132 0.9091 -0.0533
vn -0.6041 0.5126 -0.6102
vn -0.7010 0.5438 -0.4614
vn -0.7817 0.6195 0.0723
vn -0.5533 0.5314 0.6414
vn -0.4457 0.5169 0.7309
vn 0.0104 0.4626 0.8865
vn 0.6826 0.2507 0.6864
vn 0.8186 0.2173 0.5317
vn 0.9771 0.2031 0.0636
vn 0.7342 0.1935 -0.6508
vn 0.5564 0.2388 -0.7958
vn 0.0190 0.4130 -0.9105
vn -0.4662 0.4845 -0.7402
vn -0.6397 0.5543 0.5325
vn 0.5276 0.2969 0.7959
vn 0.8684 0.1691 -0.4662
vn -0.0019 0.5115 -0.8593
vn -0.1859 0.5314 -0.8264
vn -0.5840 0.5979 -0.5490
vn -0.8386 0.5446 0.0124
vn -0.8212 0.5477 0.1600
vn -0.5658 0.5589 0.6062
vn 0.0452 0.4174 0.9076
vn 0.2289 0.3985 0.8881
vn 0.6580 0.3835 0.6481
vn 0.9536 0.3004 0.0194
vn 0.9342 0.3167 -0.1640
vn 0.6569 0.4524 -0.6032
vn -0.8224 0.5541 -0.1286
vn -0.1326 0.4481 0.8841
vn 0.9272 0.3052 0.2171
vn 0.2014 0.4951 -0.8452
vn -0.7885 0.4545 0.4144
vn -0.8843 0.4668 -0.0015
vn -0.6400 0.4632 0.6131
vn 0.4406 0.4484 0.7777
vn -0.0094 0.4968 0.8678
vn 0.6565 0.4341 0.6169
vn 0.8302 0.3846 -0.4036
vn 0.9093 0.4161 -0.0026
vn 0.6600 0.3925 -0.6406
vn -0.8008 0.4244 -0.4226
vn -0.6486 0.4201 -0.6347
vn -0.4419 0.4698 0.7642
vn 0.8216 0.4124 0.3935
vn 0.4279 0.3934 -0.8137
vn -0.0125 0.4301 -0.9027
vn -0.4360 0.4132 -0.7995
usemtl None
s 1
f 251/1/1 192/2/2 3/3/3 124/4/4
f 250/5/5 182/6/6 5/7/7 104/8/8
f 249/9/9 179/10/10 9/11/11 197/12/12
f 248/13/13 119/14/14 13/15/15 84/16/16
f 247/17/17 203/18/18 2/19/19 141/20/20
f 246/21/21 94/22/22 8/23/23 112/24/24
f 245/25/25 190/26/26 12/27/27 183/28/28
f 244/29/29 199/30/30 16/31/31 90/32/32
f 243/33/33 184/34/34 19/35/35 114/36/36
f 242/37/37 156/38/38 23/39/39 103/40/40
f 241/41/41 82/42/42 27/43/43 134/44/44
f 240/45/45 91/46/46 31/47/47 170/48/48
f 239/49/49 121/50/50 20/51/51 174/52/52
f 238/53/53 89/54/54 24/55/55 152/56/56
f 237/57/57 149/58/58 28/59/59 194/60/60
f 236/61/61 158/62/62 32/63/63 209/64/64
f 235/65/65 176/66/66 35/67/67 109/68/68
f 234/69/69 145/70/70 39/71/71 98/72/72
f 233/73/73 107/74/74 43/75/75 169/76/76
f 232/77/77 118/78/78 47/79/79 201/80/80
f 231/81/81 189/82/82 48/83/83 202/84/84
f 230/85/85 116/86/86 36/87/87 167/88/88
f 229/89/89 83/90/90 40/91/91 139/92/92
f 228/93/93 175/94/94 44/95/95 96/96/96
f 49/97/97 172/98/98 97/99/99
f 52/100/100 165/101/101 159/102/102
f 53/103/103 138/104/104 81/105/105
f 55/106/106 148/107/107 88/108/108
f 50/109/109 204/110/110 93/111/111
f 54/112/112 147/113/113 140/114/114
f 56/115/115 128/116/116 160/117/117
f 57/118/118 195/119/119 85/120/120
f 227/121/121 187/122/122 55/106/106 195/119/119
f 226/123/123 191/124/124 53/103/103 128/116/116
f 225/125/125 173/126/126 52/100/100 147/113/113
f 224/127/127 193/128/128 57/118/118 204/110/110
f 223/129/129 125/130/130 56/115/115 148/107/107
f 222/131/131 154/132/132 54/112/112 138/104/104
f 221/133/133 161/134/134 49/97/97 165/101/101
f 220/135/135 99/136/136 50/109/109 172/98/98
f 219/137/137 86/138/138 68/139/139 142/140/140
f 218/141/141 200/142/142 72/143/143 105/144/144
f 217/145/145 144/146/146 67/147/147 181/148/148
f 216/149/149 122/150/150 71/151/151 123/152/152
f 215/153/153 171/154/154 74/155/155 205/156/156
f 214/157/157 206/158/158 70/159/159 130/160/160
f 213/161/161 207/162/162 66/163/163 178/164/164
f 212/165/165 135/166/166 73/167/167 155/168/168
f 211/169/169 151/170/170 69/171/171 87/172/172
f 210/173/173 198/174/174 75/175/175 110/176/176
f 171/154/154 210/173/173 110/176/176 74/155/155
f 73/167/167 105/144/144 210/173/173 171/154/154
f 105/144/144 72/143/143 198/174/174 210/173/173
f 177/177/177 211/169/169 87/172/172 78/178/178
f 80/179/179 178/164/164 211/169/169 177/177/177
f 178/164/164 66/163/163 151/170/170 211/169/169
f 100/180/180 212/165/165 155/168/168 76/181/181
f 79/182/182 130/183/160 212/165/165 100/180/180
f 130/183/160 70/184/159 135/166/166 212/165/165
f 164/185/183 213/161/161 178/164/164 80/179/179
f 77/186/184 205/156/156 213/161/161 164/185/183
f 205/156/156 74/155/155 207/162/162 213/161/161
f 101/187/185 214/157/157 130/160/160 79/188/182
f 78/178/178 87/172/172 214/157/157 101/187/185
f 87/172/172 69/171/171 206/158/158 214/157/157
f 115/189/186 215/153/153 205/156/156 77/186/184
f 76/181/181 155/168/168 215/153/153 115/189/186
f 155/168/168 73/167/167 171/154/154 215/153/153
f 206/158/158 216/149/149 123/152/152 70/159/159
f 69/171/171 142/140/140 216/149/149 206/158/158
f 142/140/140 68/139/139 122/150/150 216/149/149
f 207/162/162 217/145/145 181/148/148 66/163/163
f 74/155/155 110/176/176 217/145/145 207/162/162
f 110/176/176 75/175/175 144/146/146 217/145/145
f 135/166/166 218/141/141 105/144/144 73/167/167
f 70/184/159 123/190/152 218/141/141 135/166/166
f 123/190/152 71/191/151 200/142/142 218/141/141
f 151/170/170 219/137/137 142/140/140 69/171/171
f 66/163/163 181/148/148 219/137/137 151/170/170
f 181/148/148 67/147/147 86/138/138 219/137/137
f 161/134/134 220/135/135 172/98/98 49/97/97
f 65/192/187 150/193/188 220/135/135 161/134/134
f 150/193/188 64/194/189 99/136/136 220/135/135
f 173/126/126 221/133/133 165/101/101 52/100/100
f 63/195/190 136/196/191 221/133/133 173/126/126
f 136/196/191 65/192/187 161/134/134 221/133/133
f 191/124/124 222/131/131 138/104/104 53/103/103
f 61/197/192 208/198/193 222/131/131 191/124/124
f 208/198/193 62/199/194 154/132/132 222/131/131
f 187/122/122 223/129/129 148/107/107 55/106/106
f 59/200/195 180/201/196 223/129/129 187/122/122
f 180/201/196 60/202/197 125/130/130 223/129/129
f 99/136/136 224/127/127 204/110/110 50/109/109
f 64/194/189 162/203/198 224/127/127 99/136/136
f 162/203/198 58/204/199 193/128/128 224/127/127
f 154/132/132 225/125/125 147/113/113 54/112/112
f 62/199/194 129/205/200 225/125/125 154/132/132
f 129/205/200 63/195/190 173/126/126 225/125/125
f 125/130/130 226/123/123 128/116/116 56/115/115
f 60/202/197 113/206/201 226/123/123 125/130/130
f 113/206/201 61/197/192 191/124/124 226/123/123
f 193/128/128 227/121/121 195/119/119 57/118/118
f 58/204/199 117/207/202 227/121/121 193/128/128
f 117/207/202 59/200/195 187/122/122 227/121/121
f 85/120/120 88/108/108 51/208/203
f 85/120/120 195/119/119 88/108/108
f 195/119/119 55/106/106 88/108/108
f 160/117/117 81/105/105 51/208/203
f 160/117/117 128/116/116 81/105/105
f 128/116/116 53/103/103 81/105/105
f 140/114/114 159/102/102 51/208/203
f 140/114/114 147/113/113 159/102/102
f 147/113/113 52/100/100 159/102/102
f 93/111/111 85/120/120 51/208/203
f 93/111/111 204/110/110 85/120/120
f 204/110/110 57/118/118 85/120/120
f 88/108/108 160/117/117 51/208/203
f 88/108/108 148/107/107 160/117/117
f 148/107/107 56/115/115 160/117/117
f 81/105/105 140/114/114 51/208/203
f 81/105/105 138/104/104 140/114/114
f 138/104/104 54/112/112 140/114/114
f 159/102/102 97/99/99 51/208/203
f 159/102/102 165/101/101 97/99/99
f 165/101/101 49/97/97 97/99/99
f 97/99/99 93/111/111 51/208/203
f 97/99/99 172/98/98 93/111/111
f 172/98/98 50/109/109 93/111/111
f 118/78/78 228/93/93 96/96/96 47/79/79
f 46/209/204 168/210/205 228/93/93 118/78/78
f 168/210/205 41/211/206 175/94/94 228/93/93
f 107/74/74 229/89/89 139/92/92 43/75/75
f 42/212/207 186/213/208 229/89/89 107/74/74
f 186/213/208 37/214/209 83/90/90 229/89/89
f 145/70/70 230/85/85 167/88/88 39/71/71
f 38/215/210 106/216/211 230/85/85 145/70/70
f 106/216/211 33/217/212 116/86/86 230/85/85
f 176/66/66 231/81/81 202/84/84 35/67/67
f 34/218/213 143/219/214 231/81/81 176/66/66
f 143/219/214 45/220/215 189/82/82 231/81/81
f 189/82/82 232/77/77 201/80/80 48/83/83
f 45/220/215 196/221/216 232/77/77 189/82/82
f 196/221/216 46/209/204 118/78/78 232/77/77
f 175/94/94 233/73/73 169/76/76 44/95/95
f 41/211/206 185/222/217 233/73/73 175/94/94
f 185/222/217 42/212/207 107/74/74 233/73/73
f 83/90/90 234/69/69 98/72/72 40/91/91
f 37/214/209 92/223/218 234/69/69 83/90/90
f 92/223/218 38/215/210 145/70/70 234/69/69
f 116/86/86 235/65/65 109/68/68 36/87/87
f 33/217/212 127/224/219 235/65/65 116/86/86
f 127/224/219 34/218/213 176/66/66 235/65/65
f 184/34/34 236/61/61 209/64/64 19/35/35
f 18/225/220 153/226/221 236/61/61 184/34/34
f 153/226/221 29/227/222 158/62/62 236/61/61
f 91/46/46 237/57/57 194/60/60 31/47/47
f 30/228/223 133/229/224 237/57/57 91/46/46
f 133/229/224 25/230/225 149/58/58 237/57/57
f 82/42/42 238/53/53 152/56/56 27/43/43
f 26/231/226 108/232/227 238/53/53 82/42/42
f 108/232/227 21/233/228 89/54/54 238/53/53
f 156/38/38 239/49/49 174/52/52 23/39/39
f 22/234/229 111/235/230 239/49/49 156/38/38
f 111/235/230 17/236/231 121/50/50 239/49/49
f 158/62/62 240/45/45 170/48/48 32/63/63
f 29/227/222 166/237/232 240/45/45 158/62/62
f 166/237/232 30/228/223 91/46/46 240/45/45
f 149/58/58 241/41/41 134/44/44 28/59/59
f 25/230/225 157/238/233 241/41/41 149/58/58
f 157/238/233 26/231/226 82/42/42 241/41/41
f 89/54/54 242/37/37 103/40/40 24/55/55
f 21/233/228 95/239/234 242/37/37 89/54/54
f 95/239/234 22/234/229 156/38/38 242/37/37
f 121/50/50 243/33/33 114/36/36 20/51/51
f 17/236/231 132/240/235 243/33/33 121/50/50
f 132/240/235 18/225/220 184/34/34 243/33/33
f 137/241/236 244/29/29 90/32/32 15/242/237
f 14/243/238 84/16/16 244/29/29 137/241/236
f 84/16/16 13/15/15 199/30/30 244/29/29
f 126/244/239 245/25/25 183/28/28 11/245/240
f 10/246/241 197/12/12 245/25/25 126/244/239
f 197/12/12 9/11/11 190/26/26 245/25/25
f 163/247/242 246/21/21 112/24/24 7/248/243
f 6/249/244 104/8/8 246/21/21 163/247/242
f 104/8/8 5/7/7 94/22/22 246/21/21
f 146/250/245 247/17/17 141/20/20 1/251/246
f 15/242/237 90/32/32 247/17/17 146/250/245
f 90/32/32 16/31/31 203/18/18 247/17/17
f 188/252/247 248/13/13 84/16/16 14/243/238
f 11/245/240 183/28/28 248/13/13 188/252/247
f 183/28/28 12/27/27 119/14/14 248/13/13
f 102/253/248 249/9/9 197/12/12 10/246/241
f 7/248/243 112/24/24 249/9/9 102/253/248
f 112/24/24 8/23/23 179/10/10 249/9/9
f 120/254/249 250/5/5 104/8/8 6/249/244
f 4/255/250 124/4/4 250/5/5 120/254/249
f 124/4/4 3/3/3 182/6/6 250/5/5
f 131/256/251 251/1/1 124/4/4 4/255/250
f 1/251/246 141/20/20 251/1/1 131/256/251
f 141/20/20 2/19/19 192/2/2 251/1/1
