# Blender v2.78 (sub 0) OBJ File: ''
# www.blender.org
mtllib Pine_Tree_OneSided_s_08.mtl
o Pine_Tree_OneSided_s_08
v -0.014295 0.193623 -0.036062
v 0.008935 0.705553 -0.038678
v 0.043214 0.705739 -0.027760
v 0.035539 0.193634 -0.015491
v 0.016118 0.193629 0.043900
v 0.029892 0.705850 0.012738
v -0.004003 0.705892 -0.004919
v -0.036178 0.193631 0.024771
v 0.043678 0.011589 -0.022567
v 0.020602 0.011588 0.047944
v -0.042780 0.011588 0.028848
v -0.015329 0.011589 -0.049503
v -0.245123 0.390843 0.213237
v 0.042893 0.309949 0.347950
v 0.073580 0.991238 0.148438
v -0.025871 1.002959 0.110447
v 0.315868 0.410590 0.136371
v 0.243441 0.329321 -0.183406
v 0.053935 0.993474 -0.043735
v 0.095591 1.001796 0.028706
v -0.060726 0.386805 -0.267484
v -0.044595 1.001468 -0.079623
v -0.338052 0.286424 -0.078487
v -0.069064 0.992987 0.006746
v -0.094758 0.738451 -0.225513
v -0.022918 1.216038 -0.054426
v 0.073522 1.217955 -0.030282
v 0.124787 0.773447 -0.142168
v -0.172220 0.741648 0.185259
v 0.061451 0.774754 0.220202
v 0.088289 1.217809 0.128874
v -0.013483 1.217594 0.111735
v 0.137670 1.216125 0.031008
v 0.083346 1.541029 0.035526
v -0.055351 1.222980 0.025066
v -0.211884 0.814744 -0.034646
v 0.272709 0.706342 0.054716
v -0.207535 0.637223 -0.036896
v 0.026724 1.233802 -0.041789
v 0.209407 0.708442 0.082948
v 0.039582 0.458783 -0.021788
v 0.029937 1.395088 -0.008142
v 0.115968 1.234088 0.079757
v -0.050598 0.998163 0.060223
v 0.013223 0.755565 -0.198426
v 0.111489 1.395976 0.033705
v -0.108058 0.350626 0.299343
v 0.099423 0.358884 -0.244715
v 0.028677 0.193632 0.015311
v 0.088992 0.996393 0.091341
v 0.003395 0.997405 -0.066075
v -0.013066 0.011588 0.044225
v -0.015770 0.086916 -0.043936
v 0.023135 0.458835 0.028453
v 0.040225 1.234502 0.121513
v 0.016152 0.011589 -0.041865
v 0.090031 1.394521 0.083117
v -0.140279 1.007217 -0.005767
v 0.079406 1.394568 0.001090
v 0.301670 0.371699 -0.028442
v 0.211298 0.944966 0.043205
v -0.313048 0.337951 0.069091
v 0.025210 0.997049 0.136823
v -0.063556 0.961455 -0.146604
v 0.027041 0.705627 -0.035940
v 0.013658 1.395955 0.031381
v 0.215228 0.738634 -0.046409
v -0.019993 0.458862 0.009621
v -0.041368 0.086908 0.028327
v 0.018435 0.086909 0.047695
v 0.011775 0.193629 -0.029132
v 0.038413 1.395815 0.075707
v 0.077690 0.997613 -0.010462
v 0.074564 0.983713 0.179752
v -0.214461 0.334642 -0.186812
v 0.040280 0.086915 -0.019154
v 0.036923 0.011588 0.014483
v 0.099548 0.983136 -0.089863
v -0.204921 0.779875 0.081409
v -0.098990 0.963944 0.152983
v -0.061111 0.997299 -0.040872
v 0.039077 0.705800 -0.006443
v -0.053521 0.696144 -0.177093
v 0.059010 0.648279 0.252866
v -0.037308 1.236230 -0.014656
v -0.033837 0.011588 -0.012123
v 0.181740 0.739253 0.145942
v -0.000058 0.705717 -0.022866
v -0.137667 0.699260 0.163703
v 0.011978 0.705890 0.006631
v -0.162497 0.778072 -0.141697
v -0.002648 0.458675 -0.037285
v -0.028085 0.193627 -0.006752
v 0.107741 1.234226 -0.000145
v -0.011183 0.193629 0.037691
v 0.192776 0.360131 0.259714
v 0.151246 0.659579 -0.115948
v -0.032034 1.237069 0.068744
v -0.062689 0.757987 0.217030
v -0.031787 0.086912 -0.009031
v 0.150565 0.963860 0.115599
v -0.107171 0.984909 -0.081943
v 0.163390 0.963615 -0.025376
v -0.126144 0.986278 0.076662
v -0.014927 0.973690 0.174172
v 0.016872 0.972077 -0.125408
v -0.137786 0.665970 -0.113842
v 0.140884 0.678262 0.175528
v -0.181823 0.668057 0.064657
v 0.051409 0.678145 -0.155395
v 0.189680 0.684656 -0.019452
v -0.041424 0.673837 0.218083
v 0.033729 0.458811 0.004286
v 0.013573 0.086916 -0.035409
v -0.012784 0.086908 0.041875
v -0.013691 0.458767 -0.014786
v 0.032575 0.086912 0.015497
v 0.000632 0.458855 0.021735
v 0.019406 0.458722 -0.032235
vt 0.8365 0.9333
vt 0.8364 0.9485
vt 0.8303 0.9485
vt 0.8303 0.9332
vt 0.8119 0.9333
vt 0.8119 0.9484
vt 0.8058 0.9484
vt 0.8058 0.9333
vt 0.8244 0.9068
vt 0.8242 0.9180
vt 0.8180 0.9181
vt 0.8182 0.9070
vt 0.7936 0.9333
vt 0.7937 0.9181
vt 0.8058 0.9183
vt 0.8120 0.9072
vt 0.8119 0.9182
vt 0.8059 0.9073
vt 0.8367 0.9068
vt 0.8367 0.9180
vt 0.8304 0.9179
vt 0.8305 0.9067
vt 0.8242 0.9332
vt 0.8241 0.9484
vt 0.8180 0.9484
vt 0.8180 0.9333
vt 0.5422 0.3102
vt 0.5480 0.2994
vt 0.5614 0.3114
vt 0.5595 0.3133
vt 0.5809 0.2980
vt 0.5877 0.3102
vt 0.5689 0.3137
vt 0.5676 0.3116
vt 0.5831 0.3214
vt 0.5784 0.3325
vt 0.5670 0.3184
vt 0.5680 0.3160
vt 0.5434 0.3318
vt 0.5365 0.3210
vt 0.5575 0.3151
vt 0.5597 0.3174
vt 0.5611 0.2926
vt 0.5742 0.2857
vt 0.5663 0.3096
vt 0.5638 0.3105
vt 0.5644 0.3375
vt 0.5503 0.3425
vt 0.5620 0.3198
vt 0.5645 0.3191
vt 0.4528 0.3376
vt 0.4453 0.3241
vt 0.4513 0.3214
vt 0.4654 0.3310
vt 0.4288 0.2847
vt 0.4425 0.2791
vt 0.4410 0.2965
vt 0.4345 0.2994
vt 0.4489 0.2999
vt 0.4412 0.3041
vt 0.4393 0.3267
vt 0.4325 0.3224
vt 0.4403 0.3192
vt 0.4567 0.3033
vt 0.4540 0.3123
vt 0.4491 0.3075
vt 0.4257 0.3181
vt 0.4268 0.3102
vt 0.4336 0.3149
vt 0.4120 0.3081
vt 0.4151 0.2904
vt 0.4279 0.3024
vt 0.4704 0.3118
vt 0.4246 0.3350
vt 0.4089 0.3259
vt 0.4589 0.2858
vt 0.4753 0.2925
vt 0.4463 0.3165
vt 0.7936 0.9071
vt 0.7815 0.9179
vt 0.7812 0.9068
vt 0.7935 0.8960
vt 0.7810 0.8956
vt 0.8060 0.8964
vt 0.4414 0.3117
vt 0.4440 0.2617
vt 0.4690 0.2717
vt 0.4940 0.2817
vt 0.4402 0.3441
vt 0.4412 0.3615
vt 0.4166 0.3476
vt 0.3921 0.3336
vt 0.4868 0.3112
vt 0.4796 0.3407
vt 0.4347 0.3070
vt 0.3972 0.3060
vt 0.4024 0.2784
vt 0.4232 0.2700
vt 0.4604 0.3511
vt 0.5899 0.3467
vt 0.5643 0.3559
vt 0.5387 0.3652
vt 0.5345 0.2875
vt 0.5583 0.2746
vt 0.5821 0.2618
vt 0.5271 0.3461
vt 0.5155 0.3270
vt 0.6064 0.3068
vt 0.5982 0.3268
vt 0.5942 0.2843
vt 0.5250 0.3072
vt 0.8368 0.8957
vt 0.8307 0.8954
vt 0.8430 0.8959
vt 0.8429 0.9070
vt 0.8429 0.9181
vt 0.8122 0.8961
vt 0.8184 0.8959
vt 0.7936 0.9484
vt 0.7813 0.9484
vt 0.7814 0.9332
vt 0.8246 0.8957
vt 0.8427 0.9333
vt 0.8426 0.9486
vn 0.3452 -0.0223 -0.9383
vn 0.3290 -0.0230 -0.9441
vn 0.9009 -0.0244 -0.4333
vn 0.9068 -0.0233 -0.4208
vn -0.3967 0.0739 0.9150
vn -0.4243 0.0759 0.9024
vn -0.9298 0.0779 0.3598
vn -0.9209 0.0775 0.3820
vn 0.9494 0.0381 0.3119
vn 0.9497 0.0151 0.3129
vn 0.4383 0.0445 0.8977
vn 0.4635 0.0386 0.8853
vn -0.9371 0.0416 -0.3466
vn -0.9405 0.0408 -0.3374
vn -0.9101 0.0658 0.4091
vn -0.3119 0.0302 0.9496
vn -0.3470 0.0567 0.9361
vn -0.9052 0.0427 0.4228
vn 0.3991 0.0703 -0.9142
vn 0.3778 0.0195 -0.9257
vn 0.9166 0.0176 -0.3993
vn 0.9192 0.0649 -0.3884
vn 0.9500 -0.0053 0.3123
vn 0.9509 -0.0056 0.3096
vn 0.4239 0.0459 0.9046
vn 0.4213 0.0450 0.9058
vn -0.3282 0.2919 0.8984
vn 0.2002 0.2905 0.9357
vn 0.3513 0.2926 0.8893
vn -0.3206 0.2955 0.8999
vn 0.8823 0.3213 -0.3440
vn 0.6558 0.3261 -0.6809
vn 0.6303 0.3275 -0.7039
vn 0.8639 0.3204 -0.3885
vn 0.3180 0.2945 -0.9012
vn -0.2379 0.3139 -0.9191
vn -0.3007 0.3246 -0.8968
vn 0.3232 0.2978 -0.8982
vn -0.9079 0.3574 0.2188
vn -0.6979 0.3538 0.6228
vn -0.6711 0.3544 0.6511
vn -0.8967 0.3596 0.2580
vn 0.6954 0.2816 0.6612
vn 0.9176 0.3549 0.1792
vn 0.9374 0.3464 0.0356
vn 0.7994 0.2846 0.5291
vn -0.7196 0.3045 -0.6241
vn -0.9020 0.3630 -0.2338
vn -0.9263 0.3615 -0.1065
vn -0.7899 0.3043 -0.5324
vn 0.2731 0.2910 -0.9169
vn 0.2391 0.2239 -0.9448
vn 0.4946 0.2115 -0.8430
vn 0.5434 0.2592 -0.7984
vn -0.1681 0.2248 0.9598
vn 0.3221 0.1949 0.9264
vn 0.3943 0.2086 0.8950
vn -0.1566 0.2514 0.9551
vn 0.8518 0.1503 0.5018
vn 0.4805 0.2627 0.8368
vn -0.3695 0.3631 -0.8554
vn -0.8342 0.3616 -0.4163
vn -0.4203 0.3751 -0.8263
vn 0.9733 0.2103 -0.0922
vn 0.7120 0.1577 -0.6842
vn 0.9686 0.1734 -0.1782
vn -0.9293 0.3690 -0.0132
vn -0.8499 0.3364 0.4056
vn -0.9111 0.4088 0.0530
vn -0.8820 0.3379 0.3284
vn -0.6091 0.3105 0.7298
vn -0.5739 0.3119 0.7572
vn 0.7751 0.2234 -0.5910
vn -0.7741 0.3544 -0.5246
vn -0.9234 0.3701 -0.1016
vn 0.7345 0.1814 0.6540
vn 0.9666 0.2519 0.0475
vn 0.4616 0.1782 -0.8690
vn -0.9421 0.0355 -0.3334
vn -0.4329 0.0418 -0.9005
vn -0.4219 0.0724 -0.9037
vn -0.9420 0.0306 -0.3342
vn -0.4051 0.0761 -0.9111
vn -0.9050 0.0309 0.4242
vn 0.1374 0.9904 -0.0165
vn 0.2739 0.1896 0.9429
vn 0.6909 0.1857 0.6987
vn 0.9608 0.2547 0.1094
vn -0.2941 0.3687 -0.8818
vn -0.2368 0.3652 -0.9003
vn -0.7253 0.3535 -0.5908
vn -0.9137 0.3709 -0.1662
vn 0.8140 0.2274 -0.5345
vn 0.5724 0.2647 -0.7761
vn -0.5219 0.3522 0.7769
vn -0.8874 0.3385 0.3130
vn -0.6255 0.3137 0.7144
vn -0.1994 0.2249 0.9538
vn 0.2703 0.2965 -0.9160
vn -0.2038 0.3011 -0.9316
vn -0.6630 0.3045 -0.6839
vn -0.8841 0.3624 -0.2950
vn 0.1157 0.2869 0.9509
vn 0.5633 0.2818 0.7768
vn 0.8827 0.3607 0.3012
vn -0.9215 0.3572 0.1523
vn -0.7275 0.3526 0.5886
vn 0.6689 0.3249 -0.6686
vn 0.3280 0.2922 -0.8983
vn 0.8920 0.3212 -0.3180
vn -0.3248 0.2872 0.9011
vn 0.4061 0.0802 -0.9103
vn 0.9169 0.0732 -0.3923
vn -0.2981 0.0189 0.9544
vn 0.4829 0.0328 0.8751
vn -0.9340 0.0421 -0.3548
vn -0.4189 0.0110 -0.9080
vn -0.4297 0.0123 -0.9029
vn 0.9502 0.0412 0.3090
usemtl None
s 1
f 119/1/1 65/2/2 3/3/3 41/4/4
f 118/5/5 90/6/6 7/7/7 68/8/8
f 117/9/9 49/10/10 5/11/11 70/12/12
f 116/13/13 93/14/14 8/15/15 68/8/8
f 115/16/16 95/17/17 8/15/15 69/18/18
f 114/19/19 71/20/20 4/21/21 76/22/22
f 113/23/23 82/24/24 6/25/25 54/26/26
f 112/27/27 84/28/28 15/29/29 63/30/30
f 111/31/31 97/32/32 19/33/33 73/34/34
f 110/35/35 83/36/36 22/37/37 51/38/38
f 109/39/39 89/40/40 16/41/41 44/42/42
f 108/43/43 40/44/44 20/45/45 50/46/46
f 107/47/47 38/48/48 24/49/49 81/50/50
f 106/51/51 39/52/52 27/53/53 78/54/54
f 105/55/55 74/56/56 31/57/57 55/58/58
f 31/57/57 43/59/59 57/60/60
f 26/61/61 85/62/62 42/63/63
f 33/64/64 94/65/65 46/66/66
f 35/67/67 98/68/68 66/69/69
f 104/70/70 80/71/71 32/72/72 98/68/68
f 31/57/57 57/60/60 55/58/58
f 103/73/73 78/54/54 27/53/53 94/65/65
f 102/74/74 58/75/75 35/67/67 85/62/62
f 101/76/76 61/77/77 33/64/64 43/59/59
f 27/53/53 39/52/52 59/78/78
f 100/79/79 93/14/14 1/80/80 53/81/81
f 86/82/82 100/79/79 53/81/81 12/83/83
f 11/84/84 69/18/18 100/79/79 86/82/82
f 69/18/18 8/15/15 93/14/14 100/79/79
f 59/78/78 42/63/63 34/85/85
f 59/78/78 39/52/52 42/63/63
f 39/52/52 26/61/61 42/63/63
f 74/56/56 101/76/76 43/59/59 31/57/57
f 30/86/86 87/87/87 101/76/76 74/56/56
f 87/87/87 37/88/88 61/77/77 101/76/76
f 64/89/89 102/74/74 85/62/62 26/61/61
f 25/90/90 91/91/91 102/74/74 64/89/89
f 91/91/91 36/92/92 58/75/75 102/74/74
f 61/77/77 103/73/73 94/65/65 33/64/64
f 37/88/88 67/93/93 103/73/73 61/77/77
f 67/93/93 28/94/94 78/54/54 103/73/73
f 55/58/58 72/95/95 32/72/72
f 55/58/58 57/60/60 72/95/95
f 57/60/60 34/85/85 72/95/95
f 58/75/75 104/70/70 98/68/68 35/67/67
f 36/92/92 79/96/96 104/70/70 58/75/75
f 79/96/96 29/97/97 80/71/71 104/70/70
f 66/69/69 72/95/95 34/85/85
f 66/69/69 98/68/68 72/95/95
f 98/68/68 32/72/72 72/95/95
f 46/66/66 59/78/78 34/85/85
f 46/66/66 94/65/65 59/78/78
f 94/65/65 27/53/53 59/78/78
f 42/63/63 66/69/69 34/85/85
f 42/63/63 85/62/62 66/69/69
f 85/62/62 35/67/67 66/69/69
f 57/60/60 46/66/66 34/85/85
f 57/60/60 43/59/59 46/66/66
f 43/59/59 33/64/64 46/66/66
f 80/71/71 105/55/55 55/58/58 32/72/72
f 29/97/97 99/98/98 105/55/55 80/71/71
f 99/98/98 30/86/86 74/56/56 105/55/55
f 45/99/99 106/51/51 78/54/54 28/94/94
f 25/90/90 64/89/89 106/51/51 45/99/99
f 64/89/89 26/61/61 39/52/52 106/51/51
f 83/36/36 107/47/47 81/50/50 22/37/37
f 21/100/100 75/101/101 107/47/47 83/36/36
f 75/101/101 23/102/102 38/48/48 107/47/47
f 84/28/28 108/43/43 50/46/46 15/29/29
f 14/103/103 96/104/104 108/43/43 84/28/28
f 96/104/104 17/105/105 40/44/44 108/43/43
f 38/48/48 109/39/39 44/42/42 24/49/49
f 23/102/102 62/106/106 109/39/39 38/48/48
f 62/106/106 13/107/107 89/40/40 109/39/39
f 97/32/32 110/35/35 51/38/38 19/33/33
f 18/108/108 48/109/109 110/35/35 97/32/32
f 48/109/109 21/100/100 83/36/36 110/35/35
f 40/44/44 111/31/31 73/34/34 20/45/45
f 17/105/105 60/110/110 111/31/31 40/44/44
f 60/110/110 18/108/108 97/32/32 111/31/31
f 89/40/40 112/27/27 63/30/30 16/41/41
f 13/107/107 47/111/111 112/27/27 89/40/40
f 47/111/111 14/103/103 84/28/28 112/27/27
f 49/10/10 113/23/23 54/26/26 5/11/11
f 4/21/21 41/4/4 113/23/23 49/10/10
f 41/4/4 3/3/3 82/24/24 113/23/23
f 56/112/112 114/19/19 76/22/22 9/113/113
f 12/114/83 53/115/81 114/19/19 56/112/112
f 53/115/81 1/116/80 71/20/20 114/19/19
f 52/117/114 115/16/16 69/18/18 11/84/84
f 10/118/115 70/12/12 115/16/16 52/117/114
f 70/12/12 5/11/11 95/17/17 115/16/16
f 88/119/116 116/13/13 68/8/8 7/7/7
f 2/120/117 92/121/118 116/13/13 88/119/116
f 92/121/118 1/80/80 93/14/14 116/13/13
f 77/122/119 117/9/9 70/12/12 10/118/115
f 9/113/113 76/22/22 117/9/9 77/122/119
f 76/22/22 4/21/21 49/10/10 117/9/9
f 95/17/17 118/5/5 68/8/8 8/15/15
f 5/11/11 54/26/26 118/5/5 95/17/17
f 54/26/26 6/25/25 90/6/6 118/5/5
f 71/20/20 119/1/1 41/4/4 4/21/21
f 1/116/80 92/123/118 119/1/1 71/20/20
f 92/123/118 2/124/117 65/2/2 119/1/1
