# Blender v2.78 (sub 0) OBJ File: ''
# www.blender.org
mtllib Pine_Tree_OneSided_m_01.mtl
o Pine_Tree_OneSided_m_01
v -0.140635 0.873862 0.219360
v -0.112780 3.150795 0.183370
v -0.181585 3.150265 -0.027752
v -0.229081 0.873862 -0.052805
v 0.002453 0.873809 -0.220995
v -0.001762 3.148939 -0.157979
v 0.178185 3.148664 -0.027342
v 0.233994 0.873776 -0.052777
v 0.145561 0.873810 0.219377
v 0.109570 3.149823 0.183622
v 0.273524 0.057419 -0.089332
v 0.169130 0.057415 0.231963
v -0.273095 0.057417 -0.089332
v 0.000215 0.057420 -0.287903
v -0.168700 0.057414 0.231963
v -1.285256 1.616754 -1.271201
v -0.861550 3.160333 -0.836549
v -0.113225 3.100174 -1.156680
v -0.063761 1.218917 -1.871150
v 0.636546 3.146178 -0.835957
v 1.163422 1.649367 -1.276448
v 1.746672 1.281203 -0.009597
v 0.956062 3.109693 -0.081325
v 0.638917 3.173515 0.671926
v 1.166893 1.699343 1.249875
v -0.058848 1.292159 1.860091
v -0.109519 3.138777 0.993255
v -0.858701 3.187083 0.671387
v -1.281994 1.665852 1.255710
v -1.869342 1.232035 -0.001430
v -1.179090 3.129030 -0.082088
v 1.354555 2.506783 -1.571331
v 0.021153 2.786015 -2.058782
v -0.028595 5.337780 -0.341527
v 0.249323 5.302145 -0.233854
v 1.317017 2.631909 1.400867
v 1.806193 2.969417 0.034408
v 0.353596 5.356291 0.071824
v 0.245771 5.318800 0.352327
v -1.362430 2.494471 1.373442
v -0.028577 2.952954 1.852804
v -0.033268 5.360178 0.457142
v -0.311209 5.308632 0.349539
v -1.327480 2.378369 -1.423131
v -1.817740 2.785025 0.014108
v -0.415837 5.343055 0.068066
v -0.307914 5.293043 -0.219896
v 1.719204 4.114363 0.115377
v 1.187159 4.495173 -1.033593
v 0.267361 6.632759 -0.201109
v 0.384574 6.593947 0.068444
v 0.029829 4.112121 1.784448
v 1.164532 4.433248 1.236667
v 0.264859 6.635114 0.334651
v -0.001505 6.596300 0.454090
v -1.623673 4.204074 0.096242
v -1.098666 4.491664 1.223866
v -0.267217 6.636070 0.332922
v -0.383640 6.596108 0.065886
v 0.066957 4.207087 -1.572900
v -1.070900 4.557962 -1.046660
v -0.264237 6.634237 -0.202866
v 0.002537 6.593814 -0.319767
v -0.031120 7.504125 -0.459103
v -0.424528 7.474740 -0.300501
v -0.002221 8.855676 0.142524
v 0.385868 7.485180 -0.298856
v 0.385026 7.491758 0.489570
v 0.544910 7.515095 0.094898
v -0.425242 7.480843 0.487949
v -0.032212 7.513391 0.646615
v -0.582452 7.500266 0.092630
v -1.241656 5.962618 0.047314
v -0.916571 5.656624 0.986078
v 0.001820 5.944302 1.308134
v 0.923955 5.688130 0.990318
v 1.249027 6.003852 0.053051
v 0.924886 5.745060 -0.868218
v -0.915663 5.715693 -0.872452
v 0.003056 6.022663 -1.207736
v -0.084217 2.203968 1.445125
v 0.014112 5.344034 1.132805
v -0.694700 1.480072 1.633633
v -0.152295 0.057419 -0.210440
v -1.128843 5.839191 -0.438098
v 0.677272 6.514378 0.761333
v 0.203813 8.247458 0.329458
v 1.065113 5.343974 0.092297
v -0.017301 8.237510 -0.175431
v -0.313675 8.237520 0.119486
v 0.619799 4.270144 1.580841
v 0.311348 5.329090 -0.085139
v -0.558544 4.300413 1.574185
v -1.542163 2.168594 -0.041587
v 1.090633 4.174388 0.056240
v 0.336247 6.613373 -0.070605
v 1.511554 4.271311 0.699768
v -0.001596 3.150386 0.200539
v 0.127854 0.873795 -0.150142
v 1.528236 1.465907 -0.668361
v -0.827981 3.823999 -0.831015
v -1.650559 1.422890 -0.661331
v -1.647052 2.576831 -0.735029
v 0.160125 3.149187 0.083427
v 0.836211 3.141392 0.311410
v -0.698971 1.415957 -1.646791
v -0.941928 6.676223 0.067427
v 0.034962 5.390886 -0.959238
v 0.000378 2.056674 -0.189070
v -0.176343 5.334599 0.413325
v 0.726542 2.644076 -1.909921
v -0.482528 5.798342 1.197810
v -0.016016 6.673637 1.004246
v 0.206491 2.056511 -0.039377
v -0.524285 4.385309 -1.380080
v -0.138635 6.616358 0.403862
v -0.227475 8.235765 -0.089301
v 0.001447 0.387102 -0.261262
v -0.693797 6.519757 -0.611540
v 0.000215 0.057414 0.258938
v 1.136675 5.846042 0.547212
v -0.335707 6.616064 0.203678
v -0.371755 5.318025 -0.080067
v -0.172338 5.315260 -0.290708
v -0.225075 7.575894 0.561466
v 0.173345 7.581223 0.562258
v -0.205667 2.057397 -0.039607
v 0.812478 3.893508 -0.916085
v 0.650999 4.352438 -1.373265
v 0.277644 3.122282 -1.035123
v -0.003563 4.072223 -1.212874
v 0.925858 6.705151 0.071557
v -0.101721 3.149590 -0.106666
v -0.135086 6.613758 -0.271689
v -0.200441 0.873860 0.088341
v -0.503497 3.129796 -1.035444
v -1.059079 3.144897 -0.475428
v 1.655598 2.740538 -0.805812
v -0.500056 3.163820 0.871125
v 1.523154 4.303411 -0.482044
v -0.017933 8.246342 0.415583
v 0.721458 5.543791 0.792287
v -0.847319 3.890562 0.871966
v 0.334979 6.614740 0.205860
v -0.126898 2.057676 0.202460
v 0.457793 7.581631 0.291125
v -0.246552 0.057415 0.079651
v 0.309562 5.337575 0.216228
v -0.158286 0.387061 0.230344
v 0.487990 5.815029 1.200047
v 0.458217 7.577906 -0.095730
v -0.224177 7.567194 -0.368787
v -1.665383 2.637619 0.734887
v 0.292565 8.245164 0.120677
v 0.280798 3.156648 0.871420
v -0.257006 0.387081 -0.073485
v -0.373410 5.325957 0.212927
v 1.369188 2.183728 -0.045338
v -0.014812 6.709122 -0.865252
v 1.530053 1.491922 0.645128
v 0.578499 1.497564 1.630569
v -1.083461 2.400160 -1.064328
v 0.174314 7.572281 -0.367981
v 0.259899 0.387093 -0.073485
v -0.733872 2.724868 1.687473
v 0.098244 3.148689 -0.106436
v -0.334201 6.614968 -0.072803
v -1.648871 1.448387 0.652508
v 0.139222 6.613107 -0.270794
v 0.791655 3.965337 0.887269
v 0.678191 6.540332 -0.608498
v 0.913083 2.448508 0.971052
v 0.002463 0.873833 0.235754
v 1.635726 2.806698 0.768669
v -1.129321 5.807896 0.541991
v 0.574099 1.432932 -1.649505
v 0.734099 5.573813 -0.624540
v 0.834991 3.127132 -0.474689
v 0.680707 2.797500 1.701959
v -0.694637 6.492413 0.758301
v 0.114468 5.319762 -0.297675
v -0.481409 5.870478 -1.090913
v 0.489123 5.885896 -1.088680
v 0.205360 0.873793 0.088363
v 0.910133 2.409447 -1.066672
v 0.204296 8.241122 -0.088445
v 0.246981 0.057417 0.079651
v 1.137166 5.876068 -0.432880
v -1.016745 5.390512 0.081311
v -0.088579 2.147345 -1.532073
v -0.031041 4.167892 1.165582
v 0.152725 0.057420 -0.210440
v 0.135911 6.615980 0.404743
v 0.161180 0.387068 0.230344
v -0.122945 0.873837 -0.150156
v 0.110334 5.339655 0.414731
v -1.416786 4.383684 -0.498964
v -0.163425 3.150633 0.083055
v -0.689992 5.573718 0.784954
v -1.057572 3.158815 0.310698
v -1.127586 4.074525 0.041921
v 0.127829 2.057138 0.202601
v -0.494608 7.569072 0.289223
v -0.494255 7.565587 -0.097646
v -0.227888 8.241922 0.328616
v -1.080370 2.438457 0.973731
v -1.431447 4.348982 0.683007
v -0.674420 5.606293 -0.632027
v -0.689578 2.576815 -1.819842
v -0.367357 6.614791 -0.765203
v 0.344315 6.625433 -0.763625
v 0.828534 6.609915 0.429241
v -0.368412 6.582319 0.908024
v -0.844372 6.597839 -0.284853
v 0.829013 6.623376 -0.281148
v 0.343216 6.593744 0.909597
v -0.844806 6.583597 0.425541
v -0.875494 5.499326 -0.285884
v -0.348589 5.458385 0.989023
v 0.923266 5.443026 0.452814
v 0.395111 5.482773 -0.822029
v -0.329686 5.499534 -0.825884
v -0.883577 5.482523 0.443342
v 0.377855 5.443062 0.992792
v 0.929700 5.458392 -0.276325
v -0.430958 3.946038 -1.055275
v -1.019397 3.981788 0.473907
v 0.395521 4.068578 1.058345
v 0.983473 4.034814 -0.445475
v -1.009403 3.947428 -0.407548
v -0.455108 4.029734 1.050399
v 0.972644 4.072137 0.492449
v 0.420506 3.981919 -1.103798
v -1.353222 2.303601 0.481603
v 0.429649 2.327106 1.250994
v 1.181614 2.296520 -0.571525
v -1.354819 2.283894 -0.568379
v -0.597378 2.321946 1.252379
v 1.183132 2.316657 0.478269
v 0.425871 2.277607 -1.342314
v -0.601234 2.272877 -1.341118
v 0.181045 2.056804 0.086126
v -0.225058 0.387070 0.084087
v 0.141434 0.387099 -0.182185
v 0.001447 0.387063 0.248652
v -0.138541 0.387092 -0.182185
v 0.227951 0.387081 0.084087
v -0.111227 2.057032 -0.126141
v 0.000469 2.057435 0.217114
v 0.112012 2.056551 -0.126017
v -0.180164 2.057575 0.085925
vt 0.7997 0.9476
vt 0.7995 0.9769
vt 0.7933 0.9769
vt 0.7936 0.9475
vt 0.8365 0.9477
vt 0.8363 0.9775
vt 0.8302 0.9775
vt 0.8303 0.9477
vt 0.8119 0.9476
vt 0.8119 0.9770
vt 0.8058 0.9769
vt 0.8058 0.9476
vt 0.7874 0.9475
vt 0.7872 0.9770
vt 0.7810 0.9772
vt 0.7812 0.9475
vt 0.8244 0.9068
vt 0.8242 0.9180
vt 0.8180 0.9181
vt 0.8182 0.9070
vt 0.7874 0.9070
vt 0.7876 0.9181
vt 0.7815 0.9179
vt 0.7812 0.9068
vt 0.8120 0.9072
vt 0.8119 0.9182
vt 0.8058 0.9183
vt 0.8059 0.9073
vt 0.8367 0.9068
vt 0.8367 0.9180
vt 0.8304 0.9179
vt 0.8305 0.9067
vt 0.7997 0.9073
vt 0.7998 0.9182
vt 0.7938 0.9182
vt 0.7936 0.9073
vt 0.8242 0.9477
vt 0.8241 0.9773
vt 0.8181 0.9772
vt 0.8181 0.9476
vt 0.5901 0.3410
vt 0.5819 0.3289
vt 0.5888 0.3223
vt 0.6018 0.3304
vt 0.6021 0.3145
vt 0.5889 0.3130
vt 0.5890 0.3036
vt 0.6023 0.2986
vt 0.5635 0.2758
vt 0.5661 0.2897
vt 0.5564 0.2893
vt 0.5475 0.2756
vt 0.5251 0.3125
vt 0.5419 0.3119
vt 0.5417 0.3216
vt 0.5250 0.3278
vt 0.5626 0.3508
vt 0.5653 0.3353
vt 0.5750 0.3355
vt 0.5784 0.3516
vt 0.5910 0.2873
vt 0.5824 0.2969
vt 0.5758 0.2901
vt 0.5796 0.2760
vt 0.5363 0.2864
vt 0.5493 0.2957
vt 0.5422 0.3022
vt 0.5252 0.2972
vt 0.5358 0.3389
vt 0.5487 0.3284
vt 0.5556 0.3351
vt 0.5467 0.3501
vt 0.5953 0.3151
vt 0.5954 0.3277
vt 0.5746 0.3197
vt 0.5743 0.3142
vt 0.5603 0.2824
vt 0.5731 0.2823
vt 0.5660 0.3011
vt 0.5605 0.3011
vt 0.5297 0.3139
vt 0.5296 0.3009
vt 0.5477 0.3092
vt 0.5480 0.3146
vt 0.5623 0.3453
vt 0.5487 0.3451
vt 0.5563 0.3273
vt 0.5616 0.3275
vt 0.5841 0.2924
vt 0.5951 0.3025
vt 0.5740 0.3087
vt 0.5700 0.3049
vt 0.5386 0.2917
vt 0.5475 0.2825
vt 0.5551 0.3011
vt 0.5514 0.3051
vt 0.5393 0.3360
vt 0.5299 0.3270
vt 0.5482 0.3201
vt 0.5523 0.3237
vt 0.5857 0.3365
vt 0.5759 0.3454
vt 0.5669 0.3276
vt 0.5707 0.3237
vt 0.5829 0.2943
vt 0.5913 0.3026
vt 0.5696 0.3130
vt 0.5681 0.3115
vt 0.5429 0.2944
vt 0.5512 0.2861
vt 0.5625 0.3098
vt 0.5609 0.3113
vt 0.5426 0.3344
vt 0.5344 0.3259
vt 0.5594 0.3172
vt 0.5610 0.3187
vt 0.5828 0.3345
vt 0.5746 0.3430
vt 0.5666 0.3200
vt 0.5680 0.3185
vt 0.5912 0.3144
vt 0.5912 0.3261
vt 0.5694 0.3170
vt 0.5695 0.3150
vt 0.5629 0.2861
vt 0.5746 0.2860
vt 0.5667 0.3099
vt 0.5646 0.3098
vt 0.5345 0.3142
vt 0.5346 0.3026
vt 0.5593 0.3129
vt 0.5594 0.3151
vt 0.5627 0.3429
vt 0.5509 0.3428
vt 0.5625 0.3202
vt 0.5646 0.3201
vt 0.4419 0.3316
vt 0.4358 0.3313
vt 0.4398 0.3241
vt 0.4521 0.3229
vt 0.4470 0.3273
vt 0.4449 0.3198
vt 0.4443 0.2993
vt 0.4487 0.3045
vt 0.4410 0.3079
vt 0.4207 0.3094
vt 0.4252 0.3045
vt 0.4292 0.3130
vt 0.4296 0.3309
vt 0.4257 0.3264
vt 0.4337 0.3238
vt 0.4531 0.3098
vt 0.4526 0.3163
vt 0.4454 0.3132
vt 0.4297 0.2996
vt 0.4370 0.2994
vt 0.4337 0.3081
vt 0.4218 0.3218
vt 0.4212 0.3156
vt 0.4297 0.3192
vt 0.4046 0.3138
vt 0.4044 0.2994
vt 0.4393 0.2803
vt 0.4534 0.2808
vt 0.4717 0.3147
vt 0.4715 0.3284
vt 0.4145 0.3381
vt 0.4047 0.3281
vt 0.4148 0.2896
vt 0.4251 0.2799
vt 0.4627 0.2909
vt 0.4719 0.3010
vt 0.4616 0.3381
vt 0.4518 0.3479
vt 0.4381 0.3480
vt 0.4243 0.3480
vt 0.4617 0.3642
vt 0.4403 0.3647
vt 0.4190 0.3652
vt 0.4908 0.3338
vt 0.4762 0.3490
vt 0.4625 0.2623
vt 0.4766 0.2772
vt 0.4908 0.2922
vt 0.3882 0.2895
vt 0.4044 0.2748
vt 0.4206 0.2601
vt 0.4033 0.3498
vt 0.3877 0.3344
vt 0.4908 0.3130
vt 0.4416 0.2612
vt 0.3880 0.3119
vt 0.4377 0.3166
vt 0.5825 0.3660
vt 0.5609 0.3658
vt 0.5392 0.3655
vt 0.5094 0.3345
vt 0.5097 0.3134
vt 0.5100 0.2923
vt 0.5399 0.2625
vt 0.5612 0.2623
vt 0.5825 0.2622
vt 0.6129 0.2922
vt 0.6129 0.3137
vt 0.6129 0.3352
vt 0.5977 0.3506
vt 0.5243 0.3500
vt 0.5250 0.2774
vt 0.5977 0.2772
vt 0.6163 0.3356
vt 0.6006 0.3494
vt 0.5849 0.3632
vt 0.5412 0.3629
vt 0.5264 0.3483
vt 0.5115 0.3338
vt 0.5115 0.2926
vt 0.5257 0.2783
vt 0.5399 0.2639
vt 0.5803 0.2635
vt 0.5983 0.2799
vt 0.6163 0.2963
vt 0.5631 0.3630
vt 0.5115 0.3132
vt 0.5601 0.2637
vt 0.6163 0.3159
vt 0.5231 0.3496
vt 0.5378 0.3650
vt 0.5083 0.3341
vt 0.5234 0.2770
vt 0.5081 0.2923
vt 0.5386 0.2618
vt 0.5995 0.2776
vt 0.5833 0.2618
vt 0.6157 0.2935
vt 0.5598 0.3663
vt 0.5818 0.3677
vt 0.5082 0.3132
vt 0.5610 0.2618
vt 0.6152 0.3160
vt 0.6148 0.3385
vt 0.5983 0.3531
vt 0.7997 0.8964
vt 0.7934 0.8963
vt 0.8060 0.8964
vt 0.8368 0.8957
vt 0.8307 0.8954
vt 0.8430 0.8959
vt 0.8429 0.9070
vt 0.8429 0.9181
vt 0.8122 0.8961
vt 0.8184 0.8959
vt 0.7872 0.8960
vt 0.7810 0.8956
vt 0.8246 0.8957
vt 0.8426 0.9477
vt 0.8424 0.9774
vn -0.9508 0.0172 0.3094
vn -0.9506 0.0175 0.3099
vn -0.9516 0.0219 -0.3067
vn -0.9508 0.0221 -0.3089
vn 0.5875 0.0242 -0.8089
vn 0.5874 0.0240 -0.8090
vn 0.9511 0.0257 -0.3077
vn 0.9508 0.0256 -0.3089
vn -0.0005 0.0165 0.9999
vn -0.0013 0.0173 0.9999
vn -0.5879 0.0193 0.8087
vn -0.5876 0.0188 0.8090
vn -0.5870 0.0220 -0.8093
vn -0.5873 0.0217 -0.8091
vn -0.0013 0.0260 -0.9997
vn 0.0004 0.0265 -0.9996
vn 0.9501 0.0404 0.3093
vn 0.9504 0.0308 0.3095
vn 0.5863 0.0287 0.8096
vn 0.5869 0.0339 0.8089
vn -0.5862 0.0771 -0.8065
vn -0.5872 0.0472 -0.8081
vn 0.0007 0.0552 -0.9985
vn 0.0003 0.0879 -0.9961
vn 0.0001 0.0232 0.9997
vn -0.0000 0.0211 0.9998
vn -0.5856 0.0290 0.8101
vn -0.5865 0.0373 0.8091
vn 0.5865 0.0737 -0.8066
vn 0.5875 0.0470 -0.8078
vn 0.9511 0.0448 -0.3055
vn 0.9495 0.0651 -0.3068
vn -0.9499 0.0459 0.3093
vn -0.9503 0.0311 0.3097
vn -0.9510 0.0452 -0.3059
vn -0.9491 0.0706 -0.3068
vn 0.9508 0.0206 0.3090
vn 0.9506 0.0211 0.3098
vn 0.5848 0.0215 0.8109
vn 0.5872 0.0209 0.8092
vn -0.3288 0.3474 -0.8782
vn -0.3362 0.3553 -0.8722
vn -0.0071 0.3688 -0.9295
vn -0.0056 0.3605 -0.9327
vn 0.3150 0.3699 -0.8740
vn 0.3247 0.3782 -0.8669
vn 0.6382 0.4186 -0.6462
vn 0.6456 0.4104 -0.6441
vn 0.8631 0.4177 0.2840
vn 0.8546 0.4261 0.2967
vn 0.6340 0.4701 0.6140
vn 0.6366 0.4621 0.6174
vn -0.3105 0.4187 0.8534
vn -0.3218 0.4261 0.8455
vn -0.6544 0.4266 0.6243
vn -0.6500 0.4191 0.6339
vn -0.8840 0.3362 -0.3247
vn -0.8768 0.3442 -0.3357
vn -0.6608 0.3717 -0.6521
vn -0.6621 0.3632 -0.6555
vn 0.8661 0.3942 -0.3075
vn 0.8574 0.4019 -0.3214
vn 0.9110 0.4122 -0.0132
vn 0.9146 0.4042 -0.0107
vn 0.3008 0.4382 0.8471
vn 0.3131 0.4460 0.8385
vn -0.0055 0.4392 0.8984
vn -0.0034 0.4315 0.9021
vn -0.8794 0.3632 0.3079
vn -0.8723 0.3717 0.3177
vn -0.9342 0.3566 -0.0100
vn -0.9374 0.3482 -0.0071
vn 0.3836 0.5359 -0.7521
vn -0.0576 0.5579 -0.8279
vn -0.0547 0.5627 -0.8249
vn 0.3787 0.5386 -0.7526
vn 0.7773 0.4890 0.3959
vn 0.8525 0.5227 0.0094
vn 0.8492 0.5277 0.0169
vn 0.7788 0.4920 0.3890
vn -0.4285 0.4655 0.7744
vn -0.0273 0.5039 0.8633
vn -0.0220 0.5089 0.8605
vn -0.4181 0.4689 0.7780
vn -0.7933 0.4609 -0.3978
vn -0.8751 0.4835 -0.0202
vn -0.8726 0.4883 -0.0104
vn -0.7953 0.4635 -0.3907
vn 0.7828 0.5042 -0.3646
vn 0.6197 0.5267 -0.5819
vn 0.6220 0.5304 -0.5760
vn 0.7840 0.5067 -0.3586
vn 0.3799 0.4811 0.7901
vn 0.6079 0.4898 0.6250
vn 0.6071 0.4941 0.6223
vn 0.3751 0.4838 0.7907
vn -0.8093 0.4568 0.3694
vn -0.6508 0.4650 0.6002
vn -0.6442 0.4693 0.6039
vn -0.8095 0.4594 0.3656
vn -0.4752 0.4930 -0.7287
vn -0.6574 0.4755 -0.5846
vn -0.6555 0.4793 -0.5836
vn -0.4629 0.4971 -0.7339
vn 0.8449 0.4743 -0.2473
vn 0.6246 0.5035 -0.5970
vn 0.6173 0.5083 -0.6005
vn 0.8396 0.4777 -0.2586
vn 0.2761 0.4729 0.8368
vn 0.6093 0.5029 0.6131
vn 0.6075 0.5075 0.6110
vn 0.2829 0.4759 0.8327
vn -0.8425 0.4618 0.2773
vn -0.6119 0.4958 0.6162
vn -0.6146 0.5006 0.6096
vn -0.8392 0.4649 0.2821
vn -0.2593 0.4627 -0.8478
vn -0.6110 0.4918 -0.6203
vn -0.6116 0.4969 -0.6157
vn -0.2690 0.4661 -0.8429
vn 0.2846 0.4683 -0.8365
vn 0.0147 0.4682 -0.8835
vn 0.0088 0.4725 -0.8813
vn 0.2888 0.4714 -0.8333
vn 0.8343 0.4744 0.2808
vn 0.8786 0.4771 0.0183
vn 0.8765 0.4813 0.0129
vn 0.8309 0.4774 0.2859
vn -0.2703 0.4698 0.8404
vn 0.0044 0.4751 0.8799
vn 0.0008 0.4794 0.8776
vn -0.2802 0.4731 0.8353
vn -0.8452 0.4584 -0.2749
vn -0.8862 0.4632 0.0016
vn -0.8839 0.4676 -0.0015
vn -0.8408 0.4617 -0.2825
vn -0.0128 0.4127 -0.9108
vn -0.3823 0.3712 -0.8462
vn -0.0106 0.4126 -0.9109
vn 0.6438 0.3912 -0.6576
vn 0.3609 0.3711 -0.8556
vn 0.6356 0.4031 -0.6584
vn 0.6502 0.3542 0.6722
vn 0.8633 0.3327 0.3795
vn 0.6476 0.3658 0.6684
vn -0.6701 0.3465 0.6565
vn -0.3837 0.3187 0.8667
vn -0.6597 0.3783 0.6494
vn -0.6605 0.3835 -0.6455
vn -0.8567 0.3554 -0.3738
vn -0.6438 0.4144 -0.6432
vn 0.9236 0.3833 0.0000
vn 0.8542 0.3554 -0.3796
vn 0.9224 0.3862 -0.0018
vn -0.0159 0.3524 0.9357
vn 0.3563 0.3180 0.8786
vn -0.0140 0.3603 0.9327
vn -0.9274 0.3741 -0.0014
vn -0.8673 0.3327 0.3703
vn -0.9164 0.4002 -0.0040
vn -0.8463 0.3594 0.3932
vn -0.6615 0.3634 0.6560
vn 0.3777 0.3723 0.8478
vn 0.6430 0.3836 0.6629
vn 0.8247 0.4062 -0.3936
vn 0.6448 0.4178 -0.6401
vn -0.8382 0.3823 -0.3890
vn -0.9198 0.3923 0.0025
vn -0.3978 0.3586 0.8445
vn -0.0110 0.3859 0.9225
vn 0.8317 0.3841 0.4010
vn 0.9079 0.4192 0.0040
vn 0.3971 0.4213 -0.8154
vn -0.0079 0.4456 -0.8952
vn -0.4114 0.4077 -0.8152
vn -0.6600 0.3986 -0.6369
vn -0.0034 0.4499 -0.8931
vn -0.4394 0.4081 -0.8002
vn -0.6605 0.3994 -0.6358
vn 0.6468 0.4205 -0.6363
vn 0.4294 0.4242 -0.7973
vn 0.6412 0.3864 0.6630
vn 0.8171 0.3869 0.4274
vn 0.9057 0.4238 0.0069
vn -0.6583 0.3644 0.6586
vn -0.4204 0.3606 0.8326
vn -0.0069 0.3900 0.9208
vn -0.8261 0.3841 -0.4122
vn -0.9195 0.3930 0.0053
vn 0.8112 0.4103 -0.4166
vn 0.4047 0.3767 0.8333
vn -0.8332 0.3599 0.4198
vn 0.0102 0.9996 0.0276
vn -0.6119 0.4861 -0.6240
vn -0.8534 0.4554 -0.2535
vn -0.8876 0.4606 0.0080
vn -0.6048 0.4905 0.6274
vn -0.2454 0.4671 0.8495
vn 0.0105 0.4726 0.8812
vn 0.6109 0.4976 0.6158
vn 0.8412 0.4718 0.2642
vn 0.8798 0.4747 0.0249
vn 0.6362 0.4982 -0.5891
vn 0.2703 0.4654 -0.8428
vn 0.0224 0.4657 -0.8847
vn -0.2355 0.4598 -0.8562
vn -0.8488 0.4589 0.2624
vn 0.2579 0.4701 0.8441
vn 0.8537 0.4714 -0.2214
vn -0.0620 0.5528 -0.8310
vn -0.4942 0.4886 -0.7191
vn -0.6559 0.4734 -0.5880
vn -0.8778 0.4781 -0.0305
vn -0.8044 0.4545 0.3826
vn -0.6586 0.4623 0.5937
vn -0.0374 0.4980 0.8664
vn 0.3952 0.4788 0.7840
vn 0.6084 0.4872 0.6265
vn 0.8560 0.5170 0.0002
vn 0.7752 0.5027 -0.3826
vn 0.6100 0.5250 -0.5935
vn -0.7854 0.4591 -0.4151
vn -0.4520 0.4623 0.7629
vn 0.7698 0.4862 0.4137
vn 0.3978 0.5332 -0.7466
vn -0.8908 0.3538 0.2852
vn -0.9394 0.3427 -0.0033
vn -0.6475 0.4104 0.6422
vn 0.2733 0.4303 0.8603
vn -0.0025 0.4267 0.9044
vn 0.6368 0.4532 0.6238
vn 0.8783 0.3872 -0.2804
vn 0.9169 0.3991 -0.0077
vn 0.6506 0.4010 -0.6449
vn -0.8956 0.3287 -0.2997
vn -0.6652 0.3534 -0.6578
vn -0.2841 0.4127 0.8654
vn 0.8751 0.4087 0.2590
vn 0.2901 0.3611 -0.8863
vn -0.0049 0.3552 -0.9348
vn -0.3063 0.3404 -0.8890
vn -0.9509 0.0467 0.3060
vn -0.9457 0.0740 -0.3166
vn -0.5929 0.0353 0.8045
vn 0.5844 0.0780 -0.8077
vn 0.9459 0.0669 -0.3175
vn -0.0011 0.0930 -0.9957
vn -0.0003 0.0200 0.9998
vn 0.5915 0.0308 0.8057
vn -0.5846 0.0824 -0.8071
vn 0.9511 0.0396 0.3063
usemtl None
s 1
f 251/1/1 198/2/2 3/3/3 127/4/4
f 250/5/5 166/6/6 7/7/7 114/8/8
f 249/9/9 98/10/10 2/11/11 145/12/12
f 248/13/13 133/14/14 6/15/15 109/16/16
f 247/17/17 184/18/18 9/19/19 194/20/20
f 246/21/21 195/22/22 5/23/23 118/24/24
f 245/25/25 173/26/26 1/27/27 149/28/28
f 244/29/29 99/30/30 8/31/31 164/32/32
f 243/33/33 135/34/34 4/35/35 156/36/36
f 242/37/37 104/38/38 10/39/39 202/40/40
f 241/41/41 136/42/42 18/43/43 190/44/44
f 240/45/45 130/46/46 20/47/47 185/48/48
f 239/49/49 105/50/50 24/51/51 172/52/52
f 238/53/53 139/54/54 28/55/55 206/56/56
f 237/57/57 137/58/58 17/59/59 162/60/60
f 236/61/61 178/62/62 23/63/63 158/64/64
f 235/65/65 155/66/66 27/67/67 81/68/68
f 234/69/69 200/70/70 31/71/71 94/72/72
f 233/73/73 131/74/74 34/75/75 181/76/76
f 232/77/77 95/78/78 38/79/79 148/80/80
f 231/81/81 191/82/82 42/83/83 110/84/84
f 230/85/85 201/86/86 46/87/87 123/88/88
f 229/89/89 128/90/90 35/91/91 92/92/92
f 228/93/93 170/94/94 39/95/95 196/96/96
f 227/97/97 143/98/98 43/99/99 157/100/100
f 226/101/101 101/102/102 47/103/103 124/104/104
f 225/105/105 177/106/106 50/107/107 96/108/108
f 224/109/109 142/110/110 54/111/111 193/112/112
f 223/113/113 199/114/114 58/115/115 122/116/116
f 222/117/117 208/118/118 62/119/119 134/120/120
f 221/121/121 108/122/122 63/123/123 169/124/124
f 220/125/125 88/126/126 51/127/127 144/128/128
f 219/129/129 82/130/130 55/131/131 116/132/132
f 218/133/133 189/134/134 59/135/135 167/136/136
f 64/137/137 152/138/138 89/139/139
f 67/140/140 163/141/141 186/142/142
f 68/143/143 146/144/144 87/145/145
f 70/146/146 125/147/147 205/148/148
f 65/149/149 204/150/150 117/151/151
f 69/152/152 151/153/153 154/154/154
f 71/155/155 126/156/156 141/157/157
f 72/158/158 203/159/159 90/160/160
f 217/161/161 180/162/162 70/146/146 203/159/159
f 216/163/163 86/164/164 68/143/143 126/156/156
f 215/165/165 171/166/166 67/140/140 151/153/153
f 214/167/167 107/168/168 72/158/158 204/150/150
f 213/169/169 113/170/170 71/155/155 125/147/147
f 212/171/171 132/172/172 69/152/152 146/144/144
f 211/173/173 159/174/174 64/137/137 163/141/141
f 210/175/175 119/176/176 65/149/149 152/138/138
f 159/174/174 210/175/175 152/138/138 64/137/137
f 80/177/177 182/178/178 210/175/175 159/174/174
f 182/178/178 79/179/179 119/176/176 210/175/175
f 171/166/166 211/173/173 163/141/141 67/140/140
f 78/180/180 183/181/181 211/173/173 171/166/166
f 183/181/181 80/177/177 159/174/174 211/173/173
f 86/164/164 212/171/171 146/144/144 68/143/143
f 76/182/182 121/183/183 212/171/171 86/164/164
f 121/183/183 77/184/184 132/172/172 212/171/171
f 180/162/162 213/169/169 125/147/147 70/146/146
f 74/185/185 112/186/186 213/169/169 180/162/162
f 112/186/186 75/187/187 113/170/170 213/169/169
f 119/176/176 214/167/167 204/150/150 65/149/149
f 79/179/179 85/188/188 214/167/167 119/176/176
f 85/188/188 73/189/189 107/168/168 214/167/167
f 132/172/172 215/165/165 151/153/153 69/152/152
f 77/184/184 188/190/190 215/165/165 132/172/172
f 188/190/190 78/180/180 171/166/166 215/165/165
f 113/170/170 216/163/163 126/156/156 71/155/155
f 75/187/187 150/191/191 216/163/163 113/170/170
f 150/191/191 76/182/182 86/164/164 216/163/163
f 107/168/168 217/161/161 203/159/159 72/158/158
f 73/189/189 175/192/192 217/161/161 107/168/168
f 175/192/192 74/185/185 180/162/162 217/161/161
f 90/160/160 205/148/148 66/193/193
f 90/160/160 203/159/159 205/148/148
f 203/159/159 70/146/146 205/148/148
f 141/157/157 87/145/145 66/193/193
f 141/157/157 126/156/156 87/145/145
f 126/156/156 68/143/143 87/145/145
f 154/154/154 186/142/142 66/193/193
f 154/154/154 151/153/153 186/142/142
f 151/153/153 67/140/140 186/142/142
f 117/151/151 90/160/160 66/193/193
f 117/151/151 204/150/150 90/160/160
f 204/150/150 72/158/158 90/160/160
f 205/148/148 141/157/157 66/193/193
f 205/148/148 125/147/147 141/157/157
f 125/147/147 71/155/155 141/157/157
f 87/145/145 154/154/154 66/193/193
f 87/145/145 146/144/144 154/154/154
f 146/144/144 69/152/152 154/154/154
f 186/142/142 89/139/139 66/193/193
f 186/142/142 163/141/141 89/139/139
f 163/141/141 64/137/137 89/139/139
f 89/139/139 117/151/151 66/193/193
f 89/139/139 152/138/138 117/151/151
f 152/138/138 65/149/149 117/151/151
f 208/118/118 218/133/133 167/136/136 62/119/119
f 61/194/194 197/195/195 218/133/133 208/118/118
f 197/195/195 56/196/196 189/134/134 218/133/133
f 199/114/114 219/129/129 116/132/132 58/115/115
f 57/197/197 93/198/198 219/129/129 199/114/114
f 93/198/198 52/199/199 82/130/130 219/129/129
f 142/110/110 220/125/125 144/128/128 54/111/111
f 53/200/200 97/201/201 220/125/125 142/110/110
f 97/201/201 48/202/202 88/126/126 220/125/125
f 177/106/106 221/121/121 169/124/124 50/107/107
f 49/203/203 129/204/204 221/121/121 177/106/106
f 129/204/204 60/205/205 108/122/122 221/121/121
f 108/122/122 222/117/117 134/120/120 63/123/123
f 60/205/205 115/206/206 222/117/117 108/122/122
f 115/206/206 61/194/194 208/118/118 222/117/117
f 189/134/134 223/113/113 122/116/116 59/135/135
f 56/196/196 207/207/207 223/113/113 189/134/134
f 207/207/207 57/197/197 199/114/114 223/113/113
f 82/130/130 224/109/109 193/112/112 55/131/131
f 52/199/199 91/208/208 224/109/109 82/130/130
f 91/208/208 53/200/200 142/110/110 224/109/109
f 88/126/126 225/105/105 96/108/108 51/127/127
f 48/202/202 140/209/209 225/105/105 88/126/126
f 140/209/209 49/203/203 177/106/106 225/105/105
f 131/74/74 226/101/101 124/104/104 34/75/75
f 33/210/210 209/211/211 226/101/101 131/74/74
f 209/211/211 44/212/212 101/102/102 226/101/101
f 201/86/86 227/97/97 157/100/100 46/87/87
f 45/213/213 153/214/214 227/97/97 201/86/86
f 153/214/214 40/215/215 143/98/98 227/97/97
f 191/82/82 228/93/93 196/96/96 42/83/83
f 41/216/216 179/217/217 228/93/93 191/82/82
f 179/217/217 36/218/218 170/94/94 228/93/93
f 95/78/78 229/89/89 92/92/92 38/79/79
f 37/219/219 138/220/220 229/89/89 95/78/78
f 138/220/220 32/221/221 128/90/90 229/89/89
f 101/102/102 230/85/85 123/88/88 47/103/103
f 44/212/212 103/222/222 230/85/85 101/102/102
f 103/222/222 45/213/213 201/86/86 230/85/85
f 143/98/98 231/81/81 110/84/84 43/99/99
f 40/215/215 165/223/223 231/81/81 143/98/98
f 165/223/223 41/216/216 191/82/82 231/81/81
f 170/94/94 232/77/77 148/80/80 39/95/95
f 36/218/218 174/224/224 232/77/77 170/94/94
f 174/224/224 37/219/219 95/78/78 232/77/77
f 128/90/90 233/73/73 181/76/76 35/91/91
f 32/221/221 111/225/225 233/73/73 128/90/90
f 111/225/225 33/210/210 131/74/74 233/73/73
f 168/226/226 234/69/69 94/72/72 30/227/227
f 29/228/228 206/56/56 234/69/69 168/226/226
f 206/56/56 28/55/55 200/70/70 234/69/69
f 161/229/229 235/65/65 81/68/68 26/230/230
f 25/231/231 172/52/52 235/65/65 161/229/229
f 172/52/52 24/51/51 155/66/66 235/65/65
f 100/232/232 236/61/61 158/64/64 22/233/233
f 21/234/234 185/48/48 236/61/61 100/232/232
f 185/48/48 20/47/47 178/62/62 236/61/61
f 102/235/235 237/57/57 162/60/60 16/236/236
f 30/227/227 94/72/72 237/57/57 102/235/235
f 94/72/72 31/71/71 137/58/58 237/57/57
f 83/237/237 238/53/53 206/56/56 29/228/228
f 26/230/230 81/68/68 238/53/53 83/237/237
f 81/68/68 27/67/67 139/54/54 238/53/53
f 160/238/238 239/49/49 172/52/52 25/231/231
f 22/233/233 158/64/64 239/49/49 160/238/238
f 158/64/64 23/63/63 105/50/50 239/49/49
f 176/239/239 240/45/45 185/48/48 21/234/234
f 19/240/240 190/44/44 240/45/45 176/239/239
f 190/44/44 18/43/43 130/46/46 240/45/45
f 106/241/241 241/41/41 190/44/44 19/240/240
f 16/236/236 162/60/60 241/41/41 106/241/241
f 162/60/60 17/59/59 136/42/42 241/41/41
f 184/18/18 242/37/37 202/40/40 9/19/19
f 8/31/31 114/8/8 242/37/37 184/18/18
f 114/8/8 7/7/7 104/38/38 242/37/37
f 147/242/242 243/33/33 156/36/36 13/243/243
f 15/244/244 149/28/28 243/33/33 147/242/242
f 149/28/28 1/27/27 135/34/34 243/33/33
f 192/245/245 244/29/29 164/32/32 11/246/246
f 14/247/247 118/248/24 244/29/29 192/245/245
f 118/248/24 5/249/23 99/30/30 244/29/29
f 120/250/248 245/25/25 149/28/28 15/244/244
f 12/251/249 194/20/20 245/25/25 120/250/248
f 194/20/20 9/19/19 173/26/26 245/25/25
f 84/252/250 246/21/21 118/24/24 14/253/247
f 13/243/243 156/36/36 246/21/21 84/252/250
f 156/36/36 4/35/35 195/22/22 246/21/21
f 187/254/251 247/17/17 194/20/20 12/251/249
f 11/246/246 164/32/32 247/17/17 187/254/251
f 164/32/32 8/31/31 184/18/18 247/17/17
f 195/22/22 248/13/13 109/16/16 5/23/23
f 4/35/35 127/4/4 248/13/13 195/22/22
f 127/4/4 3/3/3 133/14/14 248/13/13
f 173/26/26 249/9/9 145/12/12 1/27/27
f 9/19/19 202/40/40 249/9/9 173/26/26
f 202/40/40 10/39/39 98/10/10 249/9/9
f 99/30/30 250/5/5 114/8/8 8/31/31
f 5/249/23 109/255/16 250/5/5 99/30/30
f 109/255/16 6/256/15 166/6/6 250/5/5
f 135/34/34 251/1/1 127/4/4 4/35/35
f 1/27/27 145/12/12 251/1/1 135/34/34
f 145/12/12 2/11/11 198/2/2 251/1/1
