# Blender v2.78 (sub 0) OBJ File: ''
# www.blender.org
mtllib Pine_Tree_OneSided_l_03.mtl
o Pine_Tree_OneSided_l_03
v 0.000002 4.289464 2.500116
v 0.000002 7.587575 0.818540
v -0.551688 7.641729 0.590023
v -1.765570 4.716429 1.768792
v 1.765573 4.717342 -1.762351
v 0.551691 7.644115 -0.513356
v 0.780208 7.589244 0.038334
v 2.496897 4.289955 0.003221
v 0.000001 4.289690 -2.493675
v 0.000001 7.590135 -0.741873
v 0.551691 7.642306 0.590023
v 1.765573 4.717182 1.768792
v -1.765570 4.716590 -1.762350
v -0.551688 7.643539 -0.513356
v -2.496894 4.289200 0.003221
v -0.780205 7.588465 0.038334
v 1.716059 6.056055 1.716058
v 0.510155 9.682590 0.510155
v 0.022969 9.981770 0.706817
v 0.001931 6.586559 2.382460
v 0.001931 6.586722 -2.378598
v 0.022968 9.983591 -0.660881
v 0.510155 9.683834 -0.464219
v 1.716059 6.056165 -1.712197
v -1.712197 6.055049 -1.712197
v -0.464218 9.684391 -0.464219
v 0.706817 9.982287 0.022968
v 2.382461 6.587580 0.001931
v -2.378599 6.585702 0.001931
v -0.660880 9.983072 0.022968
v -1.712197 6.054938 1.716058
v -0.464218 9.683146 0.510155
v 2.267976 8.255468 0.000001
v 0.618364 12.556915 0.000002
v 0.429321 12.799770 0.402690
v 1.470837 8.705209 1.468599
v -1.466359 8.703406 -1.468596
v -0.376057 12.800565 -0.402687
v 0.026632 12.557464 -0.591730
v 0.002238 8.254209 -2.265736
v -2.263499 8.252951 0.000001
v -0.565099 12.558015 0.000002
v 0.429321 12.799770 -0.402687
v 1.470837 8.705209 -1.468596
v -1.466359 8.703406 1.468599
v -0.376057 12.800564 0.402690
v 0.002239 8.254209 2.265738
v 0.026632 12.557466 0.591733
v 1.993418 10.561027 0.000002
v 0.584320 14.084732 0.000002
v 0.391980 14.355228 0.366126
v 1.165972 11.121106 1.163799
v -1.161625 11.119085 -1.163797
v -0.340267 14.356036 -0.366122
v 0.025857 14.085272 -0.558461
v 0.002173 10.559431 -1.991243
v -1.989072 10.557836 0.000002
v -0.532607 14.085811 0.000002
v 0.391980 14.355228 -0.366122
v 1.165972 11.121105 -1.163797
v -1.161625 11.119085 1.163799
v -0.340267 14.356036 0.366126
v 0.002173 10.559431 1.991246
v 0.025857 14.085272 0.558465
v 1.055678 14.971039 0.000002
v 0.297285 17.161428 0.000003
v 0.207961 17.365156 0.194945
v 0.695317 15.342159 0.694224
v -0.693127 15.340318 -0.694220
v -0.181925 17.365080 -0.194940
v 0.013018 17.161367 -0.284265
v 0.001095 14.969680 -1.054581
v -1.053489 14.968319 0.000002
v -0.271250 17.161308 0.000003
v 0.207961 17.365158 -0.194940
v 0.695317 15.342159 -0.694220
v -0.693127 15.340318 0.694224
v -0.181925 17.365080 0.194945
v 0.001095 14.969680 1.054585
v 0.013018 17.161367 0.284270
v 0.323151 17.784946 0.000003
v 0.009011 18.725288 0.000003
v 0.228702 17.854477 0.228021
v -0.227335 17.853748 -0.228016
v 0.000683 17.784439 -0.322465
v -0.321783 17.783928 0.000003
v 0.228702 17.854473 -0.228016
v -0.227335 17.853748 0.228021
v 0.000683 17.784439 0.322470
v 0.000001 16.605736 -0.697257
v -0.493035 16.749527 -0.493034
v -0.697257 16.604700 0.000003
v -0.493035 16.749527 0.493038
v 0.000001 16.605734 0.697261
v 0.493038 16.751003 0.493038
v 0.493038 16.751003 -0.493034
v 0.697260 16.606770 0.000003
v 1.422706 12.961852 0.000002
v 0.371365 15.827323 0.000003
v 0.264245 15.972484 0.248523
v 0.981309 13.223792 0.979989
v -0.978664 13.221605 -0.979984
v -0.232796 15.972507 -0.248519
v 0.015724 15.827338 -0.355638
v 0.001322 12.960308 -1.421382
v -1.420062 12.958762 0.000002
v -0.339916 15.827352 0.000003
v 0.264245 15.972484 -0.248519
v 0.981309 13.223793 -0.979984
v -0.978664 13.221606 0.979988
v -0.232796 15.972507 0.248523
v 0.001322 12.960306 1.421386
v 0.015724 15.827338 0.355642
v -0.283715 0.293792 -0.017889
v -0.182264 3.848300 0.028199
v 0.008957 3.784715 -0.211096
v -0.055451 0.285445 -0.301324
v -0.108042 8.340843 -0.041231
v 0.041551 8.457287 -0.219177
v 0.284478 0.291843 0.189760
v 0.252169 3.842286 0.213491
v -0.050907 3.843835 0.294780
v -0.081455 0.292091 0.289935
v 0.177480 8.412528 0.109562
v 0.006390 8.408065 0.154965
v 0.268239 3.878412 -0.092233
v 0.278255 0.295794 -0.168137
v 0.211141 8.480165 -0.125541
v 0.629533 14.609590 -0.621007
v 0.144979 3.829915 -0.168860
v -0.143509 6.249569 -0.005763
v -0.919687 15.154258 0.360260
v -0.757736 8.478783 -1.967126
v 2.152244 6.321862 0.905284
v -1.172404 6.193581 -1.151628
v 0.134602 8.478720 -0.189895
v -0.070479 1.885001 0.301652
v 0.527971 17.143410 0.000003
v 0.455802 16.369818 0.448747
v 0.014015 12.299017 1.297547
v -0.132401 3.849291 0.171692
v -0.612486 14.608494 -0.621007
v 0.905285 6.321449 -2.148382
v 0.328025 15.899897 0.128496
v -0.690863 7.615057 0.324499
v -1.658031 5.925315 0.020777
v 0.095509 8.411208 0.150438
v 0.373332 17.262861 0.373333
v 0.144218 15.899910 0.312303
v 0.921877 15.156660 0.360260
v -0.929419 10.771437 -0.943853
v 0.927568 4.503341 2.242564
v -0.373329 17.261721 -0.373328
v 0.504956 14.219950 0.190025
v 2.152244 6.321917 -0.901423
v -2.148382 6.320276 0.905284
v 0.012450 8.308477 -1.537005
v 2.239345 4.503663 -0.924346
v -0.624831 16.677071 -0.258811
v 0.014435 10.386383 -1.449839
v -0.511461 13.090928 -1.262837
v -0.229370 9.834040 -0.583662
v 0.258815 16.678387 -0.624830
v -1.964889 8.478121 0.759976
v 1.126866 7.846689 -1.101967
v -1.261517 13.090115 0.512785
v 0.629533 14.609590 0.621012
v 0.179013 18.308399 0.000003
v 2.239345 4.503583 0.930787
v 0.144218 15.899910 -0.312298
v 1.172407 6.194258 -1.151629
v 0.000001 17.142611 0.527971
v -0.453243 14.220955 -0.190021
v 0.958290 10.771947 0.943856
v 0.286167 7.617188 -0.652531
v 1.264162 13.092891 0.512786
v 0.113994 17.263262 -0.248063
v -1.664377 10.838386 0.590008
v 1.658034 5.926084 0.020777
v 0.686029 16.050091 0.000003
v 0.012450 8.307472 1.561904
v -0.359163 15.154978 0.920784
v -0.919687 15.154258 -0.360255
v 1.969366 8.480396 0.759976
v 0.278225 3.864136 0.061777
v 0.215880 14.220238 0.479101
v 0.905285 6.321313 2.152243
v -0.927565 4.503121 -2.236122
v -0.087958 17.263226 -0.248063
v -0.757736 8.478783 1.967128
v -1.172404 6.192584 1.193183
v -0.511461 13.090928 1.262841
v 1.668725 10.841141 -0.590005
v 0.592181 10.840286 -1.666549
v 0.762214 8.479734 1.967128
v 1.464276 10.386743 0.000002
v -0.583662 9.833768 -0.229370
v 0.128034 18.331566 -0.123071
v 0.113202 17.874880 -0.270654
v -0.587833 10.839241 -1.666549
v -0.111017 17.874521 -0.270654
v 0.361352 15.155941 0.920784
v 1.126866 7.846004 1.126865
v -0.927565 4.502927 2.242564
v 0.027761 6.279914 -0.214645
v -0.045467 8.394567 -0.142353
v -0.587833 10.839241 1.666552
v -0.064014 8.368278 0.066161
v 0.240642 6.340156 -0.107926
v -0.098688 3.813265 -0.103718
v -0.235048 17.263197 0.100979
v 0.361352 15.155941 -0.920780
v -1.964889 8.478121 -0.759973
v -0.901423 6.320743 2.152243
v 1.561905 8.308254 0.012449
v -0.258813 16.677610 0.624834
v 0.624834 16.678932 -0.258811
v 0.113202 17.874880 0.270659
v 0.004961 18.308121 -0.174049
v -0.754713 12.760896 -0.768727
v 0.541152 12.678313 -0.208513
v 0.104081 3.840940 0.272250
v 0.000002 5.924994 1.678809
v 0.207890 8.446115 -0.005773
v 0.213751 6.284612 0.163179
v 0.004961 18.308121 0.174055
v 0.261084 17.263290 -0.100973
v 0.235146 12.678603 -0.514519
v -0.181883 12.679028 -0.514519
v -2.239342 4.502881 -0.924345
v 0.908373 14.383153 0.000002
v 0.271750 17.875130 -0.112107
v 0.455802 16.369818 -0.448743
v 0.014015 12.299017 -1.297544
v -1.261517 13.090115 -0.512781
v -0.901423 6.320879 -2.148382
v -2.239342 4.502800 0.930787
v 0.629599 9.832403 0.275307
v -0.026191 1.848591 -0.261472
v -0.209029 0.292942 0.153024
v 0.629599 9.833055 -0.229370
v 0.275307 9.833746 -0.583662
v -0.373329 17.261721 0.373333
v -1.101966 7.846410 -1.101967
v 0.121025 0.290619 -0.262970
v 0.782744 12.761503 0.768730
v 0.927568 4.503535 -2.236123
v -0.193324 0.289619 -0.179086
v 0.286167 7.614891 0.729198
v -0.112769 15.899925 -0.312298
v -0.583662 9.833117 0.275307
v -0.296576 15.899936 0.128496
v 0.690866 7.615768 0.324499
v 0.690866 7.616719 -0.247832
v 0.000001 17.142611 -0.527967
v 0.271750 17.875130 0.112113
v 1.668725 10.841141 0.590008
v -1.537005 8.307695 0.012449
v 0.958290 10.771947 -0.943853
v 0.312322 0.293818 0.012215
v 0.128034 18.331568 0.123076
v -0.487888 12.679318 0.208516
v -1.101966 7.845725 1.126865
v -0.671917 16.048649 0.000003
v 0.592181 10.840286 1.666552
v 1.311561 12.299555 0.000002
v -0.286164 7.616887 -0.652531
v 0.111117 0.291967 0.269161
v 0.514106 13.092079 1.262841
v 0.514106 13.092079 -1.262837
v -0.235048 17.263197 -0.100973
v 0.541152 12.678313 0.208516
v 0.328025 15.899897 -0.128491
v -0.269564 17.874273 -0.112107
v 0.113994 17.263262 0.248069
v -0.087958 17.263226 0.248069
v 0.007056 16.049370 0.678975
v 0.782744 12.761503 -0.768727
v -0.020910 6.285482 0.225778
v -0.527968 17.141809 0.000003
v 0.261084 17.263290 0.100979
v -0.453243 14.220955 0.190025
v -0.181882 12.679028 0.514522
v 0.258815 16.678387 0.624834
v 0.921877 15.156660 -0.360255
v -1.664377 10.838386 -0.590005
v 1.172407 6.193262 1.193183
v 0.008523 14.382379 0.899852
v -0.441689 16.368849 0.448747
v 0.504956 14.219950 -0.190021
v -0.359163 15.154978 -0.920780
v -1.435405 10.386024 0.000002
v 0.275307 9.832131 0.629598
v -0.111017 17.874521 0.270659
v 0.215880 14.220238 -0.479097
v -0.164167 14.220668 -0.479097
v -0.241196 1.891667 0.006743
v -0.164167 14.220668 0.479101
v -0.487888 12.679318 -0.208513
v -0.612486 14.608494 0.621011
v 0.624834 16.678932 0.258816
v -0.269564 17.874273 0.112113
v -0.258813 16.677610 -0.624830
v -0.169091 18.307844 0.000003
v -1.283531 12.298479 0.000002
v -0.286164 7.614589 0.729198
v 0.008523 14.382379 -0.899848
v -0.929419 10.771437 0.943856
v 0.373332 17.262861 -0.373328
v -0.624831 16.677071 0.258816
v 0.000001 5.926404 -1.637255
v 0.278852 1.902984 -0.132286
v -0.112769 15.899925 0.312303
v 1.264162 13.092891 -0.512781
v 0.007056 16.049370 -0.678970
v -0.296576 15.899936 -0.128491
v -0.891326 14.381605 0.000002
v -0.118113 18.331173 -0.123071
v 0.235146 12.678603 0.514522
v 0.014435 10.386383 1.449841
v -2.148382 6.320331 -0.901423
v -0.690863 7.616010 -0.247832
v 0.275715 1.884431 0.207647
v -0.118113 18.331171 0.123076
v -0.441689 16.368849 -0.448743
v -0.754713 12.760896 0.768730
v 1.969366 8.480396 -0.759973
v 0.762214 8.479734 -1.967126
v -0.229370 9.832425 0.629598
v 0.241299 6.314191 0.029031
v 0.297902 1.895601 0.038781
v -0.095063 6.266821 0.118595
v -0.173662 1.889946 0.165675
v 0.140488 6.312959 -0.176459
v 0.133129 1.874963 -0.216066
v 0.099486 6.284329 0.210351
v 0.107946 1.883656 0.274700
v -0.068475 6.261434 -0.120894
v -0.148614 1.868508 -0.140804
v 0.329162 14.495995 0.787572
v -0.312115 14.495426 0.787572
v -0.779047 14.495026 0.320641
v 0.796094 14.496394 -0.320636
v 0.329162 14.495995 -0.787568
v -0.779047 14.495026 -0.320636
v -0.312115 14.495426 -0.787568
v 0.796094 14.496394 0.320641
v 0.466536 17.203159 0.193248
v -0.193244 17.202154 0.466537
v -0.466533 17.201740 -0.193242
v 0.466536 17.203159 -0.193242
v 0.193246 17.202745 -0.466532
v 0.193246 17.202745 0.466537
v -0.466533 17.201740 0.193248
v -0.193244 17.202154 -0.466532
v 0.237673 16.209602 0.584426
v -0.223560 16.209103 0.584426
v -0.577368 16.208727 0.230619
v 0.591480 16.209976 -0.230614
v 0.237673 16.209602 -0.584422
v -0.577368 16.208727 -0.230614
v -0.223560 16.209103 -0.584422
v 0.591480 16.209976 0.230619
v 0.404030 12.530261 1.072827
v -0.376000 12.529955 1.072827
v -1.058810 12.529671 0.390017
v 1.086841 12.530545 -0.390013
v 0.404030 12.530261 -1.072823
v -1.058810 12.529671 -0.390013
v -0.376000 12.529955 -1.072823
v 1.086841 12.530545 0.390017
v 0.498680 10.579169 1.240825
v -0.469809 10.578905 1.240825
v -1.226388 10.578720 0.484246
v 1.255259 10.579355 -0.484243
v 0.498680 10.579169 -1.240822
v -1.226388 10.578720 -0.484243
v -0.469810 10.578905 -1.240822
v 1.255259 10.579355 0.484246
v -0.565396 8.076584 1.390921
v -1.366022 8.076696 0.590296
v -1.366022 8.077049 -0.565397
v 1.390922 8.077133 0.590296
v 1.390922 8.077486 -0.565397
v -0.565397 8.077459 -1.366022
v 0.590296 8.077598 -1.366022
v 0.590296 8.076723 1.390921
v -1.465103 6.058929 0.627643
v -1.465103 6.059445 -0.586088
v -0.606865 6.060004 -1.444327
v 0.606868 6.059117 1.485881
v 1.465106 6.059676 0.627643
v 0.606867 6.060362 -1.444327
v 1.465106 6.060191 -0.586089
v -0.606864 6.058758 1.485881
vt 0.9553 0.4130
vt 0.9477 0.4295
vt 0.9430 0.4291
vt 0.9438 0.4096
vt 0.9528 0.4658
vt 0.9467 0.4484
vt 0.9514 0.4484
vt 0.9647 0.4635
vt 0.9294 0.4647
vt 0.9374 0.4480
vt 0.9421 0.4483
vt 0.9410 0.4682
vt 0.9681 0.4518
vt 0.9517 0.4437
vt 0.9520 0.4391
vt 0.9715 0.4402
vt 0.9692 0.4284
vt 0.9521 0.4345
vt 0.9523 0.4298
vt 0.9669 0.4165
vt 0.9154 0.4493
vt 0.9330 0.4429
vt 0.9328 0.4476
vt 0.9178 0.4613
vt 0.9166 0.4259
vt 0.9334 0.4336
vt 0.9331 0.4382
vt 0.9131 0.4374
vt 0.9319 0.4119
vt 0.9384 0.4290
vt 0.9337 0.4289
vt 0.9200 0.4143
vt 0.9585 0.4094
vt 0.9510 0.4269
vt 0.9461 0.4266
vt 0.9462 0.4061
vt 0.9576 0.4649
vt 0.9506 0.4467
vt 0.9555 0.4467
vt 0.9699 0.4620
vt 0.9330 0.4645
vt 0.9409 0.4466
vt 0.9458 0.4468
vt 0.9453 0.4677
vt 0.9732 0.4497
vt 0.9556 0.4418
vt 0.9558 0.4369
vt 0.9764 0.4374
vt 0.9735 0.4250
vt 0.9558 0.4320
vt 0.9558 0.4271
vt 0.9707 0.4126
vt 0.9178 0.4488
vt 0.9360 0.4414
vt 0.9360 0.4464
vt 0.9207 0.4612
vt 0.9182 0.4241
vt 0.9361 0.4316
vt 0.9360 0.4365
vt 0.9150 0.4363
vt 0.9338 0.4090
vt 0.9412 0.4266
vt 0.9363 0.4267
vt 0.9215 0.4118
vt 0.9484 0.4110
vt 0.9412 0.4263
vt 0.9371 0.4261
vt 0.9377 0.4078
vt 0.9462 0.4592
vt 0.9404 0.4429
vt 0.9445 0.4430
vt 0.9570 0.4570
vt 0.9247 0.4582
vt 0.9322 0.4426
vt 0.9363 0.4428
vt 0.9353 0.4613
vt 0.9600 0.4464
vt 0.9447 0.4389
vt 0.9448 0.4348
vt 0.9631 0.4358
vt 0.9610 0.4249
vt 0.9450 0.4307
vt 0.9452 0.4266
vt 0.9590 0.4140
vt 0.9119 0.4442
vt 0.9283 0.4381
vt 0.9281 0.4423
vt 0.9140 0.4552
vt 0.9129 0.4227
vt 0.9287 0.4299
vt 0.9285 0.4340
vt 0.9099 0.4333
vt 0.9269 0.4100
vt 0.9330 0.4259
vt 0.9289 0.4258
vt 0.9160 0.4121
vt 0.9484 0.4110
vt 0.9412 0.4263
vt 0.9371 0.4261
vt 0.9377 0.4078
vt 0.9462 0.4592
vt 0.9404 0.4429
vt 0.9445 0.4430
vt 0.9570 0.4570
vt 0.9247 0.4582
vt 0.9322 0.4426
vt 0.9363 0.4428
vt 0.9353 0.4613
vt 0.9600 0.4464
vt 0.9447 0.4389
vt 0.9448 0.4348
vt 0.9631 0.4358
vt 0.9610 0.4249
vt 0.9450 0.4307
vt 0.9452 0.4266
vt 0.9590 0.4140
vt 0.9119 0.4442
vt 0.9283 0.4381
vt 0.9281 0.4423
vt 0.9140 0.4552
vt 0.9129 0.4227
vt 0.9287 0.4299
vt 0.9285 0.4340
vt 0.9099 0.4333
vt 0.9269 0.4100
vt 0.9330 0.4259
vt 0.9289 0.4258
vt 0.9160 0.4121
vt 0.9484 0.4110
vt 0.9412 0.4263
vt 0.9371 0.4261
vt 0.9377 0.4078
vt 0.9462 0.4592
vt 0.9404 0.4429
vt 0.9445 0.4430
vt 0.9570 0.4570
vt 0.9247 0.4582
vt 0.9322 0.4426
vt 0.9363 0.4428
vt 0.9353 0.4613
vt 0.9600 0.4464
vt 0.9447 0.4389
vt 0.9448 0.4348
vt 0.9631 0.4358
vt 0.9610 0.4249
vt 0.9450 0.4307
vt 0.9452 0.4266
vt 0.9590 0.4140
vt 0.9119 0.4442
vt 0.9283 0.4381
vt 0.9281 0.4423
vt 0.9140 0.4552
vt 0.9129 0.4227
vt 0.9287 0.4299
vt 0.9285 0.4340
vt 0.9099 0.4333
vt 0.9269 0.4100
vt 0.9330 0.4259
vt 0.9289 0.4258
vt 0.9160 0.4121
vt 0.9727 0.4015
vt 0.9549 0.4138
vt 0.9555 0.3956
vt 0.9343 0.4799
vt 0.9394 0.4614
vt 0.9519 0.4755
vt 0.9000 0.4680
vt 0.9181 0.4554
vt 0.9172 0.4739
vt 0.9695 0.4711
vt 0.9571 0.4530
vt 0.9755 0.4539
vt 0.9814 0.4368
vt 0.9633 0.4317
vt 0.9771 0.4191
vt 0.8912 0.4327
vt 0.9096 0.4375
vt 0.8956 0.4503
vt 0.9031 0.3984
vt 0.9158 0.4162
vt 0.8972 0.4155
vt 0.9384 0.3896
vt 0.9337 0.4077
vt 0.9208 0.3940
vt 0.9519 0.4755
vt 0.9695 0.4711
vt 0.9695 0.4711
vt 0.9519 0.4755
vt 0.8956 0.4503
vt 0.9000 0.4680
vt 0.9000 0.4680
vt 0.8956 0.4503
vt 0.9208 0.3940
vt 0.9031 0.3984
vt 0.9031 0.3984
vt 0.9208 0.3940
vt 0.9755 0.4539
vt 0.9814 0.4368
vt 0.9814 0.4368
vt 0.9755 0.4539
vt 0.9771 0.4191
vt 0.9727 0.4015
vt 0.9727 0.4015
vt 0.9771 0.4191
vt 0.9172 0.4739
vt 0.9343 0.4799
vt 0.9343 0.4799
vt 0.9172 0.4739
vt 0.8972 0.4155
vt 0.8912 0.4327
vt 0.8912 0.4327
vt 0.8972 0.4155
vt 0.9555 0.3956
vt 0.9384 0.3896
vt 0.9384 0.3896
vt 0.9555 0.3956
vt 0.9484 0.4110
vt 0.9412 0.4263
vt 0.9371 0.4261
vt 0.9377 0.4078
vt 0.9462 0.4592
vt 0.9404 0.4429
vt 0.9445 0.4430
vt 0.9570 0.4570
vt 0.9247 0.4582
vt 0.9322 0.4426
vt 0.9363 0.4428
vt 0.9353 0.4613
vt 0.9600 0.4464
vt 0.9447 0.4389
vt 0.9448 0.4348
vt 0.9631 0.4358
vt 0.9610 0.4249
vt 0.9450 0.4307
vt 0.9452 0.4266
vt 0.9590 0.4140
vt 0.9119 0.4442
vt 0.9283 0.4381
vt 0.9281 0.4423
vt 0.9140 0.4552
vt 0.9129 0.4227
vt 0.9287 0.4299
vt 0.9285 0.4340
vt 0.9099 0.4333
vt 0.9269 0.4100
vt 0.9330 0.4259
vt 0.9289 0.4258
vt 0.9160 0.4121
vt 0.8048 0.9140
vt 0.8032 0.9391
vt 0.8010 0.9383
vt 0.8023 0.9136
vt 0.8016 0.9648
vt 0.8000 0.9905
vt 0.7982 0.9912
vt 0.7996 0.9647
vt 0.7894 0.9139
vt 0.7896 0.9391
vt 0.7872 0.9391
vt 0.7867 0.9139
vt 0.7900 0.9647
vt 0.7905 0.9904
vt 0.7893 0.9904
vt 0.7882 0.9648
vt 0.7998 0.9139
vt 0.7988 0.9390
vt 0.7966 0.9397
vt 0.7973 0.9142
vt 0.7978 0.9651
vt 0.7968 0.9912
vt 0.7953 0.9912
vt 0.7959 0.9654
vt 0.8100 0.9147
vt 0.8077 0.9398
vt 0.8055 0.9398
vt 0.8074 0.9145
vt 0.8056 0.9651
vt 0.8035 0.9904
vt 0.8018 0.9898
vt 0.8037 0.9648
vt 0.7947 0.9140
vt 0.7943 0.9394
vt 0.7920 0.9391
vt 0.7922 0.9139
vt 0.7939 0.9651
vt 0.7935 0.9907
vt 0.7917 0.9903
vt 0.7918 0.9647
vt 0.7951 0.8887
vt 0.7923 0.8887
vt 0.7980 0.8887
vt 0.8100 0.9399
vt 0.8076 0.9654
vt 0.8052 0.9910
vt 0.8123 0.8895
vt 0.8093 0.8892
vt 0.8152 0.8898
vt 0.8126 0.9148
vt 0.8008 0.8888
vt 0.8036 0.8888
vt 0.7893 0.8887
vt 0.7863 0.8887
vt 0.8065 0.8890
vt 0.9208 0.3940
vt 0.9031 0.3984
vt 0.9384 0.3896
vt 0.8972 0.4155
vt 0.8912 0.4327
vt 0.8956 0.4503
vt 0.9000 0.4680
vt 0.9771 0.4191
vt 0.9727 0.4015
vt 0.9814 0.4368
vt 0.9755 0.4539
vt 0.9695 0.4711
vt 0.9172 0.4739
vt 0.9343 0.4799
vt 0.9519 0.4755
vt 0.9555 0.3956
vt 0.9160 0.4121
vt 0.9289 0.4258
vt 0.9099 0.4333
vt 0.9285 0.4340
vt 0.9140 0.4552
vt 0.9281 0.4423
vt 0.9590 0.4140
vt 0.9452 0.4266
vt 0.9631 0.4358
vt 0.9448 0.4348
vt 0.9353 0.4613
vt 0.9363 0.4428
vt 0.9570 0.4570
vt 0.9445 0.4430
vt 0.9377 0.4078
vt 0.9371 0.4261
vt 0.9208 0.3940
vt 0.9031 0.3984
vt 0.9384 0.3896
vt 0.8972 0.4155
vt 0.8912 0.4327
vt 0.8956 0.4503
vt 0.9000 0.4680
vt 0.9771 0.4191
vt 0.9727 0.4015
vt 0.9814 0.4368
vt 0.9755 0.4539
vt 0.9695 0.4711
vt 0.9172 0.4739
vt 0.9343 0.4799
vt 0.9519 0.4755
vt 0.9555 0.3956
vt 0.9208 0.3940
vt 0.9031 0.3984
vt 0.9384 0.3896
vt 0.8972 0.4155
vt 0.8912 0.4327
vt 0.8956 0.4503
vt 0.9000 0.4680
vt 0.9771 0.4191
vt 0.9727 0.4015
vt 0.9814 0.4368
vt 0.9755 0.4539
vt 0.9695 0.4711
vt 0.9172 0.4739
vt 0.9343 0.4799
vt 0.9519 0.4755
vt 0.9555 0.3956
vt 0.9208 0.3940
vt 0.9031 0.3984
vt 0.9384 0.3896
vt 0.8972 0.4155
vt 0.8912 0.4327
vt 0.8956 0.4503
vt 0.9000 0.4680
vt 0.9771 0.4191
vt 0.9727 0.4015
vt 0.9814 0.4368
vt 0.9755 0.4539
vt 0.9695 0.4711
vt 0.9172 0.4739
vt 0.9343 0.4799
vt 0.9519 0.4755
vt 0.9555 0.3956
vt 0.9265 0.3913
vt 0.9066 0.3969
vt 0.9464 0.3857
vt 0.9003 0.4165
vt 0.8940 0.4362
vt 0.8996 0.4561
vt 0.9053 0.4760
vt 0.9913 0.4180
vt 0.9857 0.3982
vt 0.9969 0.4379
vt 0.9906 0.4576
vt 0.9844 0.4773
vt 0.9250 0.4823
vt 0.9447 0.4886
vt 0.9646 0.4829
vt 0.9661 0.3920
vt 0.9254 0.3949
vt 0.9063 0.3996
vt 0.9445 0.3901
vt 0.8997 0.4182
vt 0.8931 0.4367
vt 0.8979 0.4558
vt 0.9027 0.4749
vt 0.9863 0.4223
vt 0.9815 0.4032
vt 0.9911 0.4413
vt 0.9845 0.4599
vt 0.9780 0.4785
vt 0.9213 0.4815
vt 0.9399 0.4881
vt 0.9589 0.4833
vt 0.9630 0.3967
vn -0.2557 0.4617 0.8494
vn -0.2665 0.4663 0.8436
vn -0.6088 0.5059 0.6111
vn -0.6123 0.5002 0.6123
vn 0.8454 0.4711 -0.2517
vn 0.8395 0.4757 -0.2624
vn 0.8817 0.4717 0.0017
vn 0.8844 0.4667 0.0006
vn 0.2499 0.4762 -0.8431
vn 0.2614 0.4807 -0.8370
vn 0.6066 0.5164 -0.6044
vn 0.6079 0.5108 -0.6079
vn 0.8471 0.4668 0.2540
vn 0.8410 0.4713 0.2655
vn 0.6088 0.5059 0.6111
vn 0.6122 0.5002 0.6124
vn 0.2554 0.4617 0.8495
vn 0.2662 0.4663 0.8436
vn -0.0001 0.4645 0.8856
vn -0.0001 0.4593 0.8883
vn -0.2502 0.4762 -0.8430
vn -0.2617 0.4807 -0.8369
vn -0.0001 0.4789 -0.8779
vn -0.0001 0.4739 -0.8806
vn -0.8454 0.4711 -0.2516
vn -0.8396 0.4757 -0.2624
vn -0.6067 0.5164 -0.6044
vn -0.6081 0.5108 -0.6078
vn -0.8471 0.4668 0.2539
vn -0.8411 0.4713 0.2655
vn -0.8817 0.4717 0.0017
vn -0.8844 0.4667 0.0006
vn 0.4724 0.4179 0.7760
vn 0.4780 0.4183 0.7724
vn 0.0012 0.4630 0.8864
vn -0.0006 0.4548 0.8906
vn 0.4737 0.4251 -0.7713
vn 0.4800 0.4254 -0.7672
vn 0.6399 0.4276 -0.6386
vn 0.6398 0.4269 -0.6390
vn -0.4744 0.4296 -0.7684
vn -0.4805 0.4298 -0.7644
vn 0.0012 0.4717 -0.8818
vn -0.0006 0.4635 -0.8861
vn 0.7732 0.4224 -0.4730
vn 0.7696 0.4228 -0.4785
vn 0.8863 0.4630 0.0012
vn 0.8906 0.4548 -0.0004
vn 0.7759 0.4179 0.4726
vn 0.7722 0.4183 0.4783
vn 0.6410 0.4218 0.6412
vn 0.6413 0.4210 0.6415
vn -0.7686 0.4295 -0.4741
vn -0.7646 0.4298 -0.4803
vn -0.6374 0.4333 -0.6372
vn -0.6376 0.4327 -0.6374
vn -0.7713 0.4251 0.4737
vn -0.7672 0.4253 0.4801
vn -0.8818 0.4716 0.0012
vn -0.8862 0.4634 -0.0004
vn -0.4731 0.4223 0.7732
vn -0.4786 0.4227 0.7696
vn -0.6386 0.4275 0.6399
vn -0.6391 0.4269 0.6398
vn 0.8808 0.3405 0.3292
vn 0.8826 0.3403 0.3244
vn 0.6607 0.3577 0.6599
vn 0.6615 0.3521 0.6621
vn -0.3261 0.3465 -0.8795
vn -0.3208 0.3462 -0.8816
vn 0.0011 0.3604 -0.9328
vn 0.0006 0.3584 -0.9336
vn -0.8790 0.3492 -0.3247
vn -0.8809 0.3490 -0.3196
vn -0.6580 0.3646 -0.6589
vn -0.6603 0.3589 -0.6597
vn 0.3277 0.3432 -0.8802
vn 0.3232 0.3430 -0.8820
vn 0.6607 0.3577 -0.6599
vn 0.6615 0.3521 -0.6621
vn 0.8808 0.3405 -0.3292
vn 0.8826 0.3403 -0.3244
vn 0.9345 0.3560 0.0000
vn 0.9353 0.3540 0.0000
vn -0.8790 0.3492 0.3247
vn -0.8809 0.3490 0.3196
vn -0.9311 0.3648 0.0000
vn -0.9318 0.3629 0.0000
vn -0.3261 0.3465 0.8795
vn -0.3208 0.3462 0.8816
vn -0.6580 0.3646 0.6589
vn -0.6603 0.3589 0.6597
vn 0.3277 0.3432 0.8802
vn 0.3232 0.3430 0.8820
vn 0.0011 0.3604 0.9328
vn 0.0006 0.3584 0.9336
vn 0.8616 0.3398 0.3770
vn 0.8668 0.3372 0.3673
vn 0.6640 0.3453 0.6632
vn 0.6645 0.3396 0.6656
vn -0.3721 0.3473 -0.8608
vn -0.3618 0.3447 -0.8662
vn 0.0018 0.3706 -0.9288
vn 0.0012 0.3689 -0.9295
vn -0.8605 0.3502 -0.3701
vn -0.8657 0.3477 -0.3600
vn -0.6610 0.3538 -0.6618
vn -0.6634 0.3481 -0.6623
vn 0.3750 0.3428 -0.8613
vn 0.3655 0.3402 -0.8664
vn 0.6640 0.3453 -0.6632
vn 0.6645 0.3396 -0.6656
vn 0.8616 0.3398 -0.3770
vn 0.8668 0.3372 -0.3673
vn 0.9308 0.3655 -0.0000
vn 0.9315 0.3637 -0.0000
vn -0.8605 0.3502 0.3701
vn -0.8657 0.3477 0.3600
vn -0.9268 0.3757 0.0000
vn -0.9274 0.3741 -0.0000
vn -0.3721 0.3473 0.8608
vn -0.3618 0.3447 0.8662
vn -0.6610 0.3538 0.6618
vn -0.6634 0.3481 0.6623
vn 0.3750 0.3428 0.8613
vn 0.3655 0.3402 0.8664
vn 0.0018 0.3706 0.9288
vn 0.0012 0.3689 0.9295
vn 0.9165 0.3155 0.2458
vn 0.9181 0.3133 0.2429
vn 0.6639 0.3461 0.6629
vn 0.6642 0.3400 0.6658
vn -0.2417 0.3210 -0.9157
vn -0.2379 0.3188 -0.9175
vn 0.0005 0.3260 -0.9454
vn 0.0003 0.3260 -0.9454
vn -0.9153 0.3243 -0.2388
vn -0.9171 0.3220 -0.2351
vn -0.6611 0.3530 -0.6621
vn -0.6640 0.3468 -0.6624
vn 0.2429 0.3188 -0.9162
vn 0.2400 0.3165 -0.9177
vn 0.6639 0.3461 -0.6629
vn 0.6642 0.3400 -0.6658
vn 0.9165 0.3155 -0.2458
vn 0.9181 0.3133 -0.2429
vn 0.9468 0.3217 0.0000
vn 0.9469 0.3217 0.0000
vn -0.9153 0.3243 0.2388
vn -0.9171 0.3220 0.2351
vn -0.9439 0.3303 0.0000
vn -0.9438 0.3304 0.0000
vn -0.2417 0.3210 0.9157
vn -0.2379 0.3188 0.9175
vn -0.6611 0.3530 0.6621
vn -0.6640 0.3468 0.6624
vn 0.2429 0.3188 0.9162
vn 0.2400 0.3165 0.9177
vn 0.0005 0.3260 0.9454
vn 0.0003 0.3260 0.9454
vn 0.9562 0.2926 0.0000
vn 0.9455 0.3255 0.0000
vn 0.9136 0.2788 0.2959
vn -0.6716 0.3165 -0.6699
vn -0.6591 0.3633 -0.6584
vn -0.2938 0.2852 -0.9123
vn -0.9546 0.2980 0.0000
vn -0.9404 0.3400 0.0000
vn -0.9120 0.2884 -0.2918
vn -0.0008 0.2953 -0.9554
vn 0.0003 0.3328 -0.9430
vn 0.2940 0.2821 -0.9132
vn 0.6712 0.3111 -0.6729
vn 0.6613 0.3527 -0.6620
vn 0.9136 0.2788 -0.2960
vn -0.6716 0.3165 0.6699
vn -0.6591 0.3633 0.6584
vn -0.9120 0.2884 0.2918
vn -0.0008 0.2953 0.9554
vn 0.0003 0.3328 0.9430
vn -0.2938 0.2852 0.9123
vn 0.6712 0.3111 0.6729
vn 0.6613 0.3527 0.6620
vn 0.2939 0.2821 0.9132
vn -0.2857 0.3021 -0.9095
vn -0.0006 0.3050 -0.9524
vn -0.0006 0.3058 -0.9521
vn -0.2703 0.3025 -0.9140
vn -0.9096 0.3023 0.2850
vn -0.9523 0.3053 -0.0000
vn -0.9521 0.3056 -0.0000
vn -0.9142 0.3025 0.2696
vn 0.2849 0.3018 0.9098
vn -0.0006 0.3050 0.9524
vn -0.0006 0.3058 0.9521
vn 0.2693 0.3026 0.9143
vn 0.2849 0.3018 -0.9098
vn 0.6686 0.3239 -0.6694
vn 0.6689 0.3229 -0.6696
vn 0.2693 0.3026 -0.9143
vn 0.9097 0.3015 -0.2855
vn 0.9525 0.3046 -0.0000
vn 0.9521 0.3059 -0.0000
vn 0.9141 0.3027 -0.2699
vn -0.9096 0.3023 -0.2850
vn -0.6692 0.3247 -0.6684
vn -0.6696 0.3227 -0.6689
vn -0.9142 0.3025 -0.2696
vn -0.2857 0.3021 0.9095
vn -0.6692 0.3247 0.6684
vn -0.6696 0.3227 0.6689
vn -0.2703 0.3025 0.9140
vn 0.9097 0.3015 0.2855
vn 0.6686 0.3239 0.6694
vn 0.6689 0.3229 0.6696
vn 0.9141 0.3027 0.2699
vn 0.8988 0.3357 0.2820
vn 0.8988 0.3364 0.2811
vn 0.6592 0.3632 0.6584
vn 0.6600 0.3575 0.6607
vn -0.2798 0.3407 -0.8976
vn -0.2783 0.3414 -0.8978
vn 0.0006 0.3477 -0.9376
vn 0.0001 0.3459 -0.9383
vn -0.8970 0.3434 -0.2783
vn -0.8972 0.3441 -0.2769
vn -0.6568 0.3691 -0.6576
vn 0.2805 0.3384 -0.8982
vn 0.2797 0.3390 -0.8982
vn 0.6592 0.3632 -0.6584
vn 0.6600 0.3575 -0.6607
vn 0.8988 0.3357 -0.2820
vn 0.8988 0.3364 -0.2811
vn 0.9390 0.3438 0.0000
vn 0.9397 0.3420 0.0000
vn -0.8970 0.3434 0.2783
vn -0.8972 0.3441 0.2769
vn -0.9362 0.3516 -0.0000
vn -0.9368 0.3499 -0.0000
vn -0.2798 0.3407 0.8976
vn -0.2783 0.3414 0.8978
vn -0.6568 0.3691 0.6576
vn 0.2805 0.3384 0.8982
vn 0.2797 0.3390 0.8982
vn 0.0006 0.3477 0.9376
vn 0.0001 0.3459 0.9383
vn -0.7776 0.0330 -0.6279
vn -0.7769 0.0185 -0.6294
vn -0.2379 0.0178 -0.9711
vn -0.2475 0.0317 -0.9684
vn -0.7734 0.0041 -0.6339
vn -0.7445 0.0025 -0.6676
vn -0.0677 -0.0026 -0.9977
vn -0.2217 -0.0006 -0.9751
vn 0.2618 -0.0019 0.9651
vn 0.2586 0.0135 0.9659
vn -0.3980 0.0193 0.9172
vn -0.3759 0.0043 0.9266
vn 0.2563 0.0275 0.9662
vn 0.2582 0.0295 0.9656
vn -0.3432 0.0337 0.9386
vn -0.4084 0.0320 0.9122
vn 0.3881 0.0210 -0.9214
vn 0.4138 0.0090 -0.9103
vn 0.8616 0.0103 -0.5074
vn 0.8374 0.0155 -0.5464
vn 0.4449 -0.0023 -0.8956
vn 0.4740 -0.0026 -0.8805
vn 0.8742 0.0070 -0.4855
vn 0.8864 0.0075 -0.4628
vn -0.8653 0.0146 0.5010
vn -0.8849 0.0204 0.4654
vn -0.9946 0.0215 -0.1012
vn -0.9962 0.0292 -0.0817
vn -0.8836 0.0245 0.4677
vn -0.8659 0.0261 0.4996
vn -0.9921 0.0145 -0.1247
vn -0.9946 0.0152 -0.1027
vn 0.9999 0.0079 0.0139
vn 0.9984 0.0127 0.0549
vn 0.7768 0.0154 0.6296
vn 0.7881 0.0032 0.6155
vn 0.9948 0.0168 0.1001
vn 0.9945 0.0174 0.1030
vn 0.7973 0.0269 0.6029
vn 0.7720 0.0258 0.6350
vn 1.0000 0.0062 -0.0036
vn 0.7946 -0.0000 0.6071
vn 0.8238 0.0154 -0.5667
vn -0.8507 0.0121 0.5255
vn -0.9970 0.0290 -0.0720
vn -0.3638 0.0003 0.9315
vn 0.3729 0.0222 -0.9276
vn -0.2548 0.0329 -0.9664
vn 0.2639 -0.0055 0.9645
vn -0.7758 0.0343 -0.6300
vn 0.2835 0.3367 0.8979
vn -0.0009 0.3449 0.9386
vn 0.6615 0.3502 0.6632
vn -0.2838 0.3392 0.8969
vn -0.6616 0.3561 0.6599
vn -0.8965 0.3419 0.2818
vn -0.9372 0.3489 -0.0000
vn 0.8983 0.3341 -0.2855
vn 0.9401 0.3409 0.0000
vn 0.6615 0.3502 -0.6632
vn 0.2835 0.3367 -0.8979
vn -0.0009 0.3449 -0.9386
vn -0.8965 0.3419 -0.2818
vn -0.6616 0.3561 -0.6599
vn -0.2838 0.3392 -0.8969
vn 0.8983 0.3341 0.2855
vn 0.0083 1.0000 0.0000
vn 0.2459 0.3183 0.9155
vn -0.0008 0.3261 0.9453
vn 0.6665 0.3293 0.6688
vn -0.2457 0.3207 0.9148
vn -0.6671 0.3361 0.6648
vn -0.9145 0.3239 0.2425
vn 0.9158 0.3151 -0.2491
vn 0.6665 0.3293 -0.6688
vn 0.2459 0.3183 -0.9155
vn -0.0008 0.3261 -0.9453
vn -0.9145 0.3239 -0.2425
vn -0.6671 0.3361 -0.6648
vn -0.2457 0.3207 -0.9148
vn 0.9158 0.3151 0.2491
vn 0.3828 0.3411 0.8585
vn -0.0011 0.3682 0.9298
vn 0.6666 0.3306 0.6681
vn -0.3812 0.3457 0.8574
vn -0.6660 0.3390 0.6644
vn -0.8574 0.3487 0.3785
vn -0.9277 0.3734 -0.0000
vn 0.8585 0.3382 -0.3855
vn 0.9318 0.3630 -0.0000
vn 0.6666 0.3306 -0.6681
vn 0.3828 0.3411 -0.8585
vn -0.0011 0.3682 -0.9298
vn -0.8574 0.3487 -0.3785
vn -0.6660 0.3390 -0.6644
vn -0.3812 0.3457 -0.8574
vn 0.8585 0.3382 0.3855
vn 0.3329 0.3415 0.8790
vn -0.0008 0.3574 0.9340
vn 0.6631 0.3446 0.6645
vn -0.3323 0.3448 0.8779
vn -0.6627 0.3514 0.6613
vn -0.8775 0.3475 0.3304
vn -0.9322 0.3618 0.0000
vn 0.8793 0.3387 -0.3348
vn 0.9357 0.3529 -0.0000
vn 0.6631 0.3446 -0.6645
vn 0.3329 0.3415 -0.8790
vn -0.0008 0.3574 -0.9340
vn -0.8775 0.3475 -0.3304
vn -0.6627 0.3514 -0.6613
vn -0.3323 0.3448 -0.8779
vn 0.8793 0.3387 0.3348
vn -0.4678 0.4211 0.7771
vn -0.6399 0.4266 0.6392
vn -0.0017 0.4443 0.8959
vn -0.7759 0.4239 0.4672
vn -0.8915 0.4530 -0.0015
vn -0.7729 0.4284 -0.4681
vn -0.6377 0.4324 -0.6375
vn 0.7801 0.4166 0.4669
vn 0.6414 0.4207 0.6416
vn 0.8958 0.4444 -0.0015
vn 0.7771 0.4211 -0.4677
vn 0.6392 0.4266 -0.6399
vn -0.4683 0.4284 -0.7728
vn -0.0017 0.4531 -0.8915
vn 0.4672 0.4240 -0.7759
vn 0.4666 0.4166 0.7802
vn -0.8555 0.4627 0.2323
vn -0.8862 0.4634 -0.0006
vn -0.6159 0.4942 0.6135
vn -0.8536 0.4667 -0.2316
vn -0.6093 0.5049 -0.6114
vn -0.2289 0.4720 -0.8514
vn -0.0001 0.4707 -0.8823
vn 0.2349 0.4573 0.8577
vn -0.0001 0.4559 0.8900
vn 0.6158 0.4942 0.6136
vn 0.8555 0.4627 0.2323
vn 0.8862 0.4634 -0.0006
vn 0.2287 0.4720 -0.8514
vn 0.6092 0.5049 -0.6115
vn 0.8536 0.4667 -0.2316
vn -0.2352 0.4573 0.8576
usemtl None
s 1
f 395/1/1 306/2/2 3/3/3 191/4/4
f 394/5/5 254/6/6 7/7/7 179/8/8
f 393/9/9 175/10/10 6/11/11 171/12/12
f 392/13/13 253/14/14 11/15/15 287/16/16
f 391/17/17 249/18/18 2/19/19 223/20/20
f 390/21/21 267/22/22 10/23/23 311/24/24
f 389/25/25 322/26/26 14/27/27 135/28/28
f 388/29/29 145/30/30 16/31/31 146/32/32
f 387/33/33 293/34/34 19/35/35 181/36/36
f 386/37/37 242/38/38 23/39/39 165/40/40
f 385/41/41 162/42/42 22/43/43 157/44/44
f 384/45/45 241/46/46 27/47/47 215/48/48
f 383/49/49 238/50/50 18/51/51 203/52/52
f 382/53/53 197/54/54 26/55/55 244/56/56
f 381/57/57 251/58/58 30/59/59 258/60/60
f 380/61/61 329/62/62 32/63/63 263/64/64
f 379/65/65 272/66/66 35/67/67 174/68/68
f 378/69/69 229/70/70 39/71/71 160/72/72
f 377/73/73 299/74/74 38/75/75 151/76/76
f 376/77/77 228/78/78 43/79/79 259/80/80
f 375/81/81 221/82/82 34/83/83 196/84/84
f 374/85/85 262/86/86 42/87/87 292/88/88
f 373/89/89 283/90/90 46/91/91 308/92/92
f 372/93/93 319/94/94 48/95/95 320/96/96
f 371/97/97 154/98/98 51/99/99 246/100/100
f 370/101/101 296/102/102 55/103/103 234/104/104
f 369/105/105 173/106/106 54/107/107 220/108/108
f 368/109/109 295/110/110 59/111/111 278/112/112
f 367/113/113 290/114/114 50/115/115 266/116/116
f 366/117/117 282/118/118 58/119/119 305/120/120
f 365/121/121 298/122/122 62/123/123 326/124/124
f 364/125/125 186/126/126 64/127/127 140/128/128
f 363/129/129 281/130/130 67/131/131 139/132/132
f 362/133/133 189/134/134 71/135/135 315/136/136
f 361/137/137 271/138/138 70/139/139 325/140/140
f 360/141/141 177/142/142 75/143/143 233/144/144
f 359/145/145 227/146/146 66/147/147 180/148/148
f 358/149/149 211/150/150 74/151/151 264/152/152
f 357/153/153 276/154/154 78/155/155 289/156/156
f 356/157/157 275/158/158 80/159/159 277/160/160
f 81/161/161 168/162/162 256/163/163
f 84/164/164 318/165/165 201/166/166
f 86/167/167 304/168/168 274/169/169
f 85/170/170 219/171/171 199/172/172
f 87/173/173 198/174/174 232/175/175
f 88/176/176 324/177/177 302/178/178
f 89/179/179 226/180/180 294/181/181
f 83/182/182 261/183/183 218/184/184
f 355/185/185 255/186/186 90/187/187 303/188/188
f 354/189/189 280/190/190 92/191/191 310/192/192
f 353/193/193 172/194/194 94/195/195 284/196/196
f 352/197/197 309/198/198 96/199/199 163/200/200
f 351/201/201 138/202/202 97/203/203 217/204/204
f 350/205/205 153/206/206 91/207/207 159/208/208
f 349/209/209 243/210/210 93/211/211 216/212/212
f 348/213/213 148/214/214 95/215/215 301/216/216
f 347/217/217 144/218/218 100/219/219 167/220/220
f 346/221/221 250/222/222 104/223/223 307/224/224
f 345/225/225 316/226/226 103/227/227 142/228/165
f 344/229/228 170/230/229 108/231/230 129/232/231
f 343/233/232 273/234/233 99/235/234 231/236/235
f 342/237/236 252/238/237 107/239/238 317/240/239
f 341/241/240 313/242/241 111/243/242 300/244/177
f 340/245/243 149/246/244 113/247/245 288/248/246
f 339/249/247 210/250/248 116/251/249 239/252/250
f 338/253/251 206/254/252 119/255/253 205/256/254
f 337/257/255 222/258/256 122/259/257 137/260/258
f 336/261/259 147/262/260 125/263/261 279/264/262
f 335/265/263 130/266/264 126/267/265 312/268/266
f 334/269/267 136/270/268 128/271/269 209/272/270
f 333/273/271 141/274/272 115/275/273 297/276/274
f 332/277/275 208/278/276 118/279/277 131/280/278
f 331/281/279 185/282/280 121/283/281 323/284/282
f 330/285/283 224/286/284 124/287/285 225/288/286
f 185/282/280 330/285/283 225/288/286 121/283/281
f 126/267/265 209/272/270 330/285/283 185/282/280
f 209/272/270 128/271/269 224/286/284 330/285/283
f 260/289/287 331/281/279 323/284/282 120/290/288
f 127/291/289 312/268/266 331/281/279 260/289/287
f 312/268/266 126/267/265 185/282/280 331/281/279
f 141/274/272 332/277/275 131/280/278 115/275/273
f 122/292/257 279/293/262 332/277/275 141/274/272
f 279/293/262 125/294/261 208/278/276 332/277/275
f 240/295/290 333/273/271 297/276/274 114/296/291
f 123/297/292 137/298/258 333/273/271 240/295/290
f 137/298/258 122/292/257 141/274/272 333/273/271
f 130/266/264 334/269/267 209/272/270 126/267/265
f 116/251/249 205/256/254 334/269/267 130/266/264
f 205/256/254 119/255/253 136/270/268 334/269/267
f 245/299/293 335/265/263 312/268/266 127/291/289
f 117/300/294 239/252/250 335/265/263 245/299/293
f 239/252/250 116/251/249 130/266/264 335/265/263
f 222/258/256 336/261/259 279/264/262 122/259/257
f 121/283/281 225/288/286 336/261/259 222/258/256
f 225/288/286 124/287/285 147/262/260 336/261/259
f 268/301/295 337/257/255 137/260/258 123/302/292
f 120/290/288 323/284/282 337/257/255 268/301/295
f 323/284/282 121/283/281 222/258/256 337/257/255
f 210/250/248 338/253/251 205/256/254 116/251/249
f 115/275/273 131/280/278 338/253/251 210/250/248
f 131/280/278 118/279/277 206/254/252 338/253/251
f 248/303/296 339/249/247 239/252/250 117/300/294
f 114/296/291 297/276/274 339/249/247 248/303/296
f 297/276/274 115/275/273 210/250/248 339/249/247
f 269/304/297 340/245/243 288/248/246 112/305/298
f 101/306/299 167/220/220 340/245/243 269/304/297
f 167/220/220 100/219/219 149/246/244 340/245/243
f 192/307/300 341/241/240 300/244/177 110/308/301
f 112/305/298 288/248/246 341/241/240 192/307/300
f 288/248/246 113/247/245 313/242/241 341/241/240
f 166/309/302 342/237/236 317/240/239 106/310/303
f 110/308/301 300/244/177 342/237/236 166/309/302
f 300/244/177 111/243/242 252/238/237 342/237/236
f 314/311/304 343/233/232 231/236/235 98/312/305
f 109/313/306 129/232/231 343/233/232 314/311/304
f 129/232/231 108/231/230 273/234/233 343/233/232
f 270/314/307 344/229/228 129/232/231 109/313/306
f 105/315/308 307/224/224 344/229/228 270/314/307
f 307/224/224 104/223/223 170/230/229 344/229/228
f 235/316/309 345/225/225 142/228/165 102/317/310
f 106/310/303 317/240/239 345/225/225 235/316/309
f 317/240/239 107/239/238 316/226/226 345/225/225
f 161/318/311 346/221/221 307/224/224 105/315/308
f 102/317/310 142/228/165 346/221/221 161/318/311
f 142/228/165 103/227/227 250/222/222 346/221/221
f 176/319/312 347/217/217 167/220/220 101/306/299
f 98/312/305 231/236/235 347/217/217 176/319/312
f 231/236/235 99/235/234 144/218/218 347/217/217
f 138/202/202 348/213/213 301/216/216 97/203/203
f 81/161/161 256/163/163 348/213/213 138/202/202
f 256/163/163 83/182/182 148/214/214 348/213/213
f 172/194/194 349/209/209 216/212/212 94/195/195
f 89/179/179 294/181/181 349/209/209 172/194/194
f 294/181/181 88/176/176 243/210/210 349/209/209
f 280/190/190 350/205/205 159/208/208 92/191/191
f 86/167/167 274/169/169 350/205/205 280/190/190
f 274/169/169 84/164/164 153/206/206 350/205/205
f 309/198/198 351/201/201 217/204/204 96/199/199
f 87/173/173 232/175/175 351/201/201 309/198/198
f 232/175/175 81/161/161 138/202/202 351/201/201
f 255/186/186 352/197/197 163/200/200 90/187/187
f 85/170/170 199/172/172 352/197/197 255/186/186
f 199/172/172 87/173/173 309/198/198 352/197/197
f 148/214/214 353/193/193 284/196/196 95/215/215
f 83/182/182 218/184/184 353/193/193 148/214/214
f 218/184/184 89/179/179 172/194/194 353/193/193
f 243/210/210 354/189/189 310/192/192 93/211/211
f 88/176/176 302/178/178 354/189/189 243/210/210
f 302/178/178 86/167/167 280/190/190 354/189/189
f 153/206/206 355/185/185 303/188/188 91/207/207
f 84/164/164 201/166/166 355/185/185 153/206/206
f 201/166/166 85/170/170 255/186/186 355/185/185
f 218/184/184 226/320/180 89/179/179
f 218/184/184 261/183/183 226/320/180
f 261/183/183 82/321/313 226/320/180
f 294/181/181 324/322/177 88/176/176
f 294/181/181 226/180/180 324/322/177
f 226/180/180 82/323/313 324/322/177
f 302/178/178 304/324/168 86/167/167
f 302/178/178 324/177/177 304/324/168
f 324/177/177 82/325/313 304/324/168
f 232/175/175 168/326/162 81/161/161
f 232/175/175 198/174/174 168/326/162
f 198/174/174 82/327/313 168/326/162
f 199/172/172 198/328/174 87/173/173
f 199/172/172 219/171/171 198/328/174
f 219/171/171 82/329/313 198/328/174
f 274/169/169 318/330/165 84/164/164
f 274/169/169 304/168/168 318/330/165
f 304/168/168 82/331/313 318/330/165
f 201/166/166 219/332/171 85/170/170
f 201/166/166 318/165/165 219/332/171
f 318/165/165 82/333/313 219/332/171
f 256/163/163 261/334/183 83/182/182
f 256/163/163 168/162/162 261/334/183
f 168/162/162 82/335/313 261/334/183
f 202/336/314 356/157/157 277/160/160 79/337/315
f 68/338/316 139/132/132 356/157/157 202/336/314
f 139/132/132 67/131/131 275/158/158 356/157/157
f 182/339/317 357/153/153 289/156/156 77/340/318
f 79/337/315 277/160/160 357/153/153 182/339/317
f 277/160/160 80/159/159 276/154/154 357/153/153
f 132/341/319 358/149/149 264/152/152 73/342/152
f 77/340/318 289/156/156 358/149/149 132/341/319
f 289/156/156 78/155/155 211/150/150 358/149/149
f 285/343/320 359/145/145 180/148/148 65/344/148
f 76/345/321 233/144/144 359/145/145 285/343/320
f 233/144/144 75/143/143 227/146/146 359/145/145
f 212/346/322 360/141/141 233/144/144 76/345/321
f 72/347/323 315/136/136 360/141/141 212/346/322
f 315/136/136 71/135/135 177/142/142 360/141/141
f 183/348/324 361/137/137 325/140/140 69/349/325
f 73/342/152 264/152/152 361/137/137 183/348/324
f 264/152/152 74/151/151 271/138/138 361/137/137
f 291/350/326 362/133/133 315/136/136 72/347/323
f 69/349/325 325/140/140 362/133/133 291/350/326
f 325/140/140 70/139/139 189/134/134 362/133/133
f 150/351/327 363/129/129 139/132/132 68/338/316
f 65/344/148 180/148/148 363/129/129 150/351/327
f 180/148/148 66/147/147 281/130/130 363/129/129
f 265/352/328 364/125/125 140/128/128 63/353/329
f 52/354/330 246/100/100 364/125/125 265/352/328
f 246/100/100 51/99/99 186/126/126 364/125/125
f 207/355/331 365/121/121 326/124/124 61/356/332
f 63/353/329 140/128/128 365/121/121 207/355/331
f 140/128/128 64/127/127 298/122/122 365/121/121
f 178/357/333 366/117/117 305/120/120 57/358/334
f 61/356/332 326/124/124 366/117/117 178/357/333
f 326/124/124 62/123/123 282/118/118 366/117/117
f 193/359/335 367/113/113 266/116/116 49/360/336
f 60/361/337 278/112/112 367/113/113 193/359/335
f 278/112/112 59/111/111 290/114/114 367/113/113
f 194/362/338 368/109/109 278/112/112 60/361/337
f 56/363/339 234/104/104 368/109/109 194/362/338
f 234/104/104 55/103/103 295/110/110 368/109/109
f 286/364/340 369/105/105 220/108/108 53/365/341
f 57/358/334 305/120/120 369/105/105 286/364/340
f 305/120/120 58/119/119 173/106/106 369/105/105
f 200/366/342 370/101/101 234/104/104 56/363/339
f 53/365/341 220/108/108 370/101/101 200/366/342
f 220/108/108 54/107/107 296/102/102 370/101/101
f 257/367/343 371/97/97 246/100/100 52/354/330
f 49/360/336 266/116/116 371/97/97 257/367/343
f 266/116/116 50/115/115 154/98/98 371/97/97
f 195/368/344 372/93/93 320/96/96 47/369/345
f 36/370/346 174/68/68 372/93/93 195/368/344
f 174/68/68 35/67/67 319/94/94 372/93/93
f 190/371/347 373/89/89 308/92/92 45/372/348
f 47/369/345 320/96/96 373/89/89 190/371/347
f 320/96/96 48/95/95 283/90/90 373/89/89
f 164/373/349 374/85/85 292/88/88 41/374/350
f 45/372/348 308/92/92 374/85/85 164/373/349
f 308/92/92 46/91/91 262/86/86 374/85/85
f 327/375/351 375/81/81 196/84/84 33/376/352
f 44/377/353 259/80/80 375/81/81 327/375/351
f 259/80/80 43/79/79 221/82/82 375/81/81
f 328/378/354 376/77/77 259/80/80 44/377/353
f 40/379/355 160/72/72 376/77/77 328/378/354
f 160/72/72 39/71/71 228/78/78 376/77/77
f 213/380/356 377/73/73 151/76/76 37/381/357
f 41/374/350 292/88/88 377/73/73 213/380/356
f 292/88/88 42/87/87 299/74/74 377/73/73
f 133/382/358 378/69/69 160/72/72 40/379/355
f 37/381/357 151/76/76 378/69/69 133/382/358
f 151/76/76 38/75/75 229/70/70 378/69/69
f 184/383/359 379/65/65 174/68/68 36/370/346
f 33/376/352 196/84/84 379/65/65 184/383/359
f 196/84/84 34/83/83 272/66/66 379/65/65
f 214/384/360 380/61/61 263/64/64 31/385/361
f 20/386/362 181/36/36 380/61/61 214/384/360
f 181/36/36 19/35/35 329/62/62 380/61/61
f 156/387/363 381/57/57 258/60/60 29/388/364
f 31/385/361 263/64/64 381/57/57 156/387/363
f 263/64/64 32/63/63 251/58/58 381/57/57
f 321/389/365 382/53/53 244/56/56 25/390/366
f 29/388/364 258/60/60 382/53/53 321/389/365
f 258/60/60 30/59/59 197/54/54 382/53/53
f 134/391/367 383/49/49 203/52/52 17/392/368
f 28/393/369 215/48/48 383/49/49 134/391/367
f 215/48/48 27/47/47 238/50/50 383/49/49
f 155/394/370 384/45/45 215/48/48 28/393/369
f 24/395/371 165/40/40 384/45/45 155/394/370
f 165/40/40 23/39/39 241/46/46 384/45/45
f 236/396/372 385/41/41 157/44/44 21/397/373
f 25/390/366 244/56/56 385/41/41 236/396/372
f 244/56/56 26/55/55 162/42/42 385/41/41
f 143/398/374 386/37/37 165/40/40 24/395/371
f 21/397/373 157/44/44 386/37/37 143/398/374
f 157/44/44 22/43/43 242/38/38 386/37/37
f 187/399/375 387/33/33 181/36/36 20/386/362
f 17/392/368 203/52/52 387/33/33 187/399/375
f 203/52/52 18/51/51 293/34/34 387/33/33
f 237/400/376 388/29/29 146/32/32 15/401/377
f 4/402/378 191/4/4 388/29/29 237/400/376
f 191/4/4 3/3/3 145/30/30 388/29/29
f 230/403/379 389/25/25 135/28/28 13/404/380
f 15/401/377 146/32/32 389/25/25 230/403/379
f 146/32/32 16/31/31 322/26/26 389/25/25
f 188/405/381 390/21/21 311/24/24 9/406/382
f 13/404/380 135/28/28 390/21/21 188/405/381
f 135/28/28 14/27/27 267/22/22 390/21/21
f 152/407/383 391/17/17 223/20/20 1/408/384
f 12/409/385 287/16/16 391/17/17 152/407/383
f 287/16/16 11/15/15 249/18/18 391/17/17
f 169/410/386 392/13/13 287/16/16 12/409/385
f 8/411/387 179/8/8 392/13/13 169/410/386
f 179/8/8 7/7/7 253/14/14 392/13/13
f 247/412/388 393/9/9 171/12/12 5/413/389
f 9/406/382 311/24/24 393/9/9 247/412/388
f 311/24/24 10/23/23 175/10/10 393/9/9
f 158/414/390 394/5/5 179/8/8 8/411/387
f 5/413/389 171/12/12 394/5/5 158/414/390
f 171/12/12 6/11/11 254/6/6 394/5/5
f 204/415/391 395/1/1 191/4/4 4/402/378
f 1/408/384 223/20/20 395/1/1 204/415/391
f 223/20/20 2/19/19 306/2/2 395/1/1
