# Blender v2.78 (sub 0) OBJ File: ''
# www.blender.org
mtllib Pine_Tree_OneSided_m_11.mtl
o Pine_Tree_OneSided_m_11
v 0.301238 0.915622 0.753959
v 0.148825 2.016448 0.379275
v -0.378311 2.056611 0.374292
v -0.617677 0.955380 0.746957
v 0.933075 0.781855 -0.014246
v 0.529515 1.961006 -0.046927
v -0.927196 1.170225 -0.096813
v -0.574291 2.089319 -0.100818
v -0.245767 2.029185 -0.476856
v -0.378122 0.926480 -0.771298
v 0.677220 0.888193 -0.764330
v 0.361059 1.984663 -0.471450
v -0.280074 2.123858 -0.762736
v 0.164693 3.399882 -0.140393
v 0.392734 3.360053 -0.146487
v 0.682591 2.021099 -0.809453
v -0.507431 2.108574 0.686921
v 0.331213 2.017280 0.698488
v 0.312012 3.376153 0.188770
v 0.115599 3.410777 0.187578
v 0.900773 1.789477 0.002367
v 0.450194 3.326408 0.028859
v -0.791592 1.980985 -0.088829
v 0.044594 3.399507 0.006648
v -0.236856 2.748727 0.582531
v 0.453755 2.681981 0.593394
v 0.597458 4.102919 0.132706
v 0.414054 4.142729 0.130651
v 0.983015 2.795101 0.055886
v 0.625521 2.776697 -0.583318
v 0.659061 4.088720 -0.175450
v 0.737422 4.086554 -0.014403
v -0.096552 2.793120 -0.558512
v 0.455172 4.126927 -0.173037
v -0.535258 2.950417 -0.021424
v 0.337841 4.173613 -0.036383
v 0.256934 3.904212 -0.344786
v 0.656078 4.658073 -0.216691
v 0.903729 4.579643 -0.212902
v 0.767829 3.780617 -0.341138
v 0.146569 3.831146 0.349936
v 0.595630 3.723461 0.352984
v 0.818948 4.617834 0.128072
v 0.604980 4.685599 0.124592
v 0.979024 4.544532 -0.041727
v 1.024942 5.242920 -0.079625
v 0.509517 4.687652 -0.066817
v -0.155428 3.743753 -0.027820
v 0.957328 3.505172 0.002110
v -0.096282 0.518314 0.146799
v -0.072445 1.647210 0.106100
v -0.111514 1.648716 -0.016033
v -0.155078 0.518290 -0.034822
v -0.001124 0.517860 -0.147069
v -0.009362 1.643283 -0.091406
v 0.092669 1.637436 -0.015790
v 0.152611 0.517453 -0.034790
v 0.093788 0.517963 0.146716
v 0.053770 1.640375 0.106199
v 0.165232 0.056992 -0.052735
v 0.101764 0.057042 0.142608
v -0.167052 0.056625 -0.052750
v -0.000865 0.056675 -0.173527
v -0.103582 0.056612 0.142679
v -0.005330 1.108185 -0.119160
v -0.441487 2.862673 0.306542
v -0.384467 2.685926 -0.043103
v 0.527402 3.389894 0.370798
v -0.203795 2.763230 0.448416
v -0.508834 1.502882 0.576152
v 0.164127 0.242162 -0.045567
v 0.010030 3.823144 -0.204927
v 0.575620 4.731444 0.027048
v 0.675236 4.092767 0.064010
v 0.366520 4.161164 0.051247
v 0.432318 3.340566 -0.063471
v 0.729818 4.694951 0.126421
v 0.083194 3.443789 0.365541
v 0.175190 3.457614 -0.372805
v -0.064785 2.765731 -0.459811
v 0.667509 1.884960 0.392237
v 0.163554 0.899062 -0.835403
v 0.524438 3.869409 -0.374536
v 0.388598 3.349718 0.113450
v 0.083235 0.517645 -0.101265
v 0.695726 4.136643 0.254821
v 0.070959 3.407365 0.101129
v 0.747450 1.367032 -0.030860
v -0.094991 0.056637 -0.128332
v -0.001248 0.518156 0.159534
v 0.770827 2.737380 0.357506
v 0.709451 4.084078 -0.099707
v 0.064192 2.006006 -0.507320
v -0.841794 1.077521 0.356726
v -0.153173 0.056594 0.050771
v 0.558748 4.106800 -0.183215
v -0.109517 3.567977 -0.030328
v 0.869263 1.886383 -0.441169
v -0.133758 1.111267 -0.025035
v -0.102293 2.085512 0.766070
v 0.887561 0.827489 -0.426580
v 0.672510 0.842294 0.405791
v 0.135300 0.517716 0.059909
v -0.599230 2.048742 -0.461522
v 0.548852 2.692475 -0.490489
v 0.151350 0.057059 0.050737
v 1.020199 4.935634 -0.061944
v 0.096015 2.696148 0.644437
v 0.487595 1.968449 -0.276955
v -0.122639 2.038348 0.414913
v -0.066814 1.646392 -0.062677
v -0.511900 2.076461 0.152062
v -0.102301 1.648602 0.048442
v 0.095790 3.401541 -0.072170
v -0.766142 1.637439 -0.102598
v 0.904936 3.623728 -0.186539
v 0.436451 4.252175 -0.290468
v 0.387302 4.152599 -0.110247
v -0.173899 0.929800 0.829307
v 0.093220 0.056833 -0.128319
v -0.165670 0.241943 -0.045583
v -0.715760 2.039497 0.331646
v 0.211806 3.394282 0.198128
v 0.962083 4.603571 -0.130519
v 0.353084 4.228036 0.251908
v 0.647565 3.431876 -0.389311
v -0.000908 0.056825 0.161418
v -0.321832 1.474116 -0.635775
v -0.084680 1.110494 0.127353
v 0.853372 4.984621 -0.155651
v 0.503751 4.124053 0.141995
v -0.444441 2.061819 -0.309201
v 0.917963 4.624566 0.041706
v 0.939060 4.968364 0.027031
v 0.873482 3.442600 0.022425
v -0.085582 0.518069 -0.101286
v 0.971228 3.976695 -0.017903
v 0.083534 1.638230 0.048636
v 0.073918 1.106678 0.127364
v 0.139587 4.176682 -0.047199
v 0.600080 4.716752 -0.145356
v -0.366415 2.883655 -0.318250
v -0.102664 0.242000 0.148646
v 0.686404 2.550651 0.017561
v 0.280356 3.379306 -0.152091
v 0.781225 5.013585 -0.074864
v 0.806436 3.593061 0.194080
v 0.981447 4.942619 -0.152221
v 0.831421 4.146273 -0.287057
v 0.267473 2.772969 -0.629770
v 0.534165 1.437846 -0.631381
v 0.122916 1.104838 -0.024890
v 0.215991 2.096179 -0.860505
v -0.137789 0.518295 0.059942
v 0.798398 4.659263 -0.218207
v 0.229978 1.468178 0.580334
v -0.000691 0.241957 -0.165624
v 0.824617 5.005878 0.023724
v 0.369464 3.797308 0.387108
v 0.368223 1.986149 0.184015
v 0.101101 0.242333 0.148558
v -0.046443 3.781711 0.176099
v -0.719392 1.061588 -0.475612
v 0.048026 1.639921 -0.062535
v 0.325445 2.699013 0.453292
v -0.009327 1.643875 0.117205
v 0.867213 2.793219 -0.291909
v 0.113873 1.452534 -0.671361
v 0.108335 1.105509 0.054497
v -0.146918 0.241959 0.055686
v 0.089602 0.242053 -0.116459
v -0.000782 0.242174 0.162031
v -0.091059 0.241942 -0.116472
v 0.145359 0.242267 0.055644
v -0.075675 1.109870 -0.080627
v -0.005378 1.108625 0.137892
v 0.064929 1.106341 -0.080544
v -0.119144 1.111117 0.054414
v 0.849400 4.047336 0.127545
v 0.267190 4.215724 -0.179105
v 0.923993 4.051872 -0.161629
v 0.224872 4.202239 0.110375
v 0.522566 4.190656 0.272785
v 0.639476 4.208678 -0.305870
v 0.010443 3.518127 -0.214248
v 0.723031 3.415073 0.210758
v -0.037484 3.511918 0.178894
v 0.413110 3.439885 -0.406492
v 0.788332 3.438648 -0.195808
v 0.299883 3.410100 0.393216
v -0.322401 2.723431 0.216388
v 0.650791 2.613474 -0.252320
v -0.251720 2.725141 -0.266846
v 0.528054 2.617339 0.252843
v 0.054757 2.739897 0.482099
v 0.248174 2.737742 -0.506298
v -0.676847 1.576991 0.254394
v 0.687578 1.397969 -0.351767
v -0.581916 1.561704 -0.392406
v 0.520366 1.414222 0.294903
v -0.148269 1.484074 0.622110
vt 0.5286 0.3030
vt 0.5418 0.3047
vt 0.5367 0.3166
vt 0.5213 0.3203
vt 0.5549 0.2795
vt 0.5585 0.2901
vt 0.5468 0.2927
vt 0.5359 0.2857
vt 0.5626 0.3415
vt 0.5630 0.3301
vt 0.5735 0.3278
vt 0.5791 0.3369
vt 0.5854 0.2846
vt 0.5768 0.2943
vt 0.5702 0.2875
vt 0.5740 0.2734
vt 0.5337 0.3332
vt 0.5446 0.3245
vt 0.5524 0.3324
vt 0.5460 0.3461
vt 0.5822 0.3164
vt 0.5655 0.3142
vt 0.5684 0.3061
vt 0.5896 0.2999
vt 0.5317 0.3055
vt 0.5374 0.2908
vt 0.5481 0.3015
vt 0.5455 0.3089
vt 0.5525 0.2853
vt 0.5677 0.2797
vt 0.5605 0.2985
vt 0.5543 0.3000
vt 0.5613 0.3370
vt 0.5476 0.3410
vt 0.5524 0.3243
vt 0.5574 0.3234
vt 0.5786 0.2898
vt 0.5645 0.3023
vt 0.5368 0.3306
vt 0.5259 0.3202
vt 0.5430 0.3163
vt 0.5477 0.3203
vt 0.5357 0.3066
vt 0.5410 0.2940
vt 0.5558 0.3086
vt 0.5548 0.3113
vt 0.5774 0.2917
vt 0.5856 0.3000
vt 0.5640 0.3103
vt 0.5626 0.3088
vt 0.5795 0.3152
vt 0.5733 0.3304
vt 0.5621 0.3163
vt 0.5631 0.3133
vt 0.5398 0.3290
vt 0.5304 0.3193
vt 0.5539 0.3140
vt 0.5556 0.3157
vt 0.5550 0.2887
vt 0.5691 0.2835
vt 0.5612 0.3072
vt 0.5585 0.3079
vt 0.5612 0.3346
vt 0.5491 0.3388
vt 0.5574 0.3174
vt 0.5597 0.3169
vt 0.4526 0.3342
vt 0.4426 0.3245
vt 0.4509 0.3215
vt 0.4700 0.3270
vt 0.4238 0.2906
vt 0.4391 0.2847
vt 0.4368 0.3008
vt 0.4295 0.3040
vt 0.4443 0.3047
vt 0.4367 0.3081
vt 0.4343 0.3274
vt 0.4284 0.3245
vt 0.4354 0.3214
vt 0.4518 0.3085
vt 0.4513 0.3150
vt 0.4442 0.3119
vt 0.4226 0.3215
vt 0.4223 0.3143
vt 0.4295 0.3185
vt 0.4084 0.3126
vt 0.4085 0.2964
vt 0.4221 0.3071
vt 0.4703 0.3134
vt 0.4217 0.3352
vt 0.4083 0.3289
vt 0.4548 0.2923
vt 0.4705 0.2998
vt 0.4437 0.3185
vt 0.9302 0.9483
vt 0.9301 0.9812
vt 0.9231 0.9812
vt 0.9233 0.9483
vt 0.9714 0.9486
vt 0.9712 0.9818
vt 0.9644 0.9818
vt 0.9645 0.9485
vt 0.9439 0.9484
vt 0.9439 0.9813
vt 0.9370 0.9811
vt 0.9370 0.9484
vt 0.9165 0.9483
vt 0.9162 0.9813
vt 0.9093 0.9814
vt 0.9096 0.9483
vt 0.9579 0.9028
vt 0.9577 0.9153
vt 0.9507 0.9154
vt 0.9510 0.9030
vt 0.9165 0.9030
vt 0.9168 0.9153
vt 0.9099 0.9152
vt 0.9096 0.9027
vt 0.9441 0.9032
vt 0.9439 0.9155
vt 0.9371 0.9156
vt 0.9372 0.9034
vt 0.9717 0.9028
vt 0.9715 0.9153
vt 0.9646 0.9152
vt 0.9648 0.9026
vt 0.9303 0.9033
vt 0.9304 0.9155
vt 0.9236 0.9155
vt 0.9234 0.9032
vt 0.9576 0.9485
vt 0.9576 0.9816
vt 0.9508 0.9815
vt 0.9507 0.9485
vt 0.5879 0.3164
vt 0.5968 0.2959
vt 0.6101 0.2909
vt 0.5975 0.3184
vt 0.5848 0.3460
vt 0.5784 0.3144
vt 0.5834 0.3010
vt 0.9302 0.8911
vt 0.9232 0.8910
vt 0.9372 0.8912
vt 0.9718 0.8902
vt 0.9649 0.8900
vt 0.9786 0.8905
vt 0.9786 0.9030
vt 0.9785 0.9154
vt 0.9442 0.8909
vt 0.9512 0.8906
vt 0.9162 0.8906
vt 0.9093 0.8902
vt 0.9581 0.8903
vt 0.9783 0.9486
vt 0.9780 0.9818
vt 0.4365 0.3154
vt 0.4413 0.2687
vt 0.4653 0.2799
vt 0.4892 0.2911
vt 0.4352 0.3415
vt 0.4361 0.3556
vt 0.4150 0.3459
vt 0.3939 0.3362
vt 0.4892 0.3117
vt 0.4892 0.3324
vt 0.4293 0.3113
vt 0.3944 0.3109
vt 0.3949 0.2857
vt 0.4181 0.2772
vt 0.4627 0.3440
vt 0.5846 0.3445
vt 0.5627 0.3523
vt 0.5408 0.3601
vt 0.5262 0.2793
vt 0.5516 0.2695
vt 0.5769 0.2597
vt 0.5239 0.3424
vt 0.5070 0.3246
vt 0.6073 0.2896
vt 0.5960 0.3171
vt 0.5921 0.2747
vt 0.5166 0.3020
vt 0.5429 0.3578
vt 0.5259 0.3409
vt 0.5089 0.3240
vt 0.5748 0.2609
vt 0.5928 0.2773
vt 0.6107 0.2937
vt 0.5749 0.3329
vt 0.5625 0.3224
vt 0.5873 0.3434
vt 0.5651 0.3506
vt 0.5267 0.2801
vt 0.5508 0.2705
vt 0.5178 0.3020
vt 0.5990 0.3185
vt 0.5228 0.3420
vt 0.5396 0.3599
vt 0.5059 0.3241
vt 0.5939 0.2750
vt 0.5777 0.2592
vt 0.5622 0.3529
vt 0.5513 0.2689
vt 0.5249 0.2786
vt 0.5154 0.3013
vn 0.0079 0.3453 0.9385
vn 0.0087 0.3565 0.9342
vn -0.5044 0.3943 0.7682
vn -0.4910 0.3781 0.7848
vn 0.7494 0.3091 0.5855
vn 0.7362 0.3193 0.5967
vn 0.4119 0.3548 0.8393
vn 0.4293 0.3423 0.8357
vn -0.6934 0.2935 -0.6581
vn -0.6926 0.3074 -0.6525
vn -0.3587 0.2989 -0.8843
vn -0.3479 0.2854 -0.8930
vn 0.8940 0.3449 -0.2859
vn 0.8831 0.3583 -0.3028
vn 0.9147 0.3449 0.2106
vn 0.9219 0.3320 0.1997
vn -0.8504 0.3538 0.3893
vn -0.8505 0.3668 0.3769
vn -0.9134 0.3727 -0.1638
vn -0.9209 0.3569 -0.1567
vn 0.0188 0.4742 -0.8802
vn 0.0205 0.4782 -0.8780
vn 0.5550 0.4767 -0.6817
vn 0.5863 0.4607 -0.6664
vn 0.0362 0.3829 0.9231
vn 0.4673 0.3207 0.8239
vn 0.4525 0.3316 0.8278
vn 0.0461 0.3860 0.9213
vn 0.7830 0.2514 0.5690
vn 0.9342 0.2769 0.2250
vn 0.9284 0.2849 0.2386
vn 0.7748 0.2565 0.5779
vn -0.7246 0.5024 -0.4718
vn -0.8470 0.5162 -0.1267
vn -0.8420 0.5236 -0.1299
vn -0.7107 0.5066 -0.4881
vn 0.9313 0.3187 -0.1761
vn 0.9272 0.3260 -0.1845
vn -0.8274 0.5098 0.2356
vn -0.4990 0.5126 0.6987
vn -0.4659 0.5182 0.7172
vn -0.8211 0.5144 0.2474
vn 0.0282 0.3215 0.9465
vn 0.3766 0.2551 0.8905
vn 0.3987 0.2571 0.8803
vn 0.0393 0.3227 0.9457
vn 0.8660 0.1690 -0.4706
vn 0.4790 0.2542 -0.8402
vn 0.5003 0.2605 -0.8257
vn 0.8716 0.1748 -0.4581
vn -0.0060 0.3127 -0.9498
vn -0.3325 0.3909 -0.8583
vn -0.3165 0.3933 -0.8632
vn 0.0061 0.3148 -0.9492
vn -0.6964 0.5235 0.4909
vn -0.3742 0.4455 0.8133
vn -0.3790 0.4553 0.8056
vn -0.7025 0.5305 0.4745
vn 0.6911 0.1921 0.6967
vn 0.9680 0.1962 0.1564
vn 0.9640 0.2078 0.1662
vn 0.6955 0.1966 0.6911
vn -0.6078 0.4618 -0.6460
vn -0.8086 0.5803 -0.0973
vn -0.8009 0.5867 -0.1203
vn -0.5999 0.4637 -0.6520
vn 0.0567 0.1675 -0.9842
vn 0.0661 0.1658 -0.9839
vn 0.5190 0.0508 -0.8533
vn 0.5088 0.0606 -0.8587
vn 0.0561 0.2508 0.9664
vn 0.4237 0.1255 0.8971
vn 0.4221 0.1238 0.8980
vn 0.0639 0.2651 0.9621
vn 0.7218 -0.0090 0.6920
vn 0.4412 0.1693 0.8813
vn -0.2902 0.3276 -0.8991
vn -0.5919 0.4759 -0.6505
vn -0.2454 0.3830 -0.8906
vn 0.9795 -0.0403 0.1974
vn 0.9009 -0.0745 -0.4277
vn 0.9856 -0.0372 0.1650
vn -0.7914 0.5934 -0.1470
vn -0.7145 0.5919 0.3730
vn -0.7093 0.6807 -0.1832
vn -0.7277 0.5369 0.4269
vn -0.4073 0.4431 0.7986
vn -0.4038 0.4716 0.7840
vn 0.8832 -0.0282 -0.4681
vn -0.6281 0.4497 -0.6350
vn -0.8143 0.5701 -0.1091
vn 0.7147 0.0240 0.6990
vn 0.9828 -0.0144 0.1839
vn 0.5869 0.0752 -0.8061
vn -0.9512 0.0342 0.3067
vn -0.9517 0.0358 0.3048
vn -0.9528 0.0414 -0.3008
vn -0.9508 0.0404 -0.3073
vn 0.5924 0.0476 -0.8042
vn 0.5901 0.0486 -0.8059
vn 0.9491 0.0560 -0.3099
vn 0.9504 0.0545 -0.3061
vn 0.0011 0.0390 0.9992
vn -0.0047 0.0414 0.9991
vn -0.6005 0.0424 0.7985
vn -0.5889 0.0404 0.8072
vn -0.5899 0.0387 -0.8066
vn -0.5944 0.0394 -0.8032
vn -0.0165 0.0489 -0.9987
vn 0.0016 0.0483 -0.9988
vn 0.9508 0.0193 0.3093
vn 0.9505 0.0382 0.3085
vn 0.5874 0.0335 0.8086
vn 0.5878 0.0061 0.8089
vn -0.5878 0.0532 -0.8072
vn -0.5888 0.0472 -0.8069
vn 0.0014 0.0574 -0.9983
vn 0.0006 0.0625 -0.9980
vn 0.0005 -0.0039 1.0000
vn 0.0008 0.0230 0.9997
vn -0.5860 0.0283 0.8098
vn -0.5871 0.0055 0.8095
vn 0.5884 0.0538 -0.8068
vn 0.5900 0.0525 -0.8057
vn 0.9513 0.0520 -0.3038
vn 0.9509 0.0419 -0.3066
vn -0.9508 0.0208 0.3092
vn -0.9514 0.0298 0.3064
vn -0.9514 0.0408 -0.3052
vn -0.9516 0.0411 -0.3046
vn 0.9510 0.0482 0.3056
vn 0.9505 0.0502 0.3066
vn 0.5777 0.0512 0.8147
vn 0.5896 0.0490 0.8062
vn 0.0204 0.2819 -0.9592
vn 0.5275 0.3558 -0.7715
vn 0.5731 0.3452 -0.7433
vn 0.0260 0.2719 -0.9620
vn -0.3160 0.2746 -0.9081
vn 0.0150 0.2915 -0.9565
vn 0.4820 0.3673 -0.7955
vn -0.9522 0.0098 0.3054
vn -0.9474 0.0349 -0.3180
vn -0.5935 -0.0072 0.8048
vn 0.5858 0.0491 -0.8089
vn 0.9474 0.0335 -0.3183
vn -0.0004 0.0584 -0.9983
vn 0.0001 -0.0174 0.9998
vn 0.5929 -0.0080 0.8052
vn -0.5858 0.0501 -0.8089
vn 0.9521 0.0085 0.3056
vn 0.4077 0.9119 -0.0465
vn 0.4367 0.1182 0.8918
vn 0.7218 0.0242 0.6917
vn 0.9689 -0.0097 0.2474
vn -0.3124 0.3217 -0.8938
vn -0.3893 0.3447 -0.8542
vn -0.6793 0.4670 -0.5662
vn -0.8219 0.5692 -0.0244
vn 0.9061 -0.0280 -0.4221
vn 0.5500 0.0473 -0.8338
vn -0.3504 0.5621 0.7492
vn -0.7393 0.5330 0.4115
vn -0.4630 0.4471 0.7653
vn 0.0398 0.2517 0.9670
vn 0.0454 0.1681 -0.9847
vn -0.3534 0.3912 -0.8497
vn -0.6161 0.4602 -0.6392
vn -0.8162 0.5751 -0.0562
vn 0.3278 0.2597 0.9084
vn 0.6680 0.1910 0.7193
vn 0.9644 0.1861 0.1881
vn -0.6830 0.5151 0.5179
vn -0.3677 0.4376 0.8205
vn 0.4269 0.2548 -0.8676
vn -0.0331 0.3141 -0.9488
vn 0.8570 0.1641 -0.4886
vn 0.0062 0.3233 0.9463
vn -0.8511 0.5114 -0.1190
vn -0.8358 0.5059 0.2133
vn -0.5544 0.5113 0.6567
vn 0.9383 0.2716 0.2139
vn 0.9371 0.3106 -0.1591
vn 0.6279 0.4442 -0.6391
vn -0.3988 0.5149 -0.7589
vn -0.3790 0.5219 -0.7642
vn -0.4352 0.5091 -0.7426
vn -0.7451 0.4993 -0.4421
vn 0.4824 0.3101 0.8192
vn 0.7964 0.2465 0.5522
vn 0.0164 0.3819 0.9241
vn 0.0190 0.4697 -0.8826
vn -0.8405 0.3418 0.4204
vn -0.9288 0.3405 -0.1460
vn -0.4481 0.3657 0.8158
vn 0.9064 0.3325 -0.2605
vn 0.9264 0.3221 0.1951
vn -0.6813 0.2794 -0.6766
vn 0.7642 0.2996 0.5711
vn 0.4470 0.3309 0.8311
vn 0.0050 0.3347 0.9423
usemtl None
s 1
f 201/1/1 110/2/2 3/3/3 70/4/4
f 200/5/5 160/6/6 2/7/7 156/8/8
f 199/9/9 132/10/10 9/11/11 128/12/12
f 198/13/13 109/14/14 6/15/15 88/16/16
f 197/17/17 112/18/18 8/19/19 115/20/20
f 196/21/21 145/22/22 15/23/23 105/24/24
f 195/25/25 165/26/26 19/27/27 123/28/28
f 194/29/29 144/30/30 22/31/31 84/32/32
f 193/33/33 67/34/34 24/35/35 114/36/36
f 192/37/37 105/24/24 15/23/23 76/38/38
f 191/39/39 69/40/40 20/41/41 87/42/42
f 190/43/43 68/44/44 27/45/45 131/46/46
f 189/47/47 126/48/48 31/49/49 92/50/50
f 188/51/51 79/52/52 34/53/53 96/54/54
f 187/55/55 78/56/56 28/57/57 75/58/58
f 186/59/59 135/60/60 32/61/61 74/62/62
f 185/63/63 97/64/64 36/65/65 118/66/66
f 184/67/67 155/68/68 39/69/69 149/70/70
f 183/71/71 86/72/72 43/73/73 77/74/74
f 43/73/73 133/75/75 134/76/76
f 38/77/77 141/78/78 130/79/79
f 45/80/80 124/81/81 107/82/82
f 47/83/83 73/84/84 146/85/85
f 182/86/86 125/87/87 44/88/88 73/84/84
f 43/73/73 134/76/76 77/74/74
f 181/89/89 149/70/70 39/69/69 124/81/81
f 180/90/90 140/91/91 47/83/83 141/78/78
f 179/92/92 137/93/93 45/80/80 133/75/75
f 39/69/69 155/68/68 148/94/94
f 178/95/95 113/96/96 52/97/97 99/98/98
f 177/99/99 164/100/100 56/101/101 152/102/102
f 176/103/103 166/104/104 51/105/105 129/106/106
f 175/107/107 111/108/108 55/109/109 65/110/110
f 174/111/111 103/112/112 58/113/113 161/114/114
f 173/115/115 136/116/116 54/117/117 157/118/118
f 172/119/119 90/120/120 50/121/121 143/122/122
f 171/123/123 85/124/124 57/125/125 71/126/126
f 170/127/127 154/128/128 53/129/129 121/130/130
f 169/131/131 138/132/132 59/133/133 139/134/134
f 168/135/135 151/136/136 11/137/137 82/138/138
f 128/12/12 168/135/135 82/138/138 10/139/139
f 9/11/11 93/140/140 168/135/135 128/12/12
f 93/140/140 12/141/141 151/136/136 168/135/135
f 103/112/112 169/131/131 139/134/134 58/113/113
f 57/125/125 152/102/102 169/131/131 103/112/112
f 152/102/102 56/101/101 138/132/132 169/131/131
f 95/142/142 170/127/127 121/130/130 62/143/143
f 64/144/144 143/122/122 170/127/127 95/142/142
f 143/122/122 50/121/121 154/128/128 170/127/127
f 120/145/145 171/123/123 71/126/126 60/146/146
f 63/147/147 157/148/118 171/123/123 120/145/145
f 157/148/118 54/149/117 85/124/124 171/123/123
f 127/150/148 172/119/119 143/122/122 64/144/144
f 61/151/149 161/114/114 172/119/119 127/150/148
f 161/114/114 58/113/113 90/120/120 172/119/119
f 89/152/150 173/115/115 157/118/118 63/153/147
f 62/143/143 121/130/130 173/115/115 89/152/150
f 121/130/130 53/129/129 136/116/116 173/115/115
f 106/154/151 174/111/111 161/114/114 61/151/149
f 60/146/146 71/126/126 174/111/111 106/154/151
f 71/126/126 57/125/125 103/112/112 174/111/111
f 136/116/116 175/107/107 65/110/110 54/117/117
f 53/129/129 99/98/98 175/107/107 136/116/116
f 99/98/98 52/97/97 111/108/108 175/107/107
f 90/120/120 176/103/103 129/106/106 50/121/121
f 58/113/113 139/134/134 176/103/103 90/120/120
f 139/134/134 59/133/133 166/104/104 176/103/103
f 85/124/124 177/99/99 152/102/102 57/125/125
f 54/149/117 65/155/110 177/99/99 85/124/124
f 65/155/110 55/156/109 164/100/100 177/99/99
f 154/128/128 178/95/95 99/98/98 53/129/129
f 50/121/121 129/106/106 178/95/95 154/128/128
f 129/106/106 51/105/105 113/96/96 178/95/95
f 148/94/94 130/79/79 46/157/152
f 148/94/94 155/68/68 130/79/79
f 155/68/68 38/77/77 130/79/79
f 86/72/72 179/92/92 133/75/75 43/73/73
f 42/158/153 147/159/154 179/92/92 86/72/72
f 147/159/154 49/160/155 137/93/93 179/92/92
f 117/161/156 180/90/90 141/78/78 38/77/77
f 37/162/157 72/163/158 180/90/90 117/161/156
f 72/163/158 48/164/159 140/91/91 180/90/90
f 137/93/93 181/89/89 124/81/81 45/80/80
f 49/160/155 116/165/160 181/89/89 137/93/93
f 116/165/160 40/166/161 149/70/70 181/89/89
f 77/74/74 158/167/162 44/88/88
f 77/74/74 134/76/76 158/167/162
f 134/76/76 46/157/152 158/167/162
f 140/91/91 182/86/86 73/84/84 47/83/83
f 48/164/159 162/168/163 182/86/86 140/91/91
f 162/168/163 41/169/164 125/87/87 182/86/86
f 146/85/85 158/167/162 46/157/152
f 146/85/85 73/84/84 158/167/162
f 73/84/84 44/88/88 158/167/162
f 107/82/82 148/94/94 46/157/152
f 107/82/82 124/81/81 148/94/94
f 124/81/81 39/69/69 148/94/94
f 130/79/79 146/85/85 46/157/152
f 130/79/79 141/78/78 146/85/85
f 141/78/78 47/83/83 146/85/85
f 134/76/76 107/82/82 46/157/152
f 134/76/76 133/75/75 107/82/82
f 133/75/75 45/80/80 107/82/82
f 125/87/87 183/71/71 77/74/74 44/88/88
f 41/169/164 159/170/165 183/71/71 125/87/87
f 159/170/165 42/158/153 86/72/72 183/71/71
f 83/171/166 184/67/67 149/70/70 40/166/161
f 37/162/157 117/161/156 184/67/67 83/171/166
f 117/161/156 38/77/77 155/68/68 184/67/67
f 79/52/52 185/63/63 118/66/66 34/53/53
f 33/172/167 142/173/168 185/63/63 79/52/52
f 142/173/168 35/174/169 97/64/64 185/63/63
f 68/44/44 186/59/59 74/62/62 27/45/45
f 26/175/170 91/176/171 186/59/59 68/44/44
f 91/176/171 29/177/172 135/60/60 186/59/59
f 97/64/64 187/55/55 75/58/58 36/65/65
f 35/174/169 66/178/173 187/55/55 97/64/64
f 66/178/173 25/179/174 78/56/56 187/55/55
f 126/48/48 188/51/51 96/54/54 31/49/49
f 30/180/175 150/181/176 188/51/51 126/48/48
f 150/181/176 33/172/167 79/52/52 188/51/51
f 135/60/60 189/47/47 92/50/50 32/61/61
f 29/177/172 167/182/177 189/47/47 135/60/60
f 167/182/177 30/180/175 126/48/48 189/47/47
f 78/56/56 190/43/43 131/46/46 28/57/57
f 25/179/174 108/183/178 190/43/43 78/56/56
f 108/183/178 26/175/170 68/44/44 190/43/43
f 67/34/34 191/39/39 87/42/42 24/35/35
f 23/184/179 122/185/180 191/39/39 67/34/34
f 122/185/180 17/186/181 69/40/40 191/39/39
f 144/30/30 192/37/37 76/38/38 22/31/31
f 21/187/182 98/188/183 192/37/37 144/30/30
f 98/188/183 16/189/184 105/24/24 192/37/37
f 80/190/185 193/33/33 114/36/36 14/191/186
f 13/192/187 104/193/188 193/33/33 80/190/185
f 104/193/188 23/184/179 67/34/34 193/33/33
f 165/26/26 194/29/29 84/32/32 19/27/27
f 18/194/189 81/195/190 194/29/29 165/26/26
f 81/195/190 21/187/182 144/30/30 194/29/29
f 69/40/40 195/25/25 123/28/28 20/41/41
f 17/186/181 100/196/191 195/25/25 69/40/40
f 100/196/191 18/194/189 165/26/26 195/25/25
f 153/197/192 196/21/21 105/24/24 16/189/184
f 13/192/187 80/190/185 196/21/21 153/197/192
f 80/190/185 14/191/186 145/22/22 196/21/21
f 94/198/193 197/17/17 115/20/20 7/199/194
f 4/200/195 70/4/4 197/17/17 94/198/193
f 70/4/4 3/3/3 112/18/18 197/17/17
f 101/201/196 198/13/13 88/16/16 5/202/197
f 11/137/137 151/136/136 198/13/13 101/201/196
f 151/136/136 12/141/141 109/14/14 198/13/13
f 163/203/198 199/9/9 128/12/12 10/139/139
f 7/199/194 115/20/20 199/9/9 163/203/198
f 115/20/20 8/19/19 132/10/10 199/9/9
f 102/204/199 200/5/5 156/8/8 1/205/200
f 5/202/197 88/16/16 200/5/5 102/204/199
f 88/16/16 6/15/15 160/6/6 200/5/5
f 119/206/201 201/1/1 70/4/4 4/200/195
f 1/205/200 156/8/8 201/1/1 119/206/201
f 156/8/8 2/7/7 110/2/2 201/1/1
