%YAML 1.1
%TAG !u! tag:unity3d.com,2011:
--- !u!21 &2100000
Material:
  serializedVersion: 6
  m_ObjectHideFlags: 0
  m_PrefabParentObject: {fileID: 0}
  m_PrefabInternal: {fileID: 0}
  m_Name: Terrain
  m_Shader: {fileID: 4800000, guid: 1925d6846a71be44f933bc02e7a0f33b, type: 3}
  m_ShaderKeywords: _EMISSION
  m_LightmapFlags: 1
  m_CustomRenderQueue: -1
  stringTagMap: {}
  m_SavedProperties:
    serializedVersion: 2
    m_TexEnvs:
    - first:
        name: _BumpMap
      second:
        m_Texture: {fileID: 0}
        m_Scale: {x: 1, y: 1}
        m_Offset: {x: 0, y: 0}
    - first:
        name: _CorruptTex
      second:
        m_Texture: {fileID: 2800000, guid: 6e6f0d5574a808e439b9c9e5870a62c8, type: 3}
        m_Scale: {x: 1, y: 1}
        m_Offset: {x: 0, y: 0}
    - first:
        name: _DetailAlbedoMap
      second:
        m_Texture: {fileID: 0}
        m_Scale: {x: 1, y: 1}
        m_Offset: {x: 0, y: 0}
    - first:
        name: _DetailMask
      second:
        m_Texture: {fileID: 0}
        m_Scale: {x: 1, y: 1}
        m_Offset: {x: 0, y: 0}
    - first:
        name: _DetailNormalMap
      second:
        m_Texture: {fileID: 0}
        m_Scale: {x: 1, y: 1}
        m_Offset: {x: 0, y: 0}
    - first:
        name: _EmissionMap
      second:
        m_Texture: {fileID: 0}
        m_Scale: {x: 1, y: 1}
        m_Offset: {x: 0, y: 0}
    - first:
        name: _GrassTex
      second:
        m_Texture: {fileID: 0}
        m_Scale: {x: 1, y: 1}
        m_Offset: {x: 0, y: 0}
    - first:
        name: _GrassTex1
      second:
        m_Texture: {fileID: 2800000, guid: 2cf2f3bd77e428a4496dac1f49d42f91, type: 3}
        m_Scale: {x: 1, y: 1}
        m_Offset: {x: 0, y: 0}
    - first:
        name: _GrassTex2
      second:
        m_Texture: {fileID: 2800000, guid: 2cf2f3bd77e428a4496dac1f49d42f91, type: 3}
        m_Scale: {x: 1, y: 1}
        m_Offset: {x: 0, y: 0}
    - first:
        name: _GrassTex3
      second:
        m_Texture: {fileID: 2800000, guid: cb32e6240a413524aba977a4191bc0bd, type: 3}
        m_Scale: {x: 1, y: 1}
        m_Offset: {x: 0, y: 0}
    - first:
        name: _GrassTex4
      second:
        m_Texture: {fileID: 2800000, guid: 2cf2f3bd77e428a4496dac1f49d42f91, type: 3}
        m_Scale: {x: 1, y: 1}
        m_Offset: {x: 0, y: 0}
    - first:
        name: _GrassTexs
      second:
        m_Texture: {fileID: 0}
        m_Scale: {x: 1, y: 1}
        m_Offset: {x: 0, y: 0}
    - first:
        name: _MainTex
      second:
        m_Texture: {fileID: 0}
        m_Scale: {x: 1, y: 1}
        m_Offset: {x: 0, y: 0}
    - first:
        name: _MapTex
      second:
        m_Texture: {fileID: 2800000, guid: 2a7e7f612194fee48b3705b6f7f8587a, type: 3}
        m_Scale: {x: 1, y: 1}
        m_Offset: {x: 0, y: 0}
    - first:
        name: _MetallicGlossMap
      second:
        m_Texture: {fileID: 0}
        m_Scale: {x: 1, y: 1}
        m_Offset: {x: 0, y: 0}
    - first:
        name: _NoiseTex
      second:
        m_Texture: {fileID: 2800000, guid: 8d04a0b812f93d14d82c179b0f438672, type: 3}
        m_Scale: {x: 1, y: 1}
        m_Offset: {x: 0, y: 0}
    - first:
        name: _OcclusionMap
      second:
        m_Texture: {fileID: 0}
        m_Scale: {x: 1, y: 1}
        m_Offset: {x: 0, y: 0}
    - first:
        name: _ParallaxMap
      second:
        m_Texture: {fileID: 0}
        m_Scale: {x: 1, y: 1}
        m_Offset: {x: 0, y: 0}
    - first:
        name: _RockTex
      second:
        m_Texture: {fileID: 2800000, guid: 051131d5e87902144b4107eea170a805, type: 3}
        m_Scale: {x: 1, y: 1}
        m_Offset: {x: 0, y: 0}
    - first:
        name: _TerrainMap
      second:
        m_Texture: {fileID: 2800000, guid: daf7d439e63a3584a92b8c642e6e122d, type: 3}
        m_Scale: {x: 1, y: 1}
        m_Offset: {x: 0, y: 0}
    m_Floats:
    - first:
        name: _BumpScale
      second: 1
    - first:
        name: _Cutoff
      second: 0.5
    - first:
        name: _CutoffIntensity
      second: 1
    - first:
        name: _DetailNormalMapScale
      second: 1
    - first:
        name: _DstBlend
      second: 0
    - first:
        name: _GlossMapScale
      second: 1
    - first:
        name: _Glossiness
      second: 0
    - first:
        name: _GlossyReflections
      second: 1
    - first:
        name: _HighIntensity
      second: 2.19
    - first:
        name: _LightScalar
      second: 1.41
    - first:
        name: _LowIntensity
      second: 0.66
    - first:
        name: _MapScalar
      second: 640
    - first:
        name: _Metallic
      second: 0
    - first:
        name: _Mode
      second: 0
    - first:
        name: _NoiseScalar
      second: 1.63
    - first:
        name: _OcclusionStrength
      second: 1
    - first:
        name: _Octives
      second: 2
    - first:
        name: _Parallax
      second: 0.02
    - first:
        name: _RampLevels
      second: 15
    - first:
        name: _Scalar
      second: 5.8
    - first:
        name: _ShadowIntensity
      second: 0.72
    - first:
        name: _SmoothnessTextureChannel
      second: 0
    - first:
        name: _SpecularHighlights
      second: 1
    - first:
        name: _SrcBlend
      second: 1
    - first:
        name: _TexScalar
      second: 31
    - first:
        name: _UVSec
      second: 0
    - first:
        name: _ZWrite
      second: 1
    m_Colors:
    - first:
        name: _Color
      second: {r: 1, g: 1, b: 1, a: 1}
    - first:
        name: _CorruptCol
      second: {r: 0.24313727, g: 0.14509805, b: 0.3019608, a: 1}
    - first:
        name: _EmissionColor
      second: {r: 0, g: 0, b: 0, a: 1}
    - first:
        name: _GrassCol1
      second: {r: 0.09580952, g: 0.503, b: 0.16287623, a: 1}
    - first:
        name: _GrassCol2
      second: {r: 0.10588236, g: 0.54509807, b: 0.1764706, a: 1}
    - first:
        name: _GrassCol3
      second: {r: 0.11188486, g: 0.576, b: 0.18647473, a: 1}
    - first:
        name: _GrassCol4
      second: {r: 0.09498559, g: 0.489, b: 0.15830928, a: 1}
    - first:
        name: _HighColor
      second: {r: 1, g: 1, b: 1, a: 1}
    - first:
        name: _LowColor
      second: {r: 1, g: 1, b: 1, a: 1}
