# Blender v2.78 (sub 0) OBJ File: ''
# www.blender.org
mtllib Dead_Tree_s_04.mtl
o Dead_Tree_s_04
v -0.000823 0.049396 -0.085857
v -0.015055 0.680428 -0.003959
v 0.061659 0.702522 0.091248
v 0.078691 0.052262 0.048642
v -0.037722 0.679145 0.108147
v -0.076701 0.048145 0.050558
v 0.010838 0.836861 0.071017
v -0.136337 1.172304 -0.008096
v -0.205834 1.180095 0.011461
v -0.171641 1.173017 -0.057138
v -0.128960 1.719412 -0.155804
v -0.087070 1.688369 -0.112344
v -0.152527 1.724361 -0.089394
v -0.092496 1.788147 -0.119660
v 0.027572 1.788099 -0.282854
v 0.016390 1.766574 -0.297915
v -0.274496 1.961930 -0.171845
v -0.298141 1.943809 -0.163590
v -0.290669 1.940094 -0.190557
v 0.172129 1.926730 -0.394931
v 0.032193 1.761276 -0.282192
v 0.107183 1.059695 0.351347
v 0.089374 1.006363 0.390638
v 0.182084 1.577241 0.576131
v 0.183903 1.581381 0.559346
v 0.128897 1.022973 0.371087
v 0.237667 1.874923 0.722295
v 0.191459 1.578239 0.568073
v -0.427039 2.223710 -0.306589
v 0.137328 1.290686 0.486179
v -0.220847 1.838301 -0.123984
v 0.213189 1.745794 0.655450
v 0.038035 1.782199 -0.288085
v 0.072237 0.357811 0.064981
v -0.016026 0.785541 0.097016
v -0.364753 2.090969 -0.250251
v 0.190781 1.597827 0.571698
v 0.061388 0.929312 0.210502
v -0.182378 1.457650 -0.039440
v 0.185671 1.597430 0.576250
v -0.085386 1.746972 -0.113827
v -0.121253 1.767516 -0.100705
v 0.104453 1.858389 -0.345082
v -0.289525 1.965229 -0.188304
v -0.155694 1.449099 -0.103786
v -0.050064 0.048771 -0.024175
v -0.055420 1.743985 -0.226469
v -0.059874 0.334050 0.076041
v -0.097775 0.928806 -0.026758
v 0.213538 1.746205 0.648562
v 0.096355 1.033667 0.370978
v 0.031834 1.769989 -0.296528
v 0.160339 1.298452 0.472184
v 0.094076 0.865228 0.230107
v -0.293767 1.967337 -0.172995
v 0.000995 0.050204 0.062650
v 0.029067 1.785079 -0.296918
v 0.109270 1.011877 0.382863
v 0.100177 1.849482 -0.351065
v -0.208617 1.832222 -0.168118
v -0.109187 1.770291 -0.144870
v 0.028028 0.681983 0.036307
v 0.189912 1.596005 0.581196
v 0.029889 0.833695 0.251288
v -0.068728 0.987547 0.027008
v -0.029449 1.730678 -0.197407
v 0.040098 0.779013 0.077888
v 0.050236 0.050829 -0.025133
v 0.146225 1.316537 0.457605
v -0.358044 2.100027 -0.242488
v -0.192267 1.177392 -0.023836
v 0.216553 1.745788 0.652162
v -0.150965 1.715301 -0.119837
v -0.150460 1.171825 -0.035374
v -0.171086 1.176200 0.005436
v -0.036989 0.663390 0.042030
v 0.106725 1.847602 -0.344771
v 0.119829 1.043487 0.359230
v -0.031820 1.779543 -0.197944
v -0.127957 0.925874 0.056364
v -0.102891 1.688673 -0.136932
v 0.000313 0.771248 0.028467
v -0.004314 0.341271 -0.049002
v -0.367853 2.092510 -0.239064
v 0.018233 0.671323 0.110454
v -0.117100 1.703767 -0.093327
v -0.302948 1.954941 -0.183617
v -0.182149 1.867958 -0.137495
v -0.119334 1.433720 -0.057771
v 0.149003 1.293142 0.480583
v 0.154319 1.308587 0.463512
v 0.062021 0.844273 0.242660
v 0.080840 0.901401 0.218292
v 0.042492 0.882561 0.230946
v -0.080346 0.960276 -0.003529
v 0.140571 1.303947 0.471873
v -0.043124 1.734589 -0.212847
v -0.029024 1.755833 -0.195804
v -0.216849 1.833137 -0.146607
v -0.193729 1.850856 -0.154679
v -0.201035 1.854488 -0.128311
v -0.044540 1.763784 -0.213168
v -0.172266 1.454652 -0.072513
v -0.150542 1.445463 -0.045020
v -0.134599 1.440354 -0.083464
v -0.115734 0.923428 0.014010
v -0.098379 0.958524 0.046133
v -0.038873 0.336351 0.010176
v 0.006864 0.346233 0.078276
v 0.040059 0.350547 0.003568
vt 0.6776 0.6529
vt 0.6767 0.6681
vt 0.6739 0.6686
vt 0.6743 0.6531
vt 0.6708 0.6526
vt 0.6715 0.6675
vt 0.6690 0.6663
vt 0.6673 0.6521
vt 0.6844 0.6531
vt 0.6822 0.6675
vt 0.6794 0.6676
vt 0.6811 0.6526
vt 0.6744 0.6711
vt 0.6735 0.6807
vt 0.6758 0.6816
vt 0.6766 0.6896
vt 0.6750 0.6905
vt 0.6817 0.6791
vt 0.6840 0.6791
vt 0.6830 0.6907
vt 0.6812 0.6906
vt 0.6789 0.7007
vt 0.6802 0.7012
vt 0.6810 0.7118
vt 0.6797 0.7112
vt 0.6761 0.7010
vt 0.6775 0.7002
vt 0.6785 0.7107
vt 0.6773 0.7115
vt 0.6818 0.7012
vt 0.6834 0.7012
vt 0.6837 0.7118
vt 0.6824 0.7118
vt 0.7115 0.6425
vt 0.7125 0.6423
vt 0.7132 0.6466
vt 0.7125 0.6465
vt 0.6781 0.7170
vt 0.6791 0.7171
vt 0.6796 0.7212
vt 0.6789 0.7212
vt 0.6801 0.7168
vt 0.6811 0.7164
vt 0.6813 0.7210
vt 0.6804 0.7211
vt 0.7118 0.6465
vt 0.7135 0.6536
vt 0.6821 0.7164
vt 0.6831 0.7164
vt 0.6825 0.7210
vt 0.6819 0.7210
vt 0.6787 0.7131
vt 0.6774 0.7128
vt 0.6786 0.7119
vt 0.7137 0.6421
vt 0.7149 0.6418
vt 0.7144 0.6460
vt 0.7138 0.6463
vt 0.7096 0.6429
vt 0.7105 0.6428
vt 0.7112 0.6466
vt 0.7142 0.6536
vt 0.7107 0.6468
vt 0.7130 0.6537
vt 0.7010 0.6683
vt 0.7020 0.6680
vt 0.7013 0.6818
vt 0.7009 0.6817
vt 0.6776 0.6803
vt 0.6795 0.6791
vt 0.6795 0.6906
vt 0.6780 0.6901
vt 0.7022 0.6468
vt 0.7046 0.6459
vt 0.7026 0.6543
vt 0.7011 0.6549
vt 0.6981 0.6472
vt 0.6998 0.6478
vt 0.6995 0.6554
vt 0.6984 0.6551
vt 0.6946 0.6464
vt 0.6963 0.6467
vt 0.6973 0.6548
vt 0.6962 0.6547
vt 0.7005 0.6816
vt 0.7007 0.6904
vt 0.6993 0.6684
vt 0.7000 0.6685
vt 0.7003 0.6817
vt 0.6980 0.6683
vt 0.6987 0.6683
vt 0.7000 0.6818
vt 0.6998 0.6819
vt 0.7005 0.6905
vt 0.6995 0.6819
vt 0.7003 0.6906
vt 0.6812 0.7300
vt 0.6804 0.7300
vt 0.6782 0.7212
vt 0.6797 0.7300
vt 0.6812 0.7389
vt 0.6819 0.7300
vt 0.7010 0.6993
vt 0.6973 0.6683
vt 0.6950 0.6547
vt 0.7012 0.6905
vt 0.6928 0.6461
vt 0.6906 0.6376
vt 0.6930 0.6381
vt 0.6954 0.6386
vt 0.6977 0.6393
vt 0.7001 0.6401
vt 0.7033 0.6388
vt 0.7065 0.6376
vt 0.6749 0.6735
vt 0.6772 0.6705
vt 0.7153 0.6606
vt 0.7149 0.6533
vt 0.7086 0.6431
vt 0.7065 0.6395
vt 0.7079 0.6393
vt 0.7093 0.6390
vt 0.7119 0.6380
vt 0.7136 0.6378
vt 0.7153 0.6376
vt 0.6761 0.7124
vt 0.6798 0.7125
vt 0.6772 0.7168
vt 0.7106 0.6385
vt 0.6747 0.7019
vt 0.6733 0.6914
vt 0.6849 0.6675
vt 0.6712 0.6798
vt 0.6692 0.6683
vt 0.6720 0.6709
vt 0.6866 0.6386
vt 0.6827 0.6376
vt 0.6906 0.6396
vt 0.6877 0.6536
vt 0.6701 0.6377
vt 0.6656 0.6378
vt 0.6746 0.6376
vt 0.6787 0.6376
vn 0.8197 0.0812 -0.5670
vn 0.7763 0.1157 -0.6197
vn 0.9893 -0.1446 0.0217
vn 0.9186 -0.0025 0.3952
vn 0.0945 -0.0748 0.9927
vn 0.2404 -0.3442 0.9076
vn -0.7492 -0.2457 0.6150
vn -0.8087 -0.0101 0.5881
vn -0.9205 0.0643 -0.3855
vn -0.9487 -0.1119 -0.2959
vn -0.0771 -0.0148 -0.9969
vn -0.0876 0.1316 -0.9874
vn 0.8100 0.2325 -0.5384
vn 0.1520 0.2766 0.9489
vn 0.8602 0.4187 0.2911
vn 0.9137 0.2158 0.3443
vn 0.2621 0.2020 0.9437
vn -0.8935 -0.3219 -0.3132
vn -0.7677 -0.1005 0.6329
vn -0.7896 0.0152 0.6135
vn -0.9072 -0.1608 -0.3886
vn 0.7328 -0.1922 -0.6527
vn -0.2315 -0.1662 -0.9585
vn -0.4877 -0.2574 -0.8342
vn 0.4245 -0.5935 -0.6838
vn 0.3313 0.1433 0.9326
vn 0.9563 -0.0322 0.2905
vn 0.8758 -0.2699 0.4001
vn 0.3613 0.1092 0.9260
vn -0.9252 0.0086 -0.3795
vn -0.7216 0.1852 0.6671
vn -0.5639 -0.0041 0.8258
vn -0.9233 -0.2427 -0.2978
vn -0.5814 0.6768 -0.4515
vn 0.3045 0.9273 0.2177
vn 0.0421 0.9328 0.3579
vn -0.7236 0.6083 -0.3261
vn 0.0595 0.3742 0.9254
vn 0.6417 0.7417 0.1950
vn 0.6779 0.6889 0.2568
vn -0.0220 0.4299 0.9026
vn 0.4994 0.2891 -0.8167
vn -0.2699 -0.3063 -0.9129
vn -0.2685 -0.4151 -0.8693
vn 0.6763 0.1224 -0.7264
vn -0.5191 -0.3477 -0.7808
vn -0.3885 -0.1477 -0.9095
vn -0.8066 -0.5681 -0.1634
vn -0.6532 -0.1718 0.7374
vn -0.6999 -0.1764 0.6921
vn -0.8460 -0.5090 -0.1586
vn 0.5713 0.7201 0.3937
vn 0.2119 0.2700 0.9393
vn 0.6558 0.1043 0.7477
vn 0.8082 0.0895 0.5820
vn 0.7096 -0.6828 0.1741
vn 0.6264 -0.7737 0.0951
vn 0.6395 0.1062 0.7614
vn -0.0326 -0.8976 -0.4396
vn -0.6015 -0.2413 -0.7616
vn 0.2606 -0.7931 -0.5506
vn -0.2758 0.7555 0.5942
vn 0.8235 -0.5290 0.2048
vn -0.9724 0.1984 -0.1229
vn -0.5774 -0.1670 0.7992
vn -0.6022 -0.1620 0.7818
vn -0.9760 0.2076 -0.0661
vn 0.7577 0.1878 -0.6250
vn -0.1402 -0.1408 -0.9801
vn -0.2220 -0.1857 -0.9572
vn 0.7874 0.0080 -0.6164
vn -0.9381 0.3388 0.0720
vn -0.6057 -0.3363 0.7211
vn -0.5020 -0.3240 0.8019
vn -0.9627 0.2656 -0.0521
vn 0.8359 0.2637 -0.4813
vn -0.1583 0.7960 -0.5843
vn -0.2379 0.5514 -0.7996
vn 0.8177 0.1965 -0.5411
vn 0.4557 -0.6357 0.6231
vn 0.9637 -0.2594 0.0635
vn 0.9576 -0.2298 0.1737
vn 0.5303 -0.4980 0.6861
vn -0.2650 0.3953 -0.8795
vn -0.2706 0.5096 -0.8168
vn 0.7786 0.1344 -0.6129
vn -0.2625 0.3926 -0.8814
vn 0.7575 0.1974 -0.6223
vn 0.5504 -0.3340 0.7652
vn 0.9858 -0.1432 0.0881
vn 0.9920 -0.1238 0.0230
vn 0.6156 -0.4147 0.6702
vn 0.9873 -0.1581 0.0166
vn -0.4791 -0.3140 0.8197
vn -0.1547 -0.4262 -0.8913
vn 0.7788 0.5829 0.2319
vn -0.7788 -0.0252 0.6267
vn -0.4046 0.8228 -0.3992
vn 0.1556 0.8678 0.4719
vn 0.6409 0.7534 -0.1471
vn -0.6161 0.3585 0.7013
vn 0.7150 0.1940 -0.6717
vn 0.6098 0.6672 -0.4277
vn -0.0447 0.5799 -0.8135
vn -0.8882 0.0807 -0.4523
vn -0.0554 0.1383 -0.9888
vn -0.8703 0.0161 0.4922
vn 0.0464 -0.0601 0.9971
vn 0.9001 0.0048 0.4357
vn 0.8380 0.0740 -0.5407
usemtl None
s 1
f 110/1/1 62/2/2 3/3/3 34/4/4
f 109/5/5 85/6/6 5/7/7 48/8/8
f 108/9/9 76/10/10 2/11/11 83/12/12
f 3/3/3 62/2/2 67/13/13
f 107/14/14 65/15/15 8/16/16 75/17/17
f 106/18/18 80/19/19 9/20/20 71/21/21
f 105/22/22 45/23/23 11/24/24 81/25/25
f 104/26/26 89/27/27 12/28/28 86/29/29
f 103/30/30 39/31/31 13/32/32 73/33/33
f 102/34/34 79/35/35 15/36/36 57/37/37
f 101/38/38 88/39/39 17/40/40 55/41/41
f 100/42/42 60/43/43 19/44/44 44/45/45
f 16/46/46 57/37/37 59/47/47
f 99/48/48 31/49/49 18/50/50 87/51/51
f 14/52/52 42/53/53 41/54/54
f 98/55/55 66/56/56 21/57/57 33/58/58
f 97/59/59 47/60/60 16/46/46 52/61/61
f 15/36/36 33/58/58 43/62/62
f 21/63/57 52/61/61 77/64/63
f 96/65/64 30/66/65 24/67/66 40/68/67
f 95/69/68 49/70/69 10/71/70 74/72/71
f 94/73/72 64/74/73 23/75/74 51/76/75
f 93/77/76 38/78/77 22/79/78 78/80/79
f 92/81/80 54/82/81 26/83/82 58/84/83
f 25/85/84 40/68/67 50/86/85
f 91/87/86 69/88/87 25/85/84 37/89/88
f 90/90/89 53/91/90 28/92/91 63/93/92
f 28/92/91 37/89/88 72/94/93
f 24/95/66 63/93/92 32/96/94
f 19/44/44 87/51/51 36/97/95
f 17/40/40 44/45/45 70/98/96
f 18/99/50 55/41/41 84/100/97
f 84/100/97 70/98/96 29/101/98
f 84/100/97 55/41/41 70/98/96
f 55/41/41 17/40/40 70/98/96
f 70/98/96 36/97/95 29/101/98
f 70/98/96 44/45/45 36/97/95
f 44/45/45 19/44/44 36/97/95
f 36/97/95 84/102/97 29/101/98
f 36/97/95 87/51/51 84/102/97
f 87/51/51 18/50/50 84/102/97
f 32/96/94 72/94/93 27/103/99
f 32/96/94 63/93/92 72/94/93
f 63/93/92 28/92/91 72/94/93
f 72/94/93 50/86/85 27/103/99
f 72/94/93 37/89/88 50/86/85
f 37/89/88 25/85/84 50/86/85
f 30/104/65 90/90/89 63/93/92 24/95/66
f 23/105/74 58/84/83 90/90/89 30/104/65
f 58/84/83 26/83/82 53/91/90 90/90/89
f 53/91/90 91/87/86 37/89/88 28/92/91
f 26/83/82 78/80/79 91/87/86 53/91/90
f 78/80/79 22/79/78 69/88/87 91/87/86
f 50/86/85 32/106/94 27/103/99
f 50/86/85 40/68/67 32/106/94
f 40/68/67 24/67/66 32/106/94
f 64/107/73 92/81/80 58/84/83 23/105/74
f 5/108/7 85/109/6 92/81/80 64/107/73
f 85/109/6 3/110/3 54/82/81 92/81/80
f 54/82/81 93/77/76 78/80/79 26/83/82
f 3/110/3 67/111/13 93/77/76 54/82/81
f 67/111/13 7/112/100 38/78/77 93/77/76
f 38/78/77 94/73/72 51/76/75 22/79/78
f 7/112/100 35/113/101 94/73/72 38/78/77
f 35/113/101 5/114/7 64/74/73 94/73/72
f 65/15/15 95/69/68 74/72/71 8/16/16
f 7/115/100 82/116/102 95/69/68 65/15/15
f 82/116/102 2/11/11 49/70/69 95/69/68
f 69/88/87 96/65/64 40/68/67 25/85/84
f 22/79/78 51/76/75 96/65/64 69/88/87
f 51/76/75 23/75/74 30/66/65 96/65/64
f 77/64/63 59/47/47 20/117/103
f 77/64/63 52/61/61 59/47/47
f 52/61/61 16/46/46 59/47/47
f 43/62/62 77/118/63 20/117/103
f 43/62/62 33/58/58 77/118/63
f 33/58/58 21/57/57 77/118/63
f 66/119/56 97/59/59 52/61/61 21/63/57
f 12/120/28 81/121/25 97/59/59 66/119/56
f 81/121/25 11/122/24 47/60/60 97/59/59
f 79/35/35 98/55/55 33/58/58 15/36/36
f 14/123/52 41/124/54 98/55/55 79/35/35
f 41/124/54 12/125/28 66/56/56 98/55/55
f 41/54/54 86/29/29 12/28/28
f 41/54/54 42/53/53 86/29/29
f 42/53/53 13/126/32 86/29/29
f 60/43/43 99/48/48 87/51/51 19/44/44
f 11/24/24 73/33/33 99/48/48 60/43/43
f 73/33/33 13/32/32 31/49/49 99/48/48
f 59/47/47 43/62/62 20/117/103
f 59/47/47 57/37/37 43/62/62
f 57/37/37 15/36/36 43/62/62
f 88/39/39 100/42/42 44/45/45 17/40/40
f 14/52/52 61/127/104 100/42/42 88/39/39
f 61/127/104 11/24/24 60/43/43 100/42/42
f 31/128/49 101/38/38 55/41/41 18/99/50
f 13/126/32 42/53/53 101/38/38 31/128/49
f 42/53/53 14/52/52 88/39/39 101/38/38
f 47/60/60 102/34/34 57/37/37 16/46/46
f 11/122/24 61/129/104 102/34/34 47/60/60
f 61/129/104 14/123/52 79/35/35 102/34/34
f 45/23/23 103/30/30 73/33/33 11/24/24
f 10/71/70 71/21/21 103/30/30 45/23/23
f 71/21/21 9/20/20 39/31/31 103/30/30
f 39/130/31 104/26/26 86/29/29 13/126/32
f 9/131/20 75/17/17 104/26/26 39/130/31
f 75/17/17 8/16/16 89/27/27 104/26/26
f 89/27/27 105/22/22 81/25/25 12/28/28
f 8/16/16 74/72/71 105/22/22 89/27/27
f 74/72/71 10/71/70 45/23/23 105/22/22
f 49/70/69 106/18/18 71/21/21 10/71/70
f 2/11/11 76/10/10 106/18/18 49/70/69
f 76/10/10 5/132/7 80/19/19 106/18/18
f 80/133/19 107/14/14 75/17/17 9/131/20
f 5/134/7 35/135/101 107/14/14 80/133/19
f 35/135/101 7/115/100 65/15/15 107/14/14
f 67/13/13 82/116/102 7/115/100
f 67/13/13 62/2/2 82/116/102
f 62/2/2 2/11/11 82/116/102
f 46/136/105 108/9/9 83/12/12 1/137/106
f 6/138/107 48/139/8 108/9/9 46/136/105
f 48/139/8 5/132/7 76/10/10 108/9/9
f 56/140/108 109/5/5 48/8/8 6/141/107
f 4/142/109 34/4/4 109/5/5 56/140/108
f 34/4/4 3/3/3 85/6/6 109/5/5
f 68/143/110 110/1/1 34/4/4 4/142/109
f 1/137/106 83/12/12 110/1/1 68/143/110
f 83/12/12 2/11/11 62/2/2 110/1/1
