# Blender v2.78 (sub 0) OBJ File: ''
# www.blender.org
mtllib Dead_Tree_s_03.mtl
o Dead_Tree_s_03
v -0.000927 0.055642 -0.081540
v -0.018165 0.670834 -0.006178
v 0.045673 0.697630 0.072517
v 0.075501 0.058870 0.047206
v -0.047200 0.659490 0.092176
v -0.073259 0.054233 0.049364
v -0.181869 1.183815 -0.056493
v -0.143913 1.178672 -0.007258
v -0.215058 1.189954 0.010687
v -0.315346 1.905676 -0.154387
v -0.263248 1.866741 -0.115079
v -0.342454 1.901675 -0.087742
v -0.308122 1.995790 -0.120642
v -0.110785 2.084533 -0.335250
v -0.117738 2.055529 -0.355822
v -0.505689 2.436316 -0.113118
v 0.001195 2.306931 -0.570169
v -0.097499 2.052592 -0.335125
v -0.283585 1.933772 -0.116705
v -0.423613 2.199015 -0.129316
v -0.417718 2.223403 -0.112038
v -0.107620 2.085027 -0.360084
v -0.049824 0.054937 -0.023438
v 0.070523 0.357480 0.064135
v -0.041790 2.188286 -0.462883
v -0.213500 1.526185 -0.057998
v 0.001121 0.056551 0.062985
v -0.047257 2.201413 -0.462931
v -0.300961 1.866930 -0.092884
v -0.046251 0.937812 0.036528
v -0.339210 1.985966 -0.099112
v -0.058332 0.334304 0.074923
v -0.205178 2.016525 -0.220322
v -0.202439 1.187826 -0.024026
v 0.017942 0.686500 0.028721
v 0.050017 0.057256 -0.024517
v -0.050110 2.189491 -0.471389
v -0.251772 1.533391 -0.102879
v -0.038406 0.662212 0.040978
v -0.099886 2.066441 -0.360012
v -0.278757 1.538144 -0.040119
v -0.276019 1.858539 -0.140282
v -0.158915 1.180302 -0.034981
v -0.431304 2.199484 -0.104416
v -0.327381 2.005959 -0.141917
v -0.179485 1.184313 0.005943
v -0.096165 0.925862 -0.024955
v -0.185086 1.968024 -0.220098
v -0.349166 1.932317 -0.116685
v -0.004142 0.341347 -0.047038
v -0.125603 0.923002 0.056119
v -0.095842 2.083319 -0.348040
v -0.215782 1.972508 -0.251520
v 0.000773 0.679242 0.088816
v -0.200078 1.966795 -0.236971
v -0.193582 1.993757 -0.217861
v -0.212385 1.996505 -0.237108
v -0.269149 1.536487 -0.072512
v -0.245705 1.532072 -0.045020
v -0.229175 1.529161 -0.083464
v -0.115734 0.923428 0.014010
v -0.085159 0.930748 0.051672
v -0.067126 0.932500 0.002010
v -0.038873 0.336351 0.010176
v 0.006864 0.346233 0.078276
v 0.040059 0.350547 0.003568
vt 0.5631 0.6545
vt 0.5618 0.6678
vt 0.5594 0.6679
vt 0.5601 0.6546
vt 0.5570 0.6542
vt 0.5573 0.6673
vt 0.5552 0.6666
vt 0.5539 0.6539
vt 0.5690 0.6552
vt 0.5665 0.6679
vt 0.5641 0.6677
vt 0.5661 0.6545
vt 0.5605 0.6776
vt 0.5623 0.6779
vt 0.5604 0.6880
vt 0.5592 0.6874
vt 0.5569 0.6773
vt 0.5588 0.6773
vt 0.5581 0.6867
vt 0.5566 0.6874
vt 0.5642 0.6782
vt 0.5662 0.6786
vt 0.5636 0.6890
vt 0.5620 0.6885
vt 0.5578 0.6999
vt 0.5589 0.7005
vt 0.5574 0.7129
vt 0.5563 0.7124
vt 0.5553 0.6998
vt 0.5567 0.6992
vt 0.5553 0.7118
vt 0.5540 0.7122
vt 0.5603 0.7008
vt 0.5617 0.7012
vt 0.5599 0.7134
vt 0.5587 0.7132
vt 0.5800 0.6475
vt 0.5812 0.6474
vt 0.5818 0.6531
vt 0.5810 0.6531
vt 0.5527 0.7126
vt 0.5538 0.7136
vt 0.5531 0.7253
vt 0.5554 0.7254
vt 0.5801 0.6531
vt 0.5818 0.6621
vt 0.5550 0.7147
vt 0.5562 0.7138
vt 0.5543 0.7263
vt 0.5552 0.7132
vt 0.5823 0.6471
vt 0.5834 0.6468
vt 0.5832 0.6524
vt 0.5825 0.6528
vt 0.5778 0.6477
vt 0.5788 0.6476
vt 0.5795 0.6531
vt 0.5827 0.6621
vt 0.5788 0.6531
vt 0.5812 0.6621
vt 0.5836 0.6711
vt 0.5834 0.6618
vt 0.5769 0.6479
vt 0.5750 0.6426
vt 0.5762 0.6423
vt 0.5775 0.6421
vt 0.5806 0.6418
vt 0.5821 0.6415
vt 0.5836 0.6412
vt 0.5535 0.7380
vt 0.5567 0.7257
vt 0.5791 0.6420
vt 0.5538 0.7003
vt 0.5550 0.6880
vt 0.5689 0.6681
vt 0.5551 0.6773
vt 0.5715 0.6424
vt 0.5680 0.6414
vt 0.5750 0.6435
vt 0.5719 0.6558
vt 0.5567 0.6412
vt 0.5527 0.6412
vt 0.5607 0.6412
vt 0.5644 0.6413
vn 0.8198 0.0841 -0.5665
vn 0.7735 0.1419 -0.6177
vn 0.9033 0.2319 0.3609
vn 0.9085 0.0299 0.4168
vn 0.1022 -0.0450 0.9937
vn 0.1645 0.0853 0.9827
vn -0.7079 -0.0605 0.7037
vn -0.8079 -0.0022 0.5893
vn -0.9153 0.0568 -0.3988
vn -0.9328 -0.1309 -0.3357
vn -0.1071 -0.0037 -0.9942
vn -0.0898 0.1268 -0.9879
vn 0.7508 0.1901 -0.6326
vn -0.1420 -0.1426 -0.9795
vn -0.1612 -0.1800 -0.9704
vn 0.7699 0.1296 -0.6248
vn 0.1927 0.2254 0.9550
vn 0.8704 0.3843 0.3078
vn 0.8914 0.3319 0.3087
vn 0.2450 0.2185 0.9446
vn -0.8854 -0.3197 -0.3376
vn -0.7325 -0.1162 0.6708
vn -0.7579 -0.0957 0.6453
vn -0.8836 -0.2805 -0.3749
vn 0.7444 0.0308 -0.6670
vn -0.2288 -0.1837 -0.9560
vn -0.5786 -0.2693 -0.7699
vn 0.5600 -0.3505 -0.7507
vn 0.3083 0.1901 0.9321
vn 0.9319 0.2089 0.2964
vn 0.8916 -0.0344 0.4514
vn 0.3565 0.1779 0.9172
vn -0.9037 -0.2196 -0.3674
vn -0.7118 -0.0368 0.7014
vn -0.6531 -0.0749 0.7536
vn -0.9054 -0.2618 -0.3341
vn -0.7069 0.5203 -0.4792
vn 0.1427 0.8883 0.4366
vn -0.1179 0.8589 0.4983
vn -0.9057 0.3674 -0.2117
vn 0.3664 0.1742 0.9140
vn -0.6769 -0.1553 0.7195
vn -0.2846 0.0457 -0.9576
vn -0.4100 -0.4844 -0.7729
vn -0.4981 -0.3966 -0.7711
vn 0.5761 0.5904 0.5653
vn 0.1529 0.4869 -0.8600
vn 0.8798 0.3942 0.2657
vn 0.5661 0.2278 0.7922
vn 0.6535 0.2724 0.7062
vn 0.8678 -0.4035 0.2900
vn 0.8496 -0.4939 0.1851
vn 0.7149 0.2909 0.6358
vn 0.2561 -0.8176 -0.5156
vn -0.4530 -0.3765 -0.8081
vn 0.4374 -0.7301 -0.5249
vn -0.2549 0.7635 0.5934
vn 0.9504 -0.3071 0.0491
vn 0.2944 0.7040 -0.6463
vn -0.3363 0.9417 0.0081
vn -0.8886 0.0792 -0.4517
vn -0.0586 0.1346 -0.9892
vn -0.8697 0.0121 0.4934
vn 0.0469 -0.0614 0.9970
vn 0.9007 0.0012 0.4345
vn 0.8366 0.0728 -0.5430
usemtl None
s 1
f 66/1/1 35/2/2 3/3/3 24/4/4
f 65/5/5 54/6/6 5/7/7 32/8/8
f 64/9/9 39/10/10 2/11/11 50/12/12
f 63/13/13 47/14/14 7/15/15 43/16/16
f 62/17/17 30/18/18 8/19/19 46/20/20
f 61/21/21 51/22/22 9/23/23 34/24/24
f 60/25/25 38/26/26 10/27/27 42/28/28
f 59/29/29 26/30/30 11/31/31 29/32/32
f 58/33/33 41/34/34 12/35/35 49/36/36
f 57/37/37 33/38/38 14/39/39 22/40/40
f 12/41/35 31/42/41 44/43/42
f 10/27/27 49/36/36 20/44/43
f 15/45/44 22/40/40 37/46/45
f 13/47/46 45/48/47 21/49/48
f 13/47/46 31/42/41 19/50/49
f 56/51/50 48/52/51 18/53/52 52/54/53
f 55/55/54 53/56/55 15/45/44 40/57/56
f 14/39/39 52/54/53 28/58/57
f 18/59/52 40/57/56 25/60/58
f 25/60/58 37/46/45 17/61/59
f 25/60/58 40/57/56 37/46/45
f 40/57/56 15/45/44 37/46/45
f 28/58/57 25/62/58 17/61/59
f 28/58/57 52/54/53 25/62/58
f 52/54/53 18/53/52 25/62/58
f 48/63/51 55/55/54 40/57/56 18/59/52
f 11/64/31 42/65/28 55/55/54 48/63/51
f 42/65/28 10/66/27 53/56/55 55/55/54
f 33/38/38 56/51/50 52/54/53 14/39/39
f 13/67/46 19/68/49 56/51/50 33/38/38
f 19/68/49 11/69/31 48/52/51 56/51/50
f 19/50/49 29/32/32 11/31/31
f 19/50/49 31/42/41 29/32/32
f 31/42/41 12/41/35 29/32/32
f 21/49/48 20/44/43 16/70/60
f 21/49/48 45/48/47 20/44/43
f 45/48/47 10/27/27 20/44/43
f 37/46/45 28/58/57 17/61/59
f 37/46/45 22/40/40 28/58/57
f 22/40/40 14/39/39 28/58/57
f 20/44/43 44/71/42 16/70/60
f 20/44/43 49/36/36 44/71/42
f 49/36/36 12/35/35 44/71/42
f 44/43/42 21/49/48 16/70/60
f 44/43/42 31/42/41 21/49/48
f 31/42/41 13/47/46 21/49/48
f 53/56/55 57/37/37 22/40/40 15/45/44
f 10/66/27 45/72/47 57/37/37 53/56/55
f 45/72/47 13/67/46 33/38/38 57/37/37
f 38/26/26 58/33/33 49/36/36 10/27/27
f 7/15/15 34/24/24 58/33/33 38/26/26
f 34/24/24 9/23/23 41/34/34 58/33/33
f 41/73/34 59/29/29 29/32/32 12/41/35
f 9/74/23 46/20/20 59/29/29 41/73/34
f 46/20/20 8/19/19 26/30/30 59/29/29
f 26/30/30 60/25/25 42/28/28 11/31/31
f 8/19/19 43/16/16 60/25/25 26/30/30
f 43/16/16 7/15/15 38/26/26 60/25/25
f 47/14/14 61/21/21 34/24/24 7/15/15
f 2/11/11 39/10/10 61/21/21 47/14/14
f 39/10/10 5/75/7 51/22/22 61/21/21
f 51/76/22 62/17/17 46/20/20 9/74/23
f 5/7/7 54/6/6 62/17/17 51/76/22
f 54/6/6 3/3/3 30/18/18 62/17/17
f 30/18/18 63/13/13 43/16/16 8/19/19
f 3/3/3 35/2/2 63/13/13 30/18/18
f 35/2/2 2/11/11 47/14/14 63/13/13
f 23/77/61 64/9/9 50/12/12 1/78/62
f 6/79/63 32/80/8 64/9/9 23/77/61
f 32/80/8 5/75/7 39/10/10 64/9/9
f 27/81/64 65/5/5 32/8/8 6/82/63
f 4/83/65 24/4/4 65/5/5 27/81/64
f 24/4/4 3/3/3 54/6/6 65/5/5
f 36/84/66 66/1/1 24/4/4 4/83/65
f 1/78/62 50/12/12 66/1/1 36/84/66
f 50/12/12 2/11/11 35/2/2 66/1/1
