# Blender v2.78 (sub 0) OBJ File: ''
# www.blender.org
mtllib Dead_Tree_crk_m_03.mtl
o Dead_Tree_crk_m_03
v 0.007183 0.127033 -0.384454
v -0.142096 0.848861 -0.269075
v 0.230591 0.850133 -0.129070
v -0.018240 0.127033 0.378435
v 0.092638 0.845155 0.245361
v -0.283030 0.844398 0.105674
v 0.375916 0.127033 0.009702
v -0.386974 0.127033 -0.015721
v 0.296335 1.729212 0.047087
v 0.162476 1.666854 0.291544
v -0.092183 1.656391 0.140123
v 0.069584 1.713924 -0.107311
v -1.080196 0.381952 1.855062
v -0.909827 0.312049 1.850283
v -1.002070 0.776714 2.021158
v -1.054470 0.787708 1.988748
v -1.150254 0.109852 1.550983
v -1.142642 0.128425 1.877500
v -1.284467 0.206368 1.784735
v -0.928594 0.072740 1.698087
v -0.883999 0.315908 1.681730
v -0.945581 0.104906 1.863744
v -1.102104 0.338926 1.531628
v -1.250630 0.352260 1.767001
v -0.976839 0.163132 1.104344
v -0.965125 -0.030429 1.274166
v -0.744117 0.031896 1.400144
v -0.760892 0.239468 1.221455
v -0.596982 0.076034 2.389835
v -0.671368 0.094472 2.407135
v -0.650352 0.190755 2.400866
v -0.577329 0.165899 2.383986
v -0.439938 0.008576 3.012605
v -0.419327 0.001775 2.997369
v -0.426380 -0.028816 2.998214
v -0.446831 -0.022067 3.013342
v -1.710722 0.401440 2.299152
v -1.894890 0.513627 2.417617
v -1.913013 0.414387 2.423248
v -1.743497 0.514369 2.170118
v -1.782706 0.416112 2.195399
v -1.952754 0.516618 2.308732
v -1.900810 0.606609 2.289686
v -1.670201 0.508162 2.268329
v -1.846235 0.601013 2.393415
v -1.968640 0.421110 2.318200
v -2.517691 0.266941 2.517793
v -2.526474 0.332331 2.530869
v -2.988278 -0.004135 2.339509
v -2.989506 -0.035077 2.337164
v -2.552052 0.338663 2.459633
v -2.543992 0.277712 2.447244
v -2.994260 -0.033083 2.303678
v -2.993063 -0.004268 2.305933
v -2.159934 0.810432 2.442222
v -2.183677 0.806826 2.380996
v -2.139308 0.852288 2.360750
v -2.118978 0.852440 2.423279
v -2.219252 1.071870 2.421013
v -2.231239 1.060389 2.426603
v -2.239420 1.060064 2.410461
v -2.226454 1.072468 2.404493
v -0.969195 0.817342 1.956480
v -1.051008 1.533071 2.096601
v -1.078316 1.521403 2.151846
v -1.038126 0.815588 1.899810
v -1.096067 1.529418 2.063906
v -1.330799 2.044758 2.455483
v -1.314896 2.045472 2.469329
v -1.113659 1.525090 2.124340
v -1.334775 2.031332 2.472765
v -1.321500 2.029680 2.483410
v -0.848742 -0.007736 1.335836
v -1.001431 0.819991 1.922588
v -2.198020 0.427546 2.485133
v -0.966707 0.362249 1.869643
v -1.218636 1.820116 2.269094
v -1.002429 1.173495 2.020372
v -2.540292 0.340854 2.496588
v -1.942604 0.411238 2.371624
v -2.796558 0.112940 2.378476
v -1.030500 0.778685 2.010510
v -1.795734 0.459813 2.376796
v -0.666863 0.144396 2.405452
v -0.746838 0.231295 2.093719
v -1.053141 0.031480 1.393647
v -1.097952 1.522944 2.143152
v -1.677722 0.453045 2.285299
v -1.525095 0.310401 1.990789
v -1.871980 0.609606 2.340677
v -3.003746 -0.043117 2.315601
v -0.025594 1.349917 -0.190464
v -0.815063 0.265792 1.428248
v -0.352070 0.449674 0.056302
v -1.769924 0.549835 2.347103
v -0.527624 0.091005 2.735258
v -1.164150 0.335971 1.645580
v -1.023751 0.093078 1.865458
v -1.437268 0.268086 2.077532
v -0.105365 0.844777 0.227064
v -1.916642 0.570872 2.286917
v -0.432042 -0.029107 3.021803
v -1.074595 1.150385 2.048458
v -2.236650 1.066583 2.418678
v -2.137805 0.831659 2.437876
v -0.959244 0.090922 1.773024
v -0.233062 0.127033 -0.255966
v -0.264110 0.846630 -0.091869
v -0.295975 0.449674 -0.167600
v -2.180672 0.974416 2.422916
v -0.438446 -0.010663 3.029465
v -1.277535 0.281354 1.770280
v 0.120372 1.321749 0.272878
v -1.105275 0.383561 1.685172
v -2.021143 0.723438 2.326788
v -1.037422 0.071776 1.621377
v -0.901820 0.318402 1.774710
v -0.176517 0.449674 0.265751
v -1.229098 1.812157 2.307259
v -1.339381 2.050936 2.474071
v -0.425087 0.001168 3.021124
v 0.034676 1.679262 0.223978
v -2.239292 0.432473 2.395382
v -1.159067 0.109310 1.701723
v -0.258485 0.127033 0.224524
v -2.207985 0.949003 2.435485
v -0.828603 0.048321 1.546383
v -2.787492 0.154281 2.437887
v -1.735691 0.392861 2.238158
v -0.741669 0.137294 1.303978
v -1.033133 1.145783 2.081071
v -3.004980 -0.027629 2.299497
v -2.801070 0.157394 2.386681
v -1.832564 0.557844 2.242742
v -0.963993 0.529590 1.916506
v -1.329719 2.058630 2.472770
v -0.981401 0.796994 1.992280
v -2.782586 0.106387 2.429218
v -1.496834 0.431399 1.973999
v -0.086525 0.449674 -0.343152
v -1.884394 0.450170 2.421821
v -2.175783 0.804963 2.413419
v -0.495818 0.021065 2.721137
v -0.866388 0.204715 1.145360
v -1.061218 1.527244 2.126760
v -1.809719 0.423618 2.375220
v -1.050530 0.801682 1.940818
v -3.001936 -0.012786 2.317506
v -0.973460 0.059685 1.177219
v -1.071573 1.531547 2.075194
v -2.550089 0.308997 2.447587
v -1.851993 0.566132 2.408255
v -0.581152 0.119184 2.385459
v -0.983057 0.344877 1.586941
v -0.848640 0.276976 2.107530
v -1.761103 0.465676 2.169801
v -2.202487 0.353329 2.482472
v -2.243932 0.362389 2.392733
v -2.224793 1.077998 2.413171
v -2.529812 0.266969 2.481182
v -1.038276 0.232727 1.282045
v -1.188638 1.822249 2.291875
v -0.635693 0.078030 2.398893
v -0.778488 0.096169 2.106341
v 0.256834 0.449674 0.146294
v -1.874189 0.431319 2.266246
v -1.983699 0.720937 2.412350
v -1.950803 0.456179 2.299019
v -0.612323 0.185550 2.392018
v -1.142555 0.211191 1.501379
v -2.055980 0.664125 2.343558
v -3.000701 -0.028274 2.333610
v -0.190648 1.315680 0.115242
v -1.062719 0.565893 1.727067
v -2.192834 0.974420 2.385624
v -0.418683 -0.017276 3.013463
v -2.226881 1.072164 2.423704
v -0.483458 0.077482 2.718442
v -1.177728 0.373602 1.777427
v -1.054298 1.169227 1.980067
v -1.394553 0.438654 2.056244
v -0.912280 0.191034 1.852973
v -0.887493 0.175214 1.692633
v 0.247427 0.127033 -0.230543
v -0.012367 1.705114 0.014800
v 0.213161 0.847644 0.068315
v 0.222005 0.127033 0.249947
v -1.324956 2.050418 2.486343
v -1.868749 0.467160 2.254442
v -1.231616 0.154441 1.802227
v 0.266506 1.359257 -0.030810
v 0.312929 0.449674 -0.077608
v -1.952327 0.523643 2.372959
v -1.208348 0.154086 1.667029
v 0.191133 1.745108 -0.032322
v 0.047385 0.449674 0.321847
v -1.115393 0.250739 1.909179
v -0.929371 0.552106 1.831098
v -2.222475 0.946812 2.399092
v -2.015991 0.665214 2.428218
v -0.889304 0.109879 2.122840
v -2.125165 0.856030 2.390204
v -0.539641 0.034483 2.737823
v 0.054417 0.849497 -0.250619
v 0.238176 1.719256 0.176855
v 0.137377 0.449674 -0.287057
v -1.205259 1.809529 2.325927
v -1.334617 2.042724 2.487644
v -1.055087 0.568292 1.895195
v -2.520015 0.298826 2.530183
v -2.163144 0.829335 2.365748
v -1.108306 1.527248 2.091587
v -2.234562 1.072417 2.408146
v -1.704912 0.519349 2.217842
v -0.845030 0.090909 1.212310
v 0.124458 1.773954 0.104729
v -1.194735 1.815868 2.310605
v -1.226081 1.816157 2.286472
v -1.218292 1.809992 2.319562
v -1.352196 2.089275 2.510088
v -1.068285 1.159820 2.011265
v -1.055961 1.146170 2.070073
v -1.026267 1.173275 1.994911
v -1.202523 1.822033 2.277515
v -0.937453 0.538690 1.878956
v -0.994935 0.559827 1.768657
v -1.068132 0.569251 1.805977
v -1.013943 1.159625 2.053720
v -2.235611 1.090569 2.416771
v -0.414901 -0.025480 3.069706
v -2.196852 0.389862 2.491183
v -2.245013 0.398007 2.386677
v -2.223584 0.351926 2.437384
v -2.218282 0.435943 2.440476
v -2.184411 0.976599 2.403199
v -2.217572 0.945727 2.418359
v -2.208751 0.960526 2.389328
v -2.193232 0.961800 2.432231
v -1.996661 0.693017 2.427284
v -2.041745 0.693840 2.328173
v -1.999660 0.726918 2.368227
v -2.038746 0.659939 2.387230
v -2.794669 0.159635 2.412978
v -3.037532 -0.054384 2.301501
v -2.789185 0.105866 2.403153
v -2.799947 0.135564 2.378386
v -1.775134 0.507469 2.362603
v -2.783906 0.129936 2.437745
v -1.408093 0.351928 2.073837
v -1.518782 0.372341 1.975445
v -1.442775 0.447016 2.013555
v -1.484100 0.277254 2.035727
v -1.836730 0.416435 2.316131
v -1.799504 0.560778 2.293795
v -1.848513 0.515837 2.240950
v -0.537250 0.063852 2.737918
v -0.486020 0.048166 2.718412
v -0.518732 0.023130 2.729696
v -0.504539 0.088888 2.726634
v -0.877715 0.195869 2.116431
v -0.753920 0.161290 2.098784
v -0.794765 0.266563 2.099476
v -1.053800 0.086668 1.734505
v -0.836870 0.090596 2.115739
v -0.925502 0.266478 1.345700
v -0.942040 0.022683 1.479462
v -0.803421 0.159109 1.499608
v -1.064121 0.130052 1.325554
v -1.196656 0.245463 1.633417
v -0.919824 0.186895 1.768462
v -1.010650 0.548114 1.916276
v -0.047934 1.315764 0.219119
v 0.133253 1.357538 -0.135696
v -0.132922 1.332165 -0.050658
v 0.218240 1.341137 0.134081
vt 0.5836 0.6465
vt 0.5805 0.6592
vt 0.5738 0.6576
vt 0.5471 0.6391
vt 0.5481 0.6533
vt 0.5410 0.6531
vt 0.5657 0.6409
vt 0.5648 0.6549
vt 0.5574 0.6543
vt 0.5272 0.6413
vt 0.5310 0.6542
vt 0.5245 0.6556
vt 0.5564 0.6400
vt 0.5372 0.6402
vt 0.5081 0.6470
vt 0.5177 0.6442
vt 0.5150 0.6585
vt 0.5746 0.6437
vt 0.5543 0.6816
vt 0.5602 0.6827
vt 0.5566 0.6967
vt 0.5522 0.6951
vt 0.5310 0.6811
vt 0.5366 0.6792
vt 0.5382 0.6914
vt 0.5336 0.6937
vt 0.5659 0.6835
vt 0.5716 0.6843
vt 0.5656 0.6967
vt 0.5611 0.6967
vt 0.5425 0.6798
vt 0.5484 0.6805
vt 0.5478 0.6934
vt 0.5430 0.6924
vt 0.5818 0.7084
vt 0.5802 0.7088
vt 0.5822 0.7019
vt 0.5831 0.7020
vt 0.5897 0.6563
vt 0.5938 0.6589
vt 0.5913 0.6600
vt 0.5184 0.7011
vt 0.5199 0.6978
vt 0.5212 0.6989
vt 0.5198 0.7020
vt 0.6154 0.6641
vt 0.6178 0.6656
vt 0.6154 0.6684
vt 0.6132 0.6673
vt 0.5682 0.7009
vt 0.5674 0.7049
vt 0.5618 0.7039
vt 0.5616 0.7004
vt 0.5673 0.7188
vt 0.5683 0.7232
vt 0.5603 0.7210
vt 0.5604 0.7172
vt 0.5669 0.7097
vt 0.5664 0.7145
vt 0.5606 0.7134
vt 0.5612 0.7086
vt 0.5687 0.7279
vt 0.5691 0.7327
vt 0.5618 0.7306
vt 0.5610 0.7258
vt 0.5288 0.7072
vt 0.5294 0.7054
vt 0.5403 0.7056
vt 0.5400 0.7069
vt 0.5147 0.7068
vt 0.5117 0.7060
vt 0.5153 0.7035
vt 0.5168 0.7043
vt 0.6067 0.6632
vt 0.6108 0.6612
vt 0.6089 0.6647
vt 0.5305 0.7162
vt 0.5292 0.7149
vt 0.5399 0.7113
vt 0.5407 0.7124
vt 0.5300 0.7031
vt 0.5307 0.7009
vt 0.5401 0.7028
vt 0.5402 0.7042
vt 0.5288 0.7120
vt 0.5184 0.7184
vt 0.5177 0.7142
vt 0.5504 0.7097
vt 0.5501 0.7090
vt 0.5603 0.7066
vt 0.5602 0.7070
vt 0.5500 0.7062
vt 0.5501 0.7054
vt 0.5599 0.7052
vt 0.5601 0.7055
vt 0.5500 0.7045
vt 0.5500 0.7036
vt 0.5598 0.7044
vt 0.5598 0.7048
vt 0.5501 0.7079
vt 0.5500 0.7070
vt 0.5603 0.7058
vt 0.5603 0.7062
vt 0.5580 0.7157
vt 0.5565 0.7183
vt 0.5555 0.7171
vt 0.6048 0.6903
vt 0.6062 0.6904
vt 0.6052 0.6925
vt 0.6040 0.6926
vt 0.6013 0.6897
vt 0.6033 0.6902
vt 0.6027 0.6927
vt 0.6006 0.6922
vt 0.5545 0.7152
vt 0.5530 0.7186
vt 0.5522 0.7167
vt 0.5949 0.6740
vt 0.5972 0.6736
vt 0.5966 0.6856
vt 0.5945 0.6854
vt 0.6054 0.6759
vt 0.6075 0.6769
vt 0.6040 0.6876
vt 0.6020 0.6871
vt 0.6094 0.6776
vt 0.6113 0.6784
vt 0.6073 0.6884
vt 0.6056 0.6880
vt 0.6003 0.6743
vt 0.6034 0.6749
vt 0.6000 0.6866
vt 0.5983 0.6861
vt 0.5252 0.7248
vt 0.5256 0.7255
vt 0.5156 0.7270
vt 0.5152 0.7266
vt 0.5544 0.7258
vt 0.5562 0.7276
vt 0.5538 0.7270
vt 0.5979 0.6887
vt 0.5993 0.6891
vt 0.5249 0.7279
vt 0.5246 0.7286
vt 0.5146 0.7288
vt 0.5149 0.7285
vt 0.5242 0.7233
vt 0.5247 0.7241
vt 0.5148 0.7263
vt 0.5145 0.7258
vt 0.5757 0.7021
vt 0.5757 0.7025
vt 0.5752 0.7025
vt 0.5752 0.7020
vt 0.5254 0.7264
vt 0.5252 0.7272
vt 0.5152 0.7281
vt 0.5154 0.7276
vt 0.5946 0.6974
vt 0.5962 0.6970
vt 0.5959 0.7031
vt 0.5949 0.7033
vt 0.5999 0.6980
vt 0.6014 0.6983
vt 0.6002 0.7039
vt 0.5991 0.7037
vt 0.6027 0.6984
vt 0.6039 0.6984
vt 0.6025 0.7043
vt 0.6014 0.7041
vt 0.5972 0.6973
vt 0.5983 0.6976
vt 0.5980 0.7035
vt 0.5969 0.7033
vt 0.5972 0.7070
vt 0.5978 0.7071
vt 0.5976 0.7108
vt 0.5975 0.7107
vt 0.5998 0.7076
vt 0.6005 0.7077
vt 0.5984 0.7110
vt 0.5982 0.7110
vt 0.5960 0.7070
vt 0.5966 0.7069
vt 0.5973 0.7107
vt 0.5971 0.7107
vt 0.5985 0.7073
vt 0.5991 0.7075
vt 0.5980 0.7110
vt 0.5978 0.7109
vt 0.5450 0.7243
vt 0.5447 0.7261
vt 0.5351 0.7263
vt 0.5353 0.7251
vt 0.5430 0.7188
vt 0.5438 0.7203
vt 0.5346 0.7219
vt 0.5339 0.7208
vt 0.5443 0.7272
vt 0.5439 0.7283
vt 0.5346 0.7284
vt 0.5349 0.7273
vt 0.5446 0.7214
vt 0.5453 0.7225
vt 0.5356 0.7240
vt 0.5351 0.7229
vt 0.5755 0.7031
vt 0.5752 0.7032
vt 0.5752 0.7027
vt 0.5756 0.7027
vt 0.5754 0.7047
vt 0.5754 0.7045
vt 0.5756 0.7045
vt 0.5756 0.7047
vt 0.5814 0.6897
vt 0.5803 0.6896
vt 0.5808 0.6785
vt 0.5820 0.6781
vt 0.5857 0.7094
vt 0.5835 0.7079
vt 0.5840 0.7021
vt 0.5854 0.7019
vt 0.5902 0.7097
vt 0.5879 0.7109
vt 0.5869 0.7018
vt 0.5882 0.7013
vt 0.5788 0.7087
vt 0.5773 0.7086
vt 0.5797 0.7008
vt 0.5810 0.7013
vt 0.5870 0.6662
vt 0.5863 0.6663
vt 0.5859 0.6538
vt 0.5863 0.6537
vt 0.5880 0.6900
vt 0.5868 0.6903
vt 0.5868 0.6788
vt 0.5878 0.6787
vt 0.5835 0.6898
vt 0.5827 0.6898
vt 0.5831 0.6777
vt 0.5840 0.6777
vt 0.5856 0.6901
vt 0.5845 0.6899
vt 0.5849 0.6777
vt 0.5859 0.6782
vt 0.5755 0.7040
vt 0.5752 0.7041
vt 0.5753 0.7037
vt 0.5755 0.7036
vt 0.5845 0.6658
vt 0.5839 0.6658
vt 0.5847 0.6539
vt 0.5849 0.6539
vt 0.5857 0.6660
vt 0.5850 0.6658
vt 0.5852 0.6539
vt 0.5856 0.6539
vt 0.5832 0.6659
vt 0.5824 0.6660
vt 0.5840 0.6536
vt 0.5843 0.6538
vt 0.6725 0.8070
vt 0.6577 0.8076
vt 0.6582 0.7930
vt 0.6720 0.7917
vt 0.7037 0.8063
vt 0.6887 0.8079
vt 0.6887 0.7939
vt 0.7043 0.7922
vt 0.7187 0.8047
vt 0.7199 0.7905
vt 0.7175 0.8190
vt 0.7031 0.8204
vt 0.6887 0.8218
vt 0.6872 0.8064
vt 0.6859 0.7905
vt 0.6885 0.8223
vt 0.6729 0.8223
vt 0.6572 0.8223
vt 0.5758 0.7039
vt 0.5758 0.7036
vt 0.5758 0.7043
vt 0.5755 0.7043
vt 0.5751 0.7044
vt 0.5892 0.6896
vt 0.5889 0.6785
vt 0.5895 0.7008
vt 0.5878 0.6660
vt 0.5866 0.6536
vt 0.5782 0.7157
vt 0.5766 0.7161
vt 0.5749 0.7164
vt 0.5926 0.7085
vt 0.5956 0.7162
vt 0.5922 0.7181
vt 0.5889 0.7199
vt 0.5860 0.7168
vt 0.5830 0.7137
vt 0.5754 0.7049
vt 0.5756 0.7049
vt 0.5751 0.7049
vt 0.5751 0.7047
vt 0.5751 0.7044
vt 0.5759 0.7031
vt 0.5759 0.7026
vt 0.5759 0.7035
vt 0.5755 0.7035
vt 0.5751 0.7036
vt 0.5540 0.7198
vt 0.5550 0.7210
vt 0.5531 0.7282
vt 0.5423 0.7172
vt 0.5333 0.7198
vt 0.5513 0.7147
vt 0.5547 0.7234
vt 0.5954 0.7071
vt 0.5968 0.7108
vt 0.5939 0.7035
vt 0.5964 0.6908
vt 0.5975 0.6912
vt 0.5986 0.6917
vt 0.5931 0.6977
vt 0.5923 0.6920
vt 0.5943 0.6914
vt 0.5756 0.7016
vt 0.5751 0.7016
vt 0.5762 0.7016
vt 0.5762 0.7021
vt 0.5762 0.7026
vt 0.5237 0.7226
vt 0.5142 0.7254
vt 0.5965 0.6882
vt 0.5555 0.7288
vt 0.5579 0.7294
vt 0.5978 0.6616
vt 0.6022 0.6624
vt 0.6110 0.6662
vt 0.5927 0.6745
vt 0.5924 0.6853
vt 0.5930 0.6636
vt 0.5954 0.6626
vt 0.5536 0.7132
vt 0.5558 0.7118
vt 0.5569 0.7138
vt 0.5398 0.7097
vt 0.5397 0.7081
vt 0.5508 0.7104
vt 0.5602 0.7073
vt 0.5414 0.7135
vt 0.5283 0.7090
vt 0.5170 0.7100
vt 0.5184 0.7051
vt 0.5319 0.7175
vt 0.5224 0.7214
vt 0.5204 0.7199
vt 0.6130 0.6627
vt 0.6150 0.6592
vt 0.5177 0.7075
vt 0.5125 0.7093
vt 0.5081 0.7086
vt 0.5762 0.7253
vt 0.5763 0.7300
vt 0.5765 0.7347
vt 0.5730 0.7059
vt 0.5726 0.7107
vt 0.5722 0.7155
vt 0.5742 0.7204
vt 0.5689 0.6969
vt 0.5613 0.6969
vt 0.5765 0.6968
vt 0.5748 0.7013
vt 0.6176 0.6610
vt 0.6201 0.6628
vt 0.5169 0.7002
vt 0.5185 0.6968
vt 0.5806 0.7147
vt 0.5349 0.6670
vt 0.5420 0.6673
vt 0.5491 0.6676
vt 0.5639 0.6688
vt 0.5707 0.6703
vt 0.5775 0.6719
vt 0.5254 0.6830
vt 0.5290 0.6960
vt 0.5219 0.6699
vt 0.5284 0.6684
vt 0.5565 0.6682
vn 0.0592 0.0512 -0.9969
vn -0.2293 0.1162 -0.9664
vn 0.5241 0.1337 -0.8411
vn -0.0341 0.0931 0.9951
vn 0.2213 0.1572 0.9625
vn -0.5294 0.1245 0.8392
vn 0.9919 0.1159 0.0522
vn 0.9599 0.1616 -0.2289
vn 0.8363 0.1605 0.5242
vn -0.9988 0.0272 -0.0405
vn -0.9686 0.1122 0.2220
vn -0.8432 0.0978 -0.5286
vn 0.6790 0.1000 0.7272
vn -0.7274 0.0381 0.6851
vn -0.6794 0.0066 -0.7338
vn 0.7349 0.0694 -0.6746
vn 0.9074 -0.0975 0.4087
vn 0.9432 0.0122 -0.3319
vn 0.8550 0.4958 -0.1524
vn 0.6524 0.5751 0.4936
vn -0.8620 0.2904 -0.4154
vn -0.9180 0.2286 0.3241
vn -0.8157 0.5022 0.2872
vn -0.6505 0.7210 -0.2388
vn 0.4625 0.1287 -0.8772
vn -0.3117 0.2748 -0.9096
vn -0.1896 0.5982 -0.7786
vn 0.3281 0.7426 -0.5839
vn -0.4361 0.0608 0.8978
vn 0.3239 -0.0491 0.9448
vn 0.2662 0.3382 0.9026
vn -0.4187 0.5717 0.7056
vn -0.2918 -0.3175 0.9022
vn 0.4868 -0.2077 0.8485
vn 0.3032 -0.2323 0.9242
vn -0.4937 -0.2757 0.8248
vn -0.7650 -0.6191 -0.1774
vn -0.4415 -0.8971 0.0164
vn -0.8411 -0.4589 -0.2864
vn 0.9602 -0.2207 0.1710
vn 0.9817 0.0014 0.1902
vn 0.9747 0.2225 0.0204
vn 0.9233 -0.2283 -0.3088
vn -0.8654 0.1429 -0.4803
vn -0.7612 -0.4766 -0.4397
vn -0.7393 0.0904 -0.6673
vn -0.9123 -0.1316 -0.3879
vn -0.6585 -0.7473 -0.0892
vn -0.9104 0.0736 -0.4071
vn 0.9296 0.1111 0.3513
vn 0.6838 0.7282 0.0463
vn 0.9295 0.3686 -0.0121
vn 0.9182 -0.1044 0.3820
vn -0.0834 -0.9693 0.2312
vn 0.6149 -0.6552 0.4388
vn 0.4765 -0.7880 0.3898
vn -0.1924 -0.9708 0.1436
vn 0.0304 0.9594 -0.2805
vn -0.6333 0.6109 -0.4751
vn -0.4982 0.7003 -0.5113
vn 0.3507 0.8067 -0.4756
vn -0.1188 -0.9914 0.0558
vn 0.4935 -0.7891 -0.3658
vn 0.5149 -0.7889 -0.3353
vn -0.2054 -0.9786 -0.0117
vn -0.1579 -0.9820 0.1032
vn 0.4949 -0.8508 0.1763
vn -0.3802 0.5961 0.7072
vn -0.7876 0.6042 -0.1207
vn -0.1150 0.9735 -0.1977
vn 0.4041 0.9144 0.0259
vn -0.2770 0.8019 0.5293
vn -0.3431 0.8377 0.4250
vn 0.3740 0.9244 0.0743
vn 0.8125 -0.2212 -0.5394
vn 0.8192 0.4165 -0.3942
vn 0.8575 0.4447 -0.2585
vn 0.8807 -0.2213 -0.4189
vn -0.7014 0.2225 0.6772
vn -0.0891 0.1057 0.9904
vn 0.3590 0.9192 0.1617
vn -0.4092 0.8246 0.3905
vn -0.4108 0.8071 0.4241
vn 0.4543 0.8067 0.3781
vn -0.3015 -0.9510 -0.0688
vn 0.4833 -0.8317 -0.2732
vn 0.4661 -0.8564 -0.2219
vn -0.1501 -0.9747 0.1655
vn 0.9310 -0.2227 -0.2892
vn 0.8824 0.4590 -0.1030
vn 0.8966 0.4400 -0.0506
vn 0.9632 -0.2572 -0.0780
vn -0.9002 0.2132 0.3796
vn -0.8454 -0.4886 0.2160
vn -0.8434 -0.4790 0.2433
vn -0.7765 0.2306 0.5864
vn 0.2889 -0.7018 0.6511
vn 0.5090 -0.1226 0.8520
vn 0.3352 -0.7156 0.6128
vn -0.5446 0.0968 -0.8331
vn -0.5612 -0.0749 -0.8243
vn -0.6487 0.1347 -0.7491
vn -0.4240 0.0596 -0.9037
vn 0.3868 0.9066 -0.1687
vn -0.1081 0.7020 -0.7039
vn 0.1358 0.6036 -0.7857
vn 0.5453 0.8067 -0.2279
vn -0.0880 -0.9959 -0.0202
vn 0.2747 -0.7372 0.6174
vn 0.1014 -0.9881 -0.1155
vn -0.4258 -0.9048 -0.0009
vn 0.1128 -0.7535 0.6477
vn -0.3053 -0.9515 0.0371
vn 0.0841 0.9721 -0.2191
vn -0.3438 0.6613 -0.6667
vn -0.2580 0.7009 -0.6650
vn 0.2314 0.9615 -0.1482
vn -0.6268 0.0446 -0.7779
vn -0.6657 -0.5417 -0.5132
vn -0.6004 -0.5845 -0.5458
vn -0.6032 0.0558 -0.7956
vn 0.5534 -0.0378 0.8321
vn 0.4952 0.7318 0.4683
vn 0.5952 0.6569 0.4629
vn 0.6202 -0.0102 0.7844
vn -0.2631 -0.1882 0.9463
vn -0.5647 0.3691 0.7381
vn -0.6565 0.3765 0.6537
vn -0.5744 -0.1553 0.8037
vn -0.4031 -0.0442 -0.9141
vn 0.5792 0.0462 0.8139
vn 0.6504 0.6218 0.4363
vn 0.1929 0.1752 -0.9655
vn 0.5260 -0.3929 -0.7543
vn 0.5080 -0.4876 -0.7100
vn -0.1645 0.1345 -0.9772
vn 0.5933 -0.7638 -0.2541
vn 0.2498 -0.7769 0.5780
vn 0.2004 -0.8086 0.5532
vn 0.2738 -0.9618 -0.0052
vn -0.8618 -0.4591 -0.2159
vn -0.7763 0.6237 0.0915
vn -0.3674 0.6669 -0.6483
vn -0.6431 0.7372 0.2072
vn -0.4048 0.7371 -0.5411
vn -0.7097 -0.6171 0.3399
vn -0.2915 -0.3210 0.9011
vn -0.4159 -0.2879 0.8626
vn -0.7975 -0.4954 0.3444
vn 0.6441 0.7206 -0.2567
vn 0.2448 0.4857 -0.8391
vn 0.2465 0.3763 -0.8931
vn 0.7686 0.5797 -0.2705
vn -0.3400 -0.0351 -0.9398
vn -0.7501 -0.4839 -0.4508
vn -0.8425 -0.4004 -0.3604
vn -0.4047 -0.0320 -0.9139
vn 0.2477 0.1608 0.9554
vn 0.6285 0.6266 0.4609
vn 0.7052 0.5055 0.4971
vn 0.2385 0.1520 0.9592
vn 0.2842 0.1590 0.9455
vn 0.8050 0.3758 0.4591
vn 0.7980 0.4430 0.4086
vn 0.1021 0.3900 0.9151
vn -0.4349 0.0294 -0.9000
vn -0.9260 -0.1566 -0.3436
vn -0.9435 -0.0396 -0.3289
vn -0.6203 0.3086 -0.7211
vn -0.8990 -0.2169 0.3804
vn -0.4436 -0.0653 0.8938
vn -0.4248 0.0373 0.9045
vn -0.9052 0.0814 0.4171
vn 0.8628 0.4084 -0.2980
vn 0.3096 0.3068 -0.9000
vn 0.2900 0.3970 -0.8708
vn 0.6666 0.6973 -0.2634
vn -0.2550 0.9521 0.1686
vn -0.3687 0.7483 -0.5514
vn -0.4302 0.7927 -0.4319
vn -0.4421 0.8668 0.2308
vn 0.1997 -0.9625 -0.1835
vn 0.2743 -0.7739 0.5709
vn 0.2230 -0.7615 0.6086
vn 0.4066 -0.8797 -0.2467
vn -0.2514 0.0361 -0.9672
vn -0.0038 -0.6616 -0.7498
vn 0.2859 -0.4868 -0.8254
vn -0.0613 0.1819 -0.9814
vn 0.1842 -0.0684 0.9805
vn -0.0300 0.6097 0.7921
vn -0.2721 0.5326 0.8015
vn -0.0309 -0.1465 0.9887
vn 0.3379 -0.1948 0.9208
vn -0.3766 0.9168 0.1330
vn 0.8903 0.0131 0.4551
vn 0.9681 0.1512 -0.1998
vn 0.9125 0.3545 -0.2043
vn 0.8908 0.0792 0.4475
vn -0.9913 0.1319 0.0035
vn -0.8426 -0.1349 0.5213
vn -0.9059 -0.1464 0.3973
vn -0.9918 0.0381 -0.1221
vn 0.5528 0.4931 -0.6718
vn -0.4439 0.6069 -0.6593
vn -0.4076 0.3764 -0.8320
vn 0.5975 0.3144 -0.7376
vn 0.9477 0.0282 0.3180
vn 0.9372 0.2790 -0.2092
vn 0.9694 0.1761 -0.1707
vn 0.8978 -0.0149 0.4401
vn 0.4195 0.6686 -0.6140
vn -0.4303 0.4183 -0.7999
vn -0.4484 0.4560 -0.7687
vn 0.2381 0.8420 -0.4840
vn 0.5830 0.2253 -0.7806
vn -0.3441 0.1775 -0.9220
vn -0.3267 0.3136 -0.8916
vn 0.5082 0.4456 -0.7370
vn -0.5872 -0.1921 0.7863
vn 0.2806 -0.1373 0.9500
vn 0.3484 -0.2343 0.9076
vn -0.5752 -0.4251 0.6988
vn -0.9642 -0.0200 -0.2646
vn -0.9555 -0.1252 0.2671
vn -0.9356 -0.3058 0.1768
vn -0.9455 -0.0971 -0.3108
vn -0.3968 0.7171 0.5730
vn -0.9322 0.0700 -0.3551
vn -0.8661 -0.4830 0.1288
vn -0.4547 -0.4940 0.7411
vn -0.5154 -0.6287 0.5823
vn 0.3217 -0.4025 0.8570
vn 0.2979 -0.4191 0.8577
vn -0.9331 -0.1885 -0.3063
vn -0.8692 -0.4759 0.1347
vn 0.8711 0.1105 0.4784
vn 0.8509 0.5157 -0.1002
vn 0.8382 0.5439 -0.0396
vn 0.7554 0.1972 0.6249
vn -0.1023 0.9833 0.1503
vn 0.5319 -0.5249 -0.6645
vn 0.3564 0.4197 -0.8348
vn 0.7215 0.5264 -0.4498
vn 0.9707 -0.1423 -0.1936
vn 0.3197 -0.9301 -0.1808
vn 0.8182 -0.5639 0.1123
vn -0.2491 -0.9067 -0.3404
vn -0.3351 -0.5703 -0.7500
vn -0.3199 0.1638 -0.9332
vn 0.3575 -0.0675 0.9315
vn 0.1085 0.1110 0.9879
vn -0.1249 -0.7377 -0.6635
vn -0.8105 0.3476 0.4714
vn 0.4052 0.1122 0.9073
vn 0.6245 0.6160 0.4802
vn -0.4075 -0.6872 -0.6014
vn -0.3126 -0.8153 0.4874
vn -0.4635 0.6658 -0.5847
vn -0.5029 -0.8644 -0.0031
vn -0.8300 0.2301 0.5080
vn -0.7723 -0.5085 0.3809
vn -0.6388 -0.5452 0.5429
vn 0.5334 -0.8257 -0.1836
vn 0.1579 0.4644 0.8714
vn -0.6633 0.6275 -0.4078
vn -0.1151 -0.9879 0.1035
vn -0.9048 0.1857 0.3833
vn -0.3723 0.1174 0.9207
vn 0.3983 0.0792 0.9138
vn 0.8943 0.1190 -0.4314
vn 0.3544 0.1600 -0.9213
vn -0.4147 0.2118 -0.8850
vn -0.9094 0.2120 -0.3579
vn 0.9339 0.0636 0.3519
usemtl None
s 1
f 1/1/1 140/2/2 206/3/3
f 4/4/4 196/5/5 118/6/6
f 7/7/7 192/8/8 165/9/9
f 8/10/10 94/11/11 109/12/12
f 4/4/4 187/13/13 196/5/5
f 8/10/10 125/14/14 94/11/11
f 1/15/1 107/16/15 140/17/2
f 7/7/7 184/18/16 192/8/8
f 275/19/17 191/20/18 9/21/19 205/22/20
f 274/23/21 173/24/22 11/25/23 185/26/24
f 273/27/25 92/28/26 12/29/27 195/30/28
f 272/31/29 113/32/30 10/33/31 122/34/32
f 271/35/33 135/36/34 15/37/35 82/38/36
f 17/39/37 124/40/38 194/41/39
f 270/42/40 117/43/41 14/44/42 182/45/43
f 269/46/44 194/47/39 19/48/45 112/49/46
f 268/50/47 86/51/48 17/52/37 170/53/49
f 267/54/50 93/55/51 21/56/52 183/57/53
f 266/58/54 127/59/55 20/60/56 116/61/57
f 265/62/58 161/63/59 23/64/60 154/65/61
f 264/66/62 164/67/63 29/68/64 163/69/65
f 263/70/66 116/71/57 20/72/56 106/73/67
f 13/74/68 114/75/69 179/76/70
f 262/77/71 155/78/72 31/79/73 169/80/74
f 261/81/75 85/82/76 32/83/77 153/84/78
f 260/85/79 155/78/72 13/86/68 197/87/80
f 259/88/81 96/89/82 33/90/83 121/91/84
f 258/92/85 143/93/86 35/94/87 102/95/88
f 257/96/89 178/97/90 34/98/91 176/99/92
f 256/100/93 203/101/94 36/102/95 111/103/96
f 37/104/97 83/105/98 146/106/99
f 255/107/100 189/108/101 42/109/102 101/110/103
f 254/111/104 134/112/105 43/113/106 90/114/107
f 253/115/108 146/106/99 39/116/109 80/117/110
f 252/118/111 99/119/112 37/120/97 129/121/113
f 251/122/114 139/123/115 40/124/116 214/125/117
f 250/126/118 89/127/119 41/128/120 156/129/121
f 249/130/122 181/131/123 44/132/124 88/133/125
f 248/134/126 128/135/127 49/136/128 172/137/129
f 42/138/102 189/139/101 168/140/130
f 247/141/131 88/133/125 44/132/124 95/142/132
f 246/143/133 81/144/134 53/145/135 132/146/136
f 245/147/137 138/148/138 50/149/139 91/150/140
f 244/151/141 148/152/142 54/153/143 132/154/136
f 243/155/144 133/156/145 54/157/143 148/158/142
f 242/159/146 200/160/147 55/161/148 142/162/149
f 241/163/150 115/164/151 57/165/152 202/166/153
f 240/167/154 171/168/155 56/169/156 211/170/157
f 239/171/158 167/172/159 58/173/160 105/174/161
f 238/175/162 110/176/163 59/177/164 177/178/165
f 237/179/166 199/180/167 61/181/168 213/182/169
f 236/183/170 126/184/171 60/185/172 104/186/173
f 235/187/174 175/188/175 62/189/176 159/190/177
f 234/191/178 123/192/179 51/193/180 79/194/181
f 233/195/182 157/196/183 47/197/184 160/198/185
f 232/199/186 158/200/187 52/201/188 151/202/189
f 231/203/190 75/204/191 48/205/192 210/206/193
f 230/207/194 111/208/96 36/209/95 102/210/88
f 229/211/195 104/212/173 60/213/172 177/214/165
f 228/215/196 78/216/197 64/217/198 145/218/199
f 227/219/200 209/220/201 16/221/202 147/222/203
f 226/223/204 174/224/205 66/225/206 74/226/207
f 225/227/208 198/228/209 63/229/210 137/230/211
f 224/231/212 77/232/213 68/233/214 136/234/215
f 223/235/216 180/236/217 67/237/218 150/238/219
f 222/239/220 131/240/221 65/241/222 87/242/223
f 221/243/224 103/244/225 70/245/226 212/246/227
f 220/247/228 120/248/229 71/249/230 208/250/231
f 219/251/232 207/252/233 72/253/234 208/254/231
f 218/255/235 119/256/236 71/257/230 120/258/229
f 217/259/237 162/260/238 69/261/239 188/262/240
f 216/263/241 205/264/20 9/265/19 195/266/28
f 215/267/242 144/268/243 28/269/244 130/270/245
f 73/271/246 215/267/242 130/270/245 27/272/247
f 26/273/248 149/274/249 215/267/242 73/271/246
f 149/274/249 25/275/250 144/268/243 215/267/242
f 185/276/24 216/263/241 195/266/28 12/277/27
f 11/278/23 122/279/32 216/263/241 185/276/24
f 122/279/32 10/280/31 205/264/20 216/263/241
f 207/252/233 217/259/237 188/262/240 72/253/234
f 65/241/222 145/218/199 217/259/237 207/252/233
f 145/218/199 64/217/198 162/260/238 217/259/237
f 77/232/213 218/255/235 120/258/229 68/233/214
f 67/237/218 212/246/227 218/255/235 77/232/213
f 212/246/227 70/245/226 119/256/236 218/255/235
f 119/256/236 219/251/232 208/254/231 71/257/230
f 70/245/226 87/242/223 219/251/232 119/256/236
f 87/242/223 65/241/222 207/252/233 219/251/232
f 188/281/240 220/247/228 208/250/231 72/282/234
f 69/283/239 136/284/215 220/247/228 188/281/240
f 136/284/215 68/285/214 120/248/229 220/247/228
f 180/236/217 221/243/224 212/246/227 67/237/218
f 66/225/206 147/222/203 221/243/224 180/236/217
f 147/222/203 16/221/202 103/244/225 221/243/224
f 103/244/225 222/239/220 87/242/223 70/245/226
f 16/221/202 82/38/36 222/239/220 103/244/225
f 82/38/36 15/37/35 131/240/221 222/239/220
f 78/286/197 223/235/216 150/238/219 64/287/198
f 63/288/210 74/226/207 223/235/216 78/286/197
f 74/226/207 66/225/206 180/236/217 223/235/216
f 162/289/238 224/231/212 136/234/215 69/290/239
f 64/287/198 150/238/219 224/231/212 162/289/238
f 150/238/219 67/237/218 77/232/213 224/231/212
f 135/36/34 225/227/208 137/230/211 15/37/35
f 14/291/42 117/292/41 225/227/208 135/36/34
f 117/292/41 21/293/52 198/228/209 225/227/208
f 198/294/209 226/223/204 74/226/207 63/288/210
f 21/295/52 154/296/61 226/223/204 198/294/209
f 154/296/61 23/297/60 174/224/205 226/223/204
f 174/224/205 227/219/200 147/222/203 66/225/206
f 23/297/60 114/298/69 227/219/200 174/224/205
f 114/298/69 13/299/68 209/220/201 227/219/200
f 131/240/221 228/215/196 145/218/199 65/241/222
f 15/37/35 137/230/211 228/215/196 131/240/221
f 137/230/211 63/229/210 78/216/197 228/215/196
f 159/300/177 229/211/195 177/214/165 59/301/164
f 62/302/176 213/303/169 229/211/195 159/300/177
f 213/303/169 61/304/168 104/212/173 229/211/195
f 176/305/92 230/207/194 102/210/88 35/306/87
f 34/307/91 121/308/84 230/207/194 176/305/92
f 121/308/84 33/309/83 111/208/96 230/207/194
f 157/196/183 231/203/190 210/206/193 47/197/184
f 39/116/109 141/310/251 231/203/190 157/196/183
f 141/310/251 38/311/252 75/204/191 231/203/190
f 123/192/179 232/199/186 151/202/189 51/193/180
f 42/138/102 168/140/130 232/199/186 123/192/179
f 168/140/130 46/312/253 158/200/187 232/199/186
f 158/313/187 233/195/182 160/198/185 52/314/188
f 46/315/253 80/117/110 233/195/182 158/313/187
f 80/117/110 39/116/109 157/196/183 233/195/182
f 75/204/191 234/191/178 79/194/181 48/205/192
f 38/311/252 193/316/254 234/191/178 75/204/191
f 193/316/254 42/138/102 123/192/179 234/191/178
f 110/176/163 235/187/174 159/190/177 59/177/164
f 58/173/160 202/166/153 235/187/174 110/176/163
f 202/166/153 57/165/152 175/188/175 235/187/174
f 199/317/167 236/183/170 104/186/173 61/318/168
f 56/319/156 142/162/149 236/183/170 199/317/167
f 142/162/149 55/161/148 126/184/171 236/183/170
f 175/188/175 237/179/166 213/182/169 62/189/176
f 57/165/152 211/170/157 237/179/166 175/188/175
f 211/170/157 56/169/156 199/180/167 237/179/166
f 126/184/171 238/175/162 177/178/165 60/185/172
f 55/161/148 105/174/161 238/175/162 126/184/171
f 105/174/161 58/173/160 110/176/163 238/175/162
f 200/160/147 239/171/158 105/174/161 55/161/148
f 38/320/252 152/321/255 239/171/158 200/160/147
f 152/321/255 45/322/256 167/172/159 239/171/158
f 115/164/151 240/167/154 211/170/157 57/165/152
f 43/113/106 101/110/103 240/167/154 115/164/151
f 101/110/103 42/109/102 171/168/155 240/167/154
f 167/172/159 241/163/150 202/166/153 58/173/160
f 45/322/256 90/114/107 241/163/150 167/172/159
f 90/114/107 43/113/106 115/164/151 241/163/150
f 171/323/155 242/159/146 142/162/149 56/319/156
f 42/324/102 193/325/254 242/159/146 171/323/155
f 193/325/254 38/320/252 200/160/147 242/159/146
f 128/135/127 243/155/144 148/158/142 49/136/128
f 48/205/192 79/194/181 243/155/144 128/135/127
f 79/194/181 51/193/180 133/156/145 243/155/144
f 91/326/140 244/151/141 132/154/136 53/327/135
f 50/328/139 172/329/129 244/151/141 91/326/140
f 172/329/129 49/330/128 148/152/142 244/151/141
f 81/331/134 245/147/137 91/150/140 53/332/135
f 52/314/188 160/198/185 245/147/137 81/331/134
f 160/198/185 47/197/184 138/148/138 245/147/137
f 133/156/145 246/143/133 132/146/136 54/157/143
f 51/193/180 151/202/189 246/143/133 133/156/145
f 151/202/189 52/201/188 81/144/134 246/143/133
f 152/321/255 247/141/131 95/142/132 45/322/256
f 38/320/252 83/333/98 247/141/131 152/321/255
f 83/333/98 37/120/97 88/133/125 247/141/131
f 168/140/130 166/334/257 46/312/253
f 168/140/130 189/139/101 166/334/257
f 189/139/101 41/335/120 166/334/257
f 138/148/138 248/134/126 172/137/129 50/149/139
f 47/197/184 210/206/193 248/134/126 138/148/138
f 210/206/193 48/205/192 128/135/127 248/134/126
f 99/119/112 249/130/122 88/133/125 37/120/97
f 18/336/258 197/337/80 249/130/122 99/119/112
f 197/337/80 13/74/68 181/131/123 249/130/122
f 139/123/115 250/126/118 156/129/121 40/124/116
f 24/338/259 112/49/46 250/126/118 139/123/115
f 112/49/46 19/48/45 89/127/119 250/126/118
f 181/131/123 251/122/114 214/125/117 44/132/124
f 13/74/68 179/76/70 251/122/114 181/131/123
f 179/76/70 24/338/259 139/123/115 251/122/114
f 89/339/119 252/118/111 129/121/113 41/340/120
f 19/341/45 190/342/260 252/118/111 89/339/119
f 190/342/260 18/336/258 99/119/112 252/118/111
f 166/343/257 253/115/108 80/117/110 46/315/253
f 41/344/120 129/345/113 253/115/108 166/343/257
f 129/345/113 37/104/97 146/106/99 253/115/108
f 95/142/132 254/111/104 90/114/107 45/322/256
f 44/132/124 214/125/117 254/111/104 95/142/132
f 214/125/117 40/124/116 134/112/105 254/111/104
f 134/112/105 255/107/100 101/110/103 43/113/106
f 40/124/116 156/129/121 255/107/100 134/112/105
f 156/129/121 41/128/120 189/108/101 255/107/100
f 146/106/99 141/310/251 39/116/109
f 146/106/99 83/105/98 141/310/251
f 83/105/98 38/311/252 141/310/251
f 96/89/82 256/100/93 111/103/96 33/90/83
f 31/79/73 84/346/261 256/100/93 96/89/82
f 84/346/261 30/347/262 203/101/94 256/100/93
f 143/93/86 257/96/89 176/99/92 35/94/87
f 29/68/64 153/84/78 257/96/89 143/93/86
f 153/84/78 32/83/77 178/97/90 257/96/89
f 203/101/94 258/92/85 102/95/88 36/102/95
f 30/347/262 163/69/65 258/92/85 203/101/94
f 163/69/65 29/68/64 143/93/86 258/92/85
f 178/348/90 259/88/81 121/91/84 34/349/91
f 32/350/77 169/80/74 259/88/81 178/348/90
f 169/80/74 31/79/73 96/89/82 259/88/81
f 201/351/263 260/85/79 197/87/80 18/352/258
f 30/347/262 84/346/261 260/85/79 201/351/263
f 84/346/261 31/79/73 155/78/72 260/85/79
f 164/67/63 261/81/75 153/84/78 29/68/64
f 22/353/264 182/45/43 261/81/75 164/67/63
f 182/45/43 14/44/42 85/82/76 261/81/75
f 85/354/76 262/77/71 169/80/74 32/350/77
f 14/355/42 76/356/265 262/77/71 85/354/76
f 76/356/265 13/86/68 155/78/72 262/77/71
f 179/76/70 97/357/266 24/338/259
f 179/76/70 114/75/69 97/357/266
f 114/75/69 23/358/60 97/357/266
f 98/359/267 263/70/66 106/73/67 22/353/264
f 18/352/258 124/360/38 263/70/66 98/359/267
f 124/360/38 17/361/37 116/71/57 263/70/66
f 201/351/263 264/66/62 163/69/65 30/347/262
f 18/352/258 98/359/267 264/66/62 201/351/263
f 98/359/267 22/353/264 164/67/63 264/66/62
f 93/55/51 265/62/58 154/65/61 21/56/52
f 28/362/244 144/363/243 265/62/58 93/55/51
f 144/363/243 25/364/250 161/63/59 265/62/58
f 86/51/48 266/58/54 116/61/57 17/52/37
f 26/365/248 73/366/246 266/58/54 86/51/48
f 73/366/246 27/367/247 127/59/55 266/58/54
f 127/59/55 267/54/50 183/57/53 20/60/56
f 27/367/247 130/368/245 267/54/50 127/59/55
f 130/368/245 28/362/244 93/55/51 267/54/50
f 161/369/59 268/50/47 170/53/49 23/370/60
f 25/371/250 149/372/249 268/50/47 161/369/59
f 149/372/249 26/365/248 86/51/48 268/50/47
f 97/357/266 269/46/44 112/49/46 24/338/259
f 23/358/60 170/373/49 269/46/44 97/357/266
f 170/373/49 17/374/37 194/47/39 269/46/44
f 106/73/67 270/42/40 182/45/43 22/353/264
f 20/72/56 183/375/53 270/42/40 106/73/67
f 183/375/53 21/376/52 117/43/41 270/42/40
f 194/41/39 190/342/260 19/341/45
f 194/41/39 124/40/38 190/342/260
f 124/40/38 18/336/258 190/342/260
f 209/220/201 271/35/33 82/38/36 16/221/202
f 13/299/68 76/377/265 271/35/33 209/220/201
f 76/377/265 14/291/42 135/36/34 271/35/33
f 173/24/22 272/31/29 122/34/32 11/25/23
f 6/378/268 100/379/269 272/31/29 173/24/22
f 100/379/269 5/380/270 113/32/30 272/31/29
f 191/20/18 273/27/25 195/30/28 9/21/19
f 3/381/271 204/382/272 273/27/25 191/20/18
f 204/382/272 2/383/273 92/28/26 273/27/25
f 92/384/26 274/23/21 185/26/24 12/385/27
f 2/386/273 108/387/274 274/23/21 92/384/26
f 108/387/274 6/378/268 173/24/22 274/23/21
f 113/32/30 275/19/17 205/22/20 10/33/31
f 5/380/270 186/388/275 275/19/17 113/32/30
f 186/388/275 3/381/271 191/20/18 275/19/17
f 192/8/8 206/3/3 3/381/271
f 192/8/8 184/18/16 206/3/3
f 184/18/16 1/1/1 206/3/3
f 140/17/2 109/12/12 2/386/273
f 140/17/2 107/16/15 109/12/12
f 107/16/15 8/10/10 109/12/12
f 94/11/11 118/6/6 6/378/268
f 94/11/11 125/14/14 118/6/6
f 125/14/14 4/4/4 118/6/6
f 196/5/5 165/9/9 5/380/270
f 196/5/5 187/13/13 165/9/9
f 187/13/13 7/7/7 165/9/9
f 109/12/12 108/387/274 2/386/273
f 109/12/12 94/11/11 108/387/274
f 94/11/11 6/378/268 108/387/274
f 165/9/9 186/388/275 5/380/270
f 165/9/9 192/8/8 186/388/275
f 192/8/8 3/381/271 186/388/275
f 118/6/6 100/379/269 6/378/268
f 118/6/6 196/5/5 100/379/269
f 196/5/5 5/380/270 100/379/269
f 206/3/3 204/382/272 3/381/271
f 206/3/3 140/2/2 204/382/272
f 140/2/2 2/383/273 204/382/272
