# Blender v2.78 (sub 0) OBJ File: ''
# www.blender.org
mtllib Dead_Tree_m_04.mtl
o Dead_Tree_m_04
v 0.520674 0.065703 0.008581
v 0.267837 0.774219 0.081621
v -0.160624 0.778097 0.346719
v -0.016394 0.065703 0.528487
v -0.536299 0.065703 -0.008581
v -0.425449 0.784270 -0.081720
v 0.002705 0.778181 -0.346707
v 0.000769 0.065703 -0.528487
v 0.171940 1.896512 0.135689
v 0.251580 2.313220 0.217023
v 0.002708 2.291854 0.241494
v -0.166548 1.971500 0.208354
v -0.232085 2.046872 -0.139570
v -0.302939 2.386034 -0.148107
v -0.072931 2.363381 -0.204210
v 0.095418 1.946487 -0.203430
v 0.144096 2.369751 -0.193133
v -0.291952 2.308589 0.212118
v -0.509369 2.600634 -0.220017
v -0.156866 2.660886 -0.179892
v -0.081570 2.620430 0.215951
v -0.529034 2.536536 0.132105
v -0.975581 2.920359 -0.311916
v -0.906777 3.105204 -0.305561
v -1.005442 3.161801 -0.022839
v -1.068428 2.941362 -0.045397
v 0.300564 3.263541 0.148265
v 0.446787 3.081239 0.058978
v 0.544785 2.953115 0.322416
v 0.381273 3.149700 0.402635
v 0.999065 3.628282 -0.019559
v 1.003067 3.515362 -0.112291
v 1.053984 3.356984 0.035098
v 1.038745 3.484034 0.127380
v 1.221689 3.632064 -0.035545
v 1.272341 3.512934 0.092107
v 2.033952 3.559774 0.078505
v 2.021096 3.582772 0.008808
v 1.278400 3.402970 0.016428
v 2.052315 3.494412 0.067894
v 1.220531 3.532759 -0.112373
v 2.036481 3.522092 -0.004726
v -1.140904 3.106472 -0.420091
v -1.169686 2.909057 -0.413297
v -1.505701 2.946973 -0.705880
v -1.509889 3.138039 -0.731994
v -1.252324 2.940697 -0.152423
v -1.547514 3.013647 -0.489727
v -1.235729 3.170552 -0.145252
v -1.569525 3.233094 -0.507952
v -1.992058 3.395457 -0.969264
v -1.912849 3.487692 -0.960314
v -2.058484 3.444926 -0.854930
v -1.978391 3.558690 -0.841938
v -2.691167 3.793759 -1.672181
v -2.720281 3.811400 -1.632121
v -2.742823 3.766905 -1.638773
v -2.714385 3.757029 -1.677335
v -1.629643 3.489722 0.607966
v -1.549919 3.466548 0.689163
v -1.668681 3.356532 0.558008
v -2.612985 3.155458 1.226854
v -2.622680 3.224481 1.246696
v -1.597979 3.337651 0.630327
v -2.575451 3.165530 1.259507
v -3.350594 3.393545 1.870395
v -2.580004 3.234793 1.283445
v 2.522657 3.845648 0.505686
v 2.513840 3.883247 0.506500
v 2.507664 3.891019 0.465791
v 2.514963 3.855824 0.462940
v 2.805008 4.336245 0.544627
v 1.235556 3.924984 -0.623204
v 1.261809 3.975640 -0.579847
v 1.212885 4.609556 -0.944468
v 1.225382 4.623667 -0.915546
v 1.162829 3.945890 -0.606903
v 1.192906 3.999164 -0.558028
v 1.191874 4.627668 -0.900862
v 1.005643 4.939891 -1.140438
v 1.177434 4.613363 -0.932653
v -3.368853 3.659623 -1.873064
v 1.097605 3.725759 -0.359447
v -2.032503 3.412650 -0.913236
v 1.196759 3.931556 -0.618393
v -3.032646 3.300826 1.588364
v -2.283283 3.660619 -1.314147
v 2.044026 3.525623 0.078643
v 0.282923 2.726256 -0.057417
v -0.254498 2.257248 -0.145988
v -0.170256 1.375664 0.265123
v 0.803191 3.176713 0.182864
v -3.066495 3.736077 -1.801458
v 2.026074 3.575956 0.044180
v 1.613571 3.586329 -0.015282
v -1.009066 2.901629 -0.198953
v 1.183862 4.279267 -0.777543
v -1.790885 3.220321 -0.653734
v -3.079761 3.742244 -1.784066
v -1.202245 2.897673 -0.304893
v -0.335762 2.571618 0.188718
v -0.327125 0.065703 -0.327894
v -1.177200 3.143073 -0.306608
v 1.655607 3.437699 0.025765
v 1.207821 4.311387 -0.737703
v 1.197512 4.651627 -0.922444
v -0.785083 2.733703 0.024019
v -1.326887 2.910214 -0.555340
v -0.935945 3.011559 -0.325722
v 1.236659 4.266017 -0.793083
v 2.288372 3.701082 0.290022
v -1.654628 3.425326 0.576858
v -1.736041 3.157992 -0.822245
v 0.163608 2.872757 0.326597
v -0.397077 2.418896 0.181130
v -0.505437 0.371902 -0.042137
v 1.171393 4.646067 -0.931939
v 1.152282 3.508507 0.100327
v -2.105844 3.360310 0.924212
v 1.249200 3.570235 0.050110
v 1.022236 3.413603 -0.029396
v 0.229137 2.328735 0.012574
v -2.747274 3.771120 -1.696737
v 0.320082 0.065703 -0.319313
v -0.002084 0.371903 -0.461216
v -3.007108 3.274493 1.594730
v -0.361399 2.628471 -0.233193
v -0.547880 2.564195 -0.047930
v -0.392169 2.492226 -0.181919
v 0.048391 1.376212 -0.265148
v -2.332069 3.704372 -1.238048
v 0.015197 2.509773 -0.203812
v -0.555144 2.887155 -0.243997
v -0.232861 1.985353 0.040240
v 2.540646 3.879747 0.492582
v 2.532472 3.904644 0.470604
v -0.086359 0.371902 0.461216
v -1.423689 3.161714 0.201026
v 1.050795 3.410918 0.089098
v 0.124100 2.299306 0.238649
v 1.110232 3.649873 -0.032196
v -2.674075 3.197789 1.277606
v -1.267200 3.062119 -0.134585
v -0.325397 0.781184 0.151988
v -2.647336 3.166117 1.284687
v 0.311500 0.065703 0.327894
v 0.079038 2.950431 0.002213
v 1.229791 3.991284 -0.565598
v -3.088333 3.722599 -1.786958
v -1.077499 2.925800 -0.354802
v -1.541703 3.201922 -0.622071
v 0.366700 3.182143 0.083769
v -0.001416 2.424615 0.240663
v -1.139637 3.198089 -0.075702
v -2.023871 3.506558 -0.839776
v -0.195544 2.364373 -0.187075
v -3.075452 3.718675 -1.803903
v 2.540099 3.894883 0.516475
v -2.046185 3.352098 0.984516
v 0.416994 0.371902 0.042138
v -2.339302 3.599066 -1.323094
v -1.938387 3.530732 -0.899987
v 0.328815 3.221014 0.282344
v -0.151701 2.245152 -0.183088
v 1.209058 4.642267 -0.946535
v 1.257586 4.296910 -0.757308
v -1.172797 2.942076 -0.091892
v -2.750957 3.800111 -1.672556
v -1.562115 3.130091 -0.481304
v 0.722613 3.310185 -0.000645
v 0.388295 2.634482 0.281414
v -2.068253 3.254424 0.940384
v -0.554321 2.884930 0.064751
v 1.105781 4.803457 -1.056235
v -2.656807 3.241880 1.308122
v -1.319681 3.163280 0.276820
v 0.023694 2.361903 -0.220000
v 1.116406 3.805600 -0.290111
v 2.302871 3.650039 0.287182
v -1.319373 3.108745 -0.573890
v 1.253076 3.449327 -0.037961
v 0.124452 2.453874 0.250848
v 1.105836 3.532518 -0.129054
v -1.028468 3.052735 -0.002061
v -1.947019 3.436824 -0.973447
v 0.123230 2.169087 -0.197893
v -1.760868 3.389552 -0.657025
v 1.156010 3.390894 0.013117
v -1.697489 3.301682 -0.831509
v -0.230861 0.781226 -0.246575
v 1.111656 4.809247 -1.041571
v 1.089073 4.804564 -1.050200
v 1.279259 3.449605 0.061756
v 0.470005 3.041655 0.382378
v 1.239252 3.592786 -0.087213
v -1.149884 3.006208 -0.433583
v -0.934623 3.135029 -0.184479
v 1.642834 3.525965 0.068564
v 0.718314 3.335632 0.272777
v 0.982390 3.579889 -0.077271
v 0.158442 1.916516 -0.038174
v 1.253875 3.948371 -0.603163
v -2.630068 3.210208 1.315203
v -1.387070 3.177894 -0.343903
v -1.568483 3.399901 0.665874
v -1.274754 3.341537 0.318129
v 1.010471 3.551924 0.077343
v -0.087562 2.481910 -0.211613
v -0.324764 1.414976 -0.109682
v 1.217840 3.787333 -0.303883
v 2.280062 3.713474 0.234330
v 0.167632 0.776200 -0.152032
v 1.095559 4.810341 -1.034599
v -1.585947 3.487871 0.653248
v -0.743867 2.768140 -0.265841
v 0.204599 1.349164 0.109040
v -3.012389 3.307907 1.605003
v -0.128272 2.696456 0.023476
v 1.202492 3.711941 -0.365130
v -2.389220 3.628146 -1.249641
v -0.087838 2.162907 0.231317
v 1.172675 3.974467 -0.580828
v -0.317157 2.349344 0.033468
v 2.682982 4.109626 0.542314
v 2.679036 4.127784 0.542708
v 1.622253 3.505880 -0.059737
v -1.392252 3.342396 0.232665
v -1.524612 2.963953 -0.595706
v 2.027895 3.553903 -0.003403
v 0.013565 1.914595 0.194503
v -0.335707 0.065703 0.319313
v -1.037188 3.122754 -0.355311
v -2.774647 3.756236 -1.678918
v 0.073096 0.776158 0.246531
v -1.637164 3.337356 0.589485
v -1.504201 3.035785 -0.736473
v 2.045848 3.503569 0.031060
v 2.292352 3.665759 0.228763
v -0.219745 2.176947 0.213606
v 0.206375 2.116650 0.171041
v 2.679353 4.114224 0.521654
v 2.675897 4.131591 0.522725
v 0.649528 3.455461 0.093423
v -0.068271 1.985242 -0.193899
v -1.377107 2.949451 -0.334559
v 0.507890 3.002784 0.183803
v -2.778330 3.785228 -1.654737
v 1.182939 4.636706 -0.956029
v 2.531925 3.919780 0.494498
v -3.025653 3.267694 1.579362
v -2.121050 3.260382 0.886711
v -0.152676 2.282622 0.240222
v 1.191925 4.296385 -0.756281
v 1.208547 4.270236 -0.788200
v 1.234418 4.306554 -0.744618
v 1.168427 3.802394 -0.292011
v 1.099127 3.766905 -0.324036
v 1.148745 3.712923 -0.367275
v 1.251039 4.280405 -0.776537
v 1.126353 3.572718 0.056651
v 1.158306 3.440732 0.064396
v 1.218045 3.748412 -0.335249
v 1.127470 3.444123 -0.043692
v 2.283194 3.711049 0.262497
v 2.298634 3.654128 0.257652
v 2.285488 3.690690 0.227189
v 2.296340 3.674487 0.292959
v -2.052925 3.302719 0.966803
v -2.096075 3.249858 0.910431
v -2.074591 3.363749 0.957481
v -1.374601 3.148791 0.236138
v -1.416429 3.252028 0.210688
v -1.288759 3.252436 0.303632
v -2.117741 3.310887 0.901109
v -1.052021 3.022888 -0.371993
v -1.111682 2.910738 -0.247086
v -1.072697 3.156014 -0.241258
v -1.330587 3.355672 0.278182
v -2.368582 3.608345 -1.287152
v -2.307524 3.627061 -1.324331
v -2.364413 3.669040 -1.238134
v -2.303355 3.687756 -1.275313
v -1.780391 3.310672 -0.642282
v -1.726560 3.357566 -0.744746
v -1.766081 3.177208 -0.737510
v -1.712250 3.224102 -0.839974
v -1.386591 3.067811 -0.322019
v -1.353315 3.159623 -0.459962
v -1.351904 2.913529 -0.443885
v -1.318628 3.005341 -0.581827
v 1.639749 3.465347 -0.020317
v 1.615521 3.551013 -0.043976
v 1.651611 3.476923 0.053631
v 1.627383 3.562589 0.029973
v 0.677889 3.407162 0.190125
v 0.766456 3.246500 0.241676
v 0.768933 3.231834 0.084084
v 0.680367 3.392495 0.032534
v -0.538715 2.896361 -0.087234
v 0.104958 2.929252 0.168407
v 0.351974 2.662711 0.107996
v 0.283204 2.747149 0.329330
v 0.173728 2.844813 -0.052926
v -0.780493 2.740602 -0.123300
v -0.671244 2.807917 0.067243
v -0.647963 2.829047 -0.277776
v -0.418818 2.454382 -0.001651
v -0.217813 2.427693 0.224595
v -0.007021 2.199537 -0.205648
v -0.254611 2.498867 -0.208939
v 0.029036 1.359881 0.215681
v -0.150051 1.398128 -0.216015
v 0.155058 1.360196 -0.089950
v -0.276073 1.397812 0.089617
v -0.263946 2.204197 0.035765
v 0.184667 2.139605 -0.016133
v 0.076512 2.128930 0.214241
v -0.334339 0.371902 0.241544
v 0.245895 0.371903 -0.241544
v -0.285765 0.371903 -0.290117
v 0.197322 0.371902 0.290117
vt 0.7206 0.6551
vt 0.7135 0.6594
vt 0.7091 0.6555
vt 0.7151 0.6495
vt 0.6583 0.6508
vt 0.6608 0.6572
vt 0.6562 0.6596
vt 0.6521 0.6537
vt 0.6476 0.6585
vt 0.6526 0.6633
vt 0.6491 0.6670
vt 0.6431 0.6632
vt 0.7082 0.6464
vt 0.7038 0.6530
vt 0.6984 0.6505
vt 0.7012 0.6433
vt 0.6967 0.6823
vt 0.6960 0.6856
vt 0.6939 0.6842
vt 0.6939 0.6807
vt 0.6849 0.7282
vt 0.6818 0.7280
vt 0.6829 0.7256
vt 0.6674 0.6842
vt 0.6689 0.6868
vt 0.6652 0.6892
vt 0.6640 0.6863
vt 0.6621 0.7078
vt 0.6614 0.7107
vt 0.6573 0.7103
vt 0.6582 0.7076
vt 0.6969 0.6647
vt 0.6901 0.6764
vt 0.6862 0.6756
vt 0.6923 0.6630
vt 0.6593 0.6725
vt 0.6660 0.6816
vt 0.6629 0.6834
vt 0.6560 0.6752
vt 0.6665 0.6678
vt 0.6721 0.6785
vt 0.6690 0.6799
vt 0.6626 0.6697
vt 0.7055 0.6692
vt 0.6974 0.6790
vt 0.6940 0.6772
vt 0.7016 0.6664
vt 0.6772 0.7262
vt 0.6763 0.7293
vt 0.6739 0.7307
vt 0.6745 0.7271
vt 0.6666 0.7049
vt 0.6691 0.7071
vt 0.6660 0.7081
vt 0.6730 0.6810
vt 0.6708 0.6822
vt 0.6678 0.7131
vt 0.6718 0.7122
vt 0.6719 0.7152
vt 0.6671 0.7159
vt 0.6598 0.7133
vt 0.6638 0.7139
vt 0.6622 0.7166
vt 0.6582 0.7158
vt 0.6689 0.7318
vt 0.6694 0.7342
vt 0.6649 0.7376
vt 0.6632 0.7364
vt 0.6614 0.7229
vt 0.6645 0.7237
vt 0.6571 0.7322
vt 0.6558 0.7300
vt 0.6553 0.7212
vt 0.6583 0.7221
vt 0.6545 0.7277
vt 0.6523 0.7266
vt 0.6914 0.6861
vt 0.6754 0.6827
vt 0.6776 0.6839
vt 0.6740 0.6836
vt 0.6783 0.6929
vt 0.6816 0.6930
vt 0.6833 0.7008
vt 0.6805 0.7010
vt 0.6924 0.6942
vt 0.6960 0.6940
vt 0.6940 0.7010
vt 0.6913 0.7009
vt 0.6715 0.6942
vt 0.6752 0.6928
vt 0.6778 0.7011
vt 0.6740 0.7016
vt 0.6852 0.6937
vt 0.6888 0.6944
vt 0.6886 0.7007
vt 0.6860 0.7007
vt 0.6664 0.7265
vt 0.6735 0.7193
vt 0.6813 0.7087
vt 0.6834 0.7088
vt 0.6836 0.7167
vt 0.6822 0.7165
vt 0.6765 0.7089
vt 0.6793 0.7087
vt 0.6807 0.7163
vt 0.6788 0.7162
vt 0.6904 0.7086
vt 0.6927 0.7086
vt 0.6914 0.7163
vt 0.6895 0.7164
vt 0.6858 0.7087
vt 0.6881 0.7086
vt 0.6877 0.7165
vt 0.6856 0.7166
vt 0.6456 0.7090
vt 0.6446 0.7084
vt 0.6459 0.7008
vt 0.6465 0.7012
vt 0.6436 0.7083
vt 0.6427 0.7082
vt 0.6444 0.7007
vt 0.6452 0.7007
vt 0.6476 0.7095
vt 0.6466 0.7095
vt 0.6472 0.7015
vt 0.6479 0.7015
vt 0.6499 0.7088
vt 0.6486 0.7095
vt 0.6485 0.7015
vt 0.6492 0.7011
vt 0.7019 0.7348
vt 0.6999 0.7355
vt 0.6991 0.7313
vt 0.7011 0.7303
vt 0.7166 0.7370
vt 0.7143 0.7379
vt 0.7146 0.7338
vt 0.7171 0.7328
vt 0.7067 0.7350
vt 0.7040 0.7343
vt 0.7031 0.7292
vt 0.7064 0.7299
vt 0.7119 0.7369
vt 0.7095 0.7358
vt 0.7098 0.7306
vt 0.7122 0.7322
vt 0.7031 0.7243
vt 0.7014 0.7245
vt 0.7037 0.7177
vt 0.7050 0.7183
vt 0.7154 0.7256
vt 0.7134 0.7262
vt 0.7122 0.7185
vt 0.7136 0.7184
vt 0.7071 0.7244
vt 0.7047 0.7241
vt 0.7063 0.7190
vt 0.7078 0.7190
vt 0.7115 0.7255
vt 0.7096 0.7248
vt 0.7094 0.7190
vt 0.7108 0.7188
vt 0.7086 0.7087
vt 0.7076 0.7087
vt 0.7088 0.6984
vt 0.7093 0.6984
vt 0.7106 0.7085
vt 0.7097 0.7087
vt 0.7099 0.6984
vt 0.7104 0.6982
vt 0.7067 0.7083
vt 0.7059 0.7078
vt 0.7081 0.6980
vt 0.7085 0.6982
vt 0.7125 0.7081
vt 0.7115 0.7082
vt 0.7108 0.6979
vt 0.7113 0.6979
vt 0.7290 0.7257
vt 0.7273 0.7259
vt 0.7276 0.7173
vt 0.7287 0.7171
vt 0.6587 0.7356
vt 0.6610 0.7370
vt 0.6605 0.7389
vt 0.6581 0.7376
vt 0.6512 0.7279
vt 0.6534 0.7291
vt 0.6523 0.7304
vt 0.6501 0.7293
vt 0.6628 0.7382
vt 0.6646 0.7394
vt 0.6642 0.7411
vt 0.6623 0.7400
vt 0.7250 0.7056
vt 0.7239 0.7060
vt 0.7230 0.6940
vt 0.7238 0.6937
vt 0.7326 0.7258
vt 0.7307 0.7255
vt 0.7298 0.7170
vt 0.7312 0.7169
vt 0.7254 0.7265
vt 0.7235 0.7272
vt 0.7248 0.7179
vt 0.7262 0.7176
vt 0.7359 0.7257
vt 0.7344 0.7261
vt 0.7326 0.7169
vt 0.7337 0.7167
vt 0.7287 0.6933
vt 0.7282 0.6935
vt 0.7255 0.6791
vt 0.7270 0.7053
vt 0.7261 0.7053
vt 0.7246 0.6933
vt 0.7253 0.6934
vt 0.7310 0.7051
vt 0.7301 0.7053
vt 0.7277 0.6938
vt 0.7290 0.7053
vt 0.7279 0.7053
vt 0.7260 0.6935
vt 0.7269 0.6937
vt 0.7250 0.6794
vt 0.7235 0.6791
vt 0.7242 0.6793
vt 0.6452 0.6925
vt 0.6446 0.6926
vt 0.6449 0.6846
vt 0.6453 0.6843
vt 0.6474 0.6931
vt 0.6468 0.6930
vt 0.6465 0.6845
vt 0.6468 0.6847
vt 0.6484 0.6929
vt 0.6479 0.6933
vt 0.6472 0.6850
vt 0.6477 0.6847
vt 0.6463 0.6927
vt 0.6458 0.6924
vt 0.6456 0.6840
vt 0.6460 0.6842
vt 0.6460 0.6766
vt 0.6456 0.6763
vt 0.6464 0.6768
vt 0.6481 0.6845
vt 0.6468 0.6766
vt 0.6782 0.7175
vt 0.6800 0.7176
vt 0.6793 0.7189
vt 0.6776 0.7188
vt 0.6775 0.6666
vt 0.6764 0.6663
vt 0.6779 0.6602
vt 0.6787 0.6603
vt 0.6897 0.7179
vt 0.6914 0.7178
vt 0.6914 0.7193
vt 0.6898 0.7194
vt 0.6861 0.7181
vt 0.6880 0.7181
vt 0.6883 0.7196
vt 0.6866 0.7196
vt 0.6806 0.6529
vt 0.6801 0.6528
vt 0.6822 0.6454
vt 0.6826 0.6456
vt 0.6839 0.6675
vt 0.6827 0.6676
vt 0.6830 0.6612
vt 0.6839 0.6612
vt 0.6816 0.6675
vt 0.6805 0.6674
vt 0.6813 0.6607
vt 0.6822 0.6610
vt 0.6795 0.6671
vt 0.6785 0.6668
vt 0.6795 0.6603
vt 0.6804 0.6605
vt 0.6837 0.6458
vt 0.6833 0.6457
vt 0.6845 0.6400
vt 0.6819 0.6531
vt 0.6812 0.6530
vt 0.6829 0.6457
vt 0.6844 0.6535
vt 0.6838 0.6534
vt 0.6845 0.6456
vt 0.6849 0.6457
vt 0.6831 0.6533
vt 0.6825 0.6532
vt 0.6841 0.6457
vt 0.6853 0.6458
vt 0.6853 0.6400
vt 0.6849 0.6400
vt 0.6841 0.6400
vt 0.7097 0.6884
vt 0.7101 0.6882
vt 0.7091 0.6884
vt 0.7118 0.6979
vt 0.7106 0.6882
vt 0.7094 0.6785
vt 0.7088 0.6883
vt 0.6838 0.6399
vt 0.6853 0.6343
vt 0.6850 0.6536
vt 0.6847 0.6613
vt 0.6798 0.6741
vt 0.6787 0.6737
vt 0.6775 0.6733
vt 0.6824 0.6740
vt 0.6811 0.6740
vt 0.6850 0.6675
vt 0.6853 0.6736
vt 0.6838 0.6738
vt 0.6842 0.7182
vt 0.6848 0.7196
vt 0.6762 0.6729
vt 0.6749 0.6724
vt 0.6765 0.7173
vt 0.6760 0.7186
vt 0.6770 0.7160
vt 0.6456 0.6687
vt 0.6453 0.6766
vt 0.6490 0.6926
vt 0.6499 0.7007
vt 0.7223 0.6650
vt 0.7226 0.6795
vt 0.7318 0.7049
vt 0.7349 0.7164
vt 0.7373 0.7255
vt 0.7398 0.7345
vt 0.7380 0.7348
vt 0.7363 0.7352
vt 0.7270 0.7345
vt 0.7247 0.7355
vt 0.7223 0.7365
vt 0.7339 0.7346
vt 0.7315 0.7340
vt 0.6615 0.7352
vt 0.6490 0.7269
vt 0.6479 0.7282
vt 0.6501 0.7255
vt 0.6564 0.7342
vt 0.6556 0.7362
vt 0.6593 0.7337
vt 0.7293 0.7343
vt 0.7134 0.7081
vt 0.7150 0.7182
vt 0.7173 0.7250
vt 0.7196 0.7318
vt 0.7139 0.7420
vt 0.7115 0.7415
vt 0.7092 0.7410
vt 0.7070 0.7401
vt 0.7048 0.7393
vt 0.7190 0.7361
vt 0.7183 0.7403
vt 0.7161 0.7412
vt 0.7027 0.7394
vt 0.7007 0.7396
vt 0.6511 0.7082
vt 0.6524 0.7157
vt 0.6506 0.7165
vt 0.6487 0.7174
vt 0.6474 0.7174
vt 0.6461 0.7174
vt 0.6433 0.7161
vt 0.6421 0.7159
vt 0.6409 0.7157
vt 0.6447 0.7168
vt 0.6737 0.7090
vt 0.6703 0.7021
vt 0.6683 0.7293
vt 0.6751 0.7235
vt 0.6798 0.6852
vt 0.6844 0.6866
vt 0.6890 0.6881
vt 0.6678 0.6956
vt 0.6725 0.6845
vt 0.6935 0.6876
vt 0.6980 0.6871
vt 0.6761 0.6848
vt 0.6522 0.7203
vt 0.6543 0.7150
vt 0.6558 0.7127
vt 0.6655 0.7112
vt 0.6686 0.7103
vt 0.6717 0.7093
vt 0.6753 0.6799
vt 0.6752 0.6771
vt 0.6780 0.7233
vt 0.6808 0.7230
vt 0.6798 0.7254
vt 0.6788 0.7278
vt 0.7180 0.6634
vt 0.7094 0.6720
vt 0.7008 0.6807
vt 0.6654 0.6547
vt 0.6703 0.6659
vt 0.6629 0.7049
vt 0.6592 0.7049
vt 0.6994 0.6839
vt 0.7126 0.6399
vt 0.7040 0.6361
vt 0.7212 0.6436
vt 0.6425 0.6536
vt 0.6371 0.6594
vt 0.6480 0.6478
vt 0.6558 0.6445
vt 0.6635 0.6411
vt 0.6645 0.6479
vt 0.7276 0.6508
vt 0.7341 0.6580
vt 0.7261 0.6607
vn 0.6065 0.2732 0.7467
vn 0.5173 0.1735 0.8381
vn -0.2538 0.1820 0.9500
vn -0.1094 0.2430 0.9638
vn -0.6259 0.1506 -0.7652
vn -0.5245 0.1342 -0.8407
vn 0.2131 0.1944 -0.9575
vn 0.0836 0.2629 -0.9612
vn 0.7413 0.2853 -0.6075
vn 0.8355 0.1752 -0.5208
vn 0.9462 0.2210 0.2364
vn 0.9336 0.3455 0.0948
vn -0.7694 0.1374 0.6238
vn -0.8422 0.1325 0.5226
vn -0.9600 0.1579 -0.2310
vn -0.9825 0.1580 -0.0986
vn 0.1689 -0.1738 0.9702
vn 0.1216 -0.1299 0.9840
vn 0.0131 -0.0473 0.9988
vn -0.0261 -0.1108 0.9935
vn -0.8034 -0.0228 -0.5950
vn -0.7468 -0.2159 -0.6290
vn -0.2568 -0.0781 -0.9633
vn 0.9602 -0.1342 -0.2449
vn 0.9359 -0.2084 -0.2841
vn 0.7486 -0.3221 0.5795
vn 0.8145 -0.2449 0.5260
vn -0.9619 -0.2705 0.0390
vn -0.8268 -0.5563 -0.0833
vn -0.6173 -0.4820 -0.6217
vn -0.9159 0.1085 0.3865
vn -0.9760 -0.0209 0.2166
vn -0.9136 0.1237 -0.3873
vn 0.9209 0.0456 -0.3872
vn 0.9612 -0.0424 -0.2727
vn 0.8651 -0.0772 0.4956
vn 0.9243 0.0625 0.3765
vn -0.3732 0.0884 -0.9235
vn -0.2193 0.0232 -0.9754
vn 0.5157 -0.0024 -0.8568
vn 0.3822 0.0820 -0.9204
vn 0.3904 0.0625 0.9185
vn 0.2432 -0.0498 0.9687
vn -0.5036 -0.0518 0.8624
vn -0.3709 0.1073 0.9225
vn -0.0599 -0.1549 -0.9861
vn -0.4296 -0.6039 -0.6714
vn -0.3242 -0.6011 -0.7304
vn 0.0836 -0.0755 -0.9936
vn -0.6364 -0.2289 0.7366
vn -0.0727 -0.0395 -0.9966
vn 0.5873 -0.0808 -0.8053
vn -0.1526 0.0699 0.9858
vn -0.0661 0.0453 0.9968
vn -0.2786 0.3365 0.8995
vn -0.2053 0.1474 0.9675
vn -0.6601 -0.7361 -0.1502
vn -0.6327 -0.4436 0.6347
vn -0.6284 -0.4772 0.6143
vn -0.5873 -0.7912 -0.1705
vn 0.1339 -0.0458 -0.9899
vn -0.2790 -0.6083 -0.7431
vn -0.0087 -0.6832 -0.7302
vn 0.2666 -0.0367 -0.9631
vn -0.2185 0.0951 0.9712
vn 0.2081 0.6983 0.6849
vn 0.5183 0.7568 0.3982
vn 0.2528 -0.1582 0.9545
vn -0.5487 -0.8194 -0.1662
vn -0.5885 -0.5853 0.5578
vn -0.2113 -0.7932 0.5711
vn -0.3309 -0.9406 -0.0758
vn -0.1407 -0.0869 -0.9862
vn -0.0007 0.0386 -0.9993
vn 0.0371 0.0050 -0.9993
vn 0.1240 0.3491 -0.9289
vn -0.5476 0.6817 -0.4852
vn -0.6147 0.7593 -0.2134
vn -0.1835 0.3513 -0.9181
vn -0.0089 -0.2144 0.9767
vn 0.7311 -0.4360 0.5248
vn 0.7268 -0.5095 0.4607
vn 0.2562 -0.1477 0.9553
vn 0.8926 -0.2852 -0.3492
vn 0.6222 0.0233 -0.7825
vn 0.3120 -0.1317 -0.9409
vn 0.6749 -0.5381 -0.5049
vn -0.7874 0.5194 0.3319
vn -0.5178 0.1654 0.8394
vn -0.2340 0.3320 0.9138
vn -0.5676 0.6637 0.4872
vn 0.4902 0.8716 -0.0016
vn -0.2141 0.9610 0.1752
vn -0.4319 0.3547 -0.8293
vn -0.4714 0.8742 -0.1169
vn -0.4394 0.8618 0.2534
vn -0.7731 0.3679 -0.5167
vn 0.2976 -0.7118 -0.6363
vn -0.0763 -0.2818 -0.9564
vn -0.3655 -0.3861 -0.8469
vn 0.1290 -0.6891 -0.7131
vn 0.5268 -0.1854 0.8295
vn 0.6654 -0.7303 0.1546
vn 0.4503 -0.8919 -0.0424
vn 0.4616 -0.4219 0.7803
vn -0.1990 0.7819 0.5909
vn 0.1773 0.3882 0.9044
vn 0.2319 0.2356 0.9438
vn -0.0639 0.7284 0.6821
vn 0.0020 0.8222 0.5692
vn -0.0002 0.2685 0.9633
vn -0.4480 0.3202 0.8347
vn -0.3499 0.8482 0.3976
vn 0.0186 -0.4284 0.9034
vn 0.1005 -0.9759 0.1939
vn 0.2597 -0.9291 0.2633
vn -0.2925 -0.3205 0.9010
vn 0.1182 0.4756 -0.8717
vn 0.0828 0.9794 -0.1843
vn 0.1072 0.8751 -0.4718
vn 0.3263 0.3308 -0.8855
vn 0.1054 -0.7788 -0.6183
vn 0.1216 -0.2554 -0.9592
vn 0.4154 -0.3115 -0.8547
vn 0.4401 -0.7623 -0.4746
vn 0.6392 -0.1124 -0.7607
vn 0.2812 -0.8327 -0.4771
vn -0.0376 -0.8123 -0.5820
vn 0.4514 -0.1584 -0.8782
vn -0.2667 -0.9585 0.1002
vn -0.6284 -0.6359 0.4480
vn -0.6906 -0.5363 0.4852
vn -0.5208 -0.8486 0.0933
vn 0.3124 0.9290 -0.1984
vn 0.5900 0.5262 -0.6124
vn 0.6315 0.3972 -0.6659
vn 0.5533 0.8144 -0.1750
vn -0.7606 0.0062 0.6492
vn -0.3392 0.8423 0.4190
vn -0.0525 0.8077 0.5873
vn -0.6286 0.0191 0.7775
vn 0.3528 -0.1604 -0.9218
vn -0.2976 -0.7060 -0.6427
vn -0.1438 -0.8101 -0.5684
vn 0.4556 -0.2755 -0.8465
vn -0.6773 -0.7347 0.0395
vn -0.7399 -0.4145 0.5298
vn -0.7721 -0.3205 0.5488
vn -0.6039 -0.7966 0.0287
vn 0.6747 0.7302 -0.1076
vn 0.6841 0.3924 -0.6149
vn 0.7088 0.3990 -0.5817
vn 0.6007 0.7891 -0.1281
vn -0.5367 0.1285 0.8339
vn 0.1392 0.7792 0.6111
vn 0.0324 0.8617 0.5064
vn -0.5764 0.2864 0.7653
vn 0.4866 0.8528 -0.1899
vn 0.6924 0.3981 -0.6018
vn 0.5886 0.4758 -0.6535
vn 0.0700 0.9231 -0.3781
vn -0.6390 0.3275 0.6961
vn -0.0284 0.9460 0.3230
vn -0.0156 0.9758 0.2181
vn -0.4457 0.1170 0.8875
vn 0.5349 -0.3716 -0.7588
vn 0.1252 -0.8248 -0.5514
vn 0.2668 -0.7521 -0.6026
vn 0.3580 -0.0522 -0.9323
vn -0.4861 -0.8720 0.0583
vn -0.7585 -0.3882 0.5235
vn -0.6747 -0.4382 0.5940
vn -0.0569 -0.9744 0.2174
vn 0.2384 0.9442 -0.2275
vn -0.3550 0.7753 -0.5224
vn -0.3072 0.8847 -0.3505
vn 0.1141 0.9900 0.0834
vn 0.1145 0.9731 -0.1999
vn 0.3232 0.6784 -0.6598
vn 0.4628 0.5989 -0.6536
vn 0.1120 0.9704 -0.2140
vn -0.0081 -0.9988 0.0492
vn -0.1865 -0.9320 0.3108
vn -0.5583 -0.7768 0.2914
vn -0.0578 -0.9949 0.0829
vn 0.4563 -0.0882 -0.8854
vn 0.3399 -0.7531 -0.5633
vn 0.3857 -0.7988 -0.4617
vn 0.6048 -0.1181 -0.7876
vn -0.5837 0.3460 -0.7346
vn -0.4098 -0.5519 -0.7263
vn -0.3508 -0.7058 -0.6155
vn -0.6258 0.1199 -0.7707
vn 0.6501 -0.3309 0.6840
vn 0.7750 0.5182 0.3616
vn 0.6031 0.4898 0.6295
vn 0.5950 -0.4237 0.6830
vn -0.8024 0.2392 -0.5467
vn -0.8374 -0.5219 -0.1623
vn -0.7010 -0.3845 -0.6007
vn -0.6484 0.3821 -0.6585
vn -0.2854 -0.8971 0.3372
vn 0.2181 -0.7540 0.6196
vn 0.3405 -0.8029 0.4893
vn -0.1509 -0.9883 0.0234
vn -0.0106 -0.9712 0.2379
vn -0.5545 -0.7631 -0.3320
vn -0.0779 0.9635 0.2563
vn -0.4670 0.7814 -0.4140
vn -0.4945 0.6712 -0.5522
vn -0.0521 0.9770 -0.2070
vn 0.0627 -0.9839 -0.1674
vn 0.3645 -0.8661 0.3422
vn 0.3361 -0.8722 0.3554
vn 0.5302 -0.4117 0.7412
vn 0.4093 0.3639 0.8367
vn 0.4315 0.3598 0.8273
vn 0.5491 -0.2610 0.7940
vn 0.3439 -0.6386 0.6885
vn -0.4346 0.6057 -0.6666
vn 0.4942 0.7424 0.4524
vn -0.5690 -0.2054 0.7963
vn 0.2184 -0.8440 0.4898
vn 0.1977 -0.7359 0.6475
vn -0.1309 -0.1210 0.9840
vn 0.5630 0.2730 -0.7801
vn -0.1798 0.8898 -0.4195
vn -0.2929 0.8327 -0.4699
vn 0.2394 0.1427 -0.9604
vn 0.7322 -0.6085 -0.3059
vn 0.7541 -0.2650 -0.6009
vn 0.7935 -0.3282 -0.5124
vn 0.8348 -0.4924 -0.2464
vn -0.6607 0.7252 0.1937
vn -0.7152 0.1570 0.6811
vn -0.6872 0.0856 0.7214
vn -0.8106 0.5313 0.2462
vn -0.6121 0.4918 -0.6192
vn -0.5258 0.3033 0.7947
vn 0.6290 -0.2343 -0.7412
vn 0.6432 -0.4233 0.6381
vn 0.0744 -0.6873 -0.7226
vn 0.0171 -0.7334 -0.6796
vn 0.3117 -0.5195 -0.7956
vn 0.0719 -0.7080 -0.7025
vn 0.9849 -0.1527 -0.0814
vn 0.5397 -0.6704 -0.5092
vn 0.4499 -0.5772 -0.6815
vn 0.9440 -0.2339 -0.2327
vn 0.1960 -0.5697 0.7982
vn 0.2048 -0.9773 -0.0551
vn 0.0899 -0.9940 0.0625
vn 0.0596 -0.5481 0.8343
vn 0.0346 0.6979 0.7154
vn 0.1332 0.1229 0.9834
vn 0.0609 0.1305 0.9896
vn 0.0587 0.7280 0.6831
vn 0.9195 -0.1329 -0.3698
vn 0.4443 -0.3695 -0.8161
vn 0.5345 -0.2914 -0.7934
vn 0.8762 0.1768 -0.4484
vn -0.1184 -0.7562 -0.6435
vn -0.7368 -0.3790 -0.5599
vn -0.8384 -0.2488 -0.4849
vn -0.2698 -0.5795 -0.7690
vn -0.9467 0.3018 -0.1129
vn -0.5137 0.7867 0.3424
vn -0.4119 0.6474 0.6412
vn -0.9452 0.2858 0.1577
vn 0.1961 0.8083 0.5552
vn 0.8028 0.4779 0.3566
vn 0.9378 0.2089 0.2773
vn 0.3849 0.6013 0.7002
vn -0.1815 0.4513 0.8737
vn 0.3864 0.6375 0.6665
vn -0.4073 0.4122 0.8150
vn 0.4197 0.4425 0.7925
vn 0.9412 0.2041 0.2692
vn 0.9223 0.3005 0.2430
vn -0.3464 -0.4070 -0.8452
vn -0.9150 -0.1674 -0.3672
vn -0.9087 -0.2517 -0.3330
vn -0.3023 -0.5614 -0.7704
vn -0.9244 0.1825 0.3349
vn -0.2675 0.4620 0.8456
vn -0.8893 -0.0700 0.4519
vn 0.4205 -0.2250 -0.8790
vn -0.8023 -0.5644 -0.1944
vn 0.7653 0.6319 0.1227
vn -0.3852 0.8168 0.4294
vn -0.1583 -0.6052 0.7802
vn 0.1302 0.5574 -0.8200
vn 0.2584 -0.7603 -0.5960
vn -0.9396 -0.2269 -0.2563
vn -0.5011 0.7052 -0.5016
vn 0.0435 0.8218 0.5682
vn 0.3461 0.8823 0.3192
vn 0.7384 0.3525 -0.5749
vn 0.5037 0.8625 0.0492
vn -0.7437 0.2364 0.6254
vn -0.4608 0.8676 -0.1867
vn -0.9960 0.0843 0.0288
vn 0.4243 0.6725 -0.6064
vn 0.1616 0.9565 -0.2430
vn 0.3867 0.9198 -0.0667
vn 0.4575 0.5952 -0.6606
vn 0.1374 0.5571 -0.8190
vn 0.5872 -0.0168 -0.8092
vn -0.0438 -0.1271 0.9909
vn 0.1554 0.2299 -0.9607
vn -0.6461 -0.3118 0.6967
vn -0.1146 -0.0403 0.9926
vn -0.2150 -0.1737 -0.9610
vn -0.7212 0.1306 0.6803
vn -0.9896 0.1435 -0.0105
vn 0.0242 0.2587 0.9656
vn 0.7066 0.2947 -0.6433
vn 0.9339 0.3575 0.0101
vn 0.0451 0.2590 -0.9648
vn -0.6656 0.1394 -0.7331
vn 0.6574 0.2871 0.6967
usemtl None
s 1
f 321/1/1 234/2/2 3/3/3 137/4/4
f 320/5/5 190/6/6 7/7/7 125/8/8
f 319/9/9 212/10/10 2/11/11 160/12/12
f 318/13/13 144/14/14 6/15/15 116/16/16
f 317/17/17 140/18/18 11/19/19 221/20/20
f 13/21/21 90/22/22 164/23/23
f 316/24/24 122/25/25 10/26/26 240/27/27
f 315/28/28 223/29/29 14/30/30 90/31/22
f 314/32/31 134/33/32 13/34/21 209/35/33
f 313/36/34 201/37/35 9/38/36 216/39/37
f 312/40/38 244/41/39 16/42/40 130/43/41
f 311/44/42 230/45/43 12/46/44 91/47/45
f 310/48/46 129/49/47 19/50/48 127/51/49
f 12/52/44 221/53/20 239/54/50
f 309/55/51 186/56/52 16/42/40 244/41/39
f 308/57/53 153/58/54 21/59/55 101/60/56
f 307/61/57 115/62/58 22/63/59 128/64/60
f 306/65/61 215/66/62 23/67/63 109/68/64
f 305/69/65 173/70/66 25/71/67 184/72/68
f 304/73/69 107/74/70 26/75/71 96/76/72
f 11/19/19 140/18/18 153/77/54
f 15/78/73 208/79/74 177/80/75
f 303/81/76 147/82/77 27/83/78 152/84/79
f 302/85/80 171/86/81 29/87/82 194/88/83
f 301/89/84 89/90/85 28/91/86 246/92/87
f 300/93/88 114/94/89 30/95/90 163/96/91
f 299/97/92 173/70/66 21/59/55 218/98/93
f 298/99/94 243/100/95 31/101/96 200/102/97
f 297/103/98 170/104/99 32/105/100 121/106/101
f 296/107/102 92/108/103 33/109/104 139/110/105
f 295/111/106 199/112/107 34/113/108 207/114/109
f 294/115/110 198/116/111 37/117/112 94/118/113
f 293/119/114 104/120/115 40/121/116 88/122/117
f 292/123/118 95/124/119 38/125/120 229/126/121
f 291/127/122 226/128/123 42/129/124 237/130/125
f 290/131/126 108/132/127 45/133/128 236/134/129
f 289/135/130 245/136/131 48/137/132 228/138/133
f 288/139/134 180/140/135 46/141/136 151/142/137
f 287/143/138 204/144/139 50/145/140 169/146/141
f 286/147/142 113/148/143 51/149/144 185/150/145
f 285/151/146 98/152/147 53/153/148 84/154/149
f 284/155/150 189/156/151 52/157/152 162/158/153
f 283/159/154 187/160/155 54/161/156 155/162/157
f 282/163/158 87/164/159 55/165/160 168/166/161
f 281/167/162 131/168/163 56/169/164 247/170/165
f 280/171/166 161/172/167 58/173/168 123/174/169
f 279/175/170 220/176/171 57/177/172 233/178/173
f 278/179/174 227/180/175 59/181/176 214/182/177
f 277/183/178 232/184/179 43/185/180 103/186/181
f 276/187/182 167/188/183 47/189/184 100/190/185
f 275/191/186 150/192/187 44/193/188 196/194/189
f 274/195/190 251/196/191 62/197/192 142/198/193
f 273/199/194 206/200/195 60/201/196 205/202/197
f 272/203/198 138/204/199 61/205/200 112/206/201
f 271/207/202 176/208/203 64/209/204 235/210/205
f 62/211/192 145/212/206 250/213/207
f 270/214/208 119/215/209 63/216/210 175/217/211
f 269/218/212 172/219/213 65/220/214 145/212/206
f 268/221/215 159/222/216 67/223/217 203/224/218
f 65/220/214 203/224/218 126/225/219
f 63/216/210 142/198/193 86/226/220
f 67/223/217 175/217/211 217/227/221
f 267/228/222 179/229/223 68/230/224 158/231/225
f 266/232/226 211/233/227 70/234/228 136/235/229
f 265/236/230 238/237/231 71/238/232 135/239/233
f 264/240/234 111/241/235 69/242/236 249/243/237
f 70/234/228 249/243/237 242/244/238
f 69/242/236 158/231/225 225/245/239
f 71/238/232 136/235/229 241/246/240
f 68/247/224 135/239/233 224/248/241
f 263/249/242 183/250/243 41/251/244 181/252/245
f 262/253/246 219/254/247 73/255/248 202/256/249
f 261/257/250 188/258/251 39/259/252 193/260/253
f 260/261/254 118/262/255 36/263/256 120/264/257
f 259/265/258 110/266/259 75/267/260 165/268/261
f 258/269/262 83/270/263 77/271/264 85/272/265
f 257/273/266 178/274/267 78/275/268 222/276/269
f 256/277/270 210/278/271 74/279/272 148/280/273
f 79/281/274 106/282/275 213/283/276
f 255/284/277 166/285/278 76/286/279 106/282/275
f 254/287/280 97/288/281 81/289/282 248/290/283
f 253/291/284 105/292/285 79/281/274 117/293/286
f 75/294/260 248/290/283 174/295/287
f 81/289/282 117/293/286 192/296/288
f 76/286/279 165/268/261 191/297/289
f 56/169/164 168/166/161 99/298/290
f 57/177/172 247/170/165 149/299/291
f 55/165/160 123/174/169 93/300/292
f 58/301/168 233/178/173 157/302/293
f 157/302/293 149/299/291 82/303/294
f 157/302/293 233/178/173 149/299/291
f 233/178/173 57/177/172 149/299/291
f 93/300/292 157/304/293 82/303/294
f 93/300/292 123/174/169 157/304/293
f 123/174/169 58/173/168 157/304/293
f 149/299/291 99/298/290 82/303/294
f 149/299/291 247/170/165 99/298/290
f 247/170/165 56/169/164 99/298/290
f 99/298/290 93/300/292 82/303/294
f 99/298/290 168/166/161 93/300/292
f 168/166/161 55/165/160 93/300/292
f 191/297/289 174/305/287 80/306/295
f 191/297/289 165/268/261 174/305/287
f 165/268/261 75/267/260 174/305/287
f 192/296/288 213/283/276 80/306/295
f 192/296/288 117/293/286 213/283/276
f 117/293/286 79/281/274 213/283/276
f 174/295/287 192/296/288 80/306/295
f 174/295/287 248/290/283 192/296/288
f 248/290/283 81/289/282 192/296/288
f 97/288/281 253/291/284 117/293/286 81/289/282
f 77/271/264 222/276/269 253/291/284 97/288/281
f 222/276/269 78/275/268 105/292/285 253/291/284
f 110/307/259 254/287/280 248/290/283 75/294/260
f 73/308/248 85/272/265 254/287/280 110/307/259
f 85/272/265 77/271/264 97/288/281 254/287/280
f 105/292/285 255/284/277 106/282/275 79/281/274
f 78/275/268 148/280/273 255/284/277 105/292/285
f 148/280/273 74/279/272 166/285/278 255/284/277
f 213/283/276 191/297/289 80/306/295
f 213/283/276 106/282/275 191/297/289
f 106/282/275 76/286/279 191/297/289
f 178/274/267 256/277/270 148/280/273 78/275/268
f 31/309/96 141/310/296 256/277/270 178/274/267
f 141/310/296 35/311/297 210/278/271 256/277/270
f 83/270/263 257/273/266 222/276/269 77/271/264
f 32/312/100 200/313/97 257/273/266 83/270/263
f 200/313/97 31/309/96 178/274/267 257/273/266
f 219/314/247 258/269/262 85/272/265 73/308/248
f 41/315/244 183/316/243 258/269/262 219/314/247
f 183/316/243 32/312/100 83/270/263 258/269/262
f 166/285/278 259/265/258 165/268/261 76/286/279
f 74/279/272 202/256/249 259/265/258 166/285/278
f 202/256/249 73/255/248 110/266/259 259/265/258
f 141/317/296 260/261/254 120/264/257 35/318/297
f 31/101/96 207/114/109 260/261/254 141/317/296
f 207/114/109 34/113/108 118/262/255 260/261/254
f 118/262/255 261/257/250 193/260/253 36/263/256
f 34/113/108 139/110/105 261/257/250 118/262/255
f 139/110/105 33/109/104 188/258/251 261/257/250
f 210/278/271 262/253/246 202/256/249 74/279/272
f 35/311/297 195/319/298 262/253/246 210/278/271
f 195/319/298 41/320/244 219/254/247 262/253/246
f 188/321/251 263/249/242 181/252/245 39/322/252
f 33/323/104 121/106/101 263/249/242 188/321/251
f 121/106/101 32/105/100 183/250/243 263/249/242
f 224/248/241 241/246/240 72/324/299
f 224/248/241 135/239/233 241/246/240
f 135/239/233 71/238/232 241/246/240
f 241/246/240 242/244/238 72/324/299
f 241/246/240 136/235/229 242/244/238
f 136/235/229 70/234/228 242/244/238
f 225/245/239 224/325/241 72/324/299
f 225/245/239 158/231/225 224/325/241
f 158/231/225 68/230/224 224/325/241
f 242/244/238 225/245/239 72/324/299
f 242/244/238 249/243/237 225/245/239
f 249/243/237 69/242/236 225/245/239
f 211/233/227 264/240/234 249/243/237 70/234/228
f 38/125/120 94/118/113 264/240/234 211/233/227
f 94/118/113 37/117/112 111/241/235 264/240/234
f 179/326/223 265/236/230 135/239/233 68/247/224
f 40/327/116 237/130/125 265/236/230 179/326/223
f 237/130/125 42/129/124 238/237/231 265/236/230
f 238/237/231 266/232/226 136/235/229 71/238/232
f 42/129/124 229/126/121 266/232/226 238/237/231
f 229/126/121 38/125/120 211/233/227 266/232/226
f 111/241/235 267/228/222 158/231/225 69/242/236
f 37/117/112 88/122/117 267/228/222 111/241/235
f 88/122/117 40/121/116 179/229/223 267/228/222
f 217/227/221 86/226/220 66/328/300
f 217/227/221 175/217/211 86/226/220
f 175/217/211 63/216/210 86/226/220
f 86/226/220 250/329/207 66/328/300
f 86/226/220 142/198/193 250/329/207
f 142/198/193 62/197/192 250/329/207
f 126/225/219 217/227/221 66/328/300
f 126/225/219 203/224/218 217/227/221
f 203/224/218 67/223/217 217/227/221
f 172/219/213 268/221/215 203/224/218 65/220/214
f 64/209/204 205/202/197 268/221/215 172/219/213
f 205/202/197 60/201/196 159/222/216 268/221/215
f 251/330/191 269/218/212 145/212/206 62/211/192
f 61/331/200 235/210/205 269/218/212 251/330/191
f 235/210/205 64/209/204 172/219/213 269/218/212
f 159/222/216 270/214/208 175/217/211 67/223/217
f 60/201/196 214/182/177 270/214/208 159/222/216
f 214/182/177 59/181/176 119/215/209 270/214/208
f 250/213/207 126/225/219 66/328/300
f 250/213/207 145/212/206 126/225/219
f 145/212/206 65/220/214 126/225/219
f 138/332/199 271/207/202 235/210/205 61/331/200
f 47/333/184 167/334/183 271/207/202 138/332/199
f 167/334/183 26/335/71 176/208/203 271/207/202
f 227/180/175 272/203/198 112/206/201 59/181/176
f 49/336/301 143/337/302 272/203/198 227/180/175
f 143/337/302 47/338/184 138/204/199 272/203/198
f 176/208/203 273/199/194 205/202/197 64/209/204
f 26/335/71 184/339/68 273/199/194 176/208/203
f 184/339/68 25/340/67 206/200/195 273/199/194
f 119/215/209 274/195/190 142/198/193 63/216/210
f 59/181/176 112/206/201 274/195/190 119/215/209
f 112/206/201 61/205/200 251/196/191 274/195/190
f 232/184/179 275/191/186 196/194/189 43/185/180
f 24/341/303 109/68/64 275/191/186 232/184/179
f 109/68/64 23/67/63 150/192/187 275/191/186
f 150/342/187 276/187/182 100/190/185 44/343/188
f 23/344/63 96/76/72 276/187/182 150/342/187
f 96/76/72 26/75/71 167/188/183 276/187/182
f 154/345/304 277/183/178 103/186/181 49/346/301
f 25/71/67 197/347/305 277/183/178 154/345/304
f 197/347/305 24/341/303 232/184/179 277/183/178
f 206/200/195 278/179/174 214/182/177 60/201/196
f 25/340/67 154/348/304 278/179/174 206/200/195
f 154/348/304 49/336/301 227/180/175 278/179/174
f 161/349/167 279/175/170 233/178/173 58/301/168
f 51/350/144 84/154/149 279/175/170 161/349/167
f 84/154/149 53/153/148 220/176/171 279/175/170
f 87/164/159 280/171/166 123/174/169 55/165/160
f 52/157/152 185/150/145 280/171/166 87/164/159
f 185/150/145 51/149/144 161/172/167 280/171/166
f 220/176/171 281/167/162 247/170/165 57/177/172
f 53/153/148 155/162/157 281/167/162 220/176/171
f 155/162/157 54/161/156 131/168/163 281/167/162
f 131/168/163 282/163/158 168/166/161 56/169/164
f 54/161/156 162/158/153 282/163/158 131/168/163
f 162/158/153 52/157/152 87/164/159 282/163/158
f 98/152/147 283/159/154 155/162/157 53/153/148
f 48/137/132 169/146/141 283/159/154 98/152/147
f 169/146/141 50/145/140 187/160/155 283/159/154
f 187/160/155 284/155/150 162/158/153 54/161/156
f 50/145/140 151/142/137 284/155/150 187/160/155
f 151/142/137 46/141/136 189/156/151 284/155/150
f 113/351/143 285/151/146 84/154/149 51/350/144
f 45/352/128 228/138/133 285/151/146 113/351/143
f 228/138/133 48/137/132 98/152/147 285/151/146
f 189/156/151 286/147/142 185/150/145 52/157/152
f 46/141/136 236/134/129 286/147/142 189/156/151
f 236/134/129 45/133/128 113/148/143 286/147/142
f 245/136/131 287/143/138 169/146/141 48/137/132
f 47/353/184 143/354/302 287/143/138 245/136/131
f 143/354/302 49/355/301 204/144/139 287/143/138
f 204/144/139 288/139/134 151/142/137 50/145/140
f 49/355/301 103/356/181 288/139/134 204/144/139
f 103/356/181 43/357/180 180/140/135 288/139/134
f 108/358/127 289/135/130 228/138/133 45/352/128
f 44/359/188 100/360/185 289/135/130 108/358/127
f 100/360/185 47/353/184 245/136/131 289/135/130
f 180/140/135 290/131/126 236/134/129 46/141/136
f 43/357/180 196/361/189 290/131/126 180/140/135
f 196/361/189 44/362/188 108/132/127 290/131/126
f 104/363/115 291/127/122 237/130/125 40/327/116
f 39/364/252 181/365/245 291/127/122 104/363/115
f 181/365/245 41/366/244 226/128/123 291/127/122
f 226/128/123 292/123/118 229/126/121 42/129/124
f 41/366/244 195/367/298 292/123/118 226/128/123
f 195/367/298 35/368/297 95/124/119 292/123/118
f 198/116/111 293/119/114 88/122/117 37/117/112
f 36/369/256 193/370/253 293/119/114 198/116/111
f 193/370/253 39/371/252 104/120/115 293/119/114
f 95/124/119 294/115/110 94/118/113 38/125/120
f 35/368/297 120/372/257 294/115/110 95/124/119
f 120/372/257 36/369/256 198/116/111 294/115/110
f 243/100/95 295/111/106 207/114/109 31/101/96
f 27/83/78 163/96/91 295/111/106 243/100/95
f 163/96/91 30/95/90 199/112/107 295/111/106
f 199/112/107 296/107/102 139/110/105 34/113/108
f 30/95/90 194/88/83 296/107/102 199/112/107
f 194/88/83 29/87/82 92/108/103 296/107/102
f 92/373/103 297/103/98 121/106/101 33/323/104
f 29/374/82 246/92/87 297/103/98 92/373/103
f 246/92/87 28/91/86 170/104/99 297/103/98
f 170/104/99 298/99/94 200/102/97 32/105/100
f 28/91/86 152/84/79 298/99/94 170/104/99
f 152/84/79 27/83/78 243/100/95 298/99/94
f 133/375/306 299/97/92 218/98/93 20/376/307
f 24/341/303 197/347/305 299/97/92 133/375/306
f 197/347/305 25/71/67 173/70/66 299/97/92
f 147/82/77 300/93/88 163/96/91 27/83/78
f 20/377/307 218/378/93 300/93/88 147/82/77
f 218/378/93 21/379/55 114/94/89 300/93/88
f 171/380/81 301/89/84 246/92/87 29/374/82
f 10/26/26 122/25/25 301/89/84 171/380/81
f 122/25/25 17/381/308 89/90/85 301/89/84
f 114/94/89 302/85/80 194/88/83 30/95/90
f 21/379/55 182/382/309 302/85/80 114/94/89
f 182/382/309 10/383/26 171/86/81 302/85/80
f 89/90/85 303/81/76 152/84/79 28/91/86
f 17/381/308 132/384/310 303/81/76 89/90/85
f 132/384/310 20/377/307 147/82/77 303/81/76
f 177/80/75 132/384/310 17/381/308
f 177/80/75 208/79/74 132/384/310
f 208/79/74 20/377/307 132/384/310
f 153/77/54 182/382/309 21/379/55
f 153/77/54 140/18/18 182/382/309
f 140/18/18 10/383/26 182/382/309
f 215/385/62 304/73/69 96/76/72 23/344/63
f 19/386/48 128/64/60 304/73/69 215/385/62
f 128/64/60 22/63/59 107/74/70 304/73/69
f 107/74/70 305/69/65 184/72/68 26/75/71
f 22/63/59 101/60/56 305/69/65 107/74/70
f 101/60/56 21/59/55 173/70/66 305/69/65
f 133/375/306 306/65/61 109/68/64 24/341/303
f 20/376/307 127/51/49 306/65/61 133/375/306
f 127/51/49 19/50/48 215/66/62 306/65/61
f 129/387/47 307/61/57 128/64/60 19/386/48
f 14/30/30 223/29/29 307/61/57 129/387/47
f 223/29/29 18/388/311 115/62/58 307/61/57
f 115/62/58 308/57/53 101/60/56 22/63/59
f 18/388/311 252/389/312 308/57/53 115/62/58
f 252/389/312 11/390/19 153/58/54 308/57/53
f 164/391/23 309/55/51 244/41/39 13/392/21
f 15/78/73 177/80/75 309/55/51 164/391/23
f 177/80/75 17/381/308 186/56/52 309/55/51
f 239/54/50 252/389/312 18/388/311
f 239/54/50 221/53/20 252/389/312
f 221/53/20 11/390/19 252/389/312
f 208/393/74 310/48/46 127/51/49 20/376/307
f 15/394/73 156/395/313 310/48/46 208/393/74
f 156/395/313 14/396/30 129/49/47 310/48/46
f 234/2/2 311/44/42 91/47/45 3/3/3
f 2/397/11 216/398/37 311/44/42 234/2/2
f 216/398/37 9/399/36 230/45/43 311/44/42
f 190/6/6 312/40/38 130/43/41 7/7/7
f 6/400/15 209/401/33 312/40/38 190/6/6
f 209/401/33 13/392/21 244/41/39 312/40/38
f 212/10/10 313/36/34 216/39/37 2/11/11
f 7/7/7 130/43/41 313/36/34 212/10/10
f 130/43/41 16/42/40 201/37/35 313/36/34
f 144/14/14 314/32/31 209/35/33 6/15/15
f 3/3/3 91/47/45 314/32/31 144/14/14
f 91/47/45 12/46/44 134/33/32 314/32/31
f 134/402/32 315/28/28 90/31/22 13/403/21
f 12/52/44 239/54/50 315/28/28 134/402/32
f 239/54/50 18/388/311 223/29/29 315/28/28
f 201/37/35 316/24/24 240/27/27 9/38/36
f 16/42/40 186/56/52 316/24/24 201/37/35
f 186/56/52 17/381/308 122/25/25 316/24/24
f 164/23/23 156/395/313 15/394/73
f 164/23/23 90/22/22 156/395/313
f 90/22/22 14/396/30 156/395/313
f 230/45/43 317/17/17 221/20/20 12/46/44
f 9/399/36 240/404/27 317/17/17 230/45/43
f 240/404/27 10/383/26 140/18/18 317/17/17
f 231/405/314 318/13/13 116/16/16 5/406/315
f 4/407/316 137/4/4 318/13/13 231/405/314
f 137/4/4 3/3/3 144/14/14 318/13/13
f 124/408/317 319/9/9 160/12/12 1/409/318
f 8/410/319 125/8/8 319/9/9 124/408/317
f 125/8/8 7/7/7 212/10/10 319/9/9
f 102/411/320 320/5/5 125/8/8 8/410/319
f 5/412/315 116/413/16 320/5/5 102/411/320
f 116/413/16 6/400/15 190/6/6 320/5/5
f 146/414/321 321/1/1 137/4/4 4/407/316
f 1/415/318 160/416/12 321/1/1 146/414/321
f 160/416/12 2/397/11 234/2/2 321/1/1
