# Blender v2.78 (sub 0) OBJ File: ''
# www.blender.org
mtllib Dead_Tree_m_05.mtl
o Dead_Tree_m_05
v 0.417942 0.067562 0.303418
v 0.177496 0.737897 0.220647
v -0.332358 0.733025 0.197221
v -0.314607 0.067562 0.419915
v -0.431103 0.067562 -0.312634
v -0.309310 0.735488 -0.313009
v 0.200614 0.739168 -0.289549
v 0.301445 0.067562 -0.429130
v 0.085934 1.840940 0.186271
v 0.117278 2.226547 0.201637
v -0.096765 2.173914 0.084060
v -0.219041 1.868996 0.028513
v -0.059854 1.860029 -0.292178
v -0.090553 2.096587 -0.395327
v 0.111654 2.126493 -0.320484
v 0.230380 1.809815 -0.126259
v 0.277435 2.169037 -0.186976
v -0.298828 2.109247 -0.093401
v -0.287720 1.333642 0.128201
v -0.211175 1.358191 -0.282671
v 0.195299 1.395071 -0.200861
v 0.118543 1.383057 0.209192
v -0.140041 2.221095 -0.562804
v 0.054076 2.389745 -0.410746
v -0.122252 2.454786 -0.049442
v -0.368630 2.238652 -0.281714
v -0.310574 2.413397 -0.790897
v -0.370922 2.241945 -0.813303
v -0.672864 2.215957 -1.105129
v -0.670567 2.428209 -1.185865
v -0.567036 2.261841 -0.595581
v -0.493784 2.481966 -0.553778
v -0.921668 2.483468 -1.042164
v -0.906136 2.248621 -0.953957
v 0.269362 3.071187 -0.024909
v 0.391445 2.950186 0.001200
v 0.313796 2.906933 0.273327
v 0.184432 3.036450 0.227905
v 0.905401 3.531065 0.104456
v 0.957047 3.405528 0.063873
v 0.903631 3.295543 0.248047
v 0.844519 3.431823 0.278739
v 1.093509 3.566607 0.219606
v 1.052759 3.487846 0.379088
v 1.674277 3.582901 0.823700
v 1.715367 3.604865 0.765838
v 1.096903 3.365153 0.351789
v 1.671283 3.515303 0.811235
v 1.133469 3.453027 0.185117
v 1.713611 3.542475 0.750292
v -0.756892 2.298512 -1.370251
v -0.753611 2.090045 -1.285619
v -0.903924 2.022228 -2.102949
v -0.918400 2.199165 -2.176360
v -0.980682 2.132833 -1.129683
v -1.090680 2.093669 -1.991348
v -1.006356 2.357645 -1.228989
v -1.127387 2.292669 -2.078043
v -1.137140 2.292547 -2.753389
v -1.100540 2.402735 -2.718470
v -1.269706 2.331757 -2.727522
v -1.238237 2.462918 -2.694457
v -1.166231 2.509600 -3.806121
v -1.214458 2.530387 -3.801402
v -1.227402 2.485898 -3.821693
v -1.180343 2.472979 -3.826161
v -1.872972 2.559371 -0.945254
v -1.855304 2.600990 -0.838929
v -0.399003 2.890325 -1.294365
v -0.441729 2.866977 -1.369893
v -1.832816 2.418523 -0.934868
v -2.876920 1.925976 -0.723472
v -2.916159 1.982256 -0.745725
v -1.817815 2.456877 -0.841076
v -2.871499 1.961196 -0.687639
v -3.870536 1.891728 -0.657680
v -2.909447 2.021247 -0.704749
v 1.779392 3.377711 1.518249
v 1.791742 3.413633 1.515404
v 1.820878 3.409774 1.486501
v 1.810268 3.375838 1.487184
v 1.995919 2.999576 1.822658
v 1.470046 3.696877 -0.293057
v 1.467003 3.758724 -0.258108
v 1.794825 4.109457 -0.589936
v 1.790668 4.125810 -0.560551
v 1.403434 3.712090 -0.328702
v 1.400204 3.778158 -0.288059
v 1.759181 4.141823 -0.570850
v 2.134784 4.414517 -0.740408
v 1.763679 4.125112 -0.603557
v -1.165463 3.141707 -4.368727
v -0.352814 2.816941 -1.433969
v -0.139503 3.295324 -1.476000
v -0.104487 3.263359 -1.502406
v -0.310667 2.841506 -1.360432
v -0.086725 3.265937 -1.466135
v -0.053806 3.615899 -1.743909
v -0.121760 3.297217 -1.438871
v -0.821603 2.040547 -1.677860
v 0.099477 1.622539 0.196577
v -0.277704 2.336429 -0.165113
v 0.949927 3.469644 0.314741
v -0.214041 2.127309 0.005093
v 0.853775 3.481309 0.206624
v 1.436653 3.699488 -0.313883
v -0.667207 2.306227 -1.148223
v -0.400696 2.840671 -1.407778
v 1.799772 4.155862 -0.576425
v 0.872549 3.356738 0.274916
v 1.695289 3.598808 0.795879
v -0.426907 2.882711 -1.327140
v -0.077853 3.475696 -1.599739
v -1.427685 2.473967 -1.060621
v 0.101963 2.019063 0.194504
v 0.217088 3.062873 0.099475
v -1.220654 2.549001 -3.856770
v -0.066857 1.998871 -0.343846
v -0.509175 2.628526 -1.284582
v 1.829753 3.366332 1.512347
v -0.991677 2.450275 -1.124581
v 0.242849 2.968182 0.271339
v 1.913531 3.191914 1.684778
v 0.656372 3.195764 0.048820
v -0.953064 2.182269 -1.022169
v -1.011491 2.296954 -2.437776
v -1.202353 2.518353 -3.870094
v -0.041016 2.471542 -0.240547
v 1.785183 4.156055 -0.600210
v -0.388332 0.371903 -0.323131
v 1.578655 3.954511 -0.436109
v -0.002131 1.378498 -0.274372
v -0.215885 3.042178 -1.459460
v -0.359588 0.734257 -0.060565
v -0.846679 2.220196 -1.762993
v -0.943578 2.368701 -0.966121
v 0.211273 1.614837 -0.157672
v 1.978770 4.287431 -0.662536
v -0.652053 2.675983 -1.189570
v -0.312481 1.040259 0.155570
v 1.165064 3.657587 -0.085354
v -0.895051 2.103576 -2.148391
v -0.125983 3.322661 -1.473951
v 0.001940 2.350231 0.118166
v -0.527975 2.234069 -0.963445
v 1.073130 3.420620 0.375998
v 0.315884 0.371902 0.272402
v -1.167468 2.837937 -4.135273
v 1.775374 3.482553 1.123104
v 1.137038 3.519559 0.200016
v 1.627242 3.934934 -0.417671
v -0.756180 2.477969 -1.112759
v -2.967101 1.940753 -0.730733
v 1.253497 3.650606 -0.031958
v 1.806598 3.349073 1.530032
v 0.222207 2.189792 0.030152
v -1.193918 2.827823 -4.142783
v -3.441413 1.932984 -0.676372
v 1.419029 3.498179 0.462195
v -0.702308 2.470498 -0.806562
v 1.396605 3.746716 -0.310750
v -1.853979 2.486396 -0.948352
v -0.351410 2.867204 -1.321551
v 1.892437 3.177659 1.700812
v -1.232185 2.471262 -3.241380
v -0.274356 3.084791 -1.415542
v -2.367333 2.321887 -0.765829
v 1.111303 3.393787 0.283590
v -0.170301 1.847046 -0.144703
v 1.473738 3.726208 -0.273213
v -1.378871 2.302410 -1.010386
v -0.719131 2.155612 -1.175135
v 0.610022 3.124470 0.259639
v -0.245622 2.236123 -0.683722
v -1.056394 2.292214 -1.650114
v -0.330493 2.181692 -0.180772
v 1.736449 3.472245 1.167180
v 0.317828 2.561092 -0.092486
v 1.718003 3.575460 0.753716
v -1.168825 2.359806 -3.285950
v -1.264794 2.401211 -2.709499
v 1.691980 3.523963 0.779654
v 0.032950 2.005864 -0.317124
v -1.169659 2.530978 -3.861529
v 0.187838 2.281099 -0.307053
v -1.347345 2.375281 -0.909737
v 0.257236 1.970757 -0.149078
v -0.325199 2.825164 -1.402189
v -0.043801 2.288355 -0.526112
v -0.311011 2.465820 -0.312543
v -0.281731 1.341641 -0.083403
v 0.137670 1.070544 0.211509
v -0.137421 1.612725 -0.279803
v -0.069891 3.459661 -1.629379
v -1.038818 2.232099 -1.186339
v -0.210953 2.099800 -0.254140
v -0.457867 0.067562 0.068630
v 1.275154 3.561816 -0.067168
v -3.421552 1.906001 -0.665789
v -1.391231 2.554055 -0.945854
v -0.839249 2.088608 -1.211055
v -0.397109 2.463261 -0.670003
v -3.444423 1.912861 -0.694061
v -1.835474 2.531484 -0.831711
v -0.859990 2.333189 -1.337071
v -0.325879 2.324067 -0.820071
v -0.703133 2.604166 -1.286531
v 0.151924 2.729662 -0.202335
v 0.111158 2.236170 -0.364882
v -0.256245 2.011932 -0.027396
v -1.140600 2.431622 -3.252609
v 0.519092 3.253423 0.260622
v 0.181016 1.822864 0.042869
v -1.206743 2.302558 -2.744165
v 1.061559 3.530733 0.318658
v 1.819634 3.387512 1.527615
v -0.545279 2.375508 -0.556709
v -0.758678 2.209750 -1.026817
v -1.258174 2.384684 -3.274600
v 1.669266 3.547312 0.821817
v -0.712896 2.253463 -0.784589
v 1.629271 3.897446 -0.451083
v -0.133340 2.396476 -0.606038
v -0.166756 2.033957 0.059576
v -0.072011 1.848180 0.134066
v -0.097383 3.306251 -1.468430
v -2.337538 2.185093 -0.827301
v -0.185763 3.051423 -1.404753
v -0.702347 2.366727 -1.273252
v 1.386491 3.445752 0.558938
v 0.098988 1.824847 -0.226124
v -1.867048 2.591594 -0.891619
v -1.025269 2.261245 -2.134355
v -1.125144 2.200290 -2.025959
v 1.746866 3.523002 1.171219
v 0.923368 3.470413 0.062325
v -0.079819 0.067562 -0.455894
v 0.191601 1.079199 -0.240784
v -2.942124 1.930196 -0.698707
v 0.444705 0.067562 -0.077846
v -0.116598 3.304132 -1.508583
v 0.027150 2.745254 0.104020
v 0.336669 3.014196 -0.032578
v -0.087998 3.287721 -1.503062
v 0.261542 0.371903 -0.377473
v -0.459907 2.254896 -0.432082
v 1.966572 4.288952 -0.683701
v -0.994927 2.042621 -2.039995
v -0.474049 2.236314 -0.706776
v 1.981182 4.280936 -0.677771
v -2.960505 1.982526 -0.689476
v -0.333991 0.371902 0.326744
v -2.985482 1.993083 -0.721502
v 0.066657 0.067562 0.446678
v -0.107979 2.166543 -0.474580
v -1.188339 2.846346 -4.133467
v 1.000786 3.336916 0.282254
v -1.006396 2.091294 -1.551034
v -1.166068 2.442420 -2.702755
v -0.092404 2.300251 0.047114
v -0.250973 1.602312 0.077413
v 1.433691 3.773437 -0.270080
v 1.796480 3.370254 1.545301
v -0.753762 2.176240 -1.338493
v -1.173372 2.821632 -4.144468
v 1.365852 3.541542 0.579122
v -2.328595 2.220154 -0.761348
v -1.189085 2.377809 -2.376790
v 1.001079 3.568721 0.150181
v -1.108017 2.343768 -2.737420
v 1.819368 4.138406 -0.587287
v 1.898934 3.194825 1.698830
v -0.558863 2.555830 -1.378460
v -0.061821 3.460300 -1.612158
v 1.783950 3.529869 1.129719
v -2.378067 2.283581 -0.840752
v -0.269864 2.216169 -0.435480
v 0.001517 2.200050 0.148989
v 0.009895 2.098568 -0.369057
v 1.051354 3.432329 0.105396
v -1.187960 2.561627 -3.848205
v 0.197573 2.137558 -0.277428
v 0.571526 3.314673 0.062586
v 1.907640 3.175331 1.686029
v 0.918637 3.329602 0.165821
v 0.200169 2.569839 0.239774
v 0.189205 1.393340 0.010334
v -3.424146 1.887254 -0.681973
v -0.051678 0.737328 -0.340033
v -1.188222 2.208658 -2.351108
v 0.362429 2.919506 0.139287
v -0.090396 1.356483 0.201303
v 0.227809 0.738532 -0.031780
v -0.258925 1.055271 -0.296906
v -1.024333 2.150128 -2.419788
v 1.964018 4.295434 -0.667393
v 1.804778 4.138600 -0.611072
v 1.188623 3.562192 -0.127488
v 1.580763 3.914964 -0.474071
v -0.510716 2.413804 -0.988531
v 1.399430 3.586364 0.486850
v -0.080101 0.735461 0.247687
v -0.085900 3.475270 -1.617223
v -0.244045 3.093006 -1.359486
v -1.822405 2.426286 -0.888445
v -0.212521 3.072903 -1.377751
v -0.263805 3.092219 -1.383997
v -0.196220 3.043481 -1.435623
v -0.522695 2.588401 -1.338893
v -0.576640 2.657954 -1.229551
v -0.634972 2.574299 -1.340021
v -0.247504 3.062796 -1.441869
v -0.321222 1.045627 -0.075088
v 0.200154 1.077010 -0.010218
v -0.029423 1.068169 -0.304525
v -0.091644 1.054468 0.219219
v -0.174024 2.312824 -0.666378
v -0.400916 2.363833 -0.350815
v -0.363064 2.230868 -0.565680
v -0.605414 2.457798 -0.899402
v 1.575880 3.936200 -0.456723
v 1.605180 3.903167 -0.465391
v 1.602785 3.947761 -0.424075
v 1.207498 3.661360 -0.055606
v 1.169944 3.610180 -0.110905
v 1.233672 3.554741 -0.100378
v 1.632085 3.914727 -0.432743
v 0.957344 3.517616 0.249102
v 0.973743 3.396868 0.309539
v 1.271225 3.605921 -0.045079
v 1.013824 3.370239 0.207903
v 1.766157 3.530303 1.150890
v 1.755162 3.473531 1.144722
v 1.782659 3.506889 1.123037
v 1.738660 3.496946 1.172575
v -2.347188 2.273914 -0.758033
v -2.329941 2.194728 -0.793617
v -2.375826 2.310630 -0.803998
v -1.359452 2.325030 -0.956656
v -1.405959 2.382156 -1.043999
v -1.366607 2.470701 -0.919300
v -2.358579 2.231444 -0.839582
v -0.718205 2.244073 -1.224951
v -0.804118 2.150704 -1.099890
v -0.688917 2.643852 -1.230679
v -1.413114 2.527827 -1.006643
v -1.215637 2.365998 -3.282900
v -1.147577 2.393169 -3.270169
v -1.252315 2.430517 -3.257100
v -1.184255 2.457688 -3.244370
v -1.202120 2.298730 -2.358835
v -1.099816 2.349843 -2.409005
v -1.106750 2.166932 -2.383726
v -1.004446 2.218044 -2.433895
v -1.046953 2.196595 -1.591121
v -0.954497 2.271213 -1.713818
v -0.911039 2.050912 -1.607182
v -0.818583 2.125530 -1.729879
v 1.404347 3.464710 0.508798
v 1.411837 3.546107 0.467068
v 1.373564 3.489811 0.576484
v 1.381054 3.571208 0.534754
v 0.538377 3.293823 0.162186
v 0.560661 3.183720 0.276254
v 0.640129 3.150342 0.153648
v 0.617845 3.260446 0.039580
v -0.211876 2.445789 -0.451513
v 0.076171 2.751023 -0.058843
v 0.272364 2.551900 0.083329
v 0.104099 2.658506 0.197081
v 0.244437 2.644418 -0.172595
v -0.621534 2.228119 -0.872161
v -0.722450 2.364980 -0.781347
v -0.504498 2.320936 -0.990217
v -0.235132 2.165708 -0.339174
v -0.234620 2.247237 -0.068478
v 0.159450 1.980296 -0.239756
v -0.002316 2.207631 -0.441088
v -0.084635 1.612318 0.165052
v 0.045813 1.613888 -0.246795
v 0.182946 1.619569 0.028968
v -0.221768 1.606637 -0.110711
v -0.184660 1.987186 -0.195396
v 0.197503 1.993802 0.033413
v -0.027255 2.023568 0.149523
v -0.412418 0.371902 0.006092
v 0.339969 0.371902 -0.056821
v -0.067681 0.371903 -0.401558
v -0.004768 0.371902 0.350829
vt 0.6011 0.6615
vt 0.5927 0.6645
vt 0.5889 0.6593
vt 0.5966 0.6544
vt 0.5453 0.6422
vt 0.5451 0.6495
vt 0.5396 0.6500
vt 0.5381 0.6424
vt 0.5317 0.6452
vt 0.5345 0.6521
vt 0.5294 0.6541
vt 0.5252 0.6479
vt 0.5898 0.6495
vt 0.5837 0.6555
vt 0.5785 0.6517
vt 0.5831 0.6446
vt 0.5713 0.6826
vt 0.5692 0.6859
vt 0.5677 0.6836
vt 0.5691 0.6799
vt 0.5891 0.7193
vt 0.5884 0.7171
vt 0.5905 0.7168
vt 0.5400 0.6754
vt 0.5408 0.6785
vt 0.5365 0.6801
vt 0.5360 0.6768
vt 0.5917 0.6918
vt 0.5897 0.6931
vt 0.5872 0.6903
vt 0.5892 0.6892
vt 0.5710 0.6698
vt 0.5669 0.6740
vt 0.5633 0.6717
vt 0.5669 0.6673
vt 0.5384 0.6684
vt 0.5390 0.6723
vt 0.5355 0.6735
vt 0.5344 0.6696
vt 0.5463 0.6661
vt 0.5462 0.6705
vt 0.5426 0.6712
vt 0.5423 0.6672
vt 0.5777 0.6762
vt 0.5732 0.6795
vt 0.5705 0.6763
vt 0.5750 0.6723
vt 0.5886 0.7128
vt 0.5865 0.7136
vt 0.5853 0.7124
vt 0.5875 0.7111
vt 0.5960 0.6928
vt 0.5964 0.6958
vt 0.5941 0.6944
vt 0.5466 0.6734
vt 0.5439 0.6740
vt 0.5926 0.6987
vt 0.5952 0.7008
vt 0.5935 0.7028
vt 0.5907 0.7000
vt 0.5878 0.6934
vt 0.5900 0.6966
vt 0.5879 0.6972
vt 0.5859 0.6938
vt 0.5761 0.7097
vt 0.5760 0.7114
vt 0.5723 0.7113
vt 0.5719 0.7094
vt 0.5766 0.7004
vt 0.5767 0.7026
vt 0.5708 0.7028
vt 0.5716 0.7006
vt 0.5759 0.6957
vt 0.5766 0.6981
vt 0.5723 0.6985
vt 0.5720 0.6963
vt 0.5644 0.6846
vt 0.5486 0.6756
vt 0.5506 0.6775
vt 0.5469 0.6762
vt 0.5489 0.6877
vt 0.5518 0.6885
vt 0.5509 0.6978
vt 0.5488 0.6973
vt 0.5624 0.6934
vt 0.5659 0.6944
vt 0.5609 0.7007
vt 0.5589 0.6999
vt 0.5418 0.6872
vt 0.5460 0.6868
vt 0.5468 0.6967
vt 0.5428 0.6960
vt 0.5554 0.6905
vt 0.5590 0.6924
vt 0.5569 0.6992
vt 0.5539 0.6985
vt 0.5867 0.7059
vt 0.5880 0.7026
vt 0.5915 0.7063
vt 0.5467 0.7063
vt 0.5486 0.7071
vt 0.5463 0.7164
vt 0.5446 0.7154
vt 0.5419 0.7047
vt 0.5448 0.7055
vt 0.5429 0.7144
vt 0.5411 0.7134
vt 0.5560 0.7085
vt 0.5580 0.7090
vt 0.5552 0.7173
vt 0.5530 0.7170
vt 0.5512 0.7075
vt 0.5539 0.7080
vt 0.5509 0.7168
vt 0.5486 0.7166
vt 0.6117 0.7173
vt 0.6104 0.7168
vt 0.6117 0.7084
vt 0.6123 0.7088
vt 0.6091 0.7167
vt 0.6079 0.7165
vt 0.6099 0.7086
vt 0.6108 0.7085
vt 0.6142 0.7178
vt 0.6130 0.7179
vt 0.6129 0.7092
vt 0.6136 0.7092
vt 0.6166 0.7170
vt 0.6154 0.7177
vt 0.6143 0.7093
vt 0.6149 0.7089
vt 0.5349 0.7229
vt 0.5339 0.7208
vt 0.5431 0.7208
vt 0.5441 0.7229
vt 0.5312 0.7380
vt 0.5303 0.7354
vt 0.5397 0.7364
vt 0.5404 0.7392
vt 0.5348 0.7279
vt 0.5358 0.7251
vt 0.5452 0.7251
vt 0.5444 0.7285
vt 0.5321 0.7331
vt 0.5338 0.7308
vt 0.5435 0.7318
vt 0.5416 0.7341
vt 0.5502 0.7253
vt 0.5500 0.7236
vt 0.5569 0.7265
vt 0.5562 0.7277
vt 0.5482 0.7379
vt 0.5478 0.7357
vt 0.5559 0.7349
vt 0.5559 0.7367
vt 0.5500 0.7295
vt 0.5504 0.7270
vt 0.5556 0.7290
vt 0.5555 0.7305
vt 0.5486 0.7338
vt 0.5495 0.7320
vt 0.5555 0.7321
vt 0.5557 0.7335
vt 0.5683 0.7321
vt 0.5683 0.7309
vt 0.5811 0.7329
vt 0.5811 0.7336
vt 0.5683 0.7341
vt 0.5683 0.7332
vt 0.5811 0.7342
vt 0.5810 0.7348
vt 0.5687 0.7301
vt 0.5691 0.7292
vt 0.5814 0.7320
vt 0.5812 0.7325
vt 0.5684 0.7363
vt 0.5684 0.7351
vt 0.5809 0.7354
vt 0.5809 0.7359
vt 0.5250 0.7085
vt 0.5232 0.7087
vt 0.5238 0.6994
vt 0.5250 0.6992
vt 0.5646 0.6441
vt 0.5658 0.6450
vt 0.5637 0.6523
vt 0.5628 0.6518
vt 0.5705 0.6962
vt 0.5707 0.6983
vt 0.5692 0.6982
vt 0.5689 0.6960
vt 0.5705 0.7104
vt 0.5711 0.7123
vt 0.5699 0.7133
vt 0.5692 0.7114
vt 0.5213 0.6866
vt 0.5200 0.6869
vt 0.5194 0.6738
vt 0.5202 0.6734
vt 0.5289 0.7088
vt 0.5268 0.7084
vt 0.5262 0.6991
vt 0.5277 0.6991
vt 0.5211 0.7094
vt 0.5191 0.7100
vt 0.5207 0.7000
vt 0.5222 0.6997
vt 0.5326 0.7088
vt 0.5310 0.7091
vt 0.5292 0.6991
vt 0.5304 0.6989
vt 0.5257 0.6732
vt 0.5251 0.6734
vt 0.5225 0.6576
vt 0.5234 0.6862
vt 0.5224 0.6862
vt 0.5211 0.6730
vt 0.5218 0.6732
vt 0.5278 0.6862
vt 0.5268 0.6864
vt 0.5245 0.6737
vt 0.5256 0.6863
vt 0.5244 0.6862
vt 0.5226 0.6734
vt 0.5236 0.6736
vt 0.5220 0.6579
vt 0.5202 0.6575
vt 0.5210 0.6578
vt 0.6109 0.7003
vt 0.6103 0.7003
vt 0.6107 0.6919
vt 0.6111 0.6921
vt 0.6132 0.7008
vt 0.6127 0.7010
vt 0.6124 0.6927
vt 0.6129 0.6924
vt 0.6143 0.7004
vt 0.6138 0.7007
vt 0.6133 0.6921
vt 0.6138 0.6919
vt 0.6121 0.7007
vt 0.6116 0.7004
vt 0.6115 0.6924
vt 0.6120 0.6926
vt 0.6122 0.6839
vt 0.6118 0.6838
vt 0.6127 0.6836
vt 0.6143 0.6916
vt 0.6132 0.6834
vt 0.5399 0.7145
vt 0.5417 0.7154
vt 0.5404 0.7164
vt 0.5388 0.7156
vt 0.5943 0.7291
vt 0.5942 0.7303
vt 0.5872 0.7295
vt 0.5871 0.7286
vt 0.5529 0.7188
vt 0.5549 0.7190
vt 0.5546 0.7207
vt 0.5528 0.7206
vt 0.5488 0.7184
vt 0.5509 0.7186
vt 0.5510 0.7205
vt 0.5491 0.7201
vt 0.5810 0.7278
vt 0.5810 0.7285
vt 0.5748 0.7274
vt 0.5749 0.7270
vt 0.5943 0.7217
vt 0.5947 0.7230
vt 0.5877 0.7239
vt 0.5875 0.7229
vt 0.5948 0.7243
vt 0.5949 0.7255
vt 0.5875 0.7259
vt 0.5876 0.7249
vt 0.5946 0.7267
vt 0.5943 0.7279
vt 0.5870 0.7277
vt 0.5872 0.7268
vt 0.5753 0.7258
vt 0.5752 0.7262
vt 0.5684 0.7257
vt 0.5812 0.7265
vt 0.5811 0.7271
vt 0.5751 0.7266
vt 0.5812 0.7237
vt 0.5814 0.7244
vt 0.5751 0.7250
vt 0.5750 0.7246
vt 0.5814 0.7251
vt 0.5814 0.7258
vt 0.5752 0.7254
vt 0.5749 0.7241
vt 0.5682 0.7248
vt 0.5683 0.7253
vt 0.5683 0.7261
vt 0.5948 0.7357
vt 0.5947 0.7363
vt 0.5948 0.7351
vt 0.5809 0.7365
vt 0.5947 0.7369
vt 0.5764 0.7053
vt 0.5825 0.7024
vt 0.5817 0.7054
vt 0.5828 0.6944
vt 0.5843 0.6975
vt 0.5808 0.6978
vt 0.5798 0.6950
vt 0.5862 0.7000
vt 0.5817 0.7001
vt 0.5839 0.7106
vt 0.5825 0.7120
vt 0.5797 0.7116
vt 0.5803 0.7100
vt 0.5874 0.6687
vt 0.5820 0.6730
vt 0.5796 0.6684
vt 0.5842 0.6639
vt 0.5457 0.6556
vt 0.5464 0.6618
vt 0.5421 0.6633
vt 0.5409 0.6566
vt 0.5361 0.6582
vt 0.5377 0.6644
vt 0.5333 0.6656
vt 0.5314 0.6599
vt 0.5794 0.6606
vt 0.5751 0.6657
vt 0.5706 0.6630
vt 0.5745 0.6574
vt 0.5597 0.6570
vt 0.5608 0.6571
vt 0.5596 0.6628
vt 0.5588 0.6626
vt 0.5615 0.6437
vt 0.5634 0.6431
vt 0.5619 0.6513
vt 0.5605 0.6514
vt 0.5671 0.6465
vt 0.5685 0.6481
vt 0.5663 0.6540
vt 0.5650 0.6531
vt 0.5583 0.6451
vt 0.5595 0.6444
vt 0.5592 0.6514
vt 0.5583 0.6517
vt 0.5572 0.6621
vt 0.5576 0.6623
vt 0.5569 0.6696
vt 0.5580 0.6569
vt 0.5587 0.6569
vt 0.5581 0.6624
vt 0.5615 0.6573
vt 0.5622 0.6575
vt 0.5606 0.6628
vt 0.5601 0.6628
vt 0.5631 0.6581
vt 0.5641 0.6586
vt 0.5619 0.6632
vt 0.5612 0.6630
vt 0.5581 0.6699
vt 0.5586 0.6699
vt 0.5573 0.6697
vt 0.5565 0.6770
vt 0.5592 0.6701
vt 0.5573 0.6570
vt 0.5574 0.6519
vt 0.5569 0.6459
vt 0.5565 0.6399
vt 0.5582 0.6386
vt 0.5599 0.6373
vt 0.5678 0.6377
vt 0.5692 0.6400
vt 0.5707 0.6422
vt 0.5624 0.6361
vt 0.5648 0.6349
vt 0.5506 0.6490
vt 0.5506 0.6546
vt 0.5506 0.6603
vt 0.5965 0.6696
vt 0.5905 0.6736
vt 0.5845 0.6776
vt 0.5853 0.7091
vt 0.5810 0.7084
vt 0.5896 0.7098
vt 0.5813 0.6913
vt 0.5788 0.6922
vt 0.5839 0.6904
vt 0.5762 0.7079
vt 0.5714 0.7075
vt 0.5711 0.7052
vt 0.6085 0.7373
vt 0.5949 0.7347
vt 0.5682 0.7265
vt 0.5615 0.7256
vt 0.5810 0.7230
vt 0.5872 0.7220
vt 0.6023 0.7251
vt 0.6020 0.7266
vt 0.6017 0.7281
vt 0.6017 0.7221
vt 0.6020 0.7236
vt 0.5940 0.7204
vt 0.6007 0.7188
vt 0.6012 0.7205
vt 0.5468 0.7181
vt 0.5472 0.7198
vt 0.6014 0.7296
vt 0.6011 0.7310
vt 0.5382 0.7136
vt 0.5371 0.7147
vt 0.5392 0.7125
vt 0.6121 0.6751
vt 0.6114 0.6835
vt 0.6149 0.7000
vt 0.6154 0.7084
vt 0.5194 0.6421
vt 0.5194 0.6579
vt 0.5287 0.6859
vt 0.5317 0.6986
vt 0.5342 0.7085
vt 0.5366 0.7185
vt 0.5347 0.7188
vt 0.5328 0.7191
vt 0.5226 0.7180
vt 0.5200 0.7190
vt 0.5174 0.7201
vt 0.5301 0.7184
vt 0.5275 0.7177
vt 0.5700 0.7085
vt 0.5686 0.7096
vt 0.5702 0.6940
vt 0.5686 0.6939
vt 0.5717 0.6942
vt 0.5663 0.6363
vt 0.5250 0.7178
vt 0.5684 0.7375
vt 0.5559 0.7385
vt 0.5485 0.7402
vt 0.5411 0.7420
vt 0.5210 0.7344
vt 0.5225 0.7321
vt 0.5241 0.7298
vt 0.5253 0.7275
vt 0.5264 0.7251
vt 0.5320 0.7406
vt 0.5229 0.7393
vt 0.5220 0.7369
vt 0.5256 0.7229
vt 0.5248 0.7208
vt 0.6178 0.7162
vt 0.6201 0.7240
vt 0.6183 0.7251
vt 0.6165 0.7262
vt 0.6148 0.7264
vt 0.6131 0.7266
vt 0.6090 0.7251
vt 0.6075 0.7248
vt 0.6059 0.7245
vt 0.6111 0.7258
vt 0.5389 0.7039
vt 0.5387 0.6952
vt 0.5526 0.6793
vt 0.5569 0.6824
vt 0.5611 0.6856
vt 0.5376 0.6877
vt 0.5452 0.6769
vt 0.5660 0.6868
vt 0.5708 0.6881
vt 0.5489 0.6781
vt 0.5753 0.6932
vt 0.5855 0.6903
vt 0.5922 0.6959
vt 0.5946 0.6974
vt 0.5969 0.6988
vt 0.5492 0.6727
vt 0.5498 0.6698
vt 0.5907 0.7120
vt 0.5919 0.7142
vt 0.5898 0.7146
vt 0.5877 0.7149
vt 0.5803 0.6801
vt 0.5760 0.6826
vt 0.5502 0.6651
vt 0.5936 0.6905
vt 0.5912 0.6882
vt 0.5734 0.6854
vt 0.5960 0.6435
vt 0.5876 0.6376
vt 0.6043 0.6494
vt 0.5288 0.6382
vt 0.5210 0.6416
vt 0.5366 0.6349
vt 0.5455 0.6349
vt 0.5545 0.6349
vt 0.5525 0.6420
vt 0.6095 0.6585
vt 0.6147 0.6675
vt 0.6056 0.6686
vn 0.0698 0.2803 0.9574
vn -0.0371 0.1854 0.9820
vn -0.7393 0.1904 0.6459
vn -0.6384 0.2472 0.7289
vn -0.0761 0.1511 -0.9856
vn 0.0242 0.1348 -0.9906
vn 0.7046 0.2030 -0.6799
vn 0.6183 0.2663 -0.7395
vn 0.9533 0.2927 -0.0744
vn 0.9817 0.1886 0.0265
vn 0.6533 0.2349 0.7197
vn 0.7101 0.3521 0.6098
vn -0.9879 0.1374 0.0722
vn -0.9904 0.1345 -0.0306
vn -0.6729 0.1581 -0.7226
vn -0.7506 0.1567 -0.6419
vn -0.4482 0.0427 0.8929
vn -0.4911 0.1269 0.8618
vn -0.5899 0.1957 0.7834
vn -0.6158 0.0876 0.7831
vn -0.2604 -0.1869 -0.9472
vn -0.2431 -0.4424 -0.8633
vn 0.3668 -0.3394 -0.8662
vn 0.9057 -0.0852 0.4153
vn 0.9119 -0.1374 0.3868
vn 0.2467 -0.0656 0.9669
vn 0.3216 -0.0474 0.9457
vn -0.8046 -0.3755 -0.4599
vn -0.6840 -0.5898 -0.4293
vn -0.1828 -0.6448 -0.7421
vn -0.9401 0.1726 -0.2939
vn -0.9090 -0.0528 -0.4135
vn -0.4445 0.1201 -0.8877
vn 0.9532 -0.0070 0.3024
vn 0.9154 -0.0505 0.3995
vn 0.3430 0.0093 0.9393
vn 0.4494 0.0798 0.8897
vn 0.3335 0.0174 -0.9426
vn 0.4548 -0.1509 -0.8777
vn 0.9502 -0.1217 -0.2869
vn 0.8965 -0.0023 -0.4431
vn -0.3225 0.1383 0.9364
vn -0.4227 0.0818 0.9026
vn -0.9188 0.0394 0.3929
vn -0.8734 0.1999 0.4442
vn 0.5578 -0.3785 -0.7387
vn 0.0340 -0.7769 -0.6288
vn 0.2938 -0.8030 -0.5186
vn 0.6824 -0.2031 -0.7022
vn -0.9541 -0.1511 0.2587
vn 0.5471 -0.2833 -0.7877
vn 0.9506 -0.2000 -0.2373
vn -0.7327 0.2779 0.6212
vn -0.6540 0.2670 0.7078
vn -0.7668 0.5189 0.3779
vn -0.7669 0.3103 0.5618
vn -0.5271 -0.7745 -0.3498
vn -0.9418 -0.2884 0.1729
vn -0.8460 -0.4522 0.2824
vn -0.2770 -0.9460 -0.1684
vn 0.7011 -0.1885 -0.6877
vn 0.4366 -0.8145 -0.3821
vn 0.6568 -0.7267 -0.2015
vn 0.8295 -0.2051 -0.5194
vn -0.7212 0.1425 0.6779
vn -0.3786 0.8510 0.3641
vn -0.1907 0.9012 0.3892
vn -0.2159 0.2747 0.9370
vn -0.0238 -0.9953 0.0937
vn -0.5096 -0.6832 0.5230
vn -0.2028 -0.5767 0.7914
vn 0.1193 -0.9385 0.3240
vn 0.4795 -0.3368 -0.8103
vn 0.6077 -0.1758 -0.7745
vn 0.6330 -0.2240 -0.7410
vn 0.6506 0.1623 -0.7419
vn -0.1452 0.5191 -0.8423
vn -0.3908 0.6204 -0.6800
vn 0.3389 0.1607 -0.9270
vn -0.5716 0.0250 0.8201
vn 0.2830 -0.1972 0.9386
vn 0.3489 -0.3308 0.8768
vn -0.3250 0.0724 0.9429
vn 0.9133 -0.2338 0.3334
vn 0.9700 -0.0726 -0.2322
vn 0.8082 -0.3000 -0.5068
vn 0.8230 -0.5482 0.1487
vn -0.7798 0.5275 -0.3373
vn -0.8954 0.3388 0.2890
vn -0.7123 0.5005 0.4920
vn -0.7194 0.6807 -0.1381
vn 0.1679 0.9772 -0.1300
vn -0.4101 0.8566 0.3131
vn -0.3763 0.8710 -0.3159
vn 0.0494 0.1545 -0.9868
vn -0.4002 0.7306 -0.5533
vn -0.5240 0.8033 -0.2829
vn -0.3594 0.1607 -0.9192
vn 0.5908 -0.7970 -0.1258
vn 0.4733 -0.4976 -0.7269
vn 0.1753 -0.6134 -0.7701
vn 0.5006 -0.8167 -0.2872
vn -0.0211 0.0081 0.9997
vn 0.4453 -0.6244 0.6418
vn 0.3674 -0.8189 0.4409
vn -0.0740 -0.1990 0.9772
vn -0.5526 0.8269 0.1046
vn -0.4093 0.5814 0.7031
vn -0.3919 0.4658 0.7934
vn -0.4875 0.8313 0.2671
vn -0.3183 0.8993 0.2999
vn -0.5650 0.4322 0.7028
vn -0.6130 0.6609 0.4330
vn -0.1487 0.9620 0.2289
vn -0.5374 -0.2737 0.7977
vn -0.0587 -0.9239 0.3780
vn -0.3546 -0.9079 0.2237
vn -0.8556 -0.0586 0.5144
vn 0.6299 0.3348 -0.7008
vn 0.1976 0.9377 -0.2859
vn 0.5673 0.7983 -0.2019
vn 0.8602 0.1383 -0.4908
vn 0.4337 -0.8552 -0.2838
vn 0.6725 -0.3909 -0.6285
vn 0.7670 -0.4376 -0.4693
vn 0.3505 -0.9119 -0.2136
vn 0.9831 -0.0135 -0.1827
vn 0.6203 -0.7821 -0.0596
vn 0.4741 -0.8401 -0.2636
vn 0.9459 -0.0882 -0.3122
vn -0.1846 -0.9783 0.0943
vn -0.6710 -0.7312 0.1226
vn -0.7500 -0.6567 0.0787
vn -0.3305 -0.9424 -0.0519
vn 0.2545 0.9570 -0.1393
vn 0.7740 0.5998 -0.2030
vn 0.8391 0.5202 -0.1591
vn 0.4053 0.9131 0.0438
vn -0.9852 -0.1248 0.1174
vn -0.6460 0.7633 0.0062
vn -0.5426 0.8110 0.2188
vn -0.9780 -0.0894 0.1883
vn 0.9147 -0.1340 -0.3814
vn 0.3434 -0.8204 -0.4571
vn 0.3973 -0.8696 -0.2933
vn 0.9459 -0.2192 -0.2394
vn -0.3978 -0.8927 -0.2118
vn -0.8268 -0.5624 0.0118
vn -0.8842 -0.4663 -0.0279
vn -0.3438 -0.9236 -0.1695
vn 0.4450 0.8800 0.1660
vn 0.8527 0.5130 -0.0987
vn 0.8513 0.5214 -0.0577
vn 0.4103 0.9067 0.0975
vn -0.9755 0.0434 0.2158
vn -0.4413 0.8379 0.3212
vn -0.4402 0.8827 0.1645
vn -0.9763 0.1921 0.1002
vn 0.3713 0.9263 0.0645
vn 0.9419 0.3350 -0.0219
vn 0.9785 0.2046 0.0259
vn 0.3669 0.7278 0.5794
vn -0.9436 0.3310 0.0072
vn -0.4642 0.8837 0.0609
vn -0.4957 0.8533 0.1620
vn -0.9744 0.2058 0.0902
vn 0.9450 -0.3123 -0.0973
vn 0.3805 -0.9068 -0.1814
vn 0.3097 -0.9001 -0.3065
vn 0.9266 -0.2773 -0.2541
vn -0.2654 -0.9504 -0.1624
vn -0.8144 -0.5678 -0.1201
vn -0.7086 -0.6642 -0.2383
vn -0.2491 -0.7147 -0.6536
vn 0.0022 0.8610 -0.5086
vn -0.2073 0.3553 -0.9115
vn -0.2814 0.4818 -0.8299
vn -0.2587 0.8924 -0.3698
vn -0.6362 0.7627 -0.1159
vn -0.1273 0.6486 0.7504
vn -0.1019 0.4164 0.9035
vn -0.7084 0.6970 0.1111
vn 0.2233 -0.8521 0.4734
vn -0.0584 -0.8111 0.5820
vn -0.3821 -0.9035 0.1941
vn 0.0400 -0.9593 0.2794
vn 0.9324 -0.1736 -0.3168
vn 0.7689 -0.6343 0.0803
vn 0.6746 -0.7375 0.0321
vn 0.9733 -0.0812 -0.2148
vn -0.0982 -0.1921 -0.9765
vn 0.2908 -0.8392 -0.4596
vn 0.3158 -0.9081 -0.2750
vn -0.0404 -0.4077 -0.9122
vn 0.1965 0.2390 0.9509
vn 0.1920 0.9059 0.3775
vn -0.0725 0.8640 0.4982
vn 0.1594 0.1243 0.9794
vn -0.3547 -0.3185 -0.8791
vn -0.3805 -0.8981 -0.2204
vn -0.0475 -0.8222 -0.5672
vn -0.2016 -0.1787 -0.9630
vn -0.1453 -0.8144 0.5619
vn 0.0413 -0.3319 0.9424
vn 0.1988 -0.3662 0.9091
vn 0.1667 -0.8845 0.4357
vn 0.1380 -0.7487 0.6484
vn 0.0124 -0.9931 -0.1165
vn -0.4949 0.8139 -0.3044
vn -0.3299 0.3011 -0.8947
vn -0.2366 0.1652 -0.9575
vn -0.2055 0.7282 -0.6538
vn 0.4362 -0.8170 0.3773
vn 0.3219 -0.4416 0.8375
vn 0.2959 -0.4606 0.8368
vn 0.0729 0.1137 0.9908
vn -0.3008 0.7096 0.6372
vn -0.2775 0.7130 0.6439
vn 0.0110 0.2579 0.9661
vn 0.0336 -0.1834 0.9825
vn -0.1052 0.1141 -0.9879
vn -0.1246 0.9732 0.1932
vn -0.9590 0.1861 0.2139
vn -0.8925 -0.4493 0.0403
vn -0.9763 -0.1925 0.0986
vn -0.6880 0.3010 0.6603
vn 0.9701 -0.1527 -0.1884
vn 0.6995 0.7112 0.0698
vn 0.6671 0.7220 0.1837
vn 0.7972 -0.2490 -0.5499
vn 0.1668 -0.9593 -0.2279
vn 0.6404 -0.7231 -0.2589
vn 0.5078 -0.7797 -0.3664
vn -0.4919 -0.7603 -0.4242
vn -0.0212 0.9628 0.2694
vn -0.5150 0.7919 0.3281
vn -0.4273 0.7895 0.4406
vn 0.5194 0.7218 0.4573
vn 0.9531 0.2776 -0.1208
vn 0.0144 0.5978 0.8015
vn 0.0480 -0.6374 -0.7691
vn -0.8989 -0.3152 0.3044
vn 0.4658 -0.8238 -0.3230
vn 0.3941 -0.8647 -0.3113
vn 0.7095 -0.6436 -0.2871
vn 0.4596 -0.8300 -0.3160
vn 0.8240 -0.0440 0.5649
vn 0.6987 -0.7055 0.1189
vn 0.6740 -0.7366 -0.0560
vn 0.8111 -0.2385 0.5341
vn -0.3322 -0.3373 0.8808
vn 0.1656 -0.9264 0.3381
vn 0.0120 -0.9366 0.3502
vn -0.4632 -0.3444 0.8166
vn -0.3944 0.8408 0.3708
vn -0.4828 0.3726 0.7925
vn -0.5436 0.3462 0.7646
vn -0.3502 0.8593 0.3727
vn 0.8290 -0.3453 0.4398
vn 0.6567 -0.7055 -0.2665
vn 0.5930 -0.7211 -0.3583
vn 0.7350 -0.5435 0.4055
vn 0.2552 -0.9011 -0.3506
vn -0.2728 -0.5859 -0.7631
vn -0.3893 -0.4051 -0.8272
vn 0.1794 -0.7955 -0.5788
vn -0.6695 0.1510 -0.7273
vn -0.5813 0.7690 -0.2659
vn -0.6105 0.7909 -0.0426
vn -0.7510 0.2737 -0.6010
vn -0.1475 0.9409 0.3048
vn 0.4391 0.6599 0.6096
vn 0.5283 0.3549 0.7714
vn -0.0621 0.8147 0.5765
vn -0.6107 0.7651 0.2043
vn -0.0094 0.5555 0.8314
vn -0.4456 0.8333 0.3272
vn -0.0347 0.6476 0.7612
vn 0.5121 0.2212 0.8299
vn 0.4989 0.1642 0.8509
vn 0.1500 -0.6388 -0.7546
vn -0.4640 -0.1717 -0.8690
vn -0.5005 -0.0410 -0.8648
vn 0.0909 -0.5287 -0.8439
vn -0.7861 0.4012 -0.4703
vn -0.6268 0.7599 0.1723
vn -0.6806 0.6046 -0.4138
vn 0.5400 -0.7654 -0.3502
vn -0.4157 0.1304 -0.9001
vn 0.5032 -0.0497 0.8627
vn -0.4886 0.6049 0.6288
vn -0.8443 -0.2789 -0.4576
vn 0.9056 0.2878 0.3115
vn 0.4689 -0.5551 -0.6870
vn 0.1716 0.9781 -0.1174
vn -0.3896 0.8653 0.3153
vn 0.1797 0.9747 -0.1332
vn -0.0984 -0.9951 -0.0071
vn -0.6693 -0.6281 0.3969
vn -0.6041 -0.6592 0.4478
vn -0.0530 -0.9977 0.0428
vn -0.7930 0.2382 0.5607
vn -0.7896 0.1654 0.5909
vn 0.7027 -0.1736 -0.6900
vn 0.3631 -0.8329 -0.4176
vn 0.4014 -0.8206 -0.4068
vn 0.6949 -0.1543 -0.7024
vn -0.1256 0.0747 0.9893
vn -0.2124 0.1003 0.9720
vn -0.8183 0.1605 0.5518
vn -0.7838 0.1251 0.6082
vn 0.1145 0.0933 -0.9890
vn 0.1992 0.0703 -0.9774
vn 0.8258 0.0499 -0.5617
vn 0.7812 0.0877 -0.6180
vn 0.9919 0.0515 0.1159
vn 0.9806 0.0146 0.1954
vn 0.5463 0.0658 0.8350
vn 0.6113 0.0702 0.7882
vn -0.9863 0.1231 -0.1095
vn -0.9710 0.1579 -0.1796
vn -0.5677 0.1506 -0.8093
vn -0.6176 0.1356 -0.7747
vn -0.5169 0.1544 -0.8420
vn -0.8029 0.4699 -0.3668
vn -0.8842 0.3745 -0.2793
vn -0.6971 -0.1853 -0.6926
vn -0.4344 0.2714 -0.8588
vn -0.5979 0.5438 -0.5889
vn -0.7065 0.5045 -0.4963
vn -0.4858 0.1984 -0.8512
vn 0.5235 -0.0924 0.8470
vn 0.7401 -0.4406 0.5081
vn 0.7912 -0.4510 0.4130
vn 0.5280 -0.1616 0.8337
vn 0.7750 -0.6313 -0.0284
vn 0.3391 -0.3873 -0.8574
vn 0.2383 -0.3369 -0.9109
vn 0.7824 -0.5893 -0.2013
vn 0.9103 -0.2009 0.3620
vn 0.8450 -0.3922 -0.3636
vn 0.9948 0.0025 0.1015
vn 0.7935 -0.4934 -0.3563
vn 0.2269 -0.2839 -0.9316
vn 0.2461 -0.3775 -0.8927
vn -0.7435 0.6072 0.2802
vn -0.0433 0.3664 0.9294
vn 0.0648 0.4320 0.8996
vn -0.7465 0.5477 0.3778
vn 0.5772 -0.0813 0.8125
vn 0.8610 -0.3462 0.3726
vn 0.7249 0.2597 0.6380
vn -0.9792 0.1389 -0.1480
vn 0.0004 0.7071 0.7071
vn 0.1019 -0.5606 -0.8218
vn 0.1025 0.7501 -0.6533
vn 0.9986 -0.0239 0.0469
vn 0.9001 -0.4060 -0.1583
vn 0.7586 0.2574 -0.5985
vn 0.4700 0.6898 0.5507
vn -0.1391 0.7914 -0.5953
vn -0.6056 0.5234 -0.5994
vn 0.5861 0.6163 -0.5260
vn 0.5662 0.6300 -0.5315
vn 0.4902 0.4618 -0.7393
vn 0.6079 0.5784 -0.5440
vn 0.0404 0.8008 -0.5975
vn 0.7493 0.5842 -0.3118
vn -0.2930 0.9293 0.2248
vn 0.1065 0.9731 0.2041
vn 0.9439 0.3121 -0.1083
vn 0.3800 -0.7568 0.5319
vn -0.9978 -0.0425 0.0502
vn -0.8163 -0.3701 -0.4434
vn -0.2769 0.8494 -0.4493
vn 0.9560 -0.1220 -0.2668
vn -0.6241 0.1124 0.7732
vn 0.7062 0.0352 -0.7071
vn -0.9641 -0.1786 0.1968
vn -0.6958 0.1855 0.6939
vn 0.4001 -0.4250 -0.8119
vn -0.9811 0.1289 0.1440
vn -0.8045 0.1399 -0.5772
vn -0.5354 0.2553 0.8051
vn 0.9483 0.2932 -0.1215
vn 0.7597 0.3545 0.5452
vn 0.5914 0.2558 -0.7647
vn -0.1245 0.1376 -0.9826
vn 0.1393 0.2857 0.9482
usemtl None
s 1
f 389/1/1 302/2/2 3/3/3 252/4/4
f 388/5/5 289/6/6 7/7/7 245/8/8
f 387/9/9 293/10/10 2/11/11 147/12/12
f 386/13/13 134/14/14 6/15/15 130/16/16
f 385/17/17 278/18/18 11/19/19 224/20/20
f 13/21/21 118/22/22 183/23/23
f 384/24/24 156/25/25 10/26/26 115/27/27
f 383/28/28 196/29/29 14/30/30 118/31/22
f 382/32/31 169/33/32 13/34/21 193/35/33
f 381/36/34 213/37/35 9/38/36 101/39/37
f 380/40/38 231/41/39 16/42/40 137/43/41
f 379/44/42 225/45/43 12/46/44 261/47/45
f 378/48/46 255/49/47 23/50/48 189/51/49
f 12/52/44 224/53/20 210/54/50
f 377/55/51 187/56/52 16/42/40 231/41/39
f 376/57/53 260/58/54 25/59/55 102/60/56
f 375/61/57 176/62/58 26/63/59 277/64/60
f 374/65/61 145/66/62 29/67/63 107/68/64
f 373/69/65 160/70/66 33/71/67 136/72/68
f 372/73/69 221/74/70 34/75/71 218/76/72
f 11/19/19 278/18/18 260/77/54
f 15/78/73 209/79/74 282/80/75
f 371/81/76 208/82/77 35/83/78 243/84/79
f 370/85/80 286/86/81 37/87/82 122/88/83
f 369/89/84 178/90/85 36/91/86 291/92/87
f 368/93/88 242/94/89 38/95/90 116/96/91
f 367/97/92 190/98/93 25/59/55 128/99/94
f 366/100/95 283/101/96 39/102/97 236/103/98
f 365/104/99 124/105/100 40/106/101 285/107/102
f 364/108/103 173/109/104 41/110/105 110/111/106
f 363/112/107 212/113/108 42/114/109 105/115/110
f 362/116/111 266/117/112 45/118/113 111/119/114
f 361/120/115 230/121/116 48/122/117 220/123/118
f 360/124/119 301/125/120 46/126/121 179/127/122
f 359/128/123 159/129/124 50/130/125 182/131/126
f 358/132/127 100/133/128 53/134/129 142/135/130
f 357/136/131 258/137/132 56/138/133 248/139/134
f 356/140/135 135/141/136 54/142/137 233/143/138
f 355/144/139 175/145/140 58/146/141 234/147/142
f 354/148/143 295/149/144 59/150/145 270/151/146
f 353/152/147 290/153/148 61/154/149 214/155/150
f 352/156/151 126/157/152 60/158/153 259/159/154
f 351/160/155 268/161/156 62/162/157 181/163/158
f 350/164/159 211/165/160 63/166/161 281/167/162
f 349/168/163 165/169/164 64/170/165 117/171/166
f 348/172/167 180/173/168 66/174/169 184/175/170
f 347/176/171 219/177/172 65/178/173 127/179/174
f 346/180/175 114/181/176 67/182/177 232/183/178
f 345/184/179 139/185/180 69/186/181 112/187/182
f 344/188/183 125/189/184 55/190/185 201/191/186
f 343/192/187 172/193/188 52/194/189 264/195/190
f 342/196/191 227/197/192 72/198/193 153/199/194
f 341/200/195 200/201/196 68/202/197 204/203/198
f 340/204/199 171/205/200 71/206/201 162/207/202
f 339/208/203 186/209/204 74/210/205 305/211/206
f 72/212/193 239/213/207 288/214/208
f 338/215/209 276/216/210 73/217/211 253/218/212
f 337/219/213 267/220/214 75/221/215 239/213/207
f 336/222/216 167/223/217 77/224/218 251/225/219
f 75/221/215 251/225/219 199/226/220
f 73/217/211 153/199/194 203/227/221
f 77/224/218 253/218/212 158/228/222
f 335/229/223 177/230/224 78/231/225 263/232/226
f 334/233/227 275/234/228 80/235/229 120/236/230
f 333/237/231 149/238/232 81/239/233 155/240/234
f 332/241/235 235/242/236 79/243/237 216/244/238
f 80/235/229 216/244/238 123/245/239
f 79/243/237 263/232/226 272/246/240
f 81/239/233 120/236/230 284/247/241
f 78/248/225 155/240/234 164/249/242
f 331/250/243 280/251/244 49/252/245 168/253/246
f 330/254/247 198/255/248 83/256/249 170/257/250
f 329/258/251 257/259/252 47/260/253 146/261/254
f 328/262/255 103/263/256 44/264/257 215/265/258
f 327/266/259 222/267/260 85/268/261 271/269/262
f 326/270/263 298/271/264 87/272/265 106/273/266
f 325/274/267 141/275/268 88/276/269 161/277/270
f 324/278/271 154/279/272 84/280/273 262/281/274
f 89/282/275 109/283/276 296/284/277
f 323/285/278 151/286/279 86/287/280 109/283/276
f 322/288/281 299/289/282 91/290/283 297/291/284
f 321/292/285 131/293/286 89/282/275 129/294/287
f 85/295/261 297/291/284 250/296/288
f 91/290/283 129/294/287 247/297/289
f 86/287/280 271/269/262 138/298/290
f 64/170/165 281/167/162 256/299/291
f 65/178/173 117/171/166 157/300/292
f 63/166/161 184/175/170 148/301/293
f 66/302/169 127/179/174 265/303/294
f 320/304/295 160/70/66 32/305/296 202/306/297
f 319/307/298 246/308/299 31/309/300 249/310/301
f 318/311/302 190/98/93 32/305/296 217/312/303
f 317/313/304 174/314/305 28/315/306 206/316/307
f 316/317/308 292/318/309 19/319/310 140/320/311
f 315/321/312 132/322/313 21/323/314 238/324/315
f 314/325/316 287/326/317 22/327/318 192/328/319
f 313/329/320 191/330/321 20/331/322 294/332/323
f 312/333/324 166/334/325 94/335/326 241/336/327
f 311/337/328 207/338/329 70/339/330 108/340/331
f 310/341/332 119/342/333 96/343/334 163/344/335
f 309/345/336 273/346/337 93/347/338 188/348/339
f 97/349/340 244/350/341 274/351/342
f 308/352/343 133/353/344 95/354/345 244/350/341
f 307/355/346 304/356/347 99/357/348 143/358/349
f 306/359/350 228/360/351 97/361/340 226/362/352
f 94/335/326 143/358/349 303/363/353
f 99/357/348 226/362/352 113/364/354
f 95/354/345 241/336/327 194/365/355
f 194/365/355 303/363/353 98/366/356
f 194/365/355 241/336/327 303/363/353
f 241/336/327 94/335/326 303/363/353
f 113/364/354 274/367/342 98/366/356
f 113/364/354 226/362/352 274/367/342
f 226/362/352 97/361/340 274/367/342
f 303/363/353 113/364/354 98/366/356
f 303/363/353 143/358/349 113/364/354
f 143/358/349 99/357/348 113/364/354
f 304/356/347 306/359/350 226/362/352 99/357/348
f 69/186/181 163/344/335 306/359/350 304/356/347
f 163/344/335 96/343/334 228/360/351 306/359/350
f 166/334/325 307/355/346 143/358/349 94/335/326
f 70/339/330 112/187/182 307/355/346 166/334/325
f 112/187/182 69/186/181 304/356/347 307/355/346
f 228/368/351 308/352/343 244/350/341 97/349/340
f 96/369/334 188/348/339 308/352/343 228/368/351
f 188/348/339 93/347/338 133/353/344 308/352/343
f 274/351/342 194/365/355 98/366/356
f 274/351/342 244/350/341 194/365/355
f 244/350/341 95/354/345 194/365/355
f 119/370/333 309/345/336 188/348/339 96/369/334
f 30/371/357 229/372/358 309/345/336 119/370/333
f 229/372/358 51/373/359 273/346/337 309/345/336
f 139/185/180 310/341/332 163/344/335 69/186/181
f 33/374/67 152/375/360 310/341/332 139/185/180
f 152/375/360 30/376/357 119/342/333 310/341/332
f 273/346/337 311/337/328 108/340/331 93/347/338
f 51/373/359 205/377/361 311/337/328 273/346/337
f 205/377/361 57/378/362 207/338/329 311/337/328
f 133/353/344 312/333/324 241/336/327 95/354/345
f 93/347/338 108/340/331 312/333/324 133/353/344
f 108/340/331 70/339/330 166/334/325 312/333/324
f 134/14/14 313/329/320 294/332/323 6/15/15
f 3/3/3 140/320/311 313/329/320 134/14/14
f 140/320/311 19/319/310 191/330/321 313/329/320
f 293/10/10 314/325/316 192/328/319 2/11/11
f 7/7/7 238/324/315 314/325/316 293/10/10
f 238/324/315 21/323/314 287/326/317 314/325/316
f 289/6/6 315/321/312 238/324/315 7/7/7
f 6/379/15 294/380/323 315/321/312 289/6/6
f 294/380/323 20/381/322 132/322/313 315/321/312
f 302/2/2 316/317/308 140/320/311 3/3/3
f 2/382/11 192/383/319 316/317/308 302/2/2
f 192/383/319 22/384/318 292/318/309 316/317/308
f 223/385/363 317/313/304 206/316/307 27/386/364
f 24/387/365 189/51/49 317/313/304 223/385/363
f 189/51/49 23/50/48 174/314/305 317/313/304
f 246/308/299 318/311/302 217/312/303 31/309/300
f 26/63/59 102/60/56 318/311/302 246/308/299
f 102/60/56 25/59/55 190/98/93 318/311/302
f 174/388/305 319/307/298 249/310/301 28/389/306
f 23/390/48 277/64/60 319/307/298 174/388/305
f 277/64/60 26/63/59 246/308/299 319/307/298
f 300/391/366 320/304/295 202/306/297 27/386/364
f 30/392/357 152/393/360 320/304/295 300/391/366
f 152/393/360 33/71/67 160/70/66 320/304/295
f 265/303/294 157/300/292 92/394/367
f 265/303/294 127/179/174 157/300/292
f 127/179/174 65/178/173 157/300/292
f 148/301/293 265/395/294 92/394/367
f 148/301/293 184/175/170 265/395/294
f 184/175/170 66/174/169 265/395/294
f 157/300/292 256/299/291 92/394/367
f 157/300/292 117/171/166 256/299/291
f 117/171/166 64/170/165 256/299/291
f 256/299/291 148/301/293 92/394/367
f 256/299/291 281/167/162 148/301/293
f 281/167/162 63/166/161 148/301/293
f 138/298/290 250/396/288 90/397/368
f 138/298/290 271/269/262 250/396/288
f 271/269/262 85/268/261 250/396/288
f 247/297/289 296/284/277 90/397/368
f 247/297/289 129/294/287 296/284/277
f 129/294/287 89/282/275 296/284/277
f 250/296/288 247/297/289 90/397/368
f 250/296/288 297/291/284 247/297/289
f 297/291/284 91/290/283 247/297/289
f 299/289/282 321/292/285 129/294/287 91/290/283
f 87/272/265 161/277/270 321/292/285 299/289/282
f 161/277/270 88/276/269 131/293/286 321/292/285
f 222/398/260 322/288/281 297/291/284 85/295/261
f 83/399/249 106/273/266 322/288/281 222/398/260
f 106/273/266 87/272/265 299/289/282 322/288/281
f 131/293/286 323/285/278 109/283/276 89/282/275
f 88/276/269 262/281/274 323/285/278 131/293/286
f 262/281/274 84/280/273 151/286/279 323/285/278
f 296/284/277 138/298/290 90/397/368
f 296/284/277 109/283/276 138/298/290
f 109/283/276 86/287/280 138/298/290
f 141/275/268 324/278/271 262/281/274 88/276/269
f 39/400/97 269/401/369 324/278/271 141/275/268
f 269/401/369 43/402/370 154/279/272 324/278/271
f 298/271/264 325/274/267 161/277/270 87/272/265
f 40/403/101 236/404/98 325/274/267 298/271/264
f 236/404/98 39/400/97 141/275/268 325/274/267
f 198/405/248 326/270/263 106/273/266 83/399/249
f 49/406/245 280/407/244 326/270/263 198/405/248
f 280/407/244 40/403/101 298/271/264 326/270/263
f 151/286/279 327/266/259 271/269/262 86/287/280
f 84/280/273 170/257/250 327/266/259 151/286/279
f 170/257/250 83/256/249 222/267/260 327/266/259
f 269/408/369 328/262/255 215/265/258 43/409/370
f 39/102/97 105/115/110 328/262/255 269/408/369
f 105/115/110 42/114/109 103/263/256 328/262/255
f 103/263/256 329/258/251 146/261/254 44/264/257
f 42/114/109 110/111/106 329/258/251 103/263/256
f 110/111/106 41/110/105 257/259/252 329/258/251
f 154/279/272 330/254/247 170/257/250 84/280/273
f 43/402/370 150/410/371 330/254/247 154/279/272
f 150/410/371 49/411/245 198/255/248 330/254/247
f 257/412/252 331/250/243 168/253/246 47/413/253
f 41/414/105 285/107/102 331/250/243 257/412/252
f 285/107/102 40/106/101 280/251/244 331/250/243
f 164/249/242 284/247/241 82/415/372
f 164/249/242 155/240/234 284/247/241
f 155/240/234 81/239/233 284/247/241
f 284/247/241 123/245/239 82/415/372
f 284/247/241 120/236/230 123/245/239
f 120/236/230 80/235/229 123/245/239
f 272/246/240 164/416/242 82/415/372
f 272/246/240 263/232/226 164/416/242
f 263/232/226 78/231/225 164/416/242
f 123/245/239 272/246/240 82/415/372
f 123/245/239 216/244/238 272/246/240
f 216/244/238 79/243/237 272/246/240
f 275/234/228 332/241/235 216/244/238 80/235/229
f 46/126/121 111/119/114 332/241/235 275/234/228
f 111/119/114 45/118/113 235/242/236 332/241/235
f 177/417/224 333/237/231 155/240/234 78/248/225
f 48/418/117 182/131/126 333/237/231 177/417/224
f 182/131/126 50/130/125 149/238/232 333/237/231
f 149/238/232 334/233/227 120/236/230 81/239/233
f 50/130/125 179/127/122 334/233/227 149/238/232
f 179/127/122 46/126/121 275/234/228 334/233/227
f 235/242/236 335/229/223 263/232/226 79/243/237
f 45/118/113 220/123/118 335/229/223 235/242/236
f 220/123/118 48/122/117 177/230/224 335/229/223
f 158/228/222 203/227/221 76/419/373
f 158/228/222 253/218/212 203/227/221
f 253/218/212 73/217/211 203/227/221
f 203/227/221 288/420/208 76/419/373
f 203/227/221 153/199/194 288/420/208
f 153/199/194 72/198/193 288/420/208
f 199/226/220 158/228/222 76/419/373
f 199/226/220 251/225/219 158/228/222
f 251/225/219 77/224/218 158/228/222
f 267/220/214 336/222/216 251/225/219 75/221/215
f 74/210/205 204/203/198 336/222/216 267/220/214
f 204/203/198 68/202/197 167/223/217 336/222/216
f 227/421/192 337/219/213 239/213/207 72/212/193
f 71/422/201 305/211/206 337/219/213 227/421/192
f 305/211/206 74/210/205 267/220/214 337/219/213
f 167/223/217 338/215/209 253/218/212 77/224/218
f 68/202/197 232/183/178 338/215/209 167/223/217
f 232/183/178 67/182/177 276/216/210 338/215/209
f 288/214/208 199/226/220 76/419/373
f 288/214/208 239/213/207 199/226/220
f 239/213/207 75/221/215 199/226/220
f 171/423/200 339/208/203 305/211/206 71/422/201
f 55/424/185 125/425/184 339/208/203 171/423/200
f 125/425/184 34/426/71 186/209/204 339/208/203
f 114/181/176 340/204/199 162/207/202 67/182/177
f 57/427/362 195/428/374 340/204/199 114/181/176
f 195/428/374 55/429/185 171/205/200 340/204/199
f 186/209/204 341/200/195 204/203/198 74/210/205
f 34/426/71 136/430/68 341/200/195 186/209/204
f 136/430/68 33/431/67 200/201/196 341/200/195
f 276/216/210 342/196/191 153/199/194 73/217/211
f 67/182/177 162/207/202 342/196/191 276/216/210
f 162/207/202 71/206/201 227/197/192 342/196/191
f 229/432/358 343/192/187 264/195/190 51/433/359
f 30/392/357 107/68/64 343/192/187 229/432/358
f 107/68/64 29/67/63 172/193/188 343/192/187
f 172/434/188 344/188/183 201/191/186 52/435/189
f 29/436/63 218/76/72 344/188/183 172/434/188
f 218/76/72 34/75/71 125/189/184 344/188/183
f 207/338/329 345/184/179 112/187/182 70/339/330
f 57/378/362 121/437/375 345/184/179 207/338/329
f 121/437/375 33/374/67 139/185/180 345/184/179
f 200/201/196 346/180/175 232/183/178 68/202/197
f 33/431/67 121/438/375 346/180/175 200/201/196
f 121/438/375 57/427/362 114/181/176 346/180/175
f 180/439/168 347/176/171 127/179/174 66/302/169
f 59/440/145 214/155/150 347/176/171 180/439/168
f 214/155/150 61/154/149 219/177/172 347/176/171
f 211/165/160 348/172/167 184/175/170 63/166/161
f 60/158/153 270/151/146 348/172/167 211/165/160
f 270/151/146 59/150/145 180/173/168 348/172/167
f 219/177/172 349/168/163 117/171/166 65/178/173
f 61/154/149 181/163/158 349/168/163 219/177/172
f 181/163/158 62/162/157 165/169/164 349/168/163
f 165/169/164 350/164/159 281/167/162 64/170/165
f 62/162/157 259/159/154 350/164/159 165/169/164
f 259/159/154 60/158/153 211/165/160 350/164/159
f 290/153/148 351/160/155 181/163/158 61/154/149
f 56/138/133 234/147/142 351/160/155 290/153/148
f 234/147/142 58/146/141 268/161/156 351/160/155
f 268/161/156 352/156/151 259/159/154 62/162/157
f 58/146/141 233/143/138 352/156/151 268/161/156
f 233/143/138 54/142/137 126/157/152 352/156/151
f 295/441/144 353/152/147 214/155/150 59/440/145
f 53/442/129 248/139/134 353/152/147 295/441/144
f 248/139/134 56/138/133 290/153/148 353/152/147
f 126/157/152 354/148/143 270/151/146 60/158/153
f 54/142/137 142/135/130 354/148/143 126/157/152
f 142/135/130 53/134/129 295/149/144 354/148/143
f 258/137/132 355/144/139 234/147/142 56/138/133
f 55/443/185 195/444/374 355/144/139 258/137/132
f 195/444/374 57/445/362 175/145/140 355/144/139
f 175/145/140 356/140/135 233/143/138 58/146/141
f 57/445/362 205/446/361 356/140/135 175/145/140
f 205/446/361 51/447/359 135/141/136 356/140/135
f 100/448/128 357/136/131 248/139/134 53/442/129
f 52/449/189 201/450/186 357/136/131 100/448/128
f 201/450/186 55/443/185 258/137/132 357/136/131
f 135/141/136 358/132/127 142/135/130 54/142/137
f 51/447/359 264/451/190 358/132/127 135/141/136
f 264/451/190 52/452/189 100/133/128 358/132/127
f 230/453/116 359/128/123 182/131/126 48/418/117
f 47/454/253 168/455/246 359/128/123 230/453/116
f 168/455/246 49/456/245 159/129/124 359/128/123
f 159/129/124 360/124/119 179/127/122 50/130/125
f 49/456/245 150/457/371 360/124/119 159/129/124
f 150/457/371 43/458/370 301/125/120 360/124/119
f 266/117/112 361/120/115 220/123/118 45/118/113
f 44/459/257 146/460/254 361/120/115 266/117/112
f 146/460/254 47/461/253 230/121/116 361/120/115
f 301/125/120 362/116/111 111/119/114 46/126/121
f 43/458/370 215/462/258 362/116/111 301/125/120
f 215/462/258 44/459/257 266/117/112 362/116/111
f 283/101/96 363/112/107 105/115/110 39/102/97
f 35/83/78 116/96/91 363/112/107 283/101/96
f 116/96/91 38/95/90 212/113/108 363/112/107
f 212/113/108 364/108/103 110/111/106 42/114/109
f 38/95/90 122/88/83 364/108/103 212/113/108
f 122/88/83 37/87/82 173/109/104 364/108/103
f 173/463/104 365/104/99 285/107/102 41/414/105
f 37/464/82 291/92/87 365/104/99 173/463/104
f 291/92/87 36/91/86 124/105/100 365/104/99
f 124/105/100 366/100/95 236/103/98 40/106/101
f 36/91/86 243/84/79 366/100/95 124/105/100
f 243/84/79 35/83/78 283/101/96 366/100/95
f 223/385/363 367/97/92 128/99/94 24/387/365
f 27/386/364 202/306/297 367/97/92 223/385/363
f 202/306/297 32/305/296 190/98/93 367/97/92
f 208/82/77 368/93/88 116/96/91 35/83/78
f 24/465/365 128/466/94 368/93/88 208/82/77
f 128/466/94 25/467/55 242/94/89 368/93/88
f 286/468/81 369/89/84 291/92/87 37/464/82
f 10/26/26 156/25/25 369/89/84 286/468/81
f 156/25/25 17/469/376 178/90/85 369/89/84
f 242/94/89 370/85/80 122/88/83 38/95/90
f 25/467/55 144/470/377 370/85/80 242/94/89
f 144/470/377 10/471/26 286/86/81 370/85/80
f 178/90/85 371/81/76 243/84/79 36/91/86
f 17/469/376 185/472/378 371/81/76 178/90/85
f 185/472/378 24/465/365 208/82/77 371/81/76
f 282/80/75 185/472/378 17/469/376
f 282/80/75 209/79/74 185/472/378
f 209/79/74 24/465/365 185/472/378
f 260/77/54 144/470/377 25/467/55
f 260/77/54 278/18/18 144/470/377
f 278/18/18 10/471/26 144/470/377
f 145/473/62 372/73/69 218/76/72 29/436/63
f 28/389/306 249/310/301 372/73/69 145/473/62
f 249/310/301 31/309/300 221/74/70 372/73/69
f 221/74/70 373/69/65 136/72/68 34/75/71
f 31/309/300 217/312/303 373/69/65 221/74/70
f 217/312/303 32/305/296 160/70/66 373/69/65
f 300/391/366 374/65/61 107/68/64 30/392/357
f 27/386/364 206/316/307 374/65/61 300/391/366
f 206/316/307 28/315/306 145/66/62 374/65/61
f 255/474/47 375/61/57 277/64/60 23/390/48
f 14/30/30 196/29/29 375/61/57 255/474/47
f 196/29/29 18/475/379 176/62/58 375/61/57
f 176/62/58 376/57/53 102/60/56 26/63/59
f 18/475/379 104/476/380 376/57/53 176/62/58
f 104/476/380 11/477/19 260/58/54 376/57/53
f 183/478/23 377/55/51 231/41/39 13/479/21
f 15/78/73 282/80/75 377/55/51 183/478/23
f 282/80/75 17/469/376 187/56/52 377/55/51
f 210/54/50 104/476/380 18/475/379
f 210/54/50 224/53/20 104/476/380
f 224/53/20 11/477/19 104/476/380
f 209/480/74 378/48/46 189/51/49 24/387/365
f 15/481/73 279/482/381 378/48/46 209/480/74
f 279/482/381 14/483/30 255/49/47 378/48/46
f 292/318/309 379/44/42 261/47/45 19/319/310
f 22/384/318 101/484/37 379/44/42 292/318/309
f 101/484/37 9/485/36 225/45/43 379/44/42
f 132/322/313 380/40/38 137/43/41 21/323/314
f 20/381/322 193/486/33 380/40/38 132/322/313
f 193/486/33 13/479/21 231/41/39 380/40/38
f 287/326/317 381/36/34 101/39/37 22/327/318
f 21/323/314 137/43/41 381/36/34 287/326/317
f 137/43/41 16/42/40 213/37/35 381/36/34
f 191/330/321 382/32/31 193/35/33 20/331/322
f 19/319/310 261/47/45 382/32/31 191/330/321
f 261/47/45 12/46/44 169/33/32 382/32/31
f 169/487/32 383/28/28 118/31/22 13/488/21
f 12/52/44 210/54/50 383/28/28 169/487/32
f 210/54/50 18/475/379 196/29/29 383/28/28
f 213/37/35 384/24/24 115/27/27 9/38/36
f 16/42/40 187/56/52 384/24/24 213/37/35
f 187/56/52 17/469/376 156/25/25 384/24/24
f 183/23/23 279/482/381 15/481/73
f 183/23/23 118/22/22 279/482/381
f 118/22/22 14/483/30 279/482/381
f 225/45/43 385/17/17 224/20/20 12/46/44
f 9/485/36 115/489/27 385/17/17 225/45/43
f 115/489/27 10/471/26 278/18/18 385/17/17
f 197/490/382 386/13/13 130/16/16 5/491/383
f 4/492/384 252/4/4 386/13/13 197/490/382
f 252/4/4 3/3/3 134/14/14 386/13/13
f 240/493/385 387/9/9 147/12/12 1/494/386
f 8/495/387 245/8/8 387/9/9 240/493/385
f 245/8/8 7/7/7 293/10/10 387/9/9
f 237/496/388 388/5/5 245/8/8 8/495/387
f 5/497/383 130/498/16 388/5/5 237/496/388
f 130/498/16 6/379/15 289/6/6 388/5/5
f 254/499/389 389/1/1 252/4/4 4/492/384
f 1/500/386 147/501/12 389/1/1 254/499/389
f 147/501/12 2/382/11 302/2/2 389/1/1
