# Blender v2.78 (sub 0) OBJ File: ''
# www.blender.org
mtllib Dead_Tree_m_03.mtl
o Dead_Tree_m_03
v 0.438141 0.091653 0.370966
v 0.527549 1.076931 0.301076
v -0.038774 1.076931 0.394155
v -0.347282 0.091653 0.426355
v -0.402671 0.091653 -0.359069
v -0.131853 1.076931 -0.172169
v 0.434470 1.076931 -0.265248
v 0.382752 0.091653 -0.414458
v 0.125771 2.122454 0.306876
v -0.008629 2.122454 -0.061674
v 0.359921 2.122454 -0.196073
v 0.494320 2.122454 0.172476
v 0.106823 3.302523 0.299868
v 0.479585 2.982630 0.199405
v 1.723119 3.157239 0.933379
v 1.594681 3.369773 1.001699
v 0.483311 3.523684 0.157192
v 1.666550 3.471176 0.785444
v -0.062841 3.001190 -0.037582
v 0.308886 2.952878 -0.157369
v 0.109293 2.952878 0.296956
v 0.310947 3.310419 -0.140778
v -0.021899 3.540189 -0.054931
v -1.131742 3.733635 -0.417161
v -1.124810 3.842438 -0.248147
v -1.292597 3.616795 -0.325655
v -1.254154 3.731117 -0.141960
v -2.178808 5.020258 -0.429421
v -2.041069 5.080475 -0.502542
v -1.992575 5.142365 -0.355165
v -2.130314 5.082148 -0.282044
v -3.429751 5.729409 -0.847699
v -3.430536 5.794184 -0.757445
v -3.498198 5.723480 -0.704597
v -3.497413 5.658704 -0.794851
v -4.213754 6.440770 -0.933537
v 1.761542 3.264162 0.703269
v 2.089219 3.961851 0.906334
v 2.300141 3.859033 0.868008
v 2.093626 3.891208 1.135161
v 2.304334 3.793341 1.097101
v 2.180038 5.156453 0.921098
v 2.166380 5.085086 1.086640
v 2.158987 5.339920 1.094139
v 2.144311 5.361543 0.979659
v 2.328627 5.111837 1.035772
v 2.275253 5.336103 1.078565
v 2.325512 5.047576 0.889734
v 2.285517 5.349038 0.938412
v 2.860807 5.533173 0.445719
v 2.784972 5.653790 0.428750
v 2.819295 5.498744 0.359687
v 2.720487 5.585329 0.350571
v 3.297238 6.405239 0.091726
v 3.253194 6.437781 0.101163
v 3.286920 6.405181 0.054763
v 3.240770 6.426016 0.056842
v 3.829271 6.855958 -0.327813
v 1.887399 6.166774 1.370138
v 1.877881 6.185623 1.318413
v 1.942476 6.172659 1.362402
v 1.932959 6.191508 1.310678
v 0.698054 3.816792 -0.683274
v 0.847754 3.720104 -0.741589
v 1.272395 6.485065 1.716745
v 0.906069 3.816792 -0.591889
v 0.891725 4.502441 -1.354285
v 0.920281 4.549789 -1.280978
v 0.818418 4.549789 -1.325729
v 1.353521 4.977914 -1.584101
v 2.746015 5.627595 0.388813
v -1.284316 3.666040 -0.227142
v 0.798607 3.824102 -0.629719
v 0.329476 3.134172 0.302551
v 0.937606 4.556954 -1.338118
v 0.909145 4.173552 -0.948871
v 0.762837 3.764793 -0.721545
v 2.056997 3.433845 1.042461
v -1.187266 3.794459 -0.182292
v -1.214386 3.667533 -0.384169
v 0.890433 3.764793 -0.665489
v 3.009499 6.039060 0.267700
v 2.765836 5.538104 0.348733
v 1.654659 3.256551 0.983791
v 2.236666 5.273395 0.910491
v -0.457746 3.481374 -0.293988
v -2.057449 5.116451 -0.307666
v 2.826944 5.597414 0.443631
v -2.705280 5.484541 -0.551903
v 2.218223 5.336450 1.095025
v 0.514926 1.606930 0.232682
v -0.015251 0.091653 -0.470156
v 2.534440 5.456584 0.678254
v 2.142851 5.351027 1.038072
v 1.877054 6.194263 1.392402
v 2.312236 4.461331 0.901348
v 1.718287 3.374625 0.728104
v -0.286267 0.539133 -0.282191
v 1.562243 6.358611 1.558103
v 2.051581 5.745369 1.216314
v 3.584562 6.666641 -0.133872
v 2.149804 5.100459 1.019724
v 2.162425 5.255995 0.953110
v -3.912599 6.110286 -0.834967
v -3.909937 6.076540 -0.879149
v -3.482662 5.811194 -0.817986
v -0.058353 1.606930 -0.109465
v 3.563299 6.678768 -0.128774
v 0.497646 3.436560 0.012622
v 0.294066 3.119262 -0.138262
v 0.493839 0.091653 -0.027037
v 0.421505 0.539133 -0.355598
v 2.197253 5.345334 0.959455
v 0.108299 3.119261 0.284591
v 0.153593 2.975940 -0.123691
v 1.557556 6.368241 1.534122
v 2.126411 5.767773 1.119890
v 3.580604 6.667275 -0.151530
v 0.588384 3.513126 -0.439896
v -3.880719 6.147451 -0.861432
v 2.298304 5.225186 1.056981
v -0.006432 3.449387 0.133502
v 0.075132 3.153270 -0.131370
v 3.329550 6.437633 0.047439
v 2.326919 5.250313 0.979436
v 0.262393 2.975940 0.264213
v 1.588023 6.362054 1.554448
v -0.044694 3.153176 0.141213
v -0.212861 0.539133 0.425581
v 2.138888 5.746963 1.204447
v -3.518248 5.735557 -0.838306
v -3.520486 5.807789 -0.739381
v 0.165517 2.122454 -0.154876
v 2.281785 5.328164 1.023545
v -0.126197 1.076931 0.117752
v 1.583336 6.371684 1.530466
v 1.067508 3.472759 0.496220
v 0.050721 0.091653 0.482053
v 2.443979 5.371395 0.634452
v 0.302474 3.433265 0.262042
v -1.544128 4.481711 -0.294480
v 2.589891 5.324293 0.739694
v 2.144095 4.499648 1.114426
v 1.100207 3.075963 0.573274
v 0.894543 4.584768 -1.321343
v 0.494911 0.539133 0.352174
v 2.194031 3.915730 0.869789
v 0.877769 4.556954 -1.364406
v 0.123704 2.561194 0.298587
v 1.892393 3.589824 1.094227
v 2.081577 3.517628 0.812299
v -1.732881 4.318982 -0.374517
v 2.255938 5.085381 0.890131
v -0.009026 2.561194 -0.042142
v 0.673077 3.653551 -0.222482
v 3.045892 5.945083 0.205808
v 2.235582 5.074391 1.086475
v 2.318816 3.819245 0.979823
v 0.084953 3.461276 -0.158235
v 2.556612 5.282820 0.635333
v 0.866847 4.103420 -1.057455
v 2.846766 5.507924 0.403550
v -2.834714 5.354009 -0.608846
v -2.729820 5.420359 -0.673200
v 3.073330 5.961884 0.266876
v -1.586631 4.400433 -0.456661
v 2.199629 3.836987 1.133512
v 1.916973 3.673608 0.864064
v -0.613356 3.479778 0.057254
v -0.583931 3.638179 -0.138120
v 0.399361 1.606930 -0.225031
v 0.144550 1.076931 -0.259592
v 1.866606 6.215165 1.336518
v -2.006391 5.115407 -0.434192
v 2.322593 4.443595 1.086632
v 0.758263 4.173552 -1.015157
v 2.172271 5.225584 1.079296
v -1.117335 3.795952 -0.339319
v 1.623140 3.436326 0.898405
v 0.214194 3.527723 0.066373
v 0.028351 2.975940 0.161393
v -2.810174 5.418190 -0.487549
v -3.556072 5.732152 -0.759701
v 0.521893 1.076931 0.011156
v 1.842003 6.201318 1.368659
v 2.342150 5.058190 0.956753
v 0.450498 3.130613 0.029304
v 0.464432 2.561194 0.165857
v 2.972872 5.999725 0.201124
v 0.453123 2.122454 -0.021928
v 0.387636 2.975940 -0.020872
v 0.057213 1.606930 0.348248
v 1.139506 4.793914 -1.460914
v 3.310826 6.454148 0.072881
v -3.878057 6.113704 -0.905614
v 2.132487 4.546311 0.930700
v 0.320175 2.122454 0.265679
v -0.458370 0.091653 0.038934
v 1.749806 3.194849 0.813491
v 3.559106 6.675930 -0.149270
v 0.251146 1.076931 0.388499
v 3.280540 6.465268 0.054271
v -2.164992 5.047216 -0.350394
v 0.032568 2.122454 0.132730
v 0.370971 3.653551 -0.355203
v -1.690379 4.400260 -0.212337
v 0.898105 3.320927 0.675565
v 2.074843 3.933472 1.023478
v 1.074185 3.260053 0.312967
v -2.113934 5.046172 -0.476920
v 3.299264 6.448752 0.028829
v -0.671294 3.290716 -0.184394
v 0.331703 2.561194 -0.174872
v 1.097780 4.793914 -1.479245
v 1.127808 4.774520 -1.490942
v 1.901657 6.208109 1.360260
v 2.039104 5.766179 1.131757
v 0.516793 3.664619 -0.276936
v 0.831092 4.179080 -0.976068
v 0.804942 4.135722 -1.043198
v 0.898222 4.135722 -1.002218
v 0.651206 3.577804 -0.329296
v 2.081846 5.768497 1.119645
v 0.464433 3.577804 -0.411349
v 2.139028 5.757484 1.161301
v 2.096146 5.744645 1.216558
v 2.038964 5.755657 1.174902
v 3.007041 5.970353 0.198802
v 2.986186 6.024209 0.234271
v 3.064611 5.948668 0.236483
v 3.043755 6.002522 0.271951
v 2.495775 5.322480 0.629480
v 2.483069 5.422059 0.654076
v 2.579392 5.295487 0.689790
v 2.566686 5.395066 0.714387
v 2.330502 4.447310 0.991902
v 2.221559 4.506174 0.902543
v 2.125203 4.528131 1.024651
v 2.234147 4.469268 1.114010
v 2.235928 5.219809 1.079858
v 2.155715 5.237996 1.018541
v 2.081314 3.464339 0.923598
v 1.972900 3.505712 1.085161
v 1.892656 3.643113 0.982928
v 2.001071 3.601740 0.821365
v 1.076085 3.378678 0.388532
v 1.094823 3.151288 0.432689
v -2.784060 5.382495 -0.649886
v -2.755934 5.456055 -0.510863
v -2.830108 5.381251 -0.543495
v -2.709886 5.457298 -0.617253
v -1.614148 4.446924 -0.241559
v -1.722316 4.353670 -0.287425
v -1.554694 4.447023 -0.381572
v -1.662862 4.353768 -0.427439
v -0.651201 3.372495 -0.052429
v -0.601137 3.571614 -0.025911
v -0.562027 3.373410 -0.253713
v -0.511962 3.572529 -0.227195
v 0.032443 2.561194 0.137920
v 0.422963 2.561194 -0.014206
v 0.303766 2.561194 0.257117
v 0.151640 2.561194 -0.133403
v 0.975180 3.413563 0.596324
v 0.993918 3.186173 0.640481
v 0.162060 1.606930 -0.200691
v 0.294513 1.606930 0.323908
v 0.490586 1.606930 -0.004618
v -0.034013 1.606930 0.127835
v 0.509922 0.539133 -0.007075
v -0.301278 0.539133 0.077058
v 0.062256 0.539133 -0.370609
v 0.146389 0.539133 0.440591
vt 0.5470 0.6468
vt 0.5467 0.6563
vt 0.5416 0.6555
vt 0.5408 0.6455
vt 0.5221 0.6499
vt 0.5260 0.6587
vt 0.5212 0.6608
vt 0.5164 0.6531
vt 0.5343 0.6461
vt 0.5362 0.6560
vt 0.5309 0.6566
vt 0.5277 0.6467
vt 0.5595 0.6500
vt 0.5566 0.6583
vt 0.5518 0.6571
vt 0.5533 0.6482
vt 0.5376 0.6657
vt 0.5389 0.6754
vt 0.5350 0.6757
vt 0.5330 0.6661
vt 0.5553 0.6671
vt 0.5540 0.6760
vt 0.5504 0.6754
vt 0.5511 0.6662
vt 0.5466 0.6658
vt 0.5466 0.6752
vt 0.5427 0.6750
vt 0.5422 0.6653
vt 0.5287 0.6675
vt 0.5314 0.6764
vt 0.5278 0.6771
vt 0.5245 0.6689
vt 0.5901 0.6533
vt 0.5930 0.6545
vt 0.5910 0.6671
vt 0.5885 0.6672
vt 0.5844 0.6530
vt 0.5872 0.6521
vt 0.5860 0.6672
vt 0.5833 0.6672
vt 0.5324 0.6833
vt 0.5333 0.6902
vt 0.5302 0.6904
vt 0.5290 0.6838
vt 0.5463 0.6824
vt 0.5461 0.6896
vt 0.5429 0.6897
vt 0.5428 0.6824
vt 0.5533 0.6829
vt 0.5525 0.6898
vt 0.5493 0.6895
vt 0.5498 0.6824
vt 0.5393 0.6826
vt 0.5397 0.6898
vt 0.5364 0.6899
vt 0.5357 0.6828
vt 0.5557 0.6902
vt 0.5554 0.6928
vt 0.5429 0.6923
vt 0.5306 0.6929
vt 0.5914 0.7312
vt 0.5891 0.7324
vt 0.5910 0.7195
vt 0.5932 0.7197
vt 0.5866 0.7309
vt 0.5841 0.7294
vt 0.5872 0.7180
vt 0.5891 0.7188
vt 0.5960 0.7310
vt 0.5936 0.7299
vt 0.5953 0.7198
vt 0.5974 0.7194
vt 0.6013 0.7317
vt 0.5983 0.7321
vt 0.5995 0.7191
vt 0.6015 0.7193
vt 0.5914 0.7048
vt 0.5898 0.7040
vt 0.5924 0.6900
vt 0.5938 0.6908
vt 0.5948 0.7058
vt 0.5931 0.7056
vt 0.5952 0.6916
vt 0.5964 0.6919
vt 0.6017 0.7053
vt 0.5999 0.7053
vt 0.6003 0.6915
vt 0.6019 0.6913
vt 0.5982 0.7056
vt 0.5965 0.7060
vt 0.5977 0.6922
vt 0.5990 0.6919
vt 0.5977 0.6779
vt 0.5964 0.6778
vt 0.5977 0.6640
vt 0.5989 0.6638
vt 0.6028 0.6777
vt 0.6014 0.6777
vt 0.6026 0.6639
vt 0.6037 0.6641
vt 0.6002 0.6778
vt 0.5989 0.6780
vt 0.6001 0.6637
vt 0.6013 0.6638
vt 0.5952 0.6773
vt 0.5939 0.6768
vt 0.5954 0.6636
vt 0.5965 0.6638
vt 0.6049 0.6644
vt 0.6036 0.6516
vt 0.6025 0.6514
vt 0.6000 0.6514
vt 0.6012 0.6513
vt 0.5731 0.6525
vt 0.5760 0.6511
vt 0.5750 0.6667
vt 0.5726 0.6667
vt 0.5787 0.6525
vt 0.5814 0.6539
vt 0.5805 0.6672
vt 0.5777 0.6669
vt 0.5779 0.6735
vt 0.5804 0.6736
vt 0.5803 0.6800
vt 0.5781 0.6800
vt 0.5830 0.6735
vt 0.5856 0.6734
vt 0.5851 0.6796
vt 0.5827 0.6798
vt 0.5879 0.6736
vt 0.5902 0.6737
vt 0.5894 0.6803
vt 0.5872 0.6799
vt 0.5732 0.6733
vt 0.5755 0.6733
vt 0.5759 0.6800
vt 0.5737 0.6799
vt 0.5805 0.7014
vt 0.5816 0.7014
vt 0.5815 0.7025
vt 0.5804 0.7024
vt 0.5827 0.7015
vt 0.5838 0.7016
vt 0.5836 0.7025
vt 0.5825 0.7025
vt 0.5850 0.6902
vt 0.5867 0.6905
vt 0.5839 0.7006
vt 0.5828 0.7005
vt 0.5817 0.6901
vt 0.5834 0.6900
vt 0.5817 0.7004
vt 0.5806 0.7005
vt 0.5783 0.6899
vt 0.5799 0.6903
vt 0.5796 0.7005
vt 0.5785 0.6999
vt 0.5750 0.6899
vt 0.5767 0.6896
vt 0.5775 0.6993
vt 0.5763 0.6998
vt 0.5746 0.7022
vt 0.5741 0.7010
vt 0.5759 0.7020
vt 0.5565 0.7195
vt 0.5574 0.7208
vt 0.5499 0.7210
vt 0.5495 0.7196
vt 0.5570 0.7219
vt 0.5566 0.7229
vt 0.5498 0.7229
vt 0.5498 0.7219
vt 0.5565 0.7170
vt 0.5556 0.7181
vt 0.5490 0.7181
vt 0.5495 0.7169
vt 0.5571 0.7146
vt 0.5574 0.7160
vt 0.5499 0.7156
vt 0.5500 0.7143
vt 0.5405 0.7188
vt 0.5407 0.7198
vt 0.5315 0.7185
vt 0.5316 0.7181
vt 0.5406 0.7204
vt 0.5404 0.7211
vt 0.5311 0.7192
vt 0.5313 0.7189
vt 0.5406 0.7170
vt 0.5404 0.7178
vt 0.5318 0.7176
vt 0.5317 0.7171
vt 0.5407 0.7153
vt 0.5408 0.7162
vt 0.5317 0.7167
vt 0.5315 0.7163
vt 0.5217 0.7166
vt 0.5313 0.7158
vt 0.5215 0.7161
vt 0.5217 0.7170
vt 0.5215 0.7175
vt 0.5797 0.7104
vt 0.5805 0.7105
vt 0.5795 0.7185
vt 0.5790 0.7184
vt 0.5812 0.7103
vt 0.5820 0.7101
vt 0.5804 0.7177
vt 0.5799 0.7181
vt 0.5765 0.7098
vt 0.5774 0.7097
vt 0.5776 0.7176
vt 0.5771 0.7176
vt 0.5793 0.7023
vt 0.5782 0.7020
vt 0.5795 0.7014
vt 0.5570 0.6976
vt 0.5582 0.6998
vt 0.5489 0.6995
vt 0.5483 0.6975
vt 0.5784 0.7183
vt 0.5778 0.7290
vt 0.5784 0.7291
vt 0.5766 0.7177
vt 0.5770 0.7287
vt 0.5781 0.7100
vt 0.5789 0.7103
vt 0.5780 0.7179
vt 0.5555 0.7079
vt 0.5543 0.7104
vt 0.5475 0.7077
vt 0.5482 0.7061
vt 0.5384 0.7048
vt 0.5380 0.7061
vt 0.5286 0.7046
vt 0.5287 0.7035
vt 0.5387 0.6985
vt 0.5390 0.6999
vt 0.5292 0.7003
vt 0.5290 0.6995
vt 0.5289 0.6986
vt 0.5203 0.6997
vt 0.5288 0.7025
vt 0.5202 0.7017
vt 0.5116 0.7008
vt 0.5204 0.7005
vt 0.5389 0.7017
vt 0.5388 0.7034
vt 0.5290 0.7014
vt 0.5574 0.7026
vt 0.5675 0.7001
vt 0.5660 0.7032
vt 0.5701 0.7052
vt 0.5673 0.7058
vt 0.5688 0.7027
vt 0.5775 0.7286
vt 0.5773 0.7397
vt 0.5645 0.7064
vt 0.5566 0.7054
vt 0.5488 0.7044
vt 0.5488 0.7020
vt 0.5201 0.7027
vt 0.5383 0.6970
vt 0.5478 0.6954
vt 0.5628 0.7097
vt 0.5611 0.7130
vt 0.5771 0.7018
vt 0.5789 0.7287
vt 0.5559 0.6954
vt 0.5639 0.6954
vt 0.5657 0.6977
vt 0.5783 0.7012
vt 0.5756 0.7099
vt 0.5214 0.7178
vt 0.5116 0.7165
vt 0.5407 0.7144
vt 0.5500 0.7130
vt 0.5569 0.7133
vt 0.5637 0.7136
vt 0.5642 0.7149
vt 0.5648 0.7163
vt 0.5635 0.7172
vt 0.5623 0.7181
vt 0.5648 0.7207
vt 0.5641 0.7218
vt 0.5635 0.7229
vt 0.5635 0.7194
vt 0.5754 0.7009
vt 0.5737 0.6999
vt 0.5734 0.6901
vt 0.5752 0.7004
vt 0.5715 0.6798
vt 0.5709 0.6732
vt 0.5702 0.6667
vt 0.5769 0.6355
vt 0.5797 0.6381
vt 0.5824 0.6406
vt 0.5702 0.6538
vt 0.5702 0.6409
vt 0.5735 0.6382
vt 0.6023 0.6388
vt 0.5989 0.6512
vt 0.6041 0.6777
vt 0.6034 0.6911
vt 0.6035 0.7053
vt 0.6035 0.7195
vt 0.6042 0.7314
vt 0.6049 0.7432
vt 0.6010 0.7442
vt 0.5971 0.7451
vt 0.5946 0.7426
vt 0.5920 0.7400
vt 0.5871 0.7453
vt 0.5840 0.7430
vt 0.5810 0.7408
vt 0.5896 0.7427
vt 0.5397 0.6924
vt 0.5429 0.6948
vt 0.5337 0.6926
vt 0.5310 0.6954
vt 0.5461 0.6921
vt 0.5522 0.6924
vt 0.5550 0.6954
vt 0.5577 0.6765
vt 0.5567 0.6833
vt 0.5855 0.6388
vt 0.5885 0.6369
vt 0.5918 0.6394
vt 0.5950 0.6419
vt 0.5613 0.6595
vt 0.5595 0.6680
vt 0.5625 0.6416
vt 0.5548 0.6393
vt 0.5702 0.6439
vt 0.5658 0.6517
vt 0.5323 0.6362
vt 0.5245 0.6369
vt 0.5400 0.6355
vt 0.5181 0.6412
vt 0.5116 0.6455
vt 0.5474 0.6374
vn 0.1107 0.0572 0.9922
vn 0.1686 0.0855 0.9820
vn -0.5445 0.1977 0.8151
vn -0.5998 0.2251 0.7678
vn -0.1013 0.2108 -0.9723
vn -0.1571 0.1667 -0.9734
vn 0.6009 0.1053 -0.7924
vn 0.6316 0.0952 -0.7694
vn -0.9485 0.2991 0.1040
vn -0.9586 0.2334 0.1630
vn -0.7800 0.2640 -0.5674
vn -0.7302 0.3277 -0.5996
vn 0.9935 -0.0388 -0.1068
vn 0.9868 0.0166 -0.1612
vn 0.8156 0.0488 0.5766
vn 0.7782 -0.0133 0.6279
vn -0.9596 0.1425 0.2426
vn -0.9448 0.0584 0.3224
vn -0.8942 0.0746 -0.4414
vn -0.8469 0.1548 -0.5087
vn 0.9682 0.0556 -0.2439
vn 0.9443 0.0653 -0.3226
vn 0.9024 0.0786 0.4237
vn 0.8572 0.0901 0.5071
vn 0.2448 0.0978 0.9646
vn 0.3254 0.0629 0.9435
vn -0.4245 0.0749 0.9023
vn -0.5001 0.1513 0.8527
vn -0.2422 0.1006 -0.9650
vn -0.3196 0.0610 -0.9456
vn 0.4401 0.0783 -0.8945
vn 0.5149 0.0930 -0.8522
vn -0.3355 -0.5658 0.7532
vn 0.0247 -0.9858 0.1661
vn 0.2338 -0.8918 0.3873
vn -0.1856 -0.4597 0.8684
vn -0.2372 0.8440 0.4811
vn -0.4243 0.1781 0.8878
vn -0.4328 0.1813 0.8831
vn -0.4472 0.8340 0.3232
vn -0.3399 0.0219 -0.9402
vn -0.2693 -0.0306 -0.9626
vn 0.3992 0.0947 -0.9120
vn 0.4051 0.0646 -0.9120
vn 0.3281 0.0092 0.9446
vn 0.2164 -0.1026 0.9709
vn -0.4025 0.0211 0.9152
vn -0.4032 -0.0005 0.9151
vn 0.9230 0.0611 -0.3800
vn 0.8781 -0.0159 -0.4781
vn 0.6758 -0.6710 0.3051
vn 0.9139 0.0357 0.4043
vn -0.9232 -0.0294 0.3832
vn -0.8722 -0.1218 0.4738
vn -0.7668 -0.5247 -0.3698
vn -0.9139 -0.0193 -0.4054
vn 0.3733 -0.0082 -0.9277
vn -0.4140 -0.0864 0.9062
vn 0.3062 0.7539 -0.5813
vn 0.1902 0.0854 -0.9780
vn 0.2040 0.0820 -0.9755
vn 0.5863 0.6520 -0.4808
vn -0.0135 -0.4688 -0.8832
vn -0.3871 -0.8990 -0.2050
vn -0.6271 -0.7271 -0.2794
vn -0.2062 -0.4085 -0.8891
vn 0.0466 0.7614 0.6467
vn 0.2559 0.9626 0.0885
vn 0.5776 0.7793 0.2431
vn 0.2255 0.5238 0.8214
vn -0.4506 -0.6370 0.6255
vn -0.3006 0.0645 0.9516
vn -0.3596 -0.1337 0.9235
vn -0.6423 -0.5785 0.5028
vn -0.3390 -0.2809 -0.8979
vn -0.7876 -0.5227 -0.3264
vn -0.5994 -0.7604 -0.2499
vn -0.2245 -0.4536 -0.8624
vn 0.7666 0.4851 -0.4206
vn 0.3006 0.1423 -0.9431
vn 0.3287 0.2173 -0.9191
vn 0.6382 0.6215 -0.4544
vn -0.7750 -0.4550 0.4385
vn -0.3043 -0.1011 0.9472
vn -0.2690 0.0235 0.9628
vn -0.6436 -0.5942 0.4823
vn 0.3511 0.3149 0.8818
vn 0.7735 0.5467 0.3206
vn 0.6172 0.7379 0.2732
vn 0.2273 0.4974 0.8372
vn 0.4702 0.7437 -0.4752
vn 0.2696 0.0666 -0.9607
vn 0.2260 -0.0031 -0.9741
vn 0.5742 0.6634 -0.4797
vn -0.4932 -0.7234 0.4832
vn -0.3411 -0.1133 0.9332
vn -0.3856 -0.1983 0.9011
vn -0.6562 -0.6263 0.4209
vn 0.0772 0.6462 0.7593
vn 0.3679 0.9112 0.1854
vn 0.3905 0.8979 0.2032
vn 0.1346 0.5017 0.8545
vn -0.0961 -0.6165 -0.7815
vn -0.3884 -0.8986 -0.2042
vn -0.4383 -0.8676 -0.2347
vn -0.2197 -0.4602 -0.8602
vn -0.6756 -0.6595 -0.3296
vn -0.4057 -0.0879 0.9098
vn 0.2352 0.1698 -0.9570
vn 0.5679 0.7689 0.2938
vn 0.3843 -0.7253 -0.5712
vn 0.5141 -0.1259 -0.8484
vn 0.5131 -0.3358 -0.7899
vn 0.5016 -0.7981 -0.3339
vn 0.4284 0.5729 -0.6987
vn 0.1092 0.9846 -0.1363
vn -0.1730 0.9003 -0.3994
vn 0.2248 0.4509 -0.8638
vn -0.0238 0.2737 -0.9615
vn -0.5472 0.6148 -0.5680
vn -0.7143 0.2688 -0.6462
vn -0.0933 0.1296 -0.9872
vn -0.7497 0.6404 0.1669
vn -0.4713 0.2378 0.8493
vn -0.4986 0.1544 0.8529
vn -0.9455 0.3061 0.1113
vn 0.0376 -0.2795 0.9594
vn 0.5445 -0.6448 0.5364
vn 0.7561 -0.3042 0.5794
vn 0.1561 -0.1010 0.9826
vn 0.7525 -0.6368 -0.1682
vn 0.5640 -0.2862 -0.7746
vn 0.6812 -0.1111 -0.7236
vn 0.9533 -0.2896 -0.0853
vn -0.9976 -0.0622 0.0308
vn -0.6126 -0.0551 0.7885
vn -0.6029 -0.2807 0.7468
vn -0.9766 -0.2040 0.0675
vn 0.1968 -0.0416 0.9796
vn 0.7065 0.0894 0.7021
vn 0.7900 0.0808 0.6078
vn 0.1439 -0.1783 0.9734
vn 0.1957 0.0365 0.9800
vn 0.7845 0.0081 0.6200
vn 0.7320 -0.0227 0.6809
vn 0.2123 0.0409 0.9764
vn -0.9963 0.0674 0.0530
vn -0.6078 0.0702 0.7910
vn -0.6099 0.0602 0.7902
vn -0.9987 0.0410 0.0307
vn -0.1606 0.0250 -0.9867
vn -0.7742 0.0572 -0.6303
vn -0.8106 0.0121 -0.5855
vn -0.3423 -0.2190 -0.9137
vn 0.9991 -0.0170 -0.0391
vn 0.6396 0.0040 -0.7687
vn 0.4542 -0.4797 -0.7507
vn 0.9510 -0.2996 0.0762
vn 0.9432 0.3087 0.1228
vn 0.4858 0.4597 0.7434
vn 0.7878 -0.1156 0.6050
vn 0.8347 -0.2273 0.5015
vn 0.3649 0.3579 0.8595
vn 0.7115 -0.6972 0.0882
vn 0.1815 -0.8321 -0.5241
vn 0.3001 -0.6890 -0.6596
vn 0.7534 -0.6501 -0.0994
vn -0.6995 0.6770 -0.2288
vn -0.1374 0.8809 0.4529
vn -0.2809 0.6781 0.6792
vn -0.7571 0.6531 0.0169
vn -0.4063 -0.4796 -0.7778
vn -0.7442 0.0881 -0.6621
vn -0.6916 0.1188 -0.7124
vn -0.2605 -0.4006 -0.8784
vn 0.2761 0.2399 0.9307
vn 0.7750 -0.1427 0.6156
vn 0.7175 -0.1048 0.6887
vn 0.3821 0.3050 0.8724
vn 0.8257 -0.5087 -0.2437
vn 0.3846 -0.4757 -0.7911
vn 0.3265 -0.5020 -0.8009
vn 0.6286 -0.7587 -0.1710
vn -0.8096 0.5660 0.1557
vn -0.3868 0.5571 0.7349
vn -0.3793 0.6106 0.6952
vn -0.6507 0.7593 -0.0008
vn -0.1146 -0.2632 -0.9579
vn -0.7550 0.2556 -0.6038
vn -0.7858 0.3455 -0.5130
vn -0.2299 -0.3899 -0.8917
vn -0.6590 0.3310 -0.6754
vn 0.1745 -0.7608 -0.6251
vn -0.1310 0.7954 0.5918
vn 0.7548 -0.3524 0.5532
vn -0.9413 -0.3319 0.0618
vn -0.5507 -0.4402 0.7092
vn -0.4683 -0.5524 0.6896
vn -0.6596 -0.7374 -0.1458
vn 0.1145 -0.2760 0.9543
vn 0.8153 0.1519 0.5587
vn 0.8231 0.2895 0.4885
vn 0.1988 -0.4482 0.8715
vn 0.9258 0.3779 0.0117
vn 0.5910 0.5183 -0.6181
vn 0.5653 0.6366 -0.5246
vn 0.6218 0.7672 0.1573
vn -0.7661 0.0556 -0.6403
vn -0.2774 0.3019 -0.9121
vn -0.8253 0.0761 -0.5595
vn -0.5110 -0.3681 -0.7768
vn -0.5785 0.7061 -0.4084
vn -0.8744 0.4241 -0.2355
vn -0.5414 -0.4646 -0.7007
vn -0.5996 0.0836 -0.7960
vn -0.6001 -0.1082 -0.7926
vn -0.2221 -0.8932 0.3911
vn 0.5243 0.2649 0.8093
vn -0.1864 0.3304 -0.9253
vn -0.7101 0.0660 -0.7010
vn -0.1302 0.6276 -0.7676
vn 0.7364 -0.6641 0.1291
vn 0.1576 -0.8668 -0.4731
vn 0.3494 -0.7496 -0.5622
vn 0.8841 -0.4656 -0.0399
vn 0.9546 -0.2160 -0.2053
vn 0.2450 -0.6082 -0.7550
vn 0.1045 -0.5884 -0.8018
vn 0.8462 -0.5328 0.0072
vn -0.5747 -0.4724 -0.6683
vn -0.9821 0.1882 0.0108
vn -0.9490 0.2929 -0.1165
vn -0.4770 -0.1606 -0.8641
vn 0.3062 -0.6060 -0.7342
vn 0.5276 0.4703 0.7075
vn 0.5047 0.0992 0.8576
vn 0.7268 0.5984 -0.3371
vn -0.6666 0.6799 -0.3057
vn -0.2986 0.6616 0.6879
vn 0.6625 0.4998 0.5579
vn -0.3040 0.7102 0.6350
vn -0.1193 0.9489 0.2921
vn -0.0259 0.9997 0.0022
vn -0.1337 0.9163 0.3775
vn -0.3732 0.1871 0.9087
vn -0.2313 0.7894 0.5687
vn -0.0964 0.7981 0.5947
vn 0.2034 0.9224 -0.3283
vn -0.8193 0.3274 0.4707
vn 0.1677 0.9664 0.1948
vn 0.7219 0.4224 0.5481
vn 0.7979 0.2812 0.5331
vn -0.2077 0.8352 0.5093
vn 0.9078 -0.0655 -0.4143
vn 0.2766 -0.4103 -0.8690
vn 0.3029 0.9206 -0.2464
vn -0.1681 0.2683 -0.9485
vn -0.6290 0.4602 -0.6266
vn 0.7007 0.4992 -0.5097
vn 0.7329 0.3772 0.5662
vn 0.6408 -0.3922 -0.6600
vn -0.6899 0.7106 -0.1379
vn -0.6011 -0.4369 0.6691
vn -0.0557 -0.2715 -0.9608
vn -0.1651 -0.4287 0.8882
vn 0.9941 -0.0588 -0.0910
vn 0.7368 -0.0332 0.6753
vn 0.6010 0.0866 -0.7946
vn -0.9511 0.3007 0.0705
vn -0.7298 0.3247 -0.6017
vn -0.6780 0.2352 0.6964
vn -0.0996 0.2080 -0.9730
vn 0.0614 0.0498 0.9969
usemtl None
s 1
f 273/1/1 201/2/2 3/3/3 129/4/4
f 272/5/5 172/6/6 7/7/7 112/8/8
f 271/9/9 135/10/10 6/11/11 98/12/12
f 270/13/13 184/14/14 2/15/15 146/16/16
f 269/17/17 204/18/18 10/19/19 107/20/20
f 268/21/21 190/22/22 12/23/23 91/24/24
f 267/25/25 197/26/26 9/27/27 192/28/28
f 266/29/29 133/30/30 11/31/31 171/32/32
f 265/33/33 144/34/34 15/35/35 84/36/36
f 264/37/37 207/38/38 16/39/39 179/40/40
f 263/41/41 115/42/42 20/43/43 213/44/44
f 262/45/45 126/46/46 21/47/47 149/48/48
f 261/49/49 191/50/50 14/51/51 188/52/52
f 260/53/53 181/54/54 19/55/55 154/56/56
f 20/57/43 110/58/57 191/50/50
f 21/47/47 126/46/46 114/59/58
f 20/43/43 115/42/42 110/60/57
f 21/47/47 114/59/58 181/54/54
f 259/61/59 86/62/60 24/63/61 178/64/62
f 258/65/63 212/66/64 26/67/65 80/68/66
f 257/69/67 170/70/68 25/71/69 79/72/70
f 256/73/71 169/74/72 27/75/73 72/76/74
f 255/77/75 152/78/76 28/79/77 210/80/78
f 254/81/79 166/82/80 29/83/81 174/84/82
f 253/85/83 206/86/84 31/87/85 203/88/86
f 252/89/87 141/90/88 30/91/89 87/92/90
f 251/93/91 164/94/92 32/95/93 106/96/94
f 250/97/95 182/98/96 34/99/97 183/100/98
f 249/101/99 89/102/100 33/103/101 132/104/102
f 248/105/103 163/106/104 35/107/105 131/108/106
f 35/109/105 183/100/98 105/110/107
f 34/99/97 132/104/102 104/111/108
f 32/95/93 131/108/106 195/112/109
f 33/103/101 106/96/94 120/113/110
f 247/114/111 209/115/112 37/116/113 199/117/114
f 246/118/115 137/119/116 18/120/117 97/121/118
f 245/122/119 168/123/120 38/124/121 147/125/122
f 244/126/123 150/127/124 40/128/125 208/129/126
f 243/130/127 78/131/128 41/132/129 167/133/130
f 242/134/131 151/135/132 39/136/133 158/137/134
f 241/138/135 177/139/136 44/140/137 94/141/138
f 240/142/139 121/143/140 47/144/141 90/145/142
f 239/146/143 175/147/144 46/148/145 157/149/146
f 238/150/147 143/151/148 43/152/149 102/153/150
f 237/154/151 196/155/152 42/156/153 153/157/154
f 236/158/155 96/159/156 48/160/157 186/161/158
f 47/162/141 121/163/140 134/164/159
f 235/165/160 142/166/161 50/167/162 88/168/163
f 234/169/164 160/170/165 52/171/166 162/172/167
f 233/173/168 93/174/169 51/175/170 71/176/171
f 232/177/172 139/178/173 53/179/174 83/180/175
f 231/181/176 165/182/177 54/183/178 194/184/179
f 230/185/180 156/186/181 56/187/182 124/188/183
f 229/189/184 82/190/185 55/191/186 202/192/187
f 228/193/188 189/194/189 57/195/190 211/196/191
f 57/195/190 202/192/187 200/197/192
f 56/198/182 211/196/191 118/199/193
f 55/191/186 194/184/179 108/200/194
f 54/183/178 124/188/183 101/201/195
f 227/202/196 100/203/197 59/204/198 185/205/199
f 226/206/200 130/207/201 61/208/202 95/209/203
f 225/210/204 117/211/205 62/212/206 216/213/207
f 45/214/208 113/215/209 103/216/210
f 224/217/211 205/218/212 63/219/213 77/220/214
f 60/221/215 185/205/199 116/222/216
f 59/204/198 95/209/203 99/223/217
f 61/224/202 216/213/207 127/225/218
f 223/226/219 217/227/220 60/221/215 173/228/221
f 222/229/222 119/230/223 64/231/224 81/232/225
f 221/233/226 161/234/227 67/235/228 75/236/229
f 220/237/230 176/238/231 69/239/232 148/240/233
f 67/241/228 148/240/233 215/242/234
f 68/243/235 75/236/229 193/244/236
f 70/245/237 214/246/238 193/244/236
f 219/247/239 76/248/240 68/243/235 145/249/241
f 218/250/242 205/218/212 23/251/243 180/252/244
f 13/253/245 140/254/246 122/255/247
f 60/221/215 116/222/216 173/228/221
f 173/228/221 136/256/248 62/212/206
f 173/228/221 116/222/216 136/256/248
f 116/222/216 65/257/249 136/256/248
f 122/255/247 180/252/244 23/251/243
f 122/255/247 140/254/246 180/252/244
f 140/254/246 17/258/250 180/252/244
f 155/259/251 218/250/242 180/252/244 17/258/250
f 66/260/252 73/261/253 218/250/242 155/259/251
f 73/261/253 63/219/213 205/218/212 218/250/242
f 176/238/231 219/247/239 145/249/241 69/239/232
f 63/219/213 73/261/253 219/247/239 176/238/231
f 73/261/253 66/260/252 76/248/240 219/247/239
f 193/244/236 145/249/241 68/243/235
f 193/244/236 214/246/238 145/249/241
f 214/246/238 69/239/232 145/249/241
f 193/244/236 215/262/234 70/245/237
f 193/244/236 75/236/229 215/262/234
f 75/236/229 67/235/228 215/262/234
f 215/242/234 214/246/238 70/245/237
f 215/242/234 148/240/233 214/246/238
f 148/240/233 69/239/232 214/246/238
f 161/263/227 220/237/230 148/240/233 67/241/228
f 64/264/224 77/220/214 220/237/230 161/263/227
f 77/220/214 63/219/213 176/238/231 220/237/230
f 76/248/240 221/233/226 75/236/229 68/243/235
f 66/260/252 81/232/225 221/233/226 76/248/240
f 81/232/225 64/231/224 161/234/227 221/233/226
f 155/259/251 222/229/222 81/232/225 66/260/252
f 17/258/250 109/265/254 222/229/222 155/259/251
f 109/265/254 22/266/255 119/230/223 222/229/222
f 117/211/205 223/226/219 173/228/221 62/212/206
f 49/267/256 113/215/209 223/226/219 117/211/205
f 113/215/209 45/214/208 217/227/220 223/226/219
f 127/225/218 136/256/248 65/257/249
f 127/225/218 216/213/207 136/256/248
f 216/213/207 62/212/206 136/256/248
f 99/223/217 127/268/218 65/257/249
f 99/223/217 95/209/203 127/268/218
f 95/209/203 61/208/202 127/268/218
f 116/222/216 99/223/217 65/257/249
f 116/222/216 185/205/199 99/223/217
f 185/205/199 59/204/198 99/223/217
f 119/269/223 224/217/211 77/220/214 64/264/224
f 22/270/255 159/271/257 224/217/211 119/269/223
f 159/271/257 23/251/243 205/218/212 224/217/211
f 103/216/210 85/272/258 42/156/153
f 103/216/210 113/215/209 85/272/258
f 113/215/209 49/267/256 85/272/258
f 130/273/201 225/210/204 216/213/207 61/224/202
f 47/162/141 134/164/159 225/210/204 130/273/201
f 134/164/159 49/267/256 117/211/205 225/210/204
f 100/203/197 226/206/200 95/209/203 59/204/198
f 44/140/137 90/145/142 226/206/200 100/203/197
f 90/145/142 47/144/141 130/207/201 226/206/200
f 217/227/220 227/202/196 185/205/199 60/221/215
f 45/214/208 94/141/138 227/202/196 217/227/220
f 94/141/138 44/140/137 100/203/197 227/202/196
f 101/201/195 118/274/193 58/275/259
f 101/201/195 124/188/183 118/274/193
f 124/188/183 56/187/182 118/274/193
f 108/200/194 101/201/195 58/275/259
f 108/200/194 194/184/179 101/201/195
f 194/184/179 54/183/178 101/201/195
f 118/199/193 200/197/192 58/275/259
f 118/199/193 211/196/191 200/197/192
f 211/196/191 57/195/190 200/197/192
f 200/197/192 108/200/194 58/275/259
f 200/197/192 202/192/187 108/200/194
f 202/192/187 55/191/186 108/200/194
f 156/276/181 228/193/188 211/196/191 56/198/182
f 52/277/166 83/180/175 228/193/188 156/276/181
f 83/180/175 53/179/174 189/194/189 228/193/188
f 189/194/189 229/189/184 202/192/187 57/195/190
f 53/179/174 71/176/171 229/189/184 189/194/189
f 71/176/171 51/175/170 82/190/185 229/189/184
f 165/182/177 230/185/180 124/188/183 54/183/178
f 50/167/162 162/172/167 230/185/180 165/182/177
f 162/172/167 52/171/166 156/186/181 230/185/180
f 82/190/185 231/181/176 194/184/179 55/191/186
f 51/175/170 88/168/163 231/181/176 82/190/185
f 88/168/163 50/167/162 165/182/177 231/181/176
f 160/278/165 232/177/172 83/180/175 52/277/166
f 48/279/157 153/280/154 232/177/172 160/278/165
f 153/280/154 42/281/153 139/178/173 232/177/172
f 139/178/173 233/173/168 71/176/171 53/179/174
f 42/281/153 85/282/258 233/173/168 139/178/173
f 85/282/258 49/283/256 93/174/169 233/173/168
f 142/166/161 234/169/164 162/172/167 50/167/162
f 46/284/145 186/285/158 234/169/164 142/166/161
f 186/285/158 48/286/157 160/170/165 234/169/164
f 93/174/169 235/165/160 88/168/163 51/175/170
f 49/283/256 125/287/260 235/165/160 93/174/169
f 125/287/260 46/284/145 142/166/161 235/165/160
f 134/164/159 125/288/260 49/267/256
f 134/164/159 121/163/140 125/288/260
f 121/163/140 46/289/145 125/288/260
f 175/290/144 236/158/155 186/161/158 46/291/145
f 41/292/129 158/137/134 236/158/155 175/290/144
f 158/137/134 39/136/133 96/159/156 236/158/155
f 96/159/156 237/154/151 153/157/154 48/160/157
f 39/136/133 147/125/122 237/154/151 96/159/156
f 147/125/122 38/124/121 196/155/152 237/154/151
f 196/155/152 238/150/147 102/153/150 42/156/153
f 38/124/121 208/129/126 238/150/147 196/155/152
f 208/129/126 40/128/125 143/151/148 238/150/147
f 143/151/148 239/146/143 157/149/146 43/152/149
f 40/128/125 167/133/130 239/146/143 143/151/148
f 167/133/130 41/132/129 175/147/144 239/146/143
f 177/139/136 240/142/139 90/145/142 44/140/137
f 43/152/149 157/149/146 240/142/139 177/139/136
f 157/149/146 46/148/145 121/143/140 240/142/139
f 103/216/210 241/138/135 94/141/138 45/214/208
f 42/156/153 102/153/150 241/138/135 103/216/210
f 102/153/150 43/152/149 177/139/136 241/138/135
f 78/293/128 242/134/131 158/137/134 41/292/129
f 15/294/35 199/117/114 242/134/131 78/293/128
f 199/117/114 37/116/113 151/135/132 242/134/131
f 150/127/124 243/130/127 167/133/130 40/128/125
f 16/39/39 84/36/36 243/130/127 150/127/124
f 84/36/36 15/35/35 78/131/128 243/130/127
f 168/123/120 244/126/123 208/129/126 38/124/121
f 18/120/117 179/40/40 244/126/123 168/123/120
f 179/40/40 16/39/39 150/127/124 244/126/123
f 151/135/132 245/122/119 147/125/122 39/136/133
f 37/116/113 97/121/118 245/122/119 151/135/132
f 97/121/118 18/120/117 168/123/120 245/122/119
f 209/115/112 246/118/115 97/121/118 37/116/113
f 22/295/255 109/296/254 246/118/115 209/115/112
f 109/296/254 17/297/250 137/119/116 246/118/115
f 144/298/34 247/114/111 199/117/114 15/294/35
f 14/299/51 187/300/261 247/114/111 144/298/34
f 187/300/261 22/295/255 209/115/112 247/114/111
f 120/113/110 195/112/109 36/301/262
f 120/113/110 106/96/94 195/112/109
f 106/96/94 32/95/93 195/112/109
f 195/112/109 105/302/107 36/301/262
f 195/112/109 131/108/106 105/302/107
f 131/108/106 35/107/105 105/302/107
f 104/111/108 120/113/110 36/301/262
f 104/111/108 132/104/102 120/113/110
f 132/104/102 33/103/101 120/113/110
f 105/110/107 104/111/108 36/301/262
f 105/110/107 183/100/98 104/111/108
f 183/100/98 34/99/97 104/111/108
f 164/94/92 248/105/103 131/108/106 32/95/93
f 29/83/81 210/80/78 248/105/103 164/94/92
f 210/80/78 28/79/77 163/106/104 248/105/103
f 182/98/96 249/101/99 132/104/102 34/99/97
f 31/87/85 87/92/90 249/101/99 182/98/96
f 87/92/90 30/91/89 89/102/100 249/101/99
f 163/303/104 250/97/95 183/100/98 35/109/105
f 28/304/77 203/88/86 250/97/95 163/303/104
f 203/88/86 31/87/85 182/98/96 250/97/95
f 89/102/100 251/93/91 106/96/94 33/103/101
f 30/91/89 174/84/82 251/93/91 89/102/100
f 174/84/82 29/83/81 164/94/92 251/93/91
f 206/86/84 252/89/87 87/92/90 31/87/85
f 27/75/73 79/72/70 252/89/87 206/86/84
f 79/72/70 25/71/69 141/90/88 252/89/87
f 152/305/76 253/85/83 203/88/86 28/304/77
f 26/306/65 72/76/74 253/85/83 152/305/76
f 72/76/74 27/75/73 206/86/84 253/85/83
f 141/90/88 254/81/79 174/84/82 30/91/89
f 25/71/69 178/64/62 254/81/79 141/90/88
f 178/64/62 24/63/61 166/82/80 254/81/79
f 166/82/80 255/77/75 210/80/78 29/83/81
f 24/63/61 80/68/66 255/77/75 166/82/80
f 80/68/66 26/67/65 152/78/76 255/77/75
f 212/307/64 256/73/71 72/76/74 26/306/65
f 19/308/55 128/309/263 256/73/71 212/307/64
f 128/309/263 13/310/245 169/74/72 256/73/71
f 169/74/72 257/69/67 79/72/70 27/75/73
f 13/310/245 122/311/247 257/69/67 169/74/72
f 122/311/247 23/312/243 170/70/68 257/69/67
f 86/62/60 258/65/63 80/68/66 24/63/61
f 22/313/255 123/314/264 258/65/63 86/62/60
f 123/314/264 19/315/55 212/66/64 258/65/63
f 170/70/68 259/61/59 178/64/62 25/71/69
f 23/312/243 159/316/257 259/61/59 170/70/68
f 159/316/257 22/313/255 86/62/60 259/61/59
f 181/54/54 128/317/263 19/55/55
f 181/54/54 114/59/58 128/317/263
f 114/59/58 13/318/245 128/317/263
f 110/60/57 123/319/264 22/320/255
f 110/60/57 115/42/42 123/319/264
f 115/42/42 19/55/55 123/319/264
f 114/59/58 74/321/265 13/318/245
f 114/59/58 126/46/46 74/321/265
f 126/46/46 14/51/51 74/321/265
f 191/50/50 187/322/261 14/51/51
f 191/50/50 110/58/57 187/322/261
f 110/58/57 22/323/255 187/322/261
f 204/18/18 260/53/53 154/56/56 10/19/19
f 9/27/27 149/48/48 260/53/53 204/18/18
f 149/48/48 21/47/47 181/54/54 260/53/53
f 190/22/22 261/49/49 188/52/52 12/23/23
f 11/324/31 213/325/44 261/49/49 190/22/22
f 213/325/44 20/57/43 191/50/50 261/49/49
f 197/26/26 262/45/45 149/48/48 9/27/27
f 12/23/23 188/52/52 262/45/45 197/26/26
f 188/52/52 14/51/51 126/46/46 262/45/45
f 133/30/30 263/41/41 213/44/44 11/31/31
f 10/19/19 154/56/56 263/41/41 133/30/30
f 154/56/56 19/55/55 115/42/42 263/41/41
f 137/119/116 264/37/37 179/40/40 18/120/117
f 17/297/250 140/326/246 264/37/37 137/119/116
f 140/326/246 13/327/245 207/38/38 264/37/37
f 207/38/38 265/33/33 84/36/36 16/39/39
f 13/327/245 74/328/265 265/33/33 207/38/38
f 74/328/265 14/329/51 144/34/34 265/33/33
f 172/6/6 266/29/29 171/32/32 7/7/7
f 6/11/11 107/20/20 266/29/29 172/6/6
f 107/20/20 10/19/19 133/30/30 266/29/29
f 201/2/2 267/25/25 192/28/28 3/3/3
f 2/15/15 91/24/24 267/25/25 201/2/2
f 91/24/24 12/23/23 197/26/26 267/25/25
f 184/14/14 268/21/21 91/24/24 2/15/15
f 7/330/7 171/331/32 268/21/21 184/14/14
f 171/331/32 11/324/31 190/22/22 268/21/21
f 135/10/10 269/17/17 107/20/20 6/11/11
f 3/3/3 192/28/28 269/17/17 135/10/10
f 192/28/28 9/27/27 204/18/18 269/17/17
f 111/332/266 270/13/13 146/16/16 1/333/267
f 8/334/268 112/335/8 270/13/13 111/332/266
f 112/335/8 7/330/7 184/14/14 270/13/13
f 198/336/269 271/9/9 98/12/12 5/337/270
f 4/338/271 129/4/4 271/9/9 198/336/269
f 129/4/4 3/3/3 135/10/10 271/9/9
f 92/339/272 272/5/5 112/8/8 8/340/268
f 5/337/270 98/12/12 272/5/5 92/339/272
f 98/12/12 6/11/11 172/6/6 272/5/5
f 138/341/273 273/1/1 129/4/4 4/338/271
f 1/333/267 146/16/16 273/1/1 138/341/273
f 146/16/16 2/15/15 201/2/2 273/1/1
