%YAML 1.1
%TAG !u! tag:unity3d.com,2011:
--- !u!114 &11400000
MonoBehaviour:
  m_ObjectHideFlags: 0
  m_PrefabParentObject: {fileID: 0}
  m_PrefabInternal: {fileID: 0}
  m_GameObject: {fileID: 0}
  m_Enabled: 1
  m_EditorHideFlags: 0
  m_Script: {fileID: 11500000, guid: 34a7c8ca992f915438a96c2077353778, type: 3}
  m_Name: LookAround
  m_EditorClassIdentifier: 
  brickName: Assets/BehaviorTree/SpringQuarter/LookAround.asset
  xml: "\uFEFF<?xml version=\"1.0\" encoding=\"utf-8\"?>\r\n<BehaviorBricks xmlns:ref=\"urn:padaone\"
    version=\"1.0\">\r\n  <BehaviorTree id=\"0\" />\r\n  <runtimeInfo>\r\n    <BehaviorTree
    id=\"0\" guid=\"3697b3bca2848354d871b8e96e5c7119\" nextId=\"19\">\r\n      <root>\r\n
    \       <SelectorNode id=\"9\" />\r\n      </root>\r\n      <inputParams />\r\n
    \     <outputParams />\r\n      <localParams />\r\n    </BehaviorTree>\r\n    <SelectorNode
    id=\"9\">\r\n      <children>\r\n        <elem>\r\n          <SequenceNode id=\"11\"
    />\r\n        </elem>\r\n        <elem>\r\n          <SequenceNode id=\"13\" />\r\n
    \       </elem>\r\n        <elem>\r\n          <ActionNode id=\"18\" />\r\n        </elem>\r\n
    \     </children>\r\n      <inputParams />\r\n      <outputParams />\r\n      <localParams
    />\r\n    </SelectorNode>\r\n    <SequenceNode id=\"11\">\r\n      <children>\r\n
    \       <elem>\r\n          <NotDecorator id=\"6\" />\r\n        </elem>\r\n        <elem>\r\n
    \         <ActionNode id=\"12\" />\r\n        </elem>\r\n      </children>\r\n
    \     <inputParams />\r\n      <outputParams />\r\n      <localParams />\r\n    </SequenceNode>\r\n
    \   <SequenceNode id=\"13\">\r\n      <children>\r\n        <elem>\r\n          <NotDecorator
    id=\"14\" />\r\n        </elem>\r\n        <elem>\r\n          <ActionNode id=\"17\"
    />\r\n        </elem>\r\n      </children>\r\n      <inputParams />\r\n      <outputParams
    />\r\n      <localParams />\r\n    </SequenceNode>\r\n    <ActionNode id=\"18\"
    action=\"Custom/Other/SwitchTreeWander\">\r\n      <inputParams />\r\n      <outputParams
    />\r\n      <localParams />\r\n    </ActionNode>\r\n    <NotDecorator id=\"6\">\r\n
    \     <child>\r\n        <ConditionNode id=\"7\" />\r\n      </child>\r\n      <inputParams
    />\r\n      <outputParams />\r\n      <localParams />\r\n    </NotDecorator>\r\n
    \   <ActionNode id=\"12\" action=\"Custom/Movement/rotateLeft\">\r\n      <inputParams
    />\r\n      <outputParams />\r\n      <localParams />\r\n    </ActionNode>\r\n
    \   <NotDecorator id=\"14\">\r\n      <child>\r\n        <ConditionNode id=\"15\"
    />\r\n      </child>\r\n      <inputParams />\r\n      <outputParams />\r\n      <localParams
    />\r\n    </NotDecorator>\r\n    <ActionNode id=\"17\" action=\"Custom/Movement/rotateRight\">\r\n
    \     <inputParams />\r\n      <outputParams />\r\n      <localParams />\r\n    </ActionNode>\r\n
    \   <ConditionNode id=\"7\">\r\n      <condition>\r\n        <ConditionEvalNode
    id=\"8\" />\r\n      </condition>\r\n      <inputParams />\r\n      <outputParams
    />\r\n      <localParams />\r\n    </ConditionNode>\r\n    <ConditionNode id=\"15\">\r\n
    \     <condition>\r\n        <ConditionEvalNode id=\"16\" />\r\n      </condition>\r\n
    \     <inputParams />\r\n      <outputParams />\r\n      <localParams />\r\n    </ConditionNode>\r\n
    \   <ConditionEvalNode id=\"8\" policy=\"ATOMIC_CHECK\" name=\"Custom/Rotate/finishedRotateLeft\">\r\n
    \     <inputParams />\r\n      <outputParams />\r\n      <localParams />\r\n    </ConditionEvalNode>\r\n
    \   <ConditionEvalNode id=\"16\" policy=\"ATOMIC_CHECK\" name=\"Custom/Rotate/finishedRotateRight\">\r\n
    \     <inputParams />\r\n      <outputParams />\r\n      <localParams />\r\n    </ConditionEvalNode>\r\n
    \ </runtimeInfo>\r\n  <editorInfo>\r\n    <BehaviorTree id=\"0\" _name=\"LookAround\"
    _removeIfClosed=\"False\">\r\n      <_rootList>\r\n        <elem>\r\n          <SelectorNode
    id=\"9\" />\r\n        </elem>\r\n      </_rootList>\r\n      <_nodes>\r\n        <nodes>\r\n
    \         <SelectorNode id=\"9\" />\r\n          <SequenceNode id=\"11\" />\r\n
    \         <NotDecorator id=\"6\" />\r\n          <ConditionNode id=\"7\" />\r\n
    \         <ActionNode id=\"12\" />\r\n          <SequenceNode id=\"13\" />\r\n
    \         <NotDecorator id=\"14\" />\r\n          <ConditionNode id=\"15\" />\r\n
    \         <ActionNode id=\"17\" />\r\n          <ActionNode id=\"18\" />\r\n        </nodes>\r\n
    \     </_nodes>\r\n      <_selectedNode>\r\n        <NotDecorator id=\"14\" />\r\n
    \     </_selectedNode>\r\n    </BehaviorTree>\r\n    <SelectorNode id=\"9\">\r\n
    \     <_data>\r\n        <data selected=\"False\" position=\"366 163\" name=\"Selector\"
    description=\"Executes all its children until one of them is successful\" cardinality=\"-1\"
    hasParent=\"False\">\r\n          <BehaviorTree id=\"0\" />\r\n          <SelectorNode
    id=\"9\" />\r\n        </data>\r\n      </_data>\r\n    </SelectorNode>\r\n    <SequenceNode
    id=\"11\">\r\n      <_data>\r\n        <data selected=\"False\" position=\"192
    289\" name=\"Sequence\" description=\"Executes all its children in sequence until
    all of them are successful\" cardinality=\"-1\" hasParent=\"True\">\r\n          <BehaviorTree
    id=\"0\" />\r\n          <SequenceNode id=\"11\" />\r\n          <SelectorNode
    id=\"9\" />\r\n        </data>\r\n      </_data>\r\n    </SequenceNode>\r\n    <SequenceNode
    id=\"13\">\r\n      <_data>\r\n        <data selected=\"False\" position=\"471
    343\" name=\"Sequence\" description=\"Executes all its children in sequence until
    all of them are successful\" cardinality=\"-1\" hasParent=\"True\">\r\n          <BehaviorTree
    id=\"0\" />\r\n          <SequenceNode id=\"13\" />\r\n          <SelectorNode
    id=\"9\" />\r\n        </data>\r\n      </_data>\r\n    </SequenceNode>\r\n    <ActionNode
    id=\"18\">\r\n      <_data>\r\n        <data selected=\"False\" position=\"790
    318\" name=\"Custom/Other/SwitchTreeWander\" description=\"switches to the monster
    work tree\" cardinality=\"0\" hasParent=\"True\">\r\n          <BehaviorTree id=\"0\"
    />\r\n          <ActionNode id=\"18\" />\r\n          <SelectorNode id=\"9\" />\r\n
    \       </data>\r\n      </_data>\r\n    </ActionNode>\r\n    <NotDecorator id=\"6\">\r\n
    \     <_data>\r\n        <data selected=\"False\" position=\"59 473\" name=\"Not\"
    description=\"Negates the result of the execution\" cardinality=\"1\" hasParent=\"True\">\r\n
    \         <BehaviorTree id=\"0\" />\r\n          <NotDecorator id=\"6\" />\r\n
    \         <SequenceNode id=\"11\" />\r\n        </data>\r\n      </_data>\r\n
    \   </NotDecorator>\r\n    <ActionNode id=\"12\">\r\n      <_data>\r\n        <data
    selected=\"False\" position=\"278 506\" name=\"Custom/Movement/rotateLeft\" description=\"Tells
    the character to rotate left\" cardinality=\"0\" hasParent=\"True\">\r\n          <BehaviorTree
    id=\"0\" />\r\n          <ActionNode id=\"12\" />\r\n          <SequenceNode id=\"11\"
    />\r\n        </data>\r\n      </_data>\r\n    </ActionNode>\r\n    <NotDecorator
    id=\"14\">\r\n      <_data>\r\n        <data selected=\"True\" position=\"374
    502\" name=\"Not\" description=\"Negates the result of the execution\" cardinality=\"1\"
    hasParent=\"True\">\r\n          <BehaviorTree id=\"0\" />\r\n          <NotDecorator
    id=\"14\" />\r\n          <SequenceNode id=\"13\" />\r\n        </data>\r\n      </_data>\r\n
    \   </NotDecorator>\r\n    <ActionNode id=\"17\">\r\n      <_data>\r\n        <data
    selected=\"False\" position=\"681 469\" name=\"Custom/Movement/rotateRight\" description=\"Tells
    the character to rotate right\" cardinality=\"0\" hasParent=\"True\">\r\n          <BehaviorTree
    id=\"0\" />\r\n          <ActionNode id=\"17\" />\r\n          <SequenceNode id=\"13\"
    />\r\n        </data>\r\n      </_data>\r\n    </ActionNode>\r\n    <ConditionNode
    id=\"7\">\r\n      <_data>\r\n        <data selected=\"False\" position=\"83 652\"
    name=\"Custom/Rotate/finishedRotateLeft\" description=\"checks if the minion has
    rotated enough to the left\" cardinality=\"1\" hasParent=\"True\">\r\n          <BehaviorTree
    id=\"0\" />\r\n          <ConditionNode id=\"7\" />\r\n          <NotDecorator
    id=\"6\" />\r\n        </data>\r\n      </_data>\r\n    </ConditionNode>\r\n    <ConditionNode
    id=\"15\">\r\n      <_data>\r\n        <data selected=\"False\" position=\"460
    690\" name=\"Custom/Rotate/finishedRotateRight\" description=\"checks if the minion
    has rotated enough to the right\" cardinality=\"1\" hasParent=\"True\">\r\n          <BehaviorTree
    id=\"0\" />\r\n          <ConditionNode id=\"15\" />\r\n          <NotDecorator
    id=\"14\" />\r\n        </data>\r\n      </_data>\r\n    </ConditionNode>\r\n
    \   <ConditionEvalNode id=\"8\">\r\n      <_data>\r\n        <data selected=\"False\"
    position=\"0 0\" name=\"DecoratorGuard\" description=\"Description\" cardinality=\"1\"
    hasParent=\"False\">\r\n          <ConditionEvalNode id=\"8\" />\r\n        </data>\r\n
    \     </_data>\r\n    </ConditionEvalNode>\r\n    <ConditionEvalNode id=\"16\">\r\n
    \     <_data>\r\n        <data selected=\"False\" position=\"0 0\" name=\"DecoratorGuard\"
    description=\"Description\" cardinality=\"1\" hasParent=\"False\">\r\n          <ConditionEvalNode
    id=\"16\" />\r\n        </data>\r\n      </_data>\r\n    </ConditionEvalNode>\r\n
    \ </editorInfo>\r\n</BehaviorBricks>"
  subslist: []
  _guid: 3697b3bca2848354d871b8e96e5c7119
