%YAML 1.1
%TAG !u! tag:unity3d.com,2011:
--- !u!21 &2100000
Material:
  serializedVersion: 6
  m_ObjectHideFlags: 0
  m_PrefabParentObject: {fileID: 0}
  m_PrefabInternal: {fileID: 0}
  m_Name: BigBrickWall_Sand
  m_Shader: {fileID: 4800000, guid: 66fed5dd5b3755d4199f36edae55e880, type: 3}
  m_ShaderKeywords: _DETAIL_MULX2 _INVERTAOMASK_ON _LIGHTWRAP_ON _METALALPHAGLOSS_ON
    _NORMALMAP _SPECULARIBL_ON _USELOCALNORMALS_ON
  m_LightmapFlags: 5
  m_CustomRenderQueue: -1
  stringTagMap: {}
  m_SavedProperties:
    serializedVersion: 2
    m_TexEnvs:
    - first:
        name: _BumpMap
      second:
        m_Texture: {fileID: 2800000, guid: 52f7f9697cb2be14598a0473bb1313b9, type: 3}
        m_Scale: {x: 1, y: 1}
        m_Offset: {x: 0, y: 0}
    - first:
        name: _DetailAlbedoMap
      second:
        m_Texture: {fileID: 2800000, guid: 3831afeecc668f14a9e77559feaa5617, type: 3}
        m_Scale: {x: 5, y: 1}
        m_Offset: {x: 0, y: 0}
    - first:
        name: _DetailMask
      second:
        m_Texture: {fileID: 2800000, guid: 59c8dd15fa1afb243991f5731c7b41f1, type: 3}
        m_Scale: {x: 1, y: 1}
        m_Offset: {x: 0, y: 0}
    - first:
        name: _DetailNormalMap
      second:
        m_Texture: {fileID: 2800000, guid: ef1af48a4e9860342825f5b7bda38569, type: 3}
        m_Scale: {x: 5, y: 1}
        m_Offset: {x: 0, y: 0}
    - first:
        name: _EmissionMap
      second:
        m_Texture: {fileID: 0}
        m_Scale: {x: 1, y: 1}
        m_Offset: {x: 0, y: 0}
    - first:
        name: _IBLMap
      second:
        m_Texture: {fileID: 8900000, guid: 522f3190ed4a3384ba9a182f6b53d4d0, type: 2}
        m_Scale: {x: 1, y: 1}
        m_Offset: {x: 0, y: 0}
    - first:
        name: _MainTex
      second:
        m_Texture: {fileID: 2800000, guid: 926d267541e73a0428182c12e45aaa4c, type: 3}
        m_Scale: {x: 1, y: 1}
        m_Offset: {x: 0, y: 0}
    - first:
        name: _MetallicGlossMap
      second:
        m_Texture: {fileID: 2800000, guid: 13e68ffc6cca23743aa26e5cc9b4955b, type: 3}
        m_Scale: {x: 1, y: 1}
        m_Offset: {x: 0, y: 0}
    - first:
        name: _OcclusionMap
      second:
        m_Texture: {fileID: 2800000, guid: 73a4b4e3eb625234483151717b28b987, type: 3}
        m_Scale: {x: 1, y: 1}
        m_Offset: {x: 0, y: 0}
    - first:
        name: _ParallaxMap
      second:
        m_Texture: {fileID: 2800000, guid: 3ed9b7a5b58b87f44b3018e56812ff16, type: 3}
        m_Scale: {x: 1, y: 1}
        m_Offset: {x: 0, y: 0}
    - first:
        name: _RampTex
      second:
        m_Texture: {fileID: 0}
        m_Scale: {x: 1, y: 1}
        m_Offset: {x: 0, y: 0}
    - first:
        name: _SmoothnessMap
      second:
        m_Texture: {fileID: 0}
        m_Scale: {x: 1, y: 1}
        m_Offset: {x: 0, y: 0}
    - first:
        name: _TopAO
      second:
        m_Texture: {fileID: 2800000, guid: 4e426801d0ea0904881529727498d59a, type: 3}
        m_Scale: {x: 4, y: 1}
        m_Offset: {x: 0, y: 0}
    - first:
        name: _TopBump
      second:
        m_Texture: {fileID: 2800000, guid: 48679a7136cb4de49862528970a4bdc3, type: 3}
        m_Scale: {x: 8, y: 2}
        m_Offset: {x: 0, y: 0}
    - first:
        name: _TopDetail
      second:
        m_Texture: {fileID: 2800000, guid: 69dd83014f2bc044487df3d2646e3396, type: 3}
        m_Scale: {x: 4, y: 1}
        m_Offset: {x: 0, y: 0}
    - first:
        name: _TopMetalnessTex
      second:
        m_Texture: {fileID: 2800000, guid: 75b64e108bed4bb49b103786da8a9e75, type: 3}
        m_Scale: {x: 1, y: 1}
        m_Offset: {x: 0, y: 0}
    - first:
        name: _TopNormal
      second:
        m_Texture: {fileID: 2800000, guid: 48679a7136cb4de49862528970a4bdc3, type: 3}
        m_Scale: {x: 4, y: 1}
        m_Offset: {x: 0, y: 0}
    - first:
        name: _TopSpecTex
      second:
        m_Texture: {fileID: 2800000, guid: 69dd83014f2bc044487df3d2646e3396, type: 3}
        m_Scale: {x: 8, y: 2}
        m_Offset: {x: 0, y: 0}
    - first:
        name: _TopTexture
      second:
        m_Texture: {fileID: 2800000, guid: 69dd83014f2bc044487df3d2646e3396, type: 3}
        m_Scale: {x: 8, y: 2}
        m_Offset: {x: 0, y: 0}
    - first:
        name: _UpAlbedo
      second:
        m_Texture: {fileID: 2800000, guid: 38960dc321ac6ee458e58f255bec699c, type: 3}
        m_Scale: {x: 6, y: 2}
        m_Offset: {x: 0, y: 0}
    - first:
        name: _UpAmbientOc
      second:
        m_Texture: {fileID: 2800000, guid: 0910ab76c776c9d4bb8d46d04cd1549b, type: 3}
        m_Scale: {x: 6, y: 2}
        m_Offset: {x: 0, y: 0}
    - first:
        name: _UpMetalness
      second:
        m_Texture: {fileID: 2800000, guid: 0787be9905dd6184689430687361f900, type: 3}
        m_Scale: {x: 6, y: 2}
        m_Offset: {x: 0, y: 0}
    - first:
        name: _UpNormal
      second:
        m_Texture: {fileID: 2800000, guid: 2ed7d6a92d665034682654721bd97cdf, type: 3}
        m_Scale: {x: 6, y: 2}
        m_Offset: {x: 0, y: 0}
    - first:
        name: _UpTexture
      second:
        m_Texture: {fileID: 0}
        m_Scale: {x: 1, y: 1}
        m_Offset: {x: 0, y: 0}
    m_Floats:
    - first:
        name: Depth
      second: -0.002
    - first:
        name: _AOBlendPower
      second: 15.89
    - first:
        name: _AOPower
      second: 0.14
    - first:
        name: _AffectAO
      second: -0.54
    - first:
        name: _AmbientIBL
      second: 0.33
    - first:
        name: _BumpScale
      second: 1.8
    - first:
        name: _Cutoff
      second: 0.5
    - first:
        name: _CutoffIntensity
      second: 0.5
    - first:
        name: _DetailAffected
      second: 3
    - first:
        name: _DetailMaskMult
      second: 7.11
    - first:
        name: _DetailNormalMapScale
      second: 1
    - first:
        name: _DetailTiling
      second: 7
    - first:
        name: _DiffuseAOMask
      second: 1
    - first:
        name: _Diffusepower
      second: 1
    - first:
        name: _DstBlend
      second: 0
    - first:
        name: _EmissionLM
      second: 0
    - first:
        name: _EmissionScaleUI
      second: 0
    - first:
        name: _Fresnel
      second: 0
    - first:
        name: _GameTime
      second: 0
    - first:
        name: _Glossiness
      second: 1
    - first:
        name: _GradIntensity
      second: 0.3
    - first:
        name: _GradYCap
      second: 1
    - first:
        name: _HgtMapSmooth
      second: 5
    - first:
        name: _HighIntensity
      second: 1
    - first:
        name: _IBLAmbient
      second: 1
    - first:
        name: _IBLPower
      second: 1
    - first:
        name: _InvertAOMask
      second: 1
    - first:
        name: _InvertAxis
      second: 0
    - first:
        name: _InvertDepth
      second: 0
    - first:
        name: _InvertTopBottom
      second: 0
    - first:
        name: _LightScalar
      second: 1
    - first:
        name: _LightWrap
      second: 0
    - first:
        name: _LightWrapPower
      second: 1.98
    - first:
        name: _LowIntensity
      second: 0
    - first:
        name: _MetalAlphaGloss
      second: 1
    - first:
        name: _Metallic
      second: 1
    - first:
        name: _Metalness
      second: 1
    - first:
        name: _Mode
      second: 0
    - first:
        name: _NormalSmooth
      second: -0.69
    - first:
        name: _OcclusionStrenght
      second: 1
    - first:
        name: _OcclusionStrength
      second: 1
    - first:
        name: _Parallax
      second: 0.0066
    - first:
        name: _Quality
      second: 50
    - first:
        name: _RampIntensity
      second: 0.3
    - first:
        name: _RampLevels
      second: 2
    - first:
        name: _RimFresnel
      second: 2.56
    - first:
        name: _RimPower
      second: 0
    - first:
        name: _RimScalar
      second: 1.4
    - first:
        name: _Shininess
      second: 0
    - first:
        name: _Smoothness
      second: 0.1
    - first:
        name: _SpecularIBL
      second: 1
    - first:
        name: _SpecularPower
      second: 0
    - first:
        name: _SrcBlend
      second: 1
    - first:
        name: _TopAOPower
      second: 2
    - first:
        name: _TopBottom
      second: 0
    - first:
        name: _TopBottomBumpScale
      second: 2
    - first:
        name: _TopBottomLevel
      second: 0.3
    - first:
        name: _TopBottomMult
      second: 1.89
    - first:
        name: _TopBottomPower
      second: 0.62
    - first:
        name: _TopBottomSmooth
      second: 2.15
    - first:
        name: _TopMetallic
      second: 0
    - first:
        name: _TopMetalness
      second: 0
    - first:
        name: _TopReliefPower
      second: 1
    - first:
        name: _TopShininess
      second: 0
    - first:
        name: _TopSmoothness
      second: 0
    - first:
        name: _TopSpec
      second: 2
    - first:
        name: _UVMasterTiling
      second: 1
    - first:
        name: _UVSec
      second: 0
    - first:
        name: _UpAOMult
      second: 1
    - first:
        name: _UpAlbPower
      second: 1
    - first:
        name: _UpGloss
      second: 0
    - first:
        name: _UpGlossSmooth
      second: 0
    - first:
        name: _UpMetallic
      second: 0
    - first:
        name: _UpNormalSmooth
      second: 0
    - first:
        name: _UseLocalNormals
      second: 1
    - first:
        name: _WindScalar
      second: 1
    - first:
        name: _WorldTiling
      second: 0.87
    - first:
        name: _ZWrite
      second: 1
    m_Colors:
    - first:
        name: _Color
      second: {r: 1, g: 1, b: 1, a: 1}
    - first:
        name: _EmissionColor
      second: {r: 0, g: 0, b: 0, a: 0}
    - first:
        name: _EmissionColorUI
      second: {r: 1, g: 1, b: 1, a: 1}
    - first:
        name: _HighColor
      second: {r: 1, g: 1, b: 1, a: 1}
    - first:
        name: _LightWarpTint
      second: {r: 0, g: 0, b: 0, a: 1}
    - first:
        name: _LightWrapColor
      second: {r: 0.5, g: 0.5, b: 0.5, a: 1}
    - first:
        name: _LowColor
      second: {r: 1, g: 1, b: 1, a: 1}
    - first:
        name: _RimColor
      second: {r: 0, g: 0, b: 0, a: 1}
    - first:
        name: _RimLightColor
      second: {r: 0.6277033, g: 0.63921374, b: 0.66176474, a: 1}
    - first:
        name: _SpecColor
      second: {r: 1, g: 1, b: 1, a: 1}
    - first:
        name: _TopSpecColor
      second: {r: 0.2490268, g: 0.6911765, b: 0.2520761, a: 1}
    - first:
        name: _TopTint
      second: {r: 0.37494594, g: 0.6985294, b: 0.4307362, a: 1}
    - first:
        name: _UpColor
      second: {r: 1, g: 1, b: 1, a: 1}
    - first:
        name: _node_8583
      second: {r: 0.9264706, g: 0.04087368, b: 0.04087368, a: 1}
