%YAML 1.1
%TAG !u! tag:unity3d.com,2011:
--- !u!114 &11400000
MonoBehaviour:
  m_ObjectHideFlags: 0
  m_PrefabParentObject: {fileID: 0}
  m_PrefabInternal: {fileID: 0}
  m_GameObject: {fileID: 0}
  m_Enabled: 1
  m_EditorHideFlags: 0
  m_Script: {fileID: 11500000, guid: 34a7c8ca992f915438a96c2077353778, type: 3}
  m_Name: EnemyAttackTreeV2
  m_EditorClassIdentifier: 
  brickName: Assets/BehaviorTree/EnemyAttackTreeV2.asset
  xml: "\uFEFF<?xml version=\"1.0\" encoding=\"utf-8\"?>\r\n<BehaviorBricks xmlns:ref=\"urn:padaone\"
    version=\"1.0\">\r\n  <BehaviorTree id=\"0\" />\r\n  <runtimeInfo>\r\n    <BehaviorTree
    id=\"0\" guid=\"8689b8483b7664f4980126e2ea607f2d\" nextId=\"62\">\r\n      <root>\r\n
    \       <SelectorNode id=\"19\" />\r\n      </root>\r\n      <inputParams />\r\n
    \     <outputParams />\r\n      <localParams />\r\n    </BehaviorTree>\r\n    <SelectorNode
    id=\"19\">\r\n      <children>\r\n        <elem>\r\n          <DecoratorGuard
    id=\"56\" />\r\n        </elem>\r\n        <elem>\r\n          <DecoratorGuard
    id=\"46\" />\r\n        </elem>\r\n        <elem>\r\n          <ActionNode id=\"48\"
    />\r\n        </elem>\r\n      </children>\r\n      <inputParams />\r\n      <outputParams
    />\r\n      <localParams />\r\n    </SelectorNode>\r\n    <DecoratorGuard id=\"56\">\r\n
    \     <guard>\r\n        <ConditionEvalNode id=\"57\" />\r\n      </guard>\r\n
    \     <child>\r\n        <SequenceNode id=\"52\" />\r\n      </child>\r\n      <inputParams
    />\r\n      <outputParams />\r\n      <localParams />\r\n    </DecoratorGuard>\r\n
    \   <DecoratorGuard id=\"46\">\r\n      <guard>\r\n        <ConditionEvalNode
    id=\"47\" />\r\n      </guard>\r\n      <child>\r\n        <ActionNode id=\"27\"
    />\r\n      </child>\r\n      <inputParams />\r\n      <outputParams />\r\n      <localParams
    />\r\n    </DecoratorGuard>\r\n    <ActionNode id=\"48\" action=\"Custom/Other/SwitchTreeSearch\">\r\n
    \     <inputParams />\r\n      <outputParams />\r\n      <localParams />\r\n    </ActionNode>\r\n
    \   <ConditionEvalNode id=\"57\" policy=\"WAIT_UNTIL_FALSE_AND_FAIL\" name=\"Custom/DistanceAndLOS/AllyInAttackRangeAndVisible\">\r\n
    \     <inputParams />\r\n      <outputParams />\r\n      <localParams />\r\n    </ConditionEvalNode>\r\n
    \   <SequenceNode id=\"52\">\r\n      <children>\r\n        <elem>\r\n          <ActionNode
    id=\"61\" />\r\n        </elem>\r\n        <elem>\r\n          <ActionNode id=\"50\"
    />\r\n        </elem>\r\n        <elem>\r\n          <ActionNode id=\"22\" />\r\n
    \       </elem>\r\n      </children>\r\n      <inputParams />\r\n      <outputParams
    />\r\n      <localParams />\r\n    </SequenceNode>\r\n    <ConditionEvalNode id=\"47\"
    policy=\"WAIT_UNTIL_FALSE_AND_FAIL\" name=\"Custom/DistanceAndLOS/AllyVisibleInThreatRange\">\r\n
    \     <inputParams />\r\n      <outputParams />\r\n      <localParams />\r\n    </ConditionEvalNode>\r\n
    \   <ActionNode id=\"27\" action=\"Custom/Movement/MoveToNearestVisibleAlly\">\r\n
    \     <inputParams />\r\n      <outputParams />\r\n      <localParams />\r\n    </ActionNode>\r\n
    \   <ActionNode id=\"61\" action=\"Custom/Movement/DontMove\">\r\n      <inputParams
    />\r\n      <outputParams />\r\n      <localParams />\r\n    </ActionNode>\r\n
    \   <ActionNode id=\"50\" action=\"Custom/Movement/rotateTowardsNearestAlly\">\r\n
    \     <inputParams />\r\n      <outputParams />\r\n      <localParams />\r\n    </ActionNode>\r\n
    \   <ActionNode id=\"22\" action=\"Custom/Attack/EnemyAttack\">\r\n      <inputParams
    />\r\n      <outputParams />\r\n      <localParams />\r\n    </ActionNode>\r\n
    \ </runtimeInfo>\r\n  <editorInfo>\r\n    <BehaviorTree id=\"0\" _name=\"EnemyAttackTreeV2\"
    _removeIfClosed=\"False\">\r\n      <_rootList>\r\n        <elem>\r\n          <SelectorNode
    id=\"19\" />\r\n        </elem>\r\n      </_rootList>\r\n      <_nodes>\r\n        <nodes>\r\n
    \         <SelectorNode id=\"19\" />\r\n          <ActionNode id=\"48\" />\r\n
    \         <ActionNode id=\"22\" />\r\n          <ActionNode id=\"27\" />\r\n          <DecoratorGuard
    id=\"46\" />\r\n          <ActionNode id=\"50\" />\r\n          <SequenceNode
    id=\"52\" />\r\n          <DecoratorGuard id=\"56\" />\r\n          <ActionNode
    id=\"61\" />\r\n        </nodes>\r\n      </_nodes>\r\n      <_selectedNode>\r\n
    \       <ActionNode id=\"61\" />\r\n      </_selectedNode>\r\n    </BehaviorTree>\r\n
    \   <SelectorNode id=\"19\">\r\n      <_data>\r\n        <data selected=\"False\"
    position=\"392 48\" name=\"Selector\" description=\"Executes all its children
    until one of them is successful\" cardinality=\"-1\" hasParent=\"False\">\r\n
    \         <BehaviorTree id=\"0\" />\r\n          <SelectorNode id=\"19\" />\r\n
    \       </data>\r\n      </_data>\r\n    </SelectorNode>\r\n    <DecoratorGuard
    id=\"56\">\r\n      <_data>\r\n        <data selected=\"False\" position=\"262
    166\" name=\"Custom/DistanceAndLOS/AllyInAttackRangeAndVisible\" description=\"checks
    if an ally is within the minions attackRange and LOS\" cardinality=\"1\" hasParent=\"True\">\r\n
    \         <BehaviorTree id=\"0\" />\r\n          <DecoratorGuard id=\"56\" />\r\n
    \         <SelectorNode id=\"19\" />\r\n        </data>\r\n      </_data>\r\n
    \   </DecoratorGuard>\r\n    <DecoratorGuard id=\"46\">\r\n      <_data>\r\n        <data
    selected=\"False\" position=\"420 219\" name=\"Custom/DistanceAndLOS/AllyVisibleInThreatRange\"
    description=\"checks if any allies (including twig) are visible and within the
    minions threatRange\" cardinality=\"1\" hasParent=\"True\">\r\n          <BehaviorTree
    id=\"0\" />\r\n          <DecoratorGuard id=\"46\" />\r\n          <SelectorNode
    id=\"19\" />\r\n        </data>\r\n      </_data>\r\n    </DecoratorGuard>\r\n
    \   <ActionNode id=\"48\">\r\n      <_data>\r\n        <data selected=\"False\"
    position=\"595 217.65\" name=\"Custom/Other/SwitchTreeSearch\" description=\"switches
    to the monster search tree\" cardinality=\"0\" hasParent=\"True\">\r\n          <BehaviorTree
    id=\"0\" />\r\n          <ActionNode id=\"48\" />\r\n          <SelectorNode id=\"19\"
    />\r\n        </data>\r\n      </_data>\r\n    </ActionNode>\r\n    <ConditionEvalNode
    id=\"57\">\r\n      <_data>\r\n        <data selected=\"False\" position=\"0 0\"
    name=\"DecoratorGuard\" description=\"Description\" cardinality=\"1\" hasParent=\"False\">\r\n
    \         <BehaviorTree id=\"24\" />\r\n          <ConditionEvalNode id=\"57\"
    />\r\n        </data>\r\n      </_data>\r\n    </ConditionEvalNode>\r\n    <SequenceNode
    id=\"52\">\r\n      <_data>\r\n        <data selected=\"False\" position=\"217
    322\" name=\"Sequence\" description=\"Executes all its children in sequence until
    all of them are successful\" cardinality=\"-1\" hasParent=\"True\">\r\n          <BehaviorTree
    id=\"0\" />\r\n          <SequenceNode id=\"52\" />\r\n          <DecoratorGuard
    id=\"56\" />\r\n        </data>\r\n      </_data>\r\n    </SequenceNode>\r\n    <ConditionEvalNode
    id=\"47\">\r\n      <_data>\r\n        <data selected=\"False\" position=\"0 0\"
    name=\"DecoratorGuard\" description=\"Description\" cardinality=\"1\" hasParent=\"False\">\r\n
    \         <BehaviorTree id=\"47\" />\r\n        </data>\r\n      </_data>\r\n
    \   </ConditionEvalNode>\r\n    <ActionNode id=\"27\">\r\n      <_data>\r\n        <data
    selected=\"False\" position=\"473 334\" name=\"Custom/Movement/MoveToNearestVisibleAlly\"
    description=\"Moves the monster towards the nearest allied position\" cardinality=\"0\"
    hasParent=\"True\">\r\n          <BehaviorTree id=\"0\" />\r\n          <ActionNode
    id=\"27\" />\r\n          <DecoratorGuard id=\"46\" />\r\n        </data>\r\n
    \     </_data>\r\n    </ActionNode>\r\n    <ActionNode id=\"61\">\r\n      <_data>\r\n
    \       <data selected=\"True\" position=\"44 476\" name=\"Custom/Movement/DontMove\"
    description=\"Tells the character not to move until DoMove node is reached.\"
    cardinality=\"0\" hasParent=\"True\">\r\n          <BehaviorTree id=\"0\" />\r\n
    \         <ActionNode id=\"61\" />\r\n          <SequenceNode id=\"52\" />\r\n
    \       </data>\r\n      </_data>\r\n    </ActionNode>\r\n    <ActionNode id=\"50\">\r\n
    \     <_data>\r\n        <data selected=\"False\" position=\"179 482\" name=\"Custom/Movement/rotateTowardsNearestAlly\"
    description=\"Tells the character to rotate towards the nearest enemy\" cardinality=\"0\"
    hasParent=\"True\">\r\n          <BehaviorTree id=\"0\" />\r\n          <ActionNode
    id=\"50\" />\r\n          <SequenceNode id=\"52\" />\r\n        </data>\r\n      </_data>\r\n
    \   </ActionNode>\r\n    <ActionNode id=\"22\">\r\n      <_data>\r\n        <data
    selected=\"False\" position=\"328.2903 477.5806\" name=\"Custom/Attack/EnemyAttack\"
    description=\"attack action for enemy monsters. attacks nearest ally, assumes
    it is within attackRange\" cardinality=\"0\" hasParent=\"True\">\r\n          <BehaviorTree
    id=\"0\" />\r\n          <ActionNode id=\"22\" />\r\n          <SequenceNode id=\"52\"
    />\r\n        </data>\r\n      </_data>\r\n    </ActionNode>\r\n  </editorInfo>\r\n
    \ <runtimeInfo>\r\n    <BehaviorTree id=\"24\" nextId=\"1\">\r\n      <inputParams
    />\r\n      <outputParams />\r\n      <localParams />\r\n    </BehaviorTree>\r\n
    \   <BehaviorTree id=\"47\" nextId=\"1\">\r\n      <inputParams />\r\n      <outputParams
    />\r\n      <localParams />\r\n    </BehaviorTree>\r\n  </runtimeInfo>\r\n  <editorInfo>\r\n
    \   <BehaviorTree id=\"24\" _removeIfClosed=\"False\">\r\n      <_rootList />\r\n
    \     <_nodes>\r\n        <nodes />\r\n      </_nodes>\r\n    </BehaviorTree>\r\n
    \   <BehaviorTree id=\"47\" _removeIfClosed=\"False\">\r\n      <_rootList />\r\n
    \     <_nodes>\r\n        <nodes />\r\n      </_nodes>\r\n    </BehaviorTree>\r\n
    \ </editorInfo>\r\n</BehaviorBricks>"
  subslist: []
  _guid: 8689b8483b7664f4980126e2ea607f2d
