# Blender v2.78 (sub 0) OBJ File: ''
# www.blender.org
mtllib Thuja_Tree_s_04.mtl
o Thuja_Tree_s_04
v -0.396829 1.208502 -0.578229
v -0.563926 1.687994 -0.327145
v -0.170728 2.073069 -0.369369
v 0.116092 1.643258 -0.648357
v 0.255385 2.006938 -0.393816
v 0.565696 1.362363 -0.459344
v 0.166459 0.745162 -0.580850
v -0.226059 0.622884 -0.472426
v 0.539605 1.841836 -0.129039
v 0.179998 2.288574 -0.000890
v 0.530429 1.564679 0.346244
v 0.700172 1.111517 0.058506
v 0.282534 0.484938 0.367992
v 0.457317 0.508942 -0.104003
v 0.352043 1.231918 0.642879
v 0.045757 1.715832 0.607609
v -0.144937 2.302271 0.222168
v -0.521355 1.439029 0.441591
v -0.059674 0.721899 0.636805
v -0.373914 2.165625 0.011086
v -0.632167 1.727543 0.054589
v -0.594315 0.798728 -0.099220
v -0.332237 0.476036 0.215646
v -0.048356 0.359306 -0.142642
v -0.134204 2.399190 -0.052751
v 0.133650 2.168641 0.307890
v 0.001342 2.363459 -0.186209
v 0.054420 0.015913 0.074903
v 0.048332 0.736638 0.066523
v -0.048332 0.736638 0.066523
v -0.054420 0.015913 0.074903
v -0.088053 0.015913 -0.028610
v -0.078203 0.736638 -0.025410
v 0.000000 0.736638 -0.082227
v 0.000000 0.015913 -0.092584
v 0.088053 0.015913 -0.028610
v 0.078203 0.736638 -0.025410
v -0.211754 0.372835 0.048173
v -0.030938 1.216313 0.672692
v 0.166771 2.229810 0.180089
v -0.211407 0.564400 0.450513
v -0.285417 2.244675 0.142290
v 0.585261 1.634665 -0.299487
v -0.117662 0.973492 -0.638099
v -0.039482 1.854365 -0.543813
v 0.084257 0.015913 0.027377
v 0.010019 2.267653 0.274493
v -0.611128 1.706656 -0.130697
v -0.235423 2.327792 -0.030431
v -0.248623 1.586548 0.572277
v -0.045956 0.736638 -0.063254
v -0.154312 0.486320 -0.342468
v 0.389553 0.433446 0.128088
v 0.604063 0.773036 -0.008271
v -0.614731 1.600340 0.228897
v -0.471490 1.984807 -0.179208
v 0.207934 1.845744 -0.543725
v 0.086853 0.376276 -0.028220
v -0.058015 2.265312 -0.269011
v 0.387486 1.985164 0.160543
v -0.137304 2.398350 0.065179
v 0.317787 1.692313 0.519054
v 0.432520 1.729535 -0.466453
v -0.084257 0.015913 0.027377
v 0.107394 0.326287 0.116642
v 0.173889 0.964015 0.664909
v 0.664200 1.505044 -0.040439
v -0.062625 2.391827 -0.127767
v -0.473123 1.909663 0.245870
v 0.441996 1.353565 0.536430
v 0.147399 1.212566 -0.658862
v -0.473233 0.851954 0.347359
v -0.626908 1.265216 -0.246423
v 0.052074 0.015913 -0.071673
v -0.487062 0.602379 0.079945
v -0.006042 2.404327 -0.016759
v -0.335717 1.948915 0.366471
v -0.086853 0.376276 -0.028220
v 0.353019 1.509764 -0.600952
v 0.112823 2.002928 0.446841
v -0.048682 0.372111 0.296031
v -0.619893 1.070489 0.203406
v 0.239918 1.440552 0.651731
v -0.291384 2.164142 -0.191306
v 0.674108 1.229060 -0.197560
v 0.567393 1.737189 0.098463
v -0.396835 1.879943 -0.369835
v 0.000000 0.376276 -0.091323
v 0.074359 0.736638 0.024161
v 0.229610 0.372296 -0.113865
v -0.061864 0.646149 -0.543005
v -0.134698 1.442809 -0.639412
v 0.236418 2.184012 -0.204853
v -0.098012 2.038895 0.437786
v -0.053678 0.376276 0.073882
v 0.339503 0.591645 -0.357901
v -0.541823 0.978338 -0.381373
v 0.386706 2.061455 -0.064863
v 0.489844 1.002939 0.395709
v -0.348203 0.479871 -0.129567
v 0.045956 0.736638 -0.063254
v -0.536294 1.939542 0.050601
v -0.307243 1.672314 -0.519799
v -0.165742 2.295166 -0.184878
v -0.657188 1.322878 0.011275
v 0.312052 1.935853 0.338437
v 0.414619 1.946561 -0.281600
v 0.053678 0.376276 0.073882
v 0.101800 2.225433 -0.277050
v 0.007607 2.374492 0.107276
v -0.074359 0.736638 0.024161
v 0.643909 1.287163 0.208751
v 0.554098 0.888224 -0.297196
v -0.404982 0.651045 -0.321544
v 0.399788 1.030933 -0.546114
v 0.092644 0.533842 0.535145
v -0.518812 1.444014 -0.451917
v 0.000000 0.015913 0.088593
v -0.323343 0.837397 -0.531614
v 0.052711 2.071272 -0.413933
v 0.092106 0.475212 -0.379114
v 0.078236 2.356903 -0.122183
v 0.544763 0.774859 0.229749
v -0.304218 1.022624 0.577048
v -0.052074 0.015913 -0.071673
v 0.000000 0.736638 0.078186
v 0.337895 0.875486 0.552948
v 0.049015 0.376276 -0.067463
v -0.079308 0.376276 0.025769
v 0.079308 0.376276 0.025769
v -0.049015 0.376276 -0.067463
v 0.000000 0.376276 0.083390
vt 0.8024 0.5354
vt 0.8032 0.5426
vt 0.7965 0.5635
vt 0.7912 0.5481
vt 0.7875 0.5631
vt 0.7879 0.5425
vt 0.7906 0.5916
vt 0.7872 0.5849
vt 0.7909 0.5698
vt 0.7930 0.5358
vt 0.7947 0.5236
vt 0.7979 0.5231
vt 0.7986 0.5295
vt 0.7846 0.5370
vt 0.7842 0.5576
vt 0.7805 0.5522
vt 0.7764 0.5673
vt 0.7801 0.5727
vt 0.7782 0.5866
vt 0.8515 0.5726
vt 0.8455 0.5933
vt 0.8486 0.5617
vt 0.8499 0.5372
vt 0.8428 0.5302
vt 0.8461 0.5270
vt 0.7764 0.5292
vt 0.7824 0.5208
vt 0.7805 0.5331
vt 0.8379 0.5426
vt 0.8418 0.5467
vt 0.8358 0.5516
vt 0.8337 0.5606
vt 0.8320 0.5854
vt 0.8278 0.5531
vt 0.8323 0.5447
vt 0.8309 0.5289
vt 0.8334 0.5260
vt 0.8344 0.5358
vt 0.8368 0.5329
vt 0.8220 0.5456
vt 0.8261 0.5779
vt 0.8227 0.5761
vt 0.8102 0.5579
vt 0.8031 0.5799
vt 0.8072 0.5538
vt 0.8041 0.5498
vt 0.8082 0.5368
vt 0.8164 0.5249
vt 0.8206 0.5237
vt 0.8192 0.5353
vt 0.8248 0.5225
vt 0.8265 0.5173
vt 0.8007 0.5122
vt 0.7977 0.5179
vt 0.7945 0.5123
vt 0.8358 0.5232
vt 0.8303 0.5228
vt 0.8289 0.6172
vt 0.8262 0.6119
vt 0.8296 0.6137
vt 0.8302 0.6102
vt 0.8328 0.6056
vt 0.8349 0.6121
vt 0.7853 0.6057
vt 0.7846 0.5919
vt 0.7880 0.5986
vt 0.7865 0.6077
vt 0.7877 0.6097
vt 0.7891 0.6007
vt 0.7918 0.6058
vt 0.7968 0.5417
vt 0.7764 0.5483
vt 0.8507 0.5549
vt 0.8478 0.5440
vt 0.8457 0.5509
vt 0.8426 0.5825
vt 0.8405 0.5760
vt 0.7865 0.5247
vt 0.7897 0.5303
vt 0.8397 0.5558
vt 0.8345 0.5808
vt 0.8164 0.5592
vt 0.8192 0.5524
vt 0.8199 0.5828
vt 0.8001 0.5759
vt 0.7973 0.5707
vt 0.8112 0.5409
vt 0.8123 0.5238
vt 0.8074 0.5296
vt 0.8067 0.5232
vt 0.8164 0.5421
vt 0.8234 0.5340
vt 0.8264 0.5373
vt 0.8065 0.5180
vt 0.8009 0.5174
vt 0.8282 0.5122
vt 0.8353 0.5145
vt 0.8320 0.5177
vt 0.8342 0.6156
vt 0.7838 0.6078
vt 0.7826 0.6058
vt 0.3089 0.8126
vt 0.3089 0.8581
vt 0.3034 0.8581
vt 0.3030 0.8126
vt 0.2850 0.8131
vt 0.2869 0.8585
vt 0.2814 0.8588
vt 0.2790 0.8133
vt 0.3209 0.8127
vt 0.3199 0.8582
vt 0.3144 0.8581
vt 0.3149 0.8126
vt 0.2970 0.8127
vt 0.2979 0.8582
vt 0.2924 0.8583
vt 0.2910 0.8128
vt 0.3328 0.8131
vt 0.3309 0.8585
vt 0.3254 0.8583
vt 0.3268 0.8128
vt 0.3347 0.7675
vt 0.3283 0.7673
vt 0.3411 0.7678
vt 0.3388 0.8133
vt 0.3364 0.8588
vt 0.2961 0.7672
vt 0.2896 0.7673
vt 0.3025 0.7670
vt 0.3219 0.7672
vt 0.3154 0.7670
vt 0.2832 0.7675
vt 0.2767 0.7678
vt 0.3090 0.7670
vt 0.7819 0.5920
vt 0.7838 0.5781
vt 0.7800 0.6059
vt 0.8395 0.6140
vt 0.8390 0.5200
vt 0.8423 0.5168
vt 0.8011 0.5226
vt 0.8278 0.5257
vt 0.8018 0.5290
vt 0.7933 0.5968
vt 0.7960 0.6019
vt 0.8235 0.6065
vt 0.8353 0.6010
vt 0.7915 0.5180
vt 0.7883 0.5124
vt 0.8407 0.5371
vt 0.8374 0.6075
vt 0.8268 0.6084
vt 0.8223 0.5186
vn -0.5195 -0.0272 -0.8540
vn -0.7300 0.1216 -0.6725
vn -0.4226 0.3049 -0.8535
vn 0.0558 0.2402 -0.9691
vn 0.2791 0.4726 -0.8359
vn 0.4453 0.1310 -0.8858
vn -0.3505 0.5408 -0.7646
vn 0.0557 0.5810 -0.8120
vn -0.1797 0.4338 -0.8829
vn 0.1482 -0.0561 -0.9874
vn 0.2746 -0.3936 -0.8773
vn -0.1035 -0.5278 -0.8431
vn -0.1491 -0.1671 -0.9746
vn 0.7856 0.0272 -0.6182
vn 0.6445 0.3882 -0.6587
vn 0.8858 0.3010 -0.3533
vn 0.8705 0.4822 -0.0992
vn 0.7178 0.5645 -0.4075
vn 0.7804 0.6252 -0.0097
vn 0.8811 0.4025 0.2484
vn 0.9829 -0.1170 0.1425
vn 0.8325 -0.3383 0.4388
vn 0.9286 -0.3701 -0.0277
vn 0.9625 -0.0502 -0.2665
vn 0.5375 -0.0244 0.8429
vn 0.7761 0.0930 0.6238
vn 0.2700 0.1928 0.9434
vn 0.0200 0.3332 0.9426
vn -0.1966 0.5027 0.8418
vn -0.3771 0.2211 0.8994
vn -0.1511 0.0345 0.9879
vn -0.2019 -0.3422 0.9177
vn 0.1511 -0.6331 0.7591
vn 0.2149 -0.1703 0.9617
vn 0.6384 -0.3033 0.7074
vn -0.7262 0.0855 0.6821
vn -0.5466 0.4418 0.7114
vn -0.7560 0.4427 0.4823
vn -0.9571 0.2762 0.0878
vn -0.8610 0.4971 0.1078
vn -0.9510 0.2456 -0.1877
vn -0.8122 0.2781 -0.5128
vn -0.9585 -0.0260 -0.2839
vn -0.9259 -0.3573 -0.1222
vn -0.8171 -0.5572 0.1481
vn -0.9355 -0.1626 0.3136
vn -0.6230 -0.7075 0.3336
vn -0.3929 -0.9196 0.0057
vn -0.1344 -0.9491 -0.2848
vn 0.1396 -0.7844 -0.6043
vn 0.3131 -0.9098 -0.2724
vn 0.5121 -0.6674 0.5407
vn -0.1388 -0.9016 0.4097
vn -0.3581 0.9116 -0.2017
vn -0.6871 0.7115 -0.1474
vn -0.3017 0.9199 0.2506
vn -0.3045 0.7284 0.6137
vn 0.1708 0.7305 0.6612
vn 0.2867 0.8854 0.3660
vn 0.1288 0.8228 -0.5535
vn 0.3314 0.6653 -0.6689
vn -0.1533 0.6347 -0.7574
vn -0.1134 0.9106 -0.3974
vn -0.4886 0.6631 -0.5671
vn -0.2175 0.1203 -0.9686
vn 0.9765 0.2141 0.0245
vn 0.9022 0.0521 0.4281
vn 0.8305 0.2645 0.4902
vn 0.7636 0.5531 0.3331
vn 0.6598 0.5074 0.5543
vn 0.8298 -0.3125 -0.4624
vn 0.5625 -0.2112 -0.7994
vn 0.5404 0.3909 0.7451
vn 0.2925 0.5161 0.8051
vn -0.9113 0.1818 0.3694
vn -0.7675 0.5410 -0.3438
vn -0.5472 0.4634 -0.6970
vn -0.9998 -0.0094 0.0152
vn -0.8227 -0.2279 -0.5208
vn -0.6806 -0.5559 -0.4772
vn -0.7700 -0.3145 0.5551
vn -0.5324 -0.1315 0.8362
vn -0.5976 -0.7631 -0.2458
vn -0.2981 -0.7996 -0.5213
vn 0.1220 -0.9849 0.1226
vn 0.2514 0.9676 0.0220
vn 0.4919 0.8346 -0.2480
vn -0.0000 0.0139 0.9999
vn 0.0000 0.0190 0.9998
vn -0.5877 0.0204 0.8088
vn -0.5877 0.0149 0.8089
vn -0.5877 0.0139 -0.8089
vn -0.5877 0.0190 -0.8089
vn 0.0000 0.0204 -0.9998
vn 0.0000 0.0149 -0.9999
vn 0.9510 0.0139 0.3090
vn 0.9509 0.0190 0.3090
vn 0.5877 0.0204 0.8088
vn 0.5877 0.0149 0.8089
vn -0.9510 0.0139 0.3090
vn -0.9509 0.0190 0.3090
vn -0.9509 0.0204 -0.3090
vn -0.9510 0.0149 -0.3090
vn 0.5877 0.0139 -0.8089
vn 0.5877 0.0190 -0.8089
vn 0.9509 0.0204 -0.3090
vn 0.9510 0.0149 -0.3090
vn 0.5878 0.0089 -0.8090
vn 0.9510 0.0095 -0.3090
vn 0.0000 0.0095 -1.0000
vn -0.9510 0.0089 0.3090
vn -0.9510 0.0095 -0.3090
vn -0.5878 0.0095 0.8090
vn 0.9510 0.0089 0.3090
vn 0.5878 0.0095 0.8090
vn -0.5878 0.0089 -0.8090
vn 0.0000 0.0089 1.0000
vn 0.6287 0.6825 -0.3727
vn 0.4615 0.5976 -0.6557
vn 0.6613 0.7460 0.0789
vn 0.6295 -0.7516 0.1971
vn 0.7300 -0.6396 -0.2406
vn -0.4090 -0.5917 -0.6947
vn -0.4977 -0.5686 0.6550
vn -0.5010 -0.3276 -0.8011
vn -0.6282 0.6057 -0.4883
vn -0.7904 0.6123 -0.0163
vn 0.4875 0.6247 0.6100
vn 0.5579 -0.5746 -0.5988
vn 0.8104 -0.1742 0.5594
vn 0.6133 0.6905 0.3834
vn -0.6831 0.6343 0.3619
usemtl None
s 1
f 1/1/1 117/2/2 103/3/3
f 4/4/4 57/5/5 79/6/6
f 3/7/7 120/8/8 45/9/9
f 4/4/4 79/6/6 71/10/10
f 7/11/11 91/12/12 44/13/13
f 6/14/14 63/15/15 43/16/16
f 9/17/17 107/18/18 98/19/19
f 9/20/17 98/21/19 86/22/20
f 12/23/21 123/24/22 54/25/23
f 12/26/21 54/27/23 85/28/24
f 15/29/25 70/30/26 83/31/27
f 16/32/28 94/33/29 50/34/30
f 16/32/28 50/34/30 39/35/31
f 19/36/32 116/37/33 66/38/34
f 15/29/25 127/39/35 70/30/26
f 18/40/36 77/41/37 69/42/38
f 21/43/39 102/44/40 48/45/41
f 2/46/42 117/2/2 73/47/43
f 22/48/44 75/49/45 82/50/46
f 23/51/47 75/49/45 38/52/48
f 24/53/49 121/54/50 90/55/51
f 13/56/52 116/37/33 81/57/53
f 25/58/54 49/59/55 61/60/56
f 17/61/57 47/62/58 110/63/59
f 27/64/60 109/65/61 59/66/62
f 27/64/60 59/66/62 68/67/63
f 25/68/54 104/69/64 49/70/55
f 4/4/4 92/71/65 45/9/9
f 4/4/4 71/10/10 92/71/65
f 12/26/21 85/28/24 67/72/66
f 12/23/21 67/73/66 112/74/67
f 11/75/68 60/76/69 106/77/70
f 12/23/21 112/74/67 123/24/22
f 6/14/14 113/78/71 115/79/72
f 16/32/28 62/80/73 80/81/74
f 16/32/28 80/81/74 94/33/29
f 16/32/28 39/35/31 83/31/27
f 21/82/39 55/83/75 102/84/40
f 2/46/42 56/85/76 87/86/77
f 21/43/39 48/45/41 105/87/78
f 22/88/44 97/89/79 114/90/80
f 21/82/39 105/91/78 55/83/75
f 18/40/36 72/92/81 124/93/82
f 24/53/49 100/94/83 52/95/84
f 24/53/49 52/95/84 121/54/50
f 24/96/49 90/97/51 65/98/85
f 24/96/49 65/98/85 38/52/48
f 25/58/54 61/60/56 76/99/86
f 25/68/54 76/100/86 68/67/63
f 27/64/60 122/101/87 109/65/61
f 132/102/88 126/103/89 30/104/90 95/105/91
f 131/106/92 51/107/93 34/108/94 88/109/95
f 130/110/96 89/111/97 29/112/98 108/113/99
f 129/114/100 111/115/101 33/116/102 78/117/103
f 128/118/104 101/119/105 37/120/106 58/121/107
f 74/122/108 128/118/104 58/121/107 36/123/109
f 35/124/110 88/125/95 128/118/104 74/122/108
f 88/125/95 34/126/94 101/119/105 128/118/104
f 64/127/111 129/114/100 78/117/103 32/128/112
f 31/129/113 95/105/91 129/114/100 64/127/111
f 95/105/91 30/104/90 111/115/101 129/114/100
f 46/130/114 130/110/96 108/113/99 28/131/115
f 36/123/109 58/121/107 130/110/96 46/130/114
f 58/121/107 37/120/106 89/111/97 130/110/96
f 125/132/116 131/106/92 88/109/95 35/133/110
f 32/128/112 78/117/103 131/106/92 125/132/116
f 78/117/103 33/116/102 51/107/93 131/106/92
f 118/134/117 132/102/88 95/105/91 31/129/113
f 28/131/115 108/113/99 132/102/88 118/134/117
f 108/113/99 29/112/98 126/103/89 132/102/88
f 109/65/61 93/135/118 5/136/119
f 109/65/61 122/101/87 93/135/118
f 122/101/87 10/137/120 93/135/118
f 68/67/63 122/101/87 27/64/60
f 68/67/63 76/100/86 122/101/87
f 76/100/86 10/137/120 122/101/87
f 76/99/86 110/63/59 10/138/120
f 76/99/86 61/60/56 110/63/59
f 61/60/56 17/61/57 110/63/59
f 38/52/48 81/57/53 23/51/47
f 38/52/48 65/98/85 81/57/53
f 65/98/85 13/56/52 81/57/53
f 65/98/85 53/139/121 13/56/52
f 65/98/85 90/97/51 53/139/121
f 90/97/51 14/140/122 53/139/121
f 121/54/50 91/12/12 7/11/11
f 121/54/50 52/95/84 91/12/12
f 52/95/84 8/141/123 91/12/12
f 52/95/84 114/90/80 8/141/123
f 52/95/84 100/94/83 114/90/80
f 100/94/83 22/88/44 114/90/80
f 124/93/82 41/142/124 19/36/32
f 124/93/82 72/92/81 41/142/124
f 72/92/81 23/51/47 41/142/124
f 55/83/75 82/50/46 18/40/36
f 55/83/75 105/91/78 82/50/46
f 105/91/78 22/48/44 82/50/46
f 114/90/80 119/143/125 8/141/123
f 114/90/80 97/89/79 119/143/125
f 97/89/79 1/1/1 119/143/125
f 105/87/78 73/47/43 22/88/44
f 105/87/78 48/45/41 73/47/43
f 48/45/41 2/46/42 73/47/43
f 87/86/77 84/144/126 3/7/7
f 87/86/77 56/85/76 84/144/126
f 56/85/76 20/145/127 84/144/126
f 102/84/40 69/42/38 20/146/127
f 102/84/40 55/83/75 69/42/38
f 55/83/75 18/40/36 69/42/38
f 83/31/27 66/38/34 15/29/25
f 83/31/27 39/35/31 66/38/34
f 39/35/31 19/36/32 66/38/34
f 94/33/29 47/62/58 17/61/57
f 94/33/29 80/81/74 47/62/58
f 80/81/74 26/147/128 47/62/58
f 80/81/74 106/77/70 26/147/128
f 80/81/74 62/80/73 106/77/70
f 62/80/73 11/75/68 106/77/70
f 115/79/72 96/148/129 7/11/11
f 115/79/72 113/78/71 96/148/129
f 113/78/71 14/149/122 96/148/129
f 123/24/22 99/150/130 13/56/52
f 123/24/22 112/74/67 99/150/130
f 112/74/67 11/75/68 99/150/130
f 106/77/70 40/151/131 26/147/128
f 106/77/70 60/76/69 40/151/131
f 60/76/69 10/138/120 40/151/131
f 112/74/67 86/22/20 11/75/68
f 112/74/67 67/73/66 86/22/20
f 67/73/66 9/20/17 86/22/20
f 67/72/66 43/16/16 9/17/17
f 67/72/66 85/28/24 43/16/16
f 85/28/24 6/14/14 43/16/16
f 92/71/65 44/13/13 1/1/1
f 92/71/65 71/10/10 44/13/13
f 71/10/10 7/11/11 44/13/13
f 45/9/9 103/3/3 3/7/7
f 45/9/9 92/71/65 103/3/3
f 92/71/65 1/1/1 103/3/3
f 49/70/55 84/144/126 20/145/127
f 49/70/55 104/69/64 84/144/126
f 104/69/64 3/7/7 84/144/126
f 68/67/63 104/69/64 25/68/54
f 68/67/63 59/66/62 104/69/64
f 59/66/62 3/7/7 104/69/64
f 59/66/62 120/8/8 3/7/7
f 59/66/62 109/65/61 120/8/8
f 109/65/61 5/136/119 120/8/8
f 110/63/59 40/151/131 10/138/120
f 110/63/59 47/62/58 40/151/131
f 47/62/58 26/147/128 40/151/131
f 61/60/56 42/152/132 17/61/57
f 61/60/56 49/59/55 42/152/132
f 49/59/55 20/146/127 42/152/132
f 81/57/53 41/142/124 23/51/47
f 81/57/53 116/37/33 41/142/124
f 116/37/33 19/36/32 41/142/124
f 90/55/51 96/148/129 14/149/122
f 90/55/51 121/54/50 96/148/129
f 121/54/50 7/11/11 96/148/129
f 38/52/48 100/153/83 24/96/49
f 38/52/48 75/49/45 100/153/83
f 75/49/45 22/48/44 100/153/83
f 82/50/46 72/92/81 18/40/36
f 82/50/46 75/49/45 72/92/81
f 75/49/45 23/51/47 72/92/81
f 73/47/43 97/89/79 22/88/44
f 73/47/43 117/2/2 97/89/79
f 117/2/2 1/1/1 97/89/79
f 48/45/41 56/85/76 2/46/42
f 48/45/41 102/44/40 56/85/76
f 102/44/40 20/145/127 56/85/76
f 69/42/38 42/152/132 20/146/127
f 69/42/38 77/41/37 42/152/132
f 77/41/37 17/61/57 42/152/132
f 70/30/26 99/150/130 11/75/68
f 70/30/26 127/39/35 99/150/130
f 127/39/35 13/56/52 99/150/130
f 66/38/34 127/39/35 15/29/25
f 66/38/34 116/37/33 127/39/35
f 116/37/33 13/56/52 127/39/35
f 39/35/31 124/93/82 19/36/32
f 39/35/31 50/34/30 124/93/82
f 50/34/30 18/40/36 124/93/82
f 50/34/30 77/41/37 18/40/36
f 50/34/30 94/33/29 77/41/37
f 94/33/29 17/61/57 77/41/37
f 83/31/27 62/80/73 16/32/28
f 83/31/27 70/30/26 62/80/73
f 70/30/26 11/75/68 62/80/73
f 85/28/24 113/78/71 6/14/14
f 85/28/24 54/27/23 113/78/71
f 54/27/23 14/149/122 113/78/71
f 54/25/23 53/139/121 14/140/122
f 54/25/23 123/24/22 53/139/121
f 123/24/22 13/56/52 53/139/121
f 86/22/20 60/76/69 11/75/68
f 86/22/20 98/21/19 60/76/69
f 98/21/19 10/138/120 60/76/69
f 98/19/19 93/135/118 10/137/120
f 98/19/19 107/18/18 93/135/118
f 107/18/18 5/136/119 93/135/118
f 43/16/16 107/18/18 9/17/17
f 43/16/16 63/15/15 107/18/18
f 63/15/15 5/136/119 107/18/18
f 44/13/13 119/143/125 1/1/1
f 44/13/13 91/12/12 119/143/125
f 91/12/12 8/141/123 119/143/125
f 71/10/10 115/79/72 7/11/11
f 71/10/10 79/6/6 115/79/72
f 79/6/6 6/14/14 115/79/72
f 45/9/9 57/5/5 4/4/4
f 45/9/9 120/8/8 57/5/5
f 120/8/8 5/136/119 57/5/5
f 79/6/6 63/15/15 6/14/14
f 79/6/6 57/5/5 63/15/15
f 57/5/5 5/136/119 63/15/15
f 103/3/3 87/86/77 3/7/7
f 103/3/3 117/2/2 87/86/77
f 117/2/2 2/46/42 87/86/77
