# Blender v2.78 (sub 0) OBJ File: ''
# www.blender.org
mtllib Thuja_BushTree_m_04.mtl
o Thuja_BushTree_m_04
v 0.249242 0.928054 0.447029
v 0.406638 1.640543 0.314931
v 0.112939 3.354864 0.336489
v -0.130976 1.567330 0.488065
v -0.247952 2.925076 0.317008
v -0.421756 1.118915 0.292135
v -0.146805 0.383783 0.404091
v 0.129177 0.274957 0.361511
v -0.453697 2.373193 0.062134
v -0.143806 3.951208 -0.010547
v -0.389190 1.557740 -0.319170
v -0.486331 0.856630 -0.093422
v -0.150641 0.113511 -0.276623
v -0.312974 0.144382 0.043644
v -0.184740 0.970776 -0.472863
v 0.035864 1.874791 -0.493765
v 0.152594 3.912827 -0.162416
v 0.435496 1.291229 -0.263320
v 0.114326 0.369443 -0.421381
v 0.319815 3.618356 0.034095
v 0.503655 1.793110 0.025136
v 0.420798 0.445621 0.130911
v 0.275466 0.131245 -0.093497
v 0.040512 0.009945 0.124193
v 0.121971 4.226222 0.062224
v -0.066560 3.523186 -0.269040
v -0.007216 4.111999 0.160288
v 0.168397 0.038381 0.010693
v 0.090990 1.048235 -0.478608
v -0.107986 3.751365 -0.156646
v 0.204181 0.216680 -0.266246
v 0.251970 3.811403 -0.074199
v -0.455691 1.775791 0.180754
v 0.047846 0.621103 0.453033
v -0.010019 2.428961 0.433023
v 0.035036 3.783010 -0.224472
v 0.463804 1.731140 0.166984
v 0.213342 4.053910 0.051901
v 0.244780 1.607645 -0.401889
v 0.091258 0.139341 0.261085
v -0.241458 0.081863 -0.114547
v -0.407334 0.448920 -0.032575
v 0.488125 1.580109 -0.106398
v 0.366777 2.693506 0.188616
v -0.198925 2.244789 0.416260
v 0.038971 3.844484 0.245363
v -0.290142 2.832136 -0.164081
v 0.136622 4.187609 -0.040865
v -0.188658 1.751018 -0.433814
v -0.352774 1.999674 0.323807
v -0.048726 -0.009849 -0.076292
v -0.045519 0.664713 -0.461897
v -0.492687 1.575557 -0.018533
v 0.054415 4.197672 0.116109
v 0.394648 2.589282 -0.125098
v -0.282714 1.166093 -0.419251
v -0.143322 0.918401 0.463840
v 0.376546 0.557237 -0.181738
v 0.435093 0.984246 0.240003
v 0.359869 0.258234 0.009827
v 0.006592 4.216366 0.021168
v 0.300357 2.678658 -0.233286
v -0.284807 1.336385 0.413314
v -0.027810 2.784937 -0.382405
v 0.076151 0.041014 -0.184037
v 0.460774 0.773511 -0.076231
v -0.094577 1.333068 -0.498276
v 0.228349 3.587502 0.193695
v -0.474788 0.982053 0.095500
v -0.441313 2.027342 -0.125186
v 0.275766 2.497622 0.336769
v -0.147594 0.031940 0.077626
v 0.006317 0.299350 0.391637
v 0.056264 1.291289 0.480611
v -0.211847 3.518848 0.158716
v 0.119269 2.908159 -0.340562
v -0.242928 0.235915 0.229733
v 0.354337 0.630218 0.310949
v -0.319862 3.130165 0.025934
v -0.307331 0.738609 -0.320635
v 0.242047 0.150771 0.133808
v 0.430754 2.612695 0.023001
v 0.190478 2.080487 0.417578
v 0.129239 3.942065 0.188702
v 0.485739 1.115783 0.065155
v -0.218602 2.637340 -0.302512
v -0.362467 2.692378 0.197686
v -0.113881 3.631382 0.235761
v 0.011443 4.121553 -0.086848
v -0.455752 1.135283 -0.209114
v -0.385258 0.554229 0.170689
v 0.268320 0.309266 0.262858
v -0.298877 0.697151 0.358962
v -0.005648 0.178897 -0.360629
v 0.344411 1.288823 0.385065
v 0.193753 0.506322 0.405019
v -0.075458 3.189897 0.346893
v -0.069616 0.140001 0.270576
v -0.070826 4.099072 0.092515
v -0.344312 0.455774 -0.198514
v 0.282206 0.732462 -0.361945
v -0.176903 0.548140 -0.397875
vt 0.8024 0.5354
vt 0.8032 0.5426
vt 0.7965 0.5635
vt 0.7912 0.5481
vt 0.7875 0.5631
vt 0.7879 0.5425
vt 0.7906 0.5916
vt 0.7872 0.5849
vt 0.7909 0.5698
vt 0.7930 0.5358
vt 0.7947 0.5236
vt 0.7979 0.5231
vt 0.7986 0.5295
vt 0.7846 0.5370
vt 0.7842 0.5576
vt 0.7805 0.5522
vt 0.7764 0.5673
vt 0.7801 0.5727
vt 0.7782 0.5866
vt 0.8515 0.5726
vt 0.8455 0.5933
vt 0.8486 0.5617
vt 0.8499 0.5372
vt 0.8428 0.5302
vt 0.8461 0.5270
vt 0.7764 0.5292
vt 0.7824 0.5208
vt 0.7805 0.5331
vt 0.8379 0.5426
vt 0.8418 0.5467
vt 0.8358 0.5516
vt 0.8337 0.5606
vt 0.8320 0.5854
vt 0.8278 0.5531
vt 0.8323 0.5447
vt 0.8309 0.5289
vt 0.8334 0.5260
vt 0.8344 0.5358
vt 0.8368 0.5329
vt 0.8220 0.5456
vt 0.8261 0.5779
vt 0.8227 0.5761
vt 0.8102 0.5579
vt 0.8031 0.5799
vt 0.8072 0.5538
vt 0.8041 0.5498
vt 0.8082 0.5368
vt 0.8164 0.5249
vt 0.8206 0.5237
vt 0.8192 0.5353
vt 0.8248 0.5225
vt 0.8265 0.5173
vt 0.8007 0.5122
vt 0.7977 0.5179
vt 0.7945 0.5123
vt 0.8358 0.5232
vt 0.8303 0.5228
vt 0.8289 0.6172
vt 0.8262 0.6119
vt 0.8296 0.6137
vt 0.8302 0.6102
vt 0.8328 0.6056
vt 0.8349 0.6121
vt 0.7853 0.6057
vt 0.7846 0.5919
vt 0.7880 0.5986
vt 0.7865 0.6077
vt 0.7877 0.6097
vt 0.7891 0.6007
vt 0.7918 0.6058
vt 0.7968 0.5417
vt 0.7764 0.5483
vt 0.8507 0.5549
vt 0.8478 0.5440
vt 0.8457 0.5509
vt 0.8426 0.5825
vt 0.8405 0.5760
vt 0.7865 0.5247
vt 0.7897 0.5303
vt 0.8397 0.5558
vt 0.8345 0.5808
vt 0.8164 0.5592
vt 0.8192 0.5524
vt 0.8199 0.5828
vt 0.8001 0.5759
vt 0.7973 0.5707
vt 0.8112 0.5409
vt 0.8123 0.5238
vt 0.8074 0.5296
vt 0.8067 0.5232
vt 0.8164 0.5421
vt 0.8234 0.5340
vt 0.8264 0.5373
vt 0.8065 0.5180
vt 0.8009 0.5174
vt 0.8282 0.5122
vt 0.8353 0.5145
vt 0.8320 0.5177
vt 0.8342 0.6156
vt 0.7838 0.6078
vt 0.7826 0.6058
vt 0.7819 0.5920
vt 0.7838 0.5781
vt 0.7800 0.6059
vt 0.8395 0.6140
vt 0.8390 0.5200
vt 0.8423 0.5168
vt 0.8011 0.5226
vt 0.8278 0.5257
vt 0.8018 0.5290
vt 0.7933 0.5968
vt 0.7960 0.6019
vt 0.8235 0.6065
vt 0.8353 0.6010
vt 0.7915 0.5180
vt 0.7883 0.5124
vt 0.8407 0.5371
vt 0.8374 0.6075
vt 0.8268 0.6084
vt 0.8223 0.5186
vn 0.4283 -0.0606 0.9016
vn 0.6417 0.0041 0.7669
vn 0.3406 0.0596 0.9383
vn -0.1987 0.0335 0.9795
vn -0.3954 0.0809 0.9149
vn -0.5542 -0.0027 0.8324
vn 0.3079 0.1540 0.9389
vn -0.2424 0.1508 0.9584
vn 0.0127 0.0833 0.9964
vn -0.2594 -0.0609 0.9639
vn -0.3961 -0.3035 0.8666
vn 0.0004 -0.4120 0.9112
vn 0.0553 -0.1244 0.9907
vn -0.8333 -0.0459 0.5510
vn -0.7362 0.0649 0.6736
vn -0.9362 0.0404 0.3492
vn -0.9917 0.1219 0.0405
vn -0.9000 0.1406 0.4125
vn -0.9777 0.1880 -0.0940
vn -0.9234 0.1005 -0.3703
vn -0.9698 -0.1319 -0.2050
vn -0.8102 -0.2476 -0.5312
vn -0.9637 -0.2560 -0.0756
vn -0.9746 -0.0790 0.2095
vn -0.3883 -0.0923 -0.9169
vn -0.6446 -0.0283 -0.7640
vn -0.1727 0.0131 -0.9849
vn 0.1039 0.0835 -0.9911
vn 0.3975 0.1302 -0.9083
vn 0.5494 0.0445 -0.8344
vn 0.2703 -0.0366 -0.9621
vn 0.3278 -0.2707 -0.9051
vn 0.0114 -0.5210 -0.8535
vn -0.1036 -0.1356 -0.9853
vn -0.5126 -0.2151 -0.8312
vn 0.8221 -0.0187 -0.5690
vn 0.7024 0.1051 -0.7040
vn 0.8939 0.0989 -0.4373
vn 0.9977 0.0590 0.0331
vn 0.9945 0.0991 0.0341
vn 0.9418 0.0403 0.3338
vn 0.7861 0.0441 0.6165
vn 0.9021 -0.0569 0.4277
vn 0.9315 -0.2747 0.2383
vn 0.9001 -0.4354 -0.0134
vn 0.9700 -0.1209 -0.2108
vn 0.7524 -0.6125 -0.2425
vn 0.5045 -0.8606 0.0703
vn 0.1386 -0.9121 0.3857
vn -0.2336 -0.6722 0.7025
vn -0.4060 -0.8606 0.3074
vn -0.4392 -0.6079 -0.6615
vn 0.2750 -0.8427 -0.4628
vn 0.4598 0.8498 0.2578
vn 0.9153 0.3397 0.2164
vn 0.4832 0.6826 -0.5482
vn 0.4757 0.3056 -0.8248
vn -0.0695 0.2693 -0.9605
vn -0.3576 0.5243 -0.7728
vn -0.3373 0.4653 0.8184
vn -0.5724 0.2311 0.7868
vn -0.0153 0.2462 0.9691
vn -0.0566 0.7057 0.7062
vn 0.5067 0.2808 0.8151
vn 0.1122 0.0019 0.9937
vn -0.9982 0.0260 -0.0533
vn -0.8772 -0.0358 -0.4787
vn -0.7708 0.0564 -0.6345
vn -0.8485 0.1554 -0.5058
vn -0.6403 0.1294 -0.7572
vn -0.8990 -0.2129 0.3826
vn -0.6763 -0.1493 0.7214
vn -0.4375 0.0878 -0.8949
vn -0.1511 0.1297 -0.9800
vn 0.9658 0.0227 -0.2583
vn 0.8718 0.1063 0.4783
vn 0.6252 0.0964 0.7745
vn 0.9947 -0.0365 0.0964
vn 0.7538 -0.1676 0.6353
vn 0.6791 -0.4295 0.5952
vn 0.8616 -0.2172 -0.4587
vn 0.6561 -0.1114 -0.7464
vn 0.6660 -0.6351 0.3914
vn 0.2941 -0.6797 0.6719
vn -0.0984 -0.9818 -0.1625
vn -0.4859 0.8606 -0.1529
vn -0.8252 0.4737 0.3077
vn -0.8838 0.2242 0.4106
vn -0.6395 0.1512 0.7537
vn -0.9181 0.3395 -0.2048
vn -0.6753 -0.6825 -0.2796
vn -0.8206 -0.5469 0.1658
vn 0.3566 -0.4643 0.8107
vn 0.6352 -0.4529 -0.6256
vn 0.4178 -0.2237 0.8806
vn 0.7406 0.1643 0.6516
vn 0.9821 0.1640 0.0929
vn -0.4142 0.1875 -0.8907
vn -0.6649 -0.4594 0.5889
vn -0.7304 -0.1470 -0.6670
vn -0.6988 0.2584 -0.6670
vn 0.8732 0.2044 -0.4425
usemtl None
s 1
f 1/1/1 95/2/2 83/3/3
f 4/4/4 45/5/5 63/6/6
f 3/7/7 97/8/8 35/9/9
f 4/4/4 63/6/6 57/10/10
f 7/11/11 73/12/12 34/13/13
f 6/14/14 50/15/15 33/16/16
f 9/17/17 87/18/18 79/19/19
f 9/20/17 79/21/19 70/22/20
f 12/23/21 100/24/22 42/25/23
f 12/26/21 42/27/23 69/28/24
f 15/29/25 56/30/26 67/31/27
f 16/32/28 76/33/29 39/34/30
f 16/32/28 39/34/30 29/35/31
f 19/36/32 94/37/33 52/38/34
f 15/29/25 102/39/35 56/30/26
f 18/40/36 62/41/37 55/42/38
f 21/43/39 82/44/40 37/45/41
f 2/46/42 95/2/2 59/47/43
f 22/48/44 60/49/45 66/50/46
f 23/51/47 60/49/45 28/52/48
f 24/53/49 98/54/50 72/55/51
f 13/56/52 94/37/33 65/57/53
f 25/58/54 38/59/55 48/60/56
f 17/61/57 36/62/58 89/63/59
f 27/64/60 88/65/61 46/66/62
f 27/64/60 46/66/62 54/67/63
f 25/68/54 84/69/64 38/70/55
f 4/4/4 74/71/65 35/9/9
f 4/4/4 57/10/10 74/71/65
f 12/26/21 69/28/24 53/72/66
f 12/23/21 53/73/66 90/74/67
f 11/75/68 47/76/69 86/77/70
f 12/23/21 90/74/67 100/24/22
f 6/14/14 91/78/71 93/79/72
f 16/32/28 49/80/73 64/81/74
f 16/32/28 64/81/74 76/33/29
f 16/32/28 29/35/31 67/31/27
f 21/82/39 43/83/75 82/84/40
f 2/46/42 44/85/76 71/86/77
f 21/43/39 37/45/41 85/87/78
f 22/88/44 78/89/79 92/90/80
f 21/82/39 85/91/78 43/83/75
f 18/40/36 58/92/81 101/93/82
f 24/53/49 81/94/83 40/95/84
f 24/53/49 40/95/84 98/54/50
f 24/96/49 72/97/51 51/98/85
f 24/96/49 51/98/85 28/52/48
f 25/58/54 48/60/56 61/99/86
f 25/68/54 61/100/86 54/67/63
f 27/64/60 99/101/87 88/65/61
f 88/65/61 75/102/88 5/103/89
f 88/65/61 99/101/87 75/102/88
f 99/101/87 10/104/90 75/102/88
f 54/67/63 99/101/87 27/64/60
f 54/67/63 61/100/86 99/101/87
f 61/100/86 10/104/90 99/101/87
f 61/99/86 89/63/59 10/105/90
f 61/99/86 48/60/56 89/63/59
f 48/60/56 17/61/57 89/63/59
f 28/52/48 65/57/53 23/51/47
f 28/52/48 51/98/85 65/57/53
f 51/98/85 13/56/52 65/57/53
f 51/98/85 41/106/91 13/56/52
f 51/98/85 72/97/51 41/106/91
f 72/97/51 14/107/92 41/106/91
f 98/54/50 73/12/12 7/11/11
f 98/54/50 40/95/84 73/12/12
f 40/95/84 8/108/93 73/12/12
f 40/95/84 92/90/80 8/108/93
f 40/95/84 81/94/83 92/90/80
f 81/94/83 22/88/44 92/90/80
f 101/93/82 31/109/94 19/36/32
f 101/93/82 58/92/81 31/109/94
f 58/92/81 23/51/47 31/109/94
f 43/83/75 66/50/46 18/40/36
f 43/83/75 85/91/78 66/50/46
f 85/91/78 22/48/44 66/50/46
f 92/90/80 96/110/95 8/108/93
f 92/90/80 78/89/79 96/110/95
f 78/89/79 1/1/1 96/110/95
f 85/87/78 59/47/43 22/88/44
f 85/87/78 37/45/41 59/47/43
f 37/45/41 2/46/42 59/47/43
f 71/86/77 68/111/96 3/7/7
f 71/86/77 44/85/76 68/111/96
f 44/85/76 20/112/97 68/111/96
f 82/84/40 55/42/38 20/113/97
f 82/84/40 43/83/75 55/42/38
f 43/83/75 18/40/36 55/42/38
f 67/31/27 52/38/34 15/29/25
f 67/31/27 29/35/31 52/38/34
f 29/35/31 19/36/32 52/38/34
f 76/33/29 36/62/58 17/61/57
f 76/33/29 64/81/74 36/62/58
f 64/81/74 26/114/98 36/62/58
f 64/81/74 86/77/70 26/114/98
f 64/81/74 49/80/73 86/77/70
f 49/80/73 11/75/68 86/77/70
f 93/79/72 77/115/99 7/11/11
f 93/79/72 91/78/71 77/115/99
f 91/78/71 14/116/92 77/115/99
f 100/24/22 80/117/100 13/56/52
f 100/24/22 90/74/67 80/117/100
f 90/74/67 11/75/68 80/117/100
f 86/77/70 30/118/101 26/114/98
f 86/77/70 47/76/69 30/118/101
f 47/76/69 10/105/90 30/118/101
f 90/74/67 70/22/20 11/75/68
f 90/74/67 53/73/66 70/22/20
f 53/73/66 9/20/17 70/22/20
f 53/72/66 33/16/16 9/17/17
f 53/72/66 69/28/24 33/16/16
f 69/28/24 6/14/14 33/16/16
f 74/71/65 34/13/13 1/1/1
f 74/71/65 57/10/10 34/13/13
f 57/10/10 7/11/11 34/13/13
f 35/9/9 83/3/3 3/7/7
f 35/9/9 74/71/65 83/3/3
f 74/71/65 1/1/1 83/3/3
f 38/70/55 68/111/96 20/112/97
f 38/70/55 84/69/64 68/111/96
f 84/69/64 3/7/7 68/111/96
f 54/67/63 84/69/64 25/68/54
f 54/67/63 46/66/62 84/69/64
f 46/66/62 3/7/7 84/69/64
f 46/66/62 97/8/8 3/7/7
f 46/66/62 88/65/61 97/8/8
f 88/65/61 5/103/89 97/8/8
f 89/63/59 30/118/101 10/105/90
f 89/63/59 36/62/58 30/118/101
f 36/62/58 26/114/98 30/118/101
f 48/60/56 32/119/102 17/61/57
f 48/60/56 38/59/55 32/119/102
f 38/59/55 20/113/97 32/119/102
f 65/57/53 31/109/94 23/51/47
f 65/57/53 94/37/33 31/109/94
f 94/37/33 19/36/32 31/109/94
f 72/55/51 77/115/99 14/116/92
f 72/55/51 98/54/50 77/115/99
f 98/54/50 7/11/11 77/115/99
f 28/52/48 81/120/83 24/96/49
f 28/52/48 60/49/45 81/120/83
f 60/49/45 22/48/44 81/120/83
f 66/50/46 58/92/81 18/40/36
f 66/50/46 60/49/45 58/92/81
f 60/49/45 23/51/47 58/92/81
f 59/47/43 78/89/79 22/88/44
f 59/47/43 95/2/2 78/89/79
f 95/2/2 1/1/1 78/89/79
f 37/45/41 44/85/76 2/46/42
f 37/45/41 82/44/40 44/85/76
f 82/44/40 20/112/97 44/85/76
f 55/42/38 32/119/102 20/113/97
f 55/42/38 62/41/37 32/119/102
f 62/41/37 17/61/57 32/119/102
f 56/30/26 80/117/100 11/75/68
f 56/30/26 102/39/35 80/117/100
f 102/39/35 13/56/52 80/117/100
f 52/38/34 102/39/35 15/29/25
f 52/38/34 94/37/33 102/39/35
f 94/37/33 13/56/52 102/39/35
f 29/35/31 101/93/82 19/36/32
f 29/35/31 39/34/30 101/93/82
f 39/34/30 18/40/36 101/93/82
f 39/34/30 62/41/37 18/40/36
f 39/34/30 76/33/29 62/41/37
f 76/33/29 17/61/57 62/41/37
f 67/31/27 49/80/73 16/32/28
f 67/31/27 56/30/26 49/80/73
f 56/30/26 11/75/68 49/80/73
f 69/28/24 91/78/71 6/14/14
f 69/28/24 42/27/23 91/78/71
f 42/27/23 14/116/92 91/78/71
f 42/25/23 41/106/91 14/107/92
f 42/25/23 100/24/22 41/106/91
f 100/24/22 13/56/52 41/106/91
f 70/22/20 47/76/69 11/75/68
f 70/22/20 79/21/19 47/76/69
f 79/21/19 10/105/90 47/76/69
f 79/19/19 75/102/88 10/104/90
f 79/19/19 87/18/18 75/102/88
f 87/18/18 5/103/89 75/102/88
f 33/16/16 87/18/18 9/17/17
f 33/16/16 50/15/15 87/18/18
f 50/15/15 5/103/89 87/18/18
f 34/13/13 96/110/95 1/1/1
f 34/13/13 73/12/12 96/110/95
f 73/12/12 8/108/93 96/110/95
f 57/10/10 93/79/72 7/11/11
f 57/10/10 63/6/6 93/79/72
f 63/6/6 6/14/14 93/79/72
f 35/9/9 45/5/5 4/4/4
f 35/9/9 97/8/8 45/5/5
f 97/8/8 5/103/89 45/5/5
f 63/6/6 50/15/15 6/14/14
f 63/6/6 45/5/5 50/15/15
f 45/5/5 5/103/89 50/15/15
f 83/3/3 71/86/77 3/7/7
f 83/3/3 95/2/2 71/86/77
f 95/2/2 2/46/42 71/86/77
