# Blender v2.78 (sub 0) OBJ File: ''
# www.blender.org
mtllib Thuja_BushTree_s_01.mtl
o Thuja_BushTree_s_01
v -0.435054 0.599907 -0.131885
v -0.416368 0.652161 0.188057
v -0.322053 1.164521 -0.008473
v -0.458200 0.151660 -0.083506
v -0.338492 0.019457 -0.162928
v -0.378750 0.012015 0.051718
v -0.278356 0.180597 -0.375145
v -0.383502 0.163518 0.261380
v -0.123170 0.688869 -0.431294
v -0.172442 1.284558 -0.222961
v 0.147920 1.306468 -0.215007
v -0.081399 0.154208 0.462793
v -0.073888 0.008683 0.362325
v 0.254535 0.144531 0.385362
v 0.051899 1.542823 0.101682
v 0.157716 1.209089 0.255446
v 0.258330 1.375568 0.050192
v 0.102437 0.095727 -0.422118
v -0.124471 -0.054120 0.103232
v -0.087012 -0.033765 -0.239459
v 0.275139 -0.025212 -0.072220
v 0.108179 1.595562 -0.022975
v -0.084471 1.552881 -0.075576
v -0.144330 1.308106 0.181924
v 0.259077 -0.015203 0.182612
v 0.399187 0.189436 -0.257549
v -0.074946 0.015070 -0.387298
v 0.100607 0.622231 0.442536
v -0.274112 0.555464 0.384076
v 0.373680 0.660571 0.269595
v 0.436142 0.753015 -0.095976
v 0.448449 0.161660 0.085132
v 0.291355 0.591666 -0.366712
v -0.359327 0.613961 0.292203
v 0.128367 1.506753 -0.102850
v 0.094329 0.047004 0.387290
v -0.146972 0.067576 -0.393144
v 0.280077 0.130436 -0.345830
v -0.262428 1.240977 -0.120063
v 0.139783 0.940837 0.349214
v -0.286219 -0.018480 0.082627
v 0.097716 1.411329 0.175009
v -0.342714 0.343311 0.350159
v 0.335258 0.369965 0.341799
v 0.376271 0.150175 0.248571
v 0.426936 0.718768 0.091992
v -0.245885 -0.031415 -0.043540
v 0.390532 0.040881 0.001387
v -0.026835 0.985388 0.331409
v -0.010704 0.370167 -0.457834
v 0.193823 0.356691 0.437442
v 0.267665 0.955701 0.280115
v -0.385387 0.057765 0.145481
v -0.308605 0.971752 -0.200401
v 0.379383 0.692774 -0.248552
v -0.129085 1.484779 0.043700
v -0.239778 0.148106 0.393466
v -0.363381 0.009542 -0.047257
v 0.354782 0.056397 -0.176417
v 0.093554 -0.011899 0.280460
v 0.175124 1.527392 0.001645
v -0.208490 1.394303 -0.045187
v -0.451285 0.365183 0.072497
v -0.095137 -0.056275 -0.073017
v -0.424635 0.407083 0.227095
v 0.270146 0.041796 0.284621
v 0.098455 0.651440 -0.417443
v 0.232069 1.367308 -0.084360
v -0.085793 0.062128 0.422430
v -0.429045 0.068476 -0.000402
v -0.105031 -0.023715 0.251007
v 0.371612 0.042096 0.142786
v 0.034116 -0.007754 -0.328136
v -0.022998 1.577271 0.023170
v -0.026144 1.324191 -0.243256
v 0.441086 0.177105 -0.095417
v 0.205692 0.336577 -0.417762
v -0.124174 1.445077 -0.155448
v 0.020677 1.018369 -0.346517
v -0.448240 0.167147 0.075779
v -0.458365 0.325178 -0.104007
v 0.355072 1.086900 -0.015447
v 0.228940 0.928936 -0.305653
v -0.082751 -0.001383 -0.341280
v 0.314832 1.057991 -0.166965
v 0.255037 0.629937 0.381322
v -0.184590 0.334312 0.436754
v -0.446921 0.609924 0.053146
v 0.021816 1.489922 -0.154228
v -0.201633 0.047790 -0.319919
v 0.279620 -0.026199 0.068421
v -0.095871 0.154900 -0.437526
v -0.018248 0.029859 -0.408474
v 0.155696 1.495923 0.089111
v -0.225707 -0.007716 -0.200062
v 0.027533 1.591707 -0.055239
v 0.219880 1.296954 0.167492
v -0.216997 0.907563 0.301534
v 0.430812 0.390364 0.186448
v -0.324525 0.082307 -0.272039
v -0.305451 0.980393 0.192640
v -0.228808 0.053207 0.334593
v -0.299065 0.666531 -0.314613
v 0.465620 0.433547 -0.004258
v -0.217899 0.408684 -0.418602
v 0.093060 -0.057654 0.017902
v 0.087097 -0.047902 0.152645
v -0.253194 1.261294 0.079920
v 0.087392 -0.043595 -0.155368
v 0.083330 0.142265 0.447965
v -0.376718 0.389026 -0.279214
v -0.399876 0.184182 -0.232621
v 0.205891 0.009340 -0.262318
v 0.439644 0.436512 -0.186463
v -0.409240 0.077586 -0.143149
v 0.359300 0.374300 -0.327520
v -0.035332 1.480191 0.132897
v 0.082024 1.589330 0.034358
v -0.380366 0.914650 0.084079
v 0.021544 1.280326 0.236943
v -0.159230 1.018323 -0.324946
v -0.391030 0.907943 -0.062697
v 0.334125 1.035059 0.155594
v 0.013903 0.347259 0.471846
v -0.268589 0.021472 0.210708
v -0.097598 0.610702 0.423360
vt 0.8382 0.5512
vt 0.8435 0.5518
vt 0.8391 0.5686
vt 0.8416 0.5269
vt 0.8404 0.5233
vt 0.8435 0.5233
vt 0.8350 0.5391
vt 0.8399 0.5390
vt 0.8367 0.5270
vt 0.8450 0.5387
vt 0.8468 0.5266
vt 0.8231 0.5563
vt 0.8273 0.5767
vt 0.8224 0.5791
vt 0.7691 0.5260
vt 0.7713 0.5217
vt 0.7746 0.5283
vt 0.7885 0.6144
vt 0.7867 0.6040
vt 0.7909 0.6095
vt 0.8224 0.5360
vt 0.8274 0.5416
vt 0.7837 0.5103
vt 0.7911 0.5103
vt 0.7880 0.5166
vt 0.8340 0.6142
vt 0.8346 0.6112
vt 0.8372 0.6133
vt 0.8352 0.6081
vt 0.8376 0.5971
vt 0.8400 0.6046
vt 0.8404 0.6123
vt 0.8378 0.6102
vt 0.8426 0.6067
vt 0.8285 0.6050
vt 0.8334 0.6026
vt 0.8279 0.6080
vt 0.7940 0.6178
vt 0.7937 0.6113
vt 0.7984 0.6096
vt 0.7836 0.6106
vt 0.7912 0.6161
vt 0.7735 0.5174
vt 0.7786 0.5138
vt 0.7799 0.5208
vt 0.7850 0.5173
vt 0.7923 0.5230
vt 0.8001 0.5224
vt 0.7957 0.5275
vt 0.7985 0.5103
vt 0.8019 0.5118
vt 0.8031 0.5161
vt 0.8345 0.5111
vt 0.8368 0.5154
vt 0.8332 0.5191
vt 0.8483 0.5103
vt 0.8468 0.5150
vt 0.8437 0.5150
vt 0.8531 0.5125
vt 0.8501 0.5183
vt 0.7743 0.5575
vt 0.7717 0.5418
vt 0.7772 0.5440
vt 0.7674 0.5567
vt 0.7793 0.5582
vt 0.7795 0.5755
vt 0.7963 0.5653
vt 0.7929 0.5487
vt 0.7976 0.5487
vt 0.7903 0.5621
vt 0.8007 0.5601
vt 0.7996 0.5834
vt 0.7933 0.6047
vt 0.7948 0.5850
vt 0.7981 0.6030
vt 0.8194 0.5609
vt 0.8122 0.5579
vt 0.8136 0.5414
vt 0.8306 0.5537
vt 0.8489 0.5524
vt 0.8528 0.5511
vt 0.8469 0.5768
vt 0.8400 0.5860
vt 0.8444 0.5692
vt 0.8424 0.5936
vt 0.7863 0.5242
vt 0.7832 0.5274
vt 0.7954 0.5166
vt 0.8319 0.5129
vt 0.8414 0.5107
vt 0.8627 0.5217
vt 0.8573 0.5240
vt 0.8603 0.5182
vt 0.8566 0.5499
vt 0.8542 0.5381
vt 0.8597 0.5358
vt 0.7765 0.5821
vt 0.7787 0.6067
vt 0.7817 0.6001
vt 0.7895 0.5321
vt 0.7909 0.5275
vt 0.7943 0.5321
vt 0.7848 0.5314
vt 0.7879 0.5282
vt 0.7869 0.5455
vt 0.7843 0.5589
vt 0.7888 0.5818
vt 0.7846 0.5762
vt 0.8218 0.5158
vt 0.8255 0.5152
vt 0.8268 0.5214
vt 0.8078 0.5219
vt 0.8064 0.5384
vt 0.8034 0.5270
vt 0.8112 0.5811
vt 0.8504 0.5394
vt 0.8348 0.5741
vt 0.8357 0.5915
vt 0.8315 0.5970
vt 0.8519 0.5263
vt 0.8040 0.5782
vt 0.8050 0.5549
vt 0.8029 0.6014
vt 0.8020 0.5435
vt 0.7990 0.5321
vt 0.8305 0.5209
vt 0.8318 0.5270
vt 0.8293 0.5147
vt 0.7890 0.5991
vt 0.7848 0.5935
vt 0.7893 0.5236
vt 0.7822 0.5447
vt 0.7801 0.5306
vt 0.7696 0.5813
vt 0.7606 0.5559
vt 0.8549 0.5205
vt 0.8579 0.5147
vt 0.8486 0.5230
vt 0.8453 0.5197
vt 0.8391 0.5197
vt 0.7768 0.5240
vt 0.8448 0.6011
vt 0.8507 0.5755
vt 0.7649 0.5410
vt 0.8422 0.5197
vt 0.8354 0.5234
vt 0.8066 0.5176
vt 0.8054 0.5133
vt 0.8218 0.6018
vt 0.8267 0.5994
vn -0.9437 0.1261 -0.3059
vn -0.9932 0.1018 0.0568
vn -0.9542 0.2358 -0.1839
vn -0.9683 -0.1967 -0.1538
vn -0.7897 -0.5172 -0.3299
vn -0.8639 -0.5029 0.0271
vn -0.8011 0.0465 -0.5967
vn -0.9819 0.0203 -0.1882
vn -0.8387 -0.1683 -0.5179
vn -0.9931 -0.0042 0.1173
vn -0.9656 -0.1577 0.2067
vn -0.2420 0.1734 -0.9547
vn -0.4068 0.2796 -0.8697
vn 0.0980 0.2852 -0.9535
vn -0.1544 -0.2136 0.9647
vn -0.1577 -0.5827 0.7973
vn 0.2009 -0.2981 0.9332
vn 0.0400 0.6965 0.7164
vn 0.2166 0.4717 0.8548
vn 0.5715 0.5786 0.5820
vn 0.0120 0.0030 -0.9999
vn -0.4435 0.0333 -0.8957
vn -0.1361 -0.9824 0.1281
vn -0.0882 -0.9928 -0.0812
vn 0.0815 -0.9967 0.0004
vn 0.4156 0.8930 -0.1727
vn -0.0440 0.9236 -0.3809
vn 0.2002 0.8992 0.3890
vn -0.5058 0.7980 -0.3276
vn -0.8504 0.5198 -0.0817
vn -0.6879 0.6281 0.3636
vn -0.3636 0.8795 0.3071
vn -0.3113 0.5716 0.7592
vn 0.0665 0.5823 -0.8103
vn -0.5081 0.5529 -0.6605
vn 0.5129 0.5676 -0.6440
vn 0.7825 0.6227 -0.0052
vn -0.1048 -0.8623 0.4954
vn -0.1657 -0.9467 0.2762
vn 0.1344 -0.9180 0.3732
vn 0.0741 -0.9826 0.1700
vn 0.3634 -0.9204 -0.1443
vn 0.3528 -0.8279 -0.4361
vn 0.6715 -0.6577 -0.3413
vn -0.1425 -0.9582 -0.2480
vn -0.2306 -0.9009 -0.3678
vn 0.1632 -0.8945 -0.4163
vn -0.2951 -0.9000 -0.3209
vn -0.4363 -0.7313 -0.5243
vn -0.3174 -0.9305 0.1825
vn -0.2504 -0.9651 -0.0772
vn -0.4372 -0.8197 0.3701
vn 0.1281 0.1798 0.9753
vn 0.0091 0.0308 0.9995
vn 0.3802 -0.0050 0.9249
vn -0.1934 0.1996 0.9606
vn 0.5151 0.1539 0.8432
vn 0.2114 0.2829 0.9355
vn 0.9667 0.1867 -0.1748
vn 0.9996 0.0194 0.0199
vn 0.9440 0.0242 -0.3290
vn 0.9658 0.1586 0.2051
vn 0.8077 0.1899 -0.5582
vn 0.8048 0.3082 -0.5072
vn 0.8878 0.4234 0.1804
vn 0.9552 0.2911 -0.0537
vn 0.8136 0.4022 -0.4199
vn 0.2000 0.1619 -0.9663
vn -0.6986 0.1715 -0.6947
vn -0.9153 0.1784 0.3611
vn -0.7476 0.1919 0.6359
vn -0.7558 0.3174 0.5727
vn -0.9353 0.3530 0.0257
vn -0.9336 0.2650 0.2410
vn -0.8130 0.4265 0.3965
vn 0.3370 -0.8985 0.2813
vn 0.4866 -0.6894 0.5365
vn 0.1094 -0.9795 -0.1691
vn -0.5222 -0.2994 0.7985
vn -0.4842 0.1641 0.8594
vn -0.6857 -0.0336 0.7271
vn -0.3354 0.0190 0.9419
vn -0.1497 0.3018 0.9416
vn -0.4997 0.4210 0.7570
vn -0.0871 0.3727 0.9239
vn 0.9554 -0.2497 0.1577
vn 0.7511 -0.6584 -0.0481
vn 0.9517 -0.2571 -0.1678
vn 0.8089 -0.2876 0.5129
vn 0.7121 -0.6477 0.2708
vn 0.9327 0.0016 0.3606
vn 0.8208 0.1473 0.5519
vn 0.8740 0.2737 0.4016
vn 0.6186 0.2704 0.7377
vn 0.2653 -0.4146 -0.8705
vn 0.0451 -0.6271 -0.7776
vn -0.1669 -0.1764 -0.9701
vn 0.3533 -0.0338 -0.9349
vn 0.5367 -0.4171 -0.7334
vn -0.9269 -0.0035 0.3752
vn -0.7899 0.2475 -0.5610
vn -0.8462 0.3689 -0.3844
vn -0.5375 0.3882 -0.7486
vn -0.8024 -0.3195 0.5040
vn 0.4961 0.2713 -0.8248
vn 0.5281 0.1437 -0.8369
vn 0.4558 0.3843 -0.8028
vn 0.7078 -0.0121 -0.7063
vn 0.8229 -0.2694 -0.5002
vn -0.4007 -0.5245 -0.7513
vn -0.5646 -0.2336 -0.7916
vn -0.2062 -0.7765 -0.5954
vn 0.6534 0.3929 0.6471
vn 0.3271 0.3585 0.8743
vn 0.3562 -0.9320 0.0670
vn 0.7219 -0.0153 0.6918
vn 0.5295 -0.3309 0.7811
vn -0.4578 0.3002 0.8368
vn -0.4844 -0.6937 0.5330
vn -0.7000 -0.6038 0.3814
vn -0.5812 -0.8022 0.1369
vn -0.4840 -0.8128 -0.3243
vn 0.2164 -0.6986 0.6819
vn -0.5217 -0.8457 -0.1123
vn -0.5855 -0.5652 -0.5811
vn -0.0269 0.4021 -0.9152
usemtl None
s 1
f 1/1/1 88/2/2 122/3/3
f 4/4/4 115/5/5 70/6/6
f 1/1/1 111/7/7 81/8/8
f 4/4/4 112/9/9 115/5/5
f 1/1/1 63/10/10 88/2/2
f 4/4/4 70/6/6 80/11/11
f 9/12/12 121/13/13 79/14/14
f 12/15/15 69/16/16 110/17/17
f 15/18/18 42/19/19 94/20/20
f 1/1/1 81/8/8 63/10/10
f 9/12/12 50/21/21 105/22/22
f 19/23/23 64/24/24 106/25/25
f 22/26/26 96/27/27 118/28/28
f 23/29/29 62/30/30 56/31/31
f 15/32/18 74/33/32 117/34/33
f 23/29/29 89/35/34 78/36/35
f 22/26/26 35/37/36 96/27/27
f 22/38/26 61/39/37 35/40/36
f 15/18/18 117/41/33 42/19/19
f 22/38/26 118/42/28 61/39/37
f 13/43/38 71/44/39 60/45/40
f 19/23/23 106/25/25 107/46/41
f 21/47/42 113/48/43 59/49/44
f 20/50/45 84/51/46 73/52/47
f 20/53/45 95/54/48 90/55/49
f 19/56/23 41/57/50 47/58/51
f 19/56/23 71/59/39 125/60/52
f 28/61/53 124/62/54 51/63/55
f 28/61/53 126/64/56 124/62/54
f 28/61/53 86/65/57 40/66/58
f 31/67/59 104/68/60 114/69/61
f 31/67/59 46/70/62 104/68/60
f 31/67/59 55/71/63 85/72/64
f 17/73/65 82/74/66 68/75/67
f 9/76/12 67/77/68 50/78/21
f 1/1/1 103/79/69 111/7/7
f 2/80/70 34/81/71 101/82/72
f 3/83/73 119/84/74 108/85/75
f 23/29/29 78/36/35 62/30/30
f 25/86/76 66/87/77 60/45/40
f 20/50/45 73/52/47 109/88/78
f 20/53/45 90/55/49 84/89/46
f 19/56/23 47/58/51 64/90/24
f 19/56/23 125/60/52 41/57/50
f 28/61/53 51/63/55 86/65/57
f 12/91/15 57/92/79 69/93/16
f 29/94/80 43/95/81 87/96/82
f 28/61/53 49/97/83 126/64/56
f 24/98/84 49/97/83 120/99/85
f 32/100/86 48/101/87 76/102/88
f 31/67/59 114/69/61 55/71/63
f 32/100/86 45/103/89 72/104/90
f 32/100/86 99/105/91 45/103/89
f 32/100/86 72/104/90 48/101/87
f 30/106/92 123/107/93 52/108/94
f 31/67/59 82/74/66 46/70/62
f 18/109/95 93/110/96 92/111/97
f 18/112/95 77/113/98 38/114/99
f 9/76/12 79/115/14 67/77/68
f 2/80/70 65/116/100 34/81/71
f 1/1/1 54/117/101 103/79/69
f 1/1/1 122/3/3 54/117/101
f 54/117/101 39/118/102 10/119/103
f 54/117/101 122/3/3 39/118/102
f 122/3/3 3/83/73 39/118/102
f 103/79/69 121/13/13 9/12/12
f 103/79/69 54/117/101 121/13/13
f 54/117/101 10/119/103 121/13/13
f 34/81/71 43/95/81 29/94/80
f 34/81/71 65/116/100 43/95/81
f 65/116/100 8/120/104 43/95/81
f 67/77/68 83/121/105 33/122/106
f 67/77/68 79/115/14 83/121/105
f 79/115/14 11/123/107 83/121/105
f 38/114/99 116/124/108 26/125/109
f 38/114/99 77/113/98 116/124/108
f 77/113/98 33/122/106 116/124/108
f 92/111/97 37/126/110 7/127/111
f 92/111/97 93/110/96 37/126/110
f 93/110/96 27/128/112 37/126/110
f 46/70/62 123/107/93 30/106/92
f 46/70/62 82/74/66 123/107/93
f 82/74/66 17/73/65 123/107/93
f 52/108/94 97/129/113 16/130/114
f 52/108/94 123/107/93 97/129/113
f 123/107/93 17/73/65 97/129/113
f 48/101/87 91/131/115 21/47/42
f 48/101/87 72/104/90 91/131/115
f 72/104/90 25/86/76 91/131/115
f 45/103/89 44/132/116 14/133/117
f 45/103/89 99/105/91 44/132/116
f 99/105/91 30/106/92 44/132/116
f 72/104/90 66/87/77 25/86/76
f 72/104/90 45/103/89 66/87/77
f 45/103/89 14/133/117 66/87/77
f 55/71/63 116/124/108 33/122/106
f 55/71/63 114/69/61 116/124/108
f 114/69/61 26/125/109 116/124/108
f 76/102/88 59/49/44 26/125/109
f 76/102/88 48/101/87 59/49/44
f 48/101/87 21/47/42 59/49/44
f 120/99/85 40/66/58 16/130/114
f 120/99/85 49/97/83 40/66/58
f 49/97/83 28/61/53 40/66/58
f 126/64/56 98/134/118 29/135/80
f 126/64/56 49/97/83 98/134/118
f 49/97/83 24/98/84 98/134/118
f 87/96/82 57/92/79 12/91/15
f 87/96/82 43/95/81 57/92/79
f 43/95/81 8/120/104 57/92/79
f 69/93/16 102/136/119 13/137/38
f 69/93/16 57/92/79 102/136/119
f 57/92/79 8/120/104 102/136/119
f 86/65/57 44/132/116 30/106/92
f 86/65/57 51/63/55 44/132/116
f 51/63/55 14/133/117 44/132/116
f 41/57/50 53/138/120 6/139/121
f 41/57/50 125/60/52 53/138/120
f 125/60/52 8/120/104 53/138/120
f 64/90/24 95/54/48 20/53/45
f 64/90/24 47/58/51 95/54/48
f 47/58/51 5/140/122 95/54/48
f 84/89/46 37/126/110 27/128/112
f 84/89/46 90/55/49 37/126/110
f 90/55/49 7/127/111 37/126/110
f 109/88/78 113/48/43 21/47/42
f 109/88/78 73/52/47 113/48/43
f 73/52/47 18/112/95 113/48/43
f 60/45/40 36/141/123 13/43/38
f 60/45/40 66/87/77 36/141/123
f 66/87/77 14/133/117 36/141/123
f 62/30/30 39/118/102 3/83/73
f 62/30/30 78/36/35 39/118/102
f 78/36/35 10/119/103 39/118/102
f 108/85/75 101/82/72 24/142/84
f 108/85/75 119/84/74 101/82/72
f 119/84/74 2/80/70 101/82/72
f 101/82/72 98/143/118 24/142/84
f 101/82/72 34/81/71 98/143/118
f 34/81/71 29/94/80 98/143/118
f 111/7/7 105/22/22 7/127/111
f 111/7/7 103/79/69 105/22/22
f 103/79/69 9/12/12 105/22/22
f 50/78/21 77/113/98 18/112/95
f 50/78/21 67/77/68 77/113/98
f 67/77/68 33/122/106 77/113/98
f 68/75/67 85/72/64 11/123/107
f 68/75/67 82/74/66 85/72/64
f 82/74/66 31/67/59 85/72/64
f 85/72/64 83/121/105 11/123/107
f 85/72/64 55/71/63 83/121/105
f 55/71/63 33/122/106 83/121/105
f 104/68/60 99/105/91 32/100/86
f 104/68/60 46/70/62 99/105/91
f 46/70/62 30/106/92 99/105/91
f 114/69/61 76/102/88 26/125/109
f 114/69/61 104/68/60 76/102/88
f 104/68/60 32/100/86 76/102/88
f 40/66/58 52/108/94 16/130/114
f 40/66/58 86/65/57 52/108/94
f 86/65/57 30/106/92 52/108/94
f 124/62/54 87/144/82 12/15/15
f 124/62/54 126/64/56 87/144/82
f 126/64/56 29/135/80 87/144/82
f 51/63/55 110/17/17 14/133/117
f 51/63/55 124/62/54 110/17/17
f 124/62/54 12/15/15 110/17/17
f 125/60/52 102/136/119 8/120/104
f 125/60/52 71/59/39 102/136/119
f 71/59/39 13/137/38 102/136/119
f 47/58/51 58/145/124 5/140/122
f 47/58/51 41/57/50 58/145/124
f 41/57/50 6/139/121 58/145/124
f 90/55/49 100/146/125 7/127/111
f 90/55/49 95/54/48 100/146/125
f 95/54/48 5/140/122 100/146/125
f 73/52/47 93/147/96 18/112/95
f 73/52/47 84/51/46 93/147/96
f 84/51/46 27/148/112 93/147/96
f 59/49/44 38/114/99 26/125/109
f 59/49/44 113/48/43 38/114/99
f 113/48/43 18/112/95 38/114/99
f 107/46/41 91/131/115 25/86/76
f 107/46/41 106/25/25 91/131/115
f 106/25/25 21/47/42 91/131/115
f 60/45/40 107/46/41 25/86/76
f 60/45/40 71/44/39 107/46/41
f 71/44/39 19/23/23 107/46/41
f 61/39/37 94/20/20 17/73/65
f 61/39/37 118/42/28 94/20/20
f 118/42/28 15/18/18 94/20/20
f 42/19/19 120/99/85 16/130/114
f 42/19/19 117/41/33 120/99/85
f 117/41/33 24/98/84 120/99/85
f 35/40/36 68/75/67 11/123/107
f 35/40/36 61/39/37 68/75/67
f 61/39/37 17/73/65 68/75/67
f 96/27/27 89/35/34 23/29/29
f 96/27/27 35/37/36 89/35/34
f 35/37/36 11/149/107 89/35/34
f 78/36/35 75/150/126 10/119/103
f 78/36/35 89/35/34 75/150/126
f 89/35/34 11/149/107 75/150/126
f 117/34/33 56/31/31 24/142/84
f 117/34/33 74/33/32 56/31/31
f 74/33/32 23/29/29 56/31/31
f 56/31/31 108/85/75 24/142/84
f 56/31/31 62/30/30 108/85/75
f 62/30/30 3/83/73 108/85/75
f 118/28/28 74/33/32 15/32/18
f 118/28/28 96/27/27 74/33/32
f 96/27/27 23/29/29 74/33/32
f 106/25/25 109/88/78 21/47/42
f 106/25/25 64/24/24 109/88/78
f 64/24/24 20/50/45 109/88/78
f 105/22/22 92/111/97 7/127/111
f 105/22/22 50/21/21 92/111/97
f 50/21/21 18/109/95 92/111/97
f 63/10/10 80/11/11 8/120/104
f 63/10/10 81/8/8 80/11/11
f 81/8/8 4/4/4 80/11/11
f 94/20/20 97/129/113 17/73/65
f 94/20/20 42/19/19 97/129/113
f 42/19/19 16/130/114 97/129/113
f 110/17/17 36/141/123 14/133/117
f 110/17/17 69/16/16 36/141/123
f 69/16/16 13/43/38 36/141/123
f 79/14/14 75/150/126 11/149/107
f 79/14/14 121/13/13 75/150/126
f 121/13/13 10/119/103 75/150/126
f 80/11/11 53/138/120 8/120/104
f 80/11/11 70/6/6 53/138/120
f 70/6/6 6/139/121 53/138/120
f 88/2/2 65/116/100 2/80/70
f 88/2/2 63/10/10 65/116/100
f 63/10/10 8/120/104 65/116/100
f 115/5/5 100/146/125 5/140/122
f 115/5/5 112/9/9 100/146/125
f 112/9/9 7/127/111 100/146/125
f 81/8/8 112/9/9 4/4/4
f 81/8/8 111/7/7 112/9/9
f 111/7/7 7/127/111 112/9/9
f 70/6/6 58/145/124 6/139/121
f 70/6/6 115/5/5 58/145/124
f 115/5/5 5/140/122 58/145/124
f 122/3/3 119/84/74 3/83/73
f 122/3/3 88/2/2 119/84/74
f 88/2/2 2/80/70 119/84/74
