# Blender v2.78 (sub 0) OBJ File: ''
# www.blender.org
mtllib Thuja_BushTree_s_03.mtl
o Thuja_BushTree_s_03
v -0.297254 1.551708 0.165158
v -0.178867 1.747132 -0.005027
v -0.446794 0.692339 -0.196677
v -0.379455 0.147445 -0.131779
v -0.338512 0.082142 0.152800
v -0.402440 0.518533 0.282137
v -0.132991 0.709544 -0.450235
v 0.026865 1.812510 -0.098080
v 0.195205 0.788846 -0.427506
v 0.251098 1.643520 -0.034623
v 0.406214 0.522486 -0.286703
v 0.049428 0.126500 -0.407139
v 0.469841 0.890717 0.061556
v 0.175513 1.792630 0.178337
v 0.287892 0.721699 0.397184
v 0.383882 0.135321 0.100524
v 0.320837 0.065969 -0.211201
v 0.002296 1.769927 0.291085
v 0.085082 1.938672 0.217711
v -0.000743 1.949910 0.166176
v -0.097210 0.861067 0.471832
v -0.009526 0.159854 0.411716
v -0.056832 0.000975 0.126486
v 0.053273 0.003982 -0.123834
v -0.069420 1.937431 0.178635
v -0.090726 1.894749 0.233059
v -0.002388 0.002422 0.002519
v 0.093663 0.776650 0.464284
v -0.441133 0.386221 -0.182823
v 0.025045 0.026413 -0.267405
v 0.168610 0.376502 0.429429
v 0.368894 0.225147 -0.255032
v 0.227168 0.024752 -0.012376
v -0.038199 1.944924 0.172218
v -0.163972 0.039386 -0.138529
v -0.080542 1.775634 -0.075832
v 0.328762 1.361231 0.144692
v -0.021706 1.301028 0.395931
v -0.382905 0.107401 0.042663
v -0.364964 1.030883 0.226278
v 0.350650 1.088493 -0.175434
v 0.443765 0.313743 -0.104544
v -0.377123 0.241116 0.221029
v 0.098714 1.924715 0.054329
v -0.001490 1.928804 0.224793
v -0.279012 0.361793 -0.341935
v 0.135668 0.413753 -0.460488
v -0.015256 0.037615 0.268601
v -0.226554 0.321157 0.386261
v 0.043326 0.735514 -0.465659
v 0.204226 0.077641 -0.312739
v 0.207483 0.019064 -0.171406
v -0.446915 0.305575 0.066852
v 0.127781 1.252414 0.372704
v -0.114015 1.915717 0.114116
v 0.368642 1.314734 0.009882
v 0.365539 0.374671 0.277089
v -0.077358 1.918959 0.208384
v 0.298249 0.665730 -0.374725
v -0.315586 1.228460 -0.127666
v -0.217438 0.028555 0.142211
v 0.005781 1.945817 0.055876
v -0.040573 1.293071 -0.299289
v -0.315821 0.685448 -0.334105
v 0.043120 1.943174 0.197002
v 0.368652 0.088056 -0.084530
v 0.118994 1.890907 0.207587
v 0.233036 1.257931 -0.235776
v -0.200898 0.100344 0.287108
v 0.460012 0.725483 -0.103700
v 0.140424 1.775977 -0.064422
v 0.108395 1.306857 -0.286325
v 0.209822 1.787768 0.078497
v 0.162485 0.027021 0.136221
v -0.457689 0.611455 0.031332
v -0.234706 0.036626 0.000754
v -0.389516 1.157819 -0.006112
v -0.059170 0.355785 -0.457901
v -0.051360 0.474903 0.474665
v 0.263229 1.270496 0.288032
v -0.056602 1.862050 0.260929
v 0.206133 0.122436 0.290583
v -0.224806 1.215998 0.337771
v 0.250443 0.289885 -0.383770
v -0.168092 1.268714 -0.236888
v 0.467549 0.480699 0.078674
v -0.261773 1.674319 0.064175
v -0.251491 0.706317 0.408257
v -0.178453 1.788606 0.209660
v 0.048450 1.887492 0.244180
v -0.174976 0.120758 -0.301302
v 0.406194 0.791444 0.231954
v -0.040161 1.927292 0.221176
v -0.126278 1.585489 0.301980
v -0.155419 1.867438 0.157403
v 0.142214 1.601509 0.285850
v -0.055644 1.934987 0.075774
v 0.065562 1.943308 0.123575
vt 0.5534 0.6001
vt 0.5522 0.6056
vt 0.5437 0.5724
vt 0.5360 0.5226
vt 0.5391 0.5211
vt 0.5425 0.5310
vt 0.5205 0.5488
vt 0.5358 0.5800
vt 0.5335 0.5829
vt 0.6133 0.5500
vt 0.6027 0.5836
vt 0.6083 0.5514
vt 0.6032 0.5528
vt 0.5955 0.5803
vt 0.6000 0.5473
vt 0.6044 0.5341
vt 0.5282 0.5357
vt 0.5272 0.5468
vt 0.5862 0.5592
vt 0.5845 0.5861
vt 0.5802 0.5536
vt 0.5860 0.5407
vt 0.5857 0.5222
vt 0.5898 0.5211
vt 0.5912 0.5321
vt 0.5775 0.6140
vt 0.5797 0.6141
vt 0.5798 0.6158
vt 0.5616 0.5543
vt 0.5575 0.5772
vt 0.5554 0.5468
vt 0.5584 0.5342
vt 0.5632 0.5573
vt 0.5668 0.5364
vt 0.5687 0.5526
vt 0.5704 0.5155
vt 0.5781 0.5188
vt 0.5723 0.5317
vt 0.5423 0.5097
vt 0.5391 0.5161
vt 0.5378 0.5091
vt 0.5332 0.5085
vt 0.5346 0.5156
vt 0.5283 0.5110
vt 0.5931 0.5095
vt 0.5935 0.5148
vt 0.5894 0.5159
vt 0.5878 0.5081
vt 0.5825 0.5067
vt 0.5841 0.5144
vt 0.5764 0.5111
vt 0.5827 0.6131
vt 0.5852 0.6105
vt 0.5874 0.6152
vt 0.5339 0.5448
vt 0.5415 0.5421
vt 0.5350 0.5337
vt 0.5977 0.5850
vt 0.6094 0.5327
vt 0.6056 0.5154
vt 0.6012 0.5286
vt 0.5998 0.5178
vt 0.5220 0.5311
vt 0.5914 0.5505
vt 0.5870 0.5835
vt 0.5553 0.5140
vt 0.5522 0.5267
vt 0.5488 0.5168
vt 0.5488 0.5118
vt 0.5423 0.5146
vt 0.5993 0.5124
vt 0.5847 0.6155
vt 0.5921 0.6173
vt 0.5871 0.6175
vt 0.5525 0.6148
vt 0.5488 0.6141
vt 0.5510 0.6112
vt 0.5536 0.6127
vt 0.5791 0.5973
vt 0.5823 0.6136
vt 0.5819 0.6141
vt 0.5703 0.5856
vt 0.5546 0.6094
vt 0.5556 0.6062
vt 0.5578 0.6123
vt 0.5569 0.6133
vt 0.5583 0.5947
vt 0.5591 0.6123
vt 0.5577 0.6139
vt 0.5583 0.6145
vt 0.5563 0.6168
vt 0.5562 0.6155
vt 0.5561 0.6142
vt 0.5604 0.6123
vt 0.5610 0.5833
vt 0.5759 0.5810
vt 0.5742 0.5479
vt 0.5784 0.5805
vt 0.5514 0.6170
vt 0.5465 0.6171
vt 0.5820 0.6159
vt 0.5820 0.6177
vt 0.5939 0.5201
vt 0.5422 0.5196
vt 0.5457 0.5294
vt 0.5491 0.5393
vt 0.5967 0.5419
vt 0.5877 0.6078
vt 0.5922 0.5748
vt 0.5297 0.5180
vt 0.5235 0.5135
vt 0.5953 0.5310
vt 0.5899 0.6126
vt 0.5425 0.5780
vt 0.5512 0.5697
vt 0.5799 0.5351
vn -0.8886 0.2637 0.3754
vn -0.8946 0.4009 -0.1972
vn -0.9719 0.2112 -0.1044
vn -0.7404 -0.5661 -0.3623
vn -0.7721 -0.6355 0.0088
vn -0.9752 -0.1870 0.1186
vn -0.3408 0.1214 -0.9323
vn -0.5449 0.3107 -0.7788
vn -0.2122 0.3296 -0.9200
vn 0.0390 0.1420 -0.9891
vn 0.4076 0.1935 -0.8924
vn 0.6019 0.3034 -0.7387
vn 0.6285 0.0964 -0.7718
vn 0.2579 -0.0913 -0.9619
vn -0.5885 -0.2080 -0.7813
vn -0.6336 0.1027 -0.7668
vn 0.9839 0.1445 0.1050
vn 0.8973 0.2539 0.3610
vn 0.8638 0.0766 0.4979
vn 0.9792 -0.0872 0.1834
vn 0.7767 -0.5563 0.2956
vn 0.7523 -0.6575 -0.0426
vn 0.9694 -0.1955 -0.1483
vn 0.0468 0.2543 0.9660
vn 0.1807 0.3928 0.9017
vn 0.0378 0.7214 0.6915
vn -0.2028 0.1063 0.9734
vn -0.5675 0.1852 0.8023
vn -0.5540 0.0385 0.8316
vn -0.1094 -0.1011 0.9888
vn 0.2135 0.0670 0.9747
vn -0.0000 -0.5053 0.8629
vn 0.4670 -0.6208 0.6297
vn 0.3861 -0.2021 0.9001
vn -0.0462 -0.9928 0.1107
vn -0.3303 -0.9373 -0.1112
vn -0.0215 -0.9996 -0.0202
vn -0.0144 -0.9975 -0.0696
vn -0.3005 -0.9218 -0.2450
vn -0.0911 -0.9135 -0.3965
vn 0.2202 -0.9626 -0.1577
vn 0.3062 -0.9476 0.0906
vn 0.2797 -0.9274 0.2486
vn 0.0186 -0.8771 0.4799
vn 0.8126 0.3992 0.4245
vn 0.8654 0.5007 -0.0207
vn 0.5457 0.7614 -0.3500
vn -0.9095 0.0997 -0.4037
vn -0.9945 0.0458 0.0946
vn -0.9008 -0.1579 -0.4046
vn 0.2619 0.3365 -0.9046
vn -0.2375 -0.1793 -0.9547
vn -0.0056 -0.5396 -0.8419
vn 0.5193 -0.2279 -0.8237
vn 0.3553 -0.6723 -0.6494
vn 0.9626 0.0830 -0.2578
vn 0.9575 0.2678 -0.1074
vn -0.4846 -0.2445 0.8399
vn -0.3996 -0.6426 0.6538
vn -0.2860 -0.9376 0.1979
vn 0.4435 0.8886 -0.1171
vn 0.0218 0.5907 -0.8066
vn -0.0721 0.9024 -0.4249
vn -0.3778 0.8503 -0.3665
vn -0.4675 0.5000 -0.7290
vn -0.6984 0.4757 -0.5348
vn -0.6166 0.7649 -0.1861
vn 0.5159 0.2410 0.8221
vn 0.7037 0.5278 0.4756
vn 0.3718 0.7625 0.5295
vn -0.0584 0.2015 0.9777
vn -0.7998 0.5910 0.1051
vn -0.7486 0.3687 0.5510
vn -0.5092 0.5232 0.6834
vn -0.4638 0.7418 0.4845
vn -0.4389 0.2217 0.8707
vn -0.2089 0.3785 0.9017
vn -0.1054 0.7569 0.6450
vn -0.0477 0.9928 0.1096
vn -0.1980 0.9691 0.1470
vn -0.4140 0.8903 0.1897
vn 0.3556 0.1880 0.9155
vn 0.5960 0.0403 0.8020
vn 0.6932 0.2049 0.6910
vn 0.1650 0.9263 0.3388
vn 0.6135 -0.6973 -0.3707
vn -0.6382 -0.6971 0.3268
vn -0.7896 -0.3095 0.5299
vn -0.8354 -0.0366 0.5484
vn 0.8279 -0.0154 -0.5607
vn 0.8248 0.3775 -0.4209
vn 0.8199 0.2315 -0.5237
vn -0.4476 -0.6194 -0.6450
vn 0.7953 -0.2890 -0.5330
vn 0.5641 0.5018 -0.6557
vn -0.7654 0.2925 -0.5732
vn -0.8828 0.1417 0.4479
vn 0.7722 -0.2037 0.6019
usemtl None
s 1
f 1/1/1 87/2/2 77/3/3
f 4/4/4 39/5/5 53/6/6
f 7/7/7 85/8/8 63/9/9
f 7/10/7 63/11/9 50/12/10
f 9/13/11 68/14/12 59/15/13
f 9/13/11 59/15/13 47/16/14
f 7/7/7 46/17/15 64/18/16
f 13/19/17 37/20/18 92/21/19
f 13/19/17 92/21/19 86/22/20
f 16/23/21 66/24/22 42/25/23
f 18/26/24 90/27/25 45/28/26
f 21/29/27 83/30/28 88/31/29
f 21/29/27 88/31/29 79/32/30
f 21/33/27 79/34/30 28/35/31
f 22/36/32 82/37/33 31/38/34
f 23/39/35 76/40/36 27/41/37
f 24/42/38 35/43/39 30/44/40
f 24/45/38 52/46/41 33/47/42
f 24/45/38 33/47/42 27/48/37
f 23/49/35 74/50/43 48/51/44
f 14/52/45 73/53/46 44/54/47
f 3/55/48 75/56/49 77/3/3
f 3/55/48 29/57/50 75/56/49
f 7/7/7 64/18/16 85/8/8
f 9/13/11 72/58/51 68/14/12
f 7/10/7 50/12/10 78/59/52
f 12/60/53 84/61/54 51/62/55
f 7/7/7 78/63/52 46/17/15
f 13/19/17 70/64/56 56/65/57
f 13/19/17 56/65/57 37/20/18
f 13/19/17 86/22/20 70/64/56
f 22/66/32 49/67/58 69/68/59
f 23/39/35 48/69/44 61/70/60
f 23/39/35 61/70/60 76/40/36
f 24/45/38 30/71/40 52/46/41
f 98/72/61 44/54/47 8/73/62 62/74/63
f 97/75/64 36/76/65 2/77/66 55/78/67
f 96/79/68 67/80/69 19/81/70 90/27/25
f 21/33/27 28/35/31 38/82/71
f 95/83/72 89/84/73 26/85/74 58/86/75
f 94/87/76 81/88/77 26/85/74 89/84/73
f 93/89/78 45/90/26 20/91/79 34/92/80
f 58/86/75 93/89/78 34/92/80 25/93/81
f 26/85/74 81/88/77 93/89/78 58/86/75
f 81/88/77 18/94/24 45/90/26 93/89/78
f 83/30/28 94/87/76 89/84/73 1/1/1
f 21/29/27 38/95/71 94/87/76 83/30/28
f 38/95/71 18/94/24 81/88/77 94/87/76
f 55/78/67 95/83/72 58/86/75 25/93/81
f 2/77/66 87/2/2 95/83/72 55/78/67
f 87/2/2 1/1/1 89/84/73 95/83/72
f 38/82/71 54/96/82 18/26/24
f 38/82/71 28/35/31 54/96/82
f 28/35/31 15/97/83 54/96/82
f 54/96/82 96/79/68 90/27/25 18/26/24
f 15/97/83 80/98/84 96/79/68 54/96/82
f 80/98/84 14/52/45 67/80/69 96/79/68
f 34/92/80 97/75/64 55/78/67 25/93/81
f 20/91/79 62/99/63 97/75/64 34/92/80
f 62/99/63 8/100/62 36/76/65 97/75/64
f 65/101/85 98/72/61 62/74/63 20/102/79
f 19/81/70 67/80/69 98/72/61 65/101/85
f 67/80/69 14/52/45 44/54/47 98/72/61
f 52/46/41 51/62/55 17/103/86
f 52/46/41 30/71/40 51/62/55
f 30/71/40 12/60/53 51/62/55
f 76/40/36 39/5/5 4/4/4
f 76/40/36 61/70/60 39/5/5
f 61/70/60 5/104/87 39/5/5
f 61/70/60 69/68/59 5/104/87
f 61/70/60 48/69/44 69/68/59
f 48/69/44 22/66/32 69/68/59
f 69/68/59 43/105/88 5/104/87
f 69/68/59 49/67/58 43/105/88
f 49/67/58 6/106/89 43/105/88
f 70/64/56 42/25/23 11/107/90
f 70/64/56 86/22/20 42/25/23
f 86/22/20 16/23/21 42/25/23
f 37/20/18 73/53/46 14/52/45
f 37/20/18 56/65/57 73/53/46
f 56/65/57 10/108/91 73/53/46
f 56/65/57 41/109/92 10/108/91
f 56/65/57 70/64/56 41/109/92
f 70/64/56 11/107/90 41/109/92
f 46/17/15 91/110/93 4/4/4
f 46/17/15 78/63/52 91/110/93
f 78/63/52 12/111/53 91/110/93
f 51/62/55 32/112/94 17/103/86
f 51/62/55 84/61/54 32/112/94
f 84/61/54 11/107/90 32/112/94
f 78/59/52 47/16/14 12/60/53
f 78/59/52 50/12/10 47/16/14
f 50/12/10 9/13/11 47/16/14
f 68/14/12 71/113/95 10/108/91
f 68/14/12 72/58/51 71/113/95
f 72/58/51 8/73/62 71/113/95
f 85/8/8 60/114/96 2/77/66
f 85/8/8 64/18/16 60/114/96
f 64/18/16 3/55/48 60/114/96
f 75/56/49 53/6/6 6/106/89
f 75/56/49 29/57/50 53/6/6
f 29/57/50 4/4/4 53/6/6
f 77/3/3 40/115/97 1/1/1
f 77/3/3 75/56/49 40/115/97
f 75/56/49 6/106/89 40/115/97
f 44/54/47 71/113/95 8/73/62
f 44/54/47 73/53/46 71/113/95
f 73/53/46 10/108/91 71/113/95
f 48/51/44 82/37/33 22/36/32
f 48/51/44 74/50/43 82/37/33
f 74/50/43 16/23/21 82/37/33
f 27/48/37 74/50/43 23/49/35
f 27/48/37 33/47/42 74/50/43
f 33/47/42 16/23/21 74/50/43
f 33/47/42 66/24/22 16/23/21
f 33/47/42 52/46/41 66/24/22
f 52/46/41 17/103/86 66/24/22
f 30/44/40 91/110/93 12/111/53
f 30/44/40 35/43/39 91/110/93
f 35/43/39 4/4/4 91/110/93
f 27/41/37 35/43/39 24/42/38
f 27/41/37 76/40/36 35/43/39
f 76/40/36 4/4/4 35/43/39
f 31/38/34 57/116/98 15/97/83
f 31/38/34 82/37/33 57/116/98
f 82/37/33 16/23/21 57/116/98
f 28/35/31 31/38/34 15/97/83
f 28/35/31 79/34/30 31/38/34
f 79/34/30 22/36/32 31/38/34
f 79/32/30 49/67/58 22/66/32
f 79/32/30 88/31/29 49/67/58
f 88/31/29 6/106/89 49/67/58
f 88/31/29 40/115/97 6/106/89
f 88/31/29 83/30/28 40/115/97
f 83/30/28 1/1/1 40/115/97
f 45/28/26 65/101/85 20/102/79
f 45/28/26 90/27/25 65/101/85
f 90/27/25 19/81/70 65/101/85
f 42/25/23 32/112/94 11/107/90
f 42/25/23 66/24/22 32/112/94
f 66/24/22 17/103/86 32/112/94
f 86/22/20 57/116/98 16/23/21
f 86/22/20 92/21/19 57/116/98
f 92/21/19 15/97/83 57/116/98
f 92/21/19 80/98/84 15/97/83
f 92/21/19 37/20/18 80/98/84
f 37/20/18 14/52/45 80/98/84
f 64/18/16 29/57/50 3/55/48
f 64/18/16 46/17/15 29/57/50
f 46/17/15 4/4/4 29/57/50
f 47/16/14 84/61/54 12/60/53
f 47/16/14 59/15/13 84/61/54
f 59/15/13 11/107/90 84/61/54
f 59/15/13 41/109/92 11/107/90
f 59/15/13 68/14/12 41/109/92
f 68/14/12 10/108/91 41/109/92
f 50/12/10 72/58/51 9/13/11
f 50/12/10 63/11/9 72/58/51
f 63/11/9 8/73/62 72/58/51
f 63/9/9 36/76/65 8/100/62
f 63/9/9 85/8/8 36/76/65
f 85/8/8 2/77/66 36/76/65
f 53/6/6 43/105/88 6/106/89
f 53/6/6 39/5/5 43/105/88
f 39/5/5 5/104/87 43/105/88
f 77/3/3 60/114/96 3/55/48
f 77/3/3 87/2/2 60/114/96
f 87/2/2 2/77/66 60/114/96
