# Blender v2.78 (sub 0) OBJ File: ''
# www.blender.org
mtllib Thuja_BushTree_m_01.mtl
o Thuja_BushTree_m_01
v -0.439458 1.316113 -0.133120
v -0.419616 1.411203 0.189850
v -0.324310 2.450428 -0.008048
v -0.461077 0.418106 -0.083764
v -0.340926 0.154930 -0.165065
v -0.380003 0.137941 0.052368
v -0.280956 0.476534 -0.378980
v -0.386927 0.438077 0.264838
v -0.125977 1.495043 -0.436340
v -0.172081 2.703054 -0.224351
v 0.149535 2.742949 -0.216429
v -0.081282 0.415383 0.465577
v -0.076597 0.131405 0.364997
v 0.257389 0.398486 0.388059
v 0.051552 3.209261 0.102742
v 0.158542 2.541801 0.256793
v 0.259609 2.883004 0.049981
v 0.104068 0.298837 -0.426291
v -0.125182 0.004442 0.104978
v -0.087641 0.045403 -0.239770
v 0.279066 0.062615 -0.071023
v 0.108663 3.316657 -0.022232
v -0.085642 3.234037 -0.077383
v -0.145243 2.755357 0.181284
v 0.262881 0.084003 0.182299
v 0.401568 0.487234 -0.260620
v -0.074187 0.144124 -0.387921
v 0.102665 1.357272 0.446809
v -0.277443 1.226962 0.386365
v 0.376831 1.433986 0.272552
v 0.440001 1.626350 -0.096733
v 0.451969 0.431973 0.085644
v 0.294994 1.299639 -0.369007
v -0.361172 1.337298 0.293615
v 0.129384 3.129846 -0.104845
v 0.093990 0.211811 0.388595
v -0.150936 0.256020 -0.394151
v 0.279082 0.371236 -0.348837
v -0.261819 2.606243 -0.120100
v 0.140136 1.994726 0.352001
v -0.283651 0.075808 0.083297
v 0.098683 2.939022 0.176577
v -0.344665 0.803479 0.350220
v 0.336091 0.857748 0.343156
v 0.376916 0.409987 0.248809
v 0.428182 1.551661 0.092560
v -0.245980 0.054409 -0.042331
v 0.391309 0.198217 0.002762
v -0.025752 2.092607 0.331258
v -0.011258 0.857218 -0.459251
v 0.194612 0.829975 0.438517
v 0.269452 2.025354 0.280463
v -0.387290 0.234161 0.148670
v -0.310128 2.062567 -0.199357
v 0.381529 1.499669 -0.248312
v -0.128621 3.092133 0.043448
v -0.240680 0.407423 0.393368
v -0.364736 0.135319 -0.048857
v 0.356129 0.228769 -0.176171
v 0.094003 0.092197 0.280821
v 0.176840 3.174906 0.003138
v -0.209668 2.906134 -0.045553
v -0.450891 0.847428 0.072814
v -0.096894 0.002787 -0.071796
v -0.425438 0.923283 0.229477
v 0.272106 0.200200 0.285748
v 0.097398 1.417395 -0.419222
v 0.230547 2.860166 -0.084977
v -0.086253 0.238721 0.424145
v -0.430026 0.254041 -0.001795
v -0.106140 0.066136 0.251347
v 0.373444 0.202108 0.141972
v 0.031909 0.102595 -0.330650
v -0.023068 3.274451 0.021759
v -0.023732 2.774476 -0.242173
v 0.442266 0.462399 -0.095751
v 0.207426 0.786459 -0.418601
v -0.125018 3.015854 -0.156412
v 0.019229 2.156152 -0.347354
v -0.448582 0.445248 0.078729
v -0.460801 0.776280 -0.105132
v 0.356837 2.295256 -0.016694
v 0.230613 1.985161 -0.305994
v -0.082505 0.109058 -0.338885
v 0.315230 2.235354 -0.166878
v 0.255806 1.375054 0.382346
v -0.185496 0.784335 0.437924
v -0.448572 1.334742 0.050854
v 0.023054 3.096629 -0.154926
v -0.201304 0.214973 -0.320698
v 0.282202 0.062555 0.067507
v -0.095544 0.417728 -0.437541
v -0.013772 0.175640 -0.410486
v 0.156103 3.112053 0.088184
v -0.225910 0.099157 -0.201402
v 0.025581 3.306732 -0.055159
v 0.219716 2.720706 0.166555
v -0.218321 1.947685 0.300458
v 0.432123 0.895733 0.187251
v -0.325390 0.283926 -0.274717
v -0.304957 2.083747 0.192432
v -0.231863 0.225701 0.335326
v -0.300624 1.445323 -0.314367
v 0.466917 0.986460 -0.004499
v -0.218845 0.939035 -0.421465
v 0.092850 0.001243 0.019128
v 0.086613 0.020458 0.152365
v -0.252727 2.647730 0.080510
v 0.089725 0.028689 -0.154973
v 0.085147 0.394183 0.448255
v -0.378167 0.894123 -0.279113
v -0.399373 0.479725 -0.234330
v 0.206916 0.134208 -0.262252
v 0.440510 0.994486 -0.187381
v -0.410778 0.272209 -0.142302
v 0.360872 0.864268 -0.328624
v -0.037078 3.080537 0.134020
v 0.081889 3.299103 0.035771
v -0.381975 1.942139 0.085774
v 0.019978 2.687580 0.235424
v -0.159282 2.155784 -0.328388
v -0.393081 1.929451 -0.063869
v 0.334482 2.188989 0.157408
v 0.014549 0.812809 0.473407
v -0.269159 0.161622 0.210398
v -0.097122 1.331344 0.425609
vt 0.8382 0.5512
vt 0.8435 0.5518
vt 0.8391 0.5686
vt 0.8416 0.5269
vt 0.8404 0.5233
vt 0.8435 0.5233
vt 0.8350 0.5391
vt 0.8399 0.5390
vt 0.8367 0.5270
vt 0.8450 0.5387
vt 0.8468 0.5266
vt 0.8231 0.5563
vt 0.8273 0.5767
vt 0.8224 0.5791
vt 0.7691 0.5260
vt 0.7713 0.5217
vt 0.7746 0.5283
vt 0.7885 0.6144
vt 0.7867 0.6040
vt 0.7909 0.6095
vt 0.8224 0.5360
vt 0.8274 0.5416
vt 0.7837 0.5103
vt 0.7911 0.5103
vt 0.7880 0.5166
vt 0.8340 0.6142
vt 0.8346 0.6112
vt 0.8372 0.6133
vt 0.8352 0.6081
vt 0.8376 0.5971
vt 0.8400 0.6046
vt 0.8404 0.6123
vt 0.8378 0.6102
vt 0.8426 0.6067
vt 0.8285 0.6050
vt 0.8334 0.6026
vt 0.8279 0.6080
vt 0.7940 0.6178
vt 0.7937 0.6113
vt 0.7984 0.6096
vt 0.7836 0.6106
vt 0.7912 0.6161
vt 0.7735 0.5174
vt 0.7786 0.5138
vt 0.7799 0.5208
vt 0.7850 0.5173
vt 0.7923 0.5230
vt 0.8001 0.5224
vt 0.7957 0.5275
vt 0.7985 0.5103
vt 0.8019 0.5118
vt 0.8031 0.5161
vt 0.8345 0.5111
vt 0.8368 0.5154
vt 0.8332 0.5191
vt 0.8483 0.5103
vt 0.8468 0.5150
vt 0.8437 0.5150
vt 0.8531 0.5125
vt 0.8501 0.5183
vt 0.7743 0.5575
vt 0.7717 0.5418
vt 0.7772 0.5440
vt 0.7674 0.5567
vt 0.7793 0.5582
vt 0.7795 0.5755
vt 0.7963 0.5653
vt 0.7929 0.5487
vt 0.7976 0.5487
vt 0.7903 0.5621
vt 0.8007 0.5601
vt 0.7996 0.5834
vt 0.7933 0.6047
vt 0.7948 0.5850
vt 0.7981 0.6030
vt 0.8194 0.5609
vt 0.8122 0.5579
vt 0.8136 0.5414
vt 0.8306 0.5537
vt 0.8489 0.5524
vt 0.8528 0.5511
vt 0.8469 0.5768
vt 0.8400 0.5860
vt 0.8444 0.5692
vt 0.8424 0.5936
vt 0.7863 0.5242
vt 0.7832 0.5274
vt 0.7954 0.5166
vt 0.8319 0.5129
vt 0.8414 0.5107
vt 0.8627 0.5217
vt 0.8573 0.5240
vt 0.8603 0.5182
vt 0.8566 0.5499
vt 0.8542 0.5381
vt 0.8597 0.5358
vt 0.7765 0.5821
vt 0.7787 0.6067
vt 0.7817 0.6001
vt 0.7895 0.5321
vt 0.7909 0.5275
vt 0.7943 0.5321
vt 0.7848 0.5314
vt 0.7879 0.5282
vt 0.7869 0.5455
vt 0.7843 0.5589
vt 0.7888 0.5818
vt 0.7846 0.5762
vt 0.8218 0.5158
vt 0.8255 0.5152
vt 0.8268 0.5214
vt 0.8078 0.5219
vt 0.8064 0.5384
vt 0.8034 0.5270
vt 0.8112 0.5811
vt 0.8504 0.5394
vt 0.8348 0.5741
vt 0.8357 0.5915
vt 0.8315 0.5970
vt 0.8519 0.5263
vt 0.8040 0.5782
vt 0.8050 0.5549
vt 0.8029 0.6014
vt 0.8020 0.5435
vt 0.7990 0.5321
vt 0.8305 0.5209
vt 0.8318 0.5270
vt 0.8293 0.5147
vt 0.7890 0.5991
vt 0.7848 0.5935
vt 0.7893 0.5236
vt 0.7822 0.5447
vt 0.7801 0.5306
vt 0.7696 0.5813
vt 0.7606 0.5559
vt 0.8549 0.5205
vt 0.8579 0.5147
vt 0.8486 0.5230
vt 0.8453 0.5197
vt 0.8391 0.5197
vt 0.7768 0.5240
vt 0.8448 0.6011
vt 0.8507 0.5755
vt 0.7649 0.5410
vt 0.8422 0.5197
vt 0.8354 0.5234
vt 0.8066 0.5176
vt 0.8054 0.5133
vt 0.8218 0.6018
vt 0.8267 0.5994
vn -0.9473 0.0630 -0.3140
vn -0.9970 0.0481 0.0606
vn -0.9745 0.1214 -0.1885
vn -0.9815 -0.1024 -0.1618
vn -0.8808 -0.3060 -0.3612
vn -0.9547 -0.2966 0.0230
vn -0.8032 0.0226 -0.5953
vn -0.9819 0.0080 -0.1892
vn -0.8488 -0.0843 -0.5220
vn -0.9932 -0.0044 0.1164
vn -0.9759 -0.0771 0.2039
vn -0.2534 0.0925 -0.9629
vn -0.4171 0.1463 -0.8970
vn 0.1004 0.1497 -0.9836
vn -0.1590 -0.1219 0.9797
vn -0.1782 -0.3637 0.9143
vn 0.2108 -0.1667 0.9632
vn 0.0363 0.4739 0.8798
vn 0.2427 0.2587 0.9350
vn 0.6543 0.3383 0.6764
vn 0.0082 0.0017 -1.0000
vn -0.4442 0.0174 -0.8958
vn -0.2406 -0.9443 0.2247
vn -0.1669 -0.9742 -0.1517
vn 0.1555 -0.9878 0.0034
vn 0.5058 0.8449 -0.1743
vn -0.1319 0.8701 -0.4748
vn 0.2199 0.7807 0.5850
vn -0.6618 0.6206 -0.4206
vn -0.9535 0.2894 -0.0837
vn -0.8178 0.3872 0.4258
vn -0.5239 0.7321 0.4353
vn -0.3665 0.3385 0.8667
vn 0.0797 0.3426 -0.9361
vn -0.5754 0.3221 -0.7518
vn 0.5875 0.3363 -0.7361
vn 0.9203 0.3909 0.0175
vn -0.1606 -0.6831 0.7125
vn -0.2718 -0.8373 0.4743
vn 0.2109 -0.7705 0.6015
vn 0.1408 -0.9395 0.3124
vn 0.5615 -0.7970 -0.2223
vn 0.4903 -0.6348 -0.5972
vn 0.8014 -0.4222 -0.4236
vn -0.2194 -0.8774 -0.4267
vn -0.3331 -0.7419 -0.5819
vn 0.2242 -0.7500 -0.6224
vn -0.4634 -0.7381 -0.4904
vn -0.5593 -0.4907 -0.6681
vn -0.5196 -0.8062 0.2830
vn -0.4503 -0.8820 -0.1389
vn -0.6015 -0.6086 0.5175
vn 0.1339 0.0930 0.9866
vn 0.0079 0.0155 0.9998
vn 0.3814 -0.0017 0.9244
vn -0.1970 0.1041 0.9749
vn 0.5214 0.0774 0.8498
vn 0.2178 0.1468 0.9649
vn 0.9787 0.1017 -0.1783
vn 0.9997 0.0109 0.0215
vn 0.9433 0.0143 -0.3317
vn 0.9744 0.0809 0.2095
vn 0.8187 0.0979 -0.5658
vn 0.8355 0.1611 -0.5253
vn 0.9507 0.2406 0.1958
vn 0.9864 0.1528 -0.0613
vn 0.8652 0.2159 -0.4526
vn 0.2026 0.0834 -0.9757
vn -0.7122 0.0876 -0.6965
vn -0.9263 0.0950 0.3647
vn -0.7600 0.0992 0.6424
vn -0.7888 0.1661 0.5917
vn -0.9827 0.1830 0.0288
vn -0.9573 0.1362 0.2549
vn -0.8784 0.2328 0.4174
vn 0.5097 -0.7465 0.4277
vn 0.5877 -0.4615 0.6645
vn 0.1975 -0.9297 -0.3109
vn -0.5438 -0.1631 0.8232
vn -0.4939 0.0798 0.8659
vn -0.6829 -0.0159 0.7303
vn -0.3371 0.0088 0.9414
vn -0.1535 0.1585 0.9754
vn -0.5422 0.2359 0.8064
vn -0.0901 0.1967 0.9763
vn 0.9768 -0.1382 0.1637
vn 0.8982 -0.4362 -0.0546
vn 0.9753 -0.1396 -0.1710
vn 0.8361 -0.1556 0.5261
vn 0.8482 -0.4216 0.3205
vn 0.9329 0.0006 0.3602
vn 0.8270 0.0756 0.5571
vn 0.8968 0.1424 0.4190
vn 0.6373 0.1395 0.7579
vn 0.2861 -0.2548 -0.9237
vn 0.0870 -0.4472 -0.8902
vn -0.1648 -0.0905 -0.9822
vn 0.3556 -0.0180 -0.9344
vn 0.5860 -0.2464 -0.7719
vn -0.9269 0.0029 0.3753
vn -0.8089 0.1292 -0.5736
vn -0.8959 0.1954 -0.3990
vn -0.5651 0.2167 -0.7960
vn -0.8312 -0.1642 0.5312
vn 0.5153 0.1391 -0.8456
vn 0.5396 0.0692 -0.8390
vn 0.4885 0.2074 -0.8476
vn 0.7106 -0.0047 -0.7035
vn 0.8419 -0.1408 -0.5210
vn -0.4635 -0.3125 -0.8292
vn -0.5726 -0.1154 -0.8116
vn -0.2601 -0.6257 -0.7354
vn 0.6889 0.2120 0.6932
vn 0.3446 0.1870 0.9199
vn 0.5657 -0.8168 0.1134
vn 0.7219 -0.0063 0.6919
vn 0.5559 -0.1858 0.8102
vn -0.4785 0.1548 0.8643
vn -0.6081 -0.4628 0.6450
vn -0.7985 -0.3813 0.4659
vn -0.7582 -0.6245 0.1877
vn -0.6603 -0.6037 -0.4467
vn 0.2714 -0.4705 0.8396
vn -0.7310 -0.6621 -0.1651
vn -0.6578 -0.3410 -0.6716
vn -0.0209 0.2186 -0.9756
usemtl None
s 1
f 1/1/1 88/2/2 122/3/3
f 4/4/4 115/5/5 70/6/6
f 1/1/1 111/7/7 81/8/8
f 4/4/4 112/9/9 115/5/5
f 1/1/1 63/10/10 88/2/2
f 4/4/4 70/6/6 80/11/11
f 9/12/12 121/13/13 79/14/14
f 12/15/15 69/16/16 110/17/17
f 15/18/18 42/19/19 94/20/20
f 1/1/1 81/8/8 63/10/10
f 9/12/12 50/21/21 105/22/22
f 19/23/23 64/24/24 106/25/25
f 22/26/26 96/27/27 118/28/28
f 23/29/29 62/30/30 56/31/31
f 15/32/18 74/33/32 117/34/33
f 23/29/29 89/35/34 78/36/35
f 22/26/26 35/37/36 96/27/27
f 22/38/26 61/39/37 35/40/36
f 15/18/18 117/41/33 42/19/19
f 22/38/26 118/42/28 61/39/37
f 13/43/38 71/44/39 60/45/40
f 19/23/23 106/25/25 107/46/41
f 21/47/42 113/48/43 59/49/44
f 20/50/45 84/51/46 73/52/47
f 20/53/45 95/54/48 90/55/49
f 19/56/23 41/57/50 47/58/51
f 19/56/23 71/59/39 125/60/52
f 28/61/53 124/62/54 51/63/55
f 28/61/53 126/64/56 124/62/54
f 28/61/53 86/65/57 40/66/58
f 31/67/59 104/68/60 114/69/61
f 31/67/59 46/70/62 104/68/60
f 31/67/59 55/71/63 85/72/64
f 17/73/65 82/74/66 68/75/67
f 9/76/12 67/77/68 50/78/21
f 1/1/1 103/79/69 111/7/7
f 2/80/70 34/81/71 101/82/72
f 3/83/73 119/84/74 108/85/75
f 23/29/29 78/36/35 62/30/30
f 25/86/76 66/87/77 60/45/40
f 20/50/45 73/52/47 109/88/78
f 20/53/45 90/55/49 84/89/46
f 19/56/23 47/58/51 64/90/24
f 19/56/23 125/60/52 41/57/50
f 28/61/53 51/63/55 86/65/57
f 12/91/15 57/92/79 69/93/16
f 29/94/80 43/95/81 87/96/82
f 28/61/53 49/97/83 126/64/56
f 24/98/84 49/97/83 120/99/85
f 32/100/86 48/101/87 76/102/88
f 31/67/59 114/69/61 55/71/63
f 32/100/86 45/103/89 72/104/90
f 32/100/86 99/105/91 45/103/89
f 32/100/86 72/104/90 48/101/87
f 30/106/92 123/107/93 52/108/94
f 31/67/59 82/74/66 46/70/62
f 18/109/95 93/110/96 92/111/97
f 18/112/95 77/113/98 38/114/99
f 9/76/12 79/115/14 67/77/68
f 2/80/70 65/116/100 34/81/71
f 1/1/1 54/117/101 103/79/69
f 1/1/1 122/3/3 54/117/101
f 54/117/101 39/118/102 10/119/103
f 54/117/101 122/3/3 39/118/102
f 122/3/3 3/83/73 39/118/102
f 103/79/69 121/13/13 9/12/12
f 103/79/69 54/117/101 121/13/13
f 54/117/101 10/119/103 121/13/13
f 34/81/71 43/95/81 29/94/80
f 34/81/71 65/116/100 43/95/81
f 65/116/100 8/120/104 43/95/81
f 67/77/68 83/121/105 33/122/106
f 67/77/68 79/115/14 83/121/105
f 79/115/14 11/123/107 83/121/105
f 38/114/99 116/124/108 26/125/109
f 38/114/99 77/113/98 116/124/108
f 77/113/98 33/122/106 116/124/108
f 92/111/97 37/126/110 7/127/111
f 92/111/97 93/110/96 37/126/110
f 93/110/96 27/128/112 37/126/110
f 46/70/62 123/107/93 30/106/92
f 46/70/62 82/74/66 123/107/93
f 82/74/66 17/73/65 123/107/93
f 52/108/94 97/129/113 16/130/114
f 52/108/94 123/107/93 97/129/113
f 123/107/93 17/73/65 97/129/113
f 48/101/87 91/131/115 21/47/42
f 48/101/87 72/104/90 91/131/115
f 72/104/90 25/86/76 91/131/115
f 45/103/89 44/132/116 14/133/117
f 45/103/89 99/105/91 44/132/116
f 99/105/91 30/106/92 44/132/116
f 72/104/90 66/87/77 25/86/76
f 72/104/90 45/103/89 66/87/77
f 45/103/89 14/133/117 66/87/77
f 55/71/63 116/124/108 33/122/106
f 55/71/63 114/69/61 116/124/108
f 114/69/61 26/125/109 116/124/108
f 76/102/88 59/49/44 26/125/109
f 76/102/88 48/101/87 59/49/44
f 48/101/87 21/47/42 59/49/44
f 120/99/85 40/66/58 16/130/114
f 120/99/85 49/97/83 40/66/58
f 49/97/83 28/61/53 40/66/58
f 126/64/56 98/134/118 29/135/80
f 126/64/56 49/97/83 98/134/118
f 49/97/83 24/98/84 98/134/118
f 87/96/82 57/92/79 12/91/15
f 87/96/82 43/95/81 57/92/79
f 43/95/81 8/120/104 57/92/79
f 69/93/16 102/136/119 13/137/38
f 69/93/16 57/92/79 102/136/119
f 57/92/79 8/120/104 102/136/119
f 86/65/57 44/132/116 30/106/92
f 86/65/57 51/63/55 44/132/116
f 51/63/55 14/133/117 44/132/116
f 41/57/50 53/138/120 6/139/121
f 41/57/50 125/60/52 53/138/120
f 125/60/52 8/120/104 53/138/120
f 64/90/24 95/54/48 20/53/45
f 64/90/24 47/58/51 95/54/48
f 47/58/51 5/140/122 95/54/48
f 84/89/46 37/126/110 27/128/112
f 84/89/46 90/55/49 37/126/110
f 90/55/49 7/127/111 37/126/110
f 109/88/78 113/48/43 21/47/42
f 109/88/78 73/52/47 113/48/43
f 73/52/47 18/112/95 113/48/43
f 60/45/40 36/141/123 13/43/38
f 60/45/40 66/87/77 36/141/123
f 66/87/77 14/133/117 36/141/123
f 62/30/30 39/118/102 3/83/73
f 62/30/30 78/36/35 39/118/102
f 78/36/35 10/119/103 39/118/102
f 108/85/75 101/82/72 24/142/84
f 108/85/75 119/84/74 101/82/72
f 119/84/74 2/80/70 101/82/72
f 101/82/72 98/143/118 24/142/84
f 101/82/72 34/81/71 98/143/118
f 34/81/71 29/94/80 98/143/118
f 111/7/7 105/22/22 7/127/111
f 111/7/7 103/79/69 105/22/22
f 103/79/69 9/12/12 105/22/22
f 50/78/21 77/113/98 18/112/95
f 50/78/21 67/77/68 77/113/98
f 67/77/68 33/122/106 77/113/98
f 68/75/67 85/72/64 11/123/107
f 68/75/67 82/74/66 85/72/64
f 82/74/66 31/67/59 85/72/64
f 85/72/64 83/121/105 11/123/107
f 85/72/64 55/71/63 83/121/105
f 55/71/63 33/122/106 83/121/105
f 104/68/60 99/105/91 32/100/86
f 104/68/60 46/70/62 99/105/91
f 46/70/62 30/106/92 99/105/91
f 114/69/61 76/102/88 26/125/109
f 114/69/61 104/68/60 76/102/88
f 104/68/60 32/100/86 76/102/88
f 40/66/58 52/108/94 16/130/114
f 40/66/58 86/65/57 52/108/94
f 86/65/57 30/106/92 52/108/94
f 124/62/54 87/144/82 12/15/15
f 124/62/54 126/64/56 87/144/82
f 126/64/56 29/135/80 87/144/82
f 51/63/55 110/17/17 14/133/117
f 51/63/55 124/62/54 110/17/17
f 124/62/54 12/15/15 110/17/17
f 125/60/52 102/136/119 8/120/104
f 125/60/52 71/59/39 102/136/119
f 71/59/39 13/137/38 102/136/119
f 47/58/51 58/145/124 5/140/122
f 47/58/51 41/57/50 58/145/124
f 41/57/50 6/139/121 58/145/124
f 90/55/49 100/146/125 7/127/111
f 90/55/49 95/54/48 100/146/125
f 95/54/48 5/140/122 100/146/125
f 73/52/47 93/147/96 18/112/95
f 73/52/47 84/51/46 93/147/96
f 84/51/46 27/148/112 93/147/96
f 59/49/44 38/114/99 26/125/109
f 59/49/44 113/48/43 38/114/99
f 113/48/43 18/112/95 38/114/99
f 107/46/41 91/131/115 25/86/76
f 107/46/41 106/25/25 91/131/115
f 106/25/25 21/47/42 91/131/115
f 60/45/40 107/46/41 25/86/76
f 60/45/40 71/44/39 107/46/41
f 71/44/39 19/23/23 107/46/41
f 61/39/37 94/20/20 17/73/65
f 61/39/37 118/42/28 94/20/20
f 118/42/28 15/18/18 94/20/20
f 42/19/19 120/99/85 16/130/114
f 42/19/19 117/41/33 120/99/85
f 117/41/33 24/98/84 120/99/85
f 35/40/36 68/75/67 11/123/107
f 35/40/36 61/39/37 68/75/67
f 61/39/37 17/73/65 68/75/67
f 96/27/27 89/35/34 23/29/29
f 96/27/27 35/37/36 89/35/34
f 35/37/36 11/149/107 89/35/34
f 78/36/35 75/150/126 10/119/103
f 78/36/35 89/35/34 75/150/126
f 89/35/34 11/149/107 75/150/126
f 117/34/33 56/31/31 24/142/84
f 117/34/33 74/33/32 56/31/31
f 74/33/32 23/29/29 56/31/31
f 56/31/31 108/85/75 24/142/84
f 56/31/31 62/30/30 108/85/75
f 62/30/30 3/83/73 108/85/75
f 118/28/28 74/33/32 15/32/18
f 118/28/28 96/27/27 74/33/32
f 96/27/27 23/29/29 74/33/32
f 106/25/25 109/88/78 21/47/42
f 106/25/25 64/24/24 109/88/78
f 64/24/24 20/50/45 109/88/78
f 105/22/22 92/111/97 7/127/111
f 105/22/22 50/21/21 92/111/97
f 50/21/21 18/109/95 92/111/97
f 63/10/10 80/11/11 8/120/104
f 63/10/10 81/8/8 80/11/11
f 81/8/8 4/4/4 80/11/11
f 94/20/20 97/129/113 17/73/65
f 94/20/20 42/19/19 97/129/113
f 42/19/19 16/130/114 97/129/113
f 110/17/17 36/141/123 14/133/117
f 110/17/17 69/16/16 36/141/123
f 69/16/16 13/43/38 36/141/123
f 79/14/14 75/150/126 11/149/107
f 79/14/14 121/13/13 75/150/126
f 121/13/13 10/119/103 75/150/126
f 80/11/11 53/138/120 8/120/104
f 80/11/11 70/6/6 53/138/120
f 70/6/6 6/139/121 53/138/120
f 88/2/2 65/116/100 2/80/70
f 88/2/2 63/10/10 65/116/100
f 63/10/10 8/120/104 65/116/100
f 115/5/5 100/146/125 5/140/122
f 115/5/5 112/9/9 100/146/125
f 112/9/9 7/127/111 100/146/125
f 81/8/8 112/9/9 4/4/4
f 81/8/8 111/7/7 112/9/9
f 111/7/7 7/127/111 112/9/9
f 70/6/6 58/145/124 6/139/121
f 70/6/6 115/5/5 58/145/124
f 115/5/5 5/140/122 58/145/124
f 122/3/3 119/84/74 3/83/73
f 122/3/3 88/2/2 119/84/74
f 88/2/2 2/80/70 119/84/74
