# Blender v2.78 (sub 0) OBJ File: ''
# www.blender.org
mtllib Thuja_BushTree_m_09.mtl
o Thuja_BushTree_m_09
v 0.389210 3.870624 0.000001
v 0.264216 3.585660 0.252070
v 0.558782 3.552442 0.155730
v 0.515342 2.073308 0.289556
v 0.613400 2.347231 0.000000
v 0.082030 3.606161 0.000001
v 0.264216 3.585660 -0.252069
v 0.558782 3.552442 -0.155729
v 0.558514 0.841092 0.176825
v -0.037683 2.105707 0.469661
v 0.012253 0.850507 0.571955
v 0.297929 2.370216 0.435389
v -0.380947 2.125759 0.000000
v -0.535020 0.859917 0.176656
v -0.215707 2.406212 0.269725
v -0.037683 2.105707 -0.469660
v -0.325245 0.856418 -0.462827
v -0.215706 2.406211 -0.269725
v 0.515342 2.073308 -0.289556
v 0.350671 0.844811 -0.462611
v 0.297929 2.370216 -0.435389
v 0.350671 0.844811 0.462611
v -0.325245 0.856418 0.462828
v -0.535020 0.859917 -0.176656
v 0.012253 0.850507 -0.571955
v 0.558514 0.841092 -0.176825
v 0.160479 0.314972 0.491904
v 0.093284 -0.043879 0.287113
v 0.395993 0.246173 0.287114
v -0.419908 0.317221 0.304011
v -0.244448 -0.043740 0.177445
v -0.151586 0.247858 0.464560
v -0.419908 0.317221 -0.304011
v -0.244448 -0.043740 -0.177445
v -0.490455 0.248886 0.000000
v 0.160479 0.314972 -0.491904
v 0.093284 -0.043879 -0.287113
v -0.151586 0.247858 -0.464560
v 0.518210 0.313566 0.000000
v 0.301953 -0.043964 -0.000000
v 0.395993 0.246173 -0.287114
v -0.000020 -0.173994 -0.000000
v 0.440374 3.044955 -0.302001
v 0.188431 0.863240 0.532801
v 0.206492 -0.064087 -0.149999
v -0.475289 1.489396 0.085401
v 0.440374 3.044955 0.302002
v -0.119738 -0.131103 0.086979
v 0.576634 0.856224 0.000000
v 0.422520 2.255168 0.367635
v -0.492477 0.530978 0.249174
v 0.577436 2.244063 -0.153714
v -0.119738 -0.131103 -0.086979
v -0.032828 0.077675 -0.385459
v -0.343923 0.127210 0.249173
v 0.105954 2.859251 0.372000
v 0.546306 0.521640 0.086980
v 0.206492 -0.064087 0.149999
v 0.291730 3.060376 0.350600
v 0.602094 3.031099 -0.078439
v -0.080648 0.502188 -0.535460
v 0.011258 0.272151 -0.490154
v 0.424273 0.125842 0.000000
v -0.441484 0.874407 -0.329353
v 0.382964 0.498485 -0.385460
v -0.398459 1.595531 -0.234518
v 0.086626 0.525926 -0.543912
v -0.123405 2.290551 0.381882
v -0.298274 0.273265 -0.389911
v -0.249170 0.504056 0.480932
v -0.389380 0.529858 0.389912
v -0.200823 0.077811 -0.330930
v 0.425830 3.641123 -0.212323
v 0.484698 3.799958 -0.075129
v 0.129012 2.273247 -0.463250
v 0.439884 1.455423 -0.380813
v 0.177618 3.669625 0.131290
v -0.441484 0.874407 0.329354
v 0.105954 2.859251 -0.371999
v 0.045714 -0.131104 0.140736
v 0.255202 3.828213 0.000001
v -0.389380 0.529858 -0.389912
v 0.542679 2.823644 0.229488
v 0.579034 3.623426 0.000001
v -0.295191 1.592710 0.375385
v -0.343923 0.127210 -0.249173
v -0.024299 1.473324 0.531448
v -0.377724 0.078087 0.088227
v 0.086626 0.525926 0.543912
v -0.187304 1.478314 0.478773
v -0.295191 1.592710 -0.375384
v -0.024299 1.473325 -0.531447
v 0.486766 0.497318 0.242703
v 0.253094 0.077221 -0.292754
v 0.131158 0.126369 0.403174
v 0.028403 3.082134 0.265549
v -0.398459 1.595530 0.234518
v 0.470519 0.270582 0.140736
v 0.011258 0.272151 0.490154
v -0.464461 0.273797 0.162194
v 0.342863 3.817423 0.121564
v -0.163635 0.837762 0.533571
v -0.305586 2.301755 0.132552
v -0.032828 0.077675 0.385459
v 0.028403 3.082134 -0.265548
v 0.152209 1.572589 -0.519773
v 0.253010 0.524095 -0.490155
v 0.546306 0.521640 -0.086979
v 0.470519 0.270582 -0.140736
v -0.063606 3.091669 -0.138510
v 0.486766 0.497318 -0.242703
v -0.187304 1.478314 -0.478773
v 0.593770 1.555158 0.086986
v -0.249170 0.504056 -0.480932
v 0.356828 0.077137 -0.149999
v -0.298274 0.273265 0.389911
v -0.163635 0.837763 -0.533570
v 0.177618 3.669626 -0.131289
v 0.253010 0.524095 0.490156
v 0.382964 0.498485 0.385461
v -0.063606 3.091669 0.138511
v 0.593770 1.555158 -0.086986
v -0.123405 2.290551 -0.381881
v 0.131158 0.126369 -0.403174
v -0.200823 0.077811 0.330930
v 0.439884 1.455423 0.380814
v 0.422520 2.255168 -0.367635
v -0.164808 2.881239 0.000000
v -0.255397 -0.063946 -0.000000
v 0.279756 0.271280 -0.403174
v -0.492477 0.530978 -0.249174
v -0.377724 0.078087 -0.088227
v -0.078947 -0.064000 -0.242702
v -0.475290 1.489396 -0.085401
v -0.464461 0.273797 -0.162194
v 0.318703 1.568020 -0.465894
v 0.342863 3.817423 -0.121563
v -0.554075 0.844359 0.000000
v 0.152209 1.572589 0.519773
v 0.602094 3.031099 0.078440
v 0.188431 0.863240 -0.532801
v -0.536266 0.506323 -0.088227
v 0.045714 -0.131103 -0.140736
v 0.577436 2.244063 0.153715
v -0.305586 2.301755 -0.132551
v 0.129012 2.273247 0.463250
v 0.540171 1.452249 0.242737
v 0.279756 0.271280 0.403174
v 0.425830 3.641123 0.212324
v -0.078947 -0.064000 0.242702
v 0.147967 -0.131103 -0.000000
v 0.466582 0.827043 -0.329690
v 0.356828 0.077137 0.149999
v 0.484698 3.799958 0.075131
v 0.542679 2.823644 -0.229487
v -0.080648 0.502188 0.535460
v 0.291730 3.060377 -0.350599
v 0.318703 1.568020 0.465894
v 0.253094 0.077221 0.292754
v 0.466582 0.827043 0.329691
v 0.540171 1.452249 -0.242736
v -0.536266 0.506323 0.088227
vt 0.7170 0.6145
vt 0.7129 0.6119
vt 0.7168 0.6103
vt 0.7143 0.5703
vt 0.7181 0.5736
vt 0.7154 0.5882
vt 0.6553 0.6207
vt 0.6575 0.6168
vt 0.6608 0.6198
vt 0.6540 0.6163
vt 0.6503 0.6184
vt 0.7159 0.5563
vt 0.6991 0.5722
vt 0.6997 0.5569
vt 0.7033 0.5750
vt 0.6684 0.5788
vt 0.6727 0.5655
vt 0.6712 0.5830
vt 0.6532 0.5762
vt 0.6575 0.5627
vt 0.6565 0.5801
vt 0.7293 0.5705
vt 0.7320 0.5559
vt 0.7325 0.5742
vt 0.7117 0.5562
vt 0.6834 0.5829
vt 0.6844 0.5677
vt 0.6892 0.5674
vt 0.6689 0.5650
vt 0.6535 0.5613
vt 0.7276 0.5563
vt 0.7063 0.5302
vt 0.7086 0.5252
vt 0.7103 0.5301
vt 0.6804 0.5428
vt 0.6796 0.5389
vt 0.6835 0.5411
vt 0.6684 0.5414
vt 0.6701 0.5378
vt 0.6715 0.5415
vt 0.6556 0.5330
vt 0.6612 0.5294
vt 0.6594 0.5350
vt 0.7212 0.5320
vt 0.7209 0.5269
vt 0.7246 0.5307
vt 0.6768 0.5191
vt 0.6763 0.5238
vt 0.6718 0.5225
vt 0.7206 0.5218
vt 0.7253 0.5204
vt 0.7243 0.5256
vt 0.7279 0.5293
vt 0.7289 0.5242
vt 0.7318 0.5289
vt 0.6668 0.5259
vt 0.6713 0.5272
vt 0.6693 0.5300
vt 0.6651 0.5314
vt 0.6633 0.5369
vt 0.6675 0.5355
vt 0.6658 0.5391
vt 0.6717 0.5341
vt 0.6738 0.5312
vt 0.6752 0.5345
vt 0.6731 0.5378
vt 0.6745 0.5415
vt 0.6766 0.5382
vt 0.6775 0.5422
vt 0.6788 0.5349
vt 0.6773 0.5317
vt 0.6820 0.5314
vt 0.6827 0.5372
vt 0.6866 0.5394
vt 0.6859 0.5336
vt 0.6908 0.5381
vt 0.6852 0.5278
vt 0.6805 0.5281
vt 0.6810 0.5235
vt 0.7110 0.5201
vt 0.7158 0.5209
vt 0.7126 0.5251
vt 0.7142 0.5301
vt 0.7174 0.5259
vt 0.7177 0.5310
vt 0.7259 0.5421
vt 0.7235 0.5371
vt 0.7269 0.5357
vt 0.7303 0.5417
vt 0.7347 0.5413
vt 0.7313 0.5353
vt 0.7352 0.5349
vt 0.6538 0.5465
vt 0.6547 0.5397
vt 0.6586 0.5417
vt 0.6579 0.5479
vt 0.6619 0.5492
vt 0.6626 0.5430
vt 0.6651 0.5453
vt 0.6695 0.5512
vt 0.6689 0.5463
vt 0.6720 0.5464
vt 0.6732 0.5517
vt 0.6770 0.5523
vt 0.6758 0.5469
vt 0.6787 0.5475
vt 0.6853 0.5525
vt 0.6829 0.5476
vt 0.6860 0.5459
vt 0.6902 0.5522
vt 0.6950 0.5519
vt 0.6908 0.5457
vt 0.6949 0.5444
vt 0.7091 0.5421
vt 0.7077 0.5361
vt 0.7117 0.5361
vt 0.7133 0.5422
vt 0.7175 0.5423
vt 0.7158 0.5362
vt 0.7193 0.5372
vt 0.6449 0.5434
vt 0.6503 0.5382
vt 0.6494 0.5450
vt 0.6449 0.5631
vt 0.6449 0.5828
vt 0.6494 0.5646
vt 0.6490 0.5795
vt 0.6657 0.5502
vt 0.6609 0.5666
vt 0.6599 0.5840
vt 0.6647 0.5676
vt 0.6641 0.5814
vt 0.6811 0.5524
vt 0.6755 0.5697
vt 0.6740 0.5872
vt 0.6797 0.5698
vt 0.6787 0.5850
vt 0.7003 0.5417
vt 0.7033 0.5360
vt 0.7047 0.5419
vt 0.7039 0.5597
vt 0.7074 0.5778
vt 0.7083 0.5599
vt 0.7109 0.5740
vt 0.7217 0.5422
vt 0.7197 0.5596
vt 0.7218 0.5769
vt 0.7239 0.5595
vt 0.7256 0.5737
vt 0.7245 0.6084
vt 0.7269 0.5895
vt 0.7301 0.5932
vt 0.6452 0.6162
vt 0.6451 0.5995
vt 0.6490 0.6140
vt 0.6528 0.6119
vt 0.6489 0.5974
vt 0.6530 0.5940
vt 0.6564 0.5979
vt 0.6563 0.6123
vt 0.6598 0.6128
vt 0.6599 0.5984
vt 0.6641 0.5958
vt 0.6669 0.6000
vt 0.6630 0.6158
vt 0.6663 0.6188
vt 0.6702 0.6030
vt 0.6748 0.6008
vt 0.7232 0.5926
vt 0.7192 0.5915
vt 0.7165 0.6061
vt 0.7205 0.6072
vt 0.7088 0.6093
vt 0.7040 0.5907
vt 0.7081 0.5935
vt 0.7127 0.6077
vt 0.7120 0.5919
vt 0.7207 0.6114
vt 0.7357 0.5779
vt 0.6949 0.5368
vt 0.7357 0.5285
vt 0.6758 0.5284
vt 0.6901 0.5323
vt 0.7328 0.5238
vt 0.7299 0.5191
vt 0.7352 0.5596
vn 0.1222 0.9925 0.0000
vn -0.1134 0.7572 0.6433
vn 0.6390 0.6574 0.3995
vn 0.8071 0.0170 0.5901
vn 0.9459 0.0006 0.3243
vn 0.8103 0.0289 0.5853
vn -0.5747 0.8184 -0.0000
vn -0.1134 0.7572 -0.6433
vn 0.6390 0.6574 -0.3995
vn 0.8878 -0.0092 0.4602
vn -0.3099 0.1327 0.9415
vn -0.1416 0.0753 0.9871
vn 0.0017 0.1164 0.9932
vn -0.9791 0.2034 0.0000
vn -0.9717 0.1442 0.1871
vn -0.9209 0.2305 0.3142
vn -0.3099 0.1327 -0.9415
vn -0.4681 0.1027 -0.8777
vn -0.5723 0.1855 -0.7988
vn 0.8060 0.0128 -0.5918
vn 0.7074 0.0063 -0.7068
vn 0.5995 0.0396 -0.7994
vn 0.7082 0.0051 0.7060
vn -0.4681 0.1027 0.8777
vn -0.9717 0.1442 -0.1871
vn -0.1416 0.0753 -0.9871
vn 0.8872 -0.0103 -0.4613
vn 0.2925 -0.3017 0.9074
vn 0.2635 -0.5147 0.8159
vn 0.5510 -0.3511 0.7570
vn -0.7715 -0.2977 0.5622
vn -0.6936 -0.5138 0.5050
vn -0.5488 -0.3457 0.7611
vn -0.7715 -0.2977 -0.5622
vn -0.6936 -0.5138 -0.5050
vn -0.8927 -0.3462 -0.2884
vn 0.2925 -0.3017 -0.9074
vn 0.2635 -0.5147 -0.8159
vn -0.0040 -0.3474 -0.9377
vn 0.9516 -0.3073 -0.0000
vn 0.8558 -0.5174 -0.0000
vn 0.8887 -0.3539 -0.2914
vn 0.6654 -0.7465 -0.0000
vn 0.3859 -0.9225 -0.0000
vn 0.4969 -0.7890 -0.3613
vn 0.7406 -0.5814 -0.3367
vn 0.7494 -0.3750 -0.5457
vn 0.5485 -0.5807 -0.6016
vn 0.5510 -0.3511 -0.7570
vn 0.2053 -0.7456 -0.6340
vn 0.1192 -0.9224 -0.3674
vn -0.1903 -0.7882 -0.5852
vn -0.0921 -0.5787 -0.8104
vn -0.2879 -0.3688 -0.8838
vn -0.4026 -0.5786 -0.7093
vn -0.5488 -0.3457 -0.7611
vn -0.5388 -0.7457 -0.3920
vn -0.3125 -0.9224 -0.2271
vn -0.6145 -0.7889 -0.0000
vn -0.7980 -0.5798 -0.1642
vn -0.9294 -0.3691 -0.0000
vn -0.7980 -0.5798 0.1642
vn -0.8927 -0.3462 0.2884
vn -0.5388 -0.7457 0.3920
vn -0.3125 -0.9224 0.2271
vn -0.1903 -0.7882 0.5852
vn -0.4026 -0.5786 0.7093
vn -0.2879 -0.3688 0.8838
vn -0.0921 -0.5787 0.8104
vn -0.0040 -0.3474 0.9377
vn 0.2053 -0.7456 0.6340
vn 0.1192 -0.9224 0.3674
vn 0.4969 -0.7890 0.3613
vn 0.5485 -0.5807 0.6016
vn 0.7494 -0.3750 0.5457
vn 0.7406 -0.5814 0.3367
vn 0.8887 -0.3539 0.2914
vn 0.9473 -0.0574 -0.3151
vn 0.9745 -0.1433 -0.1724
vn 0.8730 -0.1625 -0.4598
vn 0.8066 -0.0559 -0.5885
vn 0.5870 -0.0357 -0.8088
vn 0.7051 -0.1588 -0.6911
vn 0.4626 -0.1295 -0.8771
vn -0.0034 -0.0027 -1.0000
vn 0.1336 -0.1222 -0.9835
vn -0.1688 -0.1408 -0.9755
vn -0.3093 0.0025 -0.9510
vn -0.5893 0.0309 -0.8073
vn -0.4386 -0.1361 -0.8883
vn -0.6891 -0.1038 -0.7172
vn -0.9477 0.0497 -0.3154
vn -0.8941 -0.1009 -0.4363
vn -0.9813 -0.1286 -0.1431
vn -0.9993 0.0367 -0.0000
vn -0.9477 0.0497 0.3154
vn -0.9813 -0.1286 0.1431
vn -0.8941 -0.1009 0.4363
vn -0.5893 0.0309 0.8073
vn -0.6891 -0.1038 0.7172
vn -0.4386 -0.1361 0.8883
vn -0.3093 0.0025 0.9510
vn -0.0034 -0.0027 1.0000
vn -0.1688 -0.1408 0.9755
vn 0.1336 -0.1222 0.9835
vn 0.5870 -0.0357 0.8088
vn 0.4626 -0.1295 0.8771
vn 0.7051 -0.1588 0.6911
vn 0.8066 -0.0559 0.5885
vn 0.9473 -0.0574 0.3151
vn 0.8730 -0.1625 0.4598
vn 0.9745 -0.1433 0.1724
vn 0.3065 -0.0078 -0.9518
vn 0.4540 0.0311 -0.8905
vn 0.3118 0.0833 -0.9465
vn 0.1670 0.0590 -0.9842
vn 0.0033 0.1176 -0.9931
vn -0.8051 0.0604 -0.5901
vn -0.7097 0.1378 -0.6909
vn -0.7815 0.2303 -0.5798
vn -0.8659 0.1518 -0.4766
vn -0.9209 0.2305 -0.3142
vn -0.8051 0.0604 0.5901
vn -0.8659 0.1518 0.4766
vn -0.7815 0.2303 0.5798
vn -0.7097 0.1378 0.6909
vn -0.5723 0.1855 0.7988
vn 0.3065 -0.0078 0.9518
vn 0.1669 0.0570 0.9843
vn 0.3122 0.0833 0.9463
vn 0.4541 0.0331 0.8903
vn 0.5971 0.0428 0.8010
vn 0.9987 -0.0518 -0.0000
vn 0.9866 -0.0167 0.1622
vn 1.0000 -0.0062 -0.0000
vn 0.9866 -0.0167 -0.1622
vn 0.9463 0.0001 -0.3233
vn 0.8043 0.1981 -0.5603
vn 0.8100 0.0312 -0.5856
vn 0.4974 0.1000 -0.8617
vn 0.3285 0.3620 -0.8724
vn -0.2477 0.3588 -0.8999
vn 0.1253 0.1564 -0.9797
vn -0.2883 0.1951 -0.9375
vn -0.6334 0.2762 -0.7229
vn -0.6755 0.5112 -0.5314
vn -0.8894 0.4571 0.0000
vn -0.8616 0.3120 -0.4003
vn -0.9553 0.2955 0.0000
vn -0.8616 0.3120 0.4003
vn -0.6755 0.5112 0.5314
vn -0.2477 0.3588 0.8999
vn -0.6334 0.2762 0.7229
vn -0.2883 0.1951 0.9375
vn 0.9805 0.0231 -0.1950
vn 0.9805 0.0231 0.1950
vn 0.8043 0.1981 0.5603
vn 0.9635 0.2676 -0.0000
vn 0.1260 0.1581 0.9794
vn 0.3285 0.3620 0.8724
vn 0.4977 0.0982 0.8618
vn -0.0000 -1.0000 -0.0000
usemtl None
s 1
f 1/1/1 101/2/2 154/3/3
f 4/4/4 144/5/5 83/6/6
f 1/7/1 81/8/7 101/9/2
f 1/7/1 137/10/8 81/8/7
f 1/7/1 74/11/9 137/10/8
f 4/4/4 147/12/10 144/5/5
f 10/13/11 87/14/12 146/15/13
f 13/16/14 46/17/15 103/18/16
f 16/19/17 112/20/18 123/21/19
f 19/22/20 76/23/21 127/24/22
f 4/4/4 126/25/23 147/12/10
f 10/26/11 90/27/24 87/28/12
f 13/16/14 134/29/25 46/17/15
f 16/19/17 92/30/26 112/20/18
f 19/22/20 161/31/27 76/23/21
f 27/32/28 95/33/29 148/34/30
f 30/35/31 55/36/32 116/37/33
f 33/38/34 86/39/35 135/40/36
f 36/41/37 124/42/38 62/43/39
f 39/44/40 63/45/41 109/46/42
f 40/47/43 151/48/44 45/49/45
f 40/50/43 45/51/45 115/52/46
f 41/53/47 94/54/48 130/55/49
f 37/56/50 143/57/51 133/58/52
f 37/56/50 133/58/52 54/59/53
f 38/60/54 72/61/55 69/62/56
f 34/63/57 53/64/58 129/65/59
f 34/63/57 129/65/59 132/66/60
f 35/67/61 88/68/62 100/69/63
f 31/70/64 48/71/65 150/72/66
f 31/70/64 150/72/66 125/73/67
f 32/74/68 104/75/69 99/76/70
f 28/77/71 80/78/72 58/79/73
f 28/80/71 58/81/73 159/82/74
f 29/83/75 153/84/76 98/85/77
f 26/86/78 108/87/79 111/88/80
f 26/86/78 111/88/80 152/89/81
f 20/90/82 65/91/83 107/92/84
f 25/93/85 67/94/86 61/95/87
f 25/93/85 61/95/87 117/96/88
f 17/97/89 114/98/90 82/99/91
f 24/100/92 131/101/93 142/102/94
f 24/100/92 142/102/94 138/103/95
f 14/104/96 162/105/97 51/106/98
f 23/107/99 71/108/100 70/109/101
f 23/107/99 70/109/101 102/110/102
f 11/111/103 156/112/104 89/113/105
f 22/114/106 119/115/107 120/116/108
f 22/114/106 120/116/108 160/117/109
f 9/118/110 93/119/111 57/120/112
f 20/121/82 107/122/84 141/123/113
f 20/121/82 141/123/113 136/124/114
f 21/125/115 106/126/116 75/127/117
f 17/97/89 82/99/91 64/128/118
f 17/97/89 64/128/118 91/129/119
f 18/130/120 66/131/121 145/132/122
f 14/104/96 51/106/98 78/133/123
f 14/104/96 78/133/123 97/134/124
f 15/135/125 85/136/126 68/137/127
f 11/138/103 89/139/105 44/140/128
f 11/138/103 44/140/128 139/141/129
f 12/142/130 158/143/131 50/144/132
f 9/118/110 57/120/112 49/145/133
f 9/118/110 49/145/133 113/146/134
f 5/147/135 122/148/136 52/149/137
f 8/150/138 155/151/139 43/152/140
f 8/153/138 43/154/140 73/155/141
f 7/156/142 157/157/143 79/158/144
f 7/156/142 79/158/144 105/159/145
f 7/156/142 105/159/145 118/160/146
f 6/161/147 110/162/148 128/163/149
f 6/161/147 128/163/149 121/164/150
f 6/161/147 121/164/150 77/165/151
f 2/166/152 96/167/153 56/168/154
f 5/147/135 52/149/137 60/169/155
f 5/147/135 60/169/155 140/170/156
f 3/171/157 84/172/158 154/3/3
f 2/173/152 56/174/154 59/175/159
f 2/173/152 59/175/159 149/176/160
f 3/171/157 47/177/161 83/6/6
f 83/6/6 50/144/132 4/4/4
f 83/6/6 47/177/161 50/144/132
f 47/177/161 12/142/130 50/144/132
f 149/176/160 47/177/161 3/171/157
f 149/176/160 59/175/159 47/177/161
f 59/175/159 12/142/130 47/177/161
f 59/175/159 146/15/13 12/142/130
f 59/175/159 56/174/154 146/15/13
f 56/174/154 10/13/11 146/15/13
f 154/3/3 74/178/9 1/1/1
f 154/3/3 84/172/158 74/178/9
f 84/172/158 8/150/138 74/178/9
f 140/170/156 84/172/158 3/171/157
f 140/170/156 60/169/155 84/172/158
f 60/169/155 8/150/138 84/172/158
f 60/169/155 155/151/139 8/150/138
f 60/169/155 52/149/137 155/151/139
f 52/149/137 19/22/20 155/151/139
f 56/168/154 68/137/127 10/26/11
f 56/168/154 96/167/153 68/137/127
f 96/167/153 15/135/125 68/137/127
f 77/165/151 96/167/153 2/166/152
f 77/165/151 121/164/150 96/167/153
f 121/164/150 15/135/125 96/167/153
f 121/164/150 103/18/16 15/135/125
f 121/164/150 128/163/149 103/18/16
f 128/163/149 13/16/14 103/18/16
f 128/163/149 145/132/122 13/16/14
f 128/163/149 110/162/148 145/132/122
f 110/162/148 18/130/120 145/132/122
f 118/160/146 110/162/148 6/161/147
f 118/160/146 105/159/145 110/162/148
f 105/159/145 18/130/120 110/162/148
f 105/159/145 123/21/19 18/130/120
f 105/159/145 79/158/144 123/21/19
f 79/158/144 16/19/17 123/21/19
f 79/158/144 75/127/117 16/19/17
f 79/158/144 157/157/143 75/127/117
f 157/157/143 21/125/115 75/127/117
f 73/155/141 157/157/143 7/156/142
f 73/155/141 43/154/140 157/157/143
f 43/154/140 21/125/115 157/157/143
f 43/152/140 127/24/22 21/179/115
f 43/152/140 155/151/139 127/24/22
f 155/151/139 19/22/20 127/24/22
f 52/149/137 161/31/27 19/22/20
f 52/149/137 122/148/136 161/31/27
f 122/148/136 26/86/78 161/31/27
f 113/146/134 122/148/136 5/147/135
f 113/146/134 49/145/133 122/148/136
f 49/145/133 26/86/78 122/148/136
f 49/145/133 108/87/79 26/86/78
f 49/145/133 57/120/112 108/87/79
f 57/120/112 39/44/40 108/87/79
f 50/144/132 126/25/23 4/4/4
f 50/144/132 158/143/131 126/25/23
f 158/143/131 22/114/106 126/25/23
f 139/141/129 158/143/131 12/142/130
f 139/141/129 44/140/128 158/143/131
f 44/140/128 22/114/106 158/143/131
f 44/140/128 119/115/107 22/114/106
f 44/140/128 89/139/105 119/115/107
f 89/139/105 27/32/28 119/115/107
f 68/137/127 90/27/24 10/26/11
f 68/137/127 85/136/126 90/27/24
f 85/136/126 23/107/99 90/27/24
f 97/134/124 85/136/126 15/135/125
f 97/134/124 78/133/123 85/136/126
f 78/133/123 23/107/99 85/136/126
f 78/133/123 71/108/100 23/107/99
f 78/133/123 51/106/98 71/108/100
f 51/106/98 30/35/31 71/108/100
f 145/132/122 134/29/25 13/16/14
f 145/132/122 66/131/121 134/29/25
f 66/131/121 24/100/92 134/29/25
f 91/129/119 66/131/121 18/130/120
f 91/129/119 64/128/118 66/131/121
f 64/128/118 24/100/92 66/131/121
f 64/128/118 131/101/93 24/100/92
f 64/128/118 82/99/91 131/101/93
f 82/99/91 33/38/34 131/101/93
f 75/127/117 92/30/26 16/19/17
f 75/127/117 106/126/116 92/30/26
f 106/126/116 25/93/85 92/30/26
f 136/124/114 106/126/116 21/125/115
f 136/124/114 141/123/113 106/126/116
f 141/123/113 25/93/85 106/126/116
f 141/123/113 67/94/86 25/93/85
f 141/123/113 107/122/84 67/94/86
f 107/122/84 36/41/37 67/94/86
f 57/120/112 98/85/77 39/44/40
f 57/120/112 93/119/111 98/85/77
f 93/119/111 29/83/75 98/85/77
f 160/117/109 93/119/111 9/118/110
f 160/117/109 120/116/108 93/119/111
f 120/116/108 29/83/75 93/119/111
f 120/116/108 148/34/30 29/83/75
f 120/116/108 119/115/107 148/34/30
f 119/115/107 27/32/28 148/34/30
f 89/113/105 99/76/70 27/180/28
f 89/113/105 156/112/104 99/76/70
f 156/112/104 32/74/68 99/76/70
f 102/110/102 156/112/104 11/111/103
f 102/110/102 70/109/101 156/112/104
f 70/109/101 32/74/68 156/112/104
f 70/109/101 116/37/33 32/74/68
f 70/109/101 71/108/100 116/37/33
f 71/108/100 30/35/31 116/37/33
f 51/106/98 100/69/63 30/35/31
f 51/106/98 162/105/97 100/69/63
f 162/105/97 35/67/61 100/69/63
f 138/103/95 162/105/97 14/104/96
f 138/103/95 142/102/94 162/105/97
f 142/102/94 35/67/61 162/105/97
f 142/102/94 135/40/36 35/67/61
f 142/102/94 131/101/93 135/40/36
f 131/101/93 33/38/34 135/40/36
f 82/99/91 69/62/56 33/38/34
f 82/99/91 114/98/90 69/62/56
f 114/98/90 38/60/54 69/62/56
f 117/96/88 114/98/90 17/97/89
f 117/96/88 61/95/87 114/98/90
f 61/95/87 38/60/54 114/98/90
f 61/95/87 62/43/39 38/60/54
f 61/95/87 67/94/86 62/43/39
f 67/94/86 36/41/37 62/43/39
f 107/92/84 130/55/49 36/181/37
f 107/92/84 65/91/83 130/55/49
f 65/91/83 41/53/47 130/55/49
f 152/89/81 65/91/83 20/90/82
f 152/89/81 111/88/80 65/91/83
f 111/88/80 41/53/47 65/91/83
f 111/88/80 109/46/42 41/53/47
f 111/88/80 108/87/79 109/46/42
f 108/87/79 39/44/40 109/46/42
f 98/85/77 63/45/41 39/44/40
f 98/85/77 153/84/76 63/45/41
f 153/84/76 40/50/43 63/45/41
f 159/82/74 153/84/76 29/83/75
f 159/82/74 58/81/73 153/84/76
f 58/81/73 40/50/43 153/84/76
f 58/79/73 151/48/44 40/47/43
f 58/79/73 80/78/72 151/48/44
f 80/78/72 42/182/162 151/48/44
f 99/76/70 95/183/29 27/180/28
f 99/76/70 104/75/69 95/183/29
f 104/75/69 28/77/71 95/183/29
f 125/73/67 104/75/69 32/74/68
f 125/73/67 150/72/66 104/75/69
f 150/72/66 28/77/71 104/75/69
f 150/72/66 80/78/72 28/77/71
f 150/72/66 48/71/65 80/78/72
f 48/71/65 42/182/162 80/78/72
f 100/69/63 55/36/32 30/35/31
f 100/69/63 88/68/62 55/36/32
f 88/68/62 31/70/64 55/36/32
f 132/66/60 88/68/62 35/67/61
f 132/66/60 129/65/59 88/68/62
f 129/65/59 31/70/64 88/68/62
f 129/65/59 48/71/65 31/70/64
f 129/65/59 53/64/58 48/71/65
f 53/64/58 42/182/162 48/71/65
f 69/62/56 86/39/35 33/38/34
f 69/62/56 72/61/55 86/39/35
f 72/61/55 34/63/57 86/39/35
f 54/59/53 72/61/55 38/60/54
f 54/59/53 133/58/52 72/61/55
f 133/58/52 34/63/57 72/61/55
f 133/58/52 53/64/58 34/63/57
f 133/58/52 143/57/51 53/64/58
f 143/57/51 42/182/162 53/64/58
f 130/55/49 124/184/38 36/181/37
f 130/55/49 94/54/48 124/184/38
f 94/54/48 37/185/50 124/184/38
f 115/52/46 94/54/48 41/53/47
f 115/52/46 45/51/45 94/54/48
f 45/51/45 37/185/50 94/54/48
f 45/49/45 143/57/51 37/56/50
f 45/49/45 151/48/44 143/57/51
f 151/48/44 42/182/162 143/57/51
f 109/46/42 115/52/46 41/53/47
f 109/46/42 63/45/41 115/52/46
f 63/45/41 40/50/43 115/52/46
f 62/43/39 54/59/53 38/60/54
f 62/43/39 124/42/38 54/59/53
f 124/42/38 37/56/50 54/59/53
f 135/40/36 132/66/60 35/67/61
f 135/40/36 86/39/35 132/66/60
f 86/39/35 34/63/57 132/66/60
f 116/37/33 125/73/67 32/74/68
f 116/37/33 55/36/32 125/73/67
f 55/36/32 31/70/64 125/73/67
f 148/34/30 159/82/74 29/83/75
f 148/34/30 95/33/29 159/82/74
f 95/33/29 28/80/71 159/82/74
f 76/23/21 152/89/81 20/90/82
f 76/23/21 161/31/27 152/89/81
f 161/31/27 26/86/78 152/89/81
f 112/20/18 117/96/88 17/97/89
f 112/20/18 92/30/26 117/96/88
f 92/30/26 25/93/85 117/96/88
f 46/17/15 138/103/95 14/104/96
f 46/17/15 134/29/25 138/103/95
f 134/29/25 24/100/92 138/103/95
f 87/28/12 102/110/102 11/111/103
f 87/28/12 90/27/24 102/110/102
f 90/27/24 23/107/99 102/110/102
f 147/12/10 160/117/109 9/118/110
f 147/12/10 126/25/23 160/117/109
f 126/25/23 22/114/106 160/117/109
f 127/24/22 136/186/114 21/179/115
f 127/24/22 76/23/21 136/186/114
f 76/23/21 20/90/82 136/186/114
f 123/21/19 91/129/119 18/130/120
f 123/21/19 112/20/18 91/129/119
f 112/20/18 17/97/89 91/129/119
f 103/18/16 97/134/124 15/135/125
f 103/18/16 46/17/15 97/134/124
f 46/17/15 14/104/96 97/134/124
f 146/15/13 139/141/129 12/142/130
f 146/15/13 87/14/12 139/141/129
f 87/14/12 11/138/103 139/141/129
f 144/5/5 113/146/134 5/147/135
f 144/5/5 147/12/10 113/146/134
f 147/12/10 9/118/110 113/146/134
f 137/10/8 73/155/141 7/156/142
f 137/10/8 74/11/9 73/155/141
f 74/11/9 8/153/138 73/155/141
f 81/8/7 118/160/146 6/161/147
f 81/8/7 137/10/8 118/160/146
f 137/10/8 7/156/142 118/160/146
f 101/9/2 77/165/151 2/166/152
f 101/9/2 81/8/7 77/165/151
f 81/8/7 6/161/147 77/165/151
f 83/6/6 140/170/156 3/171/157
f 83/6/6 144/5/5 140/170/156
f 144/5/5 5/147/135 140/170/156
f 154/3/3 149/176/160 3/171/157
f 154/3/3 101/2/2 149/176/160
f 101/2/2 2/173/152 149/176/160
