# Blender v2.78 (sub 0) OBJ File: ''
# www.blender.org
mtllib Thuja_Tree_crk_m_02.mtl
o Thuja_Tree_crk_m_02
v 0.000000 0.280077 -0.099343
v -0.002876 0.544062 -0.086218
v 0.094071 0.553697 -0.030756
v 0.094481 0.280077 -0.030698
v -0.058393 0.280077 0.080371
v -0.053005 0.544062 0.068061
v -0.089038 0.494869 -0.028930
v -0.094529 0.277289 -0.030714
v 0.058915 0.554309 0.079626
v 0.058393 0.280077 0.080371
v 0.104460 0.569039 0.088927
v 0.417254 0.531770 0.168621
v 0.423092 0.629599 0.197622
v 0.101506 0.673799 0.112740
v 0.132724 0.737236 0.029803
v 0.452650 0.684781 0.116832
v 0.465079 0.621056 0.037899
v 0.142820 0.665547 -0.051320
v 0.132937 0.563600 -0.018132
v 0.443203 0.526490 0.069907
v 3.304456 0.469565 1.135130
v 3.711634 0.361805 1.054301
v 1.602011 0.954366 0.337925
v 0.575523 1.008543 0.127980
v 0.372817 0.904422 0.340995
v 1.179227 0.810015 0.730156
v 1.718233 0.693429 0.019356
v 3.841773 0.191653 0.928650
v 1.833921 0.343029 -0.007388
v 3.519517 -0.021738 0.859144
v 1.304782 0.164132 -0.064210
v 0.567363 0.662123 -0.280173
v 1.893786 -0.089723 0.437799
v 3.726755 -0.014556 1.142740
v 1.448918 0.045816 0.722936
v 0.424285 0.180209 0.111567
v 0.405867 0.347091 -0.192897
v 3.652854 0.130058 1.270124
v 3.913973 0.028603 1.245394
v 3.955880 0.127386 1.232433
v 1.746027 0.369523 0.987294
v 0.396693 0.483786 0.537094
v 0.211745 0.645165 0.202857
v 0.288987 0.607381 -0.062432
v 3.929476 0.189226 1.256559
v 3.840674 0.200197 1.291378
v -0.065247 0.708278 -0.103557
v -0.092513 0.770913 -0.033426
v -0.060194 0.709213 0.059826
v 0.059520 0.017738 0.081922
v -0.059520 0.017738 0.081922
v -0.096305 0.017738 -0.031291
v 0.000000 0.017738 -0.101261
v 0.096305 0.017738 -0.031291
v 0.429271 0.522485 0.119368
v 3.908859 0.253487 1.195524
v 0.270167 0.652520 0.160822
v 0.846097 0.950853 0.425108
v 0.000000 0.140039 -0.101678
v -0.052786 0.017738 -0.072653
v 0.301322 0.710683 0.075666
v 2.554439 0.092047 1.019718
v 1.401682 0.903905 0.535366
v 2.420898 0.056920 0.386193
v 0.000000 0.017738 0.089805
v 3.977607 0.151311 1.117500
v 2.767998 -0.067832 0.661126
v 0.327092 0.467704 -0.139410
v 0.834626 0.251133 0.617743
v 1.585723 0.256418 -0.042686
v 3.543711 0.429461 1.097967
v -0.081831 0.278683 0.026573
v 0.380015 0.658792 -0.180897
v 3.932525 0.076697 1.241472
v 0.371126 0.318490 0.333286
v 1.620863 0.018344 0.194611
v 1.050300 1.006886 0.215298
v 3.776102 0.284950 0.975891
v 3.785487 0.169138 1.292573
v -0.057043 0.418721 0.078473
v 0.108480 0.568632 -0.027071
v 0.358510 0.714110 0.439992
v 0.249039 0.560757 0.351518
v 2.236292 0.647862 0.935758
v 0.059765 0.140038 0.082260
v 0.861105 0.096783 0.410539
v -0.096702 0.140039 -0.031420
v 0.758223 0.656059 0.655542
v -0.050583 0.278683 -0.069596
v -0.092711 0.393554 -0.030123
v -0.030820 0.555693 -0.010014
v 0.557201 0.850031 -0.099405
v 0.291365 0.543840 0.026206
v 0.014344 0.696250 0.085661
v 1.116344 0.023320 0.254457
v 0.000000 0.280077 0.086017
v 0.455467 0.571389 0.047767
v 0.418256 0.578961 0.189321
v 0.261271 0.416798 0.157209
v 0.092260 0.420116 -0.029977
v 0.768032 0.264820 -0.157111
v 2.830274 -0.064270 0.811141
v -0.068073 0.710498 -0.023424
v 0.387992 0.816838 0.013812
v 0.076332 0.571998 0.083887
v 0.314423 0.643515 -0.007531
v 0.050559 0.280077 -0.069588
v 0.462850 0.496350 -0.248756
v 3.741728 0.076638 0.911322
v 0.096702 0.140039 -0.031420
v -0.081299 0.740383 0.009931
v 2.825015 0.433179 0.467165
v 0.052786 0.017738 -0.072653
v 0.118417 0.711455 0.077176
v 0.117932 0.560994 0.035480
v 1.069435 0.703015 -0.166455
v -0.000024 0.418721 -0.097015
v 3.827705 0.073410 1.261961
v 2.677050 0.232163 1.127809
v 3.944410 0.160203 1.245387
v 1.072159 0.884184 0.023737
v 3.653502 0.313057 1.239263
v 1.643358 0.845057 0.171640
v 2.672965 0.661793 0.683171
v 1.477683 0.582113 0.883985
v 0.700030 0.870959 0.518634
v -0.085409 0.017738 0.027751
v 1.152025 0.507139 -0.187929
v 2.497715 0.715650 0.758068
v 0.460641 0.658090 0.073469
v 0.085409 0.017738 0.027751
v 3.851408 0.009430 1.210752
v -0.072623 0.523507 0.015609
v 3.938139 0.069841 1.086893
v 2.768772 0.530745 0.547303
v 0.002289 0.546850 0.075121
v 2.730580 0.148709 0.435443
v 0.275959 0.789286 0.272762
v 1.573123 0.206541 0.868673
v 0.250090 0.626467 0.071042
v 0.459532 0.967564 0.256256
v 3.711141 -0.027650 1.029634
v 0.403954 0.260494 -0.066058
v 0.897951 0.410443 -0.211065
v 0.030643 0.691806 -0.081198
v 0.117966 0.611246 -0.040119
v 2.603562 -0.007377 0.931671
v 0.141387 0.706719 -0.016015
v -0.049578 0.523507 -0.055314
v 0.079313 0.615935 0.095582
v 1.651006 -0.037223 0.571705
v 0.264013 0.549405 0.130254
v 0.107677 0.671292 0.026788
v 1.019465 0.424302 0.769893
v 0.140999 0.609267 -0.040086
v 0.076738 0.555028 0.024584
v 0.101719 0.616691 0.107306
v 0.009302 0.756913 -0.004832
v 0.299174 0.396444 0.007014
v 2.534821 0.431588 1.081636
v 0.345678 0.843544 0.157684
v -0.059765 0.140038 0.082260
v 0.845391 0.145019 0.002207
v 1.763248 0.517574 -0.017550
v 0.046006 0.546850 -0.059429
v 3.888210 0.192407 1.275992
v 0.057020 0.420116 0.078481
v 0.437643 0.662770 0.160955
v -0.084376 0.740044 -0.068118
v 3.893479 0.121057 1.273012
v 2.850245 0.271090 0.448832
v 0.081807 0.280077 0.026581
v 0.098320 0.617735 0.027438
v 0.090245 0.561679 0.028314
v 0.023224 0.690545 0.002623
v 0.024091 0.560154 0.007828
v 0.051748 0.140039 -0.071224
v -0.083730 0.140039 0.027206
v 0.083730 0.140039 0.027206
v -0.051748 0.140039 -0.071224
v 0.000000 0.140038 0.088039
v 0.010781 0.728508 0.047151
v 0.020285 0.725917 -0.050143
v 3.894396 0.156357 1.278608
v 3.218442 0.283174 1.201973
v 3.801835 0.287409 1.221607
v 3.241359 0.035522 1.119282
v 3.950407 0.204561 1.152541
v 3.947955 0.076206 1.167088
v 0.303922 0.591828 0.004578
v 0.285568 0.685930 0.121136
v 0.276946 0.541468 0.078310
v 0.309251 0.681111 0.031045
v 0.265603 0.599626 0.150347
v 0.000000 0.420116 0.083995
v -0.049620 0.405441 -0.068033
v 0.079884 0.420116 0.025956
v -0.080133 0.405441 0.025875
v 0.049371 0.420116 -0.067953
vt 0.3329 0.8090
vt 0.3324 0.8227
vt 0.3265 0.8225
vt 0.3270 0.8087
vt 0.2968 0.8071
vt 0.2970 0.8195
vt 0.2911 0.8167
vt 0.2907 0.8058
vt 0.3210 0.8086
vt 0.3206 0.8224
vt 0.3148 0.8222
vt 0.3149 0.8084
vt 0.2848 0.8075
vt 0.2853 0.8198
vt 0.2796 0.8230
vt 0.2789 0.8092
vt 0.3089 0.8084
vt 0.3089 0.8222
vt 0.3030 0.8222
vt 0.3029 0.8084
vt 0.3089 0.8401
vt 0.3089 0.8581
vt 0.3034 0.8581
vt 0.3032 0.8401
vt 0.2862 0.8406
vt 0.2869 0.8585
vt 0.2814 0.8588
vt 0.2805 0.8409
vt 0.3203 0.8403
vt 0.3199 0.8582
vt 0.3144 0.8581
vt 0.3146 0.8401
vt 0.2975 0.8403
vt 0.2979 0.8582
vt 0.2924 0.8583
vt 0.2919 0.8404
vt 0.3316 0.8406
vt 0.3309 0.8585
vt 0.3254 0.8583
vt 0.3259 0.8404
vt 0.5534 0.6001
vt 0.5522 0.6056
vt 0.5437 0.5724
vt 0.5360 0.5226
vt 0.5391 0.5211
vt 0.5425 0.5310
vt 0.5205 0.5488
vt 0.5358 0.5800
vt 0.5335 0.5829
vt 0.6133 0.5500
vt 0.6027 0.5836
vt 0.6083 0.5514
vt 0.6032 0.5528
vt 0.5955 0.5803
vt 0.6000 0.5473
vt 0.6044 0.5341
vt 0.5282 0.5357
vt 0.5272 0.5468
vt 0.5862 0.5592
vt 0.5845 0.5861
vt 0.5802 0.5536
vt 0.5860 0.5407
vt 0.5857 0.5222
vt 0.5898 0.5211
vt 0.5912 0.5321
vt 0.5775 0.6140
vt 0.5797 0.6141
vt 0.5798 0.6158
vt 0.5616 0.5543
vt 0.5575 0.5772
vt 0.5554 0.5468
vt 0.5584 0.5342
vt 0.5632 0.5573
vt 0.5668 0.5364
vt 0.5687 0.5526
vt 0.5704 0.5155
vt 0.5781 0.5188
vt 0.5723 0.5317
vt 0.5423 0.5097
vt 0.5391 0.5161
vt 0.5378 0.5091
vt 0.5332 0.5085
vt 0.5346 0.5156
vt 0.5283 0.5110
vt 0.5931 0.5095
vt 0.5935 0.5148
vt 0.5894 0.5159
vt 0.5878 0.5081
vt 0.5825 0.5067
vt 0.5841 0.5144
vt 0.5764 0.5111
vt 0.5827 0.6131
vt 0.5852 0.6105
vt 0.5874 0.6152
vt 0.5339 0.5448
vt 0.5415 0.5421
vt 0.5350 0.5337
vt 0.5977 0.5850
vt 0.6094 0.5327
vt 0.6056 0.5154
vt 0.6012 0.5286
vt 0.5998 0.5178
vt 0.5220 0.5311
vt 0.5914 0.5505
vt 0.5870 0.5835
vt 0.5553 0.5140
vt 0.5522 0.5267
vt 0.5488 0.5168
vt 0.5488 0.5118
vt 0.5423 0.5146
vt 0.5993 0.5124
vt 0.5847 0.6155
vt 0.5921 0.6173
vt 0.5871 0.6175
vt 0.5525 0.6148
vt 0.5488 0.6141
vt 0.5510 0.6112
vt 0.5536 0.6127
vt 0.5791 0.5973
vt 0.5823 0.6136
vt 0.5819 0.6141
vt 0.5703 0.5856
vt 0.5546 0.6094
vt 0.5556 0.6062
vt 0.5578 0.6123
vt 0.5569 0.6133
vt 0.5583 0.5947
vt 0.5591 0.6123
vt 0.5577 0.6139
vt 0.5583 0.6145
vt 0.5563 0.6168
vt 0.5562 0.6155
vt 0.3596 0.8115
vt 0.3655 0.8109
vt 0.3655 0.8225
vt 0.3596 0.8236
vt 0.3478 0.8098
vt 0.3537 0.8120
vt 0.3537 0.8247
vt 0.3478 0.8203
vt 0.3089 0.7808
vt 0.3089 0.7946
vt 0.3027 0.7946
vt 0.3026 0.7808
vt 0.2837 0.7814
vt 0.2843 0.7952
vt 0.2781 0.7954
vt 0.2774 0.7816
vt 0.3216 0.7810
vt 0.3213 0.7947
vt 0.3151 0.7946
vt 0.3153 0.7808
vt 0.2963 0.7810
vt 0.2966 0.7947
vt 0.2904 0.7949
vt 0.2900 0.7811
vt 0.3341 0.7814
vt 0.3336 0.7952
vt 0.3274 0.7949
vt 0.3278 0.7811
vt 0.6974 0.8463
vt 0.6906 0.8425
vt 0.7032 0.8388
vt 0.6971 0.7672
vt 0.7035 0.7729
vt 0.6911 0.7733
vt 0.6978 0.7862
vt 0.7078 0.7859
vt 0.7057 0.7932
vt 0.6981 0.7935
vt 0.6970 0.8221
vt 0.7095 0.8205
vt 0.7090 0.8313
vt 0.6964 0.8349
vt 0.3454 0.8473
vt 0.3449 0.8536
vt 0.3433 0.8535
vt 0.3441 0.8472
vt 0.3464 0.8536
vt 0.3481 0.8597
vt 0.3472 0.8411
vt 0.3461 0.8411
vt 0.3483 0.8349
vt 0.6978 0.8013
vt 0.7078 0.8014
vt 0.6975 0.8092
vt 0.7099 0.8096
vt 0.6851 0.8088
vt 0.6877 0.8013
vt 0.6904 0.7938
vt 0.3471 0.8349
vt 0.3493 0.8288
vt 0.3449 0.8410
vt 0.3465 0.8596
vt 0.3498 0.8657
vt 0.3468 0.8474
vt 0.6845 0.8237
vt 0.6839 0.8386
vt 0.6877 0.7866
vt 0.6851 0.7794
vt 0.6975 0.7789
vt 0.7099 0.7785
vt 0.3347 0.7675
vt 0.3283 0.7673
vt 0.3411 0.7678
vt 0.3404 0.7816
vt 0.3397 0.7954
vt 0.2961 0.7672
vt 0.2896 0.7673
vt 0.3025 0.7670
vt 0.3219 0.7672
vt 0.3154 0.7670
vt 0.2832 0.7675
vt 0.2767 0.7678
vt 0.3090 0.7670
vt 0.3418 0.8076
vt 0.3418 0.8160
vt 0.3418 0.7992
vt 0.3478 0.7993
vt 0.3537 0.7994
vt 0.3596 0.7994
vt 0.3655 0.7994
vt 0.5561 0.6142
vt 0.5604 0.6123
vt 0.5610 0.5833
vt 0.5759 0.5810
vt 0.5742 0.5479
vt 0.5784 0.5805
vt 0.5514 0.6170
vt 0.5465 0.6171
vt 0.5820 0.6159
vt 0.5820 0.6177
vt 0.5939 0.5201
vt 0.5422 0.5196
vt 0.5457 0.5294
vt 0.5491 0.5393
vt 0.5967 0.5419
vt 0.5877 0.6078
vt 0.5922 0.5748
vt 0.5297 0.5180
vt 0.5235 0.5135
vt 0.5953 0.5310
vt 0.5899 0.6126
vt 0.5425 0.5780
vt 0.5512 0.5697
vt 0.5799 0.5351
vt 0.3324 0.8227
vt 0.3265 0.8225
vt 0.3382 0.8230
vt 0.3373 0.8409
vt 0.3364 0.8588
vt 0.2972 0.8224
vt 0.2913 0.8225
vt 0.3030 0.8222
vt 0.3206 0.8224
vt 0.3148 0.8222
vt 0.2854 0.8227
vt 0.2796 0.8230
vt 0.3089 0.8222
vt 0.3390 0.8092
vt 0.3382 0.8230
vn 0.5643 0.0342 -0.8249
vn 0.3709 0.6663 -0.6470
vn 0.7614 0.5764 -0.2968
vn 0.9471 0.0187 -0.3205
vn -0.9496 0.0402 0.3110
vn -0.8805 0.4667 0.0834
vn -0.9149 0.2732 -0.2973
vn -0.9503 0.0396 -0.3088
vn 0.9514 0.0101 0.3076
vn 0.9519 0.0058 0.3063
vn 0.4451 0.5804 0.6819
vn 0.5787 0.0187 0.8153
vn -0.5854 0.0402 -0.8097
vn -0.6633 0.4667 -0.5850
vn -0.0878 0.5956 -0.7984
vn -0.0137 0.0547 -0.9984
vn -0.0272 0.0347 0.9990
vn -0.0794 0.6653 0.7423
vn -0.5404 0.5956 0.5943
vn -0.5979 0.0547 0.7997
vn -0.2714 -0.2498 0.9295
vn -0.2662 -0.2593 0.9284
vn -0.1753 0.3518 0.9195
vn -0.1880 0.3508 0.9174
vn 0.2790 0.7602 -0.5868
vn 0.2838 0.7674 -0.5749
vn 0.3075 0.2535 -0.9172
vn 0.2958 0.2540 -0.9209
vn -0.1250 -0.9920 0.0194
vn -0.1232 -0.9922 0.0207
vn -0.2425 -0.7732 0.5860
vn -0.2440 -0.7738 0.5845
vn -0.0254 0.8219 0.5690
vn -0.0146 0.8282 0.5603
vn 0.1645 0.9863 -0.0095
vn 0.1615 0.9868 -0.0102
vn 0.2143 -0.3489 -0.9123
vn 0.2167 -0.3576 -0.9084
vn 0.0559 -0.8339 -0.5491
vn 0.0534 -0.8339 -0.5493
vn 0.0649 0.7608 0.6458
vn 0.2925 0.9381 0.1853
vn 0.1771 0.9625 0.2056
vn -0.2001 0.9518 -0.2326
vn -0.4075 0.9079 0.0985
vn -0.0731 0.9218 0.3808
vn 0.3347 0.5366 -0.7746
vn 0.3996 0.7481 -0.5298
vn 0.4411 0.4602 -0.7704
vn 0.3392 0.1784 -0.9236
vn 0.3365 -0.1938 -0.9215
vn 0.3400 -0.4257 -0.8386
vn 0.2331 -0.4045 -0.8843
vn 0.2115 -0.0109 -0.9773
vn 0.1551 0.7814 -0.6044
vn 0.2880 0.7908 -0.5401
vn 0.0189 -0.9853 -0.1698
vn -0.0187 -0.9861 0.1651
vn -0.1413 -0.9631 0.2290
vn -0.1401 -0.9817 -0.1291
vn -0.5257 -0.8499 -0.0359
vn -0.5386 -0.7396 -0.4035
vn -0.1066 -0.8886 -0.4460
vn -0.1454 -0.2937 0.9448
vn -0.0426 -0.4337 0.9000
vn 0.2688 -0.2914 0.9181
vn -0.2027 -0.0767 0.9762
vn -0.1127 0.3107 0.9438
vn -0.1942 0.2948 0.9356
vn -0.3211 -0.1399 0.9366
vn -0.2495 -0.4634 0.8503
vn -0.6017 -0.1987 0.7736
vn -0.6582 -0.6366 0.4019
vn -0.3805 -0.5963 0.7069
vn -0.9869 0.1574 -0.0363
vn -0.7210 0.6465 -0.2493
vn -0.9372 0.1825 -0.2972
vn -0.9039 0.1913 -0.3825
vn -0.6470 0.6448 -0.4069
vn -0.6338 0.3741 -0.6770
vn -0.8328 -0.1484 -0.5334
vn -0.9015 -0.3600 -0.2401
vn -0.9234 -0.3837 -0.0008
vn -0.9011 -0.0946 0.4231
vn 0.0951 -0.9543 0.2833
vn 0.2874 -0.9385 -0.1913
vn 0.6777 -0.6009 -0.4238
vn 0.1968 0.9747 -0.1057
vn 0.0395 0.9256 0.3764
vn 0.0846 0.9860 -0.1436
vn 0.4203 -0.0584 -0.9055
vn 0.1976 0.4816 -0.8538
vn -0.1140 0.3095 -0.9440
vn 0.0968 -0.2611 -0.9605
vn -0.3057 -0.1334 -0.9427
vn 0.0705 -0.8546 -0.5144
vn 0.1223 -0.9408 -0.3162
vn -0.3427 0.2709 0.8996
vn -0.6158 0.3233 0.7185
vn -0.8652 0.4798 0.1458
vn 0.7884 -0.6019 -0.1268
vn 0.6784 0.1710 -0.7145
vn 0.9581 0.1426 -0.2484
vn 0.8231 0.5656 -0.0516
vn 0.5321 0.7145 -0.4542
vn 0.4468 0.8817 -0.1516
vn 0.6162 0.7592 0.2096
vn -0.1394 -0.7120 0.6882
vn 0.1983 -0.9218 0.3331
vn 0.4724 -0.6697 0.5730
vn -0.1672 -0.1989 0.9657
vn 0.3200 0.8109 0.4899
vn 0.0669 0.5914 0.8036
vn 0.1612 0.3197 0.9337
vn 0.3469 0.3485 0.8708
vn -0.1200 0.2024 0.9719
vn -0.0321 -0.0620 0.9976
vn 0.3232 -0.1429 0.9355
vn 0.8812 -0.0740 0.4669
vn 0.7934 0.1698 0.5846
vn 0.2652 0.7590 -0.5946
vn 0.1134 -0.3696 -0.9222
vn -0.3544 -0.2617 -0.8977
vn -0.7268 0.3272 -0.6039
vn -0.0557 0.8207 0.5687
vn 0.1269 0.9919 -0.0109
vn -0.6563 0.7477 -0.1014
vn -0.8175 0.3039 0.4893
vn 0.0000 0.0101 0.9999
vn -0.0001 0.0145 0.9999
vn -0.5878 0.0167 0.8089
vn -0.5877 0.0116 0.8090
vn -0.5878 0.0101 -0.8090
vn -0.5877 0.0144 -0.8090
vn -0.0001 0.0167 -0.9999
vn -0.0000 0.0116 -0.9999
vn 0.9510 0.0101 0.3090
vn 0.9510 0.0144 0.3090
vn 0.5877 0.0167 0.8089
vn 0.5877 0.0116 0.8090
vn -0.9510 0.0101 0.3090
vn -0.9509 0.0144 0.3090
vn -0.9509 0.0166 -0.3090
vn -0.9510 0.0116 -0.3090
vn 0.5878 0.0101 -0.8090
vn 0.5877 0.0145 -0.8090
vn 0.9509 0.0167 -0.3090
vn 0.9510 0.0116 -0.3090
vn -0.0256 0.9996 -0.0093
vn -0.0045 1.0000 -0.0039
vn -0.2130 -0.9770 0.0028
vn -0.3832 -0.2628 0.8855
vn -0.6077 -0.2189 0.7634
vn -0.6137 -0.7892 0.0239
vn 0.2758 -0.9544 0.1147
vn 0.0544 -0.6538 0.7547
vn -0.6337 -0.7008 0.3275
vn 0.5728 -0.7975 0.1893
vn -0.2079 -0.7811 0.5888
vn -0.3464 -0.2046 0.9155
vn 0.0609 -0.8387 -0.5412
vn 0.4041 -0.7218 -0.5619
vn 0.1185 -0.3096 -0.9434
vn -0.9154 0.3013 -0.2671
vn -0.9008 0.3347 -0.2765
vn -0.8898 0.1012 0.4449
vn -0.8116 -0.5560 -0.1793
vn -0.5259 0.2421 0.8154
vn -0.0552 0.1309 -0.9899
vn -0.5690 0.0175 -0.8222
vn -0.3638 -0.7381 -0.5683
vn -0.1062 -0.9942 0.0170
vn -0.3583 0.9263 -0.1164
vn 0.5878 0.0057 -0.8090
vn 0.9510 0.0065 -0.3090
vn 0.0000 0.0065 -1.0000
vn -0.9510 0.0057 0.3090
vn -0.9510 0.0065 -0.3090
vn -0.5878 0.0065 0.8090
vn 0.9510 0.0057 0.3090
vn 0.5878 0.0065 0.8090
vn -0.5878 0.0057 -0.8090
vn 0.0000 0.0057 1.0000
vn -0.0299 0.8130 0.5815
vn 0.1591 0.9872 -0.0097
vn 0.2848 0.7492 -0.5980
vn 0.6514 0.4073 0.6401
vn -0.1734 -0.5991 0.7817
vn -0.2452 -0.7813 0.5740
vn -0.1215 -0.8503 0.5120
vn 0.6902 -0.4396 0.5748
vn -0.4766 -0.4964 -0.7256
vn -0.5975 0.7063 0.3798
vn -0.2699 0.6722 0.6894
vn -0.1412 0.6517 0.7452
vn 0.0910 -0.6414 -0.7618
vn 0.2830 -0.7806 -0.5573
vn 0.2361 -0.6714 -0.7025
vn -0.1909 0.7548 -0.6276
vn -0.0361 -0.6230 -0.7814
vn 0.4692 -0.4911 -0.7340
vn 0.3430 0.8985 -0.2739
vn -0.0178 0.7157 0.6982
vn -0.3184 -0.8936 0.3164
usemtl None
s 1
f 199/1/1 165/2/2 3/3/3 100/4/4
f 198/5/5 133/6/6 7/7/7 90/8/8
f 197/9/9 156/10/10 9/11/11 167/12/12
f 196/13/13 149/14/14 2/15/15 117/16/16
f 195/17/17 136/18/18 6/19/19 80/20/20
f 194/21/21 98/22/22 13/23/23 57/24/24
f 193/25/25 130/26/26 17/27/27 106/28/28
f 192/29/29 55/30/30 12/31/31 152/32/32
f 191/33/33 168/34/34 16/35/35 61/36/36
f 190/37/37 97/38/38 20/39/39 93/40/40
f 21/41/41 71/42/42 129/43/43
f 24/44/44 141/45/45 58/46/46
f 27/47/47 135/48/48 112/49/49
f 27/50/47 112/51/49 164/52/50
f 29/53/51 137/54/52 70/55/53
f 29/53/51 70/55/53 128/56/54
f 27/47/47 121/57/55 123/58/56
f 33/59/57 102/60/58 151/61/59
f 33/59/57 151/61/59 95/62/60
f 36/63/61 143/64/62 163/65/63
f 38/66/64 118/67/65 170/68/66
f 41/69/67 160/70/68 125/71/69
f 41/69/67 125/71/69 154/72/70
f 41/73/67 154/74/70 139/75/71
f 42/76/72 75/77/73 69/78/74
f 43/79/75 161/80/76 140/81/77
f 44/82/78 104/83/79 73/84/80
f 44/85/78 68/86/81 159/87/82
f 44/85/78 159/87/82 140/88/77
f 43/89/75 99/90/83 83/91/84
f 34/92/85 142/93/86 134/94/87
f 23/95/88 63/96/89 129/43/43
f 23/95/88 77/97/90 63/96/89
f 27/47/47 123/58/56 135/48/48
f 29/53/51 171/98/91 137/54/52
f 27/50/47 164/52/50 116/99/92
f 32/100/93 144/101/94 108/102/95
f 27/47/47 116/103/92 121/57/55
f 33/59/57 76/104/96 67/105/97
f 33/59/57 67/105/97 102/60/58
f 33/59/57 95/62/60 76/104/96
f 42/106/72 88/107/98 82/108/99
f 43/79/75 83/109/84 138/110/100
f 43/79/75 138/110/100 161/80/76
f 44/85/78 73/111/80 68/86/81
f 189/112/101 134/94/87 28/113/102 66/114/103
f 188/115/104 78/116/105 22/117/106 56/118/107
f 187/119/108 132/120/109 39/121/110 118/67/65
f 41/73/67 139/75/71 119/122/111
f 186/123/112 122/124/113 46/125/114 166/126/115
f 185/127/116 79/128/117 46/125/114 122/124/113
f 184/129/118 170/130/66 40/131/119 120/132/120
f 183/133/121 145/134/122 47/135/123 169/136/124
f 182/137/125 158/138/126 48/139/127 111/140/128
f 181/141/129 96/142/130 5/143/131 162/144/132
f 180/145/133 89/146/134 1/147/135 59/148/136
f 179/149/137 172/150/138 10/151/139 85/152/140
f 178/153/141 72/154/142 8/155/143 87/156/144
f 177/157/145 107/158/146 4/159/147 110/160/148
f 48/161/127 169/162/124 111/163/128
f 7/164/7 133/165/6 149/166/14
f 176/167/149 136/168/18 9/169/11 156/170/150
f 175/171/151 94/172/152 49/173/153 103/174/154
f 174/175/155 105/176/156 9/177/157 156/178/158
f 11/179/159 157/180/160 105/176/156
f 19/181/161 81/182/162 155/183/163
f 173/184/164 156/170/165 9/169/157 150/185/166
f 153/186/167 173/184/164 150/185/166 14/187/168
f 18/188/169 146/189/170 173/184/164 153/186/167
f 146/189/170 3/190/171 156/170/165 173/184/164
f 155/183/163 146/191/170 18/192/169
f 155/183/163 81/182/162 146/191/170
f 81/182/162 3/193/171 146/191/170
f 105/176/156 150/194/166 9/177/157
f 105/176/156 157/180/160 150/194/166
f 157/180/160 14/195/168 150/194/166
f 81/182/162 174/175/155 156/178/158 3/193/171
f 19/181/161 115/196/172 174/175/155 81/182/162
f 115/196/172 11/179/159 105/176/156 174/175/155
f 145/197/122 175/171/151 103/174/154 47/198/123
f 18/188/169 153/186/167 175/171/151 145/197/122
f 153/186/167 14/187/168 94/172/152 175/171/151
f 165/199/2 176/167/149 156/170/150 3/190/3
f 2/200/15 91/201/173 176/167/149 165/199/2
f 91/201/173 6/202/19 136/168/18 176/167/149
f 149/166/14 91/201/173 2/200/15
f 149/166/14 133/165/6 91/201/173
f 133/165/6 6/202/19 91/201/173
f 111/163/128 103/174/154 49/173/153
f 111/163/128 169/162/124 103/174/154
f 169/162/124 47/198/123 103/174/154
f 113/203/174 177/157/145 110/160/148 54/204/175
f 53/205/176 59/206/136 177/157/145 113/203/174
f 59/206/136 1/207/135 107/158/146 177/157/145
f 127/208/177 178/153/141 87/156/144 52/209/178
f 51/210/179 162/144/132 178/153/141 127/208/177
f 162/144/132 5/143/131 72/154/142 178/153/141
f 131/211/180 179/149/137 85/152/140 50/212/181
f 54/204/175 110/160/148 179/149/137 131/211/180
f 110/160/148 4/159/147 172/150/138 179/149/137
f 60/213/182 180/145/133 59/148/136 53/214/176
f 52/209/178 87/156/144 180/145/133 60/213/182
f 87/156/144 8/155/143 89/146/134 180/145/133
f 65/215/183 181/141/129 162/144/132 51/210/179
f 50/212/181 85/152/140 181/141/129 65/215/183
f 85/152/140 10/151/139 96/142/130 181/141/129
f 94/216/152 182/137/125 111/140/128 49/217/153
f 14/218/168 114/219/184 182/137/125 94/216/152
f 114/219/184 15/220/185 158/138/126 182/137/125
f 158/138/126 183/133/121 169/136/124 48/139/127
f 15/220/185 148/221/186 183/133/121 158/138/126
f 148/221/186 18/222/169 145/134/122 183/133/121
f 166/126/115 184/129/118 120/132/120 45/223/187
f 46/125/114 79/128/117 184/129/118 166/126/115
f 79/128/117 38/224/64 170/130/66 184/129/118
f 160/70/68 185/127/116 122/124/113 21/41/41
f 41/69/67 119/225/111 185/127/116 160/70/68
f 119/225/111 38/224/64 79/128/117 185/127/116
f 56/118/107 186/123/112 166/126/115 45/223/187
f 22/117/106 71/42/42 186/123/112 56/118/107
f 71/42/42 21/41/41 122/124/113 186/123/112
f 119/122/111 62/226/188 38/66/64
f 119/122/111 139/75/71 62/226/188
f 139/75/71 35/227/189 62/226/188
f 62/226/188 187/119/108 118/67/65 38/66/64
f 35/227/189 147/228/190 187/119/108 62/226/188
f 147/228/190 34/92/85 132/120/109 187/119/108
f 120/132/120 188/115/104 56/118/107 45/223/187
f 40/131/119 66/229/103 188/115/104 120/132/120
f 66/229/103 28/230/102 78/116/105 188/115/104
f 74/231/191 189/112/101 66/114/103 40/232/119
f 39/121/110 132/120/109 189/112/101 74/231/191
f 132/120/109 34/92/85 134/94/87 189/112/101
f 68/86/81 108/102/95 37/233/192
f 68/86/81 73/111/80 108/102/95
f 73/111/80 32/100/93 108/102/95
f 161/80/76 141/45/45 24/44/44
f 161/80/76 138/110/100 141/45/45
f 138/110/100 25/234/193 141/45/45
f 138/110/100 82/108/99 25/234/193
f 138/110/100 83/109/84 82/108/99
f 83/109/84 42/106/72 82/108/99
f 82/108/99 126/235/194 25/234/193
f 82/108/99 88/107/98 126/235/194
f 88/107/98 26/236/195 126/235/194
f 76/104/96 163/65/63 31/237/196
f 76/104/96 95/62/60 163/65/63
f 95/62/60 36/63/61 163/65/63
f 102/60/58 142/93/86 34/92/85
f 102/60/58 67/105/97 142/93/86
f 67/105/97 30/238/197 142/93/86
f 67/105/97 64/239/198 30/238/197
f 67/105/97 76/104/96 64/239/198
f 76/104/96 31/237/196 64/239/198
f 121/57/55 92/240/199 24/44/44
f 121/57/55 116/103/92 92/240/199
f 116/103/92 32/241/93 92/240/199
f 108/102/95 101/242/200 37/233/192
f 108/102/95 144/101/94 101/242/200
f 144/101/94 31/237/196 101/242/200
f 116/99/92 128/56/54 32/100/93
f 116/99/92 164/52/50 128/56/54
f 164/52/50 29/53/51 128/56/54
f 137/54/52 109/243/201 30/238/197
f 137/54/52 171/98/91 109/243/201
f 171/98/91 28/113/102 109/243/201
f 135/48/48 124/244/202 22/117/106
f 135/48/48 123/58/56 124/244/202
f 123/58/56 23/95/88 124/244/202
f 63/96/89 58/46/46 26/236/195
f 63/96/89 77/97/90 58/46/46
f 77/97/90 24/44/44 58/46/46
f 129/43/43 84/245/203 21/41/41
f 129/43/43 63/96/89 84/245/203
f 63/96/89 26/236/195 84/245/203
f 134/94/87 109/243/201 28/113/102
f 134/94/87 142/93/86 109/243/201
f 142/93/86 30/238/197 109/243/201
f 83/91/84 75/77/73 42/76/72
f 83/91/84 99/90/83 75/77/73
f 99/90/83 36/63/61 75/77/73
f 140/88/77 99/90/83 43/89/75
f 140/88/77 159/87/82 99/90/83
f 159/87/82 36/63/61 99/90/83
f 159/87/82 143/64/62 36/63/61
f 159/87/82 68/86/81 143/64/62
f 68/86/81 37/233/192 143/64/62
f 73/84/80 92/240/199 32/241/93
f 73/84/80 104/83/79 92/240/199
f 104/83/79 24/44/44 92/240/199
f 140/81/77 104/83/79 44/82/78
f 140/81/77 161/80/76 104/83/79
f 161/80/76 24/44/44 104/83/79
f 69/78/74 86/246/204 35/227/189
f 69/78/74 75/77/73 86/246/204
f 75/77/73 36/63/61 86/246/204
f 139/75/71 69/78/74 35/227/189
f 139/75/71 154/74/70 69/78/74
f 154/74/70 42/76/72 69/78/74
f 154/72/70 88/107/98 42/106/72
f 154/72/70 125/71/69 88/107/98
f 125/71/69 26/236/195 88/107/98
f 125/71/69 84/245/203 26/236/195
f 125/71/69 160/70/68 84/245/203
f 160/70/68 21/41/41 84/245/203
f 170/68/66 74/231/191 40/232/119
f 170/68/66 118/67/65 74/231/191
f 118/67/65 39/121/110 74/231/191
f 163/65/63 101/242/200 31/237/196
f 163/65/63 143/64/62 101/242/200
f 143/64/62 37/233/192 101/242/200
f 95/62/60 86/246/204 36/63/61
f 95/62/60 151/61/59 86/246/204
f 151/61/59 35/227/189 86/246/204
f 151/61/59 147/228/190 35/227/189
f 151/61/59 102/60/58 147/228/190
f 102/60/58 34/92/85 147/228/190
f 123/58/56 77/97/90 23/95/88
f 123/58/56 121/57/55 77/97/90
f 121/57/55 24/44/44 77/97/90
f 128/56/54 144/101/94 32/100/93
f 128/56/54 70/55/53 144/101/94
f 70/55/53 31/237/196 144/101/94
f 70/55/53 64/239/198 31/237/196
f 70/55/53 137/54/52 64/239/198
f 137/54/52 30/238/197 64/239/198
f 164/52/50 171/98/91 29/53/51
f 164/52/50 112/51/49 171/98/91
f 112/51/49 28/113/102 171/98/91
f 112/49/49 78/116/105 28/230/102
f 112/49/49 135/48/48 78/116/105
f 135/48/48 22/117/106 78/116/105
f 58/46/46 126/235/194 26/236/195
f 58/46/46 141/45/45 126/235/194
f 141/45/45 25/234/193 126/235/194
f 129/43/43 124/244/202 23/95/88
f 129/43/43 71/42/42 124/244/202
f 71/42/42 22/117/106 124/244/202
f 155/247/163 190/37/37 93/40/40 19/248/161
f 18/249/169 106/250/28 190/37/37 155/247/163
f 106/250/28 17/251/27 97/38/38 190/37/37
f 114/252/184 191/33/33 61/36/36 15/253/185
f 14/254/168 57/24/24 191/33/33 114/252/184
f 57/24/24 13/23/23 168/34/34 191/33/33
f 115/255/172 192/29/29 152/32/32 11/256/159
f 19/248/161 93/40/40 192/29/29 115/255/172
f 93/40/40 20/39/39 55/30/30 192/29/29
f 148/257/186 193/25/25 106/28/28 18/258/169
f 15/253/185 61/36/36 193/25/25 148/257/186
f 61/36/36 16/35/35 130/26/26 193/25/25
f 157/259/160 194/21/21 57/24/24 14/254/168
f 11/256/159 152/32/32 194/21/21 157/259/160
f 152/32/32 12/31/31 98/22/22 194/21/21
f 96/142/130 195/17/17 80/20/20 5/143/131
f 10/151/139 167/12/12 195/17/17 96/142/130
f 167/12/12 9/11/11 136/18/18 195/17/17
f 89/146/134 196/13/13 117/16/16 1/147/135
f 8/155/143 90/8/8 196/13/13 89/146/134
f 90/8/8 7/7/7 149/14/14 196/13/13
f 172/150/138 197/9/9 167/12/12 10/151/139
f 4/159/147 100/4/4 197/9/9 172/150/138
f 100/4/4 3/3/3 156/10/10 197/9/9
f 72/154/142 198/5/5 90/8/8 8/155/143
f 5/143/131 80/20/20 198/5/5 72/154/142
f 80/20/20 6/19/19 133/6/6 198/5/5
f 107/158/146 199/1/1 100/4/4 4/159/147
f 1/207/135 117/260/16 199/1/1 107/158/146
f 117/260/16 2/261/15 165/2/2 199/1/1
