# Blender v2.78 (sub 0) OBJ File: ''
# www.blender.org
mtllib Thuja_Tree_m_03.mtl
o Thuja_Tree_m_03
v 0.058091 0.020134 0.079955
v 0.050801 0.808619 0.069922
v -0.050801 0.808619 0.069922
v -0.058091 0.020134 0.079955
v -0.093993 0.020134 -0.030540
v -0.082197 0.808619 -0.026708
v 0.000000 0.808619 -0.086428
v 0.000000 0.020134 -0.098830
v 0.093993 0.020134 -0.030540
v 0.082197 0.808619 -0.026708
v -0.300679 3.841851 0.164229
v -0.177068 4.228032 0.004454
v -0.459971 1.997790 -0.211942
v -0.395408 0.939463 -0.133820
v -0.347722 0.812761 0.148511
v -0.412571 1.693788 0.294467
v -0.132243 2.052201 -0.470001
v 0.024629 4.346890 -0.097788
v 0.201803 2.205244 -0.440697
v 0.249123 4.034380 -0.025641
v 0.415484 1.696923 -0.297991
v 0.046469 0.880371 -0.416198
v 0.483178 2.427065 0.059304
v 0.169172 4.313770 0.183199
v 0.298909 2.067234 0.408514
v 0.397238 0.905720 0.104195
v 0.327866 0.780711 -0.212306
v -0.002190 4.261575 0.288347
v 0.089014 4.543128 0.217735
v -0.001678 4.567477 0.167879
v -0.098041 2.366987 0.484071
v -0.007353 0.950672 0.423375
v -0.055861 0.655349 0.129929
v 0.052141 0.664320 -0.125174
v -0.068142 4.541524 0.181165
v -0.087051 4.461466 0.235160
v -0.220645 3.119256 0.339029
v 0.330872 3.400610 0.140354
v 0.375128 0.823780 -0.076590
v 0.443967 1.277916 -0.105740
v -0.055981 0.414377 0.077051
v -0.054182 4.407391 0.260871
v -0.447192 1.274302 0.073895
v 0.231321 0.715701 -0.011046
v 0.134995 3.174594 0.370484
v 0.005856 4.556928 0.051894
v 0.028999 0.712401 -0.272168
v -0.198286 0.849829 0.289687
v -0.002329 0.659747 0.003298
v 0.258376 3.211084 0.296067
v -0.449310 1.416644 -0.187235
v -0.084722 0.020134 0.027528
v 0.134443 1.475001 -0.461768
v 0.044213 2.107602 -0.476028
v 0.206458 4.281672 0.083904
v -0.368295 2.761277 0.231379
v -0.090579 0.414377 -0.029431
v -0.051147 1.603934 0.479112
v 0.073894 0.808619 0.024010
v -0.114787 4.498153 0.113892
v 0.137990 4.264682 -0.060226
v -0.182160 0.884885 -0.299589
v -0.079724 4.280997 -0.065409
v -0.075501 4.505925 0.210121
v 0.205773 0.697949 -0.171742
v 0.120367 4.467441 0.207849
v -0.164045 3.202452 -0.239919
v -0.044166 3.249018 -0.303294
v -0.017772 0.736934 0.276266
v -0.225842 1.294385 0.389285
v 0.306744 1.966622 -0.382946
v -0.385277 1.161845 0.224237
v 0.370963 1.403357 0.278150
v 0.471616 1.616495 0.079923
v 0.000000 0.808619 0.077697
v -0.181872 4.252593 0.207839
v 0.168494 1.409721 0.435227
v 0.000000 0.414377 -0.095240
v 0.000000 0.020134 0.089083
v 0.233094 3.184266 -0.236806
v -0.037317 4.556437 0.174377
v 0.466301 2.091144 -0.112493
v 0.169886 0.717041 0.134597
v 0.090579 0.414377 -0.029431
v 0.201907 0.801836 -0.317008
v 0.094990 4.518905 0.053667
v 0.099138 2.194364 0.469278
v -0.393828 2.975084 -0.016409
v 0.052361 0.020134 -0.072069
v -0.316122 2.001076 -0.349192
v -0.238419 0.739383 0.000680
v 0.349282 2.874127 -0.173218
v -0.073894 0.808619 0.024010
v -0.056309 1.370201 -0.465651
v 0.209574 0.889367 0.290389
v 0.084722 0.020134 0.027528
v 0.248439 1.235217 -0.385540
v -0.390030 0.864700 0.032165
v 0.047087 4.453596 0.245154
v 0.372459 3.304235 0.014065
v -0.257178 4.073382 0.072075
v -0.461800 1.855082 0.032464
v -0.172313 0.745806 -0.137774
v -0.045669 0.808619 -0.062858
v 0.412138 2.224356 0.235904
v 0.055981 0.414377 0.077051
v -0.030237 3.291944 0.397380
v 0.375820 1.132167 -0.259842
v -0.052361 0.020134 -0.072069
v -0.320646 3.126380 -0.124443
v 0.045669 0.808619 -0.062858
v -0.256592 2.055888 0.413409
v -0.281417 1.392855 -0.341224
v 0.111178 3.285607 -0.287408
v -0.217049 0.713980 0.141203
v 0.044401 4.553578 0.196712
v -0.003684 4.520875 0.225150
v -0.040162 4.518666 0.221177
v -0.126278 3.835059 0.301980
v -0.155419 4.398957 0.157404
v 0.142214 3.867100 0.285851
v -0.055644 4.534056 0.075775
v 0.065562 4.550698 0.123576
v 0.049015 0.414377 -0.067463
v -0.079308 0.414377 0.025769
v 0.079308 0.414377 0.025769
v -0.049015 0.414377 -0.067463
v 0.000000 0.414377 0.083390
vt 0.3089 0.8126
vt 0.3089 0.8581
vt 0.3034 0.8581
vt 0.3030 0.8126
vt 0.2850 0.8131
vt 0.2869 0.8585
vt 0.2814 0.8588
vt 0.2790 0.8133
vt 0.3209 0.8127
vt 0.3199 0.8582
vt 0.3144 0.8581
vt 0.3149 0.8126
vt 0.2970 0.8127
vt 0.2979 0.8582
vt 0.2924 0.8583
vt 0.2910 0.8128
vt 0.3328 0.8131
vt 0.3309 0.8585
vt 0.3254 0.8583
vt 0.3268 0.8128
vt 0.5534 0.6001
vt 0.5522 0.6056
vt 0.5437 0.5724
vt 0.5360 0.5226
vt 0.5391 0.5211
vt 0.5425 0.5310
vt 0.5205 0.5488
vt 0.5358 0.5800
vt 0.5335 0.5829
vt 0.6133 0.5500
vt 0.6027 0.5836
vt 0.6083 0.5514
vt 0.6032 0.5528
vt 0.5955 0.5803
vt 0.6000 0.5473
vt 0.6044 0.5341
vt 0.5282 0.5357
vt 0.5272 0.5468
vt 0.5862 0.5592
vt 0.5845 0.5861
vt 0.5802 0.5536
vt 0.5860 0.5407
vt 0.5857 0.5222
vt 0.5898 0.5211
vt 0.5912 0.5321
vt 0.5775 0.6140
vt 0.5797 0.6141
vt 0.5798 0.6158
vt 0.5616 0.5543
vt 0.5575 0.5772
vt 0.5554 0.5468
vt 0.5584 0.5342
vt 0.5632 0.5573
vt 0.5668 0.5364
vt 0.5687 0.5526
vt 0.5704 0.5155
vt 0.5781 0.5188
vt 0.5723 0.5317
vt 0.5423 0.5097
vt 0.5391 0.5161
vt 0.5378 0.5091
vt 0.5332 0.5085
vt 0.5346 0.5156
vt 0.5283 0.5110
vt 0.5931 0.5095
vt 0.5935 0.5148
vt 0.5894 0.5159
vt 0.5878 0.5081
vt 0.5825 0.5067
vt 0.5841 0.5144
vt 0.5764 0.5111
vt 0.5827 0.6131
vt 0.5852 0.6105
vt 0.5874 0.6152
vt 0.5339 0.5448
vt 0.5415 0.5421
vt 0.5350 0.5337
vt 0.5977 0.5850
vt 0.6094 0.5327
vt 0.6056 0.5154
vt 0.6012 0.5286
vt 0.5998 0.5178
vt 0.5220 0.5311
vt 0.5914 0.5505
vt 0.5870 0.5835
vt 0.5553 0.5140
vt 0.5522 0.5267
vt 0.5488 0.5168
vt 0.5488 0.5118
vt 0.5423 0.5146
vt 0.5993 0.5124
vt 0.5847 0.6155
vt 0.5921 0.6173
vt 0.5871 0.6175
vt 0.5525 0.6148
vt 0.5488 0.6141
vt 0.5510 0.6112
vt 0.5536 0.6127
vt 0.5791 0.5973
vt 0.5823 0.6136
vt 0.5819 0.6141
vt 0.5703 0.5856
vt 0.5546 0.6094
vt 0.5556 0.6062
vt 0.5578 0.6123
vt 0.5569 0.6133
vt 0.5583 0.5947
vt 0.5591 0.6123
vt 0.5577 0.6139
vt 0.5583 0.6145
vt 0.5563 0.6168
vt 0.5562 0.6155
vt 0.5561 0.6142
vt 0.5604 0.6123
vt 0.5610 0.5833
vt 0.5759 0.5810
vt 0.5742 0.5479
vt 0.5784 0.5805
vt 0.5514 0.6170
vt 0.5465 0.6171
vt 0.5820 0.6159
vt 0.5820 0.6177
vt 0.5939 0.5201
vt 0.5422 0.5196
vt 0.5457 0.5294
vt 0.5491 0.5393
vt 0.5967 0.5419
vt 0.5877 0.6078
vt 0.5922 0.5748
vt 0.5297 0.5180
vt 0.5235 0.5135
vt 0.5953 0.5310
vt 0.5899 0.6126
vt 0.5425 0.5780
vt 0.5512 0.5697
vt 0.5799 0.5351
vt 0.3347 0.7675
vt 0.3283 0.7673
vt 0.3411 0.7678
vt 0.3388 0.8133
vt 0.3364 0.8588
vt 0.2961 0.7672
vt 0.2896 0.7673
vt 0.3025 0.7670
vt 0.3219 0.7672
vt 0.3154 0.7670
vt 0.2832 0.7675
vt 0.2767 0.7678
vt 0.3090 0.7670
vn -0.0000 0.0142 0.9999
vn 0.0000 0.0171 0.9999
vn -0.5877 0.0193 0.8089
vn -0.5877 0.0160 0.8089
vn -0.5877 0.0142 -0.8089
vn -0.5877 0.0171 -0.8089
vn 0.0000 0.0193 -0.9998
vn 0.0000 0.0160 -0.9999
vn 0.9510 0.0142 0.3090
vn 0.9509 0.0171 0.3090
vn 0.5877 0.0193 0.8089
vn 0.5877 0.0160 0.8089
vn -0.9510 0.0142 0.3090
vn -0.9509 0.0171 0.3090
vn -0.9509 0.0193 -0.3090
vn -0.9509 0.0160 -0.3090
vn 0.5877 0.0142 -0.8089
vn 0.5877 0.0171 -0.8089
vn 0.9509 0.0193 -0.3090
vn 0.9509 0.0160 -0.3090
vn -0.9175 0.1450 0.3703
vn -0.9523 0.2311 -0.1992
vn -0.9854 0.1110 -0.1288
vn -0.8340 -0.3704 -0.4089
vn -0.8816 -0.4715 -0.0228
vn -0.9865 -0.0959 0.1324
vn -0.3225 0.0592 -0.9447
vn -0.5745 0.1634 -0.8020
vn -0.2343 0.1735 -0.9566
vn 0.0617 0.0677 -0.9958
vn 0.4221 0.1094 -0.8999
vn 0.6268 0.1582 -0.7630
vn 0.6248 0.0462 -0.7794
vn 0.2708 -0.0455 -0.9616
vn -0.5894 -0.1095 -0.8004
vn -0.6248 0.0438 -0.7796
vn 0.9918 0.0864 0.0937
vn 0.9166 0.1328 0.3772
vn 0.8700 0.0386 0.4915
vn 0.9837 -0.0387 0.1755
vn 0.8590 -0.3836 0.3392
vn 0.8634 -0.5039 -0.0258
vn 0.9835 -0.1003 -0.1506
vn 0.0310 0.1311 0.9909
vn 0.1762 0.2239 0.9586
vn 0.0241 0.5264 0.8499
vn -0.2018 0.0637 0.9774
vn -0.5622 0.0978 0.8212
vn -0.5443 0.0197 0.8386
vn -0.1139 -0.0470 0.9924
vn 0.2100 0.0345 0.9771
vn 0.0040 -0.3347 0.9423
vn 0.5360 -0.4299 0.7265
vn 0.3907 -0.1033 0.9147
vn -0.0844 -0.9751 0.2050
vn -0.5193 -0.8342 -0.1856
vn -0.0378 -0.9981 -0.0491
vn -0.0236 -0.9897 -0.1410
vn -0.4697 -0.8033 -0.3662
vn -0.1305 -0.8184 -0.5596
vn 0.3539 -0.9060 -0.2322
vn 0.4781 -0.8682 0.1327
vn 0.4265 -0.8254 0.3698
vn 0.0246 -0.7314 0.6815
vn 0.8523 0.2456 0.4618
vn 0.9499 0.3088 -0.0491
vn 0.6790 0.5794 -0.4509
vn -0.9148 0.0461 -0.4012
vn -0.9950 0.0197 0.0983
vn -0.9090 -0.0826 -0.4085
vn 0.2866 0.1773 -0.9415
vn -0.2322 -0.0949 -0.9680
vn -0.0195 -0.3739 -0.9272
vn 0.5190 -0.1205 -0.8462
vn 0.4097 -0.5038 -0.7605
vn 0.9635 0.0410 -0.2644
vn 0.9850 0.1395 -0.1016
vn -0.4946 -0.1295 0.8594
vn -0.4734 -0.4378 0.7643
vn -0.4591 -0.8457 0.2721
vn 0.5905 0.7841 -0.1912
vn 0.0192 0.4229 -0.9060
vn -0.0984 0.8249 -0.5567
vn -0.5453 0.7123 -0.4419
vn -0.5498 0.3058 -0.7773
vn -0.7933 0.2901 -0.5353
vn -0.8017 0.5672 -0.1888
vn 0.5121 0.1218 0.8503
vn 0.7971 0.3512 0.4913
vn 0.4744 0.6591 0.5836
vn -0.0737 0.1072 0.9915
vn -0.9220 0.3628 0.1356
vn -0.7919 0.2107 0.5732
vn -0.5649 0.3513 0.7466
vn -0.5844 0.5178 0.6248
vn -0.4517 0.1134 0.8849
vn -0.2136 0.2207 0.9517
vn -0.1479 0.5645 0.8121
vn -0.0920 0.9755 0.1999
vn -0.3543 0.8958 0.2683
vn -0.5909 0.7487 0.3005
vn 0.3598 0.0984 0.9278
vn 0.5988 0.0114 0.8008
vn 0.6930 0.1068 0.7129
vn 0.2430 0.8519 0.4639
vn 0.7146 -0.5654 -0.4119
vn -0.7541 -0.5553 0.3507
vn -0.8216 -0.1693 0.5443
vn -0.8302 -0.0241 0.5570
vn 0.8260 -0.0233 -0.5632
vn 0.8833 0.2046 -0.4218
vn 0.8342 0.1215 -0.5379
vn -0.5320 -0.4322 -0.7282
vn 0.8205 -0.1556 -0.5501
vn 0.6555 0.2991 -0.6935
vn -0.7852 0.1548 -0.5995
vn -0.8855 0.0747 0.4586
vn 0.7846 -0.1057 0.6109
vn 0.5877 0.0113 -0.8090
vn 0.9510 0.0127 -0.3090
vn -0.0000 0.0127 -0.9999
vn -0.9510 0.0113 0.3090
vn -0.9510 0.0127 -0.3090
vn -0.5877 0.0127 0.8090
vn 0.9510 0.0113 0.3090
vn 0.5877 0.0127 0.8090
vn -0.5877 0.0113 -0.8090
vn -0.0000 0.0113 0.9999
usemtl None
s 1
f 128/1/1 75/2/2 3/3/3 41/4/4
f 127/5/5 104/6/6 7/7/7 78/8/8
f 126/9/9 59/10/10 2/11/11 106/12/12
f 125/13/13 93/14/14 6/15/15 57/16/16
f 124/17/17 111/18/18 10/19/19 84/20/20
f 11/21/21 101/22/22 88/23/23
f 14/24/24 98/25/25 43/26/26
f 17/27/27 67/28/28 68/29/29
f 17/30/27 68/31/29 54/32/30
f 19/33/31 80/34/32 71/35/33
f 19/33/31 71/35/33 53/36/34
f 17/27/27 113/37/35 90/38/36
f 23/39/37 38/40/38 105/41/39
f 23/39/37 105/41/39 74/42/40
f 26/43/41 39/44/42 40/45/43
f 28/46/44 99/47/45 117/48/46
f 31/49/47 37/50/48 112/51/49
f 31/49/47 112/51/49 58/52/50
f 31/53/47 58/54/50 87/55/51
f 32/56/52 95/57/53 77/58/54
f 33/59/55 91/60/56 49/61/57
f 34/62/58 103/63/59 47/64/60
f 34/65/58 65/66/61 44/67/62
f 34/65/58 44/67/62 49/68/57
f 33/69/55 83/70/63 69/71/64
f 24/72/65 55/73/66 86/74/67
f 13/75/68 102/76/69 88/23/23
f 13/75/68 51/77/70 102/76/69
f 17/27/27 90/38/36 67/28/28
f 19/33/31 114/78/71 80/34/32
f 17/30/27 54/32/30 94/79/72
f 22/80/73 97/81/74 85/82/75
f 17/27/27 94/83/72 113/37/35
f 23/39/37 82/84/76 100/85/77
f 23/39/37 100/85/77 38/40/38
f 23/39/37 74/42/40 82/84/76
f 32/86/52 70/87/78 48/88/79
f 33/59/55 69/89/64 115/90/80
f 33/59/55 115/90/80 91/60/56
f 34/65/58 47/91/60 65/66/61
f 123/92/81 86/74/67 18/93/82 46/94/83
f 122/95/84 63/96/85 12/97/86 60/98/87
f 121/99/88 66/100/89 29/101/90 99/47/45
f 31/53/47 87/55/51 107/102/91
f 120/103/92 76/104/93 36/105/94 64/106/95
f 119/107/96 42/108/97 36/105/94 76/104/93
f 118/109/98 117/110/46 30/111/99 81/112/100
f 64/106/95 118/109/98 81/112/100 35/113/101
f 36/105/94 42/108/97 118/109/98 64/106/95
f 42/108/97 28/114/44 117/110/46 118/109/98
f 37/50/48 119/107/96 76/104/93 11/21/21
f 31/49/47 107/115/91 119/107/96 37/50/48
f 107/115/91 28/114/44 42/108/97 119/107/96
f 60/98/87 120/103/92 64/106/95 35/113/101
f 12/97/86 101/22/22 120/103/92 60/98/87
f 101/22/22 11/21/21 76/104/93 120/103/92
f 107/102/91 45/116/102 28/46/44
f 107/102/91 87/55/51 45/116/102
f 87/55/51 25/117/103 45/116/102
f 45/116/102 121/99/88 99/47/45 28/46/44
f 25/117/103 50/118/104 121/99/88 45/116/102
f 50/118/104 24/72/65 66/100/89 121/99/88
f 81/112/100 122/95/84 60/98/87 35/113/101
f 30/111/99 46/119/83 122/95/84 81/112/100
f 46/119/83 18/120/82 63/96/85 122/95/84
f 116/121/105 123/92/81 46/94/83 30/122/99
f 29/101/90 66/100/89 123/92/81 116/121/105
f 66/100/89 24/72/65 86/74/67 123/92/81
f 65/66/61 85/82/75 27/123/106
f 65/66/61 47/91/60 85/82/75
f 47/91/60 22/80/73 85/82/75
f 91/60/56 98/25/25 14/24/24
f 91/60/56 115/90/80 98/25/25
f 115/90/80 15/124/107 98/25/25
f 115/90/80 48/88/79 15/124/107
f 115/90/80 69/89/64 48/88/79
f 69/89/64 32/86/52 48/88/79
f 48/88/79 72/125/108 15/124/107
f 48/88/79 70/87/78 72/125/108
f 70/87/78 16/126/109 72/125/108
f 82/84/76 40/45/43 21/127/110
f 82/84/76 74/42/40 40/45/43
f 74/42/40 26/43/41 40/45/43
f 38/40/38 55/73/66 24/72/65
f 38/40/38 100/85/77 55/73/66
f 100/85/77 20/128/111 55/73/66
f 100/85/77 92/129/112 20/128/111
f 100/85/77 82/84/76 92/129/112
f 82/84/76 21/127/110 92/129/112
f 113/37/35 62/130/113 14/24/24
f 113/37/35 94/83/72 62/130/113
f 94/83/72 22/131/73 62/130/113
f 85/82/75 108/132/114 27/123/106
f 85/82/75 97/81/74 108/132/114
f 97/81/74 21/127/110 108/132/114
f 94/79/72 53/36/34 22/80/73
f 94/79/72 54/32/30 53/36/34
f 54/32/30 19/33/31 53/36/34
f 80/34/32 61/133/115 20/128/111
f 80/34/32 114/78/71 61/133/115
f 114/78/71 18/93/82 61/133/115
f 67/28/28 110/134/116 12/97/86
f 67/28/28 90/38/36 110/134/116
f 90/38/36 13/75/68 110/134/116
f 102/76/69 43/26/26 16/126/109
f 102/76/69 51/77/70 43/26/26
f 51/77/70 14/24/24 43/26/26
f 88/23/23 56/135/117 11/21/21
f 88/23/23 102/76/69 56/135/117
f 102/76/69 16/126/109 56/135/117
f 86/74/67 61/133/115 18/93/82
f 86/74/67 55/73/66 61/133/115
f 55/73/66 20/128/111 61/133/115
f 69/71/64 95/57/53 32/56/52
f 69/71/64 83/70/63 95/57/53
f 83/70/63 26/43/41 95/57/53
f 49/68/57 83/70/63 33/69/55
f 49/68/57 44/67/62 83/70/63
f 44/67/62 26/43/41 83/70/63
f 44/67/62 39/44/42 26/43/41
f 44/67/62 65/66/61 39/44/42
f 65/66/61 27/123/106 39/44/42
f 47/64/60 62/130/113 22/131/73
f 47/64/60 103/63/59 62/130/113
f 103/63/59 14/24/24 62/130/113
f 49/61/57 103/63/59 34/62/58
f 49/61/57 91/60/56 103/63/59
f 91/60/56 14/24/24 103/63/59
f 77/58/54 73/136/118 25/117/103
f 77/58/54 95/57/53 73/136/118
f 95/57/53 26/43/41 73/136/118
f 87/55/51 77/58/54 25/117/103
f 87/55/51 58/54/50 77/58/54
f 58/54/50 32/56/52 77/58/54
f 58/52/50 70/87/78 32/86/52
f 58/52/50 112/51/49 70/87/78
f 112/51/49 16/126/109 70/87/78
f 112/51/49 56/135/117 16/126/109
f 112/51/49 37/50/48 56/135/117
f 37/50/48 11/21/21 56/135/117
f 117/48/46 116/121/105 30/122/99
f 117/48/46 99/47/45 116/121/105
f 99/47/45 29/101/90 116/121/105
f 40/45/43 108/132/114 21/127/110
f 40/45/43 39/44/42 108/132/114
f 39/44/42 27/123/106 108/132/114
f 74/42/40 73/136/118 26/43/41
f 74/42/40 105/41/39 73/136/118
f 105/41/39 25/117/103 73/136/118
f 105/41/39 50/118/104 25/117/103
f 105/41/39 38/40/38 50/118/104
f 38/40/38 24/72/65 50/118/104
f 90/38/36 51/77/70 13/75/68
f 90/38/36 113/37/35 51/77/70
f 113/37/35 14/24/24 51/77/70
f 53/36/34 97/81/74 22/80/73
f 53/36/34 71/35/33 97/81/74
f 71/35/33 21/127/110 97/81/74
f 71/35/33 92/129/112 21/127/110
f 71/35/33 80/34/32 92/129/112
f 80/34/32 20/128/111 92/129/112
f 54/32/30 114/78/71 19/33/31
f 54/32/30 68/31/29 114/78/71
f 68/31/29 18/93/82 114/78/71
f 68/29/29 63/96/85 18/120/82
f 68/29/29 67/28/28 63/96/85
f 67/28/28 12/97/86 63/96/85
f 43/26/26 72/125/108 16/126/109
f 43/26/26 98/25/25 72/125/108
f 98/25/25 15/124/107 72/125/108
f 88/23/23 110/134/116 13/75/68
f 88/23/23 101/22/22 110/134/116
f 101/22/22 12/97/86 110/134/116
f 89/137/119 124/17/17 84/20/20 9/138/120
f 8/139/121 78/140/8 124/17/17 89/137/119
f 78/140/8 7/141/7 111/18/18 124/17/17
f 52/142/122 125/13/13 57/16/16 5/143/123
f 4/144/124 41/4/4 125/13/13 52/142/122
f 41/4/4 3/3/3 93/14/14 125/13/13
f 96/145/125 126/9/9 106/12/12 1/146/126
f 9/138/120 84/20/20 126/9/9 96/145/125
f 84/20/20 10/19/19 59/10/10 126/9/9
f 109/147/127 127/5/5 78/8/8 8/148/121
f 5/143/123 57/16/16 127/5/5 109/147/127
f 57/16/16 6/15/15 104/6/6 127/5/5
f 79/149/128 128/1/1 41/4/4 4/144/124
f 1/146/126 106/12/12 128/1/1 79/149/128
f 106/12/12 2/11/11 75/2/2 128/1/1
