%YAML 1.1
%TAG !u! tag:unity3d.com,2011:
--- !u!21 &2100000
Material:
  serializedVersion: 6
  m_ObjectHideFlags: 0
  m_PrefabParentObject: {fileID: 0}
  m_PrefabInternal: {fileID: 0}
  m_Name: Decoration01
  m_Shader: {fileID: 4800000, guid: 66fed5dd5b3755d4199f36edae55e880, type: 3}
  m_ShaderKeywords: _NORMALMAP _USELOCALNORMALS_ON
  m_LightmapFlags: 5
  m_CustomRenderQueue: -1
  stringTagMap: {}
  m_SavedProperties:
    serializedVersion: 2
    m_TexEnvs:
    - first:
        name: _BumpMap
      second:
        m_Texture: {fileID: 2800000, guid: 37438fa5eda5fd14a89e163692d2c305, type: 3}
        m_Scale: {x: 1, y: 1}
        m_Offset: {x: 0, y: 0}
    - first:
        name: _Cavity
      second:
        m_Texture: {fileID: 0}
        m_Scale: {x: 1, y: 1}
        m_Offset: {x: 0, y: 0}
    - first:
        name: _DetailAlbedoMap
      second:
        m_Texture: {fileID: 2800000, guid: 2e57c69b4b105044a806e272ea0fef8b, type: 3}
        m_Scale: {x: 5, y: 5}
        m_Offset: {x: 0, y: 0}
    - first:
        name: _DetailMask
      second:
        m_Texture: {fileID: 2800000, guid: 1f74644f5c760c14cb111f06fafa5ba3, type: 3}
        m_Scale: {x: 1, y: 1}
        m_Offset: {x: 0, y: 0}
    - first:
        name: _DetailNormalMap
      second:
        m_Texture: {fileID: 2800000, guid: 680c94c2f71a92041be20f1ba8e65315, type: 3}
        m_Scale: {x: 5, y: 5}
        m_Offset: {x: 0, y: 0}
    - first:
        name: _EmissionMap
      second:
        m_Texture: {fileID: 0}
        m_Scale: {x: 1, y: 1}
        m_Offset: {x: 0, y: 0}
    - first:
        name: _MainTex
      second:
        m_Texture: {fileID: 2800000, guid: 1f74644f5c760c14cb111f06fafa5ba3, type: 3}
        m_Scale: {x: 1, y: 1}
        m_Offset: {x: 0, y: 0}
    - first:
        name: _MetallicGlossMap
      second:
        m_Texture: {fileID: 2800000, guid: 88d1bfe446f31b34086eb81903441c50, type: 3}
        m_Scale: {x: 1, y: 1}
        m_Offset: {x: 0, y: 0}
    - first:
        name: _OcclusionMap
      second:
        m_Texture: {fileID: 2800000, guid: b78492856a4daa04884259f9dd087f1f, type: 3}
        m_Scale: {x: 1, y: 1}
        m_Offset: {x: 0, y: 0}
    - first:
        name: _ParallaxMap
      second:
        m_Texture: {fileID: 2800000, guid: e05fa66de97b396488ae8315aab6c4e5, type: 3}
        m_Scale: {x: 1, y: 1}
        m_Offset: {x: 0, y: 0}
    - first:
        name: _RampTex
      second:
        m_Texture: {fileID: 0}
        m_Scale: {x: 1, y: 1}
        m_Offset: {x: 0, y: 0}
    - first:
        name: _TranslucencyMap
      second:
        m_Texture: {fileID: 0}
        m_Scale: {x: 1, y: 1}
        m_Offset: {x: 0, y: 0}
    - first:
        name: _UpAlbedo
      second:
        m_Texture: {fileID: 2800000, guid: b967ba89ed3cf3d438902fd36418b0da, type: 3}
        m_Scale: {x: 5, y: 5}
        m_Offset: {x: 0, y: 0}
    - first:
        name: _UpAmbientOc
      second:
        m_Texture: {fileID: 2800000, guid: 0910ab76c776c9d4bb8d46d04cd1549b, type: 3}
        m_Scale: {x: 5, y: 5}
        m_Offset: {x: 0, y: 0}
    - first:
        name: _UpMetalness
      second:
        m_Texture: {fileID: 2800000, guid: 0787be9905dd6184689430687361f900, type: 3}
        m_Scale: {x: 5, y: 5}
        m_Offset: {x: 0, y: 0}
    - first:
        name: _UpNormal
      second:
        m_Texture: {fileID: 2800000, guid: 55bab01f20ade224eb50e252e7bf1816, type: 3}
        m_Scale: {x: 5, y: 5}
        m_Offset: {x: 0, y: 0}
    m_Floats:
    - first:
        name: Depth
      second: 0
    - first:
        name: _BumpScale
      second: 1
    - first:
        name: _CavityMult
      second: 0
    - first:
        name: _Cutoff
      second: 0.5
    - first:
        name: _CutoffIntensity
      second: 0.5
    - first:
        name: _DetailMaskMult
      second: 1.43
    - first:
        name: _DetailNormalMapScale
      second: -1
    - first:
        name: _DstBlend
      second: 0
    - first:
        name: _EmissionLM
      second: 0
    - first:
        name: _GameTime
      second: 0
    - first:
        name: _Glossiness
      second: 1.14
    - first:
        name: _GradIntensity
      second: 0.3
    - first:
        name: _GradYCap
      second: 1
    - first:
        name: _HgtMapSmooth
      second: 2
    - first:
        name: _HighIntensity
      second: 1
    - first:
        name: _InvertAxis
      second: 0
    - first:
        name: _InvertDepth
      second: 0
    - first:
        name: _LightScalar
      second: 1
    - first:
        name: _LowIntensity
      second: 0
    - first:
        name: _Metallic
      second: 0
    - first:
        name: _Mode
      second: 0
    - first:
        name: _NormalSmooth
      second: -0.57
    - first:
        name: _OcclusionStrenght
      second: 1
    - first:
        name: _OcclusionStrength
      second: 1
    - first:
        name: _Parallax
      second: -0.01
    - first:
        name: _RampIntensity
      second: 0.3
    - first:
        name: _RampLevels
      second: 2
    - first:
        name: _RimPower
      second: 1
    - first:
        name: _RimScalar
      second: 1.4
    - first:
        name: _SrcBlend
      second: 1
    - first:
        name: _TopBottom
      second: -0.11
    - first:
        name: _TopBottomMult
      second: 2.75
    - first:
        name: _TopBottomSmooth
      second: 4.64
    - first:
        name: _TransMult
      second: 0
    - first:
        name: _UVMasterTiling
      second: 1
    - first:
        name: _UVSec
      second: 0
    - first:
        name: _UpAOMult
      second: 1
    - first:
        name: _UpAlbPower
      second: 1
    - first:
        name: _UpGloss
      second: 1
    - first:
        name: _UpGlossSmooth
      second: 1
    - first:
        name: _UpMetallic
      second: 0
    - first:
        name: _UpNormalSmooth
      second: -0.88
    - first:
        name: _UseLocalNormals
      second: 1
    - first:
        name: _WindScalar
      second: 1
    - first:
        name: _ZWrite
      second: 1
    m_Colors:
    - first:
        name: _CavityColor
      second: {r: 0.5, g: 0.5, b: 0.5, a: 1}
    - first:
        name: _Color
      second: {r: 0.24163736, g: 0.19106835, b: 0.2794118, a: 1}
    - first:
        name: _EmissionColor
      second: {r: 0, g: 0, b: 0, a: 1}
    - first:
        name: _HighColor
      second: {r: 1, g: 1, b: 1, a: 1}
    - first:
        name: _LowColor
      second: {r: 1, g: 1, b: 1, a: 1}
    - first:
        name: _UpColor
      second: {r: 1, g: 1, b: 1, a: 1}
