# Blender v2.78 (sub 0) OBJ File: ''
# www.blender.org
mtllib Apple_Tree_NoLeaves_m_04.mtl
o Apple_Tree_NoLeaves_m_04
v -0.072290 0.056848 0.265092
v 0.100898 0.567386 0.490819
v -0.029570 0.581674 0.316392
v -0.227719 0.058823 0.036755
v -0.058173 0.059673 -0.181670
v 0.097469 0.587686 0.138831
v 0.306665 0.577096 0.203703
v 0.202291 0.058219 -0.088083
v 0.193338 0.056474 0.188114
v 0.308594 0.564555 0.421325
v 0.416153 1.581867 0.732139
v 0.271776 1.591437 0.794245
v 0.169962 1.599760 0.678718
v 0.250965 1.601904 0.544861
v 0.403452 1.594916 0.577774
v -0.559110 7.086118 -0.727529
v -0.542460 7.087176 -0.735191
v -0.525642 7.023391 -0.711565
v -0.568859 7.077139 -0.738313
v -0.161273 6.150540 -0.161391
v -0.200809 6.143532 -0.168845
v 0.059433 4.739036 0.208966
v 0.055134 4.711096 0.134787
v -0.157676 6.161404 -0.121113
v -0.022425 4.697348 0.120164
v -0.223718 6.149024 -0.133458
v -0.196596 6.160401 -0.103819
v -0.012381 4.728878 0.244456
v -0.063933 4.708385 0.187972
v 0.274076 2.967700 0.602652
v 0.215372 2.981073 0.699032
v 0.425762 2.990833 0.657010
v 0.417402 3.222745 0.727146
v 0.918415 3.370561 0.981228
v 0.954230 3.280274 0.938593
v 0.333525 3.012961 0.807913
v 0.468821 2.826701 0.800742
v 0.966593 3.259926 1.023898
v 0.882673 3.303676 1.059603
v 1.446276 4.090214 1.202101
v 1.324373 4.031681 1.242711
v 1.361334 4.138425 1.145630
v 1.436190 4.075072 1.124740
v 1.665173 5.347697 0.836118
v 1.701858 5.330736 0.842217
v 1.394052 4.219285 1.217547
v 1.701396 5.352038 0.869283
v 1.327603 6.137846 0.419556
v 1.308881 6.172263 0.412535
v 1.298176 6.161027 0.403096
v 1.664810 5.353575 0.876644
v 1.308065 6.143737 0.432754
v 1.031548 4.398669 1.227335
v 1.018829 4.375420 1.180956
v 0.722512 5.039124 1.236176
v 0.732853 5.043782 1.254039
v 1.008779 4.357572 1.236731
v 0.717584 5.034838 1.258877
v -0.212848 6.154931 -0.116291
v -0.140245 5.460812 0.032596
v 0.198877 1.601792 0.605210
v 1.682981 5.354002 0.876113
v 1.444652 4.174737 1.224073
v 0.144569 3.870570 0.522463
v 0.283068 2.253597 0.614711
v -0.045107 5.477715 0.050710
v 0.966151 3.263507 0.977335
v 1.155703 3.711513 1.077950
v 0.697590 3.063700 0.904637
v 0.236414 2.972183 0.646269
v 1.609323 4.699854 1.012863
v 0.210765 0.564575 0.473865
v 0.424797 2.233658 0.770360
v 0.083208 3.841614 0.455663
v 0.193148 1.043079 0.651412
v 0.083987 0.058946 -0.167502
v 1.564188 4.756143 1.064389
v 1.209750 4.240905 1.232009
v 1.683638 5.338021 0.836018
v 0.026186 4.735806 0.232878
v -0.363442 6.696392 -0.449004
v 0.326561 0.570140 0.312316
v 0.413209 2.255279 0.640315
v -0.575964 7.108630 -0.752509
v 1.189803 4.190619 1.244504
v 0.179643 1.062246 0.353597
v 0.009132 0.274549 -0.049872
v 1.407581 4.105524 1.120045
v -0.215282 6.145478 -0.152813
v 0.226114 3.849093 0.390006
v 0.430417 3.180380 0.684949
v 0.706341 5.072065 1.249868
v 0.253609 0.268593 0.033648
v 0.710956 5.073630 1.257202
v 1.661485 5.351009 0.856428
v 0.379116 3.194067 0.768685
v 0.423224 1.587798 0.653482
v -0.155939 6.156334 -0.141673
v 0.210782 1.595599 0.745469
v 1.705134 5.341014 0.855704
v -0.146112 0.271070 0.155954
v 0.690565 3.098096 0.812579
v -0.340966 6.620975 -0.429916
v 1.204065 3.634420 1.054686
v 0.663806 3.197902 0.869833
v 0.367197 1.039755 0.585487
v 0.863596 4.740886 1.240546
v 1.495150 5.805749 0.606261
v 1.517758 5.817332 0.626719
v 0.018518 0.585966 0.216741
v -0.556824 7.109870 -0.761364
v -0.178809 0.057836 0.170308
v 0.473326 2.838493 0.744485
v 0.133340 3.828281 0.373765
v 1.303655 6.180379 0.400568
v -0.101062 5.476387 0.075528
v 1.027112 4.390389 1.200559
v 1.448241 4.080222 1.157230
v 0.330142 1.599004 0.548215
v 0.002194 0.262975 0.366438
v 0.923618 3.277354 1.049684
v -0.389612 6.695364 -0.437228
v 0.713040 5.075223 1.247779
v 1.298941 6.175272 0.396419
v 0.077373 1.056975 0.508318
v -0.108696 5.452420 -0.018945
v -0.175789 6.161838 -0.109344
v 1.134463 3.662440 1.159548
v 0.064268 4.725783 0.171044
v 1.493399 5.810946 0.633846
v 1.288725 6.178166 0.403027
v -0.562621 7.113997 -0.751035
v 1.614902 4.725080 1.058987
v 0.894805 3.343711 1.024326
v 0.214642 2.259567 0.729114
v 0.301894 2.264882 0.825334
v 1.385932 4.014283 1.240415
v 0.331406 2.973835 0.603810
v 0.225095 3.911823 0.469815
v 0.017989 4.702809 0.120784
v 0.207745 0.583364 0.153338
v 1.293439 6.183273 0.407176
v 0.610950 3.120945 0.946367
v 1.370197 4.107849 1.253018
v 1.560852 4.741033 1.009375
v 1.386123 4.240324 1.176244
v 0.419298 2.851093 0.833031
v 0.070040 0.056661 0.259970
v 1.264245 6.235214 0.367782
v -0.049744 5.462871 -0.007830
v 0.937338 3.329865 0.951978
v 0.232539 0.057346 0.051272
v -0.204152 6.218806 -0.206089
v 0.359036 1.051598 0.401212
v 1.020313 4.378545 1.237731
v 0.349283 1.585692 0.775361
v 1.309161 4.037488 1.198338
v -0.571982 7.104183 -0.763178
v 0.851119 4.727253 1.209033
v 1.521223 5.800506 0.611831
v -0.356372 6.617987 -0.432731
v 1.011731 4.362727 1.206733
v -0.170309 0.059248 -0.093840
v 1.199638 4.215406 1.176262
v 0.843381 4.717064 1.247478
v 0.244625 2.993859 0.745725
v 0.020465 0.574352 0.414809
v 0.249091 0.261443 0.291012
v 1.216655 3.634421 1.132302
v -0.049143 4.701285 0.150786
v -0.043473 4.719061 0.220853
v -0.406953 6.685344 -0.456106
v 0.845494 4.720147 1.226935
v 0.853743 4.729160 1.247770
v 1.193106 4.198942 1.208060
v 1.199791 4.215800 1.244917
v 1.589978 4.742568 1.066594
v 1.206294 4.232188 1.199798
v 0.858859 4.735897 1.222352
v 1.505326 5.815207 0.632343
v 1.491829 5.808292 0.620129
v 1.557709 4.752092 1.036975
v 1.616924 4.708962 1.035832
v 1.508440 5.802059 0.606985
v 1.521936 5.808975 0.619200
v 1.216693 3.629322 1.091044
v 1.180304 3.675347 1.058595
v 1.584656 4.718487 1.006213
v 0.631877 3.167042 0.912902
v 0.699578 3.073280 0.853807
v 1.138750 3.692075 1.121199
v 0.187566 3.895511 0.502809
v 0.233512 3.883418 0.428206
v 1.175139 3.646050 1.153648
v 0.238907 2.255961 0.666336
v 0.249514 2.264170 0.784977
v 0.430587 2.243024 0.703994
v 0.367865 2.248430 0.808201
v 0.182133 3.834894 0.374588
v 0.107978 3.854503 0.495323
v 0.350737 2.255398 0.616327
v 0.652047 3.086921 0.933680
v 0.679409 3.153401 0.833028
v 0.101137 3.833056 0.410787
v -0.128962 5.455425 0.004354
v -0.399072 6.683414 -0.468138
v -0.375521 6.696805 -0.441089
v -0.124657 5.468921 0.057555
v -0.071081 5.478443 0.067763
v -0.363014 6.691797 -0.462001
v -0.400414 6.690401 -0.445125
v -0.077989 5.456582 -0.018427
v -0.042165 5.470832 0.020814
v -0.602227 7.190384 -0.815800
v 0.273646 1.057705 0.361888
v 0.122618 1.049938 0.589961
v 0.379293 1.045037 0.492513
v 0.114999 1.060734 0.422232
v 0.285841 1.040240 0.633431
v 0.273838 0.264675 0.162702
v -0.086467 0.273453 0.039587
v 0.132221 0.261512 0.350135
v 0.138682 0.272058 -0.029311
v -0.090360 0.266933 0.274067
vt 0.5648 0.7681
vt 0.5646 0.7720
vt 0.5632 0.7713
vt 0.5633 0.7672
vt 0.5584 0.7672
vt 0.5587 0.7712
vt 0.5573 0.7717
vt 0.5569 0.7679
vt 0.5679 0.7694
vt 0.5675 0.7729
vt 0.5660 0.7726
vt 0.5662 0.7689
vt 0.5617 0.7669
vt 0.5617 0.7710
vt 0.5602 0.7707
vt 0.5600 0.7665
vt 0.5555 0.7688
vt 0.5560 0.7724
vt 0.5547 0.7730
vt 0.5540 0.7697
vt 0.5668 0.7795
vt 0.5655 0.7793
vt 0.5618 0.7783
vt 0.5605 0.7781
vt 0.5568 0.7792
vt 0.5556 0.7796
vt 0.5643 0.7789
vt 0.5641 0.7859
vt 0.5630 0.7858
vt 0.5631 0.7786
vt 0.5592 0.7785
vt 0.5597 0.7857
vt 0.5586 0.7858
vt 0.5580 0.7788
vt 0.5626 0.8609
vt 0.5625 0.8608
vt 0.5627 0.8607
vt 0.5627 0.8608
vt 0.5565 0.8455
vt 0.5568 0.8456
vt 0.5549 0.8538
vt 0.5567 0.8363
vt 0.5572 0.8363
vt 0.5562 0.8455
vt 0.5576 0.8364
vt 0.5580 0.8364
vt 0.5571 0.8457
vt 0.5559 0.8540
vt 0.5561 0.8540
vt 0.5540 0.8622
vt 0.5538 0.8622
vt 0.5594 0.8531
vt 0.5596 0.8531
vt 0.5600 0.8366
vt 0.5604 0.8367
vt 0.5588 0.8458
vt 0.5585 0.8457
vt 0.5591 0.8365
vt 0.5595 0.8365
vt 0.5582 0.8457
vt 0.5580 0.8457
vt 0.5563 0.8540
vt 0.5566 0.8540
vt 0.5543 0.8623
vt 0.5541 0.8622
vt 0.5555 0.8539
vt 0.5557 0.8540
vt 0.5537 0.8622
vt 0.5536 0.8622
vt 0.5583 0.8365
vt 0.5588 0.8365
vt 0.5577 0.8457
vt 0.5574 0.8457
vt 0.5606 0.8154
vt 0.5612 0.8155
vt 0.5598 0.8273
vt 0.5593 0.8273
vt 0.5743 0.7807
vt 0.5750 0.7812
vt 0.5747 0.7852
vt 0.5740 0.7846
vt 0.5775 0.7807
vt 0.5782 0.7810
vt 0.5778 0.7850
vt 0.5771 0.7847
vt 0.5599 0.7945
vt 0.5609 0.7945
vt 0.5610 0.8034
vt 0.5602 0.8034
vt 0.5619 0.8156
vt 0.5625 0.8156
vt 0.5609 0.8274
vt 0.5604 0.8274
vt 0.5592 0.8153
vt 0.5599 0.8153
vt 0.5588 0.8272
vt 0.5583 0.8271
vt 0.5656 0.7948
vt 0.5666 0.7946
vt 0.5660 0.8030
vt 0.5651 0.8034
vt 0.5581 0.7946
vt 0.5590 0.7946
vt 0.5594 0.8034
vt 0.5587 0.8032
vt 0.5638 0.7948
vt 0.5646 0.7950
vt 0.5642 0.8039
vt 0.5634 0.8038
vt 0.5619 0.7946
vt 0.5628 0.7947
vt 0.5627 0.8036
vt 0.5618 0.8035
vt 0.5766 0.7909
vt 0.5772 0.7911
vt 0.5766 0.7973
vt 0.5761 0.7971
vt 0.5579 0.8155
vt 0.5586 0.8152
vt 0.5578 0.8271
vt 0.5572 0.8270
vt 0.5631 0.8161
vt 0.5615 0.8275
vt 0.5752 0.7910
vt 0.5760 0.7907
vt 0.5756 0.7969
vt 0.5749 0.7972
vt 0.5728 0.7803
vt 0.5735 0.7801
vt 0.5733 0.7841
vt 0.5727 0.7843
vt 0.5759 0.7808
vt 0.5767 0.7804
vt 0.5764 0.7844
vt 0.5755 0.7848
vt 0.5743 0.8058
vt 0.5748 0.8060
vt 0.5753 0.8146
vt 0.5750 0.8144
vt 0.5755 0.7973
vt 0.5738 0.7909
vt 0.5745 0.7913
vt 0.5743 0.7974
vt 0.5737 0.7972
vt 0.5726 0.7907
vt 0.5732 0.7905
vt 0.5730 0.7969
vt 0.5725 0.7972
vt 0.5759 0.8210
vt 0.5761 0.8209
vt 0.5773 0.8275
vt 0.5773 0.8276
vt 0.5762 0.8209
vt 0.5764 0.8210
vt 0.5775 0.8275
vt 0.5774 0.8275
vt 0.5735 0.8058
vt 0.5739 0.8055
vt 0.5748 0.8142
vt 0.5746 0.8144
vt 0.5752 0.8060
vt 0.5756 0.8061
vt 0.5758 0.8143
vt 0.5755 0.8145
vt 0.5812 0.8025
vt 0.5813 0.8025
vt 0.5813 0.8026
vt 0.5812 0.8028
vt 0.5812 0.8026
vt 0.5813 0.8028
vt 0.5766 0.8210
vt 0.5768 0.8209
vt 0.5778 0.8275
vt 0.5776 0.8275
vt 0.5770 0.8209
vt 0.5771 0.8210
vt 0.5780 0.8275
vt 0.5779 0.8275
vt 0.5829 0.7869
vt 0.5832 0.7869
vt 0.5827 0.7924
vt 0.5826 0.7924
vt 0.5834 0.7789
vt 0.5839 0.7789
vt 0.5836 0.7814
vt 0.5832 0.7815
vt 0.5760 0.8059
vt 0.5764 0.8059
vt 0.5763 0.8144
vt 0.5761 0.8144
vt 0.5825 0.7788
vt 0.5829 0.7790
vt 0.5827 0.7816
vt 0.5823 0.7814
vt 0.5814 0.7787
vt 0.5820 0.7786
vt 0.5819 0.7812
vt 0.5814 0.7812
vt 0.5814 0.7989
vt 0.5813 0.7988
vt 0.5814 0.7988
vt 0.5823 0.7869
vt 0.5826 0.7870
vt 0.5824 0.7924
vt 0.5823 0.7924
vt 0.5817 0.7868
vt 0.5820 0.7868
vt 0.5822 0.7924
vt 0.5820 0.7924
vt 0.5813 0.7868
vt 0.5818 0.7924
vt 0.5809 0.7813
vt 0.5813 0.7987
vt 0.5814 0.7986
vt 0.5812 0.7988
vt 0.5808 0.7788
vt 0.5807 0.7762
vt 0.5814 0.7761
vt 0.5822 0.7760
vt 0.5827 0.7762
vt 0.5831 0.7764
vt 0.5754 0.7978
vt 0.5760 0.7975
vt 0.5836 0.7764
vt 0.5842 0.7764
vt 0.5814 0.8028
vt 0.5814 0.8026
vt 0.5814 0.8025
vt 0.5748 0.7976
vt 0.5732 0.8059
vt 0.5744 0.8145
vt 0.5720 0.7974
vt 0.5758 0.8211
vt 0.5772 0.8278
vt 0.5720 0.7910
vt 0.5720 0.7845
vt 0.5754 0.7773
vt 0.5762 0.7768
vt 0.5771 0.7764
vt 0.5721 0.7805
vt 0.5723 0.7765
vt 0.5731 0.7764
vt 0.5738 0.7762
vt 0.5648 0.8047
vt 0.5655 0.8054
vt 0.5638 0.8165
vt 0.5620 0.8276
vt 0.5572 0.8158
vt 0.5566 0.8270
vt 0.5578 0.8046
vt 0.5586 0.8040
vt 0.5608 0.7856
vt 0.5619 0.7857
vt 0.5651 0.7861
vt 0.5572 0.7946
vt 0.5579 0.8030
vt 0.5565 0.7863
vt 0.5576 0.7860
vt 0.5662 0.7862
vt 0.5672 0.7863
vt 0.5779 0.7767
vt 0.5787 0.7770
vt 0.5746 0.7767
vt 0.5552 0.8539
vt 0.5534 0.8621
vt 0.5591 0.8532
vt 0.5624 0.8608
vt 0.5559 0.8455
vt 0.5562 0.8363
vt 0.5626 0.8611
vt 0.5628 0.8610
vt 0.5625 0.8611
vt 0.5624 0.8609
vt 0.5681 0.7797
vt 0.5690 0.7732
vt 0.5549 0.7653
vt 0.5534 0.7664
vt 0.5565 0.7642
vt 0.5616 0.7628
vt 0.5598 0.7624
vt 0.5634 0.7631
vt 0.5683 0.7658
vt 0.5664 0.7653
vt 0.5703 0.7664
vt 0.5696 0.7698
vt 0.5582 0.7633
vt 0.5649 0.7642
vn -0.8097 0.0226 0.5865
vn -0.7969 -0.0224 0.6037
vn -0.9629 0.2653 0.0504
vn -0.9343 0.3558 0.0204
vn 0.3095 0.4361 -0.8450
vn 0.2938 0.3928 -0.8714
vn 0.8141 0.1479 -0.5616
vn 0.8202 0.1481 -0.5526
vn 0.2624 -0.4459 0.8558
vn 0.2938 -0.3839 0.8754
vn -0.2908 -0.2705 0.9177
vn -0.3304 -0.2815 0.9009
vn -0.6822 0.5356 -0.4977
vn -0.7333 0.4522 -0.5076
vn -0.2616 0.5015 -0.8247
vn -0.2307 0.5647 -0.7924
vn 0.9793 -0.2019 0.0129
vn 0.9904 -0.1376 -0.0132
vn 0.7795 -0.3272 0.5342
vn 0.7444 -0.4045 0.5313
vn 0.3305 -0.3093 0.8917
vn -0.2625 -0.2349 0.9359
vn -0.7910 0.3387 -0.5095
vn -0.3182 0.3988 -0.8600
vn 0.9956 -0.0823 -0.0452
vn 0.8120 -0.2485 0.5281
vn -0.7764 -0.0591 0.6275
vn -0.7486 -0.0310 0.6623
vn -0.9890 0.0921 0.1155
vn -0.9833 0.1668 0.0726
vn 0.2636 0.3237 -0.9087
vn 0.2301 0.1955 -0.9533
vn 0.7775 0.0885 -0.6226
vn 0.7886 0.1426 -0.5982
vn -0.3256 0.7733 -0.5441
vn 0.8338 0.1361 -0.5351
vn 0.3277 -0.4265 -0.8430
vn -0.4320 -0.5580 -0.7086
vn 0.8075 0.0116 -0.5897
vn 0.2460 -0.3862 -0.8890
vn 0.6826 -0.1675 -0.7113
vn 0.9857 0.1279 -0.1096
vn 0.7793 -0.0134 -0.6265
vn 0.9692 0.1996 -0.1441
vn 0.1567 -0.1788 -0.9713
vn -0.4980 -0.2350 -0.8348
vn -0.4834 -0.3501 -0.8023
vn -0.7667 0.1289 0.6289
vn -0.2647 0.4690 0.8426
vn -0.2918 0.4912 0.8207
vn -0.8801 0.1095 0.4620
vn 0.9245 0.1665 -0.3430
vn 0.3891 0.2673 0.8816
vn 0.8441 0.2408 0.4792
vn 0.8082 0.3916 0.4398
vn 0.3570 0.4378 0.8252
vn -0.7476 0.0670 0.6607
vn -0.2162 0.2050 0.9546
vn -0.2127 0.3408 0.9158
vn -0.7435 0.1088 0.6599
vn 0.3029 0.6160 0.7271
vn 0.7781 0.5396 0.3215
vn 0.7885 0.5590 0.2565
vn 0.3015 0.7169 0.6286
vn -0.5500 -0.6040 -0.5768
vn -0.9507 -0.2988 0.0826
vn -0.9316 -0.3632 0.0138
vn -0.8477 -0.2014 -0.4907
vn -0.9905 -0.0861 0.1073
vn -0.9772 -0.1560 0.1443
vn -0.7609 -0.3824 -0.5242
vn -0.8398 -0.2731 -0.4693
vn -0.9852 -0.1243 0.1178
vn -0.9894 -0.1090 0.0964
vn -0.8443 -0.2356 -0.4813
vn 0.2927 0.4542 -0.8414
vn -0.1669 0.9460 -0.2779
vn -0.5264 0.6836 -0.5056
vn 0.0239 0.4037 -0.9146
vn -0.0100 -0.4710 0.8821
vn 0.4904 -0.7795 0.3898
vn 0.5723 -0.6974 0.4314
vn 0.1165 -0.4821 0.8683
vn 0.2257 0.0442 -0.9732
vn -0.4026 0.0501 -0.9140
vn -0.3955 -0.1573 -0.9049
vn 0.2653 -0.1059 -0.9583
vn -0.7432 0.0774 0.6646
vn -0.3202 0.2419 0.9159
vn -0.2322 0.2264 0.9460
vn -0.7534 0.0680 0.6540
vn 0.2436 -0.2211 -0.9443
vn -0.3817 -0.3085 -0.8713
vn -0.3898 -0.2661 -0.8816
vn 0.2110 -0.1946 -0.9579
vn 0.3269 -0.0524 0.9436
vn 0.8524 -0.0633 0.5191
vn 0.7570 -0.4097 0.5091
vn 0.0661 -0.1864 0.9802
vn 0.9913 -0.0272 -0.1286
vn 0.7351 0.0196 -0.6776
vn 0.5975 -0.0700 -0.7988
vn 0.9095 -0.2561 -0.3275
vn -0.7350 0.0182 0.6778
vn -0.2844 -0.0046 0.9587
vn -0.4499 0.1001 0.8874
vn -0.7251 0.0574 0.6862
vn -0.8582 0.0417 -0.5116
vn -0.9936 0.0313 0.1084
vn -0.9893 -0.0533 0.1359
vn -0.8593 -0.1391 -0.4923
vn 0.2571 -0.3755 0.8905
vn 0.7383 -0.5236 0.4252
vn 0.8428 -0.2762 0.4620
vn 0.3909 -0.3132 0.8655
vn 0.9709 0.1752 -0.1632
vn 0.7242 -0.0468 -0.6880
vn 0.7353 -0.0399 -0.6766
vn 0.9833 0.1397 -0.1166
vn 0.3106 0.3717 0.8748
vn 0.3863 0.2989 0.8726
vn -0.8671 0.4859 0.1094
vn -0.5291 0.1134 0.8410
vn -0.4341 -0.1757 0.8836
vn -0.9929 0.0440 -0.1107
vn 0.6902 -0.6234 -0.3673
vn 0.5604 -0.1303 -0.8179
vn 0.5653 -0.1779 -0.8055
vn 0.7433 -0.6253 -0.2376
vn -0.4953 0.6934 0.5233
vn -0.4152 0.0887 0.9054
vn -0.4268 0.0811 0.9007
vn -0.7340 0.6403 0.2264
vn -0.1317 -0.1880 -0.9733
vn -0.7476 0.0178 -0.6639
vn -0.6762 -0.3523 -0.6471
vn 0.0086 -0.3300 -0.9440
vn 0.1596 0.0381 0.9864
vn -0.0637 0.2585 -0.9639
vn -0.6596 0.4881 -0.5715
vn -0.4653 0.1158 -0.8776
vn -0.1366 0.0207 -0.9904
vn 0.8642 -0.4819 -0.1442
vn 0.5926 -0.1619 -0.7891
vn 0.6401 -0.2435 -0.7286
vn 0.9319 -0.3582 -0.0577
vn 0.9213 0.3494 -0.1707
vn 0.6914 -0.0548 -0.7203
vn 0.6921 -0.0092 -0.7218
vn 0.8428 0.3591 -0.4009
vn 0.0698 -0.4322 -0.8991
vn -0.5615 -0.5817 -0.5885
vn -0.5292 -0.6113 -0.5884
vn 0.3517 -0.2346 -0.9062
vn 0.9785 -0.2056 -0.0176
vn 0.6370 -0.2893 -0.7145
vn 0.7230 -0.1800 -0.6670
vn 0.9951 0.0734 -0.0660
vn -0.9689 0.2463 0.0253
vn -0.5283 0.3614 0.7683
vn -0.5522 0.2934 0.7804
vn -0.9961 -0.0857 0.0207
vn 0.6272 0.6469 0.4337
vn -0.4347 0.7714 -0.4647
vn -0.6708 0.0829 0.7370
vn -0.2864 0.4759 0.8316
vn -0.9326 -0.2179 0.2876
vn -0.9129 -0.4073 0.0258
vn -0.6470 0.1398 0.7495
vn 0.1340 0.5359 0.8336
vn 0.6809 0.5882 0.4363
vn 0.7854 0.3906 -0.4801
vn -0.1683 0.0171 -0.9856
vn -0.1702 0.0408 -0.9846
vn 0.2160 0.8587 -0.4647
vn 0.3318 0.7939 -0.5095
vn -0.2438 -0.0435 -0.9688
vn -0.2152 -0.0537 -0.9751
vn 0.6920 0.5398 -0.4792
vn 0.3178 0.2031 0.9262
vn 0.8539 -0.0305 0.5195
vn 0.7853 0.3254 0.5267
vn 0.2151 0.3869 0.8967
vn 0.0587 0.1376 0.9887
vn 0.3478 0.7254 0.5940
vn 0.7436 0.5299 0.4078
vn 0.1404 0.1158 0.9833
vn -0.6567 -0.6280 -0.4176
vn -0.5574 -0.4987 0.6638
vn -0.6616 -0.4863 0.5708
vn -0.7634 -0.5615 -0.3193
vn 0.8547 0.3737 0.3603
vn -0.1335 0.6338 0.7618
vn 0.2499 0.0822 0.9648
vn 0.8482 0.3779 0.3711
vn -0.8873 -0.3671 -0.2790
vn -0.6964 -0.3175 0.6436
vn -0.6803 -0.2725 0.6804
vn -0.9126 0.3495 -0.2119
vn -0.0508 0.5258 0.8491
vn 0.4622 0.0951 0.8817
vn -0.7607 0.6339 -0.1396
vn 0.6179 0.7433 0.2563
vn -0.1201 0.5104 0.8515
vn 0.8263 0.3424 0.4471
vn 0.8451 0.2641 0.4648
vn 0.7808 0.2962 -0.5501
vn -0.3755 0.2431 -0.8944
vn -0.8396 0.1989 -0.5054
vn -0.2135 -0.1233 0.9691
vn 0.8350 -0.1326 0.5341
vn 0.9972 -0.0364 -0.0647
vn 0.3741 -0.1653 0.9125
vn -0.0780 -0.5327 -0.8427
vn 0.9798 -0.1952 -0.0423
vn 0.7517 -0.4296 0.5004
vn 0.7242 0.2253 -0.6518
vn -0.6492 0.5569 -0.5180
vn -0.2491 0.5775 -0.7775
vn -0.8965 0.4287 -0.1120
vn 0.2323 -0.4677 0.8528
vn -0.4381 -0.2435 0.8653
vn 0.2597 0.4622 -0.8479
vn -0.8585 0.0848 0.5057
usemtl None
s 1
f 224/1/1 167/2/2 3/3/3 101/4/4
f 223/5/5 141/6/6 7/7/7 93/8/8
f 222/9/9 72/10/10 2/11/11 120/12/12
f 221/13/13 110/14/14 6/15/15 87/16/16
f 220/17/17 82/18/18 10/19/19 168/20/20
f 219/21/21 75/22/22 2/11/11 72/10/10
f 218/23/23 86/24/24 6/15/15 110/14/14
f 217/25/25 106/26/26 10/19/19 82/18/18
f 216/27/27 99/28/28 13/29/29 125/30/30
f 215/31/31 119/32/32 15/33/33 154/34/34
f 214/35/35 111/36/36 18/37/37 158/38/38
f 20/39/39 153/40/40 103/41/41
f 213/42/42 150/43/43 20/39/39 98/44/44
f 212/45/45 126/46/46 21/47/47 153/40/40
f 211/48/48 122/49/49 16/50/50 84/51/51
f 210/52/52 103/53/41 18/37/37 111/36/36
f 209/54/53 66/55/54 24/56/55 127/57/56
f 208/58/57 116/59/58 27/60/59 59/61/60
f 207/62/61 81/63/62 17/64/63 132/65/64
f 206/66/65 172/67/66 19/68/67 158/69/38
f 205/70/68 60/71/69 26/72/70 89/73/71
f 204/74/72 74/75/73 29/76/74 170/77/75
f 203/78/76 105/79/77 34/80/78 151/81/79
f 202/82/80 69/83/81 38/84/82 121/85/83
f 201/86/84 65/87/85 30/88/86 138/89/87
f 200/90/88 64/91/89 28/92/90 171/93/91
f 199/94/92 114/95/93 25/96/94 140/97/95
f 198/98/96 73/99/97 37/100/98 147/101/99
f 197/102/100 83/103/101 32/104/102 113/105/103
f 196/106/104 136/107/105 36/108/106 166/109/107
f 195/110/108 135/111/109 31/112/110 70/113/111
f 194/114/112 169/115/113 40/116/114 137/117/115
f 193/118/116 90/119/117 23/120/118 129/121/119
f 192/122/120 80/123/121 28/92/90 64/91/89
f 191/124/122 128/125/123 41/126/124 157/127/125
f 190/128/126 102/129/127 35/130/128 67/131/129
f 189/132/130 143/133/131 39/134/132 134/135/133
f 188/136/134 145/137/135 44/138/136 79/139/137
f 41/126/124 137/117/115 144/140/138
f 187/141/139 68/142/140 42/143/141 88/144/142
f 186/145/143 104/146/144 43/147/145 118/148/146
f 185/149/147 160/150/148 48/151/149 115/152/150
f 184/153/151 108/154/152 50/155/153 124/156/154
f 183/157/155 71/158/156 45/159/157 100/160/158
f 182/161/159 77/162/160 51/163/161 95/164/162
f 49/165/163 115/166/150 149/167/164
f 52/168/165 142/169/166 131/170/167
f 181/171/168 130/172/169 52/173/165 131/174/167
f 180/175/170 109/176/171 49/177/163 142/178/166
f 179/179/172 159/180/173 55/181/174 123/182/175
f 178/183/176 164/184/177 54/185/178 117/186/179
f 177/187/180 133/188/181 47/189/182 62/190/183
f 176/191/184 78/192/185 53/193/186 155/194/187
f 175/195/188 85/196/189 57/197/190 162/198/191
f 56/199/192 123/200/175 94/201/193
f 174/202/194 107/203/195 56/204/192 94/205/193
f 173/206/196 165/207/197 58/208/198 92/209/199
f 159/210/173 173/206/196 92/209/199 55/211/174
f 54/212/178 162/198/191 173/206/196 159/210/173
f 162/198/191 57/197/190 165/207/197 173/206/196
f 165/207/197 174/202/194 94/205/193 58/208/198
f 57/197/190 155/194/187 174/202/194 165/207/197
f 155/194/187 53/193/186 107/203/195 174/202/194
f 94/201/193 92/213/199 58/214/198
f 94/201/193 123/200/175 92/213/199
f 123/200/175 55/215/174 92/213/199
f 164/216/177 175/195/188 162/198/191 54/212/178
f 42/217/141 157/218/125 175/195/188 164/216/177
f 157/218/125 41/219/124 85/196/189 175/195/188
f 85/196/189 176/191/184 155/194/187 57/197/190
f 41/219/124 144/220/138 176/191/184 85/196/189
f 144/220/138 46/221/200 78/192/185 176/191/184
f 77/162/160 177/187/180 62/190/183 51/163/161
f 46/222/200 63/223/201 177/187/180 77/162/160
f 63/223/201 40/116/114 133/188/181 177/187/180
f 78/192/185 178/183/176 117/186/179 53/193/186
f 46/221/200 146/224/202 178/183/176 78/192/185
f 146/224/202 42/225/141 164/184/177 178/183/176
f 107/203/195 179/179/172 123/182/175 56/204/192
f 53/193/186 117/186/179 179/179/172 107/203/195
f 117/186/179 54/185/178 159/180/173 179/179/172
f 130/172/169 180/175/170 142/178/166 52/173/165
f 51/163/161 62/190/183 180/175/170 130/172/169
f 62/190/183 47/189/182 109/176/171 180/175/170
f 108/154/152 181/171/168 131/174/167 50/155/153
f 44/138/136 95/164/162 181/171/168 108/154/152
f 95/164/162 51/163/161 130/172/169 181/171/168
f 131/170/167 149/167/164 50/226/153
f 131/170/167 142/169/166 149/167/164
f 142/169/166 49/165/163 149/167/164
f 149/167/164 124/227/154 50/226/153
f 149/167/164 115/166/150 124/227/154
f 115/166/150 48/228/149 124/227/154
f 145/137/135 182/161/159 95/164/162 44/138/136
f 42/143/141 146/229/202 182/161/159 145/137/135
f 146/229/202 46/222/200 77/162/160 182/161/159
f 133/230/181 183/157/155 100/160/158 47/231/182
f 40/232/114 118/148/146 183/157/155 133/230/181
f 118/148/146 43/147/145 71/158/156 183/157/155
f 160/150/148 184/153/151 124/156/154 48/151/149
f 45/159/157 79/139/137 184/153/151 160/150/148
f 79/139/137 44/138/136 108/154/152 184/153/151
f 109/233/171 185/149/147 115/152/150 49/234/163
f 47/231/182 100/160/158 185/149/147 109/233/171
f 100/160/158 45/159/157 160/150/148 185/149/147
f 169/235/113 186/145/143 118/148/146 40/232/114
f 38/236/82 67/131/129 186/145/143 169/235/113
f 67/131/129 35/130/128 104/146/144 186/145/143
f 104/146/144 187/141/139 88/144/142 43/147/145
f 35/130/128 151/81/79 187/141/139 104/146/144
f 151/81/79 34/80/78 68/142/140 187/141/139
f 144/140/138 63/223/201 46/222/200
f 144/140/138 137/117/115 63/223/201
f 137/117/115 40/116/114 63/223/201
f 71/158/156 188/136/134 79/139/137 45/159/157
f 43/147/145 88/144/142 188/136/134 71/158/156
f 88/144/142 42/143/141 145/137/135 188/136/134
f 105/79/77 189/132/130 134/135/133 34/80/78
f 33/237/203 96/238/204 189/132/130 105/79/77
f 96/238/204 36/239/106 143/133/131 189/132/130
f 69/240/81 190/128/126 67/131/129 38/236/82
f 37/241/98 113/242/103 190/128/126 69/240/81
f 113/242/103 32/243/102 102/129/127 190/128/126
f 68/142/140 191/124/122 157/127/125 42/143/141
f 34/80/78 134/135/133 191/124/122 68/142/140
f 134/135/133 39/134/132 128/125/123 191/124/122
f 96/244/204 192/122/120 64/91/89 36/108/106
f 33/245/203 139/246/205 192/122/120 96/244/204
f 139/246/205 22/247/206 80/123/121 192/122/120
f 139/248/205 193/118/116 129/121/119 22/249/206
f 33/250/203 91/251/207 193/118/116 139/248/205
f 91/251/207 32/104/102 90/119/117 193/118/116
f 128/125/123 194/114/112 137/117/115 41/126/124
f 39/134/132 121/85/83 194/114/112 128/125/123
f 121/85/83 38/84/82 169/115/113 194/114/112
f 65/87/85 195/110/108 70/113/111 30/88/86
f 14/252/208 61/253/209 195/110/108 65/87/85
f 61/253/209 13/29/29 135/111/109 195/110/108
f 135/111/109 196/106/104 166/109/107 31/112/110
f 13/29/29 99/28/28 196/106/104 135/111/109
f 99/28/28 12/254/210 136/107/105 196/106/104
f 73/255/97 197/102/100 113/105/103 37/256/98
f 11/257/211 97/258/212 197/102/100 73/255/97
f 97/258/212 15/33/33 83/103/101 197/102/100
f 136/107/105 198/98/96 147/101/99 36/108/106
f 12/254/210 156/259/213 198/98/96 136/107/105
f 156/259/213 11/260/211 73/99/97 198/98/96
f 90/119/117 199/94/92 140/97/95 23/120/118
f 32/104/102 138/89/87 199/94/92 90/119/117
f 138/89/87 30/88/86 114/95/93 199/94/92
f 74/75/73 200/90/88 171/93/91 29/76/74
f 31/112/110 166/109/107 200/90/88 74/75/73
f 166/109/107 36/108/106 64/91/89 200/90/88
f 83/103/101 201/86/84 138/89/87 32/104/102
f 15/33/33 119/32/32 201/86/84 83/103/101
f 119/32/32 14/252/208 65/87/85 201/86/84
f 143/133/131 202/82/80 121/85/83 39/134/132
f 36/239/106 147/261/99 202/82/80 143/133/131
f 147/261/99 37/262/98 69/83/81 202/82/80
f 102/129/127 203/78/76 151/81/79 35/130/128
f 32/243/102 91/263/207 203/78/76 102/129/127
f 91/263/207 33/237/203 105/79/77 203/78/76
f 114/95/93 204/74/72 170/77/75 25/96/94
f 30/88/86 70/113/111 204/74/72 114/95/93
f 70/113/111 31/112/110 74/75/73 204/74/72
f 126/46/46 205/70/68 89/73/71 21/47/47
f 25/96/94 170/77/75 205/70/68 126/46/46
f 170/77/75 29/76/74 60/71/69 205/70/68
f 161/264/214 206/66/65 158/69/38 18/265/37
f 21/47/47 89/73/71 206/66/65 161/264/214
f 89/73/71 26/72/70 172/67/66 206/66/65
f 122/49/49 207/62/61 132/65/64 16/50/50
f 27/60/59 127/57/56 207/62/61 122/49/49
f 127/57/56 24/56/55 81/63/62 207/62/61
f 60/71/69 208/58/57 59/61/60 26/72/70
f 29/76/74 171/93/91 208/58/57 60/71/69
f 171/93/91 28/92/90 116/59/58 208/58/57
f 116/59/58 209/54/53 127/57/56 27/60/59
f 28/92/90 80/123/121 209/54/53 116/59/58
f 80/123/121 22/247/206 66/55/54 209/54/53
f 81/266/62 210/52/52 111/36/36 17/267/63
f 24/268/55 98/44/44 210/52/52 81/266/62
f 98/44/44 20/39/39 103/53/41 210/52/52
f 172/67/66 211/48/48 84/51/51 19/68/67
f 26/72/70 59/61/60 211/48/48 172/67/66
f 59/61/60 27/60/59 122/49/49 211/48/48
f 150/43/43 212/45/45 153/40/40 20/39/39
f 23/120/118 140/97/95 212/45/45 150/43/43
f 140/97/95 25/96/94 126/46/46 212/45/45
f 66/269/54 213/42/42 98/44/44 24/268/55
f 22/249/206 129/121/119 213/42/42 66/269/54
f 129/121/119 23/120/118 150/43/43 213/42/42
f 103/41/41 161/264/214 18/265/37
f 103/41/41 153/40/40 161/264/214
f 153/40/40 21/47/47 161/264/214
f 84/270/51 214/35/35 158/38/38 19/271/67
f 16/272/50 132/273/64 214/35/35 84/270/51
f 132/273/64 17/267/63 111/36/36 214/35/35
f 141/6/6 215/31/31 154/34/34 7/7/7
f 6/15/15 86/24/24 215/31/31 141/6/6
f 86/24/24 14/252/208 119/32/32 215/31/31
f 167/2/2 216/27/27 125/30/30 3/3/3
f 2/11/11 75/22/22 216/27/27 167/2/2
f 75/22/22 12/254/210 99/28/28 216/27/27
f 154/34/34 217/25/25 82/18/18 7/7/7
f 15/33/33 97/258/212 217/25/25 154/34/34
f 97/258/212 11/257/211 106/26/26 217/25/25
f 125/30/30 218/23/23 110/14/14 3/3/3
f 13/29/29 61/253/209 218/23/23 125/30/30
f 61/253/209 14/252/208 86/24/24 218/23/23
f 106/274/26 219/21/21 72/10/10 10/275/19
f 11/260/211 156/259/213 219/21/21 106/274/26
f 156/259/213 12/254/210 75/22/22 219/21/21
f 152/276/215 220/17/17 168/20/20 9/277/216
f 8/278/217 93/8/8 220/17/17 152/276/215
f 93/8/8 7/7/7 82/18/18 220/17/17
f 163/279/218 221/13/13 87/16/16 5/280/219
f 4/281/220 101/4/4 221/13/13 163/279/218
f 101/4/4 3/3/3 110/14/14 221/13/13
f 148/282/221 222/9/9 120/12/12 1/283/222
f 9/284/216 168/285/20 222/9/9 148/282/221
f 168/285/20 10/275/19 72/10/10 222/9/9
f 76/286/223 223/5/5 93/8/8 8/278/217
f 5/280/219 87/16/16 223/5/5 76/286/223
f 87/16/16 6/15/15 141/6/6 223/5/5
f 112/287/224 224/1/1 101/4/4 4/281/220
f 1/283/222 120/12/12 224/1/1 112/287/224
f 120/12/12 2/11/11 167/2/2 224/1/1
