# Blender v2.78 (sub 0) OBJ File: ''
# www.blender.org
mtllib Apple_Tree_NoLeaves_m_03.mtl
o Apple_Tree_NoLeaves_m_03
v 0.140831 0.050271 0.231337
v 0.085467 0.585379 0.232223
v -0.138210 0.568928 0.233725
v -0.145391 0.048425 0.232312
v -0.233838 0.047854 -0.039948
v -0.207330 0.563845 0.020501
v -0.026371 0.577153 -0.112844
v -0.002280 0.049348 -0.209336
v 0.229278 0.050842 -0.041595
v 0.154587 0.590462 0.018047
v 0.069848 1.576760 0.129215
v 0.014840 1.574308 0.301150
v -0.163169 1.566373 0.301644
v -0.219567 1.557418 0.130357
v -0.074165 1.570341 0.023551
v -0.053836 2.435817 0.115413
v -0.087385 2.429230 0.288462
v -0.267587 2.469818 0.272676
v -0.355302 2.340925 0.123914
v -0.215172 2.414804 0.017218
v -0.111185 2.675189 0.054502
v 0.139405 3.562005 0.456818
v 0.184854 3.518996 0.493169
v 0.165492 3.518375 0.558891
v 0.103533 3.548161 0.563330
v -0.088257 2.728374 -0.325014
v -0.114843 2.819370 -0.297006
v -0.243117 2.644746 0.113854
v -0.772409 2.799498 0.088442
v -0.825962 2.742826 0.165416
v 0.090083 3.576632 0.499603
v 0.034547 4.589043 0.562436
v 0.029698 4.590597 0.547465
v 0.041646 4.588879 0.538493
v 0.058262 4.532663 0.557782
v -0.790814 2.714035 0.034137
v -0.874300 2.715362 0.083183
v -1.384153 3.345747 -0.199443
v -1.336151 3.330190 -0.228618
v -1.310479 3.376923 -0.194409
v -1.351405 3.353979 -0.149545
v -2.100402 3.818658 -0.374525
v -2.128139 3.830663 -0.393880
v -2.108260 3.832272 -0.392763
v -2.098476 3.810173 -0.397898
v -0.167586 2.724031 -0.371445
v -0.198861 2.826631 -0.313460
v -0.063907 3.500942 -0.690787
v -0.062510 3.463405 -0.751251
v -0.023324 3.442127 -0.638826
v -0.011204 3.476132 -0.721129
v -0.076162 3.989799 -1.140921
v -0.054031 3.992641 -1.130403
v -0.016336 3.572994 -0.733672
v 0.162819 3.684349 -0.490630
v 0.170703 3.660091 -0.493378
v -0.063351 4.013406 -1.116080
v 0.008756 4.361654 -1.231305
v 0.007734 4.375133 -1.221492
v -0.087431 4.009962 -1.117467
v -0.006284 4.369589 -1.218659
v -0.000505 4.374591 -1.236123
v 0.147671 3.667273 -0.477458
v 0.163723 3.651189 -0.470456
v 0.299022 4.007890 -0.301882
v 0.291486 4.010359 -0.302726
v 0.288533 3.995615 -0.318752
v -0.038512 3.741761 -0.943770
v -0.094947 2.773869 -0.308247
v 0.228720 3.848288 -0.380352
v -0.203419 1.561166 0.220010
v 0.154856 3.658155 -0.472600
v -0.267756 2.607168 0.216591
v -0.064245 3.989579 -1.137095
v -0.602405 2.532294 0.113573
v -0.125714 2.718441 -0.351835
v -1.120037 3.024474 -0.052064
v -0.012418 3.437798 -0.661486
v -2.134284 3.833392 -0.400843
v 0.135031 0.589173 0.129921
v 0.018376 3.073677 0.264460
v 0.052458 1.070818 0.267595
v -0.135172 0.048601 -0.148172
v 0.068133 3.555931 -0.573947
v -0.041686 3.461025 -0.745668
v -0.162471 2.684099 0.078999
v -1.319737 3.353755 -0.214468
v -2.125374 3.833985 -0.400348
v 0.070882 4.129499 0.537679
v 0.176044 3.579686 0.532361
v 0.039938 2.961362 0.422925
v 0.073381 0.584582 -0.060287
v 0.002713 4.382127 -1.222253
v -0.039786 4.199725 -1.203225
v -0.023283 4.199319 -1.196247
v -0.207860 1.051743 0.078223
v -0.225267 0.264192 -0.016099
v -0.075300 3.131409 -0.486012
v -0.180370 2.561311 -0.169647
v -2.134960 3.837555 -0.389726
v -0.083587 3.999648 -1.129766
v 0.029512 4.615592 0.554961
v -0.046868 4.211841 -1.183961
v -0.012551 0.271640 -0.172169
v 0.300669 4.023902 -0.295694
v -0.075850 2.591926 0.079003
v -0.296769 2.358724 0.071573
v 0.229557 3.835962 -0.401321
v 0.010391 4.378081 -1.229208
v -0.054984 3.086325 -0.529329
v -0.189826 2.775334 -0.345215
v -0.268890 1.973610 0.132083
v 0.005290 1.574002 0.065960
v -0.029052 4.210726 -1.182252
v -0.113578 3.084770 -0.561034
v -0.074164 1.570341 0.314252
v 0.073843 2.963364 0.320007
v -0.144017 0.267037 0.234156
v 0.232996 3.826527 -0.402283
v 0.038697 4.614140 0.561429
v 0.081521 4.119099 0.573513
v -0.049193 1.999525 0.286980
v 0.032869 4.615456 0.543674
v 0.113911 1.075321 0.076453
v -0.187774 0.565134 0.132122
v -0.157886 2.444526 0.298907
v -0.002280 0.049348 0.260971
v -0.073471 3.476497 -0.727949
v -0.007622 3.552061 -0.740405
v -1.078799 3.040440 0.013690
v -0.154314 1.563428 0.066576
v -1.744882 3.598198 -0.325267
v 0.099149 4.120187 0.513138
v 0.118916 0.276244 0.232870
v 0.043674 3.577015 -0.585376
v -0.855646 2.727209 0.129104
v -1.362556 3.335818 -0.217405
v 0.168130 3.654030 -0.481749
v 0.175705 3.691394 -0.482043
v -0.043761 3.452835 -0.643603
v -1.371358 3.349664 -0.171540
v -0.146407 1.056246 0.268684
v 0.239938 3.839453 -0.376949
v -0.219391 2.689547 -0.106334
v -0.500385 2.560315 0.045097
v 0.164649 3.539856 0.470929
v -1.773126 3.610928 -0.307205
v -0.159060 2.830763 -0.301627
v -0.055712 2.422619 0.222603
v 0.080878 3.562737 -0.609780
v -1.328539 3.367601 -0.168603
v 0.112291 3.571372 0.474593
v 0.009584 4.401612 -1.234358
v -0.126124 0.569725 -0.058921
v -0.035880 3.563919 -0.722513
v -0.068102 3.740136 -0.956093
v -1.054419 3.012895 -0.090406
v -0.796341 2.775440 0.132216
v -0.126092 2.692162 -0.123161
v -2.176354 3.864626 -0.406945
v -2.126050 3.838147 -0.389231
v 0.134471 3.532397 0.565858
v -0.059528 2.999199 0.425010
v -0.835402 2.710420 0.053372
v 0.212744 0.050556 0.103798
v 0.302034 4.024816 -0.298725
v -0.130439 2.002120 0.034152
v 0.042761 4.614067 0.547707
v -0.117089 2.374098 0.041106
v 0.130612 0.050095 -0.149109
v 0.298443 4.026487 -0.298880
v 0.006592 4.377957 -1.235932
v -0.046975 1.063532 -0.040610
v -0.056901 4.003255 -1.122670
v 0.054395 1.576264 0.219119
v -0.076242 4.013324 -1.115341
v -1.752545 3.614064 -0.276281
v 0.127465 4.038751 0.567138
v -0.336011 2.367852 0.195948
v 0.000591 1.995912 0.130419
v 0.070101 3.599247 -0.604701
v -0.049285 3.775748 -0.929830
v 0.134958 4.039384 0.541368
v -0.217304 0.048140 0.105282
v -0.081318 3.761574 -0.921442
v -0.210991 2.007967 0.286842
v 0.092773 3.564310 0.533295
v -0.551891 2.583619 0.217993
v -0.026371 0.577154 0.248817
v -0.058070 3.076946 0.323511
v -1.029122 3.078440 -0.046343
v 0.200165 0.279088 -0.018232
v -0.136900 3.146436 -0.507112
v -0.776097 2.758652 0.056485
v -0.507327 2.672607 0.114616
v 0.154328 3.677421 -0.484211
v -0.001087 4.382002 -1.228977
v -1.726103 3.625336 -0.304089
v -0.253898 2.542110 0.040889
v -0.084916 2.553983 -0.110935
v 0.240979 3.842136 -0.384119
v 0.055498 3.590402 -0.595289
v 0.075895 3.557063 -0.591613
v 0.231941 3.854264 -0.385367
v 0.054358 3.565328 -0.577487
v -0.041469 3.759378 -0.936645
v 0.233993 3.843188 -0.377690
v -0.038467 4.212211 -1.181795
v -0.031028 4.198594 -1.201047
v -0.077140 3.750232 -0.938923
v -0.066248 3.770847 -0.923720
v -0.044680 4.205843 -1.193935
v -0.024814 4.204962 -1.188906
v -0.082561 3.081337 -0.549016
v -0.060402 3.108335 -0.505588
v 0.077034 3.582137 -0.609416
v -0.052361 3.738763 -0.951848
v -0.175904 2.701360 -0.112733
v -0.207324 2.625615 -0.139642
v -0.107820 3.143132 -0.492728
v -0.129481 2.547141 -0.142305
v -0.021769 3.082643 0.288093
v -0.129979 3.116135 -0.536156
v -1.760556 3.603369 -0.318291
v -1.733336 3.611710 -0.316487
v -1.103965 3.031415 -0.015307
v -1.051337 3.062654 -0.011996
v -1.737772 3.620894 -0.288130
v -1.764992 3.612553 -0.289934
v -0.498075 2.621076 0.073079
v -0.582929 2.553342 0.172560
v -1.037224 3.046709 -0.072254
v -0.553113 2.539852 0.072476
v -0.065480 3.039337 0.376527
v -1.089852 3.015470 -0.075566
v -0.135778 1.057025 0.007243
v 0.027025 4.693114 0.553114
v 0.083614 4.125835 0.523099
v 0.098988 4.110806 0.574881
v 0.113977 4.111860 0.523465
v 0.073820 4.125242 0.556638
v -0.527891 2.634566 0.173164
v 0.062787 2.956756 0.373444
v -0.098061 2.622886 -0.115396
v -0.011128 2.977478 0.431694
v 0.050148 3.018334 0.286155
v -0.206785 1.986731 0.073683
v -0.129744 2.005371 0.298612
v -0.057804 2.000150 0.072707
v -0.251247 1.989958 0.213140
v -0.013342 1.996923 0.212334
v -0.046974 1.063532 0.282488
v 0.041829 1.070039 0.006265
v -0.190661 1.053004 0.177963
v 0.096712 1.074060 0.176385
v 0.104861 0.275751 -0.110512
v -0.202527 0.264988 0.114946
v 0.177426 0.278292 0.113060
v -0.129963 0.267529 -0.109333
v -0.012551 0.271640 0.252365
vt 0.5470 0.7728
vt 0.5483 0.7786
vt 0.5456 0.7791
vt 0.5439 0.7735
vt 0.5655 0.7713
vt 0.5646 0.7771
vt 0.5620 0.7768
vt 0.5624 0.7707
vt 0.5531 0.7716
vt 0.5538 0.7778
vt 0.5511 0.7782
vt 0.5501 0.7721
vt 0.5410 0.7743
vt 0.5430 0.7796
vt 0.5404 0.7801
vt 0.5380 0.7750
vt 0.5594 0.7709
vt 0.5593 0.7771
vt 0.5566 0.7773
vt 0.5562 0.7710
vt 0.5549 0.7891
vt 0.5526 0.7895
vt 0.5455 0.7907
vt 0.5432 0.7911
vt 0.5597 0.7886
vt 0.5573 0.7887
vt 0.5502 0.7899
vt 0.5520 0.8012
vt 0.5501 0.8015
vt 0.5479 0.7903
vt 0.5570 0.8094
vt 0.5590 0.8090
vt 0.5598 0.8177
vt 0.5581 0.8184
vt 0.5494 0.8109
vt 0.5515 0.8110
vt 0.5528 0.8204
vt 0.5508 0.8199
vt 0.5609 0.8091
vt 0.5627 0.8093
vt 0.5632 0.8186
vt 0.5615 0.8182
vt 0.5533 0.8104
vt 0.5552 0.8099
vt 0.5563 0.8190
vt 0.5545 0.8197
vt 0.5648 0.8091
vt 0.5669 0.8088
vt 0.5671 0.8175
vt 0.5652 0.8181
vt 0.5633 0.8308
vt 0.5648 0.8317
vt 0.5652 0.8427
vt 0.5645 0.8425
vt 0.5582 0.8314
vt 0.5594 0.8309
vt 0.5624 0.8427
vt 0.5618 0.8432
vt 0.5784 0.8157
vt 0.5798 0.8146
vt 0.5792 0.8198
vt 0.5781 0.8203
vt 0.5606 0.8304
vt 0.5618 0.8300
vt 0.5638 0.8423
vt 0.5631 0.8425
vt 0.5803 0.7751
vt 0.5822 0.7751
vt 0.5830 0.7816
vt 0.5816 0.7817
vt 0.5640 0.8557
vt 0.5645 0.8555
vt 0.5676 0.8674
vt 0.5674 0.8674
vt 0.5663 0.8549
vt 0.5668 0.8550
vt 0.5684 0.8672
vt 0.5682 0.8672
vt 0.5648 0.8553
vt 0.5652 0.8550
vt 0.5680 0.8673
vt 0.5678 0.8673
vt 0.5673 0.8551
vt 0.5677 0.8551
vt 0.5688 0.8672
vt 0.5686 0.8672
vt 0.5704 0.8074
vt 0.5704 0.8072
vt 0.5705 0.8072
vt 0.5705 0.8074
vt 0.5646 0.7886
vt 0.5645 0.8001
vt 0.5623 0.8000
vt 0.5622 0.7884
vt 0.5860 0.7911
vt 0.5868 0.7918
vt 0.5858 0.8008
vt 0.5853 0.8003
vt 0.5559 0.8331
vt 0.5570 0.8320
vt 0.5613 0.8437
vt 0.5606 0.8440
vt 0.5864 0.7743
vt 0.5877 0.7753
vt 0.5877 0.7828
vt 0.5868 0.7818
vt 0.5842 0.7905
vt 0.5853 0.7903
vt 0.5848 0.7998
vt 0.5841 0.7998
vt 0.5770 0.7760
vt 0.5784 0.7752
vt 0.5802 0.7817
vt 0.5792 0.7825
vt 0.5837 0.7742
vt 0.5852 0.7734
vt 0.5858 0.7808
vt 0.5844 0.7812
vt 0.5831 0.8109
vt 0.5834 0.8105
vt 0.5849 0.8210
vt 0.5848 0.8212
vt 0.5839 0.8104
vt 0.5843 0.8104
vt 0.5853 0.8208
vt 0.5851 0.8209
vt 0.5821 0.7908
vt 0.5832 0.7908
vt 0.5834 0.7999
vt 0.5827 0.8000
vt 0.5803 0.7915
vt 0.5811 0.7909
vt 0.5819 0.8000
vt 0.5813 0.8005
vt 0.5771 0.8041
vt 0.5773 0.8040
vt 0.5773 0.8043
vt 0.5775 0.8044
vt 0.5773 0.8044
vt 0.5848 0.8104
vt 0.5852 0.8104
vt 0.5856 0.8210
vt 0.5855 0.8209
vt 0.5856 0.8108
vt 0.5859 0.8111
vt 0.5860 0.8214
vt 0.5858 0.8212
vt 0.5734 0.8299
vt 0.5745 0.8299
vt 0.5742 0.8389
vt 0.5735 0.8391
vt 0.5659 0.8316
vt 0.5669 0.8316
vt 0.5667 0.8431
vt 0.5659 0.8429
vt 0.5704 0.8153
vt 0.5716 0.8158
vt 0.5719 0.8203
vt 0.5708 0.8202
vt 0.5753 0.8298
vt 0.5761 0.8296
vt 0.5752 0.8384
vt 0.5747 0.8386
vt 0.5732 0.8159
vt 0.5748 0.8161
vt 0.5747 0.8210
vt 0.5733 0.8206
vt 0.5760 0.8164
vt 0.5770 0.8168
vt 0.5770 0.8207
vt 0.5759 0.8209
vt 0.5732 0.8471
vt 0.5737 0.8471
vt 0.5745 0.8550
vt 0.5742 0.8550
vt 0.5719 0.7935
vt 0.5724 0.7937
vt 0.5725 0.7972
vt 0.5722 0.7970
vt 0.5769 0.8295
vt 0.5777 0.8295
vt 0.5762 0.8392
vt 0.5757 0.8388
vt 0.5715 0.8297
vt 0.5724 0.8298
vt 0.5728 0.8393
vt 0.5723 0.8392
vt 0.5764 0.8600
vt 0.5767 0.8599
vt 0.5766 0.8650
vt 0.5764 0.8650
vt 0.5753 0.8601
vt 0.5756 0.8601
vt 0.5759 0.8651
vt 0.5757 0.8651
vt 0.5753 0.8472
vt 0.5758 0.8475
vt 0.5761 0.8551
vt 0.5757 0.8551
vt 0.5742 0.8471
vt 0.5748 0.8470
vt 0.5754 0.8551
vt 0.5749 0.8550
vt 0.5769 0.8091
vt 0.5767 0.8091
vt 0.5768 0.8089
vt 0.5766 0.8088
vt 0.5768 0.8088
vt 0.5748 0.8601
vt 0.5750 0.8601
vt 0.5755 0.8652
vt 0.5753 0.8651
vt 0.5759 0.8601
vt 0.5762 0.8600
vt 0.5763 0.8650
vt 0.5761 0.8651
vt 0.5737 0.8023
vt 0.5739 0.8023
vt 0.5741 0.8078
vt 0.5740 0.8078
vt 0.5763 0.8471
vt 0.5767 0.8468
vt 0.5768 0.8548
vt 0.5764 0.8549
vt 0.5736 0.7934
vt 0.5739 0.7936
vt 0.5737 0.7969
vt 0.5734 0.7969
vt 0.5733 0.8024
vt 0.5735 0.8023
vt 0.5739 0.8078
vt 0.5738 0.8078
vt 0.5711 0.7935
vt 0.5714 0.7932
vt 0.5719 0.7968
vt 0.5716 0.7969
vt 0.5728 0.7935
vt 0.5732 0.7933
vt 0.5731 0.7969
vt 0.5728 0.7970
vt 0.5765 0.7998
vt 0.5765 0.7997
vt 0.5766 0.7997
vt 0.5728 0.8023
vt 0.5726 0.8024
vt 0.5737 0.8078
vt 0.5735 0.8079
vt 0.5724 0.8025
vt 0.5734 0.8079
vt 0.5713 0.7970
vt 0.5731 0.8025
vt 0.5766 0.7996
vt 0.5767 0.7996
vt 0.5765 0.7996
vt 0.5722 0.7902
vt 0.5728 0.7900
vt 0.5734 0.7897
vt 0.5706 0.7937
vt 0.5700 0.7905
vt 0.5705 0.7901
vt 0.5710 0.7897
vt 0.5738 0.7900
vt 0.5742 0.7903
vt 0.5755 0.8398
vt 0.5761 0.8393
vt 0.5766 0.8388
vt 0.5745 0.8601
vt 0.5751 0.8651
vt 0.5739 0.8550
vt 0.5769 0.8089
vt 0.5769 0.8088
vt 0.5766 0.8089
vt 0.5765 0.8091
vt 0.5748 0.8393
vt 0.5707 0.8296
vt 0.5717 0.8391
vt 0.5697 0.8201
vt 0.5716 0.7900
vt 0.5728 0.8471
vt 0.5750 0.8112
vt 0.5760 0.8120
vt 0.5771 0.8129
vt 0.5713 0.8113
vt 0.5732 0.8112
vt 0.5691 0.8148
vt 0.5685 0.8095
vt 0.5699 0.8104
vt 0.5644 0.8206
vt 0.5658 0.8203
vt 0.5671 0.8201
vt 0.5771 0.8043
vt 0.5771 0.8044
vt 0.5775 0.8042
vt 0.5775 0.8040
vt 0.5796 0.7922
vt 0.5808 0.8011
vt 0.5783 0.7832
vt 0.5827 0.8112
vt 0.5847 0.8214
vt 0.5815 0.7686
vt 0.5830 0.7673
vt 0.5845 0.7659
vt 0.5756 0.7770
vt 0.5729 0.7707
vt 0.5748 0.7696
vt 0.5766 0.7686
vt 0.5861 0.7668
vt 0.5877 0.7678
vt 0.5548 0.8341
vt 0.5599 0.8444
vt 0.5497 0.8238
vt 0.5512 0.8221
vt 0.5673 0.7773
vt 0.5670 0.7887
vt 0.5666 0.8002
vt 0.5704 0.8076
vt 0.5705 0.8076
vt 0.5703 0.8075
vt 0.5703 0.8074
vt 0.5703 0.8072
vt 0.5659 0.8548
vt 0.5635 0.8559
vt 0.5672 0.8675
vt 0.5791 0.7686
vt 0.5788 0.8112
vt 0.5804 0.8095
vt 0.5621 0.8191
vt 0.5540 0.8008
vt 0.5581 0.8002
vt 0.5602 0.8001
vt 0.5473 0.8108
vt 0.5487 0.8194
vt 0.5459 0.8022
vt 0.5480 0.8019
vt 0.5561 0.8005
vt 0.5594 0.7647
vt 0.5559 0.7647
vt 0.5629 0.7647
vt 0.5389 0.7689
vt 0.5355 0.7700
vt 0.5423 0.7679
vt 0.5525 0.7654
vt 0.5490 0.7661
vt 0.5663 0.7655
vt 0.5698 0.7663
vt 0.5685 0.7718
vt 0.5457 0.7670
vn 0.0041 0.0158 0.9999
vn 0.0079 -0.0286 0.9996
vn -0.5863 -0.0271 0.8096
vn -0.5870 0.0156 0.8095
vn -0.5897 0.1379 -0.7958
vn -0.5932 0.1185 -0.7963
vn -0.0149 0.1695 -0.9854
vn -0.0108 0.1870 -0.9823
vn 0.9447 0.1139 0.3075
vn 0.9486 0.0791 0.3065
vn 0.5926 0.0236 0.8051
vn 0.5883 0.0685 0.8058
vn -0.9506 0.0303 0.3090
vn -0.9514 -0.0025 0.3078
vn -0.9502 0.0655 -0.3046
vn -0.9481 0.0925 -0.3042
vn 0.5719 0.1861 -0.7990
vn 0.5710 0.1683 -0.8035
vn 0.9393 0.1461 -0.3105
vn 0.9361 0.1724 -0.3065
vn 0.9504 0.0498 0.3069
vn 0.5937 -0.0135 0.8046
vn -0.9496 -0.0422 0.3106
vn -0.9530 0.0222 -0.3021
vn 0.5769 0.1425 -0.8043
vn 0.9452 0.1150 -0.3055
vn 0.0099 -0.0652 0.9978
vn 0.0080 -0.0124 0.9999
vn -0.5637 -0.0538 0.8242
vn -0.5804 -0.0703 0.8113
vn 0.9514 0.1273 0.2803
vn 0.9406 0.1265 -0.3150
vn 0.9630 -0.0931 -0.2529
vn 0.9651 -0.0815 0.2487
vn -0.9038 -0.1297 0.4077
vn -0.5376 -0.0487 0.8418
vn -0.4083 -0.0356 0.9121
vn -0.7100 -0.3732 0.5972
vn 0.5755 0.0685 -0.8150
vn -0.0256 -0.0229 -0.9994
vn -0.2872 -0.3421 -0.8947
vn 0.5539 -0.2548 -0.7926
vn -0.0139 0.0187 0.9997
vn 0.5870 0.0830 0.8053
vn 0.5552 -0.1438 0.8192
vn -0.0736 -0.1105 0.9911
vn -0.5661 -0.1016 -0.8181
vn -0.9439 -0.1587 -0.2895
vn -0.8112 -0.5318 -0.2433
vn -0.4650 -0.3083 -0.8299
vn 0.7656 0.0706 -0.6395
vn 0.2051 0.3555 -0.9119
vn 0.1479 0.2319 -0.9614
vn 0.7415 0.1071 -0.6623
vn -0.0696 -0.2212 0.9727
vn 0.5811 -0.3142 0.7507
vn 0.6497 -0.2141 0.7294
vn 0.0287 -0.1136 0.9931
vn 0.9667 0.2489 0.0590
vn 0.9210 -0.2571 -0.2927
vn 0.8966 -0.3109 -0.3155
vn 0.9432 0.1865 0.2750
vn 0.9203 -0.2732 0.2801
vn 0.9717 -0.1351 -0.1940
vn 0.9881 -0.0986 -0.1182
vn 0.9569 0.0158 0.2900
vn 0.1313 0.6949 0.7071
vn 0.2728 0.9497 -0.1540
vn 0.6095 0.7928 0.0021
vn 0.2801 0.6548 0.7020
vn -0.9663 -0.0649 0.2493
vn -0.5770 -0.0303 0.8162
vn -0.5725 -0.0313 0.8193
vn -0.9454 0.0028 0.3260
vn 0.7949 0.1419 -0.5899
vn 0.0901 0.0950 -0.9914
vn 0.1149 0.0776 -0.9903
vn 0.8817 0.2349 -0.4093
vn 0.1976 0.0346 0.9797
vn 0.6978 0.0672 0.7132
vn 0.9248 0.1560 0.3470
vn 0.3235 0.1773 0.9295
vn -0.6466 -0.0023 -0.7628
vn -0.9545 -0.0486 -0.2942
vn -0.9552 -0.0716 -0.2871
vn -0.4438 0.1113 -0.8892
vn -0.0798 0.9964 0.0275
vn -0.5953 0.0845 -0.7990
vn -0.5879 0.0071 -0.8089
vn 0.0072 0.0767 -0.9970
vn -0.0112 0.1363 -0.9906
vn -0.4600 -0.6491 -0.6059
vn -0.7707 -0.6369 -0.0168
vn -0.6461 -0.7592 0.0784
vn -0.4876 -0.7485 -0.4494
vn -0.9357 0.2787 0.2165
vn -0.6264 0.0151 0.7794
vn -0.5764 -0.0059 0.8171
vn -0.9684 0.0878 0.2334
vn -0.3536 -0.5740 -0.7386
vn -0.5675 -0.8190 -0.0851
vn -0.6978 -0.7161 -0.0179
vn -0.3925 -0.6546 -0.6462
vn 0.6406 0.2545 -0.7245
vn 0.1476 -0.2717 -0.9510
vn 0.0932 -0.2590 -0.9614
vn 0.5389 0.3021 -0.7863
vn -0.4994 -0.6310 0.5937
vn -0.2201 -0.0046 0.9755
vn -0.2654 0.0374 0.9634
vn -0.6455 -0.5084 0.5700
vn 0.1619 0.4755 -0.8647
vn -0.1070 -0.0771 -0.9913
vn 0.0287 -0.1972 -0.9799
vn 0.4771 0.3940 -0.7856
vn -0.5670 -0.7016 0.4316
vn -0.2460 0.0954 0.9646
vn -0.2616 0.0410 0.9643
vn -0.4920 -0.2259 0.8408
vn 0.2884 0.7622 0.5796
vn 0.5227 0.8307 -0.1917
vn 0.4973 0.8374 -0.2266
vn 0.1555 0.7542 0.6379
vn 0.3358 0.6484 0.6833
vn 0.7368 0.6756 -0.0270
vn 0.6463 0.7524 -0.1276
vn 0.3180 0.7027 0.6364
vn -0.7501 -0.3497 0.5613
vn -0.2935 0.2273 0.9285
vn -0.2533 0.2422 0.9366
vn -0.6731 -0.5178 0.5280
vn -0.5601 -0.8039 0.2001
vn -0.8365 0.5060 -0.2105
vn 0.2509 0.2365 -0.9387
vn 0.4121 0.3676 -0.8337
vn -0.0319 -0.3622 -0.9315
vn -0.1115 -0.4686 -0.8763
vn -0.5053 -0.8485 -0.1572
vn -0.5593 -0.8110 0.1715
vn -0.4067 -0.6806 -0.6094
vn -0.9453 -0.0174 -0.3258
vn -0.8543 0.3631 0.3719
vn -0.8850 0.3059 0.3510
vn -0.9825 -0.0363 -0.1825
vn -0.4939 0.4791 -0.7256
vn -0.8493 0.4338 -0.3009
vn -0.9433 0.1582 -0.2918
vn -0.6002 0.2309 -0.7658
vn 0.3257 -0.7239 -0.6082
vn -0.5092 -0.6287 -0.5878
vn -0.4230 -0.5402 -0.7275
vn 0.3819 -0.6201 -0.6853
vn -0.1897 0.5014 0.8442
vn 0.5062 0.3595 0.7839
vn 0.3937 -0.1180 0.9117
vn -0.4473 0.2928 0.8451
vn -0.9628 -0.1319 -0.2358
vn -0.8425 0.5338 0.0725
vn -0.8842 0.3983 0.2442
vn -0.9423 -0.1218 -0.3117
vn -0.0376 0.9345 0.3539
vn 0.6584 0.6944 0.2903
vn 0.5765 0.5148 0.6345
vn -0.0776 0.6882 0.7213
vn 0.3904 -0.5383 -0.7468
vn -0.4615 -0.5356 -0.7073
vn -0.4335 -0.3830 -0.8157
vn 0.3776 -0.4423 -0.8135
vn 0.7167 0.2436 -0.6534
vn 0.0114 0.8907 -0.4544
vn -0.1362 0.7134 -0.6874
vn 0.5472 0.2538 -0.7976
vn 0.9471 0.0581 0.3155
vn 0.9169 -0.2592 -0.3034
vn 0.8120 -0.3454 -0.4704
vn 0.9438 -0.2984 0.1421
vn 0.4513 -0.4557 -0.7673
vn -0.3962 -0.3740 -0.8386
vn -0.4549 -0.4543 -0.7659
vn 0.4471 -0.4831 -0.7528
vn 0.9079 -0.0475 0.4164
vn 0.9068 -0.2381 -0.3478
vn 0.8883 -0.2323 -0.3961
vn 0.9999 -0.0061 -0.0136
vn -0.9180 0.0988 -0.3841
vn -0.8426 0.3184 0.4344
vn -0.7770 0.3585 0.5174
vn -0.8988 0.4348 -0.0552
vn -0.1426 0.6431 0.7524
vn 0.5659 0.5637 0.6017
vn 0.5217 0.3489 0.7785
vn -0.1151 0.4757 0.8721
vn -0.9684 -0.1664 -0.1859
vn -0.8523 0.3226 0.4117
vn -0.8984 0.2928 0.3275
vn -0.9345 -0.0903 -0.3442
vn -0.4770 0.0261 -0.8785
vn 0.2264 0.9493 -0.2183
vn 0.6102 0.1255 0.7822
vn 0.3520 -0.2865 -0.8911
vn -0.4244 -0.1355 -0.8953
vn 0.4944 -0.0550 -0.8675
vn -0.0481 0.2795 0.9589
vn 0.5384 0.1299 0.8326
vn -0.2175 0.5313 0.8188
vn -0.4357 -0.2434 0.8666
vn 0.4892 -0.5137 0.7049
vn 0.6153 -0.4745 0.6295
vn 0.2089 0.2397 0.9481
vn 0.9700 0.2075 0.1265
vn 0.8768 -0.2458 -0.4133
vn 0.8967 -0.2233 -0.3821
vn 0.9350 0.1201 0.3338
vn -0.5791 -0.1283 0.8051
vn 0.1409 -0.6946 0.7055
vn 0.2809 -0.6676 0.6895
vn -0.5288 -0.2477 0.8118
vn -0.8321 0.4762 -0.2842
vn -0.8805 0.1506 0.4496
vn -0.8642 0.1154 0.4898
vn -0.3545 0.9338 -0.0488
vn 0.7376 -0.6732 0.0524
vn 0.8560 -0.3195 -0.4065
vn 0.8923 -0.2373 -0.3840
vn 0.8206 -0.5693 0.0499
vn -0.6395 0.7555 0.1419
vn -0.7704 0.3698 0.5194
vn -0.8254 0.2341 0.5137
vn -0.7597 0.6379 -0.1262
vn 0.1856 0.4207 -0.8880
vn 0.8661 0.4829 -0.1293
vn 0.8448 -0.0254 -0.5344
vn 0.9509 -0.2512 -0.1809
vn -0.1210 0.5273 -0.8410
vn 0.4854 0.8499 0.2053
vn -0.4556 0.7202 0.5233
vn 0.9444 0.1190 -0.3066
vn -0.5851 0.7769 -0.2327
vn -0.3617 0.8515 -0.3797
vn 0.5900 0.6586 -0.4671
vn -0.6071 0.2168 -0.7645
vn -0.5788 0.5890 0.5639
vn -0.9552 -0.0482 -0.2920
vn 0.9826 0.1299 -0.1329
vn 0.9282 0.1354 -0.3466
vn 0.5912 0.0528 0.8048
vn 0.9479 0.1338 -0.2889
vn 0.5882 0.1193 -0.7998
vn -0.9407 -0.0746 0.3310
vn 0.9461 0.1046 0.3065
vn 0.5730 0.1842 -0.7986
vn 0.9315 0.1720 -0.3205
vn 0.0041 0.1845 -0.9828
vn -0.9528 0.0324 0.3019
vn -0.9398 0.0936 -0.3285
vn -0.5896 0.0179 0.8075
vn 0.9474 0.1168 0.2981
vn 0.6049 0.0731 0.7929
vn -0.5803 0.1372 -0.8028
vn 0.0079 0.0204 0.9998
usemtl None
s 1
f 260/1/1 189/2/2 3/3/3 118/4/4
f 259/5/5 154/6/6 7/7/7 104/8/8
f 258/9/9 80/10/10 2/11/11 134/12/12
f 257/13/13 125/14/14 6/15/15 97/16/16
f 256/17/17 92/18/18 10/19/19 192/20/20
f 255/21/21 82/22/22 2/11/11 80/10/10
f 254/23/23 96/24/24 6/15/15 125/14/14
f 253/25/25 124/26/26 10/19/19 92/18/18
f 252/27/27 116/28/28 13/29/29 142/30/30
f 251/31/31 180/32/32 16/33/33 149/34/34
f 250/35/35 186/36/36 18/37/37 179/38/38
f 249/39/39 167/40/40 20/41/41 169/42/42
f 248/43/43 122/44/44 17/45/45 126/46/46
f 247/47/47 112/48/48 19/49/49 107/50/50
f 246/51/51 81/52/52 22/53/53 146/54/54
f 245/55/55 91/56/56 24/57/57 162/58/58
f 244/59/59 200/60/60 26/61/61 69/62/62
f 243/63/63 117/64/64 23/65/65 90/66/66
f 242/67/67 195/68/68 29/69/69 158/70/70
f 241/71/71 121/72/72 32/73/73 102/74/74
f 240/75/75 133/76/76 34/77/77 168/78/78
f 239/79/79 178/80/80 35/81/81 120/82/82
f 238/83/83 89/84/84 33/85/85 123/86/86
f 24/57/57 90/66/66 178/80/80
f 237/87/87 120/88/82 35/89/81 168/90/78
f 236/91/88 131/92/89 15/93/90 173/94/91
f 235/95/92 77/96/93 38/97/94 137/98/95
f 234/99/96 163/100/97 25/101/98 187/102/99
f 233/103/100 75/104/101 37/105/102 164/106/103
f 232/107/104 157/108/105 39/109/106 87/110/107
f 231/111/108 188/112/109 30/113/110 136/114/111
f 230/115/112 145/116/113 36/117/114 194/118/115
f 229/119/116 177/120/117 42/121/118 100/122/119
f 228/123/120 198/124/121 44/125/122 161/126/123
f 227/127/124 191/128/125 40/129/126 151/130/127
f 226/131/128 130/132/129 41/133/130 141/134/131
f 43/135/132 100/136/119 160/137/133
f 44/138/122 88/139/134 160/137/133
f 225/140/135 132/141/136 45/142/137 88/143/134
f 224/144/138 147/145/139 43/146/132 79/147/140
f 223/148/141 193/149/142 48/150/143 128/151/144
f 222/152/145 190/153/146 31/154/147 152/155/148
f 221/156/149 99/157/150 46/158/151 76/159/152
f 220/160/153 98/161/154 50/162/155 140/163/156
f 219/164/157 144/165/158 47/166/159 111/167/160
f 218/168/161 159/169/162 27/170/163 148/171/164
f 217/172/165 156/173/166 52/174/167 74/175/168
f 216/176/169 181/177/170 55/178/171 139/179/172
f 215/180/173 110/181/174 51/182/175 78/183/176
f 214/184/177 115/185/178 49/186/179 85/187/180
f 213/188/181 95/189/182 58/190/183 109/191/184
f 212/192/185 103/193/186 61/194/187 197/195/188
f 211/196/189 182/197/190 57/198/191 176/199/192
f 210/200/193 185/201/194 60/202/195 101/203/196
f 62/204/197 197/205/188 153/206/198
f 59/207/199 109/208/184 153/206/198
f 209/209/200 94/210/201 62/211/197 172/212/202
f 208/213/203 114/214/204 59/215/199 93/216/205
f 207/217/206 143/218/207 65/219/208 105/220/209
f 206/221/210 68/222/211 53/223/212 174/224/213
f 205/225/214 84/226/215 64/227/216 72/228/217
f 204/229/218 70/230/219 66/231/220 171/232/221
f 203/233/222 150/234/223 56/235/224 138/236/225
f 202/237/226 135/238/227 63/239/228 196/240/229
f 67/241/230 171/242/221 166/243/231
f 56/235/224 139/179/172 119/244/232
f 201/245/233 119/244/232 67/246/230 166/247/231
f 143/248/207 201/245/233 166/247/231 65/249/208
f 64/250/216 138/236/225 201/245/233 143/248/207
f 138/236/225 56/235/224 119/244/232 201/245/233
f 119/244/232 108/251/234 67/246/230
f 119/244/232 139/179/172 108/251/234
f 139/179/172 55/178/171 108/251/234
f 166/243/231 105/252/209 65/253/208
f 166/243/231 171/242/221 105/252/209
f 171/242/221 66/254/220 105/252/209
f 181/177/170 202/237/226 196/240/229 55/178/171
f 54/255/235 155/256/236 202/237/226 181/177/170
f 155/256/236 48/257/143 135/238/227 202/237/226
f 84/258/215 203/233/222 138/236/225 64/250/216
f 50/259/155 78/260/176 203/233/222 84/258/215
f 78/260/176 51/261/175 150/234/223 203/233/222
f 108/251/234 204/229/218 171/232/221 67/246/230
f 55/178/171 196/240/229 204/229/218 108/251/234
f 196/240/229 63/239/228 70/230/219 204/229/218
f 135/238/227 205/225/214 72/228/217 63/239/228
f 48/257/143 140/262/156 205/225/214 135/238/227
f 140/262/156 50/263/155 84/226/215 205/225/214
f 182/197/190 206/221/210 174/224/213 57/198/191
f 54/264/235 129/265/237 206/221/210 182/197/190
f 129/265/237 51/266/175 68/222/211 206/221/210
f 70/230/219 207/217/206 105/220/209 66/231/220
f 63/239/228 72/228/217 207/217/206 70/230/219
f 72/228/217 64/227/216 143/218/207 207/217/206
f 103/193/186 208/213/203 93/216/205 61/194/187
f 60/202/195 176/199/192 208/213/203 103/193/186
f 176/199/192 57/198/191 114/214/204 208/213/203
f 95/267/182 209/209/200 172/212/202 58/268/183
f 53/269/212 74/175/168 209/209/200 95/267/182
f 74/175/168 52/174/167 94/210/201 209/209/200
f 153/206/198 172/270/202 62/204/197
f 153/206/198 109/208/184 172/270/202
f 109/208/184 58/271/183 172/270/202
f 153/206/198 93/272/205 59/207/199
f 153/206/198 197/205/188 93/272/205
f 197/205/188 61/273/187 93/272/205
f 156/173/166 210/200/193 101/203/196 52/174/167
f 49/186/179 128/151/144 210/200/193 156/173/166
f 128/151/144 48/150/143 185/201/194 210/200/193
f 185/201/194 211/196/189 176/199/192 60/202/195
f 48/150/143 155/274/236 211/196/189 185/201/194
f 155/274/236 54/264/235 182/197/190 211/196/189
f 94/210/201 212/192/185 197/195/188 62/211/197
f 52/174/167 101/203/196 212/192/185 94/210/201
f 101/203/196 60/202/195 103/193/186 212/192/185
f 114/214/204 213/188/181 109/191/184 59/215/199
f 57/198/191 174/224/213 213/188/181 114/214/204
f 174/224/213 53/223/212 95/189/182 213/188/181
f 110/275/174 214/184/177 85/187/180 51/276/175
f 26/277/61 76/159/152 214/184/177 110/275/174
f 76/159/152 46/158/151 115/185/178 214/184/177
f 98/161/154 215/180/173 78/183/176 50/162/155
f 27/170/163 69/62/62 215/180/173 98/161/154
f 69/62/62 26/61/61 110/181/174 215/180/173
f 150/234/223 216/176/169 139/179/172 56/235/224
f 51/261/175 129/278/237 216/176/169 150/234/223
f 129/278/237 54/255/235 181/177/170 216/176/169
f 68/279/211 217/172/165 74/175/168 53/269/212
f 51/276/175 85/187/180 217/172/165 68/279/211
f 85/187/180 49/186/179 156/173/166 217/172/165
f 144/165/158 218/168/161 148/171/164 47/166/159
f 28/280/238 86/281/239 218/168/161 144/165/158
f 86/281/239 21/282/240 159/169/162 218/168/161
f 99/157/150 219/164/157 111/167/160 46/158/151
f 20/283/41 199/284/241 219/164/157 99/157/150
f 199/284/241 28/280/238 144/165/158 219/164/157
f 193/149/142 220/160/153 140/163/156 48/150/143
f 47/166/159 148/171/164 220/160/153 193/149/142
f 148/171/164 27/170/163 98/161/154 220/160/153
f 200/285/60 221/156/149 76/159/152 26/277/61
f 16/286/33 169/287/42 221/156/149 200/285/60
f 169/287/42 20/283/41 99/157/150 221/156/149
f 81/52/52 222/152/145 152/155/148 22/53/53
f 21/288/240 86/289/239 222/152/145 81/52/52
f 86/289/239 28/290/238 190/153/146 222/152/145
f 115/185/178 223/148/141 128/151/144 49/186/179
f 46/158/151 111/167/160 223/148/141 115/185/178
f 111/167/160 47/166/159 193/149/142 223/148/141
f 132/141/136 224/144/138 79/147/140 45/142/137
f 39/109/106 137/98/95 224/144/138 132/141/136
f 137/98/95 38/97/94 147/145/139 224/144/138
f 198/124/121 225/140/135 88/143/134 44/125/122
f 40/129/126 87/110/107 225/140/135 198/124/121
f 87/110/107 39/109/106 132/141/136 225/140/135
f 160/137/133 79/291/140 43/135/132
f 160/137/133 88/139/134 79/291/140
f 88/139/134 45/292/137 79/291/140
f 160/137/133 161/293/123 44/138/122
f 160/137/133 100/136/119 161/293/123
f 100/136/119 42/294/118 161/293/123
f 77/295/93 226/131/128 141/134/131 38/296/94
f 37/297/102 136/114/111 226/131/128 77/295/93
f 136/114/111 30/113/110 130/132/129 226/131/128
f 130/132/129 227/127/124 151/130/127 41/133/130
f 30/113/110 158/70/70 227/127/124 130/132/129
f 158/70/70 29/69/69 191/128/125 227/127/124
f 177/120/117 228/123/120 161/126/123 42/121/118
f 41/133/130 151/130/127 228/123/120 177/120/117
f 151/130/127 40/129/126 198/124/121 228/123/120
f 147/298/139 229/119/116 100/122/119 43/299/132
f 38/296/94 141/134/131 229/119/116 147/298/139
f 141/134/131 41/133/130 177/120/117 229/119/116
f 195/68/68 230/115/112 194/118/115 29/69/69
f 28/300/238 199/301/241 230/115/112 195/68/68
f 199/301/241 20/302/41 145/116/113 230/115/112
f 75/303/101 231/111/108 136/114/111 37/297/102
f 19/304/49 179/305/38 231/111/108 75/303/101
f 179/305/38 18/306/37 188/112/109 231/111/108
f 191/128/125 232/107/104 87/110/107 40/129/126
f 29/69/69 194/118/115 232/107/104 191/128/125
f 194/118/115 36/117/114 157/108/105 232/107/104
f 145/116/113 233/103/100 164/106/103 36/117/114
f 20/302/41 107/307/50 233/103/100 145/116/113
f 107/307/50 19/308/49 75/104/101 233/103/100
f 190/309/146 234/99/96 187/102/99 31/310/147
f 28/311/238 73/312/242 234/99/96 190/309/146
f 73/312/242 18/37/37 163/100/97 234/99/96
f 157/108/105 235/95/92 137/98/95 39/109/106
f 36/117/114 164/106/103 235/95/92 157/108/105
f 164/106/103 37/105/102 77/96/93 235/95/92
f 154/6/6 236/91/88 173/94/91 7/7/7
f 6/313/15 96/314/24 236/91/88 154/6/6
f 96/314/24 14/315/243 131/92/89 236/91/88
f 123/316/86 237/87/87 168/90/78 34/317/77
f 33/318/85 102/319/74 237/87/87 123/316/86
f 102/319/74 32/320/73 120/88/82 237/87/87
f 178/80/80 183/321/244 35/81/81
f 178/80/80 90/66/66 183/321/244
f 90/66/66 23/65/65 183/321/244
f 133/76/76 238/83/83 123/86/86 34/77/77
f 22/53/53 152/155/148 238/83/83 133/76/76
f 152/155/148 31/154/147 89/84/84 238/83/83
f 121/72/72 239/79/79 120/82/82 32/73/73
f 25/101/98 162/58/58 239/79/79 121/72/72
f 162/58/58 24/57/57 178/80/80 239/79/79
f 183/321/244 240/75/75 168/78/78 35/81/81
f 23/65/65 146/54/54 240/75/75 183/321/244
f 146/54/54 22/53/53 133/76/76 240/75/75
f 89/322/84 241/71/71 102/74/74 33/323/85
f 31/310/147 187/102/99 241/71/71 89/322/84
f 187/102/99 25/101/98 121/72/72 241/71/71
f 188/112/109 242/67/67 158/70/70 30/113/110
f 18/306/37 73/324/242 242/67/67 188/112/109
f 73/324/242 28/300/238 195/68/68 242/67/67
f 91/56/56 243/63/63 90/66/66 24/57/57
f 17/45/45 149/34/34 243/63/63 91/56/56
f 149/34/34 16/33/33 117/64/64 243/63/63
f 159/169/162 244/59/59 69/62/62 27/170/163
f 21/282/240 106/325/245 244/59/59 159/169/162
f 106/325/245 16/326/33 200/60/60 244/59/59
f 163/100/97 245/55/55 162/58/58 25/101/98
f 18/37/37 126/46/46 245/55/55 163/100/97
f 126/46/46 17/45/45 91/56/56 245/55/55
f 117/64/64 246/51/51 146/54/54 23/65/65
f 16/33/33 106/327/245 246/51/51 117/64/64
f 106/327/245 21/288/240 81/52/52 246/51/51
f 167/40/40 247/47/47 107/50/50 20/41/41
f 15/93/90 131/92/89 247/47/47 167/40/40
f 131/92/89 14/315/243 112/48/48 247/47/47
f 186/36/36 248/43/43 126/46/46 18/37/37
f 13/29/29 116/28/28 248/43/43 186/36/36
f 116/28/28 12/328/246 122/44/44 248/43/43
f 180/32/32 249/39/39 169/42/42 16/33/33
f 11/329/247 113/330/248 249/39/39 180/32/32
f 113/330/248 15/93/90 167/40/40 249/39/39
f 112/331/48 250/35/35 179/38/38 19/332/49
f 14/333/243 71/334/249 250/35/35 112/331/48
f 71/334/249 13/29/29 186/36/36 250/35/35
f 122/44/44 251/31/31 149/34/34 17/45/45
f 12/328/246 175/335/250 251/31/31 122/44/44
f 175/335/250 11/329/247 180/32/32 251/31/31
f 189/2/2 252/27/27 142/30/30 3/3/3
f 2/11/11 82/22/22 252/27/27 189/2/2
f 82/22/22 12/328/246 116/28/28 252/27/27
f 173/94/91 253/25/25 92/18/18 7/7/7
f 15/93/90 113/330/248 253/25/25 173/94/91
f 113/330/248 11/329/247 124/26/26 253/25/25
f 142/30/30 254/23/23 125/14/14 3/3/3
f 13/29/29 71/334/249 254/23/23 142/30/30
f 71/334/249 14/333/243 96/24/24 254/23/23
f 124/26/26 255/21/21 80/10/10 10/19/19
f 11/329/247 175/335/250 255/21/21 124/26/26
f 175/335/250 12/328/246 82/22/22 255/21/21
f 170/336/251 256/17/17 192/20/20 9/337/252
f 8/338/253 104/8/8 256/17/17 170/336/251
f 104/8/8 7/7/7 92/18/18 256/17/17
f 184/339/254 257/13/13 97/16/16 5/340/255
f 4/341/256 118/4/4 257/13/13 184/339/254
f 118/4/4 3/3/3 125/14/14 257/13/13
f 165/342/257 258/9/9 134/12/12 1/343/258
f 9/337/252 192/20/20 258/9/9 165/342/257
f 192/20/20 10/19/19 80/10/10 258/9/9
f 83/344/259 259/5/5 104/8/8 8/338/253
f 5/345/255 97/346/16 259/5/5 83/344/259
f 97/346/16 6/313/15 154/6/6 259/5/5
f 127/347/260 260/1/1 118/4/4 4/341/256
f 1/343/258 134/12/12 260/1/1 127/347/260
f 134/12/12 2/11/11 189/2/2 260/1/1
