# Blender v2.78 (sub 0) OBJ File: ''
# www.blender.org
mtllib Apple_Tree_s_01.mtl
o Apple_Tree_s_01
v -0.773246 2.110497 0.041961
v -0.774486 2.281645 0.408716
v -0.661667 2.692472 0.033071
v -0.492543 2.755241 -0.359465
v -0.677919 2.250212 -0.321177
v -0.509234 2.229792 -0.583740
v -0.700821 1.731276 -0.117771
v -0.536693 1.433988 -0.284763
v -0.574823 1.416056 0.113629
v -0.457775 1.748822 -0.550778
v -0.654668 1.723165 0.505123
v -0.604600 2.219980 0.657432
v 0.082892 2.299429 -0.851135
v -0.161817 2.767124 -0.576292
v 0.220798 2.782788 -0.651181
v -0.269528 2.260617 -0.760871
v 0.460848 2.299341 -0.813839
v 0.635457 2.749515 -0.371948
v 0.750039 2.304763 -0.679815
v 0.225906 1.753780 -0.772801
v 0.342642 1.473227 -0.547087
v -0.029434 1.466164 -0.635027
v 0.753103 1.783234 -0.465823
v -0.197992 1.788579 -0.779287
v 0.931954 2.343335 -0.029067
v 0.730394 2.847839 0.135141
v 0.910400 2.285907 0.407837
v 0.493204 2.764080 0.651548
v 0.755558 2.239174 0.699677
v 0.874348 1.696837 0.170587
v 0.538358 1.245134 0.362608
v 0.701945 1.396822 -0.044900
v 0.563716 1.732163 0.730404
v 0.889057 2.340405 -0.413681
v 0.100649 2.288776 0.878595
v -0.008290 2.828965 0.704055
v -0.313819 2.244167 0.794295
v -0.379807 2.860983 0.389350
v -0.120673 1.685545 0.828072
v -0.292021 1.423174 0.635956
v 0.116860 1.377528 0.668404
v 0.476523 2.261549 0.825949
v -0.160561 1.199490 0.429116
v -0.143196 1.166174 0.030786
v -0.082897 1.291704 -0.353402
v 0.409549 1.246874 -0.109232
v 0.229441 2.982845 0.394279
v 0.264338 3.053112 0.021562
v 0.224389 3.010335 -0.367691
v -0.265041 3.045402 -0.113884
v 0.001741 0.031362 -0.048526
v 0.018009 0.377605 -0.035194
v 0.053956 0.377581 0.000731
v 0.050218 0.031362 -0.000049
v 0.001741 0.031362 0.048429
v 0.018032 0.377611 0.036678
v -0.017914 0.377635 0.000754
v -0.046737 0.031362 -0.000049
v 0.022202 0.715319 0.019493
v -0.005372 0.715728 0.047377
v -0.005680 0.715642 -0.008084
v -0.033254 0.716051 0.019799
v -0.002435 1.007303 -0.008938
v 0.039932 0.990690 0.029168
v 0.001879 0.999855 0.066219
v -0.042053 0.991581 0.034291
v 0.010886 1.063211 0.026287
v -0.054520 1.149362 0.088991
v -0.066055 1.134894 0.110263
v -0.089344 1.132350 0.094484
v -0.072227 1.138095 0.071111
v 0.187263 1.090259 0.051143
v 0.195246 1.102338 0.020457
v 0.416298 1.277583 0.019255
v 0.419271 1.274357 0.042631
v 0.182127 1.118480 0.041522
v 0.404027 1.287395 0.035369
v 0.048250 1.037853 -0.007868
v 0.090454 1.262665 -0.166776
v 0.064447 1.275260 -0.151851
v 0.063397 1.255117 -0.176042
v 0.038478 0.377593 -0.019727
v -0.236770 2.008859 -0.786225
v 0.799953 2.529600 -0.391304
v -0.055249 1.384320 -0.508520
v 0.790203 1.516010 0.038742
v 0.858636 2.609833 0.049481
v 0.313006 1.194145 0.019952
v -0.370095 1.994825 -0.688133
v 0.042824 1.013442 0.012252
v -0.005477 0.859497 0.056237
v -0.058038 3.009512 0.198710
v -0.524251 2.508190 0.557801
v -0.005854 0.859390 -0.005586
v 0.157545 1.243356 -0.227741
v -0.079063 1.132745 0.104468
v 0.516276 2.021763 0.806555
v -0.378857 2.532507 -0.578677
v 0.317834 2.276690 0.851851
v -0.220178 2.526698 -0.683931
v -0.403462 2.924199 -0.233456
v -0.691844 2.245588 0.546480
v -0.606198 1.745855 -0.344075
v 0.033583 0.994151 0.050020
v -0.027448 0.031362 0.029140
v -0.450394 1.528955 0.594518
v -0.000809 1.049688 0.004274
v -0.041437 2.543971 -0.736963
v 0.061098 1.265466 -0.163749
v -0.357525 2.570451 0.627488
v -0.405081 2.244102 -0.664079
v 0.537047 1.590347 -0.518394
v 0.815244 2.580191 -0.183756
v 0.006866 0.549761 0.040778
v -0.385610 1.274152 0.070562
v 0.604511 2.028073 -0.694105
v -0.593915 1.992652 -0.439584
v 0.763404 2.080587 -0.616364
v -0.027490 0.991497 0.053318
v -0.588825 2.245032 -0.470575
v -0.042295 1.076604 0.036144
v 0.308825 1.598225 -0.663773
v -0.027448 0.031362 -0.029237
v 0.030929 0.031362 -0.029237
v 0.631313 2.299513 -0.736496
v 0.409152 1.283329 0.025664
v 0.203029 1.168752 0.204850
v 0.054509 0.190071 -0.000294
v 0.587317 1.323045 -0.069357
v 0.659759 2.489622 0.680075
v -0.785748 2.189231 0.236241
v 0.477809 2.501005 0.767626
v 0.942502 2.317121 0.191943
v -0.621637 2.571015 0.405180
v 0.755845 1.689423 0.457323
v 0.197546 1.097965 0.034447
v 0.096866 2.932875 0.556194
v -0.024125 0.549930 0.009947
v 0.300589 1.207127 0.038800
v -0.244983 1.318502 0.550063
v -0.004333 3.045880 -0.247432
v -0.058253 1.142652 0.101095
v -0.033411 0.190071 -0.000294
v -0.054102 2.964566 0.391405
v 0.699015 2.817171 -0.105515
v -0.622093 1.535928 0.294379
v 0.334967 1.509255 0.708849
v -0.710898 1.716894 0.179360
v -0.021348 0.715870 0.003999
v -0.012530 3.071812 -0.031518
v -0.489352 1.960329 0.695592
v 0.151101 2.563752 -0.765619
v 0.017162 1.515227 0.761381
v -0.751168 1.916201 0.254546
v -0.027969 0.991565 0.014768
v -0.114081 2.266677 0.857348
v 0.736049 1.545321 -0.224471
v 0.006959 1.038062 0.055089
v 0.335803 1.305752 0.548245
v 0.092443 1.582319 -0.711792
v -0.696532 1.977193 -0.239554
v 0.484024 2.947757 0.272539
v 0.277317 2.567552 0.790299
v -0.745661 1.921544 -0.028338
v 0.367859 2.913277 0.516000
v 0.358333 2.018024 -0.806770
v -0.569377 1.421474 -0.093269
v 0.030929 0.031362 0.029140
v 0.231683 2.909966 -0.513209
v 0.151893 2.018966 -0.837311
v 0.103374 1.039601 0.043296
v -0.059604 2.024728 -0.831795
v -0.603737 2.529274 -0.332979
v 0.188009 1.111398 0.029540
v 0.148884 1.179060 -0.020413
v 0.739884 2.560957 0.519639
v -0.741145 2.391149 0.033286
v -0.237382 1.568173 -0.599462
v 0.036767 1.171451 -0.069403
v 0.151083 1.356560 -0.445268
v 0.091061 1.078416 0.037984
v -0.323930 2.990068 0.125702
v 0.822601 2.319953 -0.549536
v 0.010119 0.715450 0.003823
v -0.135276 1.165184 0.237920
v 0.857160 2.100857 -0.442162
v 0.024219 1.022965 -0.011968
v 0.078911 1.270288 -0.157508
v 0.905976 2.342648 -0.248942
v 0.656863 1.314881 0.145779
v 0.088932 1.041025 0.058086
v -0.066920 1.072018 0.065538
v -0.336264 2.780170 -0.466345
v -0.646680 1.999669 0.614639
v -0.507997 1.566256 -0.409886
v 0.244832 3.020838 0.218531
v -0.101314 2.280125 -0.818670
v -0.028521 1.101941 0.063387
v -0.481147 2.905358 -0.022703
v -0.186364 2.854961 0.567730
v -0.495100 2.022866 -0.584823
v 0.514779 2.971266 0.061882
v -0.234895 1.531638 0.726320
v 0.883601 2.050956 -0.230191
v 0.316246 1.189989 0.047053
v 0.490686 1.765767 -0.657264
v 0.619671 2.248007 0.767718
v 0.476643 2.939513 -0.166937
v -0.368711 1.288507 -0.139999
v 0.227533 2.825316 0.691292
v 0.039094 2.582381 0.806530
v -0.507629 2.475911 -0.491955
v -0.631550 1.573234 -0.223140
v 0.038490 0.377596 0.021200
v 0.706197 2.509331 -0.565506
v 0.411126 1.281213 0.041119
v 0.789501 1.981223 0.562991
v -0.580747 2.759286 -0.163976
v 0.823978 2.259332 0.585056
v 0.472178 1.213919 0.124302
v -0.550117 2.800501 0.207990
v 0.010549 0.190071 0.043666
v 0.698226 2.010381 0.719005
v 0.845083 2.589744 0.274907
v -0.021171 0.715920 0.035469
v 0.595622 1.472626 -0.295595
v 0.066997 1.153354 -0.091490
v 0.010549 0.190071 -0.044254
v 0.737857 1.452772 0.293050
v 0.078290 1.257288 -0.173412
v -0.118445 1.213745 -0.167439
v -0.062010 1.144605 0.077956
v 0.419317 1.274794 0.030472
v 0.583177 1.457292 0.553364
v 0.007771 1.262347 0.554149
v 0.388504 1.367645 -0.344820
v 0.025242 0.858995 0.025138
v -0.082820 1.134698 0.081329
v 0.010296 0.715500 0.035293
v 0.033854 1.140654 -0.099553
v 0.269604 2.301055 -0.850556
v 0.255356 3.043074 -0.185869
v -0.038510 1.074795 0.090409
v -0.401461 1.700815 0.701518
v -0.239103 1.952922 0.824964
v 0.037829 2.783286 -0.627382
v -0.752487 2.010687 0.460330
v -0.036574 0.859892 0.025513
v 0.018428 0.987634 0.008486
v -0.435729 1.420012 0.466224
v 0.209005 1.696687 0.810984
v -0.129646 1.613569 -0.711183
v 0.342468 2.562896 -0.741616
v -0.000863 1.973515 0.871236
v -0.483085 2.232248 0.712350
v -0.106907 1.388516 0.659688
v 0.847648 1.738858 -0.140897
v 0.006704 0.549715 -0.021045
v 0.154359 1.456190 -0.600726
v 0.188457 1.107881 0.048589
v -0.285722 1.484405 -0.463231
v -0.391482 1.300961 0.277416
v -0.167353 2.567574 0.756719
v -0.661418 1.565270 0.012666
v 0.037695 0.549546 0.009786
v 0.021247 2.919662 -0.467405
v 0.306386 1.986708 0.840495
v 0.000308 1.761493 -0.788301
v 0.419467 2.784103 -0.535235
v 0.419711 2.919999 -0.366008
v -0.330047 1.357238 -0.324342
v -0.685309 2.489666 -0.151688
v -0.736765 2.188294 -0.140369
v 0.182516 1.186032 0.405447
v 0.926370 2.016561 0.061812
v 0.036233 1.056691 0.004377
v -0.217948 2.936632 -0.350254
v 0.909114 1.986493 0.304981
v 0.546403 2.547744 -0.632358
v 0.114406 1.058482 0.011557
v -0.727364 2.500085 0.231862
v -0.002437 0.377623 0.021212
v -0.321527 1.761138 -0.687456
v 0.630358 2.825560 0.396538
v -0.002448 0.377620 -0.019716
v -0.010899 0.549834 -0.007726
v 0.032903 1.156257 -0.083945
v 0.051463 1.145146 -0.097506
v 0.102582 1.070105 0.022952
v 0.308069 1.198893 0.044672
v 0.053252 1.164055 -0.078995
v 0.115608 1.050532 0.024846
v 0.306080 1.201445 0.028033
v 0.092015 1.062922 0.050446
v -0.034186 1.090393 0.047774
v 0.315693 1.190923 0.033100
v -0.053937 1.072286 0.079965
v -0.056097 1.073319 0.049001
v -0.032026 1.089360 0.078738
v -0.023410 0.859669 0.007794
v 0.012078 0.859218 0.042857
v -0.023195 0.859730 0.043071
v 0.011863 0.859157 0.007580
v -0.010807 0.549860 0.027551
v 0.024377 0.549616 -0.007818
v 0.024469 0.549641 0.027459
v -0.014535 0.190071 -0.025378
v 0.035633 0.190071 0.024790
v -0.014535 0.190071 0.024790
v 0.035633 0.190071 -0.025378
vt 0.5863 0.1872
vt 0.5885 0.1859
vt 0.5890 0.1894
vt 0.5917 0.1916
vt 0.5907 0.1940
vt 0.5883 0.1919
vt 0.5849 0.1921
vt 0.5873 0.1943
vt 0.5836 0.1937
vt 0.5812 0.1859
vt 0.5787 0.1859
vt 0.5803 0.1832
vt 0.5809 0.1919
vt 0.5831 0.1890
vt 0.5791 0.1887
vt 0.5864 0.1829
vt 0.5908 0.1846
vt 0.5887 0.1815
vt 0.5922 0.1827
vt 0.5839 0.1822
vt 0.5781 0.2072
vt 0.5833 0.2045
vt 0.5840 0.2085
vt 0.5805 0.1997
vt 0.5851 0.1980
vt 0.5845 0.2007
vt 0.5463 0.1669
vt 0.5519 0.1693
vt 0.5461 0.1708
vt 0.5459 0.1748
vt 0.5498 0.1784
vt 0.5460 0.1773
vt 0.5344 0.1732
vt 0.5340 0.1769
vt 0.5300 0.1752
vt 0.5432 0.1789
vt 0.5401 0.1740
vt 0.5375 0.1781
vt 0.5761 0.2014
vt 0.5793 0.2034
vt 0.5787 0.1956
vt 0.5814 0.1975
vt 0.5664 0.2012
vt 0.5666 0.1966
vt 0.5702 0.1984
vt 0.5483 0.1883
vt 0.5510 0.1851
vt 0.5517 0.1886
vt 0.5484 0.1905
vt 0.5485 0.1928
vt 0.5526 0.1952
vt 0.5486 0.1948
vt 0.5422 0.1911
vt 0.5396 0.1929
vt 0.5400 0.1900
vt 0.5457 0.1960
vt 0.5454 0.1919
vt 0.5426 0.1952
vt 0.5445 0.1857
vt 0.5477 0.1860
vt 0.5471 0.1838
vt 0.5439 0.1834
vt 0.5466 0.1819
vt 0.5414 0.1871
vt 0.5514 0.2071
vt 0.5540 0.2024
vt 0.5570 0.2063
vt 0.5519 0.2113
vt 0.5987 0.1766
vt 0.5985 0.1834
vt 0.5962 0.1787
vt 0.5395 0.2109
vt 0.5351 0.2105
vt 0.5378 0.2069
vt 0.5926 0.1775
vt 0.5944 0.1717
vt 0.5901 0.1669
vt 0.5883 0.1727
vt 0.5867 0.1686
vt 0.5472 0.2032
vt 0.5505 0.2040
vt 0.5497 0.2008
vt 0.5463 0.2000
vt 0.5491 0.1988
vt 0.5412 0.2050
vt 0.5757 0.1693
vt 0.5811 0.1739
vt 0.5775 0.1749
vt 0.5697 0.1765
vt 0.5730 0.1812
vt 0.5681 0.1808
vt 0.5664 0.1851
vt 0.5717 0.1883
vt 0.5666 0.1885
vt 0.5225 0.1846
vt 0.5280 0.1826
vt 0.5279 0.1867
vt 0.5332 0.1888
vt 0.5369 0.1860
vt 0.5355 0.1889
vt 0.5225 0.1943
vt 0.5297 0.1945
vt 0.5249 0.1981
vt 0.5370 0.1947
vt 0.5400 0.1970
vt 0.5365 0.1988
vt 0.5645 0.1956
vt 0.5606 0.1966
vt 0.5598 0.1922
vt 0.5650 0.1862
vt 0.5594 0.1840
vt 0.5636 0.1819
vt 0.5622 0.1776
vt 0.5580 0.1797
vt 0.5599 0.1747
vt 0.5951 0.1975
vt 0.5924 0.1970
vt 0.5934 0.1946
vt 0.5973 0.2084
vt 0.5928 0.2051
vt 0.5962 0.2030
vt 0.6050 0.2033
vt 0.6016 0.1968
vt 0.6069 0.1995
vt 0.5913 0.1881
vt 0.5950 0.1909
vt 0.5945 0.1874
vt 0.5856 0.1896
vt 0.5838 0.1865
vt 0.5518 0.1733
vt 0.5403 0.1700
vt 0.5723 0.2042
vt 0.5773 0.1977
vt 0.5740 0.1956
vt 0.5704 0.1938
vt 0.5755 0.1936
vt 0.5504 0.1829
vt 0.5518 0.1908
vt 0.5453 0.1897
vt 0.5532 0.1992
vt 0.6026 0.1818
vt 0.5454 0.2090
vt 0.5727 0.1729
vt 0.5746 0.1785
vt 0.5273 0.2019
vt 0.5317 0.2024
vt 0.5290 0.2060
vt 0.5795 0.1698
vt 0.5713 0.1855
vt 0.5225 0.1894
vt 0.5279 0.1916
vt 0.5240 0.1810
vt 0.5334 0.1847
vt 0.5322 0.1983
vt 0.5351 0.1918
vt 0.5647 0.1909
vt 0.5601 0.1875
vt 0.5635 0.2006
vt 0.6012 0.2059
vt 0.6000 0.2004
vt 0.5936 0.2091
vt 0.5918 0.1997
vt 0.6088 0.1956
vt 0.6035 0.1929
vt 0.6077 0.1913
vt 0.5967 0.1939
vt 0.4270 0.7821
vt 0.4247 0.8005
vt 0.4220 0.8002
vt 0.4236 0.7817
vt 0.4132 0.7814
vt 0.4139 0.8002
vt 0.4111 0.8003
vt 0.4098 0.7814
vt 0.4201 0.7815
vt 0.4193 0.8002
vt 0.4166 0.8002
vt 0.4167 0.7814
vt 0.4064 0.7818
vt 0.4084 0.8004
vt 0.4057 0.8006
vt 0.4029 0.7822
vt 0.4185 0.8250
vt 0.4177 0.8498
vt 0.4161 0.8499
vt 0.4164 0.8250
vt 0.4228 0.8252
vt 0.4209 0.8499
vt 0.4193 0.8498
vt 0.4207 0.8250
vt 0.4141 0.8251
vt 0.4144 0.8500
vt 0.4128 0.8500
vt 0.4119 0.8252
vt 0.4205 0.8577
vt 0.4220 0.8577
vt 0.4215 0.8655
vt 0.4201 0.8655
vt 0.4148 0.8579
vt 0.4165 0.8578
vt 0.4170 0.8657
vt 0.4153 0.8658
vt 0.4178 0.8577
vt 0.4190 0.8576
vt 0.4188 0.8654
vt 0.4179 0.8656
vt 0.4114 0.8579
vt 0.4132 0.8579
vt 0.4135 0.8659
vt 0.4117 0.8659
vt 0.4391 0.7694
vt 0.4405 0.7701
vt 0.4403 0.7747
vt 0.4392 0.7748
vt 0.4451 0.7697
vt 0.4464 0.7706
vt 0.4446 0.7758
vt 0.4435 0.7755
vt 0.4182 0.8658
vt 0.4362 0.7693
vt 0.4377 0.7687
vt 0.4381 0.7749
vt 0.4370 0.7751
vt 0.4194 0.8659
vt 0.4194 0.8659
vt 0.4195 0.8660
vt 0.4195 0.8660
vt 0.4421 0.7695
vt 0.4437 0.7689
vt 0.4425 0.7752
vt 0.4414 0.7750
vt 0.4185 0.8659
vt 0.4195 0.8658
vt 0.4194 0.8658
vt 0.4194 0.8659
vt 0.4194 0.8659
vt 0.4195 0.8660
vt 0.4195 0.8660
vt 0.4191 0.8659
vt 0.4192 0.8662
vt 0.4194 0.8659
vt 0.4194 0.8659
vt 0.4554 0.7760
vt 0.4574 0.7763
vt 0.4568 0.7883
vt 0.4552 0.7882
vt 0.4195 0.8659
vt 0.4195 0.8659
vt 0.4195 0.8660
vt 0.4195 0.8660
vt 0.4190 0.8664
vt 0.4189 0.8659
vt 0.4202 0.8659
vt 0.4190 0.8661
vt 0.4187 0.8661
vt 0.4194 0.8658
vt 0.4194 0.8658
vt 0.4590 0.7757
vt 0.4606 0.7752
vt 0.4596 0.7879
vt 0.4582 0.7881
vt 0.4515 0.7755
vt 0.4534 0.7758
vt 0.4536 0.7881
vt 0.4521 0.7880
vt 0.4098 0.8252
vt 0.4112 0.8500
vt 0.4095 0.8499
vt 0.4076 0.8253
vt 0.4495 0.7752
vt 0.4507 0.7878
vt 0.4483 0.7625
vt 0.4508 0.7630
vt 0.4533 0.7635
vt 0.4580 0.7642
vt 0.4597 0.7634
vt 0.4615 0.7625
vt 0.4185 0.8663
vt 0.4180 0.8663
vt 0.4557 0.7638
vt 0.4191 0.8656
vt 0.4194 0.8659
vt 0.4175 0.8660
vt 0.4408 0.7655
vt 0.4429 0.7641
vt 0.4450 0.7626
vt 0.4194 0.8659
vt 0.4347 0.7698
vt 0.4359 0.7752
vt 0.4334 0.7644
vt 0.4353 0.7635
vt 0.4372 0.7625
vt 0.4466 0.7639
vt 0.4483 0.7653
vt 0.4390 0.7640
vt 0.4097 0.8579
vt 0.4099 0.8659
vt 0.4226 0.8500
vt 0.4273 0.8008
vt 0.4250 0.8254
vt 0.4043 0.7631
vt 0.4002 0.7637
vt 0.4085 0.7625
vt 0.4209 0.7628
vt 0.4168 0.7625
vt 0.4251 0.7632
vt 0.4126 0.7625
vt 0.4293 0.7636
vt 0.4334 0.7640
vt 0.4304 0.7824
vt 0.5982 0.1902
vt 0.6023 0.1886
vt 0.6065 0.1870
vt 0.5890 0.1991
vt 0.5897 0.1964
vt 0.5884 0.2018
vt 0.5892 0.2058
vt 0.5899 0.2098
vt 0.5544 0.1854
vt 0.5537 0.1819
vt 0.5551 0.1889
vt 0.5597 0.2016
vt 0.5567 0.1976
vt 0.5626 0.2055
vt 0.5374 0.1918
vt 0.5378 0.1889
vt 0.5360 0.2029
vt 0.5371 0.1819
vt 0.5406 0.1831
vt 0.5336 0.1806
vt 0.5295 0.1790
vt 0.5255 0.1773
vt 0.5766 0.1887
vt 0.5769 0.1916
vt 0.5762 0.1859
vt 0.5778 0.1832
vt 0.5794 0.1805
vt 0.5849 0.1744
vt 0.5866 0.1785
vt 0.5832 0.1703
vt 0.5333 0.2065
vt 0.5307 0.2101
vt 0.5429 0.1992
vt 0.5901 0.1797
vt 0.5937 0.1808
vt 0.5459 0.2131
vt 0.5524 0.2154
vt 0.5526 0.1972
vt 0.5486 0.1968
vt 0.5458 0.1980
vt 0.5559 0.1933
vt 0.5499 0.1809
vt 0.5461 0.1799
vt 0.5719 0.1918
vt 0.5668 0.1920
vt 0.5433 0.1815
vt 0.5556 0.1768
vt 0.5576 0.1718
vt 0.5860 0.1958
vt 0.5823 0.1953
vt 0.5796 0.1935
vt 0.5960 0.1855
vt 0.5395 0.2011
vt 0.5392 0.1860
vt 0.5830 0.1795
vt 0.5575 0.2104
vn -0.9938 -0.0223 -0.1093
vn -0.9997 0.0224 -0.0079
vn -0.9754 0.1841 -0.1212
vn -0.8830 0.4684 -0.0306
vn -0.8159 0.5156 -0.2614
vn -0.9329 0.2481 -0.2610
vn -0.9086 0.0830 -0.4094
vn -0.8450 0.2854 -0.4523
vn -0.8300 0.0872 -0.5510
vn -0.9551 -0.2110 -0.2078
vn -0.8869 -0.3313 -0.3219
vn -0.9160 -0.3997 -0.0329
vn -0.8414 -0.1145 -0.5281
vn -0.9281 -0.1000 -0.3586
vn -0.8495 -0.1884 -0.4928
vn -0.9800 -0.1904 0.0577
vn -0.9317 0.1981 0.3045
vn -0.9345 -0.1282 0.3322
vn -0.7787 0.2131 0.5901
vn -0.9562 -0.2856 0.0639
vn -0.0881 0.1550 -0.9840
vn -0.2346 0.3995 -0.8862
vn -0.0359 0.4010 -0.9154
vn -0.4693 0.1661 -0.8673
vn -0.5616 0.3564 -0.7467
vn -0.4019 0.3857 -0.8305
vn 0.1064 0.1273 -0.9861
vn 0.3339 0.1320 -0.9333
vn 0.4478 0.5197 -0.7276
vn 0.4283 0.1489 -0.8913
vn 0.2138 -0.3337 -0.9181
vn 0.3367 -0.5094 -0.7919
vn 0.0820 -0.5036 -0.8601
vn 0.4706 -0.2724 -0.8392
vn 0.2863 -0.1992 -0.9372
vn 0.4729 -0.3785 -0.7957
vn -0.1343 -0.0742 -0.9882
vn -0.2588 0.1804 -0.9489
vn -0.6225 -0.0828 -0.7782
vn -0.6059 0.1330 -0.7843
vn -0.0244 -0.2969 -0.9546
vn 0.9852 0.1394 -0.0995
vn 0.8676 0.4512 -0.2088
vn 0.9140 0.3995 -0.0710
vn 0.9903 0.1195 0.0701
vn 0.9379 0.1090 0.3294
vn 0.7688 0.4276 0.4754
vn 0.8663 0.0942 0.4906
vn 0.9479 -0.3001 0.1068
vn 0.8275 -0.4909 0.2723
vn 0.8822 -0.4631 -0.0845
vn 0.8468 -0.2250 0.4820
vn 0.9566 -0.1612 0.2426
vn 0.8263 -0.3117 0.4690
vn 0.9729 -0.1476 -0.1780
vn 0.9796 0.1588 -0.1231
vn 0.9445 0.1796 -0.2750
vn 0.9366 -0.1723 -0.3050
vn 0.8606 0.1783 -0.4770
vn 0.9350 -0.2817 -0.2154
vn 0.0187 0.1062 0.9942
vn 0.1535 0.3144 0.9368
vn -0.0723 0.3097 0.9481
vn -0.2153 0.1239 0.9687
vn -0.4029 0.1532 0.9023
vn -0.5035 0.4352 0.7464
vn -0.4410 0.1675 0.8817
vn -0.1744 -0.2608 0.9495
vn -0.3195 -0.4277 0.8455
vn -0.0025 -0.4637 0.8860
vn -0.4937 -0.1280 0.8601
vn -0.3361 -0.0708 0.9391
vn -0.5100 -0.2416 0.8255
vn 0.1556 -0.1136 0.9813
vn 0.1508 0.0926 0.9842
vn 0.2689 0.0939 0.9586
vn 0.2977 -0.1128 0.9480
vn 0.4233 0.1012 0.9003
vn 0.1484 -0.2631 0.9533
vn -0.2742 -0.8952 0.3512
vn -0.6361 -0.6678 0.3865
vn -0.5684 -0.7963 0.2068
vn -0.1943 -0.9750 -0.1079
vn -0.4317 -0.8703 -0.2372
vn -0.1433 -0.9342 -0.3267
vn -0.1441 -0.8593 -0.4908
vn -0.4159 -0.6403 -0.6458
vn -0.1978 -0.8120 -0.5491
vn 0.1428 -0.8558 -0.4972
vn 0.1224 -0.9143 -0.3860
vn 0.3133 -0.8877 -0.3373
vn 0.5439 -0.6862 -0.4831
vn 0.4984 -0.7957 -0.3441
vn 0.1004 -0.9947 0.0210
vn -0.2116 -0.9744 0.0756
vn 0.4700 -0.8220 0.3215
vn 0.5883 -0.5084 0.6288
vn 0.2463 -0.7238 0.6446
vn 0.0911 0.9590 0.2684
vn 0.2862 0.8583 0.4259
vn 0.3621 0.9039 0.2277
vn 0.1889 0.9805 0.0537
vn 0.4759 0.8536 -0.2118
vn 0.2511 0.9583 -0.1368
vn 0.1599 0.9009 -0.4035
vn 0.4787 0.7874 -0.3883
vn 0.1545 0.7721 -0.6164
vn -0.3214 0.9383 -0.1274
vn -0.5463 0.7536 -0.3657
vn -0.6607 0.7505 -0.0133
vn -0.1670 0.7961 -0.5816
vn -0.0883 0.9451 -0.3145
vn -0.1188 0.9604 0.2520
vn 0.1018 0.9763 0.1910
vn -0.9241 0.3600 0.1281
vn -0.7111 0.6543 0.2572
vn -0.7316 0.4945 0.4693
vn -0.9700 0.0460 -0.2387
vn -0.9826 -0.1298 -0.1327
vn 0.2905 0.4409 -0.8492
vn 0.0538 -0.1341 -0.9895
vn -0.4307 -0.0428 -0.9015
vn -0.3352 -0.2731 -0.9017
vn -0.2815 -0.5136 -0.8105
vn -0.5902 -0.3361 -0.7339
vn 0.8101 0.4984 -0.3088
vn 0.8774 0.4097 0.2497
vn 0.9920 -0.1131 -0.0562
vn 0.3103 0.2926 0.9045
vn -0.3927 0.3511 0.8500
vn -0.0365 -0.0772 0.9964
vn -0.5083 -0.8611 -0.0042
vn -0.0271 -0.7915 0.6105
vn -0.3914 -0.7377 0.5501
vn -0.3344 -0.7597 -0.5576
vn 0.0874 -0.9797 -0.1801
vn 0.3710 -0.7993 -0.4728
vn 0.0997 -0.9417 0.3213
vn 0.3248 -0.9420 -0.0850
vn 0.4088 0.9124 -0.0202
vn -0.0350 0.9001 0.4343
vn -0.0345 0.9967 0.0738
vn -0.2985 0.7923 -0.5322
vn -0.1905 0.9414 0.2785
vn -0.3674 0.8985 0.2401
vn 0.7075 0.0001 -0.7067
vn 0.7067 0.0582 -0.7051
vn 0.9988 0.0483 -0.0090
vn 1.0000 -0.0081 -0.0014
vn -0.7051 0.0645 0.7062
vn -0.7053 -0.0007 0.7089
vn -0.9997 0.0243 -0.0085
vn -0.9962 0.0872 -0.0012
vn 0.7080 -0.0028 0.7063
vn 0.7109 0.0176 0.7031
vn 0.0211 0.0074 0.9998
vn 0.0032 0.0373 0.9993
vn -0.7047 0.0673 -0.7063
vn -0.7037 0.0410 -0.7093
vn 0.0190 0.0651 -0.9977
vn 0.0031 0.0411 -0.9991
vn 0.7090 0.0297 0.7045
vn 0.7085 -0.0095 0.7057
vn -0.0088 -0.0519 0.9986
vn 0.0051 -0.0312 0.9995
vn 0.7015 0.1079 -0.7045
vn 0.7014 0.0603 -0.7102
vn 0.9993 0.0369 -0.0004
vn 0.9956 0.0939 -0.0018
vn -0.7037 -0.0691 0.7072
vn -0.7038 -0.0624 0.7077
vn -0.9992 -0.0380 0.0089
vn -0.9990 -0.0455 0.0005
vn 0.6909 -0.0140 -0.7228
vn -0.0211 0.0016 -0.9998
vn -0.3045 -0.1541 -0.9400
vn 0.6215 -0.2316 -0.7484
vn -0.6765 -0.0576 0.7342
vn 0.0023 -0.0795 0.9968
vn 0.0647 -0.1351 0.9887
vn -0.5993 -0.2487 0.7610
vn 0.7097 -0.0858 0.6993
vn 0.9953 -0.0691 -0.0684
vn 0.8380 -0.5207 -0.1633
vn 0.5794 -0.4326 0.6908
vn -0.7227 0.0073 -0.6912
vn -0.9994 -0.0342 0.0011
vn -0.9868 -0.1562 -0.0436
vn -0.7379 0.0132 -0.6748
vn 0.7889 0.2318 0.5692
vn 0.7888 0.6076 -0.0929
vn 0.8728 0.4877 -0.0202
vn 0.8238 0.1898 0.5342
vn -0.7684 0.0080 -0.6400
vn -0.9430 -0.3321 0.0236
vn -0.8943 -0.4147 0.1680
vn -0.8041 -0.0288 -0.5939
vn 0.2504 -0.2523 0.9347
vn -0.5165 -0.4637 0.7199
vn 0.2141 -0.1932 0.9575
vn 0.2339 -0.2291 0.9449
vn -0.5069 -0.4914 0.7082
vn 0.6112 -0.7706 -0.1808
vn 0.1778 -0.2329 -0.9561
vn 0.2376 -0.3078 -0.9213
vn 0.6166 -0.7642 -0.1894
vn 0.1563 0.6517 -0.7422
vn -0.4896 0.2802 -0.8257
vn -0.3011 0.3569 -0.8843
vn 0.3897 0.5946 -0.7033
vn -0.1461 0.4607 0.8754
vn 0.4062 -0.5438 0.7344
vn -0.1726 0.3257 0.9296
vn -0.4487 0.5627 -0.6943
vn -0.5892 0.7785 0.2163
vn -0.5971 0.7721 0.2175
vn -0.4499 0.5500 -0.7036
vn 0.4976 -0.7828 -0.3736
vn 0.2783 -0.1345 -0.9510
vn 0.2135 -0.2292 -0.9497
vn 0.5673 -0.7972 -0.2067
vn 0.6818 0.3509 0.6419
vn 0.9744 -0.2185 -0.0528
vn 0.9826 -0.1813 0.0398
vn 0.6461 0.3488 0.6789
vn -0.1878 0.2824 0.9407
vn 0.4278 -0.5021 0.7516
vn 0.4792 -0.5553 0.6797
vn -0.1803 0.2706 0.9457
vn 0.6519 -0.3064 -0.6937
vn 0.5415 -0.6186 -0.5693
vn 0.3886 -0.5702 -0.7237
vn -0.1384 0.7235 -0.6763
vn -0.2618 0.9475 0.1835
vn -0.4835 0.8531 0.1958
vn -0.3523 0.6134 -0.7068
vn 0.3838 -0.5798 -0.7187
vn -0.5504 -0.3627 -0.7520
vn -0.5184 -0.3827 -0.7647
vn 0.4217 -0.5738 -0.7021
vn -0.9737 0.2150 -0.0756
vn -0.3371 0.6576 0.6738
vn -0.2990 0.6311 0.7157
vn -0.9774 0.1891 -0.0942
vn -0.7087 0.0097 -0.7055
vn -0.7133 0.0055 -0.7008
vn -0.0195 0.0467 -0.9987
vn -0.0026 0.0801 -0.9968
vn -0.7398 0.4532 -0.4974
vn 0.0903 0.9743 0.2065
vn 0.5365 0.8428 0.0430
vn 0.5441 -0.8338 0.0933
vn 0.3804 0.4000 0.8338
vn -0.7085 0.0683 -0.7024
vn -0.0202 0.0358 -0.9992
vn -0.9958 0.0914 0.0005
vn 0.7040 -0.0079 0.7102
vn -0.0202 0.0389 0.9990
vn 0.9998 -0.0192 0.0006
vn -0.7082 0.0704 0.7025
vn 0.7041 -0.0101 -0.7100
vn -0.4971 0.7363 0.4591
vn -0.4144 0.7114 0.5677
vn -0.1899 0.6257 0.7566
vn -0.4602 0.5826 -0.6699
vn -0.6797 0.5070 -0.5300
vn -0.3254 0.5914 -0.7378
vn -0.1725 0.6154 -0.7691
vn 0.1353 0.6102 -0.7806
vn 0.6935 0.6760 -0.2492
vn 0.6344 0.6468 -0.4233
vn 0.7099 0.7010 0.0683
vn 0.1469 0.6266 0.7654
vn 0.4425 0.5767 0.6867
vn 0.6746 -0.7379 -0.0190
vn 0.7081 -0.6551 -0.2634
vn 0.0813 -0.6290 0.7732
vn 0.5406 -0.5730 -0.6159
vn 0.7615 -0.3915 -0.5166
vn 0.3617 -0.7062 -0.6086
vn 0.1640 -0.7341 -0.6590
vn -0.1520 -0.7062 -0.6915
vn -0.6100 -0.4250 -0.6688
vn -0.6806 -0.3172 -0.6604
vn -0.6372 -0.6282 -0.4465
vn -0.7409 -0.6626 -0.1094
vn -0.7459 -0.6609 0.0826
vn -0.6127 -0.4883 0.6214
vn -0.8026 -0.3521 0.4816
vn -0.4152 -0.5918 0.6909
vn -0.1446 -0.6289 0.7639
vn 0.5000 -0.3142 0.8070
vn -0.6644 -0.1339 0.7353
vn -0.5834 0.1607 0.7961
vn 0.6081 0.3487 0.7132
vn 0.7043 0.0764 0.7058
vn 0.6562 -0.1862 0.7313
vn 0.6163 0.6892 0.3809
vn 0.5931 0.5307 -0.6054
vn 0.6410 0.1582 -0.7510
vn -0.5006 -0.6075 -0.6167
vn 0.7048 -0.2357 -0.6691
vn 0.4632 0.6180 -0.6352
vn -0.7069 0.2864 -0.6467
vn -0.7160 0.0955 -0.6916
vn -0.7303 -0.1014 -0.6755
vn -0.5668 0.4485 0.6911
vn 0.2592 -0.4800 0.8381
vn 0.7459 -0.5407 -0.3889
vn -0.8192 -0.5244 0.2322
usemtl None
s 1
f 1/1/1 131/2/2 177/3/3
f 3/4/4 218/5/5 272/6/6
f 5/7/7 173/8/8 120/9/9
f 7/10/10 213/11/11 264/12/12
f 5/7/7 117/13/13 161/14/14
f 7/10/10 103/15/15 213/11/11
f 1/1/1 154/16/16 131/2/2
f 2/17/17 247/18/18 102/19/19
f 7/10/10 264/12/12 148/20/20
f 13/21/21 108/22/22 152/23/23
f 16/24/24 98/25/25 100/26/26
f 13/27/21 152/28/23 241/29/27
f 17/30/28 279/31/29 125/32/30
f 20/33/31 122/34/32 160/35/33
f 17/30/28 116/36/34 166/37/35
f 20/33/31 206/38/36 122/34/32
f 13/21/21 172/39/37 197/40/38
f 16/24/24 89/41/39 111/42/40
f 20/43/31 160/44/33 268/45/41
f 25/46/42 113/47/43 87/48/44
f 25/46/42 87/48/44 133/49/45
f 27/50/46 176/51/47 219/52/48
f 30/53/49 229/54/50 86/55/51
f 27/50/46 217/56/52 278/57/53
f 30/53/49 135/58/54 229/54/50
f 25/46/42 204/59/55 189/60/56
f 34/61/57 186/62/58 183/63/59
f 30/53/49 86/55/51 257/64/60
f 35/65/61 163/66/62 211/67/63
f 35/65/61 211/67/63 156/68/64
f 37/69/65 110/70/66 255/71/67
f 39/72/68 203/73/69 153/74/70
f 37/69/65 151/75/71 245/76/72
f 39/77/68 244/78/73 203/79/69
f 35/65/61 267/80/74 99/81/75
f 42/82/76 97/83/77 207/84/78
f 39/72/68 153/74/70 251/85/79
f 43/86/80 250/87/81 262/88/82
f 44/89/83 209/90/84 231/91/85
f 45/92/86 261/93/87 85/94/88
f 45/95/86 180/96/89 95/97/90
f 46/98/91 226/99/92 129/100/93
f 44/101/83 127/102/94 185/103/95
f 31/104/96 234/105/97 159/106/98
f 47/107/99 165/108/100 162/109/101
f 48/110/102 208/111/103 242/112/104
f 49/113/105 270/114/106 169/115/107
f 50/116/108 101/117/109 199/118/110
f 49/119/105 266/120/111 141/121/112
f 48/122/102 92/123/113 196/124/114
f 3/4/4 281/125/115 221/126/116
f 2/17/17 102/19/19 134/127/117
f 1/1/1 177/3/3 273/128/118
f 1/1/1 273/128/118 164/129/119
f 5/7/7 120/9/9 117/13/13
f 1/1/1 164/129/119 154/16/16
f 13/21/21 197/40/38 108/22/22
f 16/24/24 111/42/40 98/25/25
f 17/30/28 253/130/120 279/31/29
f 13/27/21 241/29/27 170/131/121
f 17/30/28 125/32/30 116/36/34
f 13/21/21 170/132/121 172/39/37
f 16/24/24 83/133/122 89/41/39
f 24/134/123 252/135/124 283/136/125
f 25/46/42 189/60/56 113/47/43
f 34/61/57 183/63/59 84/137/126
f 27/50/46 224/138/127 176/51/47
f 25/46/42 133/49/45 275/139/128
f 27/50/46 219/52/48 217/56/52
f 25/46/42 275/139/128 204/59/55
f 35/65/61 99/81/75 163/66/62
f 42/82/76 207/84/78 132/140/129
f 37/69/65 263/141/130 110/70/66
f 35/65/61 156/68/64 254/142/131
f 37/69/65 255/71/67 151/75/71
f 35/65/61 254/142/131 267/80/74
f 44/89/83 185/143/95 115/144/132
f 43/145/80 235/146/133 140/147/134
f 43/86/80 140/148/134 250/87/81
f 44/89/83 115/144/132 209/90/84
f 45/92/86 271/149/135 261/93/87
f 44/101/83 231/150/85 175/151/136
f 45/95/86 85/152/88 180/96/89
f 46/98/91 236/153/137 226/99/92
f 44/101/83 175/151/136 127/102/94
f 43/145/80 274/154/138 235/146/133
f 46/98/91 129/100/93 220/155/139
f 48/110/102 196/156/114 202/157/140
f 47/107/99 137/158/141 165/108/100
f 48/110/102 202/157/140 208/111/103
f 48/122/102 242/159/104 150/160/142
f 49/119/105 169/161/107 266/120/111
f 50/116/108 277/162/143 101/117/109
f 48/122/102 150/160/142 92/123/113
f 47/163/99 144/164/144 137/165/141
f 50/116/108 199/118/110 182/166/145
f 310/167/146 82/168/147 53/169/148 128/170/149
f 309/171/150 282/172/151 57/173/152 143/174/153
f 308/175/154 214/176/155 56/177/156 222/178/157
f 307/179/158 285/180/159 52/181/160 228/182/161
f 306/183/162 239/184/163 60/185/164 114/186/165
f 305/187/166 184/188/167 59/189/168 265/190/169
f 304/191/170 225/192/171 62/193/172 138/194/173
f 303/195/174 94/196/175 63/197/176 249/198/177
f 302/199/178 91/200/179 65/201/180 119/202/181
f 301/203/182 237/204/183 64/205/184 104/206/185
f 300/207/186 248/208/187 66/209/188 155/210/189
f 299/211/190 198/212/191 68/213/192 142/214/193
f 298/215/194 192/216/195 70/217/196 238/218/197
f 65/201/180 104/206/185 191/219/198
f 297/220/199 243/221/200 69/222/201 96/223/202
f 296/224/203 88/225/204 74/226/205 233/227/206
f 295/228/207 121/229/208 71/230/209 232/231/210
f 294/232/211 191/219/198 72/233/212 260/234/213
f 293/235/214 139/236/215 77/237/216 126/238/217
f 292/239/218 280/240/219 73/241/220 136/242/221
f 291/243/222 227/244/223 79/245/224 188/246/225
f 290/247/226 205/248/227 75/249/228 216/250/229
f 78/251/230 90/252/231 187/253/232
f 289/254/233 181/255/234 76/256/235 174/257/236
f 288/258/237 240/259/238 81/260/239 230/261/240
f 287/262/241 179/263/242 80/264/243 109/265/244
f 286/266/245 149/267/246 61/268/247 258/269/248
f 285/180/159 286/266/245 258/269/248 52/181/160
f 57/173/152 138/194/173 286/266/245 285/180/159
f 138/194/173 62/193/172 149/267/246 286/266/245
f 240/270/238 287/262/241 109/265/244 81/271/239
f 63/272/176 107/273/249 287/262/241 240/270/238
f 107/273/249 67/274/250 179/263/242 287/262/241
f 227/244/223 288/258/237 230/261/240 79/245/224
f 78/275/230 187/276/232 288/258/237 227/244/223
f 187/276/232 63/277/176 240/259/238 288/258/237
f 280/240/219 289/254/233 174/257/236 73/241/220
f 78/251/230 276/278/251 289/254/233 280/240/219
f 276/278/251 67/279/250 181/255/234 289/254/233
f 187/253/232 249/198/177 63/197/176
f 187/253/232 90/252/231 249/198/177
f 90/252/231 64/205/184 249/198/177
f 139/236/215 290/247/226 216/250/229 77/237/216
f 76/256/235 260/234/213 290/247/226 139/236/215
f 260/234/213 72/233/212 205/248/227 290/247/226
f 179/263/242 291/243/222 188/246/225 80/264/243
f 67/274/250 276/280/251 291/243/222 179/263/242
f 276/280/251 78/275/230 227/244/223 291/243/222
f 171/281/252 292/239/218 136/242/221 72/282/212
f 64/205/184 90/252/231 292/239/218 171/281/252
f 90/252/231 78/251/230 280/240/219 292/239/218
f 88/225/204 293/235/214 126/238/217 74/226/205
f 73/241/220 174/257/236 293/235/214 88/225/204
f 174/257/236 76/256/235 139/236/215 293/235/214
f 181/255/234 294/232/211 260/234/213 76/256/235
f 67/279/250 158/283/253 294/232/211 181/255/234
f 158/283/253 65/201/180 191/219/198 294/232/211
f 198/212/191 295/228/207 232/231/210 68/213/192
f 67/284/250 107/285/249 295/228/207 198/212/191
f 107/285/249 63/286/176 121/229/208 295/228/207
f 205/287/227 296/224/203 233/227/206 75/249/228
f 72/282/212 136/242/221 296/224/203 205/287/227
f 136/242/221 73/241/220 88/225/204 296/224/203
f 192/288/195 297/220/199 96/223/202 70/289/196
f 66/290/188 119/291/181 297/220/199 192/288/195
f 119/291/181 65/292/180 243/221/200 297/220/199
f 191/219/198 171/281/252 72/233/212
f 191/219/198 104/206/185 171/281/252
f 104/206/185 64/205/184 171/281/252
f 121/229/208 298/215/194 238/218/197 71/230/209
f 63/286/176 155/293/189 298/215/194 121/229/208
f 155/293/189 66/294/188 192/216/195 298/215/194
f 243/221/200 299/211/190 142/214/193 69/222/201
f 65/292/180 158/295/253 299/211/190 243/221/200
f 158/295/253 67/284/250 198/212/191 299/211/190
f 94/296/175 300/207/186 155/210/189 63/297/176
f 61/268/247 149/267/246 300/207/186 94/296/175
f 149/267/246 62/193/172 248/208/187 300/207/186
f 91/200/179 301/203/182 104/206/185 65/201/180
f 60/185/164 239/184/163 301/203/182 91/200/179
f 239/184/163 59/189/168 237/204/183 301/203/182
f 248/208/187 302/199/178 119/202/181 66/209/188
f 62/193/172 225/192/171 302/199/178 248/208/187
f 225/192/171 60/185/164 91/200/179 302/199/178
f 237/204/183 303/195/174 249/198/177 64/205/184
f 59/189/168 184/188/167 303/195/174 237/204/183
f 184/188/167 61/298/247 94/196/175 303/195/174
f 282/172/151 304/191/170 138/194/173 57/173/152
f 56/177/156 114/186/165 304/191/170 282/172/151
f 114/186/165 60/185/164 225/192/171 304/191/170
f 82/168/147 305/187/166 265/190/169 53/169/148
f 52/299/160 258/300/248 305/187/166 82/168/147
f 258/300/248 61/298/247 184/188/167 305/187/166
f 214/176/155 306/183/162 114/186/165 56/177/156
f 53/169/148 265/190/169 306/183/162 214/176/155
f 265/190/169 59/189/168 239/184/163 306/183/162
f 123/301/254 307/179/158 228/182/161 51/302/255
f 58/303/256 143/174/153 307/179/158 123/301/254
f 143/174/153 57/173/152 285/180/159 307/179/158
f 168/304/257 308/175/154 222/178/157 55/305/258
f 54/306/259 128/170/149 308/175/154 168/304/257
f 128/170/149 53/169/148 214/176/155 308/175/154
f 105/307/260 309/171/150 143/174/153 58/303/256
f 55/305/258 222/178/157 309/171/150 105/307/260
f 222/178/157 56/177/156 282/172/151 309/171/150
f 124/308/261 310/167/146 128/170/149 54/306/259
f 51/309/255 228/310/161 310/167/146 124/308/261
f 228/310/161 52/299/160 82/168/147 310/167/146
f 182/166/145 221/126/116 38/311/262
f 182/166/145 199/118/110 221/126/116
f 199/118/110 3/4/4 221/126/116
f 137/165/141 200/312/263 36/313/264
f 137/165/141 144/164/144 200/312/263
f 144/164/144 38/311/262 200/312/263
f 92/123/113 182/166/145 38/311/262
f 92/123/113 150/160/142 182/166/145
f 150/160/142 50/116/108 182/166/145
f 101/117/109 193/314/265 4/315/266
f 101/117/109 277/162/143 193/314/265
f 277/162/143 14/316/267 193/314/265
f 266/120/111 246/317/268 14/316/267
f 266/120/111 169/161/107 246/317/268
f 169/161/107 15/318/269 246/317/268
f 150/160/142 141/121/112 50/116/108
f 150/160/142 242/159/104 141/121/112
f 242/159/104 49/119/105 141/121/112
f 208/111/103 145/319/270 18/320/271
f 208/111/103 202/157/140 145/319/270
f 202/157/140 26/321/272 145/319/270
f 165/108/100 210/322/273 28/323/274
f 165/108/100 137/158/141 210/322/273
f 137/158/141 36/324/264 210/322/273
f 202/157/140 162/109/101 26/321/272
f 202/157/140 196/156/114 162/109/101
f 196/156/114 47/107/99 162/109/101
f 220/155/139 190/325/275 31/104/96
f 220/155/139 129/100/93 190/325/275
f 129/100/93 32/326/276 190/325/275
f 235/146/133 159/106/98 41/327/277
f 235/146/133 274/154/138 159/106/98
f 274/154/138 31/104/96 159/106/98
f 127/102/94 220/155/139 31/104/96
f 127/102/94 175/151/136 220/155/139
f 175/151/136 46/98/91 220/155/139
f 226/99/92 112/328/278 23/329/279
f 226/99/92 236/153/137 112/328/278
f 236/153/137 21/330/280 112/328/278
f 180/96/89 259/331/281 21/330/280
f 180/96/89 85/152/88 259/331/281
f 85/152/88 22/332/282 259/331/281
f 175/151/136 95/97/90 46/98/91
f 175/151/136 231/150/85 95/97/90
f 231/150/85 45/95/86 95/97/90
f 261/93/87 195/333/283 10/334/284
f 261/93/87 271/149/135 195/333/283
f 271/149/135 8/335/285 195/333/283
f 209/90/84 167/336/286 8/335/285
f 209/90/84 115/144/132 167/336/286
f 115/144/132 9/337/287 167/336/286
f 250/87/81 106/338/288 11/339/289
f 250/87/81 140/148/134 106/338/288
f 140/148/134 40/340/290 106/338/288
f 140/147/134 256/341/291 40/342/290
f 140/147/134 235/146/133 256/341/291
f 235/146/133 41/327/277 256/341/291
f 115/144/132 262/88/82 9/337/287
f 115/144/132 185/143/95 262/88/82
f 185/143/95 43/86/80 262/88/82
f 267/80/74 251/85/79 33/343/292
f 267/80/74 254/142/131 251/85/79
f 254/142/131 39/72/68 251/85/79
f 151/75/71 194/344/293 11/339/289
f 151/75/71 255/71/67 194/344/293
f 255/71/67 12/345/294 194/344/293
f 254/142/131 245/346/72 39/72/68
f 254/142/131 156/68/64 245/346/72
f 156/68/64 37/347/65 245/346/72
f 110/70/66 200/312/263 38/311/262
f 110/70/66 263/141/130 200/312/263
f 263/141/130 36/313/264 200/312/263
f 132/140/129 130/348/295 28/323/274
f 132/140/129 207/84/78 130/348/295
f 207/84/78 29/349/296 130/348/295
f 163/66/62 132/140/129 28/323/274
f 163/66/62 99/81/75 132/140/129
f 99/81/75 42/82/76 132/140/129
f 204/59/55 257/64/60 23/329/279
f 204/59/55 275/139/128 257/64/60
f 275/139/128 30/53/49 257/64/60
f 217/56/52 223/350/297 33/343/292
f 217/56/52 219/52/48 223/350/297
f 219/52/48 29/349/296 223/350/297
f 275/139/128 278/57/53 30/53/49
f 275/139/128 133/49/45 278/57/53
f 133/49/45 27/50/46 278/57/53
f 176/51/47 284/351/298 28/323/274
f 176/51/47 224/138/127 284/351/298
f 224/138/127 26/321/272 284/351/298
f 84/137/126 215/352/299 18/320/271
f 84/137/126 183/63/59 215/352/299
f 183/63/59 19/353/300 215/352/299
f 113/47/43 84/137/126 18/320/271
f 113/47/43 189/60/56 84/137/126
f 189/60/56 34/61/57 84/137/126
f 283/136/125 178/354/301 10/334/284
f 283/136/125 252/135/124 178/354/301
f 252/135/124 22/355/282 178/354/301
f 89/41/39 283/136/125 10/334/284
f 89/41/39 83/133/122 283/136/125
f 83/133/122 24/134/123 283/136/125
f 172/39/37 268/45/41 24/134/123
f 172/39/37 170/132/121 268/45/41
f 170/132/121 20/43/31 268/45/41
f 116/36/34 118/356/302 23/329/279
f 116/36/34 125/32/30 118/356/302
f 125/32/30 19/353/300 118/356/302
f 170/131/121 166/37/35 20/33/31
f 170/131/121 241/29/27 166/37/35
f 241/29/27 17/30/28 166/37/35
f 279/31/29 269/357/303 18/320/271
f 279/31/29 253/130/120 269/357/303
f 253/130/120 15/358/269 269/357/303
f 98/25/25 212/359/304 4/315/266
f 98/25/25 111/42/40 212/359/304
f 111/42/40 6/360/305 212/359/304
f 108/22/22 100/26/26 14/316/267
f 108/22/22 197/40/38 100/26/26
f 197/40/38 16/24/24 100/26/26
f 154/16/16 148/20/20 11/339/289
f 154/16/16 164/129/119 148/20/20
f 164/129/119 7/10/10 148/20/20
f 117/13/13 201/361/306 10/334/284
f 117/13/13 120/9/9 201/361/306
f 120/9/9 6/360/305 201/361/306
f 164/129/119 161/14/14 7/10/10
f 164/129/119 273/128/118 161/14/14
f 273/128/118 5/7/7 161/14/14
f 273/128/118 272/6/6 5/7/7
f 273/128/118 177/3/3 272/6/6
f 177/3/3 3/4/4 272/6/6
f 134/127/117 93/362/307 38/311/262
f 134/127/117 102/19/19 93/362/307
f 102/19/19 12/345/294 93/362/307
f 221/126/116 134/127/117 38/311/262
f 221/126/116 281/125/115 134/127/117
f 281/125/115 2/17/17 134/127/117
f 196/124/114 144/164/144 47/163/99
f 196/124/114 92/123/113 144/164/144
f 92/123/113 38/311/262 144/164/144
f 141/121/112 277/162/143 50/116/108
f 141/121/112 266/120/111 277/162/143
f 266/120/111 14/316/267 277/162/143
f 199/118/110 218/5/5 3/4/4
f 199/118/110 101/117/109 218/5/5
f 101/117/109 4/315/266 218/5/5
f 169/115/107 269/357/303 15/358/269
f 169/115/107 270/114/106 269/357/303
f 270/114/106 18/320/271 269/357/303
f 242/112/104 270/114/106 49/113/105
f 242/112/104 208/111/103 270/114/106
f 208/111/103 18/320/271 270/114/106
f 162/109/101 284/351/298 26/321/272
f 162/109/101 165/108/100 284/351/298
f 165/108/100 28/323/274 284/351/298
f 159/106/98 147/363/308 41/327/277
f 159/106/98 234/105/97 147/363/308
f 234/105/97 33/343/292 147/363/308
f 185/103/95 274/154/138 43/145/80
f 185/103/95 127/102/94 274/154/138
f 127/102/94 31/104/96 274/154/138
f 129/100/93 157/364/309 32/326/276
f 129/100/93 226/99/92 157/364/309
f 226/99/92 23/329/279 157/364/309
f 95/97/90 236/153/137 46/98/91
f 95/97/90 180/96/89 236/153/137
f 180/96/89 21/330/280 236/153/137
f 85/94/88 178/354/301 22/355/282
f 85/94/88 261/93/87 178/354/301
f 261/93/87 10/334/284 178/354/301
f 231/91/85 271/149/135 45/92/86
f 231/91/85 209/90/84 271/149/135
f 209/90/84 8/335/285 271/149/135
f 262/88/82 146/365/310 9/337/287
f 262/88/82 250/87/81 146/365/310
f 250/87/81 11/339/289 146/365/310
f 251/85/79 147/363/308 33/343/292
f 251/85/79 153/74/70 147/363/308
f 153/74/70 41/327/277 147/363/308
f 207/84/78 223/350/297 29/349/296
f 207/84/78 97/83/77 223/350/297
f 97/83/77 33/343/292 223/350/297
f 99/81/75 97/83/77 42/82/76
f 99/81/75 267/80/74 97/83/77
f 267/80/74 33/343/292 97/83/77
f 203/79/69 106/338/288 40/340/290
f 203/79/69 244/78/73 106/338/288
f 244/78/73 11/339/289 106/338/288
f 245/76/72 244/78/73 39/77/68
f 245/76/72 151/75/71 244/78/73
f 151/75/71 11/339/289 244/78/73
f 153/74/70 256/341/291 41/327/277
f 153/74/70 203/73/69 256/341/291
f 203/73/69 40/342/290 256/341/291
f 255/71/67 93/362/307 12/345/294
f 255/71/67 110/70/66 93/362/307
f 110/70/66 38/311/262 93/362/307
f 156/68/64 263/366/130 37/347/65
f 156/68/64 211/67/63 263/366/130
f 211/67/63 36/324/264 263/366/130
f 211/67/63 210/322/273 36/324/264
f 211/67/63 163/66/62 210/322/273
f 163/66/62 28/323/274 210/322/273
f 257/64/60 157/364/309 23/329/279
f 257/64/60 86/55/51 157/364/309
f 86/55/51 32/326/276 157/364/309
f 183/63/59 118/356/302 19/353/300
f 183/63/59 186/62/58 118/356/302
f 186/62/58 23/329/279 118/356/302
f 189/60/56 186/62/58 34/61/57
f 189/60/56 204/59/55 186/62/58
f 204/59/55 23/329/279 186/62/58
f 229/54/50 234/105/97 31/104/96
f 229/54/50 135/58/54 234/105/97
f 135/58/54 33/343/292 234/105/97
f 278/57/53 135/58/54 30/53/49
f 278/57/53 217/56/52 135/58/54
f 217/56/52 33/343/292 135/58/54
f 86/55/51 190/325/275 32/326/276
f 86/55/51 229/54/50 190/325/275
f 229/54/50 31/104/96 190/325/275
f 219/52/48 130/348/295 29/349/296
f 219/52/48 176/51/47 130/348/295
f 176/51/47 28/323/274 130/348/295
f 133/49/45 224/138/127 27/50/46
f 133/49/45 87/48/44 224/138/127
f 87/48/44 26/321/272 224/138/127
f 87/48/44 145/319/270 26/321/272
f 87/48/44 113/47/43 145/319/270
f 113/47/43 18/320/271 145/319/270
f 268/45/41 252/135/124 24/134/123
f 268/45/41 160/44/33 252/135/124
f 160/44/33 22/355/282 252/135/124
f 111/42/40 201/361/306 6/360/305
f 111/42/40 89/41/39 201/361/306
f 89/41/39 10/334/284 201/361/306
f 197/40/38 83/133/122 16/24/24
f 197/40/38 172/39/37 83/133/122
f 172/39/37 24/134/123 83/133/122
f 122/34/32 112/328/278 21/330/280
f 122/34/32 206/38/36 112/328/278
f 206/38/36 23/329/279 112/328/278
f 166/37/35 206/38/36 20/33/31
f 166/37/35 116/36/34 206/38/36
f 116/36/34 23/329/279 206/38/36
f 160/35/33 259/331/281 22/332/282
f 160/35/33 122/34/32 259/331/281
f 122/34/32 21/330/280 259/331/281
f 125/32/30 215/352/299 19/353/300
f 125/32/30 279/31/29 215/352/299
f 279/31/29 18/320/271 215/352/299
f 241/29/27 253/130/120 17/30/28
f 241/29/27 152/28/23 253/130/120
f 152/28/23 15/358/269 253/130/120
f 100/26/26 193/314/265 14/316/267
f 100/26/26 98/25/25 193/314/265
f 98/25/25 4/315/266 193/314/265
f 152/23/23 246/317/268 15/318/269
f 152/23/23 108/22/22 246/317/268
f 108/22/22 14/316/267 246/317/268
f 148/20/20 146/365/310 11/339/289
f 148/20/20 264/12/12 146/365/310
f 264/12/12 9/337/287 146/365/310
f 102/19/19 194/344/293 12/345/294
f 102/19/19 247/18/18 194/344/293
f 247/18/18 11/339/289 194/344/293
f 131/2/2 247/18/18 2/17/17
f 131/2/2 154/16/16 247/18/18
f 154/16/16 11/339/289 247/18/18
f 213/11/11 195/333/283 8/335/285
f 213/11/11 103/15/15 195/333/283
f 103/15/15 10/334/284 195/333/283
f 161/14/14 103/15/15 7/10/10
f 161/14/14 117/13/13 103/15/15
f 117/13/13 10/334/284 103/15/15
f 264/12/12 167/336/286 9/337/287
f 264/12/12 213/11/11 167/336/286
f 213/11/11 8/335/285 167/336/286
f 120/9/9 212/359/304 6/360/305
f 120/9/9 173/8/8 212/359/304
f 173/8/8 4/315/266 212/359/304
f 272/6/6 173/8/8 5/7/7
f 272/6/6 218/5/5 173/8/8
f 218/5/5 4/315/266 173/8/8
f 177/3/3 281/125/115 3/4/4
f 177/3/3 131/2/2 281/125/115
f 131/2/2 2/17/17 281/125/115
