# Blender v2.78 (sub 0) OBJ File: ''
# www.blender.org
mtllib Apple_Tree_NoLeaves_m_07.mtl
o Apple_Tree_NoLeaves_m_07
v 0.161002 0.387924 -0.170304
v 0.207438 0.845702 -0.137573
v 0.258470 0.832712 0.062455
v 0.215154 0.378359 0.067210
v -0.090593 0.942143 0.117141
v 0.018682 0.914990 -0.164883
v -0.089458 1.049818 -0.193774
v -0.160847 1.052372 0.011409
v 0.088566 0.861496 0.183865
v 0.057426 0.396042 0.209934
v 0.242833 1.656844 0.127784
v 0.132908 1.685722 0.047794
v -0.279248 0.163975 0.023847
v -0.481352 1.670228 -0.133147
v -0.450207 1.656268 -0.246034
v -0.197713 0.162387 -0.200250
v 0.358055 1.639364 0.049078
v 0.322847 1.656763 -0.085604
v 0.188023 1.688277 -0.091978
v 0.429882 2.294919 0.095266
v 0.536791 2.369361 0.009517
v 0.642918 2.283159 -0.006904
v 0.659257 2.249771 0.088950
v 0.561962 2.315605 0.158028
v 1.277405 2.700883 0.128208
v 1.309837 2.644253 0.121639
v 1.313158 2.615692 0.181682
v 1.282780 2.654670 0.225360
v 0.631062 2.460571 0.121173
v 1.270766 2.711354 0.193343
v -0.273944 1.767087 -0.227042
v -0.295387 1.769801 -0.106049
v 0.005011 0.442046 -0.255634
v 0.010442 0.044052 -0.279625
v -0.139962 0.579391 -0.232466
v -0.360157 1.713802 -0.290966
v -0.226206 0.578701 0.092616
v -0.397712 1.717995 -0.061310
v -0.105080 0.440579 0.203770
v -0.189231 0.043303 0.233807
v 0.018936 0.038744 0.261060
v 0.181978 0.037699 -0.176949
v 0.192770 0.036942 0.075260
v -0.489631 2.772106 -0.189767
v -0.563813 2.744513 -0.140800
v -0.563915 2.761215 -0.264924
v -0.459813 2.692814 -0.261775
v -0.602327 2.677878 -0.192053
v 0.230927 2.781780 0.263314
v 0.279818 2.794345 0.316944
v 2.115560 3.095671 0.332048
v 2.112560 3.110476 0.299581
v 2.486910 3.759006 0.444375
v 2.510719 3.792546 0.462376
v 2.076999 3.138134 0.335471
v 2.093582 3.112764 0.354230
v 2.502851 3.796398 0.468795
v 2.497066 3.801925 0.462641
v 2.089329 3.136401 0.301700
v -1.048940 3.574449 -0.133762
v -1.037430 3.579042 -0.160654
v -1.003024 3.586618 -0.128189
v -1.028214 3.579179 -0.114191
v -0.380056 2.931005 -0.453889
v -0.340778 2.917667 -0.439108
v -0.563152 2.902037 -0.247520
v -1.013149 3.592491 -0.156455
v -1.251772 4.540488 -0.109630
v -1.260230 4.598004 -0.119396
v -1.249872 4.598025 -0.118189
v -1.248439 4.598161 -0.108463
v 0.203242 2.735799 0.306625
v 0.245856 2.736639 0.345382
v 0.115772 3.456531 0.692164
v 0.089537 3.464992 0.676115
v 0.141132 3.471013 0.666565
v 0.107240 3.476321 0.646100
v 0.297345 4.273788 0.825877
v 0.297830 4.257403 0.808970
v 0.318176 4.277212 0.821888
v 0.302149 4.248097 0.829698
v -0.380470 2.973135 -0.426611
v -0.174916 3.363028 -0.705771
v -0.168058 3.334937 -0.740106
v -0.131816 3.324415 -0.728767
v -0.328121 2.936736 -0.406813
v -0.121867 3.336998 -0.697517
v 0.304153 3.741100 -1.333492
v 0.297081 3.735076 -1.306165
v 0.292389 3.755986 -1.329096
v 0.279776 3.733505 -1.321867
v 1.313768 2.625798 0.149519
v 0.392379 1.987963 0.133439
v 0.300572 2.004221 0.060087
v 0.206478 3.890613 0.776847
v -0.379082 0.878740 -0.060964
v 1.681190 2.906714 0.262431
v 2.321442 3.435151 0.374531
v 0.094234 1.290636 -0.125110
v -0.326834 0.870155 -0.221926
v -0.025586 0.417284 0.215898
v 0.336810 3.780893 -1.383297
v 0.106004 0.040875 -0.246926
v 0.037488 0.196381 0.240026
v -0.311750 1.111862 0.014954
v 0.069246 3.555374 -1.049268
v 0.011736 0.666916 -0.221656
v 0.919679 2.479809 0.184050
v -0.450676 2.699851 -0.228912
v 0.601924 2.313207 -0.014082
v -0.133038 0.948430 0.067419
v -0.384101 2.258680 -0.146504
v -0.149857 0.218326 0.224333
v 0.304698 4.289967 0.821213
v 0.956170 2.470328 0.053391
v 0.148452 3.110821 0.458366
v -0.531619 2.750450 -0.152393
v 0.625686 2.264168 0.125781
v -1.155188 4.062970 -0.111197
v 2.512078 3.819427 0.461616
v -0.176612 1.377101 -0.210437
v 0.461413 1.989896 -0.049038
v 0.221993 2.731547 0.328929
v -1.057485 3.640064 -0.121083
v -0.046645 0.975524 -0.027426
v 1.724144 2.838300 0.254893
v 0.206322 0.037321 -0.055882
v 0.012275 1.306947 0.079473
v -0.247677 1.109703 -0.261876
v 0.100729 3.459951 0.686669
v -1.045110 3.576210 -0.148127
v 2.323964 3.494734 0.406238
v 0.117985 0.037843 0.183697
v -0.120228 1.093518 -0.093846
v -0.237588 3.125497 -0.533713
v 0.306946 4.285126 0.831825
v 0.119876 0.876711 -0.168293
v 0.200271 3.904015 0.744762
v 1.694941 2.902517 0.213799
v 0.437763 2.591755 0.201846
v 0.126112 3.474478 0.653803
v 0.266670 2.766056 0.335144
v 0.204514 0.187222 0.072345
v 0.306282 1.646355 0.097385
v -0.493915 2.693609 -0.273742
v 0.463022 2.289555 0.132739
v 0.100872 3.557068 -1.020202
v 0.393363 2.513547 0.238829
v -1.260991 4.627039 -0.107819
v -1.254936 4.626624 -0.112566
v 0.234634 0.587496 0.065395
v 0.308762 3.757418 -1.336895
v -1.163077 4.061121 -0.118678
v 0.007647 0.221165 -0.273783
v -0.148300 3.351810 -0.698504
v -0.122631 3.329060 -0.712305
v -1.014559 3.583107 -0.119274
v -0.109476 0.832599 -0.222575
v -0.404411 2.847692 -0.297263
v -0.150028 3.327879 -0.737577
v 0.350747 1.646422 -0.021219
v 0.154417 1.251722 0.154519
v 0.200479 0.380084 -0.053626
v 1.275033 2.685033 0.213829
v -0.194665 0.833439 0.063598
v -0.407568 1.683755 -0.276025
v 1.272152 2.710851 0.159763
v 0.150494 1.689106 -0.025793
v 1.298827 2.631698 0.207301
v 0.187678 3.897068 0.766231
v -0.534407 2.879280 -0.221735
v -0.792131 3.156787 -0.130725
v 2.519868 3.813998 0.461452
v 2.349797 3.471414 0.404821
v -0.239691 0.045572 0.145895
v -0.481880 1.733608 -0.192162
v -1.025080 3.585965 -0.160735
v -1.267703 4.626904 -0.114046
v -0.810005 3.159829 -0.206300
v -0.102761 0.682351 0.171647
v 0.178776 0.598774 -0.155674
v 0.131109 3.463003 0.680808
v -0.415483 2.826982 -0.341509
v 2.083826 3.126158 0.347135
v -0.330639 2.925081 -0.421501
v -0.576075 2.873240 -0.260145
v -0.360944 2.921727 -0.448951
v -0.164640 0.464773 0.154344
v 0.905152 2.532192 0.058531
v -1.006032 3.590212 -0.142750
v 0.299314 1.229217 0.054108
v -0.445233 1.694519 -0.090997
v 0.965147 2.437953 0.130965
v 0.657651 2.262375 0.038424
v 1.294166 2.673471 0.119820
v 0.305475 3.749865 -1.346459
v 2.116055 3.101362 0.314839
v -0.468361 2.248477 -0.108555
v -0.007900 0.901697 0.168868
v 0.189277 3.112622 0.493672
v 0.614044 2.417675 0.150585
v 0.601082 2.448933 0.069541
v 2.105430 3.102593 0.345257
v -0.091676 0.041023 0.269061
v -0.040550 0.932990 -0.180311
v -0.384073 2.954190 -0.441709
v 0.224911 3.899594 0.758047
v 0.316326 4.286713 0.830042
v 0.932147 2.557866 0.144358
v -0.460366 2.896117 -0.331182
v 2.132519 3.165061 0.308196
v -0.532375 2.174710 -0.173653
v -0.291924 3.156131 -0.546208
v -0.753677 3.169600 -0.153919
v 1.699239 2.867025 0.287830
v -0.276578 1.769317 -0.165251
v 0.486996 1.963961 0.064875
v -0.287023 3.121831 -0.578866
v 0.159945 3.078273 0.520623
v 0.257928 2.792734 0.287203
v -0.086427 0.045969 -0.253555
v 0.351051 2.030028 -0.050933
v 1.721488 2.860234 0.209140
v -0.222230 1.377514 -0.048890
v 0.093714 3.547973 -1.041130
v -1.170186 4.132273 -0.135732
v 0.325328 4.341344 0.834592
v 0.314078 4.291554 0.819430
v -0.784855 3.200610 -0.196918
v -0.600822 2.739259 -0.226590
v -0.064868 0.466673 -0.244000
v 0.447839 2.319958 0.046816
v 0.181158 1.671852 0.096324
v 0.213251 2.758225 0.280989
v 0.085365 0.413831 -0.224293
v 0.255843 1.243729 -0.113359
v -0.459971 2.245515 -0.279109
v -0.379193 2.250512 -0.238500
v 0.255984 1.673235 -0.099622
v 0.183363 0.842966 0.133748
v 0.313961 3.750727 -1.338788
v 2.081400 3.139330 0.317879
v -0.592573 2.740075 -0.159744
v -1.149096 4.135846 -0.115862
v 2.517034 3.814120 0.469068
v -0.826944 3.150748 -0.163098
v -0.521877 2.168252 -0.220286
v -0.167941 0.349667 -0.225706
v 0.300276 3.756557 -1.344566
v -0.353769 2.957545 -0.414260
v -0.467395 2.839429 -0.354836
v 2.510283 3.818504 0.469158
v -0.312389 1.741527 -0.265560
v 0.247773 0.835336 -0.041321
v -0.343643 1.744433 -0.075991
v 0.373868 2.564297 0.125690
v 0.068807 0.611833 0.196533
v 0.064958 3.575434 -1.026532
v 0.126492 3.082428 0.493853
v -0.258548 0.350137 0.070243
v -0.258454 0.169712 -0.097830
v -0.249559 3.109357 -0.565074
v -0.175697 3.350629 -0.723776
v 0.095732 3.471426 0.659664
v 0.334544 2.509968 0.187554
v 2.311559 3.444894 0.375207
v 2.335140 3.480700 0.418048
v 0.172344 0.192177 -0.176986
v -1.260823 4.626695 -0.118010
v -1.152556 4.135746 -0.133598
v 0.144626 0.385207 0.148379
v 0.081354 3.550400 -1.047107
v 0.083041 3.567525 -1.021459
v -0.264447 3.143017 -0.537164
v -0.239563 3.115544 -0.548245
v 0.064464 3.566530 -1.038532
v 0.099931 3.551395 -1.030034
v -0.405235 2.834678 -0.317322
v -0.431598 2.875286 -0.311257
v -0.268600 3.113390 -0.574766
v -0.468593 2.870432 -0.345073
v -0.798073 3.181957 -0.205172
v -0.293484 3.140864 -0.563685
v 0.195723 3.893145 0.773298
v 0.217593 3.894628 0.768491
v 0.134227 3.096727 0.473397
v 0.171105 3.114462 0.473291
v 0.213946 3.902500 0.749646
v 0.192077 3.901016 0.754453
v 0.420924 2.554007 0.225905
v 0.348845 2.535777 0.151055
v 0.177856 3.095345 0.509859
v 0.360296 2.505968 0.217510
v 0.925276 2.521688 0.169975
v 0.140978 3.077610 0.509965
v -1.278642 4.712953 -0.111010
v -1.157598 4.134363 -0.111525
v -1.149325 4.136069 -0.124891
v -1.161228 4.134092 -0.136101
v -1.175047 4.131002 -0.128003
v -0.812003 3.153106 -0.144129
v -0.766683 3.187402 -0.175981
v -0.442230 2.829824 -0.351139
v -0.770032 3.161960 -0.139224
v -0.820822 3.153149 -0.186455
v -0.495420 2.236948 -0.257059
v 2.343044 3.475118 0.412753
v 1.724949 2.846324 0.230458
v 1.686217 2.908013 0.237255
v 1.712550 2.850108 0.274311
v 1.708674 2.882111 0.207557
v 1.688612 2.888234 0.278511
v 2.328319 3.494754 0.395532
v 2.545813 3.874759 0.476036
v 2.328480 3.488203 0.413541
v 2.349866 3.474654 0.394244
v 0.409473 2.583816 0.159450
v -0.374907 2.255163 -0.192406
v -0.507949 2.243210 -0.133473
v -0.416859 2.248355 -0.264758
v -0.423575 2.254345 -0.121342
v -0.149622 0.724444 0.121930
v -0.204003 0.229774 0.152849
v 0.201735 0.188171 -0.055250
v 0.129719 0.190805 0.166915
v 0.094847 0.206094 -0.238037
v -0.047766 0.716316 -0.222295
v -0.207197 1.252940 -0.244162
v -0.020921 0.644745 0.193272
v -0.059512 0.206840 0.244813
v -0.266106 1.253907 -0.007331
v -0.351177 0.984904 -0.013883
v -0.288000 0.978678 -0.250338
v -0.077276 0.231775 -0.250716
v 0.096825 0.629324 -0.198012
v 0.176722 1.266965 -0.134885
v -0.192915 1.398956 -0.130348
v 0.040667 1.303135 -0.026359
v 0.965075 2.450009 0.089807
v 0.917181 2.550880 0.100026
v 0.941930 2.454169 0.162333
v 0.928832 2.501403 0.049154
v 0.444607 1.974381 0.106930
v 0.407317 2.012274 -0.059296
v 0.340441 1.995952 0.104202
v 0.482635 1.974063 0.005141
v 0.317412 2.019398 0.001453
v 0.290136 1.233716 -0.032985
v 0.234707 1.237526 0.114085
v -0.358789 0.855690 -0.143076
v 0.073850 1.280908 0.129775
v 0.160811 0.596599 0.141162
v -0.084715 0.979211 -0.057540
v 0.220315 0.589670 -0.048060
vt 0.2966 0.7722
vt 0.2964 0.7765
vt 0.2942 0.7764
vt 0.2941 0.7722
vt 0.2813 0.7776
vt 0.2783 0.7783
vt 0.2781 0.7764
vt 0.2806 0.7760
vt 0.2919 0.7722
vt 0.2919 0.7765
vt 0.2896 0.7765
vt 0.2896 0.7722
vt 0.2885 0.7858
vt 0.2896 0.7943
vt 0.2879 0.7943
vt 0.2867 0.7863
vt 0.3166 0.7775
vt 0.3174 0.7946
vt 0.3161 0.7944
vt 0.3147 0.7774
vt 0.2924 0.7854
vt 0.2929 0.7943
vt 0.2912 0.7942
vt 0.2904 0.7853
vt 0.2962 0.7854
vt 0.2961 0.7944
vt 0.2945 0.7944
vt 0.2943 0.7854
vt 0.2880 0.8022
vt 0.2892 0.8014
vt 0.2905 0.8085
vt 0.2896 0.8095
vt 0.2962 0.8021
vt 0.2976 0.8021
vt 0.2976 0.8099
vt 0.2963 0.8098
vt 0.2906 0.8016
vt 0.2919 0.8017
vt 0.2927 0.8092
vt 0.2916 0.8088
vt 0.2990 0.8020
vt 0.3004 0.8019
vt 0.2999 0.8097
vt 0.2987 0.8098
vt 0.2934 0.8019
vt 0.2947 0.8020
vt 0.2950 0.8097
vt 0.2939 0.8095
vt 0.2970 0.8181
vt 0.2979 0.8182
vt 0.2960 0.8266
vt 0.2953 0.8264
vt 0.2931 0.8177
vt 0.2940 0.8178
vt 0.2931 0.8260
vt 0.2923 0.8259
vt 0.2894 0.8179
vt 0.2903 0.8185
vt 0.2902 0.8258
vt 0.2894 0.8258
vt 0.2951 0.8180
vt 0.2961 0.8181
vt 0.2946 0.8262
vt 0.2939 0.8261
vt 0.2842 0.7871
vt 0.2864 0.7948
vt 0.3259 0.7878
vt 0.3277 0.7881
vt 0.3263 0.7952
vt 0.3250 0.7950
vt 0.2999 0.7857
vt 0.3017 0.7859
vt 0.3008 0.7940
vt 0.2992 0.7941
vt 0.3009 0.7729
vt 0.3006 0.7772
vt 0.2986 0.7765
vt 0.2990 0.7723
vt 0.3048 0.7656
vt 0.3055 0.7613
vt 0.3076 0.7615
vt 0.3065 0.7659
vt 0.3340 0.7816
vt 0.3381 0.7671
vt 0.3406 0.7629
vt 0.3359 0.7796
vt 0.3199 0.7797
vt 0.3198 0.7947
vt 0.3186 0.7948
vt 0.3185 0.7775
vt 0.3227 0.7848
vt 0.3224 0.7947
vt 0.3211 0.7947
vt 0.3214 0.7820
vt 0.2874 0.7643
vt 0.2867 0.7602
vt 0.2890 0.7602
vt 0.2893 0.7641
vt 0.2878 0.7729
vt 0.2881 0.7684
vt 0.2896 0.7680
vt 0.3299 0.7859
vt 0.3324 0.7761
vt 0.3355 0.7713
vt 0.3321 0.7837
vt 0.3038 0.7746
vt 0.3042 0.7699
vt 0.3055 0.7703
vt 0.3048 0.7757
vt 0.3013 0.7648
vt 0.3012 0.7688
vt 0.2995 0.7681
vt 0.2994 0.7645
vt 0.2917 0.7642
vt 0.2919 0.7680
vt 0.2968 0.7644
vt 0.2968 0.7681
vt 0.2941 0.7680
vt 0.2941 0.7643
vt 0.2836 0.7650
vt 0.2850 0.7693
vt 0.2834 0.7698
vt 0.2817 0.7654
vt 0.2847 0.7745
vt 0.2866 0.7688
vt 0.2860 0.7736
vt 0.3216 0.8049
vt 0.3226 0.8049
vt 0.3215 0.8151
vt 0.3208 0.8151
vt 0.3255 0.8055
vt 0.3265 0.8060
vt 0.3242 0.8160
vt 0.3235 0.8155
vt 0.3196 0.8050
vt 0.3206 0.8049
vt 0.3201 0.8151
vt 0.3194 0.8152
vt 0.3236 0.8050
vt 0.3246 0.8051
vt 0.3229 0.8150
vt 0.3222 0.8151
vt 0.3097 0.8166
vt 0.3109 0.8164
vt 0.3101 0.8219
vt 0.3092 0.8220
vt 0.2900 0.8544
vt 0.2903 0.8544
vt 0.2890 0.8634
vt 0.2889 0.8634
vt 0.2890 0.8543
vt 0.2893 0.8543
vt 0.2884 0.8633
vt 0.2882 0.8633
vt 0.3458 0.8101
vt 0.3458 0.8100
vt 0.3460 0.8100
vt 0.3460 0.8101
vt 0.2884 0.8543
vt 0.2887 0.8543
vt 0.2881 0.8633
vt 0.2880 0.8633
vt 0.2903 0.8355
vt 0.2908 0.8355
vt 0.2901 0.8452
vt 0.2897 0.8452
vt 0.2936 0.8360
vt 0.2941 0.8361
vt 0.2923 0.8456
vt 0.2919 0.8455
vt 0.2914 0.8356
vt 0.2919 0.8356
vt 0.2908 0.8453
vt 0.2905 0.8453
vt 0.2892 0.8355
vt 0.2897 0.8355
vt 0.2893 0.8452
vt 0.2889 0.8452
vt 0.2925 0.8357
vt 0.2931 0.8358
vt 0.2916 0.8454
vt 0.2912 0.8454
vt 0.2895 0.8543
vt 0.2898 0.8543
vt 0.2887 0.8633
vt 0.2886 0.8633
vt 0.3186 0.8051
vt 0.3275 0.8062
vt 0.3285 0.8065
vt 0.3257 0.8166
vt 0.3250 0.8163
vt 0.3224 0.8257
vt 0.3229 0.8259
vt 0.3201 0.8352
vt 0.3198 0.8352
vt 0.3194 0.8249
vt 0.3198 0.8249
vt 0.3182 0.8347
vt 0.3179 0.8347
vt 0.3325 0.8562
vt 0.3319 0.8564
vt 0.3316 0.8535
vt 0.3321 0.8535
vt 0.3203 0.8255
vt 0.3207 0.8261
vt 0.3189 0.8349
vt 0.3185 0.8348
vt 0.3183 0.8249
vt 0.3189 0.8249
vt 0.3176 0.8347
vt 0.3173 0.8346
vt 0.3173 0.8471
vt 0.3175 0.8472
vt 0.3149 0.8592
vt 0.3147 0.8591
vt 0.3169 0.8346
vt 0.3151 0.8467
vt 0.3167 0.8470
vt 0.3170 0.8471
vt 0.3145 0.8591
vt 0.3143 0.8590
vt 0.3162 0.8468
vt 0.3165 0.8469
vt 0.3141 0.8588
vt 0.3139 0.8588
vt 0.3157 0.8468
vt 0.3159 0.8468
vt 0.3137 0.8588
vt 0.3135 0.8588
vt 0.3335 0.8138
vt 0.3336 0.8139
vt 0.3334 0.8139
vt 0.3334 0.8138
vt 0.3066 0.8306
vt 0.3071 0.8306
vt 0.3075 0.8395
vt 0.3072 0.8396
vt 0.2912 0.8180
vt 0.2921 0.8175
vt 0.2916 0.8258
vt 0.2909 0.8258
vt 0.3054 0.8166
vt 0.3063 0.8163
vt 0.3067 0.8217
vt 0.3061 0.8217
vt 0.3078 0.8307
vt 0.3084 0.8309
vt 0.3084 0.8395
vt 0.3080 0.8395
vt 0.3119 0.8167
vt 0.3130 0.8169
vt 0.3118 0.8219
vt 0.3109 0.8219
vt 0.3074 0.8166
vt 0.3084 0.8168
vt 0.3084 0.8222
vt 0.3076 0.8219
vt 0.3092 0.8487
vt 0.3095 0.8487
vt 0.3089 0.8578
vt 0.3088 0.8579
vt 0.3086 0.8487
vt 0.3090 0.8487
vt 0.3086 0.8579
vt 0.3084 0.8579
vt 0.3090 0.8308
vt 0.3097 0.8307
vt 0.3093 0.8395
vt 0.3088 0.8395
vt 0.3103 0.8307
vt 0.3109 0.8307
vt 0.3101 0.8396
vt 0.3097 0.8396
vt 0.3383 0.8064
vt 0.3381 0.8065
vt 0.3381 0.8062
vt 0.3379 0.8061
vt 0.3381 0.8061
vt 0.3080 0.8487
vt 0.3083 0.8487
vt 0.3082 0.8580
vt 0.3081 0.8579
vt 0.3074 0.8487
vt 0.3077 0.8486
vt 0.3079 0.8578
vt 0.3077 0.8578
vt 0.3308 0.8480
vt 0.3302 0.8480
vt 0.3301 0.8427
vt 0.3307 0.8426
vt 0.3213 0.8258
vt 0.3219 0.8255
vt 0.3195 0.8351
vt 0.3192 0.8350
vt 0.3311 0.8562
vt 0.3304 0.8559
vt 0.3304 0.8533
vt 0.3310 0.8534
vt 0.3319 0.8479
vt 0.3314 0.8480
vt 0.3312 0.8425
vt 0.3317 0.8425
vt 0.3294 0.8562
vt 0.3285 0.8564
vt 0.3287 0.8535
vt 0.3295 0.8534
vt 0.3280 0.8562
vt 0.3275 0.8559
vt 0.3279 0.8534
vt 0.3283 0.8535
vt 0.3288 0.8329
vt 0.3284 0.8328
vt 0.3290 0.8232
vt 0.3292 0.8232
vt 0.3303 0.8329
vt 0.3300 0.8329
vt 0.3298 0.8232
vt 0.3300 0.8232
vt 0.3283 0.8480
vt 0.3279 0.8479
vt 0.3279 0.8425
vt 0.3283 0.8426
vt 0.3295 0.8480
vt 0.3287 0.8481
vt 0.3287 0.8427
vt 0.3294 0.8427
vt 0.3418 0.8147
vt 0.3419 0.8146
vt 0.3420 0.8148
vt 0.3422 0.8149
vt 0.3419 0.8149
vt 0.3295 0.8329
vt 0.3291 0.8329
vt 0.3294 0.8232
vt 0.3296 0.8232
vt 0.3310 0.8328
vt 0.3307 0.8328
vt 0.3301 0.8232
vt 0.3303 0.8232
vt 0.3313 0.8328
vt 0.3305 0.8232
vt 0.3321 0.8424
vt 0.3417 0.8148
vt 0.3417 0.8149
vt 0.3421 0.8147
vt 0.3420 0.8146
vt 0.3282 0.8594
vt 0.3277 0.8590
vt 0.3271 0.8585
vt 0.3304 0.8586
vt 0.3293 0.8590
vt 0.3324 0.8479
vt 0.3326 0.8534
vt 0.3322 0.8594
vt 0.3313 0.8590
vt 0.3226 0.8172
vt 0.3234 0.8166
vt 0.3072 0.8487
vt 0.3076 0.8578
vt 0.3068 0.8396
vt 0.3383 0.8062
vt 0.3383 0.8061
vt 0.3379 0.8063
vt 0.3380 0.8065
vt 0.3059 0.8110
vt 0.3072 0.8112
vt 0.3085 0.8114
vt 0.3117 0.8110
vt 0.3129 0.8115
vt 0.3141 0.8120
vt 0.3046 0.8167
vt 0.3054 0.8218
vt 0.3038 0.8117
vt 0.3048 0.8113
vt 0.2905 0.8113
vt 0.2916 0.8102
vt 0.3061 0.8307
vt 0.3335 0.8138
vt 0.3334 0.8138
vt 0.3336 0.8138
vt 0.3336 0.8138
vt 0.3337 0.8139
vt 0.3155 0.8468
vt 0.3133 0.8588
vt 0.3178 0.8249
vt 0.3186 0.8153
vt 0.3221 0.8162
vt 0.3331 0.8559
vt 0.3335 0.8585
vt 0.3328 0.8590
vt 0.3288 0.7960
vt 0.3300 0.7961
vt 0.3312 0.7963
vt 0.3174 0.8048
vt 0.2907 0.8545
vt 0.2886 0.8355
vt 0.2885 0.8452
vt 0.2887 0.8258
vt 0.2882 0.8543
vt 0.2878 0.8633
vt 0.3458 0.8102
vt 0.3459 0.8102
vt 0.3457 0.8102
vt 0.3457 0.8101
vt 0.3457 0.8100
vt 0.3101 0.8112
vt 0.3237 0.7948
vt 0.3275 0.7956
vt 0.2844 0.7796
vt 0.2854 0.7783
vt 0.2833 0.7809
vt 0.2833 0.7753
vt 0.2822 0.7606
vt 0.2800 0.7610
vt 0.2844 0.7602
vt 0.2855 0.7645
vt 0.2968 0.7607
vt 0.2942 0.7607
vt 0.2994 0.7608
vt 0.2916 0.7605
vt 0.3014 0.7609
vt 0.3034 0.7610
vt 0.3031 0.7652
vt 0.3029 0.7694
vt 0.3034 0.7794
vt 0.3041 0.7810
vt 0.3026 0.7778
vt 0.3027 0.7736
vt 0.3292 0.7810
vt 0.2875 0.7774
vt 0.3231 0.7748
vt 0.3217 0.7693
vt 0.3244 0.7803
vt 0.3241 0.7875
vt 0.3200 0.7648
vt 0.3183 0.7602
vt 0.2981 0.7854
vt 0.2976 0.7943
vt 0.3268 0.7807
vt 0.2818 0.7878
vt 0.2850 0.7954
vt 0.2786 0.7802
vt 0.2820 0.7793
vt 0.2885 0.8173
vt 0.2882 0.8087
vt 0.2893 0.8100
vt 0.2868 0.8030
vt 0.2886 0.8105
vt 0.3158 0.7603
vt 0.3133 0.7605
vt 0.2842 0.7770
vt 0.2830 0.7757
vn 0.9662 -0.0874 -0.2424
vn 0.9634 -0.0960 -0.2502
vn 0.9356 -0.0864 0.3423
vn 0.9440 -0.0810 0.3199
vn 0.6278 0.7611 0.1630
vn 0.5348 0.4724 -0.7006
vn 0.8572 0.2492 -0.4507
vn 0.9065 0.3097 0.2871
vn 0.6228 -0.0250 0.7820
vn 0.5860 -0.0308 0.8098
vn 0.1821 0.0462 0.9822
vn 0.2657 0.0406 0.9632
vn -0.4078 0.1842 0.8943
vn -0.5164 0.2289 0.8252
vn -0.8883 0.3656 0.2778
vn -0.8975 0.2917 0.3307
vn -0.9407 -0.1566 -0.3008
vn -0.9598 -0.1185 -0.2545
vn -0.7595 -0.1222 -0.6390
vn -0.6784 -0.1378 -0.7217
vn 0.5663 -0.0479 0.8228
vn 0.5388 -0.1520 0.8286
vn -0.0042 0.0424 0.9991
vn 0.1062 0.0593 0.9926
vn 0.9591 -0.1132 -0.2594
vn 0.9309 -0.2373 -0.2777
vn 0.9055 -0.2482 0.3441
vn 0.9306 -0.1077 0.3497
vn -0.8295 0.4420 -0.3416
vn -0.8696 0.4004 0.2888
vn -0.9823 0.0154 0.1866
vn -0.7742 0.2241 -0.5919
vn 0.8659 -0.4051 -0.2933
vn 0.5605 -0.1849 -0.8072
vn 0.4453 -0.2674 -0.8545
vn 0.6917 -0.6311 -0.3512
vn -0.5505 0.2086 0.8084
vn -0.0158 -0.0483 0.9987
vn 0.0690 -0.2140 0.9744
vn -0.4969 -0.1715 0.8507
vn 0.0417 0.1158 -0.9924
vn -0.4451 0.3387 -0.8290
vn -0.2289 0.4039 -0.8857
vn 0.0430 0.1749 -0.9836
vn 0.4892 -0.2872 0.8235
vn 0.8393 -0.4387 0.3210
vn 0.6579 -0.7014 0.2743
vn 0.3590 -0.4498 0.8178
vn 0.0939 0.1799 -0.9792
vn -0.1411 0.6125 -0.7778
vn -0.1730 0.6716 -0.7205
vn 0.1124 0.1753 -0.9781
vn 0.2463 -0.6191 0.7457
vn 0.4560 -0.8657 0.2063
vn 0.4315 -0.8803 0.1970
vn 0.2274 -0.6482 0.7267
vn -0.3310 0.9152 -0.2300
vn -0.3820 0.8334 0.3994
vn -0.4364 0.8047 0.4025
vn -0.3872 0.9046 -0.1783
vn 0.4974 -0.7785 -0.3829
vn 0.3703 -0.3782 -0.8484
vn 0.3659 -0.3819 -0.8487
vn 0.4801 -0.7829 -0.3956
vn -0.8965 0.2471 -0.3676
vn -0.8725 0.3545 -0.3362
vn 0.9379 0.2431 0.2475
vn 0.8966 0.2014 -0.3944
vn 0.8855 0.1874 -0.4252
vn 0.9617 0.2197 0.1639
vn 0.1058 0.0676 -0.9921
vn -0.5171 0.1895 -0.8347
vn -0.5284 0.2701 -0.8049
vn 0.0590 0.0844 -0.9947
vn 0.3735 0.0896 -0.9233
vn 0.2188 0.0874 -0.9718
vn 0.6978 -0.0282 -0.7157
vn 0.7500 -0.0164 -0.6612
vn -0.2846 0.0172 -0.9585
vn -0.3020 0.0119 -0.9532
vn -0.5925 -0.0836 -0.8012
vn -0.2720 -0.0403 -0.9614
vn -0.2419 -0.0792 -0.9671
vn -0.7098 -0.0143 0.7043
vn -0.6809 -0.0138 0.7322
vn -0.9640 -0.0963 0.2480
vn -0.9711 -0.1059 0.2141
vn 0.1721 0.1772 0.9690
vn 0.3089 0.1566 0.9381
vn -0.2122 0.0781 0.9741
vn -0.3325 0.0823 0.9395
vn -0.0690 0.1391 0.9879
vn -0.1187 0.1425 0.9827
vn 0.3345 0.0896 0.9381
vn 0.3595 0.0883 0.9290
vn -0.1277 0.1063 0.9861
vn -0.0457 0.1169 0.9921
vn 0.3381 0.0685 0.9386
vn 0.4490 0.0582 -0.8916
vn 0.3186 0.0678 -0.9455
vn -0.0034 0.0044 -1.0000
vn 0.0858 -0.0264 -0.9960
vn 0.1243 0.1236 -0.9845
vn -0.1224 0.0596 -0.9907
vn 0.5045 0.0674 -0.8608
vn 0.4698 0.0758 -0.8795
vn 0.7986 0.0248 -0.6014
vn 0.8414 0.0572 -0.5374
vn 0.7056 0.0111 0.7085
vn 0.6699 -0.0025 0.7425
vn 0.9913 0.0088 -0.1310
vn 0.9779 -0.0361 -0.2058
vn 0.9510 -0.0478 0.3053
vn 0.9473 -0.0223 0.3197
vn -0.8019 0.1182 0.5856
vn -0.6753 0.1143 0.7286
vn -0.6028 0.0803 0.7938
vn -0.7852 0.0183 0.6190
vn -0.6240 0.1709 0.7625
vn -0.4185 0.1403 0.8973
vn -0.4732 0.1470 0.8686
vn 0.3984 0.1455 0.9056
vn 0.7767 0.1958 0.5987
vn 0.6906 0.2573 0.6759
vn 0.4459 0.1909 0.8745
vn 0.3914 0.0703 -0.9175
vn -0.1613 -0.0101 -0.9868
vn -0.5081 -0.1761 -0.8431
vn 0.1132 -0.1957 -0.9741
vn -0.6840 -0.0548 0.7274
vn -0.1448 0.0552 0.9879
vn -0.0822 0.0033 0.9966
vn -0.5860 -0.2368 0.7749
vn 0.9761 0.1954 0.0951
vn 0.8440 0.1506 -0.5147
vn 0.7634 -0.2228 -0.6063
vn 0.9852 0.0318 0.1684
vn 0.3424 0.7106 -0.6147
vn -0.2502 0.3891 -0.8866
vn -0.3012 0.4096 -0.8611
vn 0.4891 0.6051 -0.6282
vn 0.8446 -0.3770 -0.3801
vn 0.5597 -0.1638 -0.8124
vn 0.1797 0.1356 -0.9743
vn 0.8145 -0.1868 -0.5492
vn -0.5758 0.2129 0.7894
vn -0.0517 -0.1309 0.9900
vn -0.0701 -0.1161 0.9908
vn -0.6453 0.3610 0.6733
vn 0.4777 0.8627 0.1661
vn -0.4644 0.5054 -0.7272
vn -0.8698 0.4758 0.1304
vn -0.6572 0.5146 -0.5507
vn -0.8447 0.4904 0.2145
vn -0.3516 0.3874 0.8522
vn -0.0651 -0.1627 0.9845
vn -0.0226 -0.1827 0.9829
vn -0.4569 0.2942 0.8394
vn 0.0938 0.2106 -0.9731
vn -0.2131 0.6712 -0.7100
vn -0.2728 0.5714 -0.7740
vn 0.1287 0.1457 -0.9809
vn 0.2447 -0.6344 0.7332
vn 0.4733 -0.8564 0.2065
vn 0.6594 -0.7106 0.2457
vn 0.3692 -0.5370 0.7585
vn -0.4278 0.8817 -0.1990
vn -0.4815 0.7781 0.4034
vn -0.6754 0.6438 0.3598
vn -0.5847 0.7378 -0.3373
vn 0.5277 -0.7545 -0.3903
vn 0.3963 -0.3598 -0.8447
vn 0.5333 -0.3105 -0.7869
vn 0.7173 -0.6177 -0.3223
vn 0.4625 -0.4032 0.7896
vn 0.8050 -0.5107 0.3019
vn 0.8286 -0.4651 0.3117
vn 0.4994 -0.3082 0.8097
vn -0.9707 -0.0964 0.2202
vn -0.6598 -0.0892 -0.7462
vn -0.8689 -0.1036 -0.4840
vn -0.9793 -0.1995 0.0357
vn -0.7256 -0.2494 -0.6414
vn -0.7790 -0.3642 -0.5104
vn -0.8626 -0.4488 0.2336
vn -0.8800 -0.3816 0.2826
vn -0.8590 -0.2972 -0.4169
vn 0.4397 0.2208 0.8706
vn 0.7216 0.4266 0.5453
vn 0.8250 0.3512 0.4428
vn 0.3958 0.1445 0.9069
vn -0.0415 -0.6173 -0.7856
vn -0.5332 -0.2474 -0.8090
vn -0.5150 -0.3083 -0.7999
vn 0.0575 -0.6620 -0.7473
vn 0.8192 0.5583 -0.1315
vn 0.5499 0.4372 -0.7117
vn 0.5963 0.2835 -0.7510
vn 0.8922 0.3874 -0.2321
vn -0.5984 -0.3447 0.7233
vn -0.1569 -0.1136 0.9811
vn -0.2945 -0.1925 0.9361
vn -0.6646 -0.1894 0.7228
vn -0.9354 -0.1762 -0.3065
vn -0.9425 -0.2127 0.2579
vn -0.7289 -0.1381 0.6706
vn -0.9884 -0.1030 -0.1116
vn 0.1130 0.0656 -0.9914
vn -0.4967 -0.0725 -0.8649
vn -0.4991 -0.0627 -0.8643
vn 0.1045 0.1172 -0.9876
vn 0.9503 0.2327 -0.2071
vn 0.6498 0.1805 -0.7384
vn 0.6644 0.1674 -0.7284
vn 0.9580 0.2855 0.0283
vn 0.1982 0.0393 0.9794
vn 0.8380 0.1952 0.5096
vn 0.7950 0.1667 0.5832
vn -0.0402 0.0485 0.9980
vn -0.1625 0.9866 0.0133
vn -0.5895 -0.4354 0.6804
vn 0.1196 -0.4109 0.9038
vn 0.0972 -0.3122 0.9450
vn -0.5725 -0.2253 0.7883
vn -0.2593 0.4371 0.8612
vn -0.0132 -0.1381 0.9903
vn -0.0593 -0.1428 0.9880
vn -0.3226 0.4246 0.8459
vn -0.4829 -0.5665 0.6677
vn 0.0729 -0.3315 0.9407
vn 0.0577 -0.4087 0.9108
vn -0.5597 -0.5489 0.6209
vn 0.7573 -0.1637 0.6322
vn 0.9757 0.2159 -0.0378
vn 0.9938 -0.0061 -0.1112
vn 0.7485 -0.2316 0.6214
vn -0.7564 -0.0763 -0.6497
vn -0.8915 -0.4531 -0.0013
vn -0.9246 -0.3804 0.0196
vn -0.8348 -0.0281 -0.5499
vn 0.5247 0.0715 0.8483
vn 0.7275 0.6558 0.2014
vn 0.9136 0.4026 0.0571
vn 0.6824 -0.0550 0.7289
vn -0.8683 0.3006 -0.3946
vn -0.9336 0.1847 0.3071
vn -0.9180 0.2340 0.3202
vn -0.6891 0.4326 -0.5814
vn 0.5042 0.0553 -0.8618
vn -0.2829 0.2659 -0.9216
vn -0.2760 0.2566 -0.9263
vn 0.2632 0.2194 -0.9395
vn 0.5527 0.4766 -0.6836
vn -0.2661 0.4335 -0.8610
vn -0.3145 0.3481 -0.8831
vn 0.5354 0.2638 -0.8023
vn -0.8786 0.1018 -0.4666
vn -0.9680 -0.2181 0.1241
vn -0.9687 -0.0154 0.2478
vn -0.8849 0.2069 -0.4174
vn -0.2727 0.0397 0.9613
vn 0.2543 0.9528 0.1656
vn 0.9597 -0.1717 -0.2224
vn 0.7611 -0.2778 0.5861
vn 0.9625 -0.1742 -0.2079
vn 0.6154 -0.1758 0.7684
vn -0.5165 -0.0219 0.8560
vn 0.1580 -0.2015 0.9667
vn 0.1761 -0.1820 0.9674
vn -0.9087 0.2258 -0.3512
vn -0.6358 0.6421 0.4284
vn -0.5410 0.7705 0.3371
vn -0.8761 0.2910 -0.3844
vn 0.0535 0.1727 -0.9835
vn -0.4661 -0.1505 -0.8718
vn -0.5044 -0.1309 -0.8535
vn 0.0932 0.1141 -0.9891
vn -0.7310 0.2679 -0.6276
vn -0.3293 0.9440 0.0196
vn -0.6100 0.7136 0.3444
vn -0.8720 0.2517 -0.4198
vn 0.0824 -0.6022 -0.7941
vn -0.5637 -0.2600 -0.7840
vn -0.6149 -0.2694 -0.7411
vn 0.0022 -0.7162 -0.6979
vn 0.3403 0.6861 0.6430
vn 0.7389 0.2060 0.6415
vn 0.7879 0.0676 0.6120
vn 0.1405 0.6102 0.7797
vn 0.8998 -0.4133 0.1398
vn 0.5458 -0.6926 -0.4716
vn 0.5170 -0.7160 -0.4691
vn 0.8445 -0.5355 -0.0063
vn 0.7264 -0.6856 0.0476
vn 0.3761 -0.8676 -0.3253
vn 0.3822 -0.8673 -0.3189
vn 0.9199 -0.2702 0.2841
vn -0.8413 0.3210 -0.4349
vn -0.4563 0.8658 0.2053
vn -0.4449 0.8802 0.1656
vn -0.7675 0.1740 -0.6169
vn 0.8733 -0.4842 -0.0538
vn 0.5464 -0.6518 -0.5259
vn 0.4535 -0.7832 -0.4254
vn 0.8134 -0.5816 0.0150
vn 0.1034 0.5428 0.8335
vn 0.7433 0.0923 0.6625
vn 0.7492 0.1473 0.6457
vn 0.1867 0.6429 0.7429
vn -0.2397 -0.6319 -0.7370
vn 0.5211 0.4591 -0.7195
vn 0.4596 0.6514 0.6037
vn 0.2535 0.7236 0.6420
vn 0.7930 0.0944 0.6019
vn 0.8120 0.0604 0.5806
vn -0.0418 -0.8076 -0.5882
vn -0.6138 -0.3426 -0.7113
vn -0.6021 -0.3610 -0.7121
vn 0.3336 0.7465 -0.5757
vn 0.6553 0.6545 0.3772
vn -0.3242 0.2046 -0.9236
vn 0.1309 0.2409 0.9617
vn 0.0442 0.9251 0.3773
vn -0.2733 -0.0657 0.9597
vn 0.0398 0.0009 -0.9992
vn -0.4207 -0.0714 -0.9044
vn -0.2366 0.3741 -0.8967
vn -0.0085 0.8313 -0.5558
vn 0.7478 0.2090 0.6302
vn 0.4972 0.0885 -0.8631
vn -0.3095 0.6135 0.7266
vn -0.6496 0.3836 0.6564
vn 0.5456 0.3292 0.7707
vn -0.3024 0.1997 0.9320
vn -0.8416 0.1320 0.5238
vn -0.9643 -0.0301 0.2632
vn -0.5976 0.1737 0.7828
vn -0.5132 0.1652 0.8422
vn 0.9961 0.0113 -0.0876
vn 0.9403 -0.0247 0.3395
vn 0.8625 0.0572 -0.5028
vn 0.7109 0.0081 0.7032
vn 0.5171 0.0601 -0.8538
vn 0.0585 0.0436 -0.9973
vn 0.0719 0.0574 -0.9958
vn 0.1182 0.0930 -0.9886
vn -0.0037 0.3666 -0.9304
vn 0.1519 0.1420 -0.9781
vn -0.2762 0.1446 0.9501
vn 0.6766 0.2367 0.6972
vn 0.6527 -0.0402 -0.7565
vn 0.5978 -0.0959 -0.7959
vn -0.5770 0.7781 -0.2481
vn -0.9329 -0.1625 -0.3214
usemtl None
s 1
f 354/1/1 254/2/2 3/3/3 151/4/4
f 353/5/5 205/6/6 7/7/7 134/8/8
f 352/9/9 240/10/10 9/11/11 257/12/12
f 351/13/13 233/14/14 12/15/15 128/16/16
f 350/17/17 176/18/18 15/19/19 100/20/20
f 349/21/21 144/22/22 11/23/23 162/24/24
f 348/25/25 161/26/26 17/27/27 191/28/28
f 347/29/29 94/30/30 20/31/31 232/32/32
f 346/33/33 122/34/34 22/35/35 194/36/36
f 345/37/37 93/38/38 24/39/39 146/40/40
f 344/41/41 222/42/42 21/43/43 110/44/44
f 343/45/45 217/46/46 23/47/47 118/48/48
f 342/49/49 189/50/50 25/51/51 195/52/52
f 341/53/53 193/54/54 27/55/55 169/56/56
f 340/57/57 209/58/58 30/59/59 167/60/60
f 339/61/61 115/62/62 26/63/63 92/64/64
f 338/65/65 128/16/16 12/15/15 168/66/66
f 337/67/67 121/68/68 31/69/69 216/70/70
f 336/71/71 99/72/72 19/73/73 239/74/74
f 335/75/75 137/76/76 2/77/77 181/78/78
f 334/79/79 221/80/80 16/81/81 248/82/82
f 333/83/83 248/84/82 16/85/81 100/86/20
f 332/87/84 192/88/85 14/89/86 96/90/87
f 331/91/88 255/92/89 38/93/90 105/94/91
f 330/95/92 204/96/93 41/97/94 104/98/95
f 329/99/96 101/100/97 10/101/98 257/12/12
f 328/102/99 158/103/100 35/104/101 129/105/102
f 327/106/103 231/107/104 35/108/101 158/109/100
f 326/110/105 235/111/106 1/112/107 268/113/108
f 325/114/109 271/115/110 10/101/98 104/98/95
f 324/116/111 163/117/112 4/118/113 143/119/114
f 323/120/115 188/121/116 37/122/117 260/123/118
f 322/124/119 188/121/116 39/125/120 180/126/121
f 321/127/122 112/128/123 44/129/124 117/130/125
f 320/131/126 237/132/127 46/133/128 145/134/129
f 319/135/130 198/136/131 45/137/132 243/138/133
f 318/139/134 238/140/135 47/141/136 109/142/137
f 317/143/138 256/144/139 49/145/140 220/146/141
f 316/147/142 98/148/143 53/149/144 173/150/145
f 315/151/146 267/152/147 57/153/148 252/154/149
f 314/155/150 120/156/151 58/157/152 252/158/149
f 313/159/153 132/160/154 58/161/152 120/162/151
f 312/163/155 215/164/156 56/165/157 184/166/158
f 311/167/159 139/168/160 59/169/161 211/170/162
f 310/171/163 126/172/164 51/173/165 203/174/166
f 309/175/167 97/176/168 55/177/169 242/178/170
f 308/179/171 223/180/172 52/181/173 197/182/174
f 307/183/175 174/184/176 54/185/177 245/186/178
f 52/181/173 211/170/162 98/148/143
f 14/89/86 212/187/179 176/18/18
f 306/188/180 247/189/181 48/190/182 230/191/183
f 305/192/184 246/193/185 60/194/186 131/195/187
f 304/196/188 214/197/189 62/198/190 157/199/191
f 303/200/192 251/201/193 64/202/194 187/203/195
f 302/204/196 229/205/197 67/206/198 190/207/199
f 301/208/200 172/209/201 63/210/202 124/211/203
f 300/212/204 153/213/205 68/214/206 178/215/207
f 60/216/186 124/211/203 153/217/205
f 299/218/208 226/219/209 69/220/210 269/221/211
f 298/222/212 270/223/213 70/224/214 150/225/215
f 297/226/216 244/227/217 71/228/218 149/229/219
f 296/230/220 149/231/219 71/232/218 150/233/215
f 295/234/221 219/235/222 74/236/223 130/237/224
f 294/238/225 108/239/226 28/240/227 164/241/228
f 293/242/229 148/243/230 73/244/231 123/245/232
f 292/246/233 200/247/234 76/248/235 182/249/236
f 291/250/237 265/251/238 72/252/239 234/253/240
f 290/254/241 140/255/242 50/256/243 142/257/244
f 289/258/245 170/259/246 78/260/247 114/261/248
f 288/262/249 138/263/250 79/264/251 228/265/252
f 287/266/253 116/267/254 77/268/255 141/269/256
f 286/270/257 259/271/258 75/272/259 264/273/260
f 78/274/247 136/275/261 227/276/262
f 80/277/263 228/278/252 227/276/262
f 285/279/264 207/280/265 80/281/263 208/282/266
f 284/283/267 95/284/268 81/285/269 136/286/261
f 283/287/270 213/288/271 83/289/272 263/290/273
f 282/291/274 179/292/275 61/293/276 177/294/277
f 281/295/278 210/296/279 82/297/280 206/298/281
f 280/299/282 218/300/283 84/301/284 160/302/285
f 279/303/286 159/304/287 86/305/288 250/306/289
f 278/307/290 183/308/291 65/309/292 185/310/293
f 277/311/294 225/312/295 88/313/296 241/314/297
f 276/315/298 258/316/299 90/317/300 249/318/301
f 275/319/302 262/320/303 85/321/304 156/322/305
f 274/323/306 135/324/307 87/325/308 155/326/309
f 88/327/296 196/328/310 102/329/311
f 90/330/300 152/331/312 102/329/311
f 273/332/313 147/333/314 89/334/315 152/335/312
f 272/336/316 106/337/317 91/338/318 196/339/310
f 225/340/295 272/336/316 196/339/310 88/341/296
f 85/342/304 160/302/285 272/336/316 225/340/295
f 160/302/285 84/301/284 106/337/317 272/336/316
f 258/316/299 273/332/313 152/335/312 90/317/300
f 83/289/272 155/326/309 273/332/313 258/316/299
f 155/326/309 87/325/308 147/333/314 273/332/313
f 102/329/311 241/343/297 88/327/296
f 102/329/311 152/331/312 241/343/297
f 152/331/312 89/344/315 241/343/297
f 102/329/311 249/345/301 90/330/300
f 102/329/311 196/328/310 249/345/301
f 196/328/310 91/346/318 249/345/301
f 213/288/271 274/323/306 155/326/309 83/289/272
f 82/297/280 250/306/289 274/323/306 213/288/271
f 250/306/289 86/305/288 135/324/307 274/323/306
f 135/324/307 275/319/302 156/322/305 87/325/308
f 86/305/288 185/310/293 275/319/302 135/324/307
f 185/310/293 65/309/292 262/320/303 275/319/302
f 106/337/317 276/315/298 249/318/301 91/338/318
f 84/301/284 263/290/273 276/315/298 106/337/317
f 263/290/273 83/289/272 258/316/299 276/315/298
f 147/333/314 277/311/294 241/314/297 89/334/315
f 87/325/308 156/322/305 277/311/294 147/333/314
f 156/322/305 85/321/304 225/312/295 277/311/294
f 159/304/287 278/307/290 185/310/293 86/305/288
f 44/347/124 109/348/137 278/307/290 159/304/287
f 109/348/137 47/349/136 183/308/291 278/307/290
f 210/296/279 279/303/286 250/306/289 82/297/280
f 66/350/319 171/351/320 279/303/286 210/296/279
f 171/351/320 44/347/124 159/304/287 279/303/286
f 262/352/303 280/299/282 160/302/285 85/342/304
f 65/353/292 187/203/195 280/299/282 262/352/303
f 187/203/195 64/202/194 218/300/283 280/299/282
f 251/201/193 281/295/278 206/298/281 64/202/194
f 46/354/128 186/355/321 281/295/278 251/201/193
f 186/355/321 66/350/319 210/296/279 281/295/278
f 229/205/197 282/291/274 177/294/277 67/206/198
f 66/356/319 186/357/321 282/291/274 229/205/197
f 186/357/321 46/133/128 179/292/275 282/291/274
f 218/300/283 283/287/270 263/290/273 84/301/284
f 64/202/194 206/298/281 283/287/270 218/300/283
f 206/298/281 82/297/280 213/288/271 283/287/270
f 170/358/246 284/283/267 136/286/261 78/359/247
f 75/360/259 130/237/224 284/283/267 170/358/246
f 130/237/224 74/236/223 95/284/268 284/283/267
f 95/284/268 285/279/264 208/282/266 81/285/269
f 74/236/223 182/249/236 285/279/264 95/284/268
f 182/249/236 76/248/235 207/280/265 285/279/264
f 227/276/262 114/361/248 78/274/247
f 227/276/262 228/278/252 114/361/248
f 228/278/252 79/362/251 114/361/248
f 227/276/262 208/363/266 80/277/263
f 227/276/262 136/275/261 208/363/266
f 136/275/261 81/364/269 208/363/266
f 116/267/254 286/270/257 264/273/260 77/268/255
f 49/145/140 234/253/240 286/270/257 116/267/254
f 234/253/240 72/252/239 259/271/258 286/270/257
f 200/247/234 287/266/253 141/269/256 76/248/235
f 50/256/243 220/146/141 287/266/253 200/247/234
f 220/146/141 49/145/140 116/267/254 287/266/253
f 207/280/265 288/262/249 228/265/252 80/281/263
f 76/248/235 141/269/256 288/262/249 207/280/265
f 141/269/256 77/268/255 138/263/250 288/262/249
f 138/263/250 289/258/245 114/261/248 79/264/251
f 77/268/255 264/273/260 289/258/245 138/263/250
f 264/273/260 75/272/259 170/259/246 289/258/245
f 148/243/230 290/254/241 142/257/244 73/244/231
f 24/365/39 201/366/322 290/254/241 148/243/230
f 201/366/322 29/367/323 140/255/242 290/254/241
f 256/144/139 291/250/237 234/253/240 49/145/140
f 21/368/43 232/369/32 291/250/237 256/144/139
f 232/369/32 20/370/31 265/251/238 291/250/237
f 219/235/222 292/246/233 182/249/236 74/236/223
f 73/244/231 142/257/244 292/246/233 219/235/222
f 142/257/244 50/256/243 200/247/234 292/246/233
f 265/371/238 293/242/229 123/245/232 72/372/239
f 20/373/31 146/374/40 293/242/229 265/371/238
f 146/374/40 24/365/39 148/243/230 293/242/229
f 209/58/58 294/238/225 164/241/228 30/59/59
f 29/375/323 201/376/322 294/238/225 209/58/58
f 201/376/322 24/39/39 108/239/226 294/238/225
f 259/377/258 295/234/221 130/237/224 75/360/259
f 72/372/239 123/245/232 295/234/221 259/377/258
f 123/245/232 73/244/231 219/235/222 295/234/221
f 269/378/211 296/230/220 150/233/215 70/379/214
f 69/380/210 178/381/207 296/230/220 269/378/211
f 178/381/207 68/382/206 149/231/219 296/230/220
f 119/383/324 297/226/216 149/229/219 68/384/206
f 63/210/202 157/199/191 297/226/216 119/383/324
f 157/199/191 62/198/190 244/227/217 297/226/216
f 244/227/217 298/222/212 150/225/215 71/228/218
f 62/198/190 190/207/199 298/222/212 244/227/217
f 190/207/199 67/206/198 270/223/213 298/222/212
f 270/223/213 299/218/208 269/221/211 70/224/214
f 67/206/198 177/294/277 299/218/208 270/223/213
f 177/294/277 61/293/276 226/219/209 299/218/208
f 153/217/205 119/383/324 68/384/206
f 153/217/205 124/211/203 119/383/324
f 124/211/203 63/210/202 119/383/324
f 226/219/209 300/212/204 178/215/207 69/220/210
f 61/293/276 131/195/187 300/212/204 226/219/209
f 131/195/187 60/194/186 153/213/205 300/212/204
f 246/385/185 301/208/200 124/211/203 60/216/186
f 48/386/182 243/138/133 301/208/200 246/385/185
f 243/138/133 45/137/132 172/209/201 301/208/200
f 214/197/189 302/204/196 190/207/199 62/198/190
f 44/129/124 171/387/320 302/204/196 214/197/189
f 171/387/320 66/356/319 229/205/197 302/204/196
f 183/388/291 303/200/192 187/203/195 65/353/292
f 47/389/136 145/390/129 303/200/192 183/388/291
f 145/390/129 46/354/128 251/201/193 303/200/192
f 172/209/201 304/196/188 157/199/191 63/210/202
f 45/137/132 117/130/125 304/196/188 172/209/201
f 117/130/125 44/129/124 214/197/189 304/196/188
f 179/292/275 305/192/184 131/195/187 61/293/276
f 46/133/128 230/191/183 305/192/184 179/292/275
f 230/191/183 48/190/182 246/193/185 305/192/184
f 237/132/127 306/188/180 230/191/183 46/133/128
f 36/391/325 166/392/326 306/188/180 237/132/127
f 166/392/326 15/393/19 247/189/181 306/188/180
f 176/18/18 247/394/181 15/19/19
f 176/18/18 212/187/179 247/394/181
f 212/187/179 48/386/182 247/394/181
f 98/148/143 266/395/327 53/149/144
f 98/148/143 211/170/162 266/395/327
f 211/170/162 59/169/161 266/395/327
f 267/152/147 307/183/175 245/186/178 57/153/148
f 56/165/157 203/174/166 307/183/175 267/152/147
f 203/174/166 51/173/165 174/184/176 307/183/175
f 126/172/164 308/179/171 197/182/174 51/173/165
f 27/55/55 92/64/64 308/179/171 126/172/164
f 92/64/64 26/63/63 223/180/172 308/179/171
f 139/396/160 309/175/167 242/178/170 59/397/161
f 25/398/51 167/60/60 309/175/167 139/396/160
f 167/60/60 30/59/59 97/176/168 309/175/167
f 215/164/156 310/171/163 203/174/166 56/165/157
f 28/240/227 169/56/56 310/171/163 215/164/156
f 169/56/56 27/55/55 126/172/164 310/171/163
f 223/180/172 311/167/159 211/170/162 52/181/173
f 26/63/63 195/52/52 311/167/159 223/180/172
f 195/52/52 25/51/51 139/168/160 311/167/159
f 97/176/168 312/163/155 184/166/158 55/177/169
f 30/59/59 164/241/228 312/163/155 97/176/168
f 164/241/228 28/240/227 215/164/156 312/163/155
f 266/399/327 313/159/153 120/162/151 53/400/144
f 59/397/161 242/178/170 313/159/153 266/399/327
f 242/178/170 55/177/169 132/160/154 313/159/153
f 245/401/178 314/155/150 252/158/149 57/402/148
f 54/403/177 173/404/145 314/155/150 245/401/178
f 173/404/145 53/405/144 120/156/151 314/155/150
f 132/160/154 315/151/146 252/154/149 58/161/152
f 55/177/169 184/166/158 315/151/146 132/160/154
f 184/166/158 56/165/157 267/152/147 315/151/146
f 174/184/176 316/147/142 173/150/145 54/185/177
f 51/173/165 197/182/174 316/147/142 174/184/176
f 197/182/174 52/181/173 98/148/143 316/147/142
f 140/255/242 317/143/138 220/146/141 50/256/243
f 29/367/323 202/406/328 317/143/138 140/255/242
f 202/406/328 21/368/43 256/144/139 317/143/138
f 112/128/123 318/139/134 109/142/137 44/129/124
f 32/407/329 216/70/70 318/139/134 112/128/123
f 216/70/70 31/69/69 238/140/135 318/139/134
f 212/187/179 319/135/130 243/138/133 48/386/182
f 14/89/86 192/88/85 319/135/130 212/187/179
f 192/88/85 38/93/90 198/136/131 319/135/130
f 238/140/135 320/131/126 145/134/129 47/141/136
f 31/69/69 253/408/330 320/131/126 238/140/135
f 253/408/330 36/391/325 237/132/127 320/131/126
f 198/136/131 321/127/122 117/130/125 45/137/132
f 38/93/90 255/92/89 321/127/122 198/136/131
f 255/92/89 32/407/329 112/128/123 321/127/122
f 111/409/331 322/124/119 180/126/121 5/410/332
f 8/411/333 165/412/334 322/124/119 111/409/331
f 165/412/334 37/122/117 188/121/116 322/124/119
f 175/413/335 323/120/115 260/123/118 13/414/336
f 40/415/337 113/416/338 323/120/115 175/413/335
f 113/416/338 39/125/120 188/121/116 323/120/115
f 127/417/339 324/116/111 143/119/114 43/418/340
f 42/419/341 268/113/108 324/116/111 127/417/339
f 268/113/108 1/112/107 163/117/112 324/116/111
f 133/420/342 325/114/109 104/98/95 41/97/94
f 43/418/340 143/119/114 325/114/109 133/420/342
f 143/119/114 4/118/113 271/115/110 325/114/109
f 103/421/343 326/110/105 268/113/108 42/419/341
f 34/422/344 154/423/345 326/110/105 103/421/343
f 154/423/345 33/424/346 235/111/106 326/110/105
f 205/425/6 327/106/103 158/109/100 7/426/7
f 6/427/347 107/428/348 327/106/103 205/425/6
f 107/428/348 33/424/346 231/107/104 327/106/103
f 253/408/330 328/102/99 129/105/102 36/391/325
f 31/69/69 121/68/68 328/102/99 253/408/330
f 121/68/68 7/429/7 158/103/100 328/102/99
f 199/430/349 329/99/96 257/12/12 9/11/11
f 5/410/332 180/126/121 329/99/96 199/430/349
f 180/126/121 39/125/120 101/100/97 329/99/96
f 101/100/97 330/95/92 104/98/95 10/101/98
f 39/125/120 113/416/338 330/95/92 101/100/97
f 113/416/338 40/415/337 204/96/93 330/95/92
f 165/431/334 331/91/88 105/94/91 37/432/117
f 8/433/333 224/434/350 331/91/88 165/431/334
f 224/434/350 32/407/329 255/92/89 331/91/88
f 260/435/118 332/87/84 96/90/87 13/436/336
f 37/432/117 105/94/91 332/87/84 260/435/118
f 105/94/91 38/93/90 192/88/85 332/87/84
f 166/392/326 333/83/83 100/86/20 15/393/19
f 36/391/325 129/105/102 333/83/83 166/392/326
f 129/105/102 35/104/101 248/84/82 333/83/83
f 231/107/104 334/79/79 248/82/82 35/108/101
f 33/424/346 154/423/345 334/79/79 231/107/104
f 154/423/345 34/422/344 221/80/80 334/79/79
f 235/111/106 335/75/75 181/78/78 1/112/107
f 33/424/346 107/428/348 335/75/75 235/111/106
f 107/428/348 6/427/347 137/76/76 335/75/75
f 236/437/351 336/71/71 239/74/74 18/438/352
f 2/77/77 137/76/76 336/71/71 236/437/351
f 137/76/76 6/427/347 99/72/72 336/71/71
f 224/434/350 337/67/67 216/70/70 32/407/329
f 8/433/333 134/439/8 337/67/67 224/434/350
f 134/439/8 7/429/7 121/68/68 337/67/67
f 99/440/72 338/65/65 168/66/66 19/441/73
f 6/442/347 125/443/353 338/65/65 99/440/72
f 125/443/353 5/410/332 128/16/16 338/65/65
f 193/54/54 339/61/61 92/64/64 27/55/55
f 23/47/47 194/36/36 339/61/61 193/54/54
f 194/36/36 22/35/35 115/62/62 339/61/61
f 189/444/50 340/57/57 167/60/60 25/398/51
f 21/445/43 202/446/328 340/57/57 189/444/50
f 202/446/328 29/375/323 209/58/58 340/57/57
f 108/239/226 341/53/53 169/56/56 28/240/227
f 24/39/39 118/48/48 341/53/53 108/239/226
f 118/48/48 23/47/47 193/54/54 341/53/53
f 115/62/62 342/49/49 195/52/52 26/63/63
f 22/35/35 110/44/44 342/49/49 115/62/62
f 110/44/44 21/43/43 189/50/50 342/49/49
f 93/38/38 343/45/45 118/48/48 24/39/39
f 11/23/23 144/22/22 343/45/45 93/38/38
f 144/22/22 17/27/27 217/46/46 343/45/45
f 122/34/34 344/41/41 110/44/44 22/35/35
f 18/438/352 239/74/74 344/41/41 122/34/34
f 239/74/74 19/73/73 222/42/42 344/41/41
f 94/30/30 345/37/37 146/40/40 20/31/31
f 12/15/15 233/14/14 345/37/37 94/30/30
f 233/14/14 11/23/23 93/38/38 345/37/37
f 217/46/46 346/33/33 194/36/36 23/47/47
f 17/27/27 161/26/26 346/33/33 217/46/46
f 161/26/26 18/438/352 122/34/34 346/33/33
f 222/447/42 347/29/29 232/32/32 21/448/43
f 19/441/73 168/66/66 347/29/29 222/447/42
f 168/66/66 12/15/15 94/30/30 347/29/29
f 254/2/2 348/25/25 191/28/28 3/3/3
f 2/77/77 236/437/351 348/25/25 254/2/2
f 236/437/351 18/438/352 161/26/26 348/25/25
f 240/10/10 349/21/21 162/24/24 9/11/11
f 3/3/3 191/28/28 349/21/21 240/10/10
f 191/28/28 17/27/27 144/22/22 349/21/21
f 261/449/354 350/17/17 100/20/20 16/450/81
f 13/436/336 96/90/87 350/17/17 261/449/354
f 96/90/87 14/89/86 176/18/18 350/17/17
f 199/430/349 351/13/13 128/16/16 5/410/332
f 9/11/11 162/24/24 351/13/13 199/430/349
f 162/24/24 11/23/23 233/14/14 351/13/13
f 271/115/110 352/9/9 257/12/12 10/101/98
f 4/118/113 151/4/4 352/9/9 271/115/110
f 151/4/4 3/3/3 240/10/10 352/9/9
f 111/451/331 353/5/5 134/8/8 8/452/333
f 5/410/332 125/443/353 353/5/5 111/451/331
f 125/443/353 6/442/347 205/6/6 353/5/5
f 163/117/112 354/1/1 151/4/4 4/118/113
f 1/112/107 181/78/78 354/1/1 163/117/112
f 181/78/78 2/77/77 254/2/2 354/1/1
