# Blender v2.78 (sub 0) OBJ File: ''
# www.blender.org
mtllib Apple_Tree_crk_m_01.mtl
o Apple_Tree_crk_m_01
v 0.115754 0.054606 0.176186
v 0.149310 0.423680 0.179195
v -0.026572 0.418424 0.181000
v -0.098681 0.052601 0.176953
v -0.164946 0.051981 -0.027044
v -0.080732 0.414505 0.013962
v 0.061060 0.424764 -0.090487
v 0.008536 0.053604 -0.153977
v 0.182019 0.055226 -0.028326
v 0.202851 0.435025 0.012057
v 0.162053 0.774740 0.067930
v 0.131700 0.678382 0.192165
v -0.012142 0.758739 0.196721
v -0.075495 0.760856 0.058619
v 0.049717 0.772360 -0.033977
v -0.097831 1.164389 0.093519
v 0.023786 1.180718 0.007359
v -0.373700 1.021977 -1.616190
v -0.657023 1.553767 -1.558936
v -1.406946 1.158210 -0.688079
v -1.897598 0.582255 -0.709718
v -0.808907 0.537633 -1.269932
v -1.182137 0.157600 -1.330225
v 0.002794 0.683247 -2.323997
v -0.082477 0.379976 -2.977611
v 0.141684 0.697841 -3.277709
v -0.533247 0.197371 -2.295138
v -0.009213 1.455823 -2.805697
v -0.791342 1.982167 -1.938379
v -2.520844 -0.112592 -1.741593
v -2.684289 0.317482 -0.792744
v -3.538291 0.105657 -1.031498
v -1.742451 0.008700 -1.493402
v -3.334502 -0.174827 -2.190627
v -4.403395 0.505776 -1.565852
v -3.837185 0.004773 -2.509773
v -2.005309 -0.209343 -2.930258
v -1.746583 -0.066701 -3.777727
v -1.024091 0.005616 -3.210481
v -3.081704 -0.015159 -3.576482
v -1.196437 -0.123511 -2.409287
v -4.373641 0.831317 -2.985136
v -4.413391 1.468052 -1.733549
v -3.998480 1.533615 -3.252221
v -3.625458 2.319329 -2.086506
v -3.570647 2.056258 -3.401141
v -3.233123 0.703102 -4.319146
v -1.855596 0.753622 -4.787300
v -2.438863 0.265681 -4.552300
v -2.548227 1.760353 -4.211431
v -4.111159 0.352586 -2.723949
v -2.319270 2.629853 -2.808247
v -2.730228 2.481543 -1.493786
v -1.345874 2.360464 -2.311240
v -2.131654 1.891806 -0.936432
v -0.972495 2.072401 -3.778094
v -0.360658 1.479840 -4.031317
v -1.177919 1.457288 -4.546721
v -3.162591 2.513105 -3.277561
v -0.513398 0.921053 -4.314193
v -0.502375 0.360805 -4.194247
v -0.667633 0.136197 -3.680813
v -1.640761 0.116332 -4.597621
v -3.524949 2.050895 -1.132263
v -3.780328 1.369985 -0.787730
v -3.715155 0.639163 -0.683027
v -2.688460 1.091776 -0.470561
v -0.037707 1.364825 -0.112810
v -0.061278 1.235716 -0.135859
v -0.545205 1.188071 -0.865054
v -0.542867 1.287169 -0.883726
v -0.198065 1.325714 -0.012579
v -0.146849 1.430404 -0.078109
v -0.673962 1.324226 -0.843490
v -0.686147 1.262272 -0.672351
v -0.174444 1.209025 -0.067952
v -0.676966 1.168902 -0.813646
v -0.859555 1.176700 -1.674281
v -0.807645 1.189167 -1.696111
v -0.807994 1.229788 -1.708635
v -0.860158 1.242992 -1.694493
v -0.793341 1.232259 -0.967450
v -0.895767 1.207563 -1.687974
v -1.121015 1.280963 -1.004456
v -1.107753 1.341624 -0.967832
v -1.104081 1.248683 -0.935666
v -1.136928 1.301650 -0.911352
v -1.798796 1.316113 -0.972084
v -1.773706 1.283394 -0.980338
v -1.774727 1.299708 -1.025870
v -1.776795 1.337694 -1.005332
v 0.093547 1.471337 0.285044
v 0.144873 1.424152 0.195981
v 0.006308 1.389637 0.276567
v 0.115971 1.151152 0.107316
v -0.031715 1.136039 0.216918
v -3.705318 0.346951 -0.815659
v -2.530676 2.621834 -2.066774
v -3.077881 -0.029429 -1.327638
v 0.067205 0.514092 -3.112262
v -4.269186 1.172102 -3.149947
v -0.390732 1.380691 -0.428639
v -0.078206 1.350103 -0.004313
v -1.468575 1.270464 -0.964910
v -0.778975 1.166641 -1.299437
v -0.534578 0.610425 -4.320869
v -1.124039 1.327916 -0.936356
v -2.926179 -0.179223 -1.946089
v -1.113234 1.315152 -0.993202
v -4.258632 0.968718 -1.072359
v -3.518389 -0.040867 -1.536688
v -0.899732 0.152931 -1.675074
v -1.053019 0.244595 -4.514627
v -3.690982 2.191934 -2.849909
v -2.297037 -0.102964 -3.774416
v -0.291803 1.212944 -0.460107
v -2.480454 1.479475 -0.572462
v -1.268381 1.720094 -1.188858
v -3.781320 0.201733 -3.095916
v -1.299711 2.002193 -1.517117
v -4.560335 0.742654 -2.230906
v -3.156203 -0.188289 -2.871992
v -0.080023 0.967602 0.085284
v 0.198452 0.223049 -0.012494
v 0.075849 1.409263 0.068502
v 0.143760 0.573027 0.187627
v 0.142028 0.430735 -0.053216
v -3.646438 1.746554 -0.948558
v -2.299809 0.473744 -0.715634
v -0.897382 1.277462 -0.822610
v -0.883475 1.227729 -1.690699
v -1.741187 -0.006580 -4.176503
v -0.066476 0.761689 0.137767
v -0.832109 1.240580 -1.703691
v -2.303454 -0.003417 -4.233911
v -1.912001 -0.141793 -3.416419
v -1.499157 0.311268 -1.038445
v -3.177815 2.477071 -1.686399
v -3.553544 -0.055118 -2.926825
v -0.162239 1.479639 -3.622690
v -0.139380 1.253004 0.046636
v -3.673636 -0.082297 -2.397125
v -0.874820 1.331651 -0.897458
v -3.821262 0.965623 -0.706792
v 0.016511 0.501972 -2.633445
v -3.969299 0.165769 -2.612374
v -0.129238 0.211575 -0.010853
v -1.788005 1.297051 -0.970342
v -0.096027 0.517343 -3.744115
v -1.053907 2.275081 -3.050073
v 0.076213 1.160558 0.066184
v -1.707267 0.878649 -0.598938
v -1.691620 2.008998 -4.060455
v -0.069950 0.415104 0.102922
v 0.125988 1.447560 0.259074
v -1.474602 1.292627 -1.023339
v -0.777731 1.277198 -1.324420
v -0.120917 1.214486 0.042662
v -2.058741 1.188739 -0.494051
v -4.213826 1.403728 -1.177861
v -2.091651 2.481676 -1.819919
v -0.060503 1.146446 0.167682
v -1.642157 2.393618 -3.358652
v -3.870491 0.744864 -3.703647
v -0.399626 1.824453 -2.278739
v -4.251435 0.524850 -2.813731
v -3.685063 1.140020 -3.864444
v 0.135868 0.220858 0.180918
v -2.311216 2.314406 -3.603997
v -0.212453 0.314878 -2.683570
v -1.110849 1.258544 -0.973297
v -0.588896 1.165795 -0.837647
v -4.085523 1.908414 -1.865438
v -2.108939 -0.063920 -1.596784
v -0.194067 1.389305 -0.048136
v -4.123192 0.592410 -0.959242
v -3.368627 2.285254 -3.358584
v -0.089806 1.415491 -0.113058
v -1.680878 0.372319 -4.779334
v -4.548910 1.136039 -2.347764
v -0.396048 1.186058 -0.394374
v -0.895920 1.159025 -4.557188
v 0.121528 0.778955 -0.001245
v -0.768324 1.279622 -0.954947
v -1.500266 1.311815 -0.952079
v 0.174585 0.735551 -2.790596
v -2.773780 0.397663 -4.487092
v -0.233870 1.519273 -2.084070
v 0.075595 0.709105 0.191326
v -1.538898 -0.173782 -2.660658
v -0.035677 1.288492 -0.132435
v -3.998443 0.240968 -1.208349
v -0.692301 1.488421 -4.324914
v -0.587053 2.005318 -2.660936
v -3.283710 0.326281 -4.012423
v -3.378129 1.569463 -3.893999
v -1.426196 -0.082430 -1.972821
v -3.246637 1.948165 -3.800039
v -1.349404 -0.037448 -3.513057
v 0.140142 0.989136 0.084288
v -0.549520 0.213682 -3.980671
v -2.238469 1.206372 -4.648994
v -2.842738 2.573517 -3.084108
v -1.022170 -0.059010 -2.811866
v -0.081697 1.370020 0.160127
v 0.064735 1.432302 0.294697
v -0.573412 0.785287 -1.387933
v -0.037148 1.175291 0.052214
v -3.225431 1.278425 -0.563565
v -1.106607 0.826289 -0.898571
v 0.059745 0.598640 -0.060925
v -1.207519 0.028133 -3.856480
v -2.904079 2.264333 -3.699011
v -0.865039 0.007364 -2.367497
v -2.998852 2.606765 -2.332728
v -3.935719 0.074509 -1.781705
v -1.033556 1.396469 -1.072685
v 0.113866 0.054415 -0.116835
v 0.043939 1.157227 0.167326
v 0.003748 1.460258 0.148543
v -3.048643 1.664069 -0.718410
v -1.730430 2.231648 -1.578176
v -0.161891 0.052291 0.084839
v -1.544995 1.166887 -4.707865
v -3.716251 1.858961 -3.338027
v -4.019248 1.816949 -1.330460
v -3.220845 0.488054 -0.647066
v -0.114504 1.208861 -0.101608
v -1.121655 1.271308 -0.916451
v -3.661304 2.196991 -1.476390
v -3.827741 0.414307 -3.414677
v -4.321763 1.537566 -2.468784
v -0.801093 1.209586 -1.704223
v -3.148190 0.187544 -0.875715
v 0.000339 1.281408 -0.041783
v -1.790010 1.332185 -0.986735
v -0.701767 1.784553 -1.778918
v -0.883034 1.189444 -1.678670
v -0.704954 1.253289 -1.346865
v -0.209667 0.435701 -2.231198
v 0.141191 0.715036 0.142854
v -1.082311 0.100089 -4.238935
v -1.735396 1.508047 -0.716499
v -1.896695 0.250974 -1.027611
v -2.584674 0.762156 -4.667834
v -2.541982 -0.188054 -3.232324
v -0.571346 0.351219 -1.747431
v 0.192378 0.430713 0.100825
v -1.092459 1.776168 -4.281249
v -1.407248 0.100259 -1.402379
v -1.019242 0.310999 -1.285850
v -0.071785 0.587152 0.036188
v -0.833563 1.217057 -1.334791
v -0.096794 0.052792 -0.116070
v -0.444035 1.291864 -0.353012
v -0.181050 0.349749 -3.556971
v -4.125301 0.169193 -2.098174
v -4.353077 0.426045 -2.267266
v -3.127534 2.293936 -1.228525
v 0.034607 0.217312 -0.131061
v -1.774008 1.321403 -1.021470
v -1.734284 1.584475 -4.507384
v -2.267522 0.844132 -0.508603
v -0.462723 1.290860 -1.596467
v -0.674759 1.211277 -0.690111
v -1.794647 2.570349 -2.574111
v -1.094519 0.036577 -1.878249
v -0.066655 0.213767 0.181910
v -0.030253 0.972470 0.210538
v 0.008536 0.053604 0.208230
v -2.980850 2.013786 -0.934055
v -2.734082 0.690089 -0.553464
v -0.831408 1.178870 -1.684212
v -1.134299 0.507245 -4.628316
v -2.641442 0.054119 -1.203542
v -3.348424 2.508102 -2.748881
v -3.983311 1.917267 -2.588749
v -0.672857 1.306954 -0.708191
v -0.288460 1.332606 -0.481368
v -4.530189 1.014907 -1.615995
v -2.241681 0.140625 -1.110771
v 0.002053 1.238720 -0.036017
v -0.705782 1.185677 -1.331338
v -0.533898 1.236834 -0.879936
v 0.085773 0.786165 0.150942
v -0.769794 1.192860 -0.937851
v -0.393061 1.242507 -4.145205
v -0.913332 1.256824 -0.943348
v -0.078200 1.202354 -2.127335
v -0.021235 0.587827 0.191203
v 0.191585 0.606416 0.034111
v -2.244641 0.453511 -4.741668
v 0.128457 1.011933 -2.519747
v -2.136827 0.188944 -4.612869
v -0.477925 0.174557 -3.028414
v -2.948810 1.179710 -4.377683
v -1.432358 -0.117405 -3.137759
v -0.022094 0.765765 -0.000418
v -0.841850 0.074571 -3.407602
v -0.991011 2.125464 -2.065101
v -2.240623 -0.203028 -2.340696
v -0.410419 1.855451 -3.323479
v -2.689592 0.124773 -4.254755
v -0.343814 0.584652 -1.795521
v 0.037781 0.979125 -0.002015
v -1.814470 -0.155578 -2.118773
v -0.146472 0.868025 -1.961279
v -0.311414 0.249881 -3.299657
v -0.089781 1.141317 -3.645683
v -1.356270 0.571700 -0.885365
v 0.178964 0.054916 0.083627
v -0.198873 1.250285 -0.030999
v -0.095757 0.796162 -3.786997
v -0.019909 0.418794 -0.052112
v -0.874222 1.208080 -0.866478
v -0.700429 0.082665 -2.864315
v -3.273749 0.872444 -0.539761
v -2.696671 -0.231853 -2.607065
v -1.772002 1.286269 -1.005078
v -1.472517 1.341501 -0.994620
v -0.809887 1.070651 -1.124086
v -2.465125 2.259902 -1.209810
v 0.086334 1.411234 0.253645
v 0.061369 0.421052 0.197307
v -0.517242 1.734831 -3.933049
v -0.585425 1.316121 -0.865601
v 0.153255 0.996698 -3.109301
v -1.112474 0.826294 -4.656086
v 0.005799 1.193548 0.122019
v -0.070106 1.275950 0.009573
v 0.063577 0.981647 0.159419
v -0.071493 0.968436 0.160030
v 0.105316 0.985730 0.029018
v 0.061417 0.578570 0.205765
v -0.015659 0.592054 -0.025662
v -0.003778 1.380600 0.109932
v -0.053675 1.415892 0.165324
v 0.055353 1.443049 0.101916
v -0.051961 1.202923 0.011184
v -1.488071 1.331778 -0.970991
v -1.472327 1.320006 -1.014709
v -0.894648 1.224268 -0.910006
v -0.885229 1.312740 -0.854940
v -1.469908 1.276425 -0.996483
v -0.884863 1.236930 -0.835934
v -0.812448 1.251049 -1.330470
v -1.485653 1.288197 -0.952765
v -0.895015 1.300079 -0.929013
v -0.697776 1.219131 -1.342568
v -0.813156 1.187612 -1.316154
v -0.738216 1.272088 -1.335443
v -0.739407 1.169982 -1.312216
v -0.428335 1.232825 -0.366098
v -0.336749 1.367676 -0.460403
v -0.341716 1.187526 -0.428567
v -0.425292 1.344456 -0.385735
v -0.278986 1.271679 -0.476696
v -0.029754 0.972519 0.029629
v 0.135149 0.605226 -0.026670
v -0.062261 0.587984 0.119063
v 0.183423 0.589227 0.115709
v 0.128536 0.220601 -0.088409
v -0.117375 0.211991 0.091956
v 0.186588 0.222634 0.090448
v -0.059323 0.214023 -0.087466
v 0.034607 0.217312 0.201892
vt 0.3161 0.7810
vt 0.3167 0.7846
vt 0.3151 0.7846
vt 0.3143 0.7810
vt 0.3270 0.7814
vt 0.3260 0.7846
vt 0.3245 0.7845
vt 0.3252 0.7811
vt 0.3198 0.7811
vt 0.3198 0.7846
vt 0.3183 0.7846
vt 0.3179 0.7810
vt 0.3124 0.7814
vt 0.3135 0.7849
vt 0.3119 0.7851
vt 0.3106 0.7818
vt 0.3234 0.7811
vt 0.3230 0.7846
vt 0.3214 0.7846
vt 0.3216 0.7811
vt 0.3198 0.7869
vt 0.3184 0.7866
vt 0.3138 0.7875
vt 0.3123 0.7876
vt 0.3228 0.7871
vt 0.3213 0.7872
vt 0.6875 0.7856
vt 0.6798 0.7856
vt 0.6838 0.7823
vt 0.3252 0.7933
vt 0.3248 0.7967
vt 0.3236 0.7965
vt 0.3238 0.7931
vt 0.4646 0.1872
vt 0.4668 0.1859
vt 0.4673 0.1894
vt 0.4700 0.1916
vt 0.4690 0.1940
vt 0.4666 0.1919
vt 0.4632 0.1921
vt 0.4656 0.1943
vt 0.4619 0.1937
vt 0.4595 0.1859
vt 0.4570 0.1859
vt 0.4586 0.1832
vt 0.4592 0.1919
vt 0.4614 0.1890
vt 0.4574 0.1887
vt 0.4647 0.1829
vt 0.4691 0.1846
vt 0.4670 0.1815
vt 0.4706 0.1827
vt 0.4622 0.1822
vt 0.4564 0.2072
vt 0.4615 0.2045
vt 0.4623 0.2085
vt 0.4588 0.1997
vt 0.4634 0.1980
vt 0.4627 0.2007
vt 0.4246 0.1669
vt 0.4302 0.1693
vt 0.4244 0.1708
vt 0.4242 0.1748
vt 0.4281 0.1784
vt 0.4243 0.1773
vt 0.4127 0.1732
vt 0.4123 0.1769
vt 0.4083 0.1752
vt 0.4216 0.1789
vt 0.4184 0.1740
vt 0.4158 0.1781
vt 0.4543 0.2014
vt 0.4576 0.2034
vt 0.4570 0.1956
vt 0.4597 0.1975
vt 0.4447 0.2012
vt 0.4448 0.1966
vt 0.4485 0.1984
vt 0.4266 0.1883
vt 0.4293 0.1851
vt 0.4300 0.1886
vt 0.4267 0.1905
vt 0.4268 0.1928
vt 0.4309 0.1952
vt 0.4269 0.1948
vt 0.4205 0.1911
vt 0.4179 0.1929
vt 0.4183 0.1900
vt 0.4240 0.1960
vt 0.4237 0.1919
vt 0.4209 0.1952
vt 0.4227 0.1857
vt 0.4260 0.1860
vt 0.4254 0.1838
vt 0.4222 0.1834
vt 0.4248 0.1819
vt 0.4197 0.1871
vt 0.4297 0.2071
vt 0.4323 0.2024
vt 0.4353 0.2063
vt 0.4302 0.2113
vt 0.4770 0.1766
vt 0.4767 0.1834
vt 0.4745 0.1787
vt 0.4178 0.2109
vt 0.4134 0.2105
vt 0.4160 0.2069
vt 0.4710 0.1775
vt 0.4727 0.1717
vt 0.4684 0.1669
vt 0.4667 0.1727
vt 0.4649 0.1686
vt 0.4254 0.2032
vt 0.4288 0.2040
vt 0.4280 0.2008
vt 0.4246 0.2000
vt 0.4275 0.1988
vt 0.4195 0.2050
vt 0.4540 0.1693
vt 0.4595 0.1739
vt 0.4558 0.1749
vt 0.4480 0.1765
vt 0.4513 0.1812
vt 0.4464 0.1808
vt 0.4447 0.1851
vt 0.4499 0.1883
vt 0.4448 0.1885
vt 0.4008 0.1846
vt 0.4064 0.1826
vt 0.4061 0.1867
vt 0.4115 0.1888
vt 0.4152 0.1860
vt 0.4138 0.1889
vt 0.4008 0.1943
vt 0.4080 0.1945
vt 0.4032 0.1981
vt 0.4152 0.1947
vt 0.4182 0.1970
vt 0.4147 0.1988
vt 0.4428 0.1956
vt 0.4389 0.1966
vt 0.4381 0.1922
vt 0.4433 0.1862
vt 0.4377 0.1840
vt 0.4419 0.1819
vt 0.4405 0.1776
vt 0.4363 0.1797
vt 0.4382 0.1747
vt 0.4734 0.1975
vt 0.4707 0.1970
vt 0.4717 0.1946
vt 0.4756 0.2084
vt 0.4711 0.2051
vt 0.4745 0.2030
vt 0.4833 0.2033
vt 0.4798 0.1968
vt 0.4852 0.1995
vt 0.4696 0.1881
vt 0.4732 0.1909
vt 0.4728 0.1874
vt 0.4639 0.1896
vt 0.4621 0.1865
vt 0.4301 0.1733
vt 0.4187 0.1700
vt 0.4506 0.2042
vt 0.4556 0.1977
vt 0.4523 0.1956
vt 0.4487 0.1938
vt 0.4538 0.1936
vt 0.4287 0.1829
vt 0.4301 0.1908
vt 0.4236 0.1897
vt 0.4315 0.1992
vt 0.4809 0.1818
vt 0.4237 0.2090
vt 0.4510 0.1729
vt 0.4528 0.1785
vt 0.4056 0.2019
vt 0.4099 0.2024
vt 0.4073 0.2060
vt 0.4577 0.1698
vt 0.4496 0.1855
vt 0.4008 0.1894
vt 0.4061 0.1916
vt 0.4023 0.1810
vt 0.4117 0.1847
vt 0.4104 0.1983
vt 0.4133 0.1918
vt 0.4430 0.1909
vt 0.4384 0.1875
vt 0.4419 0.2006
vt 0.4794 0.2059
vt 0.4783 0.2004
vt 0.4719 0.2091
vt 0.4700 0.1997
vt 0.4871 0.1956
vt 0.4818 0.1929
vt 0.4859 0.1913
vt 0.4749 0.1939
vt 0.3201 0.8045
vt 0.3212 0.8044
vt 0.3213 0.8123
vt 0.3202 0.8124
vt 0.3154 0.8044
vt 0.3166 0.8046
vt 0.3169 0.8124
vt 0.3158 0.8118
vt 0.3224 0.8044
vt 0.3235 0.8043
vt 0.3235 0.8121
vt 0.3224 0.8122
vt 0.3178 0.8046
vt 0.3189 0.8045
vt 0.3191 0.8124
vt 0.3180 0.8124
vt 0.3247 0.8041
vt 0.3259 0.8040
vt 0.3257 0.8111
vt 0.3246 0.8116
vt 0.3224 0.8211
vt 0.3232 0.8210
vt 0.3230 0.8299
vt 0.3225 0.8300
vt 0.3193 0.8212
vt 0.3201 0.8212
vt 0.3210 0.8301
vt 0.3205 0.8301
vt 0.3240 0.8214
vt 0.3248 0.8218
vt 0.3240 0.8298
vt 0.3235 0.8299
vt 0.3209 0.8212
vt 0.3216 0.8212
vt 0.3220 0.8301
vt 0.3215 0.8301
vt 0.3317 0.8005
vt 0.3327 0.8009
vt 0.3327 0.8038
vt 0.3320 0.8037
vt 0.3347 0.8098
vt 0.3352 0.8102
vt 0.3351 0.8166
vt 0.3347 0.8163
vt 0.3178 0.8219
vt 0.3185 0.8212
vt 0.3200 0.8301
vt 0.3195 0.8302
vt 0.3349 0.7996
vt 0.3357 0.8000
vt 0.3353 0.8038
vt 0.3347 0.8033
vt 0.3336 0.8098
vt 0.3343 0.8095
vt 0.3344 0.8161
vt 0.3339 0.8163
vt 0.3297 0.8002
vt 0.3307 0.8001
vt 0.3312 0.8035
vt 0.3306 0.8038
vt 0.3334 0.8001
vt 0.3340 0.7994
vt 0.3341 0.8029
vt 0.3334 0.8033
vt 0.3324 0.8100
vt 0.3331 0.8102
vt 0.3334 0.8165
vt 0.3329 0.8164
vt 0.3313 0.8102
vt 0.3318 0.8099
vt 0.3323 0.8163
vt 0.3320 0.8166
vt 0.3305 0.7899
vt 0.3311 0.7918
vt 0.3296 0.7917
vt 0.3292 0.7897
vt 0.3292 0.7937
vt 0.3357 0.7899
vt 0.3350 0.7918
vt 0.3350 0.7889
vt 0.3196 0.7924
vt 0.3185 0.7921
vt 0.3183 0.7886
vt 0.3195 0.7894
vt 0.3173 0.7926
vt 0.3162 0.7931
vt 0.3160 0.7905
vt 0.3171 0.7896
vt 0.6722 0.8326
vt 0.6763 0.8292
vt 0.6759 0.8361
vt 0.6896 0.8328
vt 0.6901 0.8260
vt 0.6997 0.8262
vt 0.6991 0.8329
vt 0.3257 0.7872
vt 0.3255 0.7898
vt 0.3241 0.7897
vt 0.3243 0.7871
vt 0.3169 0.7869
vt 0.3170 0.7893
vt 0.3156 0.7899
vt 0.3153 0.7873
vt 0.3225 0.7931
vt 0.3212 0.7931
vt 0.3213 0.7897
vt 0.3227 0.7897
vt 0.3146 0.7935
vt 0.3133 0.7936
vt 0.3127 0.7902
vt 0.3142 0.7901
vt 0.6794 0.7971
vt 0.6722 0.7970
vt 0.6722 0.7856
vt 0.7047 0.8324
vt 0.7103 0.8320
vt 0.7101 0.8361
vt 0.7043 0.8378
vt 0.6789 0.8125
vt 0.6735 0.8124
vt 0.6722 0.8085
vt 0.6789 0.8086
vt 0.6844 0.8126
vt 0.6856 0.8086
vt 0.6831 0.8165
vt 0.6789 0.8164
vt 0.6748 0.8164
vt 0.6986 0.8396
vt 0.7051 0.8270
vt 0.7105 0.8279
vt 0.6866 0.7971
vt 0.3160 0.7934
vt 0.3163 0.7969
vt 0.3151 0.7969
vt 0.3138 0.7970
vt 0.3223 0.7965
vt 0.3211 0.7965
vt 0.3184 0.7886
vt 0.3275 0.7848
vt 0.3272 0.7874
vt 0.3269 0.7900
vt 0.6890 0.8396
vt 0.6795 0.8396
vt 0.6800 0.8327
vt 0.6805 0.8258
vt 0.3186 0.7956
vt 0.3174 0.7957
vt 0.3163 0.7958
vt 0.3207 0.7927
vt 0.3207 0.7901
vt 0.3208 0.7953
vt 0.3197 0.7954
vt 0.3342 0.7907
vt 0.3342 0.7878
vt 0.3342 0.7936
vt 0.3306 0.7937
vt 0.3287 0.7956
vt 0.3325 0.7919
vt 0.3300 0.7880
vt 0.3287 0.7878
vt 0.3313 0.7881
vt 0.3319 0.7900
vt 0.3307 0.8104
vt 0.3316 0.8168
vt 0.3299 0.8041
vt 0.3327 0.7981
vt 0.3333 0.7969
vt 0.3339 0.7958
vt 0.3288 0.8003
vt 0.3276 0.7966
vt 0.3289 0.7966
vt 0.3302 0.7966
vt 0.3350 0.7959
vt 0.3362 0.7961
vt 0.3171 0.8225
vt 0.3190 0.8302
vt 0.3151 0.8147
vt 0.3160 0.8135
vt 0.3314 0.7973
vt 0.3245 0.8130
vt 0.3255 0.8138
vt 0.3236 0.7965
vt 0.3248 0.7967
vt 0.3261 0.7968
vt 0.3163 0.7969
vt 0.3175 0.7968
vt 0.3187 0.7967
vt 0.3211 0.7965
vt 0.3223 0.7965
vt 0.3142 0.8041
vt 0.3147 0.8112
vt 0.3138 0.7970
vt 0.3151 0.7969
vt 0.3199 0.7966
vt 0.4764 0.1902
vt 0.4806 0.1886
vt 0.4848 0.1870
vt 0.4674 0.1991
vt 0.4680 0.1964
vt 0.4667 0.2018
vt 0.4674 0.2058
vt 0.4682 0.2098
vt 0.4327 0.1854
vt 0.4320 0.1819
vt 0.4334 0.1889
vt 0.4380 0.2016
vt 0.4350 0.1976
vt 0.4409 0.2055
vt 0.4157 0.1918
vt 0.4161 0.1889
vt 0.4142 0.2029
vt 0.4154 0.1819
vt 0.4189 0.1831
vt 0.4119 0.1806
vt 0.4079 0.1790
vt 0.4038 0.1773
vt 0.4548 0.1887
vt 0.4552 0.1916
vt 0.4545 0.1859
vt 0.4560 0.1832
vt 0.4576 0.1805
vt 0.4632 0.1744
vt 0.4649 0.1785
vt 0.4615 0.1703
vt 0.4116 0.2065
vt 0.4090 0.2101
vt 0.4212 0.1992
vt 0.4685 0.1797
vt 0.4720 0.1808
vt 0.4243 0.2131
vt 0.4307 0.2154
vt 0.4309 0.1972
vt 0.4269 0.1968
vt 0.4241 0.1980
vt 0.4342 0.1933
vt 0.4281 0.1809
vt 0.4243 0.1799
vt 0.4501 0.1918
vt 0.4450 0.1920
vt 0.4216 0.1815
vt 0.4340 0.1768
vt 0.4359 0.1718
vt 0.4643 0.1958
vt 0.4606 0.1953
vt 0.4579 0.1935
vt 0.4742 0.1855
vt 0.4177 0.2011
vt 0.4175 0.1860
vt 0.4613 0.1795
vt 0.4358 0.2104
vt 0.3265 0.7934
vt 0.3261 0.7968
vt 0.6761 0.7823
vt 0.6800 0.7789
vt 0.3198 0.7891
vt 0.3239 0.7776
vt 0.3218 0.7776
vt 0.3260 0.7777
vt 0.3114 0.7780
vt 0.3093 0.7786
vt 0.3135 0.7775
vt 0.3196 0.7775
vt 0.3175 0.7775
vt 0.3281 0.7781
vt 0.3302 0.7784
vt 0.3288 0.7816
vt 0.3155 0.7775
vn 0.0098 0.0134 0.9999
vn 0.0184 -0.0176 0.9997
vn -0.5726 0.0418 0.8187
vn -0.5806 0.1207 0.8052
vn -0.5759 0.2431 -0.7805
vn -0.5833 0.1921 -0.7892
vn 0.0047 0.1780 -0.9840
vn -0.0041 0.1808 -0.9835
vn 0.9503 -0.0636 0.3048
vn 0.9537 -0.0074 0.3008
vn 0.6070 -0.0287 0.7942
vn 0.5921 -0.0475 0.8045
vn -0.9299 0.2074 0.3036
vn -0.9453 0.1099 0.3072
vn -0.9356 0.1783 -0.3048
vn -0.9191 0.2611 -0.2950
vn 0.5863 0.0766 -0.8064
vn 0.5817 0.1203 -0.8044
vn 0.9491 0.0589 -0.3093
vn 0.9500 -0.0078 -0.3121
vn 0.9433 0.0961 0.3179
vn 0.5977 0.0361 0.8009
vn -0.9421 -0.0101 0.3351
vn -0.9508 0.0541 -0.3051
vn 0.5935 0.1665 -0.7874
vn 0.9562 0.1565 -0.2475
vn 0.9752 0.2213 0.0086
vn 0.5695 0.2037 0.7963
vn 0.7820 0.3500 0.5157
vn -0.5954 0.0612 -0.8011
vn -0.5883 0.0287 -0.8081
vn 0.0648 0.6006 -0.7969
vn 0.0156 0.1392 -0.9901
vn 0.8009 0.0649 0.5953
vn 0.7385 0.3225 0.5921
vn 0.6761 0.1199 0.7270
vn 0.4492 0.1688 0.8774
vn 0.2817 -0.2520 0.9258
vn 0.5433 -0.2200 0.8102
vn 0.6087 -0.4472 0.6553
vn 0.3682 -0.4923 0.7887
vn 0.4970 -0.6165 0.6106
vn 0.8642 -0.3226 0.3861
vn 0.7617 -0.6171 0.1972
vn 0.9717 -0.2110 0.1063
vn 0.6086 -0.6788 0.4109
vn 0.7531 -0.4205 0.5059
vn 0.6694 -0.6712 0.3185
vn 0.8769 0.2480 0.4117
vn 0.6236 0.5286 0.5759
vn 0.7826 0.4861 0.3890
vn 0.5786 0.6375 0.5087
vn 0.9568 0.1426 0.2533
vn 0.0448 -0.9711 0.2345
vn 0.0759 -0.8998 0.4296
vn -0.0039 -0.9462 0.3236
vn 0.1295 -0.9212 0.3669
vn 0.1320 -0.7806 0.6109
vn 0.1053 -0.8425 0.5282
vn -0.0195 -0.9869 0.1599
vn -0.1855 -0.9803 0.0674
vn -0.4794 -0.8676 0.1323
vn -0.3600 -0.9328 -0.0175
vn 0.0621 -0.9965 -0.0567
vn 0.0881 -0.9858 -0.1432
vn 0.1857 -0.9745 -0.1263
vn -0.1806 -0.9742 -0.1352
vn -0.0208 -0.9998 0.0021
vn -0.0604 -0.9858 -0.1566
vn 0.0786 -0.9855 0.1506
vn 0.0650 -0.9526 0.2971
vn 0.2991 -0.9251 0.2341
vn 0.1482 -0.9152 0.3747
vn 0.1240 -0.9922 -0.0103
vn -0.8904 -0.2128 -0.4023
vn -0.9584 -0.2728 -0.0840
vn -0.9656 0.2195 -0.1393
vn -0.8452 0.2510 -0.4719
vn -0.7416 0.4785 -0.4702
vn -0.7466 0.6373 -0.1910
vn -0.7446 0.4671 -0.4769
vn -0.5959 -0.1264 -0.7930
vn -0.3535 0.0457 -0.9343
vn -0.4519 -0.4532 -0.7684
vn -0.5627 0.3999 -0.7236
vn -0.6753 0.2405 -0.6972
vn -0.4476 0.3448 -0.8250
vn -0.6464 -0.6267 -0.4352
vn -0.7480 -0.5852 -0.3130
vn -0.6720 -0.6857 -0.2796
vn -0.5970 -0.7165 -0.3608
vn -0.6610 -0.7018 -0.2656
vn -0.5594 -0.6332 -0.5349
vn 0.0592 0.9869 -0.1498
vn -0.2012 0.9784 0.0474
vn 0.0392 0.9876 0.1518
vn 0.2497 0.9680 0.0248
vn 0.3881 0.9015 0.1914
vn 0.3333 0.8164 0.4716
vn 0.4242 0.8647 0.2691
vn 0.3328 0.8613 -0.3840
vn 0.5654 0.7013 -0.4342
vn 0.2272 0.7125 -0.6639
vn 0.5677 0.8217 0.0509
vn 0.4086 0.9084 -0.0890
vn 0.6407 0.7556 -0.1365
vn 0.0177 0.8577 -0.5138
vn -0.0324 0.9703 -0.2397
vn -0.3149 0.8718 -0.3753
vn -0.1693 0.7498 -0.6397
vn -0.5787 0.6727 -0.4610
vn 0.0198 0.8013 -0.5980
vn 0.6691 0.0399 -0.7421
vn 0.8948 0.2089 -0.3946
vn 0.8506 0.0572 -0.5227
vn 0.6145 -0.5232 -0.5905
vn 0.6210 -0.7627 -0.1809
vn 0.4574 -0.8475 -0.2693
vn 0.3015 -0.9497 -0.0846
vn 0.3869 -0.9221 -0.0021
vn 0.2666 -0.9613 -0.0690
vn 0.1901 -0.9750 -0.1147
vn 0.2549 -0.9262 -0.2777
vn 0.0925 -0.7984 -0.5950
vn -0.1365 -0.9233 -0.3590
vn -0.1777 -0.6889 -0.7028
vn 0.3631 -0.1683 -0.9164
vn 0.6229 -0.1626 -0.7652
vn -0.0025 0.0823 -0.9966
vn -0.1983 0.3629 -0.9105
vn 0.0782 0.2609 -0.9622
vn -0.3805 0.6716 0.6358
vn -0.5144 0.7974 0.3156
vn -0.6652 0.6118 0.4279
vn -0.4647 0.3543 0.8115
vn -0.7978 0.0457 0.6012
vn -0.4810 0.0750 0.8735
vn -0.3609 -0.2395 0.9013
vn -0.7005 -0.3168 0.6395
vn -0.3433 -0.5856 0.7343
vn -0.0426 0.0465 0.9980
vn 0.0879 -0.2891 0.9533
vn 0.1573 0.1631 0.9740
vn -0.0721 -0.4584 0.8858
vn -0.1721 -0.0951 0.9805
vn -0.1263 0.5036 0.8546
vn -0.4052 0.5291 0.7456
vn 0.5598 0.4548 0.6927
vn 0.2993 0.5341 0.7907
vn 0.4321 0.6573 0.6174
vn 0.7335 -0.1968 0.6506
vn 0.8559 -0.1021 0.5070
vn -0.2337 -0.9507 0.2041
vn 0.0436 -0.9948 0.0918
vn 0.1923 -0.9519 0.2386
vn 0.2472 -0.9643 0.0951
vn 0.3134 -0.9465 -0.0771
vn 0.4103 -0.9029 0.1282
vn -0.7744 -0.6185 -0.1333
vn -0.8239 0.5337 -0.1906
vn -0.7533 -0.2333 -0.6149
vn -0.4547 0.8865 -0.0859
vn 0.2532 0.9096 0.3295
vn 0.1672 0.9311 -0.3241
vn 0.8130 -0.3923 -0.4303
vn 0.4245 0.1583 -0.8915
vn 0.7655 0.1206 -0.6320
vn 0.4492 -0.8922 -0.0457
vn 0.4028 -0.5823 -0.7062
vn 0.0836 -0.9744 -0.2085
vn 0.3195 -0.0136 -0.9475
vn 0.1050 -0.2768 -0.9552
vn -0.7478 0.3744 0.5483
vn -0.1816 0.8016 0.5696
vn -0.2076 0.2723 0.9395
vn 0.0076 -0.3702 0.9289
vn -0.0631 0.6143 0.7865
vn 0.0216 0.4662 0.8844
vn 0.8307 -0.1073 -0.5463
vn 0.6253 -0.6854 -0.3731
vn 0.6551 -0.6956 -0.2949
vn 0.8969 -0.1051 -0.4296
vn -0.6205 0.6960 0.3614
vn -0.2014 0.9794 0.0123
vn -0.0570 0.9973 -0.0456
vn -0.4377 0.8138 0.3823
vn 0.1889 -0.9798 -0.0658
vn -0.2657 -0.9342 0.2379
vn -0.1960 -0.9683 0.1550
vn 0.1757 -0.9827 -0.0582
vn 0.2900 0.9060 -0.3082
vn 0.7039 0.4835 -0.5203
vn 0.7314 0.5498 -0.4034
vn 0.2516 0.9416 -0.2238
vn -0.6697 -0.5368 0.5131
vn -0.8111 0.1128 0.5739
vn -0.7096 0.1224 0.6938
vn -0.5494 -0.6453 0.5307
vn 0.2018 -0.9769 -0.0708
vn -0.2126 -0.9766 0.0317
vn -0.2625 -0.9644 0.0326
vn 0.2305 -0.9698 -0.0799
vn 0.2562 0.9534 -0.1591
vn 0.7581 0.5887 -0.2806
vn 0.7243 0.6432 -0.2482
vn 0.2518 0.9568 -0.1455
vn -0.6988 -0.7065 0.1116
vn -0.9894 0.0036 0.1453
vn -0.9791 0.1146 0.1683
vn -0.7512 -0.6449 0.1408
vn 0.9496 -0.0810 -0.3028
vn 0.6925 -0.6873 -0.2191
vn 0.7351 -0.6446 -0.2099
vn 0.9605 -0.0270 -0.2771
vn 0.1367 0.5428 -0.8286
vn 0.0414 -0.2888 -0.9565
vn 0.1221 -0.3027 -0.9452
vn 0.1727 0.4629 -0.8694
vn -0.0890 -0.3905 0.9163
vn -0.0677 0.3515 0.9337
vn -0.0529 0.4014 0.9144
vn -0.0662 -0.1992 0.9777
vn -0.7213 0.6892 0.0690
vn -0.2351 0.9709 -0.0446
vn -0.2679 0.9631 -0.0262
vn -0.7326 0.6733 0.0994
vn -0.4062 -0.6336 0.6584
vn -0.4478 0.1870 0.8744
vn -0.1787 0.2907 0.9400
vn -0.2309 -0.5154 0.8253
vn -0.0208 -0.9277 -0.3728
vn -0.0725 -0.9437 0.3229
vn -0.0587 -0.8843 0.4632
vn -0.0227 -0.9349 -0.3543
vn -0.1777 0.8634 0.4722
vn 0.0519 0.9832 -0.1752
vn 0.0797 0.9625 -0.2595
vn -0.0868 0.8399 0.5357
vn -0.1524 -0.8954 -0.4185
vn -0.2617 -0.9480 0.1809
vn -0.1668 -0.9662 0.1963
vn 0.0082 -0.8868 -0.4621
vn 0.0392 0.4966 -0.8671
vn 0.0190 -0.3493 -0.9368
vn 0.0035 -0.3426 -0.9395
vn 0.0189 0.4950 -0.8687
vn -0.0374 0.8411 0.5396
vn 0.0072 0.9743 -0.2250
vn -0.0049 0.9927 -0.1203
vn -0.0320 0.8004 0.5986
vn -0.1033 -0.9089 -0.4040
vn -0.6365 -0.7713 -0.0026
vn -0.3219 -0.9184 0.2301
vn 0.1788 -0.9798 -0.0894
vn -0.7354 -0.4363 0.5185
vn 0.6230 -0.6751 -0.3950
vn 0.8614 -0.0828 -0.5011
vn 0.7107 -0.4671 -0.5260
vn 0.3664 0.8820 -0.2965
vn -0.1997 0.9774 0.0688
vn 0.1922 0.7692 0.6095
vn 0.8866 0.2422 0.3941
vn -0.6578 0.6344 0.4059
vn -0.5931 -0.5519 0.5863
vn -0.4500 -0.4972 0.7418
vn -0.0848 -0.0007 0.9964
vn 0.2661 -0.9630 0.0421
vn -0.7131 0.0732 0.6972
vn 0.5587 -0.5864 0.5865
vn -0.5939 0.1162 -0.7961
vn -0.5975 0.0937 -0.7964
vn -0.0178 0.1522 -0.9882
vn -0.0108 0.1594 -0.9872
vn 0.0237 -0.0084 0.9997
vn 0.2285 0.2690 0.9356
vn -0.2957 0.0354 0.9546
vn -0.5263 -0.0145 0.8502
vn 0.6800 0.1754 -0.7120
vn 0.9859 0.1394 0.0929
vn 0.6320 0.1721 -0.7556
vn -0.9031 -0.0444 0.4271
vn -0.9591 0.0044 -0.2832
vn -0.9527 0.0183 -0.3032
vn -0.9226 -0.0517 0.3824
vn 0.5938 0.0116 0.8046
vn -0.2143 -0.0341 0.9762
vn 0.3848 0.4993 0.7763
vn 0.4173 0.4926 0.7637
vn 0.7908 -0.6072 0.0773
vn 0.9301 0.3213 0.1779
vn 0.0214 0.9814 0.1906
vn -0.6847 0.5435 0.4855
vn -0.1790 0.3603 0.9155
vn 0.4394 0.5896 0.6777
vn 0.5874 0.6995 -0.4070
vn 0.8577 0.4904 0.1545
vn -0.0829 0.9958 0.0394
vn -0.8643 0.4777 -0.1573
vn 0.8582 0.3611 -0.3648
vn -0.3781 0.1180 0.9182
vn -0.2434 -0.6342 0.7339
vn 0.5482 0.2826 0.7871
vn 0.8779 -0.1980 -0.4361
vn 0.9715 -0.1464 -0.1865
vn 0.4062 -0.8504 0.3344
vn -0.2262 0.9738 0.0215
vn -0.6802 0.6272 0.3794
vn 0.3447 0.8700 -0.3526
vn -0.2823 -0.7648 -0.5791
vn -0.8451 -0.1920 -0.4989
vn -0.4249 -0.9006 -0.0914
vn -0.3833 0.8433 -0.3766
vn 0.2045 0.6736 0.7102
vn 0.1693 0.7689 0.6166
vn 0.0219 0.9139 0.4053
vn 0.1177 -0.6156 0.7792
vn 0.1829 -0.5570 0.8101
vn 0.0897 -0.6927 0.7156
vn 0.0045 -0.7681 0.6403
vn -0.2137 -0.8567 0.4694
vn -0.9636 0.0495 0.2626
vn -0.8428 -0.4800 0.2434
vn -0.8767 0.4565 0.1515
vn -0.2789 0.9315 0.2334
vn -0.5615 0.8264 0.0431
vn -0.2247 -0.2494 -0.9420
vn -0.3330 -0.6084 -0.7204
vn 0.2022 0.4539 -0.8678
vn -0.0471 -0.9809 -0.1887
vn -0.3421 -0.8808 -0.3274
vn 0.1155 -0.9826 -0.1456
vn 0.1969 -0.9718 -0.1297
vn 0.2786 -0.9528 -0.1203
vn 0.5206 -0.8467 0.1103
vn 0.4908 -0.8535 0.1750
vn 0.5945 -0.8039 0.0181
vn 0.7966 -0.6018 -0.0569
vn 0.9530 -0.1753 -0.2472
vn 0.8587 0.4248 -0.2867
vn 0.8549 0.5184 0.0197
vn 0.7610 0.3691 -0.5335
vn 0.5016 0.4406 -0.7445
vn -0.2239 0.6006 -0.7675
vn 0.6625 0.7158 0.2208
vn 0.5093 0.7715 0.3814
vn -0.7172 0.6652 -0.2079
vn -0.7028 0.5099 -0.4961
vn -0.4903 0.4904 -0.7205
vn -0.7298 0.6814 0.0554
vn -0.6334 -0.7737 -0.0158
vn -0.5515 -0.8186 -0.1602
vn 0.3927 -0.9194 -0.0225
vn -0.4426 -0.8553 -0.2695
vn -0.5555 -0.7469 0.3653
vn 0.2196 -0.7142 0.6646
vn 0.3023 -0.8285 0.4714
vn 0.4300 -0.8455 0.3166
vn 0.3966 0.7602 0.5145
vn -0.0397 0.5877 -0.8081
vn -0.3608 -0.7862 -0.5017
vn 0.9565 0.2399 -0.1659
vn 0.5623 0.0627 -0.8245
vn 0.9409 -0.0300 -0.3374
vn -0.0433 0.1759 -0.9835
vn -0.9340 0.2177 0.2831
vn -0.9163 0.2651 -0.3001
vn -0.6158 0.1303 0.7771
vn 0.9492 -0.0846 0.3031
vn 0.5727 -0.0622 0.8174
vn -0.5860 0.2439 -0.7727
vn -0.0219 0.0129 0.9997
usemtl None
s 1
f 366/1/1 324/2/2 3/3/3 268/4/4
f 365/5/5 314/6/6 7/7/7 260/8/8
f 364/9/9 248/10/10 2/11/11 168/12/12
f 363/13/13 154/14/14 6/15/15 147/16/16
f 362/17/17 127/18/18 10/19/19 124/20/20
f 361/21/21 126/22/22 2/11/11 248/10/10
f 360/23/23 252/24/24 6/15/15 154/14/14
f 359/25/25 291/26/26 10/19/19 127/18/18
f 11/27/27 285/28/28 241/29/29
f 358/30/30 208/31/31 17/32/32 305/33/33
f 18/34/34 264/35/35 321/36/36
f 20/37/37 152/38/38 210/39/39
f 22/40/40 310/41/41 251/42/42
f 24/43/43 145/44/44 186/45/45
f 22/40/40 247/46/46 304/47/47
f 24/43/43 240/48/48 145/44/44
f 18/34/34 289/49/49 264/35/35
f 19/50/50 188/51/51 237/52/52
f 24/43/43 186/45/45 293/53/53
f 30/54/54 275/55/55 99/56/56
f 33/57/57 244/58/58 281/59/59
f 30/60/54 99/61/56 108/62/60
f 34/63/61 216/64/62 142/65/63
f 37/66/64 136/67/65 297/68/66
f 34/63/61 122/69/67 318/70/68
f 37/66/64 246/71/69 136/67/65
f 30/54/54 306/72/70 174/73/71
f 33/57/57 267/74/72 250/75/73
f 37/76/64 297/77/66 190/78/74
f 42/79/75 121/80/76 180/81/77
f 42/79/75 180/81/77 101/82/78
f 44/83/79 277/84/80 225/85/81
f 47/86/82 245/87/83 187/88/84
f 44/83/79 196/89/85 167/90/86
f 47/86/82 296/91/87 245/87/83
f 42/79/75 231/92/88 166/93/89
f 51/94/90 119/95/91 146/96/92
f 47/86/82 187/88/84 195/97/93
f 52/98/94 215/99/95 98/100/96
f 52/98/94 98/100/96 266/101/97
f 54/102/98 222/103/99 300/104/100
f 56/105/101 325/106/102 249/107/103
f 54/102/98 194/108/104 150/109/105
f 56/110/101 302/111/106 325/112/102
f 52/98/94 169/113/107 203/114/108
f 59/115/109 213/116/110 177/117/111
f 56/105/101 249/107/103 153/118/112
f 60/119/113 309/120/114 313/121/115
f 61/122/116 256/123/117 201/124/118
f 62/125/119 295/126/120 299/127/121
f 62/128/119 212/129/122 242/130/123
f 63/131/124 135/132/125 294/133/126
f 61/134/116 274/135/127 106/136/128
f 48/137/129 202/138/130 224/139/131
f 64/140/132 230/141/133 226/142/134
f 65/143/135 110/144/136 144/145/137
f 66/146/138 176/147/139 97/148/140
f 67/149/141 263/150/142 159/151/143
f 66/152/138 227/153/144 317/154/145
f 65/155/135 221/156/146 128/157/147
f 20/37/37 217/158/148 243/159/149
f 19/50/50 237/52/52 118/160/150
f 18/34/34 321/36/36 207/161/151
f 18/34/34 207/161/151 307/162/152
f 22/40/40 251/42/42 247/46/46
f 18/34/34 307/162/152 289/49/49
f 30/54/54 174/73/71 275/55/55
f 33/57/57 250/75/73 244/58/58
f 34/63/61 111/163/153 216/64/62
f 30/60/54 108/62/60 301/164/154
f 34/63/61 142/65/63 122/69/67
f 30/54/54 301/165/154 306/72/70
f 33/57/57 197/166/155 267/74/72
f 41/167/156 204/168/157 214/169/158
f 42/79/75 166/93/89 121/80/76
f 51/94/90 146/96/92 258/170/159
f 44/83/79 232/171/160 277/84/80
f 42/79/75 101/82/78 164/172/161
f 44/83/79 225/85/81 196/89/85
f 42/79/75 164/172/161 231/92/88
f 52/98/94 203/114/108 215/99/95
f 59/115/109 177/117/111 276/173/162
f 54/102/98 161/174/163 222/103/99
f 52/98/94 266/101/97 163/175/164
f 54/102/98 300/104/100 194/108/104
f 52/98/94 163/175/164 169/113/107
f 61/122/116 106/176/128 149/177/165
f 60/178/113 182/179/166 287/180/167
f 60/119/113 287/181/167 309/120/114
f 61/122/116 149/177/165 256/123/117
f 62/125/119 308/182/168 295/126/120
f 61/134/116 201/183/118 113/184/169
f 62/128/119 299/185/121 212/129/122
f 63/131/124 132/186/170 135/132/125
f 61/134/116 113/184/169 274/135/127
f 60/178/113 328/187/171 182/179/166
f 63/131/124 294/133/126 179/188/172
f 65/143/135 128/189/147 160/190/173
f 64/140/132 259/191/174 230/141/133
f 65/143/135 160/190/173 110/144/136
f 65/155/135 144/192/137 209/193/175
f 66/152/138 97/194/140 227/153/144
f 67/149/141 272/195/176 263/150/142
f 65/155/135 209/193/175 221/156/146
f 64/196/132 271/197/177 259/198/174
f 67/149/141 159/151/143 117/199/178
f 357/200/179 116/201/180 70/202/181 284/203/182
f 356/204/183 102/205/184 74/206/185 278/207/186
f 355/208/187 181/209/188 77/210/189 172/211/190
f 354/212/191 279/213/192 71/214/193 326/215/194
f 353/216/195 255/217/196 75/218/197 265/219/198
f 352/220/199 105/221/200 78/222/201 273/223/202
f 351/224/203 239/225/204 80/226/205 134/227/206
f 350/228/207 253/229/208 83/230/209 238/231/210
f 349/232/211 283/233/212 79/234/213 233/235/214
f 348/236/215 288/237/216 84/238/217 109/239/218
f 347/240/219 185/241/220 88/242/221 148/243/222
f 346/244/223 157/245/224 81/246/225 131/247/226
f 345/248/227 130/249/228 87/250/229 229/251/230
f 344/252/231 104/253/232 89/254/233 319/255/234
f 343/256/235 143/257/236 85/258/237 107/259/238
f 342/260/239 315/261/240 86/262/241 171/263/242
f 341/264/243 156/265/244 90/266/245 261/267/246
f 340/268/247 320/269/248 91/270/249 236/271/250
f 339/272/251 158/273/252 76/274/253 228/275/254
f 76/274/253 158/273/252 312/276/255
f 69/277/256 191/278/257 282/279/258
f 338/280/259 220/281/260 92/282/261 155/283/262
f 337/284/263 205/285/264 94/286/265 206/287/266
f 92/288/261 206/289/266 155/290/262
f 336/291/267 205/292/264 72/293/268 103/294/269
f 335/295/270 298/296/271 15/297/272 211/298/273
f 334/299/274 189/300/275 13/301/276 290/302/277
f 333/303/278 200/304/279 11/305/27 183/306/280
f 332/307/281 123/308/282 14/309/283 133/310/284
f 331/311/285 269/312/286 13/313/276 285/28/28
f 330/314/287 208/315/288 17/316/289 235/317/290
f 329/318/291 162/319/292 96/320/293 219/321/294
f 151/322/295 329/318/291 219/321/294 95/323/296
f 17/324/32 208/325/297 329/318/291 151/322/295
f 208/325/297 16/326/298 162/319/292 329/318/291
f 103/294/269 330/314/287 235/317/290 68/327/299
f 72/293/268 141/328/300 330/314/287 103/294/269
f 141/328/300 16/329/301 208/315/288 330/314/287
f 200/330/279 331/311/285 285/28/28 11/27/27
f 95/323/296 219/321/294 331/311/285 200/330/279
f 219/321/294 96/320/293 269/312/286 331/311/285
f 269/331/286 332/307/281 133/310/284 13/301/276
f 96/332/293 162/333/292 332/307/281 269/331/286
f 162/333/292 16/334/298 123/308/282 332/307/281
f 305/33/33 333/303/278 183/306/280 15/297/272
f 17/32/32 151/335/295 333/303/278 305/33/33
f 151/335/295 95/336/296 200/304/279 333/303/278
f 324/2/2 334/299/274 290/302/277 3/3/3
f 2/11/11 126/22/22 334/299/274 324/2/2
f 126/22/22 12/337/302 189/300/275 334/299/274
f 314/6/6 335/295/270 211/298/273 7/7/7
f 6/338/15 252/339/24 335/295/270 314/6/6
f 252/339/24 14/340/283 298/296/271 335/295/270
f 125/341/303 336/291/267 103/294/269 68/327/299
f 93/342/304 323/343/305 336/291/267 125/341/303
f 323/343/305 94/344/265 205/292/264 336/291/267
f 155/290/262 323/343/305 93/342/304
f 155/290/262 206/289/266 323/343/305
f 206/289/266 94/344/265 323/343/305
f 220/281/260 337/284/263 206/287/266 92/282/261
f 73/345/306 175/346/307 337/284/263 220/281/260
f 175/346/307 72/347/268 205/285/264 337/284/263
f 125/348/303 338/280/259 155/283/262 93/349/304
f 68/350/299 178/351/308 338/280/259 125/348/303
f 178/351/308 73/345/306 220/281/260 338/280/259
f 282/279/258 235/352/290 17/353/289
f 282/279/258 191/278/257 235/352/290
f 191/278/257 68/354/299 235/352/290
f 312/276/255 141/355/300 72/356/268
f 312/276/255 158/273/252 141/355/300
f 158/273/252 16/357/301 141/355/300
f 282/358/258 339/272/251 228/275/254 69/359/256
f 17/360/289 208/361/309 339/272/251 282/358/258
f 208/361/309 16/357/301 158/273/252 339/272/251
f 185/362/220 340/268/247 236/271/250 88/363/221
f 87/364/229 107/259/238 340/268/247 185/362/220
f 107/259/238 85/258/237 320/269/248 340/268/247
f 320/269/248 341/264/243 261/267/246 91/270/249
f 85/258/237 109/239/218 341/264/243 320/269/248
f 109/239/218 84/238/217 156/265/244 341/264/243
f 288/237/216 342/260/239 171/263/242 84/238/217
f 82/365/310 286/366/311 342/260/239 288/237/216
f 286/366/311 77/367/189 315/261/240 342/260/239
f 130/368/228 343/256/235 107/259/238 87/364/229
f 75/369/197 278/370/186 343/256/235 130/368/228
f 278/370/186 74/371/185 143/257/236 343/256/235
f 156/265/244 344/252/231 319/255/234 90/266/245
f 84/238/217 171/263/242 344/252/231 156/265/244
f 171/263/242 86/262/241 104/253/232 344/252/231
f 315/261/240 345/248/227 229/251/230 86/262/241
f 77/367/189 265/372/198 345/248/227 315/261/240
f 265/372/198 75/373/197 130/249/228 345/248/227
f 253/374/208 346/244/223 131/247/226 83/375/209
f 82/376/310 184/377/312 346/244/223 253/374/208
f 184/377/312 74/206/185 157/245/224 346/244/223
f 104/253/232 347/240/219 148/243/222 89/254/233
f 86/262/241 229/251/230 347/240/219 104/253/232
f 229/251/230 87/250/229 185/241/220 347/240/219
f 143/257/236 348/236/215 109/239/218 85/258/237
f 74/371/185 184/378/312 348/236/215 143/257/236
f 184/378/312 82/365/310 288/237/216 348/236/215
f 239/225/204 349/232/211 233/235/214 80/226/205
f 71/214/193 284/203/182 349/232/211 239/225/204
f 284/203/182 70/202/181 283/233/212 349/232/211
f 105/221/200 350/228/207 238/231/210 78/222/201
f 77/210/189 286/379/311 350/228/207 105/221/200
f 286/379/311 82/380/310 253/229/208 350/228/207
f 157/245/224 351/224/203 134/227/206 81/246/225
f 74/206/185 326/215/194 351/224/203 157/245/224
f 326/215/194 71/214/193 239/225/204 351/224/203
f 283/233/212 352/220/199 273/223/202 79/234/213
f 70/202/181 172/211/190 352/220/199 283/233/212
f 172/211/190 77/210/189 105/221/200 352/220/199
f 181/209/188 353/216/195 265/219/198 77/210/189
f 76/381/253 312/382/255 353/216/195 181/209/188
f 312/382/255 72/383/268 255/217/196 353/216/195
f 102/205/184 354/212/191 326/215/194 74/206/185
f 73/384/306 178/385/308 354/212/191 102/205/184
f 178/385/308 68/386/299 279/213/192 354/212/191
f 116/201/180 355/208/187 172/211/190 70/202/181
f 69/387/256 228/388/254 355/208/187 116/201/180
f 228/388/254 76/381/253 181/209/188 355/208/187
f 255/389/196 356/204/183 278/207/186 75/390/197
f 72/391/268 175/392/307 356/204/183 255/389/196
f 175/392/307 73/384/306 102/205/184 356/204/183
f 279/213/192 357/200/179 284/203/182 71/214/193
f 68/386/299 191/393/257 357/200/179 279/213/192
f 191/393/257 69/387/256 116/201/180 357/200/179
f 117/199/178 243/159/149 55/394/313
f 117/199/178 159/151/143 243/159/149
f 159/151/143 20/37/37 243/159/149
f 259/198/174 322/395/314 53/396/315
f 259/198/174 271/197/177 322/395/314
f 271/197/177 55/394/313 322/395/314
f 221/156/146 117/199/178 55/394/313
f 221/156/146 209/193/175 117/199/178
f 209/193/175 67/149/141 117/199/178
f 263/150/142 129/397/316 21/398/317
f 263/150/142 272/195/176 129/397/316
f 272/195/176 31/399/318 129/397/316
f 227/153/144 234/400/319 31/399/318
f 227/153/144 97/194/140 234/400/319
f 97/194/140 32/401/320 234/400/319
f 209/193/175 317/154/145 67/149/141
f 209/193/175 144/192/137 317/154/145
f 144/192/137 66/152/138 317/154/145
f 110/144/136 280/402/321 35/403/322
f 110/144/136 160/190/173 280/402/321
f 160/190/173 43/404/323 280/402/321
f 230/141/133 138/405/324 45/406/325
f 230/141/133 259/191/174 138/405/324
f 259/191/174 53/407/315 138/405/324
f 160/190/173 226/142/134 43/404/323
f 160/190/173 128/189/147 226/142/134
f 128/189/147 64/140/132 226/142/134
f 179/188/172 292/408/326 48/137/129
f 179/188/172 294/133/126 292/408/326
f 294/133/126 49/409/327 292/408/326
f 182/179/166 224/139/131 58/410/328
f 182/179/166 328/187/171 224/139/131
f 328/187/171 48/137/129 224/139/131
f 274/135/127 179/188/172 48/137/129
f 274/135/127 113/184/169 179/188/172
f 113/184/169 63/131/124 179/188/172
f 135/132/125 115/411/329 40/412/330
f 135/132/125 132/186/170 115/411/329
f 132/186/170 38/413/331 115/411/329
f 212/129/122 199/414/332 38/413/331
f 212/129/122 299/185/121 199/414/332
f 299/185/121 39/415/333 199/414/332
f 113/184/169 242/130/123 63/131/124
f 113/184/169 201/183/118 242/130/123
f 201/183/118 62/128/119 242/130/123
f 295/126/120 170/416/334 27/417/335
f 295/126/120 308/182/168 170/416/334
f 308/182/168 25/418/336 170/416/334
f 256/123/117 100/419/337 25/418/336
f 256/123/117 149/177/165 100/419/337
f 149/177/165 26/420/338 100/419/337
f 309/120/114 140/421/339 28/422/340
f 309/120/114 287/181/167 140/421/339
f 287/181/167 57/423/341 140/421/339
f 287/180/167 193/424/342 57/425/341
f 287/180/167 182/179/166 193/424/342
f 182/179/166 58/410/328 193/424/342
f 149/177/165 313/121/115 26/420/338
f 149/177/165 106/176/128 313/121/115
f 106/176/128 60/119/113 313/121/115
f 169/113/107 153/118/112 50/426/343
f 169/113/107 163/175/164 153/118/112
f 163/175/164 56/105/101 153/118/112
f 194/108/104 165/427/344 28/422/340
f 194/108/104 300/104/100 165/427/344
f 300/104/100 29/428/345 165/427/344
f 163/175/164 150/429/105 56/105/101
f 163/175/164 266/101/97 150/429/105
f 266/101/97 54/430/98 150/429/105
f 222/103/99 322/395/314 55/394/313
f 222/103/99 161/174/163 322/395/314
f 161/174/163 53/396/315 322/395/314
f 276/173/162 114/431/346 45/406/325
f 276/173/162 177/117/111 114/431/346
f 177/117/111 46/432/347 114/431/346
f 215/99/95 276/173/162 45/406/325
f 215/99/95 203/114/108 276/173/162
f 203/114/108 59/115/109 276/173/162
f 231/92/88 195/97/93 40/412/330
f 231/92/88 164/172/161 195/97/93
f 164/172/161 47/86/82 195/97/93
f 196/89/85 198/433/348 50/426/343
f 196/89/85 225/85/81 198/433/348
f 225/85/81 46/432/347 198/433/348
f 164/172/161 167/90/86 47/86/82
f 164/172/161 101/82/78 167/90/86
f 101/82/78 44/83/79 167/90/86
f 277/84/80 173/434/349 45/406/325
f 277/84/80 232/171/160 173/434/349
f 232/171/160 43/404/323 173/434/349
f 258/170/159 257/435/350 35/403/322
f 258/170/159 146/96/92 257/435/350
f 146/96/92 36/436/351 257/435/350
f 121/80/76 258/170/159 35/403/322
f 121/80/76 166/93/89 258/170/159
f 166/93/89 51/94/90 258/170/159
f 214/169/158 316/437/352 27/417/335
f 214/169/158 204/168/157 316/437/352
f 204/168/157 39/438/333 316/437/352
f 267/74/72 214/169/158 27/417/335
f 267/74/72 197/166/155 214/169/158
f 197/166/155 41/167/156 214/169/158
f 306/72/70 190/78/74 41/167/156
f 306/72/70 301/165/154 190/78/74
f 301/165/154 37/76/64 190/78/74
f 122/69/67 139/439/353 40/412/330
f 122/69/67 142/65/63 139/439/353
f 142/65/63 36/436/351 139/439/353
f 301/164/154 318/70/68 37/66/64
f 301/164/154 108/62/60 318/70/68
f 108/62/60 34/63/61 318/70/68
f 216/64/62 192/440/354 35/403/322
f 216/64/62 111/163/153 192/440/354
f 111/163/153 32/441/320 192/440/354
f 244/58/58 137/442/355 21/398/317
f 244/58/58 250/75/73 137/442/355
f 250/75/73 23/443/356 137/442/355
f 275/55/55 281/59/59 31/399/318
f 275/55/55 174/73/71 281/59/59
f 174/73/71 33/57/57 281/59/59
f 289/49/49 293/53/53 28/422/340
f 289/49/49 307/162/152 293/53/53
f 307/162/152 24/43/43 293/53/53
f 247/46/46 112/444/357 27/417/335
f 247/46/46 251/42/42 112/444/357
f 251/42/42 23/443/356 112/444/357
f 307/162/152 304/47/47 24/43/43
f 307/162/152 207/161/151 304/47/47
f 207/161/151 22/40/40 304/47/47
f 207/161/151 210/39/39 22/40/40
f 207/161/151 321/36/36 210/39/39
f 321/36/36 20/37/37 210/39/39
f 118/160/150 120/445/358 55/394/313
f 118/160/150 237/52/52 120/445/358
f 237/52/52 29/428/345 120/445/358
f 243/159/149 118/160/150 55/394/313
f 243/159/149 217/158/148 118/160/150
f 217/158/148 19/50/50 118/160/150
f 128/157/147 271/197/177 64/196/132
f 128/157/147 221/156/146 271/197/177
f 221/156/146 55/394/313 271/197/177
f 317/154/145 272/195/176 67/149/141
f 317/154/145 227/153/144 272/195/176
f 227/153/144 31/399/318 272/195/176
f 159/151/143 152/38/38 20/37/37
f 159/151/143 263/150/142 152/38/38
f 263/150/142 21/398/317 152/38/38
f 97/148/140 192/440/354 32/441/320
f 97/148/140 176/147/139 192/440/354
f 176/147/139 35/403/322 192/440/354
f 144/145/137 176/147/139 66/146/138
f 144/145/137 110/144/136 176/147/139
f 110/144/136 35/403/322 176/147/139
f 226/142/134 173/434/349 43/404/323
f 226/142/134 230/141/133 173/434/349
f 230/141/133 45/406/325 173/434/349
f 224/139/131 262/446/359 58/410/328
f 224/139/131 202/138/130 262/446/359
f 202/138/130 50/426/343 262/446/359
f 106/136/128 328/187/171 60/178/113
f 106/136/128 274/135/127 328/187/171
f 274/135/127 48/137/129 328/187/171
f 294/133/126 303/447/360 49/409/327
f 294/133/126 135/132/125 303/447/360
f 135/132/125 40/412/330 303/447/360
f 242/130/123 132/186/170 63/131/124
f 242/130/123 212/129/122 132/186/170
f 212/129/122 38/413/331 132/186/170
f 299/127/121 316/437/352 39/438/333
f 299/127/121 295/126/120 316/437/352
f 295/126/120 27/417/335 316/437/352
f 201/124/118 308/182/168 62/125/119
f 201/124/118 256/123/117 308/182/168
f 256/123/117 25/418/336 308/182/168
f 313/121/115 327/448/361 26/420/338
f 313/121/115 309/120/114 327/448/361
f 309/120/114 28/422/340 327/448/361
f 153/118/112 262/446/359 50/426/343
f 153/118/112 249/107/103 262/446/359
f 249/107/103 58/410/328 262/446/359
f 177/117/111 198/433/348 46/432/347
f 177/117/111 213/116/110 198/433/348
f 213/116/110 50/426/343 198/433/348
f 203/114/108 213/116/110 59/115/109
f 203/114/108 169/113/107 213/116/110
f 169/113/107 50/426/343 213/116/110
f 325/112/102 140/421/339 57/423/341
f 325/112/102 302/111/106 140/421/339
f 302/111/106 28/422/340 140/421/339
f 150/109/105 302/111/106 56/110/101
f 150/109/105 194/108/104 302/111/106
f 194/108/104 28/422/340 302/111/106
f 249/107/103 193/424/342 58/410/328
f 249/107/103 325/106/102 193/424/342
f 325/106/102 57/425/341 193/424/342
f 300/104/100 120/445/358 29/428/345
f 300/104/100 222/103/99 120/445/358
f 222/103/99 55/394/313 120/445/358
f 266/101/97 161/449/163 54/430/98
f 266/101/97 98/100/96 161/449/163
f 98/100/96 53/407/315 161/449/163
f 98/100/96 138/405/324 53/407/315
f 98/100/96 215/99/95 138/405/324
f 215/99/95 45/406/325 138/405/324
f 195/97/93 303/447/360 40/412/330
f 195/97/93 187/88/84 303/447/360
f 187/88/84 49/409/327 303/447/360
f 146/96/92 139/439/353 36/436/351
f 146/96/92 119/95/91 139/439/353
f 119/95/91 40/412/330 139/439/353
f 166/93/89 119/95/91 51/94/90
f 166/93/89 231/92/88 119/95/91
f 231/92/88 40/412/330 119/95/91
f 245/87/83 202/138/130 48/137/129
f 245/87/83 296/91/87 202/138/130
f 296/91/87 50/426/343 202/138/130
f 167/90/86 296/91/87 47/86/82
f 167/90/86 196/89/85 296/91/87
f 196/89/85 50/426/343 296/91/87
f 187/88/84 292/408/326 49/409/327
f 187/88/84 245/87/83 292/408/326
f 245/87/83 48/137/129 292/408/326
f 225/85/81 114/431/346 46/432/347
f 225/85/81 277/84/80 114/431/346
f 277/84/80 45/406/325 114/431/346
f 101/82/78 232/171/160 44/83/79
f 101/82/78 180/81/77 232/171/160
f 180/81/77 43/404/323 232/171/160
f 180/81/77 280/402/321 43/404/323
f 180/81/77 121/80/76 280/402/321
f 121/80/76 35/403/322 280/402/321
f 190/78/74 204/168/157 41/167/156
f 190/78/74 297/77/66 204/168/157
f 297/77/66 39/438/333 204/168/157
f 250/75/73 112/444/357 23/443/356
f 250/75/73 267/74/72 112/444/357
f 267/74/72 27/417/335 112/444/357
f 174/73/71 197/166/155 33/57/57
f 174/73/71 306/72/70 197/166/155
f 306/72/70 41/167/156 197/166/155
f 136/67/65 115/411/329 38/413/331
f 136/67/65 246/71/69 115/411/329
f 246/71/69 40/412/330 115/411/329
f 318/70/68 246/71/69 37/66/64
f 318/70/68 122/69/67 246/71/69
f 122/69/67 40/412/330 246/71/69
f 297/68/66 199/414/332 39/415/333
f 297/68/66 136/67/65 199/414/332
f 136/67/65 38/413/331 199/414/332
f 142/65/63 257/435/350 36/436/351
f 142/65/63 216/64/62 257/435/350
f 216/64/62 35/403/322 257/435/350
f 108/62/60 111/163/153 34/63/61
f 108/62/60 99/61/56 111/163/153
f 99/61/56 32/441/320 111/163/153
f 281/59/59 129/397/316 31/399/318
f 281/59/59 244/58/58 129/397/316
f 244/58/58 21/398/317 129/397/316
f 99/56/56 234/400/319 32/401/320
f 99/56/56 275/55/55 234/400/319
f 275/55/55 31/399/318 234/400/319
f 293/53/53 327/448/361 28/422/340
f 293/53/53 186/45/45 327/448/361
f 186/45/45 26/420/338 327/448/361
f 237/52/52 165/427/344 29/428/345
f 237/52/52 188/51/51 165/427/344
f 188/51/51 28/422/340 165/427/344
f 264/35/35 188/51/51 19/50/50
f 264/35/35 289/49/49 188/51/51
f 289/49/49 28/422/340 188/51/51
f 145/44/44 170/416/334 25/418/336
f 145/44/44 240/48/48 170/416/334
f 240/48/48 27/417/335 170/416/334
f 304/47/47 240/48/48 24/43/43
f 304/47/47 247/46/46 240/48/48
f 247/46/46 27/417/335 240/48/48
f 186/45/45 100/419/337 26/420/338
f 186/45/45 145/44/44 100/419/337
f 145/44/44 25/418/336 100/419/337
f 251/42/42 137/442/355 23/443/356
f 251/42/42 310/41/41 137/442/355
f 310/41/41 21/398/317 137/442/355
f 210/39/39 310/41/41 22/40/40
f 210/39/39 152/38/38 310/41/41
f 152/38/38 21/398/317 310/41/41
f 321/36/36 217/158/148 20/37/37
f 321/36/36 264/35/35 217/158/148
f 264/35/35 19/50/50 217/158/148
f 298/296/271 358/30/30 305/33/33 15/297/272
f 14/340/283 123/450/282 358/30/30 298/296/271
f 123/450/282 16/451/298 208/31/31 358/30/30
f 241/29/29 189/452/275 12/453/302
f 241/29/29 285/28/28 189/452/275
f 285/28/28 13/313/276 189/452/275
f 211/298/273 359/25/25 127/18/18 7/7/7
f 15/297/272 183/306/280 359/25/25 211/298/273
f 183/306/280 11/305/27 291/26/26 359/25/25
f 290/302/277 360/23/23 154/14/14 3/3/3
f 13/301/276 133/310/284 360/23/23 290/302/277
f 133/310/284 14/309/283 252/24/24 360/23/23
f 291/26/26 361/21/21 248/10/10 10/19/19
f 11/305/27 241/454/29 361/21/21 291/26/26
f 241/454/29 12/337/302 126/22/22 361/21/21
f 218/455/362 362/17/17 124/20/20 9/456/363
f 8/457/364 260/8/8 362/17/17 218/455/362
f 260/8/8 7/7/7 127/18/18 362/17/17
f 223/458/365 363/13/13 147/16/16 5/459/366
f 4/460/367 268/4/4 363/13/13 223/458/365
f 268/4/4 3/3/3 154/14/14 363/13/13
f 311/461/368 364/9/9 168/12/12 1/462/369
f 9/456/363 124/20/20 364/9/9 311/461/368
f 124/20/20 10/19/19 248/10/10 364/9/9
f 254/463/370 365/5/5 260/8/8 8/457/364
f 5/464/366 147/465/16 365/5/5 254/463/370
f 147/465/16 6/338/15 314/6/6 365/5/5
f 270/466/371 366/1/1 268/4/4 4/460/367
f 1/462/369 168/12/12 366/1/1 270/466/371
f 168/12/12 2/11/11 324/2/2 366/1/1
