# Blender v2.78 (sub 0) OBJ File: ''
# www.blender.org
mtllib Apple_Tree_s_03.mtl
o Apple_Tree_s_03
v 0.501969 1.434741 -0.140705
v 0.287629 1.489060 0.316999
v 0.134036 1.576143 -0.061103
v 0.227120 1.724502 -0.368396
v 0.812478 1.578802 -0.284283
v 0.878595 1.447674 0.101518
v 0.574076 1.481014 0.419218
v 0.605681 1.808340 -0.477606
v 0.244236 2.192290 -0.459297
v 0.666311 2.232574 -0.502928
v 0.355636 2.509172 -0.333587
v 0.658378 2.568847 -0.361044
v 0.933375 2.459987 -0.184789
v 1.019546 1.914498 -0.262701
v 0.521122 2.771646 0.131360
v 0.232340 2.656371 -0.099304
v 0.103199 2.568795 0.222332
v 0.403199 2.665872 0.402300
v 0.923272 2.702595 0.223989
v 1.088549 2.454590 0.381215
v 1.094937 2.498051 0.107504
v 0.670297 2.499488 0.553256
v 0.302372 2.366879 0.485171
v 0.010373 2.219794 0.244951
v 0.282482 1.869771 0.460541
v 0.020860 1.847676 0.090558
v 0.625262 1.914391 0.612609
v 0.882624 2.162870 0.560231
v 1.006966 1.833635 0.395728
v 1.065353 1.766175 -0.008449
v 1.093819 2.146795 0.136722
v 0.052965 2.345833 -0.126058
v 0.026986 1.939394 -0.239439
v 0.288392 1.472243 -0.237419
v 0.181131 1.457073 -0.578070
v 0.428709 1.759509 -0.482473
v 0.432005 1.814633 -0.161995
v 0.139209 1.659427 0.019577
v -0.070410 1.669890 -0.727918
v -0.271421 1.586988 -0.446452
v -0.185337 1.943199 -0.611474
v 0.163421 1.959106 -0.673479
v -0.258430 1.893909 -0.286703
v -0.116715 1.529967 -0.072487
v -0.086202 1.931730 -0.039378
v 0.046431 2.146255 -0.281576
v 0.276332 1.973529 -0.050275
v 0.341871 2.045444 -0.360164
v -0.040590 1.377281 -0.404565
v -0.994051 1.845809 0.288662
v -0.894257 2.096125 0.597459
v -1.086591 2.240537 0.171359
v -0.965815 2.121762 -0.164609
v -0.897884 1.820627 -0.169895
v -0.736138 1.595207 -0.028127
v -0.792152 1.623594 0.340750
v -0.747385 1.784901 0.639019
v -0.496320 1.968678 -0.431114
v -0.654256 2.293206 -0.380333
v -0.378540 2.439259 -0.313220
v -0.198180 2.222138 -0.375497
v -0.100695 1.935989 -0.171574
v -0.325037 1.609013 -0.118492
v -0.044787 2.445426 0.121635
v -0.330849 2.650775 -0.035774
v -0.383885 2.680117 0.299256
v -0.160739 2.489101 0.428954
v -0.096817 2.147033 0.556090
v 0.048997 2.020762 0.194684
v -0.031749 1.742392 0.387075
v -0.502358 2.377944 0.612162
v -0.723608 2.586577 0.364932
v -0.435456 1.902498 0.751735
v -0.386395 1.621912 0.608871
v -0.408950 1.528342 0.266420
v -0.671310 2.677407 -0.076884
v -0.966661 2.478724 -0.067757
v -0.979565 2.520242 0.250630
v 0.002110 0.038014 -0.046094
v 0.017354 0.377067 -0.033980
v 0.052370 0.377038 0.001009
v 0.048143 0.038014 -0.000061
v 0.002110 0.038014 0.045973
v 0.017382 0.377075 0.036025
v -0.017633 0.377104 0.001036
v -0.043924 0.038014 -0.000061
v 0.022099 0.714561 0.019354
v -0.004954 0.714953 0.046704
v -0.005249 0.714869 -0.007702
v -0.032302 0.715261 0.019648
v -0.002092 1.008962 -0.008713
v 0.040654 0.988934 0.028972
v 0.003032 0.999904 0.065274
v -0.041259 0.989206 0.034843
v 0.012702 1.065705 0.024806
v -0.068843 1.161077 0.097613
v -0.078750 1.145590 0.118796
v -0.098795 1.137801 0.101913
v -0.086951 1.149005 0.080343
v 0.185920 1.090865 0.050471
v -0.250033 1.284397 0.230267
v -0.262853 1.290760 0.185452
v -0.244418 1.314972 0.207910
v -0.231762 1.292673 0.237015
v 0.196447 1.104202 0.020936
v 0.431510 1.296704 0.016409
v 0.435761 1.288012 0.043480
v 0.183491 1.119599 0.041090
v 0.408065 1.299807 0.031361
v 0.049423 1.041173 -0.008861
v 0.091539 1.289732 -0.179031
v 0.065483 1.301676 -0.164536
v 0.448161 1.333822 0.031510
v 0.583684 1.408598 0.047257
v 0.591028 1.398416 0.035838
v 0.593878 1.398117 0.053334
v -0.277518 1.564138 0.487146
v -0.280175 1.534636 0.482834
v -0.277518 1.330642 0.228840
v -0.291499 1.563620 0.490516
v -0.354306 1.467246 0.094272
v -0.340100 1.463300 0.084554
v -0.416665 1.654777 0.039984
v -0.353241 1.456045 0.081463
v -0.269182 1.802769 0.588318
v 0.064968 1.282650 -0.188757
v 0.098123 1.585782 -0.313042
v 0.079746 1.589326 -0.306105
v 0.083282 1.584245 -0.323111
v 0.404947 1.433610 -0.032015
v 0.399256 1.421356 -0.043881
v 0.395663 1.660976 -0.087481
v 0.393333 1.426074 -0.033516
v -0.032094 0.190071 -0.000296
v -0.546696 2.648130 0.334469
v 0.416575 1.349309 -0.012913
v -0.028087 0.989438 0.053771
v 0.606886 2.689458 0.375735
v -0.156016 1.214871 0.168914
v -0.003165 0.377085 -0.019497
v -0.985166 2.529042 0.085251
v -0.064094 1.068895 0.064133
v -0.675930 1.994260 0.718082
v 0.036770 1.893185 0.277449
v -0.242766 1.301176 0.251203
v 0.318044 1.854750 -0.595467
v -0.283942 1.584602 0.497828
v 0.797070 2.307045 0.580059
v 0.105604 2.093513 -0.498233
v 0.398588 1.448201 -0.036164
v 0.593968 1.397174 0.044227
v 0.043502 1.014048 0.011997
v 0.217785 1.553950 -0.080204
v 0.142859 2.534065 -0.120505
v -0.388970 1.565264 0.055758
v 0.091496 1.077586 0.037892
v -0.961841 1.819962 0.028631
v -0.001459 2.278674 0.076420
v -0.275376 1.927542 -0.350622
v 0.324179 2.031648 -0.192749
v -0.187638 1.621239 -0.605485
v 0.807613 2.645382 0.392820
v -0.788255 1.596186 0.172641
v -0.005483 0.859495 0.055309
v -0.268069 1.306929 0.236118
v -0.197120 2.611890 0.213115
v 0.263920 2.637259 0.328466
v 0.669160 2.426044 -0.445556
v 0.130614 1.845898 0.292185
v 0.399268 1.762013 -0.435621
v -0.593824 1.608491 0.487015
v 0.036769 0.549552 0.009786
v 0.452005 2.215680 -0.509306
v -0.037321 1.808137 0.082110
v 0.950642 1.597358 0.258702
v 0.383374 1.425514 0.122534
v -0.003151 0.377089 0.021556
v 0.109970 1.834361 -0.316248
v 0.924029 2.629329 0.027047
v -0.280395 1.696658 0.551503
v 0.449551 1.326237 0.021475
v 0.008566 1.040719 0.055751
v 0.037210 0.993059 0.049943
v -0.196513 1.813635 0.619834
v -0.831780 2.587984 -0.082197
v 0.016665 1.784485 0.017610
v 0.009888 2.077156 0.369822
v -0.830569 2.363070 0.512621
v -0.803869 2.204920 -0.307308
v -0.311244 1.368282 0.137691
v 0.301042 1.206641 0.038627
v -0.293967 1.377820 0.141754
v -0.521893 1.587516 -0.105962
v -0.172172 1.465144 -0.421694
v -0.077620 1.420961 -0.231376
v 0.054137 1.556246 -0.670811
v 0.076819 1.448000 -0.265174
v -0.237965 1.932681 -0.449726
v -0.152875 1.229556 0.149079
v 0.386112 1.643704 -0.191314
v -0.331579 2.574868 -0.167086
v -0.255572 1.768640 -0.552739
v -1.021063 1.988947 0.053928
v -0.781198 1.699446 0.498206
v -0.311252 2.112884 -0.434448
v 0.433249 2.672076 -0.132813
v -0.186657 2.584803 0.020890
v -0.268581 1.394151 0.349563
v 0.124330 2.061319 0.354379
v -0.870135 2.547477 0.323792
v -0.201556 1.661168 0.539560
v 0.448172 1.877198 0.555533
v 0.004771 1.986408 0.039656
v 0.828925 2.327894 -0.381363
v 0.074788 1.458923 -0.244253
v -0.580478 1.533764 0.109659
v 0.028311 2.130973 -0.199297
v 0.293188 2.360151 -0.413896
v 0.228006 1.948324 -0.435222
v -0.495046 2.673429 -0.065126
v 0.165142 2.630208 0.046952
v -0.849259 2.634500 0.104049
v 0.420886 2.006321 -0.503045
v 0.293827 1.484668 -0.095571
v 0.037901 0.377056 0.021542
v -0.043855 1.931338 0.509876
v 0.010852 0.714728 0.035282
v -0.357100 1.548143 0.083768
v -0.028841 1.101099 0.063377
v 0.147231 1.646917 0.229703
v 0.114036 1.058610 0.012416
v 0.013951 1.583774 -0.002696
v 0.035253 1.809763 -0.737674
v 0.010549 0.190071 -0.042939
v 0.401610 1.922613 -0.441426
v -0.646868 2.484960 0.513560
v -0.622830 1.738695 -0.256819
v 0.084248 1.461138 -0.127511
v 0.185439 1.698389 -0.663426
v -0.255058 1.275926 0.203304
v 0.192617 2.447275 -0.264229
v 0.588331 1.403917 0.052281
v -0.351744 1.474395 0.077556
v -0.277663 1.578117 0.502229
v -0.081469 2.067128 -0.466749
v 0.402154 1.445341 -0.042561
v 0.523440 1.352728 0.027646
v 0.392855 1.599571 -0.368562
v -0.193752 2.470779 -0.130527
v -0.028683 2.063354 -0.136909
v -1.056035 2.050771 0.241835
v 0.306728 1.723815 -0.054976
v 0.905274 2.503501 0.482753
v -0.425373 2.217022 -0.429280
v -0.926674 1.951249 -0.170742
v 0.826749 1.849408 -0.405338
v -0.153427 2.101547 -0.298393
v 0.132956 2.294451 0.374097
v 0.283691 2.603876 -0.195700
v -0.203579 1.600583 0.329133
v 0.337764 2.723208 0.002332
v 0.354533 1.568694 -0.288585
v -0.274726 1.697196 0.550598
v 0.010677 0.714678 0.003546
v 0.058784 1.745585 -0.156195
v 1.036089 2.484161 -0.014434
v -0.293724 2.254945 0.625190
v 0.031127 0.038014 0.028956
v 0.449561 1.315123 0.040412
v -0.484431 2.133319 0.709362
v -0.375877 1.567041 0.447746
v 0.077102 1.391491 -0.500852
v -0.262386 2.589593 0.370167
v 0.434026 1.285118 0.031613
v -0.067991 1.493863 -0.583412
v 1.115092 2.293925 0.276239
v -0.312643 1.383009 0.154531
v 0.427519 1.647086 0.486039
v -0.094547 1.142646 0.089676
v -0.026907 0.038014 -0.029078
v 0.633441 2.207883 0.614572
v 0.092253 1.584619 -0.319667
v 0.586292 1.404039 0.039921
v -0.383626 1.568214 0.057015
v -0.823197 1.906417 0.644988
v -0.135887 1.816852 -0.700024
v 0.250737 1.432613 -0.420070
v -0.023199 0.549924 0.009942
v -0.973093 1.957909 0.475354
v -0.582942 2.148470 -0.431952
v 0.605828 2.673401 -0.156296
v 0.287352 2.117578 0.488132
v -0.606764 1.830202 0.725896
v 0.006863 0.549760 0.039850
v -0.026907 0.038014 0.028956
v 0.407240 1.356403 0.000649
v -0.028615 0.989536 0.015599
v 0.288720 2.709293 0.192064
v 0.494997 2.379248 -0.458543
v 0.674216 1.493374 -0.245174
v 0.207203 1.512653 0.121492
v 0.442582 2.727397 0.317177
v 0.053192 0.190071 -0.000296
v 0.064501 1.684714 0.023008
v -0.021055 0.715094 0.003721
v 0.087640 1.040498 0.057150
v -0.384845 1.738932 0.696591
v 0.958379 1.655631 -0.156131
v 0.189148 1.113098 0.029255
v -0.820166 2.399905 -0.232444
v -0.741146 1.872227 -0.305156
v -0.350112 2.674351 0.138813
v 0.079839 1.296909 -0.170142
v 0.006706 0.549716 -0.020121
v 0.414947 1.940066 -0.257701
v -0.231735 1.301764 0.228003
v -0.283385 1.431619 0.361715
v -0.360507 1.476830 0.083551
v 0.089581 1.587837 -0.307682
v 0.983747 2.301037 0.491874
v 0.079317 1.586896 -0.314909
v -0.223018 1.712803 -0.166660
v 0.393653 1.551878 -0.064148
v 0.317765 1.601220 -0.539540
v -0.000183 2.095260 -0.023642
v -0.268234 1.337156 0.224880
v 0.037207 1.170663 -0.070247
v -0.114386 2.326186 -0.171121
v -1.027129 2.161478 0.384272
v -0.519815 2.359724 -0.374618
v 0.923976 1.729406 -0.294266
v 0.097584 1.451728 -0.254476
v -0.000797 1.054825 0.002712
v -1.049109 2.379898 0.229072
v 1.060974 1.784683 0.188331
v 0.701864 1.406601 -0.012777
v 0.993939 2.179414 -0.237770
v 0.607365 1.681790 0.539287
v 0.844588 1.491133 -0.106543
v -0.276568 1.692542 0.554660
v 0.745193 2.740068 0.197947
v -0.306304 2.451928 0.520877
v -0.005849 0.859392 -0.004662
v 0.037887 0.377052 -0.019511
v -0.250717 2.020545 0.674289
v 0.116018 1.387892 -0.310527
v 0.408217 1.292566 0.020811
v 0.198809 1.099553 0.034063
v 0.281929 1.648828 0.404604
v -0.657988 2.502169 -0.254153
v -0.173629 1.206093 0.158775
v 0.367246 1.897305 -0.091470
v 0.461019 2.144394 0.573811
v -0.072123 1.154091 0.109656
v -0.389403 1.569819 0.060967
v -0.076834 1.156118 0.087191
v 1.044567 2.286008 -0.042125
v -0.893884 1.811346 0.498830
v 0.094224 1.965820 -0.028549
v -0.125684 1.735611 -0.031867
v 1.076710 2.158775 0.400797
v 1.098917 2.359126 0.120797
v 0.395898 1.550053 -0.068370
v 0.453110 1.789649 -0.320822
v -0.020880 0.715144 0.035456
v 0.003759 1.898174 -0.089264
v 0.171205 2.484622 0.364014
v 0.024317 0.859009 0.025141
v -1.056420 2.186599 0.016260
v -0.272389 2.320555 -0.349313
v 0.079493 1.284734 -0.185715
v 1.109650 2.499336 0.234926
v 1.085251 2.008203 0.272835
v 0.952515 2.024070 0.504464
v 0.544838 1.404541 0.163538
v 0.021898 2.203148 0.169341
v 0.772245 2.534191 -0.294470
v 0.751616 2.663076 -0.042120
v -0.035648 0.859878 0.025505
v 0.189265 1.109487 0.048515
v 0.010549 0.190071 0.042347
v -0.525057 2.660700 0.146380
v 0.018892 0.985175 0.008154
v -1.052224 2.375441 0.043484
v -0.701516 2.232777 0.640638
v 0.988832 1.599649 0.046543
v -0.173423 1.219158 0.138249
v -0.220270 1.537504 -0.254049
v -0.129002 2.348176 0.494456
v -0.751024 2.042526 -0.339889
v 0.131325 2.288115 -0.316143
v -0.286830 1.577318 0.503930
v 0.312858 1.194287 0.020691
v 0.268235 2.033225 -0.519497
v 0.100894 1.038840 0.043527
v -0.135969 2.046814 -0.284820
v 0.008503 2.044421 0.167292
v 0.048528 2.472484 0.052972
v -0.089835 1.140619 0.112142
v 0.025254 1.025536 -0.013109
v 0.520360 1.370851 0.041601
v -0.904209 1.709924 0.323979
v 0.214153 2.117470 -0.325181
v 1.061956 1.829957 -0.132241
v -0.352400 1.481305 0.085458
v 0.394953 1.440849 -0.043556
v 0.646204 2.021306 -0.507681
v -0.021225 1.981185 -0.661469
v -0.264159 1.429578 0.353036
v 0.039141 1.060905 0.002115
v 0.034046 2.399309 0.232737
v -0.038422 2.185134 -0.053445
v 0.511144 2.610547 0.475844
v 0.859874 2.069805 -0.404588
v -0.275989 1.305649 0.203554
v 1.012267 2.611677 0.320584
v 0.548372 1.599268 -0.354020
v 0.777108 2.041450 0.596483
v -0.027369 2.303837 0.363567
v 0.421859 1.369100 0.001393
v -0.967159 2.331347 0.424096
v 0.725173 1.666508 -0.386486
v 0.524820 2.550068 -0.348871
v -0.155749 1.651761 0.109285
v 0.173505 1.629311 -0.224602
v 0.034435 1.141355 -0.098939
v 0.315941 1.190332 0.046482
v -0.038646 1.074935 0.089518
v 0.797662 1.615967 0.431214
v -0.459381 2.569183 0.459718
v -0.285668 1.732540 -0.364213
v 0.431126 1.319622 0.032596
v 0.418058 1.289450 0.040289
v -0.511366 2.575865 -0.227405
v 0.106557 2.077757 -0.354480
v -0.042317 1.076690 0.036879
v 0.031127 0.038014 -0.029078
v 0.065976 1.153441 -0.091266
v -0.571398 1.697608 0.645651
v -0.250641 1.296742 0.181920
v 0.212545 1.824317 0.005368
v 0.398444 1.554648 -0.063408
v -0.181569 1.924491 -0.147898
v 1.079006 2.033442 -0.065519
v 0.526554 1.351224 0.048775
v -0.896322 1.691864 0.125757
v 0.171469 2.085006 -0.144233
v -0.404774 1.753492 -0.294441
v -0.829515 1.717890 -0.115408
v 0.352192 2.549320 0.451047
v -0.204795 1.755926 -0.161576
v -0.701336 2.666203 0.142536
v 0.484994 2.422065 0.552109
v 1.034953 2.606135 0.146244
v -0.261814 1.396907 0.350132
v 0.815757 1.826944 0.535070
v 0.062658 1.292415 -0.176467
v -0.091687 2.488983 0.323003
v 1.093142 1.933920 0.073834
v 0.417100 1.468484 0.370426
v -0.608122 1.556888 0.302199
v -0.978971 2.309951 -0.130163
v 0.743423 1.442083 0.255648
v 0.073695 1.453629 -0.254737
v -0.010899 0.549834 -0.007728
v 0.410944 1.351284 -0.006860
v 0.414353 1.364052 0.002369
v 0.420376 1.359475 -0.006380
v 0.523458 1.361841 0.046886
v 0.088403 1.448987 -0.261332
v 0.087092 1.456034 -0.247834
v 0.032903 1.156257 -0.083947
v 0.051463 1.145146 -0.097508
v 0.102582 1.070105 0.022950
v -0.301634 1.372087 0.138290
v -0.313683 1.375435 0.146533
v -0.302537 1.381588 0.149154
v -0.278942 1.420695 0.364498
v -0.274320 1.432261 0.356526
v -0.262387 1.421670 0.359876
v 0.525446 1.350149 0.037882
v 0.521449 1.362812 0.033254
v 0.308069 1.198893 0.044670
v 0.053252 1.164055 -0.078997
v 0.115608 1.050532 0.024844
v 0.306080 1.201445 0.028031
v 0.092015 1.062922 0.050444
v -0.034186 1.090393 0.047772
v 0.315693 1.190923 0.033098
v -0.152762 1.223059 0.159922
v -0.164971 1.209258 0.165625
v -0.163002 1.225582 0.141884
v -0.175210 1.211780 0.147587
v -0.052763 1.070417 0.079181
v -0.054923 1.071450 0.048217
v -0.032026 1.089360 0.078736
v -0.023410 0.859669 0.007792
v 0.012078 0.859218 0.042855
v -0.023195 0.859730 0.043069
v 0.011863 0.859157 0.007578
v -0.010807 0.549860 0.027549
v 0.024377 0.549616 -0.007820
v 0.024469 0.549641 0.027457
v -0.014535 0.190071 -0.025380
v 0.035633 0.190071 0.024788
v -0.014535 0.190071 0.024788
v 0.035633 0.190071 -0.025380
vt 0.4506 0.1605
vt 0.4602 0.1608
vt 0.4564 0.1650
vt 0.4623 0.1694
vt 0.4590 0.1727
vt 0.3902 0.2004
vt 0.3966 0.1986
vt 0.3971 0.2046
vt 0.4615 0.1562
vt 0.3945 0.2125
vt 0.4415 0.1809
vt 0.4486 0.1784
vt 0.4502 0.1847
vt 0.4442 0.1890
vt 0.4470 0.1971
vt 0.4550 0.1968
vt 0.4527 0.2019
vt 0.4211 0.1794
vt 0.4252 0.1871
vt 0.4175 0.1883
vt 0.4039 0.1837
vt 0.4035 0.1902
vt 0.3970 0.1920
vt 0.4816 0.2053
vt 0.4724 0.2009
vt 0.4765 0.2003
vt 0.4800 0.1970
vt 0.4852 0.2007
vt 0.4353 0.2062
vt 0.4323 0.2077
vt 0.4322 0.2050
vt 0.4499 0.2051
vt 0.4428 0.2116
vt 0.4426 0.2057
vt 0.4355 0.2122
vt 0.4396 0.2000
vt 0.4430 0.1949
vt 0.4323 0.2005
vt 0.4894 0.1826
vt 0.4839 0.1856
vt 0.4825 0.1817
vt 0.4847 0.1751
vt 0.4800 0.1676
vt 0.4743 0.1709
vt 0.4749 0.1643
vt 0.4762 0.1597
vt 0.4847 0.1633
vt 0.4426 0.2291
vt 0.4391 0.2236
vt 0.4449 0.2228
vt 0.4183 0.2291
vt 0.4216 0.2232
vt 0.4270 0.2236
vt 0.4157 0.2135
vt 0.4072 0.2191
vt 0.4099 0.2111
vt 0.4142 0.2085
vt 0.4127 0.2035
vt 0.4078 0.2001
vt 0.4133 0.2004
vt 0.4172 0.2046
vt 0.4217 0.2058
vt 0.4255 0.2003
vt 0.4254 0.2048
vt 0.4294 0.2091
vt 0.4325 0.2136
vt 0.4271 0.2132
vt 0.4687 0.1872
vt 0.4735 0.1879
vt 0.4701 0.1912
vt 0.4659 0.1918
vt 0.4638 0.1878
vt 0.4629 0.1796
vt 0.4593 0.1778
vt 0.4626 0.1745
vt 0.4588 0.1885
vt 0.4572 0.1822
vt 0.4609 0.1840
vt 0.4660 0.1652
vt 0.4654 0.1718
vt 0.4460 0.1707
vt 0.4529 0.1928
vt 0.4125 0.1815
vt 0.4090 0.1905
vt 0.4286 0.1821
vt 0.4700 0.2060
vt 0.4486 0.2107
vt 0.4891 0.1894
vt 0.4778 0.1742
vt 0.4894 0.1708
vt 0.4305 0.2291
vt 0.4202 0.2154
vt 0.4170 0.2213
vt 0.4084 0.2061
vt 0.4187 0.2096
vt 0.4179 0.2016
vt 0.4225 0.2113
vt 0.4255 0.2075
vt 0.4722 0.1840
vt 0.4658 0.1834
vt 0.4686 0.1807
vt 0.4658 0.1769
vt 0.5737 0.2269
vt 0.5682 0.2244
vt 0.5749 0.2226
vt 0.5761 0.2184
vt 0.5782 0.2208
vt 0.5770 0.2251
vt 0.5774 0.2292
vt 0.5447 0.2300
vt 0.5432 0.2261
vt 0.5473 0.2280
vt 0.5496 0.2332
vt 0.5396 0.2329
vt 0.5492 0.2182
vt 0.5425 0.2137
vt 0.5512 0.2137
vt 0.5561 0.2188
vt 0.5495 0.2220
vt 0.5811 0.2316
vt 0.5807 0.2274
vt 0.5829 0.2280
vt 0.5833 0.2171
vt 0.5797 0.2177
vt 0.5807 0.2112
vt 0.5892 0.2169
vt 0.5840 0.2207
vt 0.5950 0.2168
vt 0.5950 0.2248
vt 0.5899 0.2206
vt 0.5314 0.2250
vt 0.5366 0.2236
vt 0.5381 0.2275
vt 0.5628 0.2345
vt 0.5627 0.2282
vt 0.5683 0.2307
vt 0.5759 0.2343
vt 0.5626 0.2218
vt 0.5704 0.2136
vt 0.5694 0.2201
vt 0.5454 0.2202
vt 0.5881 0.2323
vt 0.5796 0.2366
vt 0.5818 0.2201
vt 0.5631 0.2194
vt 0.5588 0.2280
vt 0.5565 0.2226
vt 0.5337 0.2171
vt 0.5329 0.2303
vt 0.5704 0.2381
vt 0.5740 0.1641
vt 0.5753 0.1567
vt 0.5807 0.1630
vt 0.5874 0.1620
vt 0.5885 0.1662
vt 0.5818 0.1673
vt 0.5791 0.1703
vt 0.5201 0.1896
vt 0.5186 0.1763
vt 0.5231 0.1838
vt 0.5285 0.1864
vt 0.5306 0.1929
vt 0.5977 0.1864
vt 0.5936 0.1784
vt 0.5987 0.1812
vt 0.5403 0.1393
vt 0.5525 0.1429
vt 0.5464 0.1451
vt 0.5427 0.1483
vt 0.5379 0.1493
vt 0.5868 0.1845
vt 0.5910 0.1814
vt 0.5562 0.1658
vt 0.5604 0.1562
vt 0.5622 0.1632
vt 0.5596 0.1695
vt 0.5559 0.1687
vt 0.5526 0.1691
vt 0.5519 0.1657
vt 0.5475 0.1655
vt 0.5482 0.1690
vt 0.5454 0.1672
vt 0.5507 0.1616
vt 0.5544 0.1584
vt 0.5463 0.1614
vt 0.5543 0.1812
vt 0.5586 0.1772
vt 0.5612 0.1838
vt 0.5477 0.1887
vt 0.5411 0.1962
vt 0.5390 0.1896
vt 0.5424 0.1872
vt 0.5516 0.1768
vt 0.5549 0.1763
vt 0.5397 0.1741
vt 0.5383 0.1786
vt 0.5329 0.1760
vt 0.5351 0.1689
vt 0.5261 0.1660
vt 0.5353 0.1641
vt 0.5393 0.1689
vt 0.5374 0.1715
vt 0.5434 0.1689
vt 0.5461 0.1707
vt 0.5435 0.1735
vt 0.5682 0.1863
vt 0.5655 0.1797
vt 0.5682 0.1735
vt 0.6032 0.1622
vt 0.6063 0.1680
vt 0.6015 0.1691
vt 0.5950 0.1639
vt 0.5923 0.1671
vt 0.5912 0.1630
vt 0.5998 0.1760
vt 0.5947 0.1732
vt 0.5974 0.1700
vt 0.5982 0.1595
vt 0.6005 0.1558
vt 0.5820 0.1557
vt 0.5903 0.1594
vt 0.5749 0.1734
vt 0.6035 0.1801
vt 0.5288 0.1512
vt 0.5766 0.1494
vt 0.5872 0.1494
vt 0.5849 0.1531
vt 0.5490 0.1797
vt 0.5307 0.1734
vt 0.5416 0.1761
vt 0.5394 0.1641
vt 0.5443 0.1631
vt 0.5415 0.1715
vt 0.6085 0.1623
vt 0.5991 0.1630
vt 0.5941 0.1603
vt 0.4270 0.7821
vt 0.4247 0.8005
vt 0.4220 0.8002
vt 0.4236 0.7817
vt 0.4132 0.7814
vt 0.4139 0.8002
vt 0.4111 0.8003
vt 0.4098 0.7814
vt 0.4201 0.7815
vt 0.4193 0.8002
vt 0.4166 0.8002
vt 0.4167 0.7814
vt 0.4064 0.7818
vt 0.4084 0.8004
vt 0.4057 0.8006
vt 0.4029 0.7822
vt 0.4185 0.8250
vt 0.4177 0.8498
vt 0.4161 0.8499
vt 0.4164 0.8250
vt 0.4228 0.8252
vt 0.4209 0.8499
vt 0.4193 0.8498
vt 0.4207 0.8250
vt 0.4141 0.8251
vt 0.4144 0.8500
vt 0.4128 0.8500
vt 0.4119 0.8252
vt 0.4205 0.8577
vt 0.4220 0.8577
vt 0.4215 0.8655
vt 0.4201 0.8655
vt 0.4148 0.8579
vt 0.4165 0.8578
vt 0.4170 0.8657
vt 0.4153 0.8658
vt 0.4178 0.8577
vt 0.4190 0.8576
vt 0.4188 0.8654
vt 0.4179 0.8656
vt 0.4114 0.8579
vt 0.4132 0.8579
vt 0.4135 0.8659
vt 0.4117 0.8659
vt 0.4391 0.7694
vt 0.4405 0.7701
vt 0.4403 0.7747
vt 0.4392 0.7748
vt 0.4451 0.7697
vt 0.4464 0.7706
vt 0.4446 0.7758
vt 0.4435 0.7755
vt 0.4182 0.8658
vt 0.4362 0.7693
vt 0.4377 0.7687
vt 0.4381 0.7749
vt 0.4370 0.7751
vt 0.4430 0.7842
vt 0.4441 0.7844
vt 0.4437 0.7931
vt 0.4426 0.7929
vt 0.4408 0.7839
vt 0.4419 0.7839
vt 0.4414 0.7927
vt 0.4403 0.7928
vt 0.4365 0.7838
vt 0.4374 0.7839
vt 0.4368 0.7928
vt 0.4360 0.7926
vt 0.4386 0.7838
vt 0.4398 0.7838
vt 0.4392 0.7929
vt 0.4380 0.7929
vt 0.4194 0.8659
vt 0.4194 0.8659
vt 0.4195 0.8660
vt 0.4195 0.8660
vt 0.4421 0.7695
vt 0.4437 0.7689
vt 0.4425 0.7752
vt 0.4414 0.7750
vt 0.4185 0.8659
vt 0.4195 0.8658
vt 0.4194 0.8658
vt 0.4194 0.8659
vt 0.4194 0.8659
vt 0.4195 0.8660
vt 0.4195 0.8660
vt 0.4191 0.8659
vt 0.4192 0.8662
vt 0.4194 0.8659
vt 0.4194 0.8659
vt 0.4554 0.7760
vt 0.4574 0.7763
vt 0.4568 0.7883
vt 0.4552 0.7882
vt 0.4195 0.8660
vt 0.4195 0.8660
vt 0.4195 0.8659
vt 0.4195 0.8659
vt 0.4195 0.8660
vt 0.4195 0.8660
vt 0.4195 0.8660
vt 0.4195 0.8660
vt 0.4195 0.8660
vt 0.4195 0.8660
vt 0.4195 0.8660
vt 0.4195 0.8660
vt 0.4195 0.8660
vt 0.4367 0.8084
vt 0.4377 0.8085
vt 0.4362 0.8241
vt 0.4355 0.8239
vt 0.4412 0.7939
vt 0.4385 0.8090
vt 0.4393 0.8096
vt 0.4376 0.8242
vt 0.4369 0.8241
vt 0.4352 0.7924
vt 0.4349 0.8080
vt 0.4632 0.7790
vt 0.4641 0.7788
vt 0.4626 0.7908
vt 0.4403 0.8091
vt 0.4414 0.8086
vt 0.4391 0.8240
vt 0.4383 0.8241
vt 0.4648 0.7707
vt 0.4660 0.7706
vt 0.4650 0.7787
vt 0.4626 0.7707
vt 0.4636 0.7709
vt 0.4624 0.7788
vt 0.4669 0.7708
vt 0.4678 0.7710
vt 0.4666 0.7789
vt 0.4658 0.7788
vt 0.4616 0.7785
vt 0.4618 0.7905
vt 0.4635 0.7907
vt 0.4347 0.8236
vt 0.4341 0.8408
vt 0.4355 0.8411
vt 0.4348 0.8411
vt 0.4190 0.8664
vt 0.4189 0.8659
vt 0.4202 0.8659
vt 0.4190 0.8661
vt 0.4187 0.8661
vt 0.4194 0.8658
vt 0.4194 0.8658
vt 0.4590 0.7757
vt 0.4606 0.7752
vt 0.4596 0.7879
vt 0.4582 0.7881
vt 0.4515 0.7755
vt 0.4534 0.7758
vt 0.4536 0.7881
vt 0.4521 0.7880
vt 0.4549 0.8024
vt 0.4546 0.8167
vt 0.4536 0.8165
vt 0.4536 0.8023
vt 0.4574 0.8025
vt 0.4566 0.8169
vt 0.4557 0.8168
vt 0.4563 0.8025
vt 0.4731 0.7721
vt 0.4740 0.7720
vt 0.4718 0.7865
vt 0.4195 0.8660
vt 0.4195 0.8660
vt 0.4195 0.8660
vt 0.4195 0.8660
vt 0.4744 0.7674
vt 0.4755 0.7671
vt 0.4749 0.7718
vt 0.4724 0.7674
vt 0.4733 0.7678
vt 0.4725 0.7719
vt 0.4707 0.7671
vt 0.4715 0.7672
vt 0.4718 0.7717
vt 0.4711 0.7717
vt 0.4711 0.7862
vt 0.4705 0.7716
vt 0.4705 0.7862
vt 0.4098 0.8252
vt 0.4112 0.8500
vt 0.4095 0.8499
vt 0.4076 0.8253
vt 0.4524 0.8023
vt 0.4527 0.8167
vt 0.4518 0.8168
vt 0.4513 0.8023
vt 0.4507 0.7878
vt 0.4705 0.8008
vt 0.4699 0.7671
vt 0.4692 0.7625
vt 0.4703 0.7625
vt 0.4713 0.7626
vt 0.4724 0.7630
vt 0.4734 0.7634
vt 0.4748 0.7630
vt 0.4762 0.7625
vt 0.4195 0.8660
vt 0.4195 0.8660
vt 0.4727 0.7863
vt 0.4586 0.8024
vt 0.4575 0.8169
vt 0.4495 0.7752
vt 0.4483 0.7625
vt 0.4508 0.7630
vt 0.4533 0.7635
vt 0.4580 0.7642
vt 0.4597 0.7634
vt 0.4615 0.7625
vt 0.4185 0.8663
vt 0.4180 0.8663
vt 0.4334 0.8580
vt 0.4363 0.8410
vt 0.4643 0.7908
vt 0.4620 0.8026
vt 0.4669 0.7625
vt 0.4680 0.7628
vt 0.4691 0.7631
vt 0.4616 0.7705
vt 0.4616 0.7625
vt 0.4629 0.7626
vt 0.4641 0.7627
vt 0.4655 0.7626
vt 0.4410 0.7950
vt 0.4424 0.7940
vt 0.4358 0.8082
vt 0.4401 0.7940
vt 0.4195 0.8660
vt 0.4557 0.7638
vt 0.4191 0.8656
vt 0.4194 0.8659
vt 0.4175 0.8660
vt 0.4408 0.7655
vt 0.4429 0.7641
vt 0.4450 0.7626
vt 0.4194 0.8659
vt 0.4356 0.7838
vt 0.4359 0.7752
vt 0.4347 0.7698
vt 0.4334 0.7644
vt 0.4353 0.7635
vt 0.4372 0.7625
vt 0.4466 0.7639
vt 0.4483 0.7653
vt 0.4390 0.7640
vt 0.4097 0.8579
vt 0.4099 0.8659
vt 0.4226 0.8500
vt 0.4273 0.8008
vt 0.4250 0.8254
vt 0.4043 0.7631
vt 0.4002 0.7637
vt 0.4085 0.7625
vt 0.4209 0.7628
vt 0.4168 0.7625
vt 0.4251 0.7632
vt 0.4126 0.7625
vt 0.4293 0.7636
vt 0.4334 0.7640
vt 0.4304 0.7824
vt 0.5932 0.1568
vt 0.6116 0.1681
vt 0.6094 0.1737
vt 0.6138 0.1625
vt 0.6058 0.1559
vt 0.5978 0.1494
vt 0.5436 0.1781
vt 0.5403 0.1583
vt 0.5451 0.1573
vt 0.5355 0.1593
vt 0.5217 0.1705
vt 0.5172 0.1630
vt 0.5262 0.1779
vt 0.5403 0.1806
vt 0.5369 0.1831
vt 0.5462 0.1753
vt 0.5489 0.1725
vt 0.5955 0.1531
vt 0.5592 0.1723
vt 0.5629 0.1732
vt 0.5555 0.1715
vt 0.5522 0.1720
vt 0.5655 0.1669
vt 0.5682 0.1607
vt 0.5586 0.1488
vt 0.5646 0.1466
vt 0.5525 0.1509
vt 0.5264 0.1612
vt 0.5488 0.1541
vt 0.6046 0.1749
vt 0.5870 0.1734
vt 0.5896 0.1704
vt 0.5843 0.1765
vt 0.5315 0.1805
vt 0.5800 0.1796
vt 0.5758 0.1827
vt 0.5547 0.1912
vt 0.5664 0.1536
vt 0.5780 0.2417
vt 0.5344 0.2357
vt 0.5388 0.2157
vt 0.5417 0.2222
vt 0.5359 0.2092
vt 0.5522 0.2312
vt 0.5498 0.2259
vt 0.5545 0.2365
vt 0.5804 0.2232
vt 0.5826 0.2237
vt 0.5848 0.2243
vt 0.5899 0.2286
vt 0.5950 0.2329
vt 0.5865 0.2373
vt 0.5458 0.2241
vt 0.5771 0.2119
vt 0.5781 0.2053
vt 0.5865 0.2111
vt 0.5581 0.2143
vt 0.5532 0.2092
vt 0.5446 0.2092
vt 0.5444 0.2361
vt 0.4686 0.1742
vt 0.4721 0.1775
vt 0.4757 0.1808
vt 0.4673 0.1958
vt 0.4631 0.1964
vt 0.4715 0.1953
vt 0.4770 0.1847
vt 0.4783 0.1886
vt 0.4293 0.2064
vt 0.4292 0.2038
vt 0.4248 0.2173
vt 0.4217 0.1961
vt 0.4294 0.1948
vt 0.4140 0.1973
vt 0.4035 0.2027
vt 0.4030 0.1967
vt 0.4041 0.2088
vt 0.4085 0.2269
vt 0.3987 0.2247
vt 0.4356 0.2181
vt 0.4711 0.1564
vt 0.4725 0.1518
vt 0.4698 0.1610
vt 0.4894 0.1590
vt 0.4836 0.1924
vt 0.4888 0.1962
vt 0.4414 0.2172
vt 0.4473 0.2164
vt 0.4749 0.1919
vt 0.4608 0.2016
vt 0.4585 0.2067
vt 0.4085 0.1970
vt 0.4328 0.1898
vt 0.4362 0.1848
vt 0.4609 0.1925
vt 0.4532 0.1682
vt 0.4557 0.1760
vt 0.4692 0.1676
vt 0.4302 0.2177
vt 0.4293 0.1993
vt 0.4014 0.2167
vt 0.4809 0.1554
vn -0.1217 -0.9250 -0.3599
vn -0.2748 -0.9613 0.0191
vn -0.4031 -0.8730 -0.2745
vn -0.7120 -0.6836 -0.1604
vn -0.6062 -0.6301 -0.4853
vn 0.1374 -0.8135 -0.5650
vn 0.1547 -0.9763 -0.1512
vn -0.0328 -0.9934 0.1098
vn 0.0956 -0.3154 -0.9441
vn -0.1863 -0.4007 -0.8971
vn -0.1621 -0.1158 -0.9800
vn 0.2125 -0.0767 -0.9741
vn 0.2618 0.1481 -0.9537
vn -0.1254 0.4240 -0.8970
vn 0.2463 0.4221 -0.8725
vn 0.6280 0.2813 -0.7256
vn 0.5954 0.0395 -0.8025
vn 0.2712 -0.4828 -0.8327
vn -0.0475 -0.6405 -0.7665
vn 0.0067 0.9992 -0.0388
vn -0.1115 0.8814 -0.4590
vn -0.2496 0.9421 -0.2240
vn -0.4261 0.8924 0.1482
vn -0.1359 0.9177 0.3732
vn 0.3856 0.9200 0.0696
vn 0.6011 0.6876 0.4074
vn 0.7048 0.6818 -0.1958
vn 0.0859 0.8501 0.5196
vn 0.1841 0.9819 0.0447
vn 0.2100 0.7763 0.5944
vn 0.3389 0.8710 -0.3557
vn 0.1333 0.9097 -0.3933
vn 0.4557 0.7799 -0.4291
vn -0.4806 0.1574 0.8627
vn -0.6313 0.3338 0.7000
vn -0.6697 0.0789 0.7384
vn -0.5309 -0.0240 0.8471
vn -0.5909 -0.1577 0.7912
vn -0.7943 -0.2122 0.5693
vn -0.6030 -0.3156 0.7326
vn -0.3337 -0.3725 0.8659
vn -0.3671 -0.1594 0.9164
vn -0.2602 0.2475 0.9333
vn -0.4207 0.4043 0.8121
vn -0.0177 -0.1693 0.9854
vn 0.2878 -0.0842 0.9540
vn -0.0443 0.0838 0.9955
vn 0.7705 -0.3234 0.5493
vn 0.4531 -0.5584 0.6949
vn 0.7275 -0.5668 0.3866
vn 0.9374 -0.3027 0.1723
vn 0.9398 -0.3266 -0.1005
vn 0.7723 -0.5217 -0.3626
vn 0.9274 -0.2325 -0.2930
vn 0.9968 -0.0786 -0.0162
vn 0.9950 -0.0098 -0.0991
vn 0.9317 0.1272 -0.3403
vn 0.9729 0.0026 -0.2313
vn 0.8108 0.2672 0.5209
vn 0.3833 0.4482 0.8076
vn 0.5734 0.0960 0.8136
vn -0.8969 0.2936 -0.3307
vn -0.9030 0.4125 -0.1200
vn -0.7462 0.5208 -0.4146
vn -0.6347 0.5025 -0.5871
vn -0.7441 0.3299 -0.5809
vn -0.9103 -0.0998 -0.4018
vn -0.7185 -0.2892 -0.6326
vn -0.8708 -0.3982 -0.2884
vn -0.4659 0.1605 -0.8702
vn -0.4540 -0.1586 -0.8768
vn -0.7473 0.0494 -0.6627
vn -0.6467 -0.7568 0.0949
vn -0.8979 -0.4322 0.0835
vn -0.1226 0.1618 -0.9792
vn 0.4882 -0.1999 -0.8495
vn -0.7274 -0.1275 0.6742
vn -0.3425 0.0221 0.9393
vn 0.5980 -0.1523 0.7869
vn 0.4154 -0.3187 0.8520
vn 0.8440 -0.5316 -0.0708
vn 0.9753 -0.1402 0.1708
vn 0.9732 0.0690 -0.2195
vn 0.8657 -0.0862 0.4932
vn 0.9965 -0.0292 0.0789
vn -0.9913 0.1235 -0.0457
vn -0.9393 0.1393 -0.3136
vn -0.9975 0.0262 -0.0661
vn -0.9876 -0.1376 -0.0758
vn 0.5955 -0.7425 0.3066
vn 0.5713 -0.8047 -0.1612
vn 0.8739 -0.4768 -0.0949
vn 0.8930 -0.0852 -0.4419
vn 0.9996 -0.0293 -0.0031
vn 0.8241 -0.4145 0.3860
vn 0.4361 -0.5821 0.6862
vn -0.2684 -0.2860 -0.9199
vn -0.6861 -0.3966 -0.6099
vn -0.5199 0.1406 -0.8426
vn 0.1048 0.0930 -0.9901
vn 0.0886 -0.5008 -0.8610
vn -0.9200 0.3376 0.1992
vn -0.8863 -0.0588 0.4593
vn -0.7751 0.4053 0.4848
vn -0.6340 0.7614 0.1351
vn -0.8619 0.4905 -0.1289
vn 0.2033 -0.2617 0.9435
vn 0.6001 -0.2305 0.7660
vn 0.2772 0.0977 0.9558
vn 0.6662 0.7363 -0.1185
vn 0.8536 0.3970 -0.3374
vn 0.5053 0.7122 -0.4873
vn 0.3238 0.9457 -0.0277
vn 0.6074 0.7324 0.3079
vn -0.1391 0.9859 0.0932
vn -0.3428 0.7779 0.5266
vn 0.1698 0.8515 0.4960
vn -0.2829 -0.9524 -0.1133
vn -0.6416 -0.7441 -0.1861
vn -0.3681 -0.7028 -0.6087
vn 0.0302 -0.9215 -0.3873
vn 0.1710 -0.9683 0.1822
vn 0.1057 -0.8184 0.5648
vn 0.3835 -0.6633 -0.6426
vn 0.4559 -0.1727 -0.8731
vn 0.7030 -0.3864 -0.5970
vn -0.9971 -0.0007 0.0758
vn -0.1562 0.0867 0.9839
vn -0.1028 -0.4334 0.8953
vn 0.8900 0.4401 0.1190
vn 0.0508 0.9137 -0.4033
vn -0.4226 0.8680 -0.2607
vn -0.3535 -0.8802 0.3166
vn -0.9101 -0.3956 0.1235
vn -0.8680 -0.2039 0.4527
vn -0.9775 -0.1910 0.0891
vn -0.9987 0.0273 0.0432
vn -0.9518 -0.0821 -0.2955
vn -0.9436 -0.2554 -0.2107
vn -0.8781 -0.4292 -0.2114
vn -0.7520 -0.6506 -0.1057
vn -0.7407 -0.6375 0.2121
vn -0.7369 -0.4846 0.4713
vn -0.0628 -0.3050 -0.9503
vn -0.5224 -0.1194 -0.8443
vn -0.2435 0.0462 -0.9688
vn 0.0663 0.2470 -0.9667
vn 0.3189 -0.0483 -0.9466
vn 0.4833 -0.3954 -0.7811
vn 0.1680 -0.6207 -0.7659
vn -0.2293 -0.6488 -0.7256
vn -0.4411 -0.3872 -0.8096
vn 0.8812 0.4547 -0.1292
vn 0.6565 0.5537 -0.5123
vn 0.6331 0.7262 -0.2681
vn 0.5599 0.8238 0.0887
vn 0.7734 0.5698 0.2777
vn 0.9046 0.2792 0.3221
vn 0.9804 0.1852 -0.0676
vn 0.9980 0.0014 -0.0634
vn 0.9458 0.0955 0.3104
vn 0.9719 -0.2269 0.0624
vn 0.9273 0.1079 -0.3585
vn 0.8141 0.3503 -0.4632
vn 0.9378 -0.1155 -0.3275
vn 0.0013 0.4908 0.8713
vn 0.0352 0.7281 0.6846
vn -0.2447 0.6319 0.7354
vn -0.2903 0.3644 0.8848
vn -0.6448 0.1339 0.7525
vn -0.5975 -0.2054 0.7751
vn -0.2817 0.0942 0.9549
vn 0.3196 0.3557 0.8783
vn 0.2702 0.5591 0.7839
vn 0.1052 -0.8001 0.5906
vn -0.2413 -0.6900 0.6824
vn -0.2524 -0.8862 0.3884
vn 0.1022 -0.9915 0.0804
vn -0.1274 -0.9879 -0.0884
vn 0.2541 -0.9547 -0.1546
vn 0.4797 -0.8735 0.0833
vn 0.1171 -0.9574 0.2641
vn 0.8158 -0.5255 0.2415
vn 0.8062 -0.1046 0.5823
vn 0.5796 -0.2504 0.7755
vn -0.2834 0.8253 0.4884
vn -0.1925 0.9289 0.3164
vn -0.0390 0.9963 0.0763
vn -0.1880 0.9191 -0.3462
vn 0.0218 0.7193 -0.6944
vn -0.2898 0.5762 -0.7643
vn -0.7194 0.4872 -0.4952
vn -0.7828 0.1662 -0.5997
vn -0.9406 0.2568 -0.2221
vn -0.3401 0.3022 -0.8905
vn -0.5867 0.0990 -0.8037
vn -0.5256 0.3941 -0.7540
vn -0.4358 0.8994 0.0335
vn -0.1199 0.9732 0.1961
vn -0.9123 0.0460 0.4068
vn -0.9264 0.3027 0.2241
vn -0.4571 0.4879 0.7436
vn -0.7253 0.3559 0.5893
vn 0.0435 0.2789 0.9593
vn -0.2061 -0.9610 0.1841
vn 0.2096 -0.4300 0.8782
vn 0.6366 -0.7446 -0.2005
vn 0.8400 -0.4665 -0.2771
vn 0.5372 -0.6665 0.5170
vn 0.1069 0.9646 -0.2409
vn -0.4948 0.7126 -0.4974
vn -0.7680 0.6315 -0.1066
vn 0.7077 0.0005 -0.7065
vn 0.7069 0.0579 -0.7049
vn 0.9989 0.0470 -0.0081
vn 1.0000 -0.0093 -0.0016
vn -0.7050 0.0615 0.7065
vn -0.7051 -0.0004 0.7091
vn -0.9997 0.0234 -0.0074
vn -0.9966 0.0827 -0.0014
vn 0.7083 -0.0035 0.7059
vn 0.7114 0.0176 0.7025
vn 0.0188 0.0064 0.9998
vn 0.0033 0.0337 0.9994
vn -0.7045 0.0653 -0.7067
vn -0.7032 0.0412 -0.7098
vn 0.0168 0.0639 -0.9978
vn 0.0033 0.0389 -0.9992
vn 0.7092 0.0280 0.7045
vn 0.7081 -0.0092 0.7060
vn -0.0073 -0.0516 0.9986
vn 0.0052 -0.0312 0.9995
vn 0.7017 0.1045 -0.7047
vn 0.7013 0.0609 -0.7103
vn 0.9993 0.0374 -0.0009
vn 0.9960 0.0897 -0.0023
vn -0.7038 -0.0665 0.7073
vn -0.7040 -0.0625 0.7075
vn -0.9992 -0.0381 0.0085
vn -0.9991 -0.0435 0.0005
vn 0.6876 -0.0153 -0.7259
vn -0.0255 0.0021 -0.9997
vn -0.3303 -0.1518 -0.9316
vn 0.6166 -0.2131 -0.7579
vn -0.6736 -0.0605 0.7366
vn 0.0029 -0.0797 0.9968
vn 0.0722 -0.1335 0.9884
vn -0.5944 -0.2408 0.7672
vn 0.7111 -0.0917 0.6971
vn 0.9936 -0.0740 -0.0853
vn 0.8485 -0.4908 -0.1981
vn 0.5842 -0.4265 0.6904
vn -0.7265 0.0068 -0.6872
vn -0.9994 -0.0357 0.0005
vn -0.9880 -0.1509 -0.0334
vn -0.7470 0.0094 -0.6647
vn 0.7672 0.2625 0.5852
vn 0.7403 0.6680 -0.0750
vn 0.6965 0.7080 -0.1168
vn 0.7645 0.3478 0.5428
vn -0.7836 -0.0364 -0.6201
vn -0.9269 -0.3745 0.0232
vn -0.7490 -0.6546 0.1030
vn -0.7848 -0.2752 -0.5553
vn 0.2638 -0.2508 0.9314
vn -0.4899 -0.4944 0.7180
vn 0.2313 -0.1986 0.9524
vn 0.3760 -0.1828 0.9084
vn -0.3092 -0.6473 0.6967
vn -0.7296 -0.6133 -0.3026
vn -0.5087 -0.8108 0.2894
vn -0.4810 -0.7381 0.4731
vn -0.7206 -0.6933 -0.0003
vn 0.0944 0.6435 -0.7596
vn -0.5186 -0.0086 -0.8550
vn -0.6266 -0.5160 -0.5841
vn 0.2832 0.2937 -0.9130
vn -0.0398 -0.6770 0.7349
vn 0.5481 -0.1145 0.8286
vn 0.7270 -0.1399 0.6723
vn 0.0863 -0.7102 0.6987
vn 0.7564 0.4901 0.4332
vn 0.5763 0.7917 -0.2028
vn 0.7441 0.6134 -0.2648
vn 0.9035 0.3953 0.1659
vn 0.6077 -0.7678 -0.2027
vn 0.1767 -0.2545 -0.9508
vn 0.3005 -0.4855 -0.8210
vn 0.5920 -0.7713 -0.2339
vn 0.1003 0.6796 -0.7267
vn -0.5286 0.2529 -0.8103
vn -0.3497 0.3093 -0.8843
vn 0.2176 0.6645 -0.7149
vn -0.1359 0.4549 0.8801
vn 0.4012 -0.5472 0.7346
vn -0.1720 0.3234 0.9305
vn -0.4545 0.5290 -0.7166
vn -0.6036 0.7626 0.2325
vn -0.7504 0.4460 0.4879
vn -0.6091 0.2151 -0.7634
vn 0.5032 -0.7776 -0.3770
vn 0.2903 -0.1379 -0.9469
vn 0.2085 -0.2254 -0.9517
vn 0.5697 -0.7962 -0.2040
vn 0.6812 0.3527 0.6415
vn 0.9754 -0.2078 -0.0742
vn 0.9908 -0.1267 -0.0471
vn 0.5868 0.3485 0.7309
vn -0.2313 0.2931 0.9277
vn -0.3430 0.4018 0.8490
vn -0.1989 0.2918 0.9356
vn 0.4099 -0.4900 0.7693
vn 0.3438 -0.4797 0.8073
vn -0.2209 0.5565 -0.8009
vn -0.5024 0.8473 0.1723
vn -0.5219 0.8150 0.2517
vn -0.2850 0.5784 -0.7643
vn 0.5694 -0.8042 -0.1704
vn 0.3116 -0.2811 -0.9077
vn 0.3390 -0.3438 -0.8757
vn 0.5713 -0.8141 -0.1042
vn 0.9933 0.0960 0.0637
vn 0.6866 0.5906 -0.4239
vn 0.7660 0.4672 -0.4415
vn 0.7609 -0.2793 0.5857
vn -0.8783 -0.4641 0.1146
vn -0.1410 0.7392 -0.6586
vn -0.9899 0.0880 -0.1109
vn -0.9989 0.0010 -0.0472
vn -0.2355 0.4558 -0.8584
vn -0.2853 -0.7040 0.6504
vn -0.5304 0.2549 0.8085
vn 0.5854 0.4669 0.6628
vn -0.3941 0.1341 0.9092
vn -0.8460 -0.4053 0.3463
vn 0.1222 -0.6256 0.7705
vn -0.4611 -0.3599 0.8111
vn 0.4803 0.7522 0.4512
vn 0.8674 0.3727 -0.3297
vn 0.8708 0.1688 -0.4617
vn -0.9209 -0.3548 0.1617
vn -0.6160 0.3458 0.7077
vn -0.9496 -0.2774 0.1457
vn 0.4381 -0.2780 -0.8548
vn -0.4755 -0.6306 -0.6134
vn -0.4613 -0.5720 -0.6782
vn 0.3019 -0.1527 -0.9410
vn -0.6021 -0.3264 -0.7286
vn 0.9032 0.3202 -0.2858
vn 0.2013 -0.3323 0.9214
vn -0.9505 0.2077 -0.2310
vn 0.7593 0.2303 -0.6086
vn 0.6576 -0.2947 -0.6933
vn 0.5543 -0.5940 -0.5830
vn 0.3795 -0.5602 -0.7363
vn -0.1172 0.7349 -0.6679
vn -0.2480 0.9473 0.2030
vn -0.4895 0.8518 0.1865
vn -0.3535 0.6101 -0.7090
vn 0.3849 -0.5657 -0.7292
vn -0.5445 -0.3649 -0.7552
vn -0.5067 -0.3566 -0.7849
vn 0.4263 -0.4734 -0.7708
vn -0.9754 0.2114 -0.0629
vn -0.3336 0.6454 0.6872
vn -0.4413 0.4985 0.7462
vn -0.9921 0.0989 -0.0771
vn 0.4852 0.3599 0.7969
vn 0.4367 0.3668 0.8215
vn -0.6297 0.3496 0.6937
vn -0.5297 0.3916 0.7524
vn 0.4789 -0.3724 -0.7949
vn 0.5016 -0.3519 -0.7903
vn 0.9999 -0.0115 -0.0091
vn 0.9998 -0.0152 0.0150
vn 0.7894 0.3885 0.4753
vn 0.9129 -0.0393 -0.4062
vn 0.7592 0.1850 0.6240
vn -0.2499 0.2757 0.9282
vn 0.3069 -0.5193 0.7976
vn 0.3267 -0.5543 0.7655
vn -0.2345 0.2518 0.9389
vn 0.8598 0.0760 -0.5049
vn 0.1066 -0.3709 -0.9225
vn -0.0829 -0.3688 -0.9258
vn -0.3530 0.3979 0.8468
vn 0.6751 0.5624 0.4775
vn -0.2783 0.2478 0.9280
vn -0.8098 -0.3255 -0.4881
vn -0.9410 0.0912 0.3258
vn -0.9759 -0.0651 0.2084
vn -0.8741 -0.1335 -0.4670
vn -0.9182 0.1098 0.3805
vn 0.0103 -0.1637 -0.9865
vn -0.7085 0.0107 -0.7056
vn -0.7136 0.0054 -0.7005
vn -0.0178 0.0472 -0.9987
vn -0.0020 0.0778 -0.9970
vn -0.9951 0.0116 -0.0978
vn -0.9883 -0.0234 -0.1508
vn -0.4230 -0.3408 -0.8396
vn -0.4680 -0.3358 -0.8174
vn -0.0029 0.9797 -0.2003
vn -0.1190 0.8712 0.4762
vn 0.3538 0.3266 -0.8765
vn -0.2450 0.2881 0.9257
vn -0.7682 0.4461 -0.4592
vn 0.0799 0.9691 0.2333
vn 0.5582 0.8266 0.0717
vn 0.0705 0.9455 0.3178
vn -0.3138 0.9299 -0.1917
vn -0.9704 0.1621 0.1789
vn 0.1616 0.9717 -0.1723
vn -0.8108 -0.4894 0.3211
vn 0.7001 -0.4203 0.5772
vn 0.5605 -0.8210 0.1086
vn 0.3746 0.3901 0.8411
vn -0.7094 0.0661 -0.7017
vn -0.0191 0.0318 -0.9993
vn -0.9962 0.0875 0.0005
vn 0.7032 -0.0100 0.7109
vn -0.0190 0.0349 0.9992
vn 0.9997 -0.0231 0.0005
vn -0.7090 0.0683 0.7018
vn 0.7034 -0.0122 -0.7107
vn -0.7076 0.6295 0.3208
vn 0.4024 0.7055 -0.5834
vn 0.2711 0.5667 -0.7780
vn 0.3093 0.9122 -0.2689
vn 0.1471 -0.0495 0.9879
vn 0.6333 -0.5544 -0.5400
vn 0.8158 -0.2703 -0.5112
vn 0.3479 -0.8106 -0.4711
vn -0.4846 -0.8747 0.0058
vn -0.4024 -0.8483 -0.3442
vn -0.4727 -0.8415 0.2617
vn -0.2239 -0.3044 0.9259
vn -0.4806 -0.5356 0.6944
vn 0.4431 0.0860 0.8923
vn 0.6914 0.1862 0.6980
vn -0.4311 0.7429 0.5122
vn 0.3804 0.7730 0.5077
vn 0.0984 0.9607 0.2596
vn 0.5381 0.5962 0.5958
vn 0.6197 0.3884 0.6820
vn 0.1588 0.9855 -0.0592
vn 0.3940 0.5074 -0.7664
vn 0.6084 0.2172 -0.7633
vn -0.0614 -0.8783 -0.4741
vn 0.8013 -0.1104 -0.5879
vn -0.0462 0.4497 -0.8920
vn -0.8032 -0.1870 -0.5656
vn -0.8069 -0.0765 -0.5858
vn -0.7158 -0.4290 -0.5510
vn -0.5036 -0.7260 0.4683
vn -0.5645 -0.6749 -0.4752
vn -0.5118 -0.5383 0.6696
vn -0.8313 -0.4850 0.2717
vn -0.9029 -0.3870 -0.1871
vn -0.1711 0.6574 -0.7339
vn -0.6615 0.5295 -0.5310
vn 0.3192 0.4718 -0.8219
vn 0.9101 -0.0072 0.4143
vn 0.7209 0.2583 0.6431
vn 0.4017 0.5088 0.7614
vn -0.0271 0.4954 0.8682
vn -0.4594 0.4122 0.7868
vn -0.6011 -0.0166 0.7990
vn -0.9130 0.0345 -0.4065
vn 0.6533 0.1498 -0.7422
vn -0.9492 -0.2174 0.2275
vn -0.9512 -0.1326 0.2786
vn -0.9119 0.0019 0.4103
vn -0.3472 0.7235 -0.5967
vn -0.3175 0.6436 -0.6964
vn -0.4638 0.7900 -0.4010
vn -0.8998 0.2541 0.3546
vn -0.7629 0.5824 0.2807
vn 0.9459 0.3201 0.0532
vn 0.9131 0.2818 -0.2947
vn 0.4427 0.0020 0.8967
vn 0.8408 0.1842 -0.5091
vn 0.7127 0.4710 -0.5198
vn 0.8221 -0.0737 -0.5646
vn 0.5369 -0.7689 -0.3472
vn 0.4693 -0.6299 -0.6189
vn 0.5579 -0.8277 0.0606
vn 0.0420 -0.4078 0.9121
vn 0.0621 -0.7589 0.6483
vn 0.0701 0.4425 0.8940
vn -0.2452 -0.7921 0.5590
vn -0.5371 -0.7079 0.4586
vn -0.5129 0.6764 0.5287
vn -0.2780 0.7103 0.6467
vn -0.0946 0.6085 0.7879
vn -0.6720 0.7343 -0.0956
vn -0.1700 0.7063 -0.6872
vn 0.1949 0.7231 -0.6627
vn 0.6689 -0.3854 -0.6356
vn 0.5517 0.6491 -0.5238
vn -0.4101 0.4449 -0.7962
vn -0.2697 -0.7229 -0.6361
vn -0.4546 -0.4608 -0.7622
vn -0.8225 -0.3916 0.4125
vn 0.2656 0.1684 0.9493
vn 0.8073 0.3528 -0.4731
vn 0.3049 -0.8806 0.3626
usemtl None
s 1
f 1/1/1 176/2/2 224/3/3
f 3/4/4 425/5/5 224/3/3
f 1/6/1 300/7/6 336/8/7
f 1/1/1 375/9/8 176/2/2
f 1/6/1 336/8/7 375/10/8
f 8/11/9 170/12/10 223/13/11
f 8/11/9 223/13/11 407/14/12
f 10/15/13 299/16/14 168/17/15
f 10/18/13 214/19/16 414/20/17
f 8/21/9 422/22/18 417/23/19
f 15/24/20 206/25/21 261/26/22
f 15/24/20 298/27/23 302/28/24
f 19/29/25 416/30/26 454/31/27
f 15/32/20 138/33/28 341/34/29
f 19/29/25 162/35/30 416/30/26
f 15/32/20 378/36/31 291/37/32
f 19/29/25 454/31/27 179/38/33
f 23/39/34 367/40/35 258/41/36
f 23/39/34 258/41/36 292/42/37
f 25/43/38 169/44/39 349/45/40
f 25/43/38 278/46/41 212/47/42
f 23/48/34 453/49/43 450/50/44
f 27/51/45 418/52/46 281/53/47
f 29/54/48 429/55/49 175/56/50
f 29/54/48 175/56/50 335/57/51
f 30/58/52 308/59/53 404/60/54
f 30/58/52 404/60/54 459/61/55
f 31/62/56 357/63/57 362/64/58
f 20/65/59 253/66/60 320/67/61
f 32/68/62 398/69/63 154/70/64
f 32/68/62 241/71/65 391/72/66
f 33/73/67 178/74/68 265/75/69
f 9/76/70 219/77/71 435/78/72
f 3/4/4 301/79/73 304/80/74
f 8/11/9 417/81/19 170/12/10
f 10/15/13 173/82/75 299/16/14
f 8/21/9 407/83/12 256/84/76
f 10/18/13 168/85/15 214/19/16
f 8/21/9 256/84/76 422/22/18
f 15/24/20 291/86/32 206/25/21
f 15/24/20 261/26/22 298/27/23
f 15/32/20 302/87/24 138/33/28
f 15/32/20 341/34/29 378/36/31
f 23/39/34 450/88/44 367/40/35
f 25/43/38 209/89/77 169/44/39
f 23/39/34 292/42/37 353/90/78
f 25/43/38 349/45/40 278/46/41
f 23/48/34 353/91/78 453/49/43
f 29/54/48 374/92/79 456/93/80
f 29/54/48 456/93/80 429/55/49
f 30/58/52 386/94/81 308/59/53
f 29/54/48 335/57/51 373/95/82
f 31/62/56 444/96/83 357/63/57
f 29/54/48 373/95/82 361/97/84
f 29/54/48 361/97/84 374/92/79
f 31/62/56 362/64/58 276/98/85
f 32/68/62 158/99/86 398/69/63
f 32/68/62 154/70/64 241/71/65
f 32/68/62 391/72/66 217/100/87
f 32/68/62 217/100/87 325/101/88
f 32/68/62 325/101/88 158/99/86
f 33/73/67 265/75/69 366/102/89
f 34/103/90 287/104/91 248/105/92
f 36/106/93 364/107/94 248/105/92
f 34/103/90 200/108/95 153/109/96
f 39/110/97 161/111/98 286/112/99
f 39/110/97 286/112/99 233/113/100
f 39/110/97 233/113/100 196/114/101
f 43/115/102 322/116/103 443/117/104
f 43/115/102 443/117/104 396/118/105
f 43/115/102 396/118/105 198/119/106
f 38/120/107 252/121/108 441/122/109
f 48/123/110 235/124/111 394/125/112
f 48/123/110 394/125/112 403/126/113
f 48/123/110 403/126/113 160/127/114
f 46/128/115 250/129/116 447/130/117
f 49/131/118 194/132/119 275/133/120
f 49/134/118 272/135/121 346/136/122
f 34/103/90 153/109/96 238/137/123
f 35/138/124 239/139/125 324/140/126
f 43/115/102 198/119/106 431/141/127
f 43/115/102 431/141/127 322/116/103
f 38/120/107 186/142/128 232/143/129
f 38/120/107 441/122/109 186/142/128
f 48/123/110 160/127/114 315/144/130
f 48/123/110 315/144/130 235/124/111
f 46/145/115 149/146/131 245/147/132
f 49/131/118 195/148/133 194/132/119
f 49/131/118 275/133/120 272/149/121
f 49/134/118 346/136/122 195/150/133
f 50/151/134 289/152/135 251/153/136
f 52/154/137 369/155/138 251/153/136
f 50/151/134 203/156/139 157/157/140
f 50/158/134 446/159/141 402/160/142
f 50/158/134 358/161/143 289/162/135
f 58/163/144 390/164/145 290/165/146
f 58/166/144 254/167/147 205/168/148
f 58/166/144 159/169/149 448/170/150
f 58/163/144 237/171/151 311/172/152
f 64/173/153 249/174/154 207/175/155
f 64/173/153 166/176/156 458/177/157
f 64/173/153 419/178/158 376/179/159
f 69/180/160 187/181/161 144/182/162
f 64/173/153 412/183/163 328/184/164
f 69/180/160 144/182/162 213/185/165
f 71/186/166 430/187/167 236/188/168
f 71/186/166 236/188/168 385/189/169
f 51/190/170 285/191/171 143/192/172
f 71/186/166 267/193/173 342/194/174
f 74/195/175 439/196/176 171/197/177
f 75/198/178 216/199/179 228/200/180
f 75/198/178 228/200/180 260/201/181
f 75/198/178 260/201/181 271/202/182
f 70/203/183 226/204/184 184/205/185
f 72/206/186 135/207/187 382/208/188
f 76/209/189 434/210/190 350/211/191
f 77/212/192 462/213/193 384/214/194
f 59/215/195 189/216/196 310/217/197
f 76/209/189 222/218/198 452/219/199
f 52/154/137 329/220/200 334/221/201
f 50/151/134 157/157/140 446/222/141
f 50/158/134 402/160/142 358/161/143
f 58/163/144 311/172/152 390/164/145
f 58/163/144 290/165/146 254/223/147
f 58/166/144 205/168/148 159/169/149
f 58/166/144 448/170/150 237/224/151
f 64/173/153 328/184/164 249/174/154
f 64/173/153 207/175/155 166/176/156
f 64/173/153 458/177/157 419/178/158
f 64/173/153 376/179/159 412/183/163
f 71/186/166 342/194/174 430/187/167
f 51/225/170 188/226/202 421/227/203
f 71/186/166 385/189/169 270/228/204
f 71/186/166 270/228/204 267/193/173
f 75/198/178 271/202/182 461/229/205
f 74/195/175 307/230/206 439/196/176
f 75/198/178 461/229/205 216/199/179
f 70/203/183 424/231/207 174/232/208
f 74/195/175 211/233/209 307/230/206
f 76/209/189 452/219/199 220/234/210
f 76/209/189 220/234/210 434/210/190
f 76/209/189 350/211/191 185/235/211
f 76/209/189 185/235/211 222/218/198
f 77/212/192 384/214/194 141/236/212
f 507/237/213 344/238/214 81/239/215 303/240/216
f 506/241/217 177/242/218 85/243/219 134/244/220
f 505/245/221 225/246/222 84/247/223 381/248/224
f 504/249/225 140/250/226 80/251/227 234/252/228
f 503/253/229 227/254/230 88/255/231 294/256/232
f 502/257/233 264/258/234 87/259/235 172/260/236
f 501/261/237 365/262/238 90/263/239 288/264/240
f 500/265/241 343/266/242 91/267/243 383/268/244
f 499/269/245 164/270/246 93/271/247 137/272/248
f 498/273/249 368/274/250 92/275/251 183/276/252
f 497/277/253 379/278/254 94/279/255 297/280/256
f 496/281/257 229/282/258 96/283/259 354/284/260
f 495/285/261 142/286/262 98/287/263 279/288/264
f 93/271/247 183/276/252 306/289/265
f 494/290/266 428/291/267 97/292/268 399/293/269
f 493/294/270 351/295/271 101/296/272 240/297/273
f 492/298/274 387/299/275 102/300/276 440/301/277
f 491/302/278 139/303/279 104/304/280 145/305/281
f 490/306/282 199/307/283 103/308/284 316/309/285
f 489/310/286 393/311/287 106/312/288 274/313/289
f 488/314/290 436/315/291 99/316/292 356/317/293
f 487/318/294 306/289/265 100/319/295 380/320/296
f 486/321/297 191/322/298 109/323/299 347/324/300
f 485/325/301 231/326/302 105/327/303 348/328/304
f 484/329/305 438/330/306 111/331/307 313/332/308
f 109/323/299 433/333/309 432/334/310
f 483/335/311 427/336/312 107/337/313 433/333/309
f 482/338/314 401/339/315 114/340/316 283/341/317
f 481/342/318 247/343/319 115/344/320 151/345/321
f 480/346/322 409/347/323 117/348/324 244/349/325
f 102/300/276 240/297/273 415/350/326
f 479/351/327 317/352/328 120/353/329 147/354/330
f 101/355/272 145/305/281 208/356/331
f 121/357/332 405/358/333 355/359/334
f 478/360/335 208/361/331 118/362/336 392/363/337
f 477/364/338 192/365/339 122/366/340 405/358/333
f 476/367/341 277/368/342 121/357/332 318/369/343
f 475/370/344 190/371/345 124/372/346 243/373/347
f 124/374/346 318/369/343 155/375/348
f 122/366/340 243/373/347 284/376/349
f 118/377/336 244/349/325 340/378/350
f 120/353/329 392/363/337 180/379/351
f 117/348/324 147/354/330 263/380/352
f 110/381/353 152/382/354 400/383/355
f 474/384/356 156/385/357 108/386/358 309/387/359
f 473/388/360 426/389/361 126/390/362 371/391/363
f 472/392/364 327/393/365 112/394/366 457/395/367
f 471/396/368 319/397/369 128/398/370 215/399/371
f 470/400/372 282/401/373 127/402/374 332/403/375
f 130/404/376 246/405/377 442/406/378
f 469/407/379 445/408/380 116/409/381 242/410/382
f 468/411/383 136/412/384 131/413/385 246/405/377
f 467/414/386 420/415/387 130/404/376 150/416/388
f 466/417/389 296/418/390 133/419/391 406/420/392
f 133/419/391 150/416/388 323/421/393
f 131/422/385 406/420/392 363/423/394
f 465/424/395 305/425/396 89/426/397 314/427/398
f 464/428/399 321/429/400 129/430/401 197/431/402
f 457/395/367 464/428/399 197/431/402 126/432/362
f 112/394/366 215/399/371 464/428/399 457/395/367
f 215/399/371 128/398/370 321/429/400 464/428/399
f 140/250/226 465/424/395 314/427/398 80/251/227
f 85/243/219 288/264/240 465/424/395 140/250/226
f 288/264/240 90/263/239 305/425/396 465/424/395
f 363/423/394 323/421/393 132/433/403
f 363/423/394 406/420/392 323/421/393
f 406/420/392 133/419/391 323/421/393
f 323/421/393 442/406/378 132/433/403
f 323/421/393 150/416/388 442/406/378
f 150/416/388 130/404/376 442/406/378
f 136/434/384 466/417/389 406/420/392 131/422/385
f 106/435/288 347/436/300 466/417/389 136/434/384
f 347/436/300 109/437/299 296/418/390 466/417/389
f 296/418/390 467/414/386 150/416/388 133/419/391
f 109/437/299 432/438/310 467/414/386 296/418/390
f 432/438/310 113/439/404 420/415/387 467/414/386
f 420/415/387 468/411/383 246/405/377 130/404/376
f 113/439/404 181/440/405 468/411/383 420/415/387
f 181/440/405 106/441/288 136/412/384 468/411/383
f 401/339/315 469/407/379 242/410/382 114/340/316
f 113/442/404 269/443/406 469/407/379 401/339/315
f 269/443/406 107/337/313 445/408/380 469/407/379
f 442/406/378 363/444/394 132/433/403
f 442/406/378 246/405/377 363/444/394
f 246/405/377 131/413/385 363/444/394
f 371/391/363 470/400/372 332/403/375 111/331/307
f 126/390/362 197/445/402 470/400/372 371/391/363
f 197/445/402 129/446/401 282/401/373 470/400/372
f 313/332/308 471/396/368 215/399/371 112/394/366
f 111/331/307 332/403/375 471/396/368 313/332/308
f 332/403/375 127/402/374 319/397/369 471/396/368
f 426/447/361 472/392/364 457/395/367 126/432/362
f 91/448/243 333/449/407 472/392/364 426/447/361
f 333/449/407 95/450/408 327/393/365 472/392/364
f 438/330/306 473/388/360 371/391/363 111/331/307
f 110/451/353 400/452/355 473/388/360 438/330/306
f 400/452/355 91/453/243 426/389/361 473/388/360
f 231/326/302 474/384/356 309/387/359 105/327/303
f 110/381/353 410/454/409 474/384/356 231/326/302
f 410/454/409 95/455/408 156/385/357 474/384/356
f 400/383/355 383/268/244 91/267/243
f 400/383/355 152/382/354 383/268/244
f 152/382/354 92/275/251 383/268/244
f 263/380/352 180/379/351 125/456/410
f 263/380/352 147/354/330 180/379/351
f 147/354/330 120/353/329 180/379/351
f 180/379/351 340/457/350 125/456/410
f 180/379/351 392/363/337 340/457/350
f 392/363/337 118/362/336 340/457/350
f 340/378/350 263/380/352 125/456/410
f 340/378/350 244/349/325 263/380/352
f 244/349/325 117/348/324 263/380/352
f 284/376/349 155/458/348 123/459/411
f 284/376/349 243/373/347 155/458/348
f 243/373/347 124/372/346 155/458/348
f 155/375/348 355/359/334 123/459/411
f 155/375/348 318/369/343 355/359/334
f 318/369/343 121/357/332 355/359/334
f 192/365/339 475/370/344 243/373/347 122/366/340
f 103/460/284 440/461/277 475/370/344 192/365/339
f 440/461/277 102/462/276 190/371/345 475/370/344
f 190/463/345 476/367/341 318/369/343 124/374/346
f 102/464/276 415/465/326 476/367/341 190/463/345
f 415/465/326 119/466/412 277/368/342 476/367/341
f 277/368/342 477/364/338 405/358/333 121/357/332
f 119/466/412 326/467/413 477/364/338 277/368/342
f 326/467/413 103/460/284 192/365/339 477/364/338
f 317/352/328 478/360/335 392/363/337 120/353/329
f 119/468/412 165/469/414 478/360/335 317/352/328
f 165/469/414 101/296/272 208/361/331 478/360/335
f 355/359/334 284/376/349 123/459/411
f 355/359/334 405/358/333 284/376/349
f 405/358/333 122/366/340 284/376/349
f 208/356/331 455/470/415 118/377/336
f 208/356/331 145/305/281 455/470/415
f 145/305/281 104/304/280 455/470/415
f 409/347/323 479/351/327 147/354/330 117/348/324
f 103/308/284 326/471/413 479/351/327 409/347/323
f 326/471/413 119/468/412 317/352/328 479/351/327
f 415/350/326 165/469/414 119/468/412
f 415/350/326 240/297/273 165/469/414
f 240/297/273 101/296/272 165/469/414
f 455/470/415 480/346/322 244/349/325 118/377/336
f 104/304/280 316/309/285 480/346/322 455/470/415
f 316/309/285 103/308/284 409/347/323 480/346/322
f 445/408/380 481/342/318 151/345/321 116/409/381
f 107/337/313 274/313/289 481/342/318 445/408/380
f 274/313/289 106/312/288 247/343/319 481/342/318
f 247/343/319 482/338/314 283/341/317 115/344/320
f 106/312/288 181/472/405 482/338/314 247/343/319
f 181/472/405 113/442/404 401/339/315 482/338/314
f 191/322/298 483/335/311 433/333/309 109/323/299
f 108/386/358 380/320/296 483/335/311 191/322/298
f 380/320/296 100/319/295 427/336/312 483/335/311
f 432/334/310 269/443/406 113/442/404
f 432/334/310 433/333/309 269/443/406
f 433/333/309 107/337/313 269/443/406
f 327/393/365 484/329/305 313/332/308 112/394/366
f 95/450/408 410/473/409 484/329/305 327/393/365
f 410/473/409 110/451/353 438/330/306 484/329/305
f 395/474/416 485/325/301 348/328/304 100/475/295
f 92/275/251 152/382/354 485/325/301 395/474/416
f 152/382/354 110/381/353 231/326/302 485/325/301
f 393/311/287 486/321/297 347/324/300 106/312/288
f 105/327/303 309/387/359 486/321/297 393/311/287
f 309/387/359 108/386/358 191/322/298 486/321/297
f 156/385/357 487/318/294 380/320/296 108/386/358
f 95/455/408 182/476/417 487/318/294 156/385/357
f 182/476/417 93/271/247 306/289/265 487/318/294
f 229/282/258 488/314/290 356/317/293 96/283/259
f 95/477/408 333/478/407 488/314/290 229/282/258
f 333/478/407 91/479/243 436/315/291 488/314/290
f 427/480/312 489/310/286 274/313/289 107/337/313
f 100/475/295 348/328/304 489/310/286 427/480/312
f 348/328/304 105/327/303 393/311/287 489/310/286
f 139/303/279 490/306/282 316/309/285 104/304/280
f 97/292/268 354/284/260 490/306/282 139/303/279
f 354/284/260 96/283/259 199/307/283 490/306/282
f 351/481/271 491/302/278 145/305/281 101/355/272
f 98/482/263 399/293/269 491/302/278 351/481/271
f 399/293/269 97/292/268 139/303/279 491/302/278
f 199/307/283 492/298/274 440/301/277 103/308/284
f 96/283/259 356/317/293 492/298/274 199/307/283
f 356/317/293 99/316/292 387/299/275 492/298/274
f 387/299/275 493/294/270 240/297/273 102/300/276
f 99/316/292 279/288/264 493/294/270 387/299/275
f 279/288/264 98/287/263 351/295/271 493/294/270
f 142/483/262 494/290/266 399/293/269 98/482/263
f 94/484/255 137/485/248 494/290/266 142/483/262
f 137/485/248 93/486/247 428/291/267 494/290/266
f 306/289/265 395/474/416 100/319/295
f 306/289/265 183/276/252 395/474/416
f 183/276/252 92/275/251 395/474/416
f 436/315/291 495/285/261 279/288/264 99/316/292
f 91/479/243 297/487/256 495/285/261 436/315/291
f 297/487/256 94/488/255 142/286/262 495/285/261
f 428/291/267 496/281/257 354/284/260 97/292/268
f 93/486/247 182/489/417 496/281/257 428/291/267
f 182/489/417 95/477/408 229/282/258 496/281/257
f 343/490/242 497/277/253 297/280/256 91/491/243
f 89/426/397 305/425/396 497/277/253 343/490/242
f 305/425/396 90/263/239 379/278/254 497/277/253
f 164/270/246 498/273/249 183/276/252 93/271/247
f 88/255/231 227/254/230 498/273/249 164/270/246
f 227/254/230 87/259/235 368/274/250 498/273/249
f 379/278/254 499/269/245 137/272/248 94/279/255
f 90/263/239 365/262/238 499/269/245 379/278/254
f 365/262/238 88/255/231 164/270/246 499/269/245
f 368/274/250 500/265/241 383/268/244 92/275/251
f 87/259/235 264/258/234 500/265/241 368/274/250
f 264/258/234 89/492/397 343/266/242 500/265/241
f 177/242/218 501/261/237 288/264/240 85/243/219
f 84/247/223 294/256/232 501/261/237 177/242/218
f 294/256/232 88/255/231 365/262/238 501/261/237
f 344/238/214 502/257/233 172/260/236 81/239/215
f 80/493/227 314/494/398 502/257/233 344/238/214
f 314/494/398 89/492/397 264/258/234 502/257/233
f 225/246/222 503/253/229 294/256/232 84/247/223
f 81/239/215 172/260/236 503/253/229 225/246/222
f 172/260/236 87/259/235 227/254/230 503/253/229
f 280/495/418 504/249/225 234/252/228 79/496/419
f 86/497/420 134/244/220 504/249/225 280/495/418
f 134/244/220 85/243/219 140/250/226 504/249/225
f 268/498/421 505/245/221 381/248/224 83/499/422
f 82/500/423 303/240/216 505/245/221 268/498/421
f 303/240/216 81/239/215 225/246/222 505/245/221
f 295/501/424 506/241/217 134/244/220 86/497/420
f 83/499/422 381/248/224 506/241/217 295/501/424
f 381/248/224 84/247/223 177/242/218 506/241/217
f 437/502/425 507/237/213 303/240/216 82/500/423
f 79/503/419 234/504/228 507/237/213 437/502/425
f 234/504/228 80/493/227 344/238/214 507/237/213
f 141/236/212 334/221/201 78/505/426
f 141/236/212 384/214/194 334/221/201
f 384/214/194 52/154/137 334/221/201
f 222/218/198 141/236/212 78/505/426
f 222/218/198 185/235/211 141/236/212
f 185/235/211 77/212/192 141/236/212
f 185/235/211 310/217/197 77/212/192
f 185/235/211 350/211/191 310/217/197
f 350/211/191 59/215/195 310/217/197
f 434/210/190 201/506/427 60/507/428
f 434/210/190 220/234/210 201/506/427
f 220/234/210 65/508/429 201/506/427
f 220/234/210 382/509/188 65/508/429
f 220/234/210 452/219/199 382/509/188
f 452/219/199 72/510/186 382/509/188
f 307/230/206 184/205/185 73/511/430
f 307/230/206 211/233/209 184/205/185
f 211/233/209 70/203/183 184/205/185
f 174/232/208 451/512/431 62/513/432
f 174/232/208 424/231/207 451/512/431
f 424/231/207 63/514/433 451/512/431
f 216/199/179 163/515/434 55/516/435
f 216/199/179 461/229/205 163/515/434
f 461/229/205 56/517/436 163/515/434
f 439/196/176 293/518/437 57/519/438
f 439/196/176 307/230/206 293/518/437
f 307/230/206 73/511/430 293/518/437
f 461/229/205 171/197/177 56/517/436
f 461/229/205 271/202/182 171/197/177
f 271/202/182 74/195/175 171/197/177
f 267/193/173 345/520/439 68/521/440
f 267/193/173 270/228/204 345/520/439
f 270/228/204 73/511/430 345/520/439
f 270/228/204 143/192/172 73/511/430
f 270/228/204 385/189/169 143/192/172
f 385/189/169 51/190/170 143/192/172
f 421/227/203 210/522/441 78/505/426
f 421/227/203 188/226/202 210/522/441
f 188/226/202 72/510/186 210/522/441
f 430/187/167 273/523/442 66/524/443
f 430/187/167 342/194/174 273/523/442
f 342/194/174 67/525/444 273/523/442
f 412/183/163 213/185/165 62/513/432
f 412/183/163 376/179/159 213/185/165
f 376/179/159 69/180/160 213/185/165
f 419/178/158 389/526/445 68/521/440
f 419/178/158 458/177/157 389/526/445
f 458/177/157 67/525/444 389/526/445
f 166/176/156 312/527/446 66/524/443
f 166/176/156 207/175/155 312/527/446
f 207/175/155 65/528/429 312/527/446
f 249/174/154 370/529/447 60/530/428
f 249/174/154 328/184/164 370/529/447
f 328/184/164 61/531/448 370/529/447
f 237/224/151 193/532/449 55/516/435
f 237/224/151 448/170/150 193/532/449
f 448/170/150 63/514/433 193/532/449
f 159/169/149 257/533/450 62/513/432
f 159/169/149 205/168/148 257/533/450
f 205/168/148 61/531/448 257/533/450
f 254/223/147 330/534/451 60/507/428
f 254/223/147 290/165/146 330/534/451
f 290/165/146 59/215/195 330/534/451
f 390/164/145 255/535/452 53/536/453
f 390/164/145 311/172/152 255/535/452
f 311/172/152 54/537/454 255/535/452
f 358/161/143 204/538/455 57/519/438
f 358/161/143 402/160/142 204/538/455
f 402/160/142 56/517/436 204/538/455
f 446/222/141 449/539/456 55/540/435
f 446/222/141 157/157/140 449/539/456
f 157/157/140 54/537/454 449/539/456
f 334/221/201 421/227/203 78/505/426
f 334/221/201 329/220/200 421/227/203
f 329/220/200 51/225/170 421/227/203
f 452/219/199 210/522/441 72/510/186
f 452/219/199 222/218/198 210/522/441
f 222/218/198 78/505/426 210/522/441
f 310/217/197 462/213/193 77/212/192
f 310/217/197 189/216/196 462/213/193
f 189/216/196 53/536/453 462/213/193
f 384/214/194 369/155/138 52/154/137
f 384/214/194 462/213/193 369/155/138
f 462/213/193 53/536/453 369/155/138
f 350/211/191 330/534/451 59/215/195
f 350/211/191 434/210/190 330/534/451
f 434/210/190 60/507/428 330/534/451
f 382/208/188 312/527/446 65/528/429
f 382/208/188 135/207/187 312/527/446
f 135/207/187 66/524/443 312/527/446
f 184/205/185 345/520/439 73/511/430
f 184/205/185 226/204/184 345/520/439
f 226/204/184 68/521/440 345/520/439
f 271/202/182 211/233/209 74/195/175
f 271/202/182 260/201/181 211/233/209
f 260/201/181 70/203/183 211/233/209
f 260/201/181 424/231/207 70/203/183
f 260/201/181 228/200/180 424/231/207
f 228/200/180 63/514/433 424/231/207
f 228/200/180 193/532/449 63/514/433
f 228/200/180 216/199/179 193/532/449
f 216/199/179 55/516/435 193/532/449
f 171/197/177 204/538/455 56/517/436
f 171/197/177 439/196/176 204/538/455
f 439/196/176 57/519/438 204/538/455
f 342/194/174 389/526/445 67/525/444
f 342/194/174 267/193/173 389/526/445
f 267/193/173 68/521/440 389/526/445
f 143/192/172 293/518/437 73/511/430
f 143/192/172 285/191/171 293/518/437
f 285/191/171 57/519/438 293/518/437
f 385/189/169 188/541/202 51/190/170
f 385/189/169 236/188/168 188/541/202
f 236/188/168 72/206/186 188/541/202
f 236/188/168 135/207/187 72/206/186
f 236/188/168 430/187/167 135/207/187
f 430/187/167 66/524/443 135/207/187
f 213/185/165 174/232/208 62/513/432
f 213/185/165 144/182/162 174/232/208
f 144/182/162 70/203/183 174/232/208
f 328/184/164 257/533/450 61/531/448
f 328/184/164 412/183/163 257/533/450
f 412/183/163 62/513/432 257/533/450
f 144/182/162 226/204/184 70/203/183
f 144/182/162 187/181/161 226/204/184
f 187/181/161 68/521/440 226/204/184
f 376/179/159 187/181/161 69/180/160
f 376/179/159 419/178/158 187/181/161
f 419/178/158 68/521/440 187/181/161
f 458/177/157 273/523/442 67/525/444
f 458/177/157 166/176/156 273/523/442
f 166/176/156 66/524/443 273/523/442
f 207/175/155 201/542/427 65/528/429
f 207/175/155 249/174/154 201/542/427
f 249/174/154 60/530/428 201/542/427
f 311/172/152 449/539/456 54/537/454
f 311/172/152 237/171/151 449/539/456
f 237/171/151 55/540/435 449/539/456
f 448/170/150 451/512/431 63/514/433
f 448/170/150 159/169/149 451/512/431
f 159/169/149 62/513/432 451/512/431
f 205/168/148 370/529/447 61/531/448
f 205/168/148 254/167/147 370/529/447
f 254/167/147 60/530/428 370/529/447
f 290/165/146 189/216/196 59/215/195
f 290/165/146 390/164/145 189/216/196
f 390/164/145 53/536/453 189/216/196
f 289/162/135 285/191/171 51/190/170
f 289/162/135 358/161/143 285/191/171
f 358/161/143 57/519/438 285/191/171
f 402/160/142 163/515/434 56/517/436
f 402/160/142 446/159/141 163/515/434
f 446/159/141 55/516/435 163/515/434
f 157/157/140 255/535/452 54/537/454
f 157/157/140 203/156/139 255/535/452
f 203/156/139 53/536/453 255/535/452
f 251/153/136 203/156/139 50/151/134
f 251/153/136 369/155/138 203/156/139
f 369/155/138 53/536/453 203/156/139
f 251/153/136 329/220/200 52/154/137
f 251/153/136 289/152/135 329/220/200
f 289/152/135 51/225/170 329/220/200
f 195/150/133 238/137/123 44/543/457
f 195/150/133 346/136/122 238/137/123
f 346/136/122 34/103/90 238/137/123
f 272/149/121 196/114/101 35/544/124
f 272/149/121 275/133/120 196/114/101
f 275/133/120 39/110/97 196/114/101
f 194/132/119 388/545/458 40/546/459
f 194/132/119 195/148/133 388/545/458
f 195/148/133 44/547/457 388/545/458
f 245/147/132 408/548/460 41/549/461
f 245/147/132 149/146/131 408/548/460
f 149/146/131 42/550/462 408/548/460
f 235/124/111 364/107/94 36/106/93
f 235/124/111 315/144/130 364/107/94
f 315/144/130 37/551/463 364/107/94
f 315/144/130 352/552/464 37/551/463
f 315/144/130 160/127/114 352/552/464
f 160/127/114 47/553/465 352/552/464
f 186/142/128 359/554/466 45/555/467
f 186/142/128 441/122/109 359/554/466
f 441/122/109 47/553/465 359/554/466
f 232/143/129 360/556/468 44/543/457
f 232/143/129 186/142/128 360/556/468
f 186/142/128 45/555/467 360/556/468
f 322/116/103 388/545/458 44/547/457
f 322/116/103 431/141/127 388/545/458
f 431/141/127 40/546/459 388/545/458
f 431/141/127 202/557/469 40/546/459
f 431/141/127 198/119/106 202/557/469
f 198/119/106 41/549/461 202/557/469
f 324/140/126 146/558/470 36/106/93
f 324/140/126 239/139/125 146/558/470
f 239/139/125 42/559/462 146/558/470
f 238/137/123 232/143/129 44/543/457
f 238/137/123 153/109/96 232/143/129
f 153/109/96 38/120/107 232/143/129
f 346/136/122 287/104/91 34/103/90
f 346/136/122 272/135/121 287/104/91
f 272/135/121 35/138/124 287/104/91
f 275/133/120 161/111/98 39/110/97
f 275/133/120 194/132/119 161/111/98
f 194/132/119 40/546/459 161/111/98
f 447/130/117 359/554/466 47/553/465
f 447/130/117 250/129/116 359/554/466
f 250/129/116 45/555/467 359/554/466
f 160/127/114 447/130/117 47/553/465
f 160/127/114 403/126/113 447/130/117
f 403/126/113 46/128/115 447/130/117
f 403/126/113 149/560/131 46/128/115
f 403/126/113 394/125/112 149/560/131
f 394/125/112 42/559/462 149/560/131
f 394/125/112 146/558/470 42/559/462
f 394/125/112 235/124/111 146/558/470
f 235/124/111 36/106/93 146/558/470
f 441/122/109 352/552/464 47/553/465
f 441/122/109 252/121/108 352/552/464
f 252/121/108 37/551/463 352/552/464
f 198/119/106 245/147/132 41/549/461
f 198/119/106 396/118/105 245/147/132
f 396/118/105 46/145/115 245/147/132
f 396/118/105 250/561/116 46/145/115
f 396/118/105 443/117/104 250/561/116
f 443/117/104 45/562/467 250/561/116
f 443/117/104 360/563/468 45/562/467
f 443/117/104 322/116/103 360/563/468
f 322/116/103 44/547/457 360/563/468
f 196/114/101 239/564/125 35/544/124
f 196/114/101 233/113/100 239/564/125
f 233/113/100 42/550/462 239/564/125
f 233/113/100 408/548/460 42/550/462
f 233/113/100 286/112/99 408/548/460
f 286/112/99 41/549/461 408/548/460
f 286/112/99 202/557/469 41/549/461
f 286/112/99 161/111/98 202/557/469
f 161/111/98 40/546/459 202/557/469
f 153/109/96 252/121/108 38/120/107
f 153/109/96 200/108/95 252/121/108
f 200/108/95 37/551/463 252/121/108
f 248/105/92 200/108/95 34/103/90
f 248/105/92 364/107/94 200/108/95
f 364/107/94 37/551/463 200/108/95
f 248/105/92 324/140/126 36/106/93
f 248/105/92 287/104/91 324/140/126
f 287/104/91 35/138/124 324/140/126
f 366/102/89 304/80/74 26/565/471
f 366/102/89 265/75/69 304/80/74
f 265/75/69 3/4/4 304/80/74
f 158/99/86 397/566/472 24/567/473
f 158/99/86 325/101/88 397/566/472
f 325/101/88 26/565/471 397/566/472
f 325/101/88 366/102/89 26/565/471
f 325/101/88 217/100/87 366/102/89
f 217/100/87 33/73/67 366/102/89
f 217/100/87 435/78/72 33/73/67
f 217/100/87 391/72/66 435/78/72
f 391/72/66 9/76/70 435/78/72
f 241/71/65 259/568/474 11/569/475
f 241/71/65 154/70/64 259/568/474
f 154/70/64 16/570/476 259/568/474
f 398/69/63 411/571/477 17/572/478
f 398/69/63 158/99/86 411/571/477
f 158/99/86 24/567/473 411/571/477
f 276/98/85 372/573/479 20/65/59
f 276/98/85 362/64/58 372/573/479
f 362/64/58 21/574/480 372/573/479
f 374/92/79 320/67/61 28/575/481
f 374/92/79 361/97/84 320/67/61
f 361/97/84 20/65/59 320/67/61
f 361/97/84 276/98/85 20/65/59
f 361/97/84 373/95/82 276/98/85
f 373/95/82 31/62/56 276/98/85
f 357/63/57 337/576/482 13/577/483
f 357/63/57 444/96/83 337/576/482
f 444/96/83 14/578/484 337/576/482
f 373/95/82 459/61/55 31/62/56
f 373/95/82 335/57/51 459/61/55
f 335/57/51 30/58/52 459/61/55
f 308/59/53 339/579/485 5/580/486
f 308/59/53 386/94/81 339/579/485
f 386/94/81 6/581/487 339/579/485
f 429/55/49 338/582/488 7/583/489
f 429/55/49 456/93/80 338/582/488
f 456/93/80 27/51/45 338/582/488
f 456/93/80 418/52/46 27/51/45
f 456/93/80 374/92/79 418/52/46
f 374/92/79 28/575/481 418/52/46
f 453/49/43 281/53/47 22/584/490
f 453/49/43 353/91/78 281/53/47
f 353/91/78 27/51/45 281/53/47
f 278/46/41 460/585/491 7/586/489
f 278/46/41 349/45/40 460/585/491
f 349/45/40 2/587/492 460/585/491
f 353/90/78 212/47/42 27/588/45
f 353/90/78 292/42/37 212/47/42
f 292/42/37 25/43/38 212/47/42
f 169/44/39 397/566/472 26/565/471
f 169/44/39 209/89/77 397/566/472
f 209/89/77 24/567/473 397/566/472
f 367/40/35 167/589/493 17/572/478
f 367/40/35 450/88/44 167/589/493
f 450/88/44 18/590/494 167/589/493
f 378/36/31 179/38/33 13/577/483
f 378/36/31 341/34/29 179/38/33
f 341/34/29 19/29/25 179/38/33
f 138/33/28 413/591/495 22/584/490
f 138/33/28 302/87/24 413/591/495
f 302/87/24 18/592/494 413/591/495
f 298/27/23 221/593/496 17/572/478
f 298/27/23 261/26/22 221/593/496
f 261/26/22 16/570/476 221/593/496
f 206/25/21 423/594/497 11/569/475
f 206/25/21 291/86/32 423/594/497
f 291/86/32 12/595/498 423/594/497
f 422/22/18 331/596/499 5/580/486
f 422/22/18 256/84/76 331/596/499
f 256/84/76 14/578/484 331/596/499
f 214/19/16 377/597/500 13/577/483
f 214/19/16 168/85/15 377/597/500
f 168/85/15 12/598/498 377/597/500
f 256/84/76 414/20/17 14/578/484
f 256/84/76 407/83/12 414/20/17
f 407/83/12 10/18/13 414/20/17
f 299/16/14 218/599/501 11/569/475
f 299/16/14 173/82/75 218/599/501
f 173/82/75 9/76/70 218/599/501
f 170/12/10 262/600/502 4/601/503
f 170/12/10 417/81/19 262/600/502
f 417/81/19 1/1/1 262/600/502
f 304/80/74 230/602/504 26/565/471
f 304/80/74 301/79/73 230/602/504
f 301/79/73 2/587/492 230/602/504
f 435/78/72 178/74/68 33/73/67
f 435/78/72 219/77/71 178/74/68
f 219/77/71 4/601/503 178/74/68
f 265/75/69 425/5/5 3/4/4
f 265/75/69 178/74/68 425/5/5
f 178/74/68 4/601/503 425/5/5
f 391/72/66 218/599/501 9/76/70
f 391/72/66 241/71/65 218/599/501
f 241/71/65 11/569/475 218/599/501
f 154/70/64 221/593/496 16/570/476
f 154/70/64 398/69/63 221/593/496
f 398/69/63 17/572/478 221/593/496
f 320/67/61 148/603/505 28/575/481
f 320/67/61 253/66/60 148/603/505
f 253/66/60 22/584/490 148/603/505
f 362/64/58 266/604/506 21/574/480
f 362/64/58 357/63/57 266/604/506
f 357/63/57 13/577/483 266/604/506
f 459/61/55 444/96/83 31/62/56
f 459/61/55 404/60/54 444/96/83
f 404/60/54 14/578/484 444/96/83
f 404/60/54 331/596/499 14/578/484
f 404/60/54 308/59/53 331/596/499
f 308/59/53 5/580/486 331/596/499
f 335/57/51 386/94/81 30/58/52
f 335/57/51 175/56/50 386/94/81
f 175/56/50 6/581/487 386/94/81
f 175/56/50 463/605/507 6/581/487
f 175/56/50 429/55/49 463/605/507
f 429/55/49 7/583/489 463/605/507
f 281/53/47 148/603/505 22/584/490
f 281/53/47 418/52/46 148/603/505
f 418/52/46 28/575/481 148/603/505
f 450/50/44 413/591/495 18/592/494
f 450/50/44 453/49/43 413/591/495
f 453/49/43 22/584/490 413/591/495
f 212/47/42 338/606/488 27/588/45
f 212/47/42 278/46/41 338/606/488
f 278/46/41 7/586/489 338/606/488
f 349/45/40 230/602/504 2/587/492
f 349/45/40 169/44/39 230/602/504
f 169/44/39 26/565/471 230/602/504
f 292/42/37 209/89/77 25/43/38
f 292/42/37 258/41/36 209/89/77
f 258/41/36 24/567/473 209/89/77
f 258/41/36 411/571/477 24/567/473
f 258/41/36 367/40/35 411/571/477
f 367/40/35 17/572/478 411/571/477
f 179/38/33 266/604/506 13/577/483
f 179/38/33 454/31/27 266/604/506
f 454/31/27 21/574/480 266/604/506
f 291/37/32 377/597/500 12/598/498
f 291/37/32 378/36/31 377/597/500
f 378/36/31 13/577/483 377/597/500
f 416/30/26 253/66/60 20/65/59
f 416/30/26 162/35/30 253/66/60
f 162/35/30 22/584/490 253/66/60
f 341/34/29 162/35/30 19/29/25
f 341/34/29 138/33/28 162/35/30
f 138/33/28 22/584/490 162/35/30
f 454/31/27 372/573/479 21/574/480
f 454/31/27 416/30/26 372/573/479
f 416/30/26 20/65/59 372/573/479
f 302/28/24 167/589/493 18/590/494
f 302/28/24 298/27/23 167/589/493
f 298/27/23 17/572/478 167/589/493
f 261/26/22 259/568/474 16/570/476
f 261/26/22 206/25/21 259/568/474
f 206/25/21 11/569/475 259/568/474
f 417/23/19 300/7/6 1/6/1
f 417/23/19 422/22/18 300/7/6
f 422/22/18 5/580/486 300/7/6
f 414/20/17 337/576/482 14/578/484
f 414/20/17 214/19/16 337/576/482
f 214/19/16 13/577/483 337/576/482
f 168/17/15 423/594/497 12/595/498
f 168/17/15 299/16/14 423/594/497
f 299/16/14 11/569/475 423/594/497
f 407/14/12 173/82/75 10/15/13
f 407/14/12 223/13/11 173/82/75
f 223/13/11 9/76/70 173/82/75
f 223/13/11 219/77/71 9/76/70
f 223/13/11 170/12/10 219/77/71
f 170/12/10 4/601/503 219/77/71
f 375/10/8 463/605/507 7/583/489
f 375/10/8 336/8/7 463/605/507
f 336/8/7 6/581/487 463/605/507
f 176/2/2 460/585/491 2/587/492
f 176/2/2 375/9/8 460/585/491
f 375/9/8 7/586/489 460/585/491
f 336/8/7 339/579/485 6/581/487
f 336/8/7 300/7/6 339/579/485
f 300/7/6 5/580/486 339/579/485
f 224/3/3 262/600/502 1/1/1
f 224/3/3 425/5/5 262/600/502
f 425/5/5 4/601/503 262/600/502
f 224/3/3 301/79/73 3/4/4
f 224/3/3 176/2/2 301/79/73
f 176/2/2 2/587/492 301/79/73
