# Blender v2.78 (sub 0) OBJ File: ''
# www.blender.org
mtllib Apple_Tree_NoLeaves_m_08.mtl
o Apple_Tree_NoLeaves_m_08
v 0.173569 0.499017 -0.169826
v 0.231206 1.119901 -0.135115
v 0.281453 1.112483 0.061238
v 0.225572 0.494752 0.066690
v -0.059798 1.221121 0.113415
v 0.045202 1.193040 -0.161942
v -0.078085 1.342074 -0.191243
v -0.147557 1.344680 0.009671
v 0.114806 1.136325 0.181094
v 0.068171 0.506389 0.211900
v 0.303213 2.216434 0.126774
v 0.195097 2.243794 0.049196
v -0.308986 0.234232 0.026126
v -0.600105 2.043762 -0.131828
v -0.568217 2.028258 -0.245592
v -0.220495 0.232932 -0.216349
v 0.415401 2.199750 0.048874
v 0.382234 2.216772 -0.083756
v 0.249312 2.243753 -0.090224
v 0.619424 3.083220 0.090619
v 0.659127 3.102549 -0.003650
v 0.770240 3.052486 0.006405
v 0.750580 2.915327 0.089357
v 0.716723 3.051218 0.152979
v 0.991553 3.961638 0.129389
v 1.053285 3.943084 0.123095
v 0.842807 3.178164 0.109802
v 1.078036 3.936199 0.183263
v 1.026380 3.933377 0.225077
v 0.974172 3.952662 0.192273
v 1.097667 3.118481 0.246583
v 1.109997 3.071533 0.200922
v -0.390999 2.206132 -0.227434
v -0.412438 2.212182 -0.106044
v 0.016237 0.553392 -0.256457
v 0.016517 0.074824 -0.302359
v -0.142253 0.732117 -0.235369
v -0.478370 2.109522 -0.288971
v -0.228927 0.729546 0.090408
v -0.515236 2.111984 -0.060859
v -0.098062 0.551956 0.204808
v -0.198846 0.070648 0.253765
v 0.025578 0.071089 0.282458
v 0.202034 0.073754 -0.190503
v 0.214409 0.075946 0.082107
v -0.752577 3.848823 -0.188203
v -0.837830 3.781682 -0.130714
v -0.837805 3.830313 -0.275075
v -0.709339 3.740030 -0.269882
v -0.872764 3.663011 -0.190533
v 1.896442 3.422930 0.905691
v 1.902927 3.441442 0.869448
v 2.412977 3.518082 1.657215
v 2.427418 3.511733 1.695182
v 1.585363 4.783125 0.331556
v 1.577450 4.795675 0.299675
v 2.159172 5.384814 0.445852
v 2.181145 5.394012 0.458249
v 1.535712 4.809601 0.335300
v 1.559526 4.791625 0.353599
v 2.194858 5.414418 0.468784
v 2.167490 5.401637 0.460810
v 1.547363 4.811732 0.301813
v -1.384616 4.708771 -0.132108
v -1.364753 4.718084 -0.179586
v -1.304792 4.734738 -0.122241
v -1.348180 4.719090 -0.097235
v -0.584708 4.176172 -0.474599
v -0.540952 4.163687 -0.459011
v -0.846685 4.037361 -0.255455
v -1.321382 4.741949 -0.172459
v -1.645544 6.052646 -0.107664
v -1.660625 6.150745 -0.122674
v -1.646921 6.152578 -0.121042
v -1.644873 6.152828 -0.107886
v 2.422687 3.530904 1.693246
v 1.877926 3.478209 0.885292
v 2.403736 3.517170 1.679625
v 1.084462 3.066223 0.286711
v 1.869194 3.446759 0.921501
v 1.111142 3.033438 0.247447
v -0.586410 4.221653 -0.445800
v -0.327384 4.814727 -0.885247
v -0.320808 4.790161 -0.914750
v -0.288495 4.782092 -0.904733
v -0.528951 4.185068 -0.423704
v -0.280496 4.794026 -0.877505
v -0.465759 5.501685 -1.343380
v -0.453954 5.483914 -1.319786
v -0.477536 5.515056 -1.339141
v -0.470509 5.481649 -1.334895
v 0.489457 2.644778 0.131724
v 0.404581 2.672102 0.061207
v 1.088961 3.096162 0.270945
v -0.659359 2.975227 -0.282957
v -0.445860 1.062422 -0.061250
v 1.472986 3.296069 0.531196
v -1.091573 4.253599 -0.116198
v -1.514815 5.374163 -0.101395
v 2.203080 3.499325 1.305961
v 0.133526 1.704635 -0.122260
v -0.391047 1.052730 -0.229168
v 1.891414 3.462327 0.873323
v -0.713701 4.010858 -0.361049
v -0.460512 2.163120 -0.074601
v -0.490963 5.575886 -1.383284
v -0.017010 0.527560 0.218768
v -0.300240 1.346289 -0.261873
v -0.385396 5.174186 -1.151590
v 0.135558 0.074113 0.202145
v 1.251088 4.395710 0.214350
v 0.703674 3.081747 -0.013504
v -0.107028 1.212168 0.065163
v 1.493395 3.226889 0.543793
v -1.139446 4.242363 -0.161312
v -0.364720 1.346456 0.013500
v 0.913881 3.037915 0.077721
v -0.862148 4.005475 -0.271036
v 1.112673 3.048675 0.219887
v 0.895109 3.501060 0.054936
v 1.848632 5.107203 0.373159
v 0.232535 0.075836 -0.060638
v 0.045530 0.256899 0.253257
v -0.221803 1.708972 -0.208952
v 0.723268 2.938259 0.127087
v 0.556950 2.646181 -0.047724
v -1.671846 6.199217 -0.115307
v -0.017994 1.278538 -0.028356
v 1.312744 4.365182 0.254733
v -0.429379 2.159401 -0.265750
v -0.095017 0.070465 0.295760
v 0.053694 1.722207 0.077695
v 1.097834 3.045184 0.271298
v 1.539007 4.812500 0.317743
v 0.015633 0.280964 -0.287288
v -1.655873 6.200845 -0.113419
v 2.255829 5.472534 0.474491
v 1.900156 5.140346 0.417444
v 1.915078 5.135325 0.403588
v -0.105576 1.409229 -0.093852
v -0.384749 4.466833 -0.638452
v -0.573281 2.994469 -0.242238
v 0.145960 1.151303 -0.168175
v -1.528928 5.370069 -0.114955
v -0.812691 4.015179 -0.225040
v 2.186881 3.524083 1.317690
v 0.366075 2.206593 0.098133
v 2.210092 5.425142 0.467366
v -0.800077 3.791978 -0.143336
v 0.876884 3.035199 0.191407
v -0.697965 3.748693 -0.232869
v 0.648435 3.068353 0.127153
v -0.357572 5.177044 -1.125941
v -1.078576 4.308008 -0.209376
v 0.248942 0.772876 0.064188
v -0.720184 2.836534 -0.173775
v -0.472861 5.524264 -1.345018
v 1.237661 4.391037 0.262141
v 0.220618 0.254336 0.075921
v -0.102987 1.062198 -0.223257
v -0.089685 0.074797 -0.277616
v -0.392358 2.212965 -0.165249
v -0.303934 4.806201 -0.878192
v -0.280154 4.786592 -0.890270
v -0.432503 4.460810 -0.682215
v -0.710676 2.829402 -0.219006
v -0.529950 4.171894 -0.439488
v -0.643303 4.023509 -0.296206
v -0.304658 4.784302 -0.912925
v -0.084374 0.868979 0.170748
v -0.564298 2.076960 -0.089170
v 0.410725 2.206953 -0.020845
v 0.192833 1.667189 0.152431
v 0.213865 0.493558 -0.053961
v -1.540322 5.491775 -0.146406
v 1.573844 4.785788 0.345016
v -0.526026 2.065996 -0.275945
v 0.909106 2.985535 0.140227
v 0.977185 3.958702 0.159665
v 0.210663 2.245528 -0.024775
v 1.496196 3.253793 0.503176
v -0.747784 3.737835 -0.284821
v 0.928939 3.521600 0.135633
v -1.308471 4.740063 -0.148328
v 2.437332 3.517183 1.704077
v 2.198873 3.486173 1.330125
v -0.613285 2.160965 -0.191443
v -0.563347 4.166559 -0.469946
v -0.654381 3.998979 -0.345776
v -0.871785 3.774681 -0.152062
v 0.029671 0.852140 -0.220919
v 0.194038 0.778274 -0.153583
v -1.504471 5.500860 -0.112143
v -0.266389 1.710484 -0.050168
v -0.881693 3.773062 -0.231221
v 1.584101 4.788022 0.314493
v -0.257796 0.072099 0.160958
v -0.188004 1.061879 0.063194
v -1.039100 4.274699 -0.148469
v -1.379017 4.712000 -0.157946
v 0.820269 3.530751 0.058893
v 1.071064 3.938790 0.150714
v 0.805439 3.156104 0.142497
v 0.335851 1.649749 0.053240
v -1.116560 4.256518 -0.221465
v -0.156990 0.578807 0.154689
v 0.755008 2.937478 0.040416
v -1.342610 4.730490 -0.181001
v 1.021976 3.953493 0.120367
v -0.475979 5.517137 -1.354312
v -1.394773 4.813857 -0.110087
v 1.297492 4.379729 0.209772
v 1.902754 3.428849 0.886204
v 0.019535 1.178135 0.168398
v -0.665996 2.977852 -0.104975
v 0.853962 3.494979 0.182751
v 1.881830 3.432343 0.917643
v 1.886339 5.152504 0.406395
v -0.017306 1.196343 -0.177723
v 1.870490 3.465820 0.904762
v -0.054653 0.581715 -0.245856
v 0.834621 3.155776 0.060838
v 2.431357 3.524696 1.714688
v 0.997211 3.942847 0.213830
v -0.438128 4.494150 -0.651159
v 1.103799 3.099654 0.219533
v 0.574549 2.606668 0.063408
v -0.395443 4.449895 -0.668615
v 2.472960 3.524363 1.770715
v -1.663249 6.200125 -0.120309
v 0.449449 2.684880 -0.049360
v 0.097576 0.524427 -0.226179
v -0.363344 5.168447 -1.144377
v -0.590561 4.201396 -0.462068
v 2.203404 5.430578 0.462863
v 2.181027 3.502091 1.341727
v 1.466534 3.253790 0.570585
v 1.545789 4.801010 0.347079
v 2.435294 3.525586 1.703343
v -1.510551 5.500437 -0.142727
v -1.324091 4.727503 -0.105364
v 0.631939 3.097099 0.040717
v 0.241403 2.230506 0.097812
v -0.708432 4.074379 -0.334264
v 0.292829 1.659110 -0.111474
v -0.152917 0.275810 0.236383
v 0.316391 2.230924 -0.099460
v 0.209451 1.119507 0.133356
v -0.467740 5.518360 -1.346819
v 2.433395 3.516293 1.715421
v 1.275766 4.372170 0.287099
v 0.121801 0.074344 -0.270258
v -0.481099 5.523040 -1.352511
v -0.557163 4.206731 -0.431611
v 2.210914 5.426426 0.461360
v 0.188762 0.255175 -0.184592
v 0.273395 1.111791 -0.041270
v 0.085486 0.791751 0.194656
v -0.389716 5.191677 -1.131697
v -1.662610 6.200495 -0.106628
v -0.577566 3.005886 -0.145437
v -0.180714 0.449612 -0.237738
v 0.922998 3.095475 0.146490
v 0.791802 3.514998 0.137305
v -0.294323 0.241882 -0.107295
v -0.328438 4.803911 -0.900848
v 1.608413 4.852788 0.309348
v 1.055991 3.933130 0.208522
v 1.859666 5.100461 0.372414
v 2.203737 5.428584 0.468802
v -0.276862 0.448949 0.073212
v 0.156494 0.498549 0.150585
v -0.374445 5.169969 -1.149963
v -0.373569 5.185708 -1.126839
v -0.411177 4.483088 -0.641643
v -0.385425 4.456388 -0.652175
v -0.390356 5.183985 -1.142314
v -0.357659 5.171693 -1.134489
v -0.642413 4.008002 -0.318236
v -0.675023 4.053493 -0.311290
v -0.414235 4.452755 -0.678578
v -0.717496 4.045859 -0.350411
v -1.098463 4.284685 -0.221284
v -0.439987 4.479455 -0.668046
v 0.898747 3.070876 0.175145
v 0.912687 3.006186 0.102778
v 1.497382 3.236768 0.520653
v 0.890366 3.004547 0.171366
v 1.479486 3.236766 0.561322
v 2.182195 3.515188 1.330914
v 0.919311 3.511195 0.092813
v 1.485069 3.278505 0.513053
v 2.189431 3.492316 1.338416
v 1.467173 3.278503 0.553722
v 2.195500 3.513519 1.309335
v 0.817721 3.502471 0.166081
v -1.692190 6.345708 -0.111009
v -1.517491 5.497011 -0.103285
v -1.504656 5.501471 -0.127862
v -1.525164 5.496326 -0.147454
v -1.548857 5.488611 -0.133324
v -1.119458 4.246649 -0.134217
v -1.054535 4.294996 -0.179887
v -0.684885 4.000370 -0.357357
v -1.060861 4.262771 -0.127225
v -1.131938 4.246087 -0.194207
v -0.696535 2.962030 -0.259490
v 1.908552 5.136823 0.411988
v 1.309167 4.371340 0.230459
v 1.240271 4.395065 0.237256
v 1.296846 4.367054 0.274311
v 1.274202 4.388653 0.207557
v 1.254266 4.381717 0.278512
v 1.889195 5.153833 0.395292
v 1.892085 5.146652 0.413630
v 1.914095 5.138821 0.393151
v 2.202736 3.490647 1.316838
v -0.567077 3.002432 -0.193845
v -0.708130 2.968954 -0.130349
v -0.613120 2.985389 -0.270022
v -0.618511 2.993145 -0.117583
v -0.131489 0.920288 0.121930
v -0.210690 0.287148 0.161205
v 0.220955 0.253461 -0.057947
v 0.143722 0.254830 0.177683
v 0.108231 0.267201 -0.251394
v -0.029639 0.912089 -0.222295
v -0.254778 1.540969 -0.244162
v -0.004102 0.826397 0.193272
v -0.057869 0.265397 0.260395
v -0.313773 1.541372 -0.007331
v -0.412556 1.187513 -0.012816
v -0.346680 1.181606 -0.255792
v -0.074960 0.291082 -0.264356
v 0.113526 0.809692 -0.198011
v 0.215079 1.681217 -0.134884
v -0.235793 1.744558 -0.130348
v 0.079128 1.718516 -0.026359
v 0.921068 3.072515 0.106556
v 0.799528 3.525758 0.096132
v 0.896189 3.508591 0.165339
v 0.857331 3.515374 0.049154
v 0.536983 2.622539 0.106387
v 0.504624 2.668329 -0.059296
v 0.440766 2.659769 0.105158
v 0.575037 2.622497 0.004597
v 0.417576 2.681475 0.002409
v 0.328827 1.651575 -0.032985
v 0.273387 1.655271 0.114085
v -0.426478 1.031337 -0.147463
v 0.112313 1.696311 0.129776
v 0.177687 0.778854 0.141162
v -0.058366 1.263781 -0.057540
v 0.237171 0.771711 -0.048060
vt 0.5797 0.8444
vt 0.5798 0.8399
vt 0.5815 0.8399
vt 0.5816 0.8444
vt 0.5913 0.8393
vt 0.5935 0.8390
vt 0.5936 0.8408
vt 0.5918 0.8408
vt 0.5834 0.8444
vt 0.5833 0.8399
vt 0.5851 0.8398
vt 0.5852 0.8444
vt 0.5857 0.8303
vt 0.5848 0.8216
vt 0.5860 0.8216
vt 0.5871 0.8299
vt 0.5465 0.7729
vt 0.5481 0.7882
vt 0.5471 0.7880
vt 0.5450 0.7729
vt 0.5828 0.8306
vt 0.5824 0.8214
vt 0.5836 0.8216
vt 0.5843 0.8307
vt 0.5799 0.8306
vt 0.5799 0.8213
vt 0.5812 0.8212
vt 0.5813 0.8306
vt 0.5859 0.8140
vt 0.5849 0.8144
vt 0.5839 0.8072
vt 0.5847 0.8067
vt 0.5798 0.8146
vt 0.5788 0.8144
vt 0.5788 0.8074
vt 0.5797 0.8079
vt 0.5839 0.8144
vt 0.5829 0.8145
vt 0.5822 0.8073
vt 0.5831 0.8073
vt 0.5777 0.8144
vt 0.5768 0.8144
vt 0.5772 0.8070
vt 0.5780 0.8072
vt 0.5819 0.8146
vt 0.5809 0.8148
vt 0.5805 0.8084
vt 0.5813 0.8079
vt 0.5779 0.8001
vt 0.5772 0.8001
vt 0.5772 0.7932
vt 0.5777 0.7931
vt 0.5807 0.7997
vt 0.5799 0.7993
vt 0.5795 0.7928
vt 0.5800 0.7929
vt 0.5835 0.7998
vt 0.5828 0.8001
vt 0.5818 0.7930
vt 0.5824 0.7929
vt 0.5597 0.8586
vt 0.5589 0.8583
vt 0.5588 0.8562
vt 0.5594 0.8563
vt 0.5890 0.8295
vt 0.5871 0.8213
vt 0.5550 0.7826
vt 0.5563 0.7828
vt 0.5550 0.7891
vt 0.5540 0.7889
vt 0.5770 0.8305
vt 0.5756 0.8303
vt 0.5763 0.8217
vt 0.5775 0.8215
vt 0.5762 0.8439
vt 0.5766 0.8395
vt 0.5781 0.8400
vt 0.5777 0.8444
vt 0.5727 0.8515
vt 0.5719 0.8557
vt 0.5700 0.8554
vt 0.5712 0.8512
vt 0.5630 0.7768
vt 0.5679 0.7643
vt 0.5708 0.7610
vt 0.5649 0.7752
vt 0.5493 0.7749
vt 0.5500 0.7883
vt 0.5490 0.7884
vt 0.5480 0.7729
vt 0.5521 0.7796
vt 0.5519 0.7886
vt 0.5509 0.7883
vt 0.5507 0.7768
vt 0.5873 0.8526
vt 0.5881 0.8565
vt 0.5861 0.8565
vt 0.5857 0.8528
vt 0.5866 0.8438
vt 0.5865 0.8486
vt 0.5853 0.8490
vt 0.5587 0.7806
vt 0.5613 0.7720
vt 0.5650 0.7676
vt 0.5610 0.7785
vt 0.5740 0.8423
vt 0.5735 0.8474
vt 0.5725 0.8470
vt 0.5732 0.8413
vt 0.5757 0.8522
vt 0.5759 0.8484
vt 0.5773 0.8489
vt 0.5773 0.8525
vt 0.5837 0.8526
vt 0.5835 0.8490
vt 0.5795 0.8525
vt 0.5795 0.8490
vt 0.5817 0.8490
vt 0.5817 0.8525
vt 0.5904 0.8518
vt 0.5890 0.8477
vt 0.5902 0.8472
vt 0.5919 0.8512
vt 0.5890 0.8423
vt 0.5877 0.8482
vt 0.5879 0.8432
vt 0.5506 0.8021
vt 0.5515 0.8022
vt 0.5499 0.8156
vt 0.5493 0.8156
vt 0.5539 0.8026
vt 0.5547 0.8029
vt 0.5524 0.8164
vt 0.5518 0.8160
vt 0.5490 0.8020
vt 0.5497 0.8020
vt 0.5486 0.8157
vt 0.5480 0.8157
vt 0.5523 0.8022
vt 0.5531 0.8023
vt 0.5512 0.8155
vt 0.5505 0.8155
vt 0.5585 0.8300
vt 0.5583 0.8302
vt 0.5580 0.8220
vt 0.5582 0.8219
vt 0.5779 0.7694
vt 0.5777 0.7694
vt 0.5774 0.7619
vt 0.5776 0.7619
vt 0.5788 0.7695
vt 0.5785 0.7695
vt 0.5779 0.7620
vt 0.5781 0.7620
vt 0.5703 0.8353
vt 0.5703 0.8352
vt 0.5704 0.8352
vt 0.5792 0.7694
vt 0.5790 0.7695
vt 0.5782 0.7620
vt 0.5783 0.7620
vt 0.5804 0.7849
vt 0.5799 0.7849
vt 0.5792 0.7769
vt 0.5795 0.7769
vt 0.5777 0.7850
vt 0.5773 0.7851
vt 0.5774 0.7769
vt 0.5777 0.7769
vt 0.5795 0.7849
vt 0.5791 0.7848
vt 0.5786 0.7768
vt 0.5789 0.7768
vt 0.5812 0.7848
vt 0.5808 0.7850
vt 0.5798 0.7769
vt 0.5801 0.7768
vt 0.5786 0.7849
vt 0.5782 0.7849
vt 0.5780 0.7769
vt 0.5783 0.7768
vt 0.5784 0.7694
vt 0.5782 0.7693
vt 0.5777 0.7619
vt 0.5778 0.7620
vt 0.5482 0.8020
vt 0.5556 0.8030
vt 0.5564 0.8031
vt 0.5538 0.8167
vt 0.5531 0.8166
vt 0.5515 0.8239
vt 0.5522 0.8241
vt 0.5505 0.8315
vt 0.5500 0.8313
vt 0.5482 0.8232
vt 0.5487 0.8232
vt 0.5476 0.8308
vt 0.5471 0.8307
vt 0.5687 0.7858
vt 0.5691 0.7855
vt 0.5691 0.7887
vt 0.5687 0.7887
vt 0.5493 0.8237
vt 0.5497 0.8242
vt 0.5486 0.8310
vt 0.5481 0.8309
vt 0.5470 0.8232
vt 0.5476 0.8232
vt 0.5466 0.8307
vt 0.5461 0.8306
vt 0.5472 0.8450
vt 0.5475 0.8451
vt 0.5446 0.8588
vt 0.5444 0.8587
vt 0.5456 0.8306
vt 0.5442 0.8445
vt 0.5465 0.8448
vt 0.5468 0.8449
vt 0.5441 0.8586
vt 0.5439 0.8585
vt 0.5458 0.8446
vt 0.5461 0.8447
vt 0.5437 0.8584
vt 0.5434 0.8583
vt 0.5450 0.8446
vt 0.5454 0.8446
vt 0.5432 0.8583
vt 0.5430 0.8583
vt 0.5646 0.8204
vt 0.5646 0.8205
vt 0.5645 0.8205
vt 0.5645 0.8204
vt 0.5637 0.7948
vt 0.5637 0.7947
vt 0.5639 0.7946
vt 0.5821 0.8001
vt 0.5814 0.8001
vt 0.5806 0.7929
vt 0.5812 0.7930
vt 0.5580 0.8302
vt 0.5577 0.8301
vt 0.5577 0.8218
vt 0.5579 0.8219
vt 0.5640 0.7945
vt 0.5640 0.7946
vt 0.5577 0.8472
vt 0.5571 0.8471
vt 0.5568 0.8381
vt 0.5573 0.8383
vt 0.5569 0.8299
vt 0.5567 0.8299
vt 0.5572 0.8218
vt 0.5574 0.8217
vt 0.5588 0.8474
vt 0.5582 0.8473
vt 0.5577 0.8384
vt 0.5581 0.8384
vt 0.5792 0.7997
vt 0.5785 0.8002
vt 0.5783 0.7929
vt 0.5789 0.7929
vt 0.5574 0.8300
vt 0.5572 0.8299
vt 0.5575 0.8217
vt 0.5576 0.8217
vt 0.5567 0.8471
vt 0.5562 0.8471
vt 0.5561 0.8380
vt 0.5565 0.8381
vt 0.5567 0.8586
vt 0.5561 0.8585
vt 0.5564 0.8561
vt 0.5569 0.8561
vt 0.5597 0.8472
vt 0.5593 0.8474
vt 0.5586 0.8384
vt 0.5589 0.8382
vt 0.5612 0.8586
vt 0.5605 0.8590
vt 0.5600 0.8564
vt 0.5605 0.8562
vt 0.5581 0.8585
vt 0.5574 0.8588
vt 0.5574 0.8561
vt 0.5581 0.8562
vt 0.5693 0.7952
vt 0.5698 0.7953
vt 0.5694 0.8016
vt 0.5690 0.8016
vt 0.5503 0.8240
vt 0.5509 0.8238
vt 0.5495 0.8312
vt 0.5490 0.8311
vt 0.5697 0.7859
vt 0.5703 0.7862
vt 0.5701 0.7890
vt 0.5696 0.7888
vt 0.5685 0.7951
vt 0.5689 0.7951
vt 0.5686 0.8015
vt 0.5683 0.8015
vt 0.5712 0.7861
vt 0.5720 0.7860
vt 0.5714 0.7891
vt 0.5707 0.7890
vt 0.5725 0.7862
vt 0.5731 0.7864
vt 0.5722 0.7891
vt 0.5718 0.7891
vt 0.5702 0.8088
vt 0.5704 0.8089
vt 0.5700 0.8164
vt 0.5699 0.8164
vt 0.5692 0.8091
vt 0.5695 0.8091
vt 0.5695 0.8166
vt 0.5694 0.8166
vt 0.5712 0.7952
vt 0.5715 0.7952
vt 0.5708 0.8014
vt 0.5705 0.8013
vt 0.5703 0.7952
vt 0.5709 0.7951
vt 0.5703 0.8012
vt 0.5698 0.8014
vt 0.5629 0.8028
vt 0.5630 0.8027
vt 0.5631 0.8029
vt 0.5632 0.8030
vt 0.5631 0.8030
vt 0.5698 0.8089
vt 0.5701 0.8088
vt 0.5698 0.8164
vt 0.5697 0.8165
vt 0.5688 0.8089
vt 0.5689 0.8090
vt 0.5693 0.8165
vt 0.5692 0.8164
vt 0.5705 0.8353
vt 0.5704 0.8353
vt 0.5705 0.8352
vt 0.5705 0.8351
vt 0.5685 0.8088
vt 0.5691 0.8163
vt 0.5680 0.8014
vt 0.5629 0.8029
vt 0.5629 0.8030
vt 0.5631 0.8029
vt 0.5631 0.8027
vt 0.5727 0.7830
vt 0.5733 0.7833
vt 0.5739 0.7837
vt 0.5704 0.7834
vt 0.5716 0.7832
vt 0.5682 0.7951
vt 0.5683 0.7888
vt 0.5692 0.7824
vt 0.5698 0.7829
vt 0.5509 0.8175
vt 0.5516 0.8169
vt 0.5590 0.8603
vt 0.5582 0.8609
vt 0.5574 0.8615
vt 0.5618 0.8582
vt 0.5610 0.8559
vt 0.5626 0.8605
vt 0.5618 0.8610
vt 0.5610 0.8615
vt 0.5601 0.8469
vt 0.5592 0.8379
vt 0.5566 0.8612
vt 0.5558 0.8609
vt 0.5804 0.8057
vt 0.5796 0.8066
vt 0.5639 0.7948
vt 0.5640 0.7948
vt 0.5639 0.7946
vt 0.5637 0.7946
vt 0.5646 0.8203
vt 0.5646 0.8203
vt 0.5647 0.8203
vt 0.5648 0.8204
vt 0.5648 0.8205
vt 0.5447 0.8446
vt 0.5428 0.8584
vt 0.5465 0.8232
vt 0.5473 0.8157
vt 0.5504 0.8166
vt 0.5682 0.7860
vt 0.5680 0.7831
vt 0.5686 0.7828
vt 0.5571 0.7893
vt 0.5581 0.7894
vt 0.5590 0.7895
vt 0.5472 0.8018
vt 0.5774 0.7694
vt 0.5817 0.7847
vt 0.5804 0.7767
vt 0.5829 0.7927
vt 0.5794 0.7693
vt 0.5784 0.7619
vt 0.5704 0.8351
vt 0.5703 0.8351
vt 0.5588 0.8298
vt 0.5583 0.8218
vt 0.5530 0.7888
vt 0.5561 0.7892
vt 0.5890 0.8369
vt 0.5882 0.8382
vt 0.5898 0.8356
vt 0.5900 0.8414
vt 0.5918 0.8559
vt 0.5936 0.8553
vt 0.5900 0.8565
vt 0.5889 0.8523
vt 0.5794 0.8561
vt 0.5816 0.8560
vt 0.5772 0.8561
vt 0.5839 0.8563
vt 0.5755 0.8561
vt 0.5737 0.8560
vt 0.5741 0.8519
vt 0.5745 0.8478
vt 0.5744 0.8372
vt 0.5738 0.8356
vt 0.5750 0.8389
vt 0.5748 0.8434
vt 0.5577 0.7764
vt 0.5867 0.8390
vt 0.5523 0.7707
vt 0.5505 0.7654
vt 0.5542 0.7760
vt 0.5536 0.7824
vt 0.5487 0.7614
vt 0.5469 0.7575
vt 0.5784 0.8306
vt 0.5787 0.8213
vt 0.5559 0.7762
vt 0.5908 0.8291
vt 0.5882 0.8209
vt 0.5935 0.8373
vt 0.5908 0.8377
vt 0.5600 0.8609
vt 0.5842 0.7995
vt 0.5855 0.8063
vt 0.5813 0.8065
vt 0.5868 0.8136
vt 0.5448 0.7577
vt 0.5428 0.7579
vt 0.5890 0.8396
vt 0.5899 0.8409
vn 0.9677 -0.0820 -0.2383
vn 0.9638 -0.0939 -0.2497
vn 0.9358 -0.0871 0.3415
vn 0.9446 -0.0781 0.3188
vn 0.5394 0.8359 0.1017
vn 0.4154 0.4051 -0.8145
vn 0.7938 0.2751 -0.5424
vn 0.8873 0.3772 0.2655
vn 0.6276 -0.0287 0.7780
vn 0.5891 -0.0374 0.8072
vn 0.1824 0.0295 0.9828
vn 0.2659 0.0311 0.9635
vn -0.4271 0.1497 0.8917
vn -0.5232 0.2066 0.8268
vn -0.9004 0.3343 0.2785
vn -0.9141 0.2432 0.3245
vn -0.9380 -0.1737 -0.2998
vn -0.9568 -0.1550 -0.2459
vn -0.7354 -0.1386 -0.6633
vn -0.6334 -0.1361 -0.7618
vn 0.5686 -0.0539 0.8209
vn 0.5441 -0.1507 0.8254
vn -0.0000 0.0306 0.9995
vn 0.1023 0.0394 0.9940
vn 0.9598 -0.1149 -0.2561
vn 0.9327 -0.2399 -0.2692
vn 0.9057 -0.2447 0.3462
vn 0.9301 -0.1101 0.3503
vn -0.8464 0.4418 -0.2972
vn -0.8612 0.4172 0.2902
vn -0.8725 0.3785 0.3090
vn -0.8636 0.4201 -0.2787
vn 0.8682 -0.3824 -0.3162
vn 0.5543 -0.1767 -0.8133
vn 0.4354 -0.0866 -0.8961
vn 0.6934 -0.5085 -0.5105
vn -0.5467 0.2399 0.8022
vn -0.0327 -0.0192 0.9993
vn -0.1932 -0.0156 0.9810
vn -0.5416 0.1871 0.8196
vn 0.0548 0.0778 -0.9955
vn -0.5093 0.3250 -0.7969
vn -0.5137 0.3234 -0.7947
vn 0.0659 0.0987 -0.9929
vn 0.4976 -0.2776 0.8218
vn 0.8493 -0.4192 0.3208
vn 0.6456 -0.7270 0.2340
vn 0.2669 -0.4355 0.8597
vn 0.0196 0.1434 -0.9895
vn -0.5542 0.3333 -0.7628
vn -0.5638 0.4094 -0.7173
vn -0.0309 0.1945 -0.9804
vn 0.5713 -0.2490 0.7820
vn 0.9111 -0.3140 0.2669
vn 0.8766 -0.4332 0.2095
vn 0.5796 -0.3598 0.7312
vn -0.8875 0.3894 -0.2465
vn -0.8838 0.3200 0.3415
vn -0.8456 0.3677 0.3870
vn -0.8644 0.4641 -0.1936
vn 0.5008 0.5423 -0.6746
vn 0.2695 0.9585 0.0929
vn -0.2188 0.9708 -0.0987
vn 0.2692 0.6872 -0.6748
vn -0.9056 0.2134 -0.3666
vn -0.8813 0.3259 -0.3421
vn 0.9131 0.3394 0.2259
vn 0.8207 0.2693 -0.5039
vn 0.8471 0.2206 -0.4834
vn 0.9514 0.2695 0.1490
vn 0.0981 0.0480 -0.9940
vn -0.5298 0.1577 -0.8333
vn -0.5388 0.2411 -0.8072
vn 0.0498 0.0642 -0.9967
vn 0.3748 0.0622 -0.9250
vn 0.2160 0.0600 -0.9746
vn 0.6981 -0.0372 -0.7151
vn 0.7520 -0.0237 -0.6588
vn -0.2424 0.0556 -0.9686
vn -0.2622 0.0558 -0.9634
vn -0.5331 -0.0604 -0.8439
vn -0.1907 -0.0118 -0.9816
vn -0.1795 -0.0598 -0.9819
vn -0.6108 -0.0278 0.7913
vn -0.6378 -0.0527 0.7684
vn -0.9500 -0.1322 0.2827
vn -0.9467 -0.1240 0.2971
vn 0.0916 0.1492 0.9845
vn 0.2591 0.1330 0.9566
vn -0.2051 0.0401 0.9779
vn -0.2871 0.0534 0.9564
vn -0.0706 0.1648 0.9838
vn -0.1256 0.1743 0.9766
vn 0.3319 0.1206 0.9356
vn 0.3598 0.1141 0.9260
vn -0.1320 0.0896 0.9872
vn -0.0484 0.1219 0.9914
vn 0.3382 0.0770 0.9379
vn 0.3432 0.0673 -0.9369
vn 0.2615 0.0628 -0.9632
vn 0.0404 0.0179 -0.9990
vn 0.0817 -0.0106 -0.9966
vn 0.1205 0.0982 -0.9878
vn -0.0813 0.0710 -0.9942
vn 0.5074 0.0980 -0.8561
vn 0.4737 0.0785 -0.8772
vn 0.8043 0.0350 -0.5932
vn 0.8437 0.0835 -0.5303
vn 0.7076 0.0438 0.7052
vn 0.6754 0.0112 0.7373
vn 0.9913 0.0374 -0.1260
vn 0.9799 -0.0200 -0.1984
vn 0.9521 -0.0290 0.3046
vn 0.9472 0.0141 0.3202
vn -0.7662 0.1420 0.6267
vn -0.6350 0.1236 0.7626
vn -0.4906 0.0741 0.8682
vn -0.6943 0.0283 0.7191
vn -0.5849 0.1516 0.7968
vn -0.4295 0.1469 0.8911
vn -0.4829 0.1303 0.8659
vn 0.3785 0.1186 0.9180
vn 0.7589 0.1852 0.6244
vn 0.6325 0.2015 0.7479
vn 0.4235 0.1569 0.8922
vn 0.3569 0.0648 -0.9319
vn -0.1641 -0.0274 -0.9861
vn -0.4168 -0.1627 -0.8943
vn 0.1567 -0.1002 -0.9826
vn -0.6712 -0.1012 0.7343
vn -0.1449 0.0150 0.9893
vn -0.0859 -0.0222 0.9961
vn -0.5539 -0.2400 0.7972
vn 0.9748 0.2028 0.0932
vn 0.8243 0.1563 -0.5441
vn 0.7581 -0.1048 -0.6437
vn 0.9856 0.0509 0.1611
vn 0.5964 -0.7426 -0.3049
vn 0.8417 -0.0189 -0.5396
vn 0.8609 -0.0216 -0.5084
vn 0.8448 -0.3397 -0.4135
vn 0.6511 -0.5232 -0.5498
vn 0.3571 -0.1098 -0.9276
vn 0.0541 0.2174 -0.9746
vn 0.6460 -0.4466 -0.6191
vn -0.4237 0.2770 0.8624
vn 0.0031 -0.1819 0.9833
vn 0.0374 -0.2134 0.9762
vn -0.4883 0.4931 0.7200
vn -0.5445 0.7782 -0.3128
vn 0.7281 0.6704 0.1428
vn -0.5879 0.7304 -0.3476
vn -0.6700 0.6384 0.3789
vn -0.6516 0.6624 0.3697
vn -0.4845 0.1775 0.8566
vn 0.0278 -0.1619 0.9864
vn -0.0111 -0.1520 0.9883
vn -0.4669 0.2420 0.8506
vn -0.0001 0.2038 -0.9790
vn -0.5101 0.4780 -0.7151
vn -0.4407 0.5316 -0.7233
vn 0.0253 0.2138 -0.9765
vn 0.5391 -0.4413 0.7174
vn 0.8264 -0.5293 0.1920
vn 0.7523 -0.6309 0.1897
vn 0.4719 -0.5039 0.7234
vn -0.8072 0.5628 -0.1781
vn -0.7940 0.4505 0.4081
vn -0.7375 0.5515 0.3897
vn -0.7236 0.6611 -0.1984
vn 0.8162 -0.4164 -0.4005
vn 0.4995 -0.1301 -0.8565
vn 0.4536 -0.1553 -0.8776
vn 0.7464 -0.4919 -0.4482
vn 0.4501 -0.5810 0.6781
vn 0.6923 -0.7083 0.1382
vn 0.6854 -0.7214 0.0989
vn 0.6391 -0.6689 0.3797
vn -0.9615 -0.1462 0.2327
vn -0.6569 -0.1203 -0.7443
vn -0.8660 -0.1432 -0.4792
vn -0.9750 -0.2191 0.0364
vn -0.6919 -0.2460 -0.6788
vn -0.7614 -0.3599 -0.5393
vn -0.8622 -0.4435 0.2450
vn -0.8768 -0.3711 0.3058
vn -0.8636 -0.2950 -0.4090
vn 0.4257 0.2045 0.8815
vn 0.6912 0.4013 0.6010
vn 0.8368 0.3422 0.4275
vn 0.4046 0.1484 0.9024
vn 0.0550 -0.4436 -0.8945
vn -0.4111 -0.1662 -0.8963
vn -0.4812 -0.2639 -0.8359
vn 0.1015 -0.6138 -0.7829
vn 0.8129 0.5717 -0.1112
vn 0.5375 0.4362 -0.7217
vn 0.5979 0.2726 -0.7538
vn 0.8948 0.3748 -0.2428
vn -0.5836 -0.3288 0.7425
vn -0.1621 -0.1168 0.9798
vn -0.3011 -0.1846 0.9355
vn -0.6608 -0.1745 0.7300
vn -0.9451 -0.1665 -0.2811
vn -0.9368 -0.1955 0.2901
vn -0.7016 -0.1165 0.7030
vn -0.9875 -0.1109 -0.1120
vn 0.1099 0.0643 -0.9919
vn -0.5000 -0.0672 -0.8634
vn -0.4993 -0.0576 -0.8645
vn 0.0996 0.0991 -0.9901
vn 0.9504 0.2294 -0.2099
vn 0.6484 0.1766 -0.7406
vn 0.6613 0.1650 -0.7317
vn 0.9644 0.2631 -0.0269
vn 0.2532 0.0625 0.9654
vn 0.8566 0.2017 0.4749
vn 0.8323 0.1794 0.5245
vn 0.0160 0.0555 0.9983
vn -0.1773 0.9841 0.0128
vn 0.1048 -0.9943 0.0174
vn 0.5359 0.0423 0.8432
vn -0.5392 0.1306 0.8320
vn -0.0066 -0.0705 0.9975
vn 0.0309 -0.1266 0.9915
vn -0.5122 0.1445 0.8466
vn 0.6222 0.6360 -0.4565
vn -0.0066 0.9985 -0.0549
vn -0.0245 0.9996 0.0117
vn 0.7582 0.5052 -0.4123
vn -0.7533 0.3249 0.5718
vn -0.6580 0.5851 0.4740
vn -0.5956 -0.1005 0.7970
vn -0.7229 -0.0540 0.6888
vn -0.6485 0.6368 0.4171
vn -0.4495 -0.8054 0.3864
vn 0.0975 -0.9941 0.0469
vn -0.5686 -0.6465 0.5086
vn 0.2872 0.6460 -0.7073
vn -0.2800 0.9430 -0.1798
vn -0.1042 0.9800 -0.1693
vn 0.4758 0.6301 -0.6137
vn 0.9083 -0.2327 -0.3476
vn 0.5440 -0.0540 -0.8373
vn 0.5124 -0.0761 -0.8554
vn 0.8653 -0.3281 -0.3791
vn -0.6695 0.6137 0.4186
vn -0.8075 -0.1192 0.5777
vn -0.8164 -0.1657 0.5533
vn -0.1461 -0.7599 0.6334
vn 0.3352 -0.9302 0.1495
vn 0.1877 -0.9734 0.1313
vn -0.3319 -0.7760 0.5364
vn -0.0793 -0.6893 0.7202
vn 0.3018 -0.9516 0.0581
vn 0.3150 -0.9474 0.0567
vn -0.1046 -0.7836 0.6124
vn 0.6468 -0.6501 -0.3987
vn 0.6366 0.0077 -0.7711
vn 0.7485 -0.0027 -0.6631
vn 0.6298 -0.7046 -0.3268
vn 0.4795 -0.6407 -0.5997
vn 0.5136 -0.0843 -0.8539
vn 0.5705 -0.0101 -0.8212
vn 0.5602 -0.6566 -0.5051
vn -0.1912 0.5719 0.7978
vn -0.2603 -0.0738 0.9627
vn -0.4652 -0.1397 0.8741
vn -0.5367 0.6212 0.5710
vn -0.9280 0.1632 -0.3348
vn -0.6495 0.6152 0.4469
vn -0.6590 0.4578 0.5968
vn -0.9838 -0.0468 -0.1730
vn 0.0471 0.1594 -0.9861
vn -0.4419 -0.1570 -0.8832
vn -0.5030 -0.1332 -0.8540
vn 0.0903 0.1030 -0.9906
vn -0.6746 0.2794 -0.6833
vn -0.4765 0.8667 0.1477
vn -0.6211 0.6913 0.3692
vn -0.8598 0.2551 -0.4423
vn 0.1075 -0.6087 -0.7861
vn -0.5402 -0.3201 -0.7782
vn -0.5430 -0.4247 -0.7245
vn 0.1492 -0.5413 -0.8275
vn 0.1490 0.5994 0.7864
vn 0.6221 0.1558 0.7673
vn 0.7117 0.1074 0.6942
vn 0.0623 0.5868 0.8073
vn 0.9218 -0.3420 0.1822
vn 0.6338 -0.5369 -0.5568
vn 0.5672 -0.6756 -0.4711
vn 0.8695 -0.4928 0.0352
vn 0.9452 0.0360 -0.3246
vn 0.6675 -0.2574 -0.6987
vn 0.6592 -0.2198 -0.7191
vn 0.9415 0.3117 -0.1283
vn -0.9775 -0.2107 0.0080
vn -0.6829 0.2844 0.6728
vn -0.6840 0.2658 0.6794
vn -0.9435 -0.2808 -0.1758
vn 0.9094 -0.4127 -0.0508
vn 0.5864 -0.6191 -0.5224
vn 0.6578 -0.4345 -0.6153
vn 0.9651 -0.1855 -0.1848
vn 0.0959 0.5702 0.8159
vn 0.7614 0.1554 0.6294
vn 0.8195 0.2875 0.4957
vn 0.1272 0.5658 0.8147
vn -0.1523 -0.4590 -0.8753
vn -0.2368 0.8255 -0.5123
vn 0.3713 0.6309 0.6812
vn 0.0909 0.5587 0.8244
vn 0.7986 0.4562 0.3926
vn 0.7923 0.4882 0.3661
vn 0.1562 -0.4787 -0.8640
vn -0.5757 -0.5055 -0.6427
vn -0.5945 -0.5214 -0.6121
vn 0.2161 0.8046 -0.5531
vn 0.5269 0.6340 0.5661
vn -0.2806 0.1741 -0.9439
vn 0.9352 0.1653 0.3131
vn 0.3046 0.1150 0.9455
vn 0.8184 0.0833 -0.5686
vn -0.2847 -0.0535 0.9571
vn 0.0161 -0.0029 -0.9999
vn -0.3847 -0.0781 -0.9197
vn -0.3212 0.5272 -0.7867
vn 0.7179 0.2242 0.6590
vn 0.4230 0.0925 -0.9014
vn -0.3939 0.5051 0.7679
vn -0.6909 0.3438 0.6360
vn 0.4660 0.3295 0.8212
vn -0.2646 0.1628 0.9505
vn -0.8074 0.1603 0.5678
vn -0.9345 -0.0204 0.3555
vn -0.5949 0.2031 0.7778
vn -0.5168 0.1918 0.8343
vn 0.9951 0.0451 -0.0882
vn 0.9399 0.0166 0.3411
vn 0.8583 0.0885 -0.5055
vn 0.7068 0.0468 0.7059
vn 0.5143 0.0963 -0.8522
vn 0.0519 0.0857 -0.9950
vn 0.0752 0.0940 -0.9927
vn 0.1205 0.0961 -0.9881
vn -0.0610 0.3197 -0.9456
vn 0.1356 0.1081 -0.9848
vn -0.2907 0.1157 0.9498
vn 0.5917 0.2794 0.7562
vn 0.6535 -0.0510 -0.7552
vn 0.5999 -0.1118 -0.7922
vn -0.7382 0.6063 -0.2957
vn -0.9295 -0.1778 -0.3231
usemtl None
s 1
f 354/1/1 257/2/2 3/3/3 155/4/4
f 353/5/5 219/6/6 7/7/7 140/8/8
f 352/9/9 248/10/10 9/11/11 258/12/12
f 351/13/13 243/14/14 12/15/15 132/16/16
f 350/17/17 187/18/18 15/19/19 102/20/20
f 349/21/21 147/22/22 11/23/23 173/24/24
f 348/25/25 172/26/26 17/27/27 204/28/28
f 347/29/29 93/30/30 20/31/31 242/32/32
f 346/33/33 126/34/34 22/35/35 207/36/36
f 345/37/37 92/38/38 24/39/39 152/40/40
f 344/41/41 231/42/42 21/43/43 112/44/44
f 343/45/45 227/46/46 23/47/47 125/48/48
f 342/49/49 201/50/50 25/51/51 209/52/52
f 341/53/53 183/54/54 28/55/55 268/56/56
f 340/57/57 264/58/58 30/59/59 179/60/60
f 339/61/61 263/62/62 31/63/63 226/64/64
f 338/65/65 132/16/16 12/15/15 180/66/66
f 337/67/67 124/68/68 33/69/69 162/70/70
f 336/71/71 101/72/72 19/73/73 247/74/74
f 335/75/75 143/76/76 2/77/77 192/78/78
f 334/79/79 161/80/80 16/81/81 262/82/82
f 333/83/83 262/84/82 16/85/81 102/86/20
f 332/87/84 171/88/85 14/89/86 96/90/87
f 331/91/88 105/92/89 40/93/90 116/94/91
f 330/95/92 131/96/93 43/97/94 123/98/95
f 329/99/96 107/100/97 10/101/98 258/12/12
f 328/102/99 160/103/100 37/104/101 108/105/102
f 327/106/103 221/107/104 37/108/101 160/109/100
f 326/110/105 232/111/106 1/112/107 256/113/108
f 325/114/109 272/115/110 10/101/98 123/98/95
f 324/116/111 174/117/112 4/118/113 159/119/114
f 323/120/115 206/121/116 39/122/117 271/123/118
f 322/124/119 206/121/116 41/125/120 170/126/121
f 321/127/122 261/128/123 46/129/124 149/130/125
f 320/131/126 95/132/127 48/133/128 182/134/129
f 319/135/130 215/136/131 47/137/132 190/138/133
f 318/139/134 142/140/135 49/141/136 151/142/137
f 317/143/138 100/144/139 53/145/140 185/146/141
f 316/147/142 269/148/143 57/149/144 255/150/145
f 315/151/146 138/152/147 61/153/148 270/154/149
f 57/155/144 235/156/150 137/157/151
f 314/158/152 218/159/153 62/160/154 235/161/150
f 313/162/155 251/163/156 60/164/157 238/165/158
f 312/166/159 111/167/160 63/168/161 267/169/162
f 311/170/163 129/171/164 55/172/165 176/173/166
f 310/174/167 158/175/168 59/176/169 134/177/170
f 309/178/171 212/179/172 56/180/173 196/181/174
f 308/182/175 139/183/176 58/184/177 148/185/178
f 56/180/173 267/169/162 269/148/143
f 14/89/86 156/186/179 187/18/18
f 307/187/180 166/188/181 50/189/182 195/190/183
f 306/191/184 115/192/185 64/193/186 200/194/187
f 305/195/188 199/196/189 66/197/190 241/198/191
f 304/199/192 104/200/193 68/201/194 188/202/195
f 303/203/196 154/204/197 71/205/198 184/206/199
f 302/207/200 98/208/201 67/209/202 211/210/203
f 301/211/204 144/212/205 72/213/206 127/214/207
f 64/215/186 211/210/203 144/216/205
f 300/217/208 175/218/209 73/219/210 230/220/211
f 299/221/212 240/222/213 74/223/214 136/224/215
f 298/225/216 193/226/217 75/227/218 260/228/219
f 297/229/220 260/230/219 75/231/218 136/232/215
f 54/233/221 185/234/141 229/235/222
f 296/236/223 216/237/224 29/238/225 224/239/226
f 295/240/227 146/241/228 76/242/229 239/243/230
f 76/244/229 223/245/231 229/235/222
f 294/246/232 237/247/233 80/248/234 220/249/235
f 293/250/236 186/251/237 54/252/221 250/253/238
f 292/254/239 97/255/240 77/256/241 103/257/242
f 291/258/243 120/259/244 26/260/245 202/261/246
f 290/262/247 236/263/248 78/264/249 223/265/231
f 289/266/250 114/267/251 51/268/252 217/269/253
f 288/270/254 178/271/255 81/272/256 133/273/257
f 287/274/258 181/275/259 52/276/260 213/277/261
f 286/278/262 117/279/263 32/280/264 119/281/265
f 285/282/266 150/283/267 79/284/268 94/285/269
f 284/286/270 225/287/271 83/288/272 266/289/273
f 283/290/274 205/291/275 65/292/276 208/293/277
f 282/294/278 244/295/279 82/296/280 234/297/281
f 281/298/282 165/299/283 84/300/284 169/301/285
f 280/302/286 168/303/287 86/304/288 254/305/289
f 279/306/290 189/307/291 69/308/292 167/309/293
f 278/310/294 233/311/295 88/312/296 249/313/297
f 277/314/298 259/315/299 90/316/300 253/317/301
f 276/318/302 228/319/303 85/320/304 164/321/305
f 275/322/306 141/323/307 87/324/308 163/325/309
f 88/326/296 210/327/310 106/328/311
f 90/329/300 157/330/312 106/328/311
f 274/331/313 153/332/314 89/333/315 157/334/312
f 273/335/316 109/336/317 91/337/318 210/338/310
f 58/339/177 255/340/145 148/341/178
f 148/341/178 137/157/151 61/342/148
f 148/341/178 255/340/145 137/157/151
f 255/340/145 57/155/144 137/157/151
f 233/343/295 273/335/316 210/338/310 88/344/296
f 85/345/304 169/301/285 273/335/316 233/343/295
f 169/301/285 84/300/284 109/336/317 273/335/316
f 259/315/299 274/331/313 157/334/312 90/316/300
f 83/288/272 163/325/309 274/331/313 259/315/299
f 163/325/309 87/324/308 153/332/314 274/331/313
f 106/328/311 249/346/297 88/326/296
f 106/328/311 157/330/312 249/346/297
f 157/330/312 89/347/315 249/346/297
f 106/328/311 253/348/301 90/329/300
f 106/328/311 210/327/310 253/348/301
f 210/327/310 91/349/318 253/348/301
f 225/287/271 275/322/306 163/325/309 83/288/272
f 82/296/280 254/305/289 275/322/306 225/287/271
f 254/305/289 86/304/288 141/323/307 275/322/306
f 141/323/307 276/318/302 164/321/305 87/324/308
f 86/304/288 167/309/293 276/318/302 141/323/307
f 167/309/293 69/308/292 228/319/303 276/318/302
f 109/336/317 277/314/298 253/317/301 91/337/318
f 84/300/284 266/289/273 277/314/298 109/336/317
f 266/289/273 83/288/272 259/315/299 277/314/298
f 153/332/314 278/310/294 249/313/297 89/333/315
f 87/324/308 164/321/305 278/310/294 153/332/314
f 164/321/305 85/320/304 233/311/295 278/310/294
f 168/303/287 279/306/290 167/309/293 86/304/288
f 46/350/124 151/351/137 279/306/290 168/303/287
f 151/351/137 49/352/136 189/307/291 279/306/290
f 244/295/279 280/302/286 254/305/289 82/296/280
f 70/353/319 145/354/320 280/302/286 244/295/279
f 145/354/320 46/350/124 168/303/287 280/302/286
f 228/355/303 281/298/282 169/301/285 85/345/304
f 69/356/292 188/202/195 281/298/282 228/355/303
f 188/202/195 68/201/194 165/299/283 281/298/282
f 104/200/193 282/294/278 234/297/281 68/201/194
f 48/357/128 118/358/321 282/294/278 104/200/193
f 118/358/321 70/353/319 244/295/279 282/294/278
f 154/204/197 283/290/274 208/293/277 71/205/198
f 70/359/319 118/360/321 283/290/274 154/204/197
f 118/360/321 48/133/128 205/291/275 283/290/274
f 165/299/283 284/286/270 266/289/273 84/300/284
f 68/201/194 234/297/281 284/286/270 165/299/283
f 234/297/281 82/296/280 225/287/271 284/286/270
f 263/62/62 285/282/266 94/285/269 31/63/63
f 27/361/322 203/362/323 285/282/266 263/62/62
f 203/362/323 24/363/39 150/283/267 285/282/266
f 178/364/255 286/278/262 119/281/265 81/365/256
f 23/366/47 207/367/36 286/278/262 178/364/255
f 207/367/36 22/368/35 117/279/263 286/278/262
f 114/369/251 287/274/258 213/277/261 51/370/252
f 81/365/256 119/281/265 287/274/258 114/369/251
f 119/281/265 32/280/264 181/275/259 287/274/258
f 150/283/267 288/270/254 133/273/257 79/284/268
f 24/363/39 125/371/48 288/270/254 150/283/267
f 125/371/48 23/372/47 178/271/255 288/270/254
f 237/247/233 289/266/250 217/269/253 80/248/234
f 79/284/268 133/273/257 289/266/250 237/247/233
f 133/273/257 81/272/256 114/267/251 289/266/250
f 146/241/228 290/262/247 223/265/231 76/242/229
f 77/256/241 220/249/235 290/262/247 146/241/228
f 220/249/235 80/248/234 236/263/248 290/262/247
f 183/54/54 291/258/243 202/261/246 28/55/55
f 27/373/322 222/374/324 291/258/243 183/54/54
f 222/374/324 22/35/35 120/259/244 291/258/243
f 181/275/259 292/254/239 103/257/242 52/276/260
f 32/280/264 226/64/64 292/254/239 181/275/259
f 226/64/64 31/63/63 97/255/240 292/254/239
f 236/263/248 293/250/236 250/253/238 78/264/249
f 80/248/234 217/269/253 293/250/236 236/263/248
f 217/269/253 51/268/252 186/251/237 293/250/236
f 97/255/240 294/246/232 220/249/235 77/256/241
f 31/63/63 94/285/269 294/246/232 97/255/240
f 94/285/269 79/284/268 237/247/233 294/246/232
f 229/235/222 250/375/238 54/233/221
f 229/235/222 223/245/231 250/375/238
f 223/245/231 78/376/249 250/375/238
f 100/144/139 295/240/227 239/243/230 53/145/140
f 52/276/260 103/257/242 295/240/227 100/144/139
f 103/257/242 77/256/241 146/241/228 295/240/227
f 264/58/58 296/236/223 224/239/226 30/59/59
f 20/31/31 152/40/40 296/236/223 264/58/58
f 152/40/40 24/39/39 216/237/224 296/236/223
f 229/235/222 239/377/230 76/244/229
f 229/235/222 185/234/141 239/377/230
f 185/234/141 53/378/140 239/377/230
f 230/379/211 297/229/220 136/232/215 74/380/214
f 73/381/210 127/382/207 297/229/220 230/379/211
f 127/382/207 72/383/206 260/230/219 297/229/220
f 99/384/325 298/225/216 260/228/219 72/385/206
f 67/209/202 241/198/191 298/225/216 99/384/325
f 241/198/191 66/197/190 193/226/217 298/225/216
f 193/226/217 299/221/212 136/224/215 75/227/218
f 66/197/190 184/206/199 299/221/212 193/226/217
f 184/206/199 71/205/198 240/222/213 299/221/212
f 240/222/213 300/217/208 230/220/211 74/223/214
f 71/205/198 208/293/277 300/217/208 240/222/213
f 208/293/277 65/292/276 175/218/209 300/217/208
f 144/216/205 99/384/325 72/385/206
f 144/216/205 211/210/203 99/384/325
f 211/210/203 67/209/202 99/384/325
f 175/218/209 301/211/204 127/214/207 73/219/210
f 65/292/276 200/194/187 301/211/204 175/218/209
f 200/194/187 64/193/186 144/212/205 301/211/204
f 115/386/185 302/207/200 211/210/203 64/215/186
f 50/387/182 190/138/133 302/207/200 115/386/185
f 190/138/133 47/137/132 98/208/201 302/207/200
f 199/196/189 303/203/196 184/206/199 66/197/190
f 46/129/124 145/388/320 303/203/196 199/196/189
f 145/388/320 70/359/319 154/204/197 303/203/196
f 189/389/291 304/199/192 188/202/195 69/356/292
f 49/390/136 182/391/129 304/199/192 189/389/291
f 182/391/129 48/357/128 104/200/193 304/199/192
f 98/208/201 305/195/188 241/198/191 67/209/202
f 47/137/132 149/130/125 305/195/188 98/208/201
f 149/130/125 46/129/124 199/196/189 305/195/188
f 205/291/275 306/191/184 200/194/187 65/292/276
f 48/133/128 195/190/183 306/191/184 205/291/275
f 195/190/183 50/189/182 115/192/185 306/191/184
f 95/132/127 307/187/180 195/190/183 48/133/128
f 38/392/326 177/393/327 307/187/180 95/132/127
f 177/393/327 15/394/19 166/188/181 307/187/180
f 187/18/18 166/395/181 15/19/19
f 187/18/18 156/186/179 166/395/181
f 156/186/179 50/387/182 166/395/181
f 269/148/143 121/396/328 57/149/144
f 269/148/143 267/169/162 121/396/328
f 267/169/162 63/168/161 121/396/328
f 138/152/147 308/182/175 148/185/178 61/153/148
f 60/164/157 176/173/166 308/182/175 138/152/147
f 176/173/166 55/172/165 139/183/176 308/182/175
f 129/171/164 309/178/171 196/181/174 55/172/165
f 28/55/55 202/261/246 309/178/171 129/171/164
f 202/261/246 26/260/245 212/179/172 309/178/171
f 111/397/160 310/174/167 134/177/170 63/398/161
f 25/399/51 179/60/60 310/174/167 111/397/160
f 179/60/60 30/59/59 158/175/168 310/174/167
f 251/163/156 311/170/163 176/173/166 60/164/157
f 29/238/225 268/56/56 311/170/163 251/163/156
f 268/56/56 28/55/55 129/171/164 311/170/163
f 212/179/172 312/166/159 267/169/162 56/180/173
f 26/260/245 209/52/52 312/166/159 212/179/172
f 209/52/52 25/51/51 111/167/160 312/166/159
f 158/175/168 313/162/155 238/165/158 59/176/169
f 30/59/59 224/239/226 313/162/155 158/175/168
f 224/239/226 29/238/225 251/163/156 313/162/155
f 121/400/328 314/158/152 235/161/150 57/401/144
f 63/398/161 134/177/170 314/158/152 121/400/328
f 134/177/170 59/176/169 218/159/153 314/158/152
f 137/157/151 270/402/149 61/342/148
f 137/157/151 235/156/150 270/402/149
f 235/156/150 62/403/154 270/402/149
f 218/159/153 315/151/146 270/154/149 62/160/154
f 59/176/169 238/165/158 315/151/146 218/159/153
f 238/165/158 60/164/157 138/152/147 315/151/146
f 139/183/176 316/147/142 255/150/145 58/184/177
f 55/172/165 196/181/174 316/147/142 139/183/176
f 196/181/174 56/180/173 269/148/143 316/147/142
f 186/404/237 317/143/138 185/146/141 54/405/221
f 51/370/252 213/277/261 317/143/138 186/404/237
f 213/277/261 52/276/260 100/144/139 317/143/138
f 261/128/123 318/139/134 151/142/137 46/129/124
f 34/406/329 162/70/70 318/139/134 261/128/123
f 162/70/70 33/69/69 142/140/135 318/139/134
f 156/186/179 319/135/130 190/138/133 50/387/182
f 14/89/86 171/88/85 319/135/130 156/186/179
f 171/88/85 40/93/90 215/136/131 319/135/130
f 142/140/135 320/131/126 182/134/129 49/141/136
f 33/69/69 130/407/330 320/131/126 142/140/135
f 130/407/330 38/392/326 95/132/127 320/131/126
f 215/136/131 321/127/122 149/130/125 47/137/132
f 40/93/90 105/92/89 321/127/122 215/136/131
f 105/92/89 34/406/329 261/128/123 321/127/122
f 113/408/331 322/124/119 170/126/121 5/409/332
f 8/410/333 198/411/334 322/124/119 113/408/331
f 198/411/334 39/122/117 206/121/116 322/124/119
f 197/412/335 323/120/115 271/123/118 13/413/336
f 42/414/337 246/415/338 323/120/115 197/412/335
f 246/415/338 41/125/120 206/121/116 323/120/115
f 122/416/339 324/116/111 159/119/114 45/417/340
f 44/418/341 256/113/108 324/116/111 122/416/339
f 256/113/108 1/112/107 174/117/112 324/116/111
f 110/419/342 325/114/109 123/98/95 43/97/94
f 45/417/340 159/119/114 325/114/109 110/419/342
f 159/119/114 4/118/113 272/115/110 325/114/109
f 252/420/343 326/110/105 256/113/108 44/418/341
f 36/421/344 135/422/345 326/110/105 252/420/343
f 135/422/345 35/423/346 232/111/106 326/110/105
f 219/424/6 327/106/103 160/109/100 7/425/7
f 6/426/347 191/427/348 327/106/103 219/424/6
f 191/427/348 35/423/346 221/107/104 327/106/103
f 130/407/330 328/102/99 108/105/102 38/392/326
f 33/69/69 124/68/68 328/102/99 130/407/330
f 124/68/68 7/428/7 160/103/100 328/102/99
f 214/429/349 329/99/96 258/12/12 9/11/11
f 5/409/332 170/126/121 329/99/96 214/429/349
f 170/126/121 41/125/120 107/100/97 329/99/96
f 107/100/97 330/95/92 123/98/95 10/101/98
f 41/125/120 246/415/338 330/95/92 107/100/97
f 246/415/338 42/414/337 131/96/93 330/95/92
f 198/430/334 331/91/88 116/94/91 39/431/117
f 8/432/333 194/433/350 331/91/88 198/430/334
f 194/433/350 34/406/329 105/92/89 331/91/88
f 271/434/118 332/87/84 96/90/87 13/435/336
f 39/431/117 116/94/91 332/87/84 271/434/118
f 116/94/91 40/93/90 171/88/85 332/87/84
f 177/393/327 333/83/83 102/86/20 15/394/19
f 38/392/326 108/105/102 333/83/83 177/393/327
f 108/105/102 37/104/101 262/84/82 333/83/83
f 221/107/104 334/79/79 262/82/82 37/108/101
f 35/423/346 135/422/345 334/79/79 221/107/104
f 135/422/345 36/421/344 161/80/80 334/79/79
f 232/111/106 335/75/75 192/78/78 1/112/107
f 35/423/346 191/427/348 335/75/75 232/111/106
f 191/427/348 6/426/347 143/76/76 335/75/75
f 245/436/351 336/71/71 247/74/74 18/437/352
f 2/77/77 143/76/76 336/71/71 245/436/351
f 143/76/76 6/426/347 101/72/72 336/71/71
f 194/433/350 337/67/67 162/70/70 34/406/329
f 8/432/333 140/438/8 337/67/67 194/433/350
f 140/438/8 7/428/7 124/68/68 337/67/67
f 101/439/72 338/65/65 180/66/66 19/440/73
f 6/441/347 128/442/353 338/65/65 101/439/72
f 128/442/353 5/409/332 132/16/16 338/65/65
f 117/279/263 339/61/61 226/64/64 32/280/264
f 22/368/35 222/443/324 339/61/61 117/279/263
f 222/443/324 27/361/322 263/62/62 339/61/61
f 201/444/50 340/57/57 179/60/60 25/399/51
f 21/445/43 242/32/32 340/57/57 201/444/50
f 242/32/32 20/31/31 264/58/58 340/57/57
f 216/237/224 341/53/53 268/56/56 29/238/225
f 24/39/39 203/446/323 341/53/53 216/237/224
f 203/446/323 27/373/322 183/54/54 341/53/53
f 120/259/244 342/49/49 209/52/52 26/260/245
f 22/35/35 112/44/44 342/49/49 120/259/244
f 112/44/44 21/43/43 201/50/50 342/49/49
f 92/38/38 343/45/45 125/48/48 24/39/39
f 11/23/23 147/22/22 343/45/45 92/38/38
f 147/22/22 17/27/27 227/46/46 343/45/45
f 126/34/34 344/41/41 112/44/44 22/35/35
f 18/437/352 247/74/74 344/41/41 126/34/34
f 247/74/74 19/73/73 231/42/42 344/41/41
f 93/30/30 345/37/37 152/40/40 20/31/31
f 12/15/15 243/14/14 345/37/37 93/30/30
f 243/14/14 11/23/23 92/38/38 345/37/37
f 227/46/46 346/33/33 207/36/36 23/47/47
f 17/27/27 172/26/26 346/33/33 227/46/46
f 172/26/26 18/437/352 126/34/34 346/33/33
f 231/447/42 347/29/29 242/32/32 21/445/43
f 19/440/73 180/66/66 347/29/29 231/447/42
f 180/66/66 12/15/15 93/30/30 347/29/29
f 257/2/2 348/25/25 204/28/28 3/3/3
f 2/77/77 245/436/351 348/25/25 257/2/2
f 245/436/351 18/437/352 172/26/26 348/25/25
f 248/10/10 349/21/21 173/24/24 9/11/11
f 3/3/3 204/28/28 349/21/21 248/10/10
f 204/28/28 17/27/27 147/22/22 349/21/21
f 265/448/354 350/17/17 102/20/20 16/449/81
f 13/435/336 96/90/87 350/17/17 265/448/354
f 96/90/87 14/89/86 187/18/18 350/17/17
f 214/429/349 351/13/13 132/16/16 5/409/332
f 9/11/11 173/24/24 351/13/13 214/429/349
f 173/24/24 11/23/23 243/14/14 351/13/13
f 272/115/110 352/9/9 258/12/12 10/101/98
f 4/118/113 155/4/4 352/9/9 272/115/110
f 155/4/4 3/3/3 248/10/10 352/9/9
f 113/450/331 353/5/5 140/8/8 8/451/333
f 5/409/332 128/442/353 353/5/5 113/450/331
f 128/442/353 6/441/347 219/6/6 353/5/5
f 174/117/112 354/1/1 155/4/4 4/118/113
f 1/112/107 192/78/78 354/1/1 174/117/112
f 192/78/78 2/77/77 257/2/2 354/1/1
